mesure_id;slave_id;executor_id;heron_instances;cpus_limit;timestamp_B;cpus_system_time_secs_B;cpus_user_time_secs_B;cpus_throttled_time_secs_B;processes;threads
0;paravance-31.rennes.grid5000.fr;thermos-root-devel-WordCountTopology-0-1b966f44-e454-4c3a-a014-1fa493c9d3cc;["topology_master"];1.25;1533506471.19355;2.69;8.87;4.084318324;9;117
0;paravance-36.rennes.grid5000.fr;thermos-root-devel-WordCountTopology-1-cac4f47b-3d43-4c49-832a-e60f508e64d8;["container_1_Consume_and_count_1"];1.25;1533506471.19994;28.89;111.09;38.111136502;10;149
0;paravance-32.rennes.grid5000.fr;thermos-root-devel-WordCountTopology-2-6139abf1-4829-4ee6-b74f-2a8de72e60a8;["container_2_Emit_random_words_2"];1.25;1533506471.19731;24.65;132.36;166.025443286;10;149
1;paravance-32.rennes.grid5000.fr;thermos-root-devel-WordCountTopology-2-6139abf1-4829-4ee6-b74f-2a8de72e60a8;["container_2_Emit_random_words_2"];1.25;1533506481.41069;26.54;142.52;175.683607296;10;149
1;paravance-36.rennes.grid5000.fr;thermos-root-devel-WordCountTopology-1-cac4f47b-3d43-4c49-832a-e60f508e64d8;["container_1_Consume_and_count_1"];1.25;1533506481.42278;31.17;120.24;40.107858314;10;149
1;paravance-31.rennes.grid5000.fr;thermos-root-devel-WordCountTopology-0-1b966f44-e454-4c3a-a014-1fa493c9d3cc;["topology_master"];1.25;1533506481.41267;2.78;9.0;4.084318324;9;117
2;paravance-31.rennes.grid5000.fr;thermos-root-devel-WordCountTopology-0-1b966f44-e454-4c3a-a014-1fa493c9d3cc;["topology_master"];1.25;1533506491.62663;2.81;9.03;4.084318324;9;117
2;paravance-32.rennes.grid5000.fr;thermos-root-devel-WordCountTopology-2-6139abf1-4829-4ee6-b74f-2a8de72e60a8;["container_2_Emit_random_words_2"];1.25;1533506491.6271;28.47;152.57;186.082043446;10;149
2;paravance-36.rennes.grid5000.fr;thermos-root-devel-WordCountTopology-1-cac4f47b-3d43-4c49-832a-e60f508e64d8;["container_1_Consume_and_count_1"];1.25;1533506491.64417;33.37;129.28;41.387104465;10;149
3;paravance-31.rennes.grid5000.fr;thermos-root-devel-WordCountTopology-0-1b966f44-e454-4c3a-a014-1fa493c9d3cc;["topology_master"];1.25;1533506501.84301;2.9;9.15;4.084318324;9;117
3;paravance-32.rennes.grid5000.fr;thermos-root-devel-WordCountTopology-2-6139abf1-4829-4ee6-b74f-2a8de72e60a8;["container_2_Emit_random_words_2"];1.25;1533506501.84329;30.38;162.64;197.382989532;10;149
3;paravance-36.rennes.grid5000.fr;thermos-root-devel-WordCountTopology-1-cac4f47b-3d43-4c49-832a-e60f508e64d8;["container_1_Consume_and_count_1"];1.25;1533506501.86472;35.66;138.56;44.085579946;10;149
4;paravance-32.rennes.grid5000.fr;thermos-root-devel-WordCountTopology-2-6139abf1-4829-4ee6-b74f-2a8de72e60a8;["container_2_Emit_random_words_2"];1.25;1533506511.95691;32.29;172.65;207.567293913;10;149
4;paravance-31.rennes.grid5000.fr;thermos-root-devel-WordCountTopology-0-1b966f44-e454-4c3a-a014-1fa493c9d3cc;["topology_master"];1.25;1533506512.05715;2.96;9.23;4.084318324;9;117
4;paravance-36.rennes.grid5000.fr;thermos-root-devel-WordCountTopology-1-cac4f47b-3d43-4c49-832a-e60f508e64d8;["container_1_Consume_and_count_1"];1.25;1533506512.08428;37.88;147.76;46.163996081;10;149
5;paravance-31.rennes.grid5000.fr;thermos-root-devel-WordCountTopology-0-1b966f44-e454-4c3a-a014-1fa493c9d3cc;["topology_master"];1.25;1533506522.2728;3.06;9.37;4.09235056;9;117
5;paravance-36.rennes.grid5000.fr;thermos-root-devel-WordCountTopology-1-cac4f47b-3d43-4c49-832a-e60f508e64d8;["container_1_Consume_and_count_1"];1.25;1533506522.30531;40.07;156.6;47.19611949;10;149
5;paravance-32.rennes.grid5000.fr;thermos-root-devel-WordCountTopology-2-6139abf1-4829-4ee6-b74f-2a8de72e60a8;["container_2_Emit_random_words_2"];1.25;1533506522.27605;34.28;182.76;218.832519656;10;149
6;paravance-32.rennes.grid5000.fr;thermos-root-devel-WordCountTopology-2-6139abf1-4829-4ee6-b74f-2a8de72e60a8;["container_2_Emit_random_words_2"];1.25;1533506532.48917;36.15;192.78;230.812041956;10;149
6;paravance-36.rennes.grid5000.fr;thermos-root-devel-WordCountTopology-1-cac4f47b-3d43-4c49-832a-e60f508e64d8;["container_1_Consume_and_count_1"];1.25;1533506532.52726;42.21;165.37;48.55964297;10;149
6;paravance-31.rennes.grid5000.fr;thermos-root-devel-WordCountTopology-0-1b966f44-e454-4c3a-a014-1fa493c9d3cc;["topology_master"];1.25;1533506532.49121;3.12;9.5;4.09235056;9;117
7;paravance-36.rennes.grid5000.fr;thermos-root-devel-WordCountTopology-1-cac4f47b-3d43-4c49-832a-e60f508e64d8;["container_1_Consume_and_count_1"];1.25;1533506542.74714;44.48;174.56;50.445634302;10;149
7;paravance-31.rennes.grid5000.fr;thermos-root-devel-WordCountTopology-0-1b966f44-e454-4c3a-a014-1fa493c9d3cc;["topology_master"];1.25;1533506542.70607;3.22;9.64;4.120397714;9;117
7;paravance-32.rennes.grid5000.fr;thermos-root-devel-WordCountTopology-2-6139abf1-4829-4ee6-b74f-2a8de72e60a8;["container_2_Emit_random_words_2"];1.25;1533506542.70636;38.06;202.76;241.740575606;10;149
8;paravance-31.rennes.grid5000.fr;thermos-root-devel-WordCountTopology-0-1b966f44-e454-4c3a-a014-1fa493c9d3cc;["topology_master"];1.25;1533506552.8225;3.28;9.71;4.120397714;9;117
8;paravance-36.rennes.grid5000.fr;thermos-root-devel-WordCountTopology-1-cac4f47b-3d43-4c49-832a-e60f508e64d8;["container_1_Consume_and_count_1"];1.25;1533506552.96784;46.61;183.58;52.312661971;10;149
8;paravance-32.rennes.grid5000.fr;thermos-root-devel-WordCountTopology-2-6139abf1-4829-4ee6-b74f-2a8de72e60a8;["container_2_Emit_random_words_2"];1.25;1533506552.92196;39.89;212.81;252.334130435;10;149
9;paravance-36.rennes.grid5000.fr;thermos-root-devel-WordCountTopology-1-cac4f47b-3d43-4c49-832a-e60f508e64d8;["container_1_Consume_and_count_1"];1.25;1533506563.18751;48.78;193.31;59.008493185;10;149
9;paravance-31.rennes.grid5000.fr;thermos-root-devel-WordCountTopology-0-1b966f44-e454-4c3a-a014-1fa493c9d3cc;["topology_master"];1.25;1533506563.13771;3.34;9.8;4.120397714;9;117
9;paravance-32.rennes.grid5000.fr;thermos-root-devel-WordCountTopology-2-6139abf1-4829-4ee6-b74f-2a8de72e60a8;["container_2_Emit_random_words_2"];1.25;1533506563.13754;41.81;222.84;263.659738667;10;149
10;paravance-32.rennes.grid5000.fr;thermos-root-devel-WordCountTopology-2-6139abf1-4829-4ee6-b74f-2a8de72e60a8;["container_2_Emit_random_words_2"];1.25;1533506573.35276;43.66;232.99;275.333952257;10;149
10;paravance-36.rennes.grid5000.fr;thermos-root-devel-WordCountTopology-1-cac4f47b-3d43-4c49-832a-e60f508e64d8;["container_1_Consume_and_count_1"];1.25;1533506573.41029;50.98;202.68;64.93332988;10;149
10;paravance-31.rennes.grid5000.fr;thermos-root-devel-WordCountTopology-0-1b966f44-e454-4c3a-a014-1fa493c9d3cc;["topology_master"];1.25;1533506573.35419;3.4;9.87;4.120397714;9;117
11;paravance-32.rennes.grid5000.fr;thermos-root-devel-WordCountTopology-2-6139abf1-4829-4ee6-b74f-2a8de72e60a8;["container_2_Emit_random_words_2"];1.25;1533506583.56974;45.53;243.08;285.885745761;10;149
11;paravance-31.rennes.grid5000.fr;thermos-root-devel-WordCountTopology-0-1b966f44-e454-4c3a-a014-1fa493c9d3cc;["topology_master"];1.25;1533506583.57132;3.53;10.09;4.120397714;9;117
11;paravance-36.rennes.grid5000.fr;thermos-root-devel-WordCountTopology-1-cac4f47b-3d43-4c49-832a-e60f508e64d8;["container_1_Consume_and_count_1"];1.25;1533506583.63228;53.2;211.67;67.638180356;10;149
12;paravance-32.rennes.grid5000.fr;thermos-root-devel-WordCountTopology-2-6139abf1-4829-4ee6-b74f-2a8de72e60a8;["container_2_Emit_random_words_2"];1.25;1533506593.78552;47.33;253.15;297.794065153;10;149
12;paravance-31.rennes.grid5000.fr;thermos-root-devel-WordCountTopology-0-1b966f44-e454-4c3a-a014-1fa493c9d3cc;["topology_master"];1.25;1533506593.78698;3.56;10.2;4.120397714;9;117
12;paravance-36.rennes.grid5000.fr;thermos-root-devel-WordCountTopology-1-cac4f47b-3d43-4c49-832a-e60f508e64d8;["container_1_Consume_and_count_1"];1.25;1533506593.8479;55.4;220.75;73.063382227;10;149
13;paravance-32.rennes.grid5000.fr;thermos-root-devel-WordCountTopology-2-6139abf1-4829-4ee6-b74f-2a8de72e60a8;["container_2_Emit_random_words_2"];1.25;1533506604.00478;49.18;263.17;308.831276426;10;149
13;paravance-31.rennes.grid5000.fr;thermos-root-devel-WordCountTopology-0-1b966f44-e454-4c3a-a014-1fa493c9d3cc;["topology_master"];1.25;1533506604.00587;3.65;10.33;4.120397714;9;117
13;paravance-36.rennes.grid5000.fr;thermos-root-devel-WordCountTopology-1-cac4f47b-3d43-4c49-832a-e60f508e64d8;["container_1_Consume_and_count_1"];1.25;1533506604.06735;57.61;229.65;75.731266242;10;149
14;paravance-32.rennes.grid5000.fr;thermos-root-devel-WordCountTopology-2-6139abf1-4829-4ee6-b74f-2a8de72e60a8;["container_2_Emit_random_words_2"];1.25;1533506614.22066;51.04;273.28;320.114004452;10;149
14;paravance-36.rennes.grid5000.fr;thermos-root-devel-WordCountTopology-1-cac4f47b-3d43-4c49-832a-e60f508e64d8;["container_1_Consume_and_count_1"];1.25;1533506614.28277;59.78;238.58;78.012728985;10;149
14;paravance-31.rennes.grid5000.fr;thermos-root-devel-WordCountTopology-0-1b966f44-e454-4c3a-a014-1fa493c9d3cc;["topology_master"];1.25;1533506614.22232;3.71;10.4;4.120397714;9;117
15;paravance-36.rennes.grid5000.fr;thermos-root-devel-WordCountTopology-1-cac4f47b-3d43-4c49-832a-e60f508e64d8;["container_1_Consume_and_count_1"];1.25;1533506624.49914;62.03;247.64;80.535184596;10;149
15;paravance-32.rennes.grid5000.fr;thermos-root-devel-WordCountTopology-2-6139abf1-4829-4ee6-b74f-2a8de72e60a8;["container_2_Emit_random_words_2"];1.25;1533506624.43939;52.93;283.4;331.1588761;10;149
15;paravance-31.rennes.grid5000.fr;thermos-root-devel-WordCountTopology-0-1b966f44-e454-4c3a-a014-1fa493c9d3cc;["topology_master"];1.25;1533506624.4403;3.77;10.49;4.120397714;9;117
16;paravance-36.rennes.grid5000.fr;thermos-root-devel-WordCountTopology-1-cac4f47b-3d43-4c49-832a-e60f508e64d8;["container_1_Consume_and_count_1"];1.25;1533506634.71491;64.3;256.74;83.216129545;10;149
16;paravance-32.rennes.grid5000.fr;thermos-root-devel-WordCountTopology-2-6139abf1-4829-4ee6-b74f-2a8de72e60a8;["container_2_Emit_random_words_2"];1.25;1533506634.65492;54.87;293.57;341.628598808;10;149
16;paravance-31.rennes.grid5000.fr;thermos-root-devel-WordCountTopology-0-1b966f44-e454-4c3a-a014-1fa493c9d3cc;["topology_master"];1.25;1533506634.65621;3.83;10.56;4.120397714;9;117
17;paravance-32.rennes.grid5000.fr;thermos-root-devel-WordCountTopology-2-6139abf1-4829-4ee6-b74f-2a8de72e60a8;["container_2_Emit_random_words_2"];1.25;1533506644.86981;56.75;303.64;352.428292118;10;149
17;paravance-36.rennes.grid5000.fr;thermos-root-devel-WordCountTopology-1-cac4f47b-3d43-4c49-832a-e60f508e64d8;["container_1_Consume_and_count_1"];1.25;1533506644.93275;66.57;266.01;88.470327106;10;149
17;paravance-31.rennes.grid5000.fr;thermos-root-devel-WordCountTopology-0-1b966f44-e454-4c3a-a014-1fa493c9d3cc;["topology_master"];1.25;1533506644.87151;3.95;10.77;4.120397714;9;117
18;paravance-31.rennes.grid5000.fr;thermos-root-devel-WordCountTopology-0-1b966f44-e454-4c3a-a014-1fa493c9d3cc;["topology_master"];1.25;1533506655.08672;3.98;10.8;4.120397714;9;117
18;paravance-32.rennes.grid5000.fr;thermos-root-devel-WordCountTopology-2-6139abf1-4829-4ee6-b74f-2a8de72e60a8;["container_2_Emit_random_words_2"];1.25;1533506655.08692;58.6;313.71;362.753338521;10;149
18;paravance-36.rennes.grid5000.fr;thermos-root-devel-WordCountTopology-1-cac4f47b-3d43-4c49-832a-e60f508e64d8;["container_1_Consume_and_count_1"];1.25;1533506655.1496;68.71;275.08;91.969097427;10;149
19;paravance-32.rennes.grid5000.fr;thermos-root-devel-WordCountTopology-2-6139abf1-4829-4ee6-b74f-2a8de72e60a8;["container_2_Emit_random_words_2"];1.25;1533506665.30194;60.47;323.84;374.283109268;10;149
19;paravance-36.rennes.grid5000.fr;thermos-root-devel-WordCountTopology-1-cac4f47b-3d43-4c49-832a-e60f508e64d8;["container_1_Consume_and_count_1"];1.25;1533506665.36441;70.95;284.01;95.618451432;10;149
19;paravance-31.rennes.grid5000.fr;thermos-root-devel-WordCountTopology-0-1b966f44-e454-4c3a-a014-1fa493c9d3cc;["topology_master"];1.25;1533506665.30364;4.07;10.93;4.120397714;9;117
20;paravance-32.rennes.grid5000.fr;thermos-root-devel-WordCountTopology-2-6139abf1-4829-4ee6-b74f-2a8de72e60a8;["container_2_Emit_random_words_2"];1.25;1533506675.51825;62.3;333.89;385.090795515;10;149
20;paravance-31.rennes.grid5000.fr;thermos-root-devel-WordCountTopology-0-1b966f44-e454-4c3a-a014-1fa493c9d3cc;["topology_master"];1.25;1533506675.52023;4.13;11.0;4.120397714;9;117
20;paravance-36.rennes.grid5000.fr;thermos-root-devel-WordCountTopology-1-cac4f47b-3d43-4c49-832a-e60f508e64d8;["container_1_Consume_and_count_1"];1.25;1533506675.58132;73.13;292.88;98.053568474;10;149
21;paravance-31.rennes.grid5000.fr;thermos-root-devel-WordCountTopology-0-1b966f44-e454-4c3a-a014-1fa493c9d3cc;["topology_master"];1.25;1533506685.73575;4.19;11.08;4.120397714;9;117
21;paravance-32.rennes.grid5000.fr;thermos-root-devel-WordCountTopology-2-6139abf1-4829-4ee6-b74f-2a8de72e60a8;["container_2_Emit_random_words_2"];1.25;1533506685.73509;64.2;343.92;396.284408814;10;149
21;paravance-36.rennes.grid5000.fr;thermos-root-devel-WordCountTopology-1-cac4f47b-3d43-4c49-832a-e60f508e64d8;["container_1_Consume_and_count_1"];1.25;1533506685.7962;75.4;302.0;100.95972881;10;149
22;paravance-36.rennes.grid5000.fr;thermos-root-devel-WordCountTopology-1-cac4f47b-3d43-4c49-832a-e60f508e64d8;["container_1_Consume_and_count_1"];1.25;1533506696.01225;77.66;311.21;104.533875906;10;149
22;paravance-31.rennes.grid5000.fr;thermos-root-devel-WordCountTopology-0-1b966f44-e454-4c3a-a014-1fa493c9d3cc;["topology_master"];1.25;1533506695.95154;4.25;11.15;4.120397714;9;117
22;paravance-32.rennes.grid5000.fr;thermos-root-devel-WordCountTopology-2-6139abf1-4829-4ee6-b74f-2a8de72e60a8;["container_2_Emit_random_words_2"];1.25;1533506695.95236;66.06;353.99;406.34227187;10;149
23;paravance-36.rennes.grid5000.fr;thermos-root-devel-WordCountTopology-1-cac4f47b-3d43-4c49-832a-e60f508e64d8;["container_1_Consume_and_count_1"];1.25;1533506706.22938;79.95;320.41;109.080054645;10;150
23;paravance-31.rennes.grid5000.fr;thermos-root-devel-WordCountTopology-0-1b966f44-e454-4c3a-a014-1fa493c9d3cc;["topology_master"];1.25;1533506706.16914;4.36;11.35;4.120397714;9;117
23;paravance-32.rennes.grid5000.fr;thermos-root-devel-WordCountTopology-2-6139abf1-4829-4ee6-b74f-2a8de72e60a8;["container_2_Emit_random_words_2"];1.25;1533506706.17025;67.96;364.12;416.619749007;10;149
24;paravance-32.rennes.grid5000.fr;thermos-root-devel-WordCountTopology-2-6139abf1-4829-4ee6-b74f-2a8de72e60a8;["container_2_Emit_random_words_2"];1.25;1533506716.38503;69.84;374.3;426.193895743;10;149
24;paravance-31.rennes.grid5000.fr;thermos-root-devel-WordCountTopology-0-1b966f44-e454-4c3a-a014-1fa493c9d3cc;["topology_master"];1.25;1533506716.38541;4.39;11.38;4.120397714;9;117
24;paravance-36.rennes.grid5000.fr;thermos-root-devel-WordCountTopology-1-cac4f47b-3d43-4c49-832a-e60f508e64d8;["container_1_Consume_and_count_1"];1.25;1533506716.44742;82.21;329.75;113.087499167;10;150
25;paravance-31.rennes.grid5000.fr;thermos-root-devel-WordCountTopology-0-1b966f44-e454-4c3a-a014-1fa493c9d3cc;["topology_master"];1.25;1533506726.60214;4.48;11.5;4.120397714;9;117
25;paravance-36.rennes.grid5000.fr;thermos-root-devel-WordCountTopology-1-cac4f47b-3d43-4c49-832a-e60f508e64d8;["container_1_Consume_and_count_1"];1.25;1533506726.66276;84.51;339.44;127.260223536;10;149
25;paravance-32.rennes.grid5000.fr;thermos-root-devel-WordCountTopology-2-6139abf1-4829-4ee6-b74f-2a8de72e60a8;["container_2_Emit_random_words_2"];1.25;1533506726.60224;71.77;384.43;436.313920618;10;149
26;paravance-31.rennes.grid5000.fr;thermos-root-devel-WordCountTopology-0-1b966f44-e454-4c3a-a014-1fa493c9d3cc;["topology_master"];1.25;1533506736.81895;4.53;11.57;4.120397714;9;117
26;paravance-36.rennes.grid5000.fr;thermos-root-devel-WordCountTopology-1-cac4f47b-3d43-4c49-832a-e60f508e64d8;["container_1_Consume_and_count_1"];1.25;1533506736.87952;86.54;349.48;143.206935747;10;149
26;paravance-32.rennes.grid5000.fr;thermos-root-devel-WordCountTopology-2-6139abf1-4829-4ee6-b74f-2a8de72e60a8;["container_2_Emit_random_words_2"];1.25;1533506736.81853;73.36;393.07;443.992703085;10;149
27;paravance-31.rennes.grid5000.fr;thermos-root-devel-WordCountTopology-0-1b966f44-e454-4c3a-a014-1fa493c9d3cc;["topology_master"];1.25;1533506746.93434;4.59;11.65;4.120397714;9;117
27;paravance-36.rennes.grid5000.fr;thermos-root-devel-WordCountTopology-1-cac4f47b-3d43-4c49-832a-e60f508e64d8;["container_1_Consume_and_count_1"];1.25;1533506747.09308;88.84;359.27;157.032935283;10;149
27;paravance-32.rennes.grid5000.fr;thermos-root-devel-WordCountTopology-2-6139abf1-4829-4ee6-b74f-2a8de72e60a8;["container_2_Emit_random_words_2"];1.25;1533506747.03502;75.27;403.1;455.02603441;10;149
28;paravance-31.rennes.grid5000.fr;thermos-root-devel-WordCountTopology-0-1b966f44-e454-4c3a-a014-1fa493c9d3cc;["topology_master"];1.25;1533506757.2495;4.65;11.72;4.120397714;9;117
28;paravance-32.rennes.grid5000.fr;thermos-root-devel-WordCountTopology-2-6139abf1-4829-4ee6-b74f-2a8de72e60a8;["container_2_Emit_random_words_2"];1.25;1533506757.24927;77.19;413.21;465.583396421;10;149
28;paravance-36.rennes.grid5000.fr;thermos-root-devel-WordCountTopology-1-cac4f47b-3d43-4c49-832a-e60f508e64d8;["container_1_Consume_and_count_1"];1.25;1533506757.31242;91.08;368.79;165.780563107;10;149
29;paravance-32.rennes.grid5000.fr;thermos-root-devel-WordCountTopology-2-6139abf1-4829-4ee6-b74f-2a8de72e60a8;["container_2_Emit_random_words_2"];1.25;1533506767.46438;79.07;423.25;476.334396533;10;149
29;paravance-36.rennes.grid5000.fr;thermos-root-devel-WordCountTopology-1-cac4f47b-3d43-4c49-832a-e60f508e64d8;["container_1_Consume_and_count_1"];1.25;1533506767.52683;93.32;377.68;170.423580292;10;149
29;paravance-31.rennes.grid5000.fr;thermos-root-devel-WordCountTopology-0-1b966f44-e454-4c3a-a014-1fa493c9d3cc;["topology_master"];1.25;1533506767.46654;4.76;11.89;4.120397714;9;117
30;paravance-31.rennes.grid5000.fr;thermos-root-devel-WordCountTopology-0-1b966f44-e454-4c3a-a014-1fa493c9d3cc;["topology_master"];1.25;1533506777.68123;4.82;11.97;4.120397714;9;117
30;paravance-36.rennes.grid5000.fr;thermos-root-devel-WordCountTopology-1-cac4f47b-3d43-4c49-832a-e60f508e64d8;["container_1_Consume_and_count_1"];1.25;1533506777.74257;95.52;386.73;174.240640988;10;149
30;paravance-32.rennes.grid5000.fr;thermos-root-devel-WordCountTopology-2-6139abf1-4829-4ee6-b74f-2a8de72e60a8;["container_2_Emit_random_words_2"];1.25;1533506777.68174;80.96;433.36;486.728906869;10;147
31;paravance-36.rennes.grid5000.fr;thermos-root-devel-WordCountTopology-1-cac4f47b-3d43-4c49-832a-e60f508e64d8;["container_1_Consume_and_count_1"];1.25;1533506787.9582;97.74;395.73;177.507450339;10;149
31;paravance-32.rennes.grid5000.fr;thermos-root-devel-WordCountTopology-2-6139abf1-4829-4ee6-b74f-2a8de72e60a8;["container_2_Emit_random_words_2"];1.25;1533506787.89769;82.8;443.42;497.684759792;10;149
31;paravance-31.rennes.grid5000.fr;thermos-root-devel-WordCountTopology-0-1b966f44-e454-4c3a-a014-1fa493c9d3cc;["topology_master"];1.25;1533506787.89862;4.88;12.04;4.120397714;9;117
32;paravance-31.rennes.grid5000.fr;thermos-root-devel-WordCountTopology-0-1b966f44-e454-4c3a-a014-1fa493c9d3cc;["topology_master"];1.25;1533506798.11256;4.97;12.16;4.120397714;9;117
32;paravance-32.rennes.grid5000.fr;thermos-root-devel-WordCountTopology-2-6139abf1-4829-4ee6-b74f-2a8de72e60a8;["container_2_Emit_random_words_2"];1.25;1533506798.11297;84.67;453.43;508.452619881;10;149
32;paravance-36.rennes.grid5000.fr;thermos-root-devel-WordCountTopology-1-cac4f47b-3d43-4c49-832a-e60f508e64d8;["container_1_Consume_and_count_1"];1.25;1533506798.17415;100.06;404.89;182.077080838;10;149
33;paravance-32.rennes.grid5000.fr;thermos-root-devel-WordCountTopology-2-6139abf1-4829-4ee6-b74f-2a8de72e60a8;["container_2_Emit_random_words_2"];1.25;1533506808.32818;86.53;463.58;519.460561472;10;149
33;paravance-31.rennes.grid5000.fr;thermos-root-devel-WordCountTopology-0-1b966f44-e454-4c3a-a014-1fa493c9d3cc;["topology_master"];1.25;1533506808.32952;5.0;12.19;4.120397714;9;117
33;paravance-36.rennes.grid5000.fr;thermos-root-devel-WordCountTopology-1-cac4f47b-3d43-4c49-832a-e60f508e64d8;["container_1_Consume_and_count_1"];1.25;1533506808.39039;102.33;414.2;185.67334557;10;149
34;paravance-36.rennes.grid5000.fr;thermos-root-devel-WordCountTopology-1-cac4f47b-3d43-4c49-832a-e60f508e64d8;["container_1_Consume_and_count_1"];1.25;1533506818.60525;104.58;423.08;189.275022825;10;149
34;paravance-31.rennes.grid5000.fr;thermos-root-devel-WordCountTopology-0-1b966f44-e454-4c3a-a014-1fa493c9d3cc;["topology_master"];1.25;1533506818.54427;5.1;12.32;4.120397714;9;117
34;paravance-32.rennes.grid5000.fr;thermos-root-devel-WordCountTopology-2-6139abf1-4829-4ee6-b74f-2a8de72e60a8;["container_2_Emit_random_words_2"];1.25;1533506818.54453;88.48;473.64;530.528452348;10;149
35;paravance-32.rennes.grid5000.fr;thermos-root-devel-WordCountTopology-2-6139abf1-4829-4ee6-b74f-2a8de72e60a8;["container_2_Emit_random_words_2"];1.25;1533506828.76072;90.38;483.64;541.742895371;10;149
35;paravance-31.rennes.grid5000.fr;thermos-root-devel-WordCountTopology-0-1b966f44-e454-4c3a-a014-1fa493c9d3cc;["topology_master"];1.25;1533506828.76225;5.17;12.5;4.120397714;9;117
35;paravance-36.rennes.grid5000.fr;thermos-root-devel-WordCountTopology-1-cac4f47b-3d43-4c49-832a-e60f508e64d8;["container_1_Consume_and_count_1"];1.25;1533506828.82287;106.82;432.21;193.493137947;10;149
36;paravance-32.rennes.grid5000.fr;thermos-root-devel-WordCountTopology-2-6139abf1-4829-4ee6-b74f-2a8de72e60a8;["container_2_Emit_random_words_2"];1.25;1533506838.97754;92.28;493.8;552.214261995;10;149
36;paravance-31.rennes.grid5000.fr;thermos-root-devel-WordCountTopology-0-1b966f44-e454-4c3a-a014-1fa493c9d3cc;["topology_master"];1.25;1533506838.97887;5.22;12.57;4.120397714;9;117
36;paravance-36.rennes.grid5000.fr;thermos-root-devel-WordCountTopology-1-cac4f47b-3d43-4c49-832a-e60f508e64d8;["container_1_Consume_and_count_1"];1.25;1533506839.03941;109.08;441.27;196.585581929;10;149
37;paravance-32.rennes.grid5000.fr;thermos-root-devel-WordCountTopology-2-6139abf1-4829-4ee6-b74f-2a8de72e60a8;["container_2_Emit_random_words_2"];1.25;1533506849.19394;94.14;503.92;563.11875972;10;149
37;paravance-31.rennes.grid5000.fr;thermos-root-devel-WordCountTopology-0-1b966f44-e454-4c3a-a014-1fa493c9d3cc;["topology_master"];1.25;1533506849.19449;5.28;12.64;4.120397714;9;117
37;paravance-36.rennes.grid5000.fr;thermos-root-devel-WordCountTopology-1-cac4f47b-3d43-4c49-832a-e60f508e64d8;["container_1_Consume_and_count_1"];1.25;1533506849.25565;111.26;450.13;199.140871259;10;149
38;paravance-31.rennes.grid5000.fr;thermos-root-devel-WordCountTopology-0-1b966f44-e454-4c3a-a014-1fa493c9d3cc;["topology_master"];1.25;1533506859.41091;5.36;12.76;4.120397714;9;117
38;paravance-36.rennes.grid5000.fr;thermos-root-devel-WordCountTopology-1-cac4f47b-3d43-4c49-832a-e60f508e64d8;["container_1_Consume_and_count_1"];1.25;1533506859.47083;113.52;459.22;202.754916182;10;149
38;paravance-32.rennes.grid5000.fr;thermos-root-devel-WordCountTopology-2-6139abf1-4829-4ee6-b74f-2a8de72e60a8;["container_2_Emit_random_words_2"];1.25;1533506859.41021;96.09;513.94;573.746282898;10;149
39;paravance-32.rennes.grid5000.fr;thermos-root-devel-WordCountTopology-2-6139abf1-4829-4ee6-b74f-2a8de72e60a8;["container_2_Emit_random_words_2"];1.25;1533506869.62578;98.07;523.95;584.562346672;10;149
39;paravance-31.rennes.grid5000.fr;thermos-root-devel-WordCountTopology-0-1b966f44-e454-4c3a-a014-1fa493c9d3cc;["topology_master"];1.25;1533506869.62768;5.42;12.83;4.120397714;9;117
39;paravance-36.rennes.grid5000.fr;thermos-root-devel-WordCountTopology-1-cac4f47b-3d43-4c49-832a-e60f508e64d8;["container_1_Consume_and_count_1"];1.25;1533506869.68743;115.75;468.36;204.339258158;10;149
40;paravance-36.rennes.grid5000.fr;thermos-root-devel-WordCountTopology-1-cac4f47b-3d43-4c49-832a-e60f508e64d8;["container_1_Consume_and_count_1"];1.25;1533506879.91521;118.01;477.32;206.893390908;10;149
40;paravance-31.rennes.grid5000.fr;thermos-root-devel-WordCountTopology-0-1b966f44-e454-4c3a-a014-1fa493c9d3cc;["topology_master"];1.25;1533506879.85511;5.49;12.93;4.120397714;9;117
40;paravance-32.rennes.grid5000.fr;thermos-root-devel-WordCountTopology-2-6139abf1-4829-4ee6-b74f-2a8de72e60a8;["container_2_Emit_random_words_2"];1.25;1533506879.85711;99.99;533.98;595.193061991;10;149
41;paravance-32.rennes.grid5000.fr;thermos-root-devel-WordCountTopology-2-6139abf1-4829-4ee6-b74f-2a8de72e60a8;["container_2_Emit_random_words_2"];1.25;1533506890.07125;101.9;544.07;604.884302582;10;149
41;paravance-31.rennes.grid5000.fr;thermos-root-devel-WordCountTopology-0-1b966f44-e454-4c3a-a014-1fa493c9d3cc;["topology_master"];1.25;1533506890.07326;5.55;13.04;4.120397714;9;117
41;paravance-36.rennes.grid5000.fr;thermos-root-devel-WordCountTopology-1-cac4f47b-3d43-4c49-832a-e60f508e64d8;["container_1_Consume_and_count_1"];1.25;1533506890.13279;120.3;486.64;212.304977664;10;149
42;paravance-36.rennes.grid5000.fr;thermos-root-devel-WordCountTopology-1-cac4f47b-3d43-4c49-832a-e60f508e64d8;["container_1_Consume_and_count_1"];1.25;1533506900.34828;122.54;495.77;215.401160433;10;149
42;paravance-31.rennes.grid5000.fr;thermos-root-devel-WordCountTopology-0-1b966f44-e454-4c3a-a014-1fa493c9d3cc;["topology_master"];1.25;1533506900.28938;5.64;13.16;4.120397714;9;117
42;paravance-32.rennes.grid5000.fr;thermos-root-devel-WordCountTopology-2-6139abf1-4829-4ee6-b74f-2a8de72e60a8;["container_2_Emit_random_words_2"];1.25;1533506900.28813;103.77;554.27;615.561419812;10;149
43;paravance-36.rennes.grid5000.fr;thermos-root-devel-WordCountTopology-1-cac4f47b-3d43-4c49-832a-e60f508e64d8;["container_1_Consume_and_count_1"];1.25;1533506910.56447;124.82;505.09;220.743834204;10;149
43;paravance-32.rennes.grid5000.fr;thermos-root-devel-WordCountTopology-2-6139abf1-4829-4ee6-b74f-2a8de72e60a8;["container_2_Emit_random_words_2"];1.25;1533506910.50302;105.62;564.42;626.013518829;10;149
43;paravance-31.rennes.grid5000.fr;thermos-root-devel-WordCountTopology-0-1b966f44-e454-4c3a-a014-1fa493c9d3cc;["topology_master"];1.25;1533506910.50513;5.67;13.19;4.120397714;9;117
44;paravance-31.rennes.grid5000.fr;thermos-root-devel-WordCountTopology-0-1b966f44-e454-4c3a-a014-1fa493c9d3cc;["topology_master"];1.25;1533506920.72122;5.76;13.31;4.120397714;9;117
44;paravance-32.rennes.grid5000.fr;thermos-root-devel-WordCountTopology-2-6139abf1-4829-4ee6-b74f-2a8de72e60a8;["container_2_Emit_random_words_2"];1.25;1533506920.71933;107.52;574.58;637.130235264;10;149
44;paravance-36.rennes.grid5000.fr;thermos-root-devel-WordCountTopology-1-cac4f47b-3d43-4c49-832a-e60f508e64d8;["container_1_Consume_and_count_1"];1.25;1533506920.78191;127.08;514.24;223.611845796;10;149
45;paravance-31.rennes.grid5000.fr;thermos-root-devel-WordCountTopology-0-1b966f44-e454-4c3a-a014-1fa493c9d3cc;["topology_master"];1.25;1533506930.937;5.81;13.38;4.120397714;9;117
45;paravance-32.rennes.grid5000.fr;thermos-root-devel-WordCountTopology-2-6139abf1-4829-4ee6-b74f-2a8de72e60a8;["container_2_Emit_random_words_2"];1.25;1533506930.93603;109.39;584.73;647.176955334;10;149
45;paravance-36.rennes.grid5000.fr;thermos-root-devel-WordCountTopology-1-cac4f47b-3d43-4c49-832a-e60f508e64d8;["container_1_Consume_and_count_1"];1.25;1533506930.99843;129.37;523.53;226.5960552;10;149
46;paravance-36.rennes.grid5000.fr;thermos-root-devel-WordCountTopology-1-cac4f47b-3d43-4c49-832a-e60f508e64d8;["container_1_Consume_and_count_1"];1.25;1533506941.2141;131.63;532.56;231.45461251;10;149
46;paravance-32.rennes.grid5000.fr;thermos-root-devel-WordCountTopology-2-6139abf1-4829-4ee6-b74f-2a8de72e60a8;["container_2_Emit_random_words_2"];1.25;1533506941.15325;111.33;594.82;657.846185973;10;149
46;paravance-31.rennes.grid5000.fr;thermos-root-devel-WordCountTopology-0-1b966f44-e454-4c3a-a014-1fa493c9d3cc;["topology_master"];1.25;1533506941.15502;5.88;13.46;4.120397714;9;117
47;paravance-31.rennes.grid5000.fr;thermos-root-devel-WordCountTopology-0-1b966f44-e454-4c3a-a014-1fa493c9d3cc;["topology_master"];1.25;1533506951.27157;5.95;13.6;4.120397714;9;117
47;paravance-32.rennes.grid5000.fr;thermos-root-devel-WordCountTopology-2-6139abf1-4829-4ee6-b74f-2a8de72e60a8;["container_2_Emit_random_words_2"];1.25;1533506951.37012;113.23;604.83;668.136253491;10;149
47;paravance-36.rennes.grid5000.fr;thermos-root-devel-WordCountTopology-1-cac4f47b-3d43-4c49-832a-e60f508e64d8;["container_1_Consume_and_count_1"];1.25;1533506951.43153;133.8;541.14;234.892885291;10;149
48;paravance-32.rennes.grid5000.fr;thermos-root-devel-WordCountTopology-2-6139abf1-4829-4ee6-b74f-2a8de72e60a8;["container_2_Emit_random_words_2"];1.25;1533506961.58568;115.16;614.95;678.280348112;10;149
48;paravance-31.rennes.grid5000.fr;thermos-root-devel-WordCountTopology-0-1b966f44-e454-4c3a-a014-1fa493c9d3cc;["topology_master"];1.25;1533506961.588;6.04;13.73;4.120397714;9;117
48;paravance-36.rennes.grid5000.fr;thermos-root-devel-WordCountTopology-1-cac4f47b-3d43-4c49-832a-e60f508e64d8;["container_1_Consume_and_count_1"];1.25;1533506961.64827;136.03;550.25;238.887721427;10;149
49;paravance-31.rennes.grid5000.fr;thermos-root-devel-WordCountTopology-0-1b966f44-e454-4c3a-a014-1fa493c9d3cc;["topology_master"];1.25;1533506971.80281;6.07;13.76;4.120397714;9;117
49;paravance-32.rennes.grid5000.fr;thermos-root-devel-WordCountTopology-2-6139abf1-4829-4ee6-b74f-2a8de72e60a8;["container_2_Emit_random_words_2"];1.25;1533506971.80163;117.05;625.0;688.395292731;10;149
49;paravance-36.rennes.grid5000.fr;thermos-root-devel-WordCountTopology-1-cac4f47b-3d43-4c49-832a-e60f508e64d8;["container_1_Consume_and_count_1"];1.25;1533506971.86433;138.34;559.45;243.631747147;10;149
50;paravance-32.rennes.grid5000.fr;thermos-root-devel-WordCountTopology-2-6139abf1-4829-4ee6-b74f-2a8de72e60a8;["container_2_Emit_random_words_2"];1.25;1533506982.01567;118.98;635.01;698.524198269;10;149
50;paravance-36.rennes.grid5000.fr;thermos-root-devel-WordCountTopology-1-cac4f47b-3d43-4c49-832a-e60f508e64d8;["container_1_Consume_and_count_1"];1.25;1533506982.0793;140.62;568.58;247.176332788;10;149
50;paravance-31.rennes.grid5000.fr;thermos-root-devel-WordCountTopology-0-1b966f44-e454-4c3a-a014-1fa493c9d3cc;["topology_master"];1.25;1533506982.01956;6.16;13.89;4.120397714;9;117
51;paravance-36.rennes.grid5000.fr;thermos-root-devel-WordCountTopology-1-cac4f47b-3d43-4c49-832a-e60f508e64d8;["container_1_Consume_and_count_1"];1.25;1533506992.29363;142.87;577.74;249.605148636;10;149
51;paravance-32.rennes.grid5000.fr;thermos-root-devel-WordCountTopology-2-6139abf1-4829-4ee6-b74f-2a8de72e60a8;["container_2_Emit_random_words_2"];1.25;1533506992.23311;120.86;645.04;708.688648484;10;149
51;paravance-31.rennes.grid5000.fr;thermos-root-devel-WordCountTopology-0-1b966f44-e454-4c3a-a014-1fa493c9d3cc;["topology_master"];1.25;1533506992.23513;6.21;13.96;4.120397714;9;117
52;paravance-31.rennes.grid5000.fr;thermos-root-devel-WordCountTopology-0-1b966f44-e454-4c3a-a014-1fa493c9d3cc;["topology_master"];1.25;1533507002.45074;6.28;14.05;4.120397714;9;117
52;paravance-32.rennes.grid5000.fr;thermos-root-devel-WordCountTopology-2-6139abf1-4829-4ee6-b74f-2a8de72e60a8;["container_2_Emit_random_words_2"];1.25;1533507002.44936;122.79;655.04;718.868347839;10;149
52;paravance-36.rennes.grid5000.fr;thermos-root-devel-WordCountTopology-1-cac4f47b-3d43-4c49-832a-e60f508e64d8;["container_1_Consume_and_count_1"];1.25;1533507002.51081;145.24;586.9;253.196555537;10;149
53;paravance-36.rennes.grid5000.fr;thermos-root-devel-WordCountTopology-1-cac4f47b-3d43-4c49-832a-e60f508e64d8;["container_1_Consume_and_count_1"];1.25;1533507012.6272;147.57;596.12;258.425610199;10;149
53;paravance-31.rennes.grid5000.fr;thermos-root-devel-WordCountTopology-0-1b966f44-e454-4c3a-a014-1fa493c9d3cc;["topology_master"];1.25;1533507012.6658;6.34;14.15;4.120397714;9;117
53;paravance-32.rennes.grid5000.fr;thermos-root-devel-WordCountTopology-2-6139abf1-4829-4ee6-b74f-2a8de72e60a8;["container_2_Emit_random_words_2"];1.25;1533507012.66408;124.66;665.06;729.420980699;10;149
54;paravance-32.rennes.grid5000.fr;thermos-root-devel-WordCountTopology-2-6139abf1-4829-4ee6-b74f-2a8de72e60a8;["container_2_Emit_random_words_2"];1.25;1533507022.7809;126.52;675.04;739.407358665;10;149
54;paravance-36.rennes.grid5000.fr;thermos-root-devel-WordCountTopology-1-cac4f47b-3d43-4c49-832a-e60f508e64d8;["container_1_Consume_and_count_1"];1.25;1533507022.94202;149.8;605.28;262.077461467;10;149
54;paravance-31.rennes.grid5000.fr;thermos-root-devel-WordCountTopology-0-1b966f44-e454-4c3a-a014-1fa493c9d3cc;["topology_master"];1.25;1533507022.8833;6.43;14.27;4.120397714;9;117
55;paravance-32.rennes.grid5000.fr;thermos-root-devel-WordCountTopology-2-6139abf1-4829-4ee6-b74f-2a8de72e60a8;["container_2_Emit_random_words_2"];1.25;1533507033.09672;128.39;685.26;748.778222656;10;149
55;paravance-36.rennes.grid5000.fr;thermos-root-devel-WordCountTopology-1-cac4f47b-3d43-4c49-832a-e60f508e64d8;["container_1_Consume_and_count_1"];1.25;1533507033.15817;152.09;614.5;266.33266024;10;149
55;paravance-31.rennes.grid5000.fr;thermos-root-devel-WordCountTopology-0-1b966f44-e454-4c3a-a014-1fa493c9d3cc;["topology_master"];1.25;1533507033.09924;6.46;14.3;4.120397714;9;117
56;paravance-36.rennes.grid5000.fr;thermos-root-devel-WordCountTopology-1-cac4f47b-3d43-4c49-832a-e60f508e64d8;["container_1_Consume_and_count_1"];1.25;1533507043.37366;154.37;623.54;270.168973606;10;149
56;paravance-32.rennes.grid5000.fr;thermos-root-devel-WordCountTopology-2-6139abf1-4829-4ee6-b74f-2a8de72e60a8;["container_2_Emit_random_words_2"];1.25;1533507043.31264;130.29;695.34;759.161254587;10;149
56;paravance-31.rennes.grid5000.fr;thermos-root-devel-WordCountTopology-0-1b966f44-e454-4c3a-a014-1fa493c9d3cc;["topology_master"];1.25;1533507043.31424;6.55;14.42;4.120397714;9;117
57;paravance-32.rennes.grid5000.fr;thermos-root-devel-WordCountTopology-2-6139abf1-4829-4ee6-b74f-2a8de72e60a8;["container_2_Emit_random_words_2"];1.25;1533507053.5284;132.19;705.48;769.313125336;10;149
57;paravance-36.rennes.grid5000.fr;thermos-root-devel-WordCountTopology-1-cac4f47b-3d43-4c49-832a-e60f508e64d8;["container_1_Consume_and_count_1"];1.25;1533507053.59135;156.63;632.73;273.189677723;10;149
57;paravance-31.rennes.grid5000.fr;thermos-root-devel-WordCountTopology-0-1b966f44-e454-4c3a-a014-1fa493c9d3cc;["topology_master"];1.25;1533507053.53185;6.6;14.49;4.120397714;9;117
58;paravance-32.rennes.grid5000.fr;thermos-root-devel-WordCountTopology-2-6139abf1-4829-4ee6-b74f-2a8de72e60a8;["container_2_Emit_random_words_2"];1.25;1533507063.74528;134.1;715.57;779.523536009;10;149
58;paravance-36.rennes.grid5000.fr;thermos-root-devel-WordCountTopology-1-cac4f47b-3d43-4c49-832a-e60f508e64d8;["container_1_Consume_and_count_1"];1.25;1533507063.80714;159.02;641.98;279.124538136;10;149
58;paravance-31.rennes.grid5000.fr;thermos-root-devel-WordCountTopology-0-1b966f44-e454-4c3a-a014-1fa493c9d3cc;["topology_master"];1.25;1533507063.74826;6.68;14.63;4.120397714;9;117
59;paravance-36.rennes.grid5000.fr;thermos-root-devel-WordCountTopology-1-cac4f47b-3d43-4c49-832a-e60f508e64d8;["container_1_Consume_and_count_1"];1.25;1533507074.02158;161.32;651.2;283.471994068;10;149
59;paravance-32.rennes.grid5000.fr;thermos-root-devel-WordCountTopology-2-6139abf1-4829-4ee6-b74f-2a8de72e60a8;["container_2_Emit_random_words_2"];1.25;1533507073.95979;135.97;725.62;789.649734491;10;149
59;paravance-31.rennes.grid5000.fr;thermos-root-devel-WordCountTopology-0-1b966f44-e454-4c3a-a014-1fa493c9d3cc;["topology_master"];1.25;1533507073.96334;6.74;14.71;4.120397714;9;117
60;paravance-32.rennes.grid5000.fr;thermos-root-devel-WordCountTopology-2-6139abf1-4829-4ee6-b74f-2a8de72e60a8;["container_2_Emit_random_words_2"];1.25;1533507084.17667;137.84;735.69;799.443075765;10;149
60;paravance-36.rennes.grid5000.fr;thermos-root-devel-WordCountTopology-1-cac4f47b-3d43-4c49-832a-e60f508e64d8;["container_1_Consume_and_count_1"];1.25;1533507084.23947;163.63;660.47;287.569336655;10;149
60;paravance-31.rennes.grid5000.fr;thermos-root-devel-WordCountTopology-0-1b966f44-e454-4c3a-a014-1fa493c9d3cc;["topology_master"];1.25;1533507084.17936;6.83;14.83;4.120397714;9;117
