mesure_id;slave_id;executor_id;heron_instances;cpus_limit;timestamp_A;cpus_system_time_secs_A;cpus_user_time_secs_A;cpus_throttled_time_secs_A;processes;threads
0;paravance-31.rennes.grid5000.fr;thermos-root-devel-WordCountTopology-0-1b966f44-e454-4c3a-a014-1fa493c9d3cc;["topology_master"];1.25;1533506461.08437;2.62;8.7;4.084318324;9;117
0;paravance-36.rennes.grid5000.fr;thermos-root-devel-WordCountTopology-1-cac4f47b-3d43-4c49-832a-e60f508e64d8;["container_1_Consume_and_count_1"];1.25;1533506461.08689;26.66;102.17;35.400690779;10;149
0;paravance-32.rennes.grid5000.fr;thermos-root-devel-WordCountTopology-2-6139abf1-4829-4ee6-b74f-2a8de72e60a8;["container_2_Emit_random_words_2"];1.25;1533506461.08654;22.84;122.25;154.878573306;10;149
1;paravance-32.rennes.grid5000.fr;thermos-root-devel-WordCountTopology-2-6139abf1-4829-4ee6-b74f-2a8de72e60a8;["container_2_Emit_random_words_2"];1.25;1533506471.30381;24.67;132.45;166.149028492;10;149
1;paravance-36.rennes.grid5000.fr;thermos-root-devel-WordCountTopology-1-cac4f47b-3d43-4c49-832a-e60f508e64d8;["container_1_Consume_and_count_1"];1.25;1533506471.31102;28.9;111.2;38.111136502;10;149
1;paravance-31.rennes.grid5000.fr;thermos-root-devel-WordCountTopology-0-1b966f44-e454-4c3a-a014-1fa493c9d3cc;["topology_master"];1.25;1533506471.30579;2.69;8.87;4.084318324;9;117
2;paravance-31.rennes.grid5000.fr;thermos-root-devel-WordCountTopology-0-1b966f44-e454-4c3a-a014-1fa493c9d3cc;["topology_master"];1.25;1533506481.51953;2.78;9.0;4.084318324;9;117
2;paravance-32.rennes.grid5000.fr;thermos-root-devel-WordCountTopology-2-6139abf1-4829-4ee6-b74f-2a8de72e60a8;["container_2_Emit_random_words_2"];1.25;1533506481.51983;26.56;142.62;175.764725572;10;149
2;paravance-36.rennes.grid5000.fr;thermos-root-devel-WordCountTopology-1-cac4f47b-3d43-4c49-832a-e60f508e64d8;["container_1_Consume_and_count_1"];1.25;1533506481.53084;31.19;120.32;40.15994332;10;149
3;paravance-31.rennes.grid5000.fr;thermos-root-devel-WordCountTopology-0-1b966f44-e454-4c3a-a014-1fa493c9d3cc;["topology_master"];1.25;1533506491.73739;2.81;9.03;4.084318324;9;117
3;paravance-32.rennes.grid5000.fr;thermos-root-devel-WordCountTopology-2-6139abf1-4829-4ee6-b74f-2a8de72e60a8;["container_2_Emit_random_words_2"];1.25;1533506491.73666;28.49;152.68;186.221269922;10;149
3;paravance-36.rennes.grid5000.fr;thermos-root-devel-WordCountTopology-1-cac4f47b-3d43-4c49-832a-e60f508e64d8;["container_1_Consume_and_count_1"];1.25;1533506491.75299;33.39;129.39;41.429595635;10;149
4;paravance-32.rennes.grid5000.fr;thermos-root-devel-WordCountTopology-2-6139abf1-4829-4ee6-b74f-2a8de72e60a8;["container_2_Emit_random_words_2"];1.25;1533506501.84986;30.38;162.65;197.382989532;10;149
4;paravance-31.rennes.grid5000.fr;thermos-root-devel-WordCountTopology-0-1b966f44-e454-4c3a-a014-1fa493c9d3cc;["topology_master"];1.25;1533506501.95044;2.9;9.15;4.084318324;9;117
4;paravance-36.rennes.grid5000.fr;thermos-root-devel-WordCountTopology-1-cac4f47b-3d43-4c49-832a-e60f508e64d8;["container_1_Consume_and_count_1"];1.25;1533506501.97198;35.68;138.65;44.093598734;10;149
5;paravance-31.rennes.grid5000.fr;thermos-root-devel-WordCountTopology-0-1b966f44-e454-4c3a-a014-1fa493c9d3cc;["topology_master"];1.25;1533506512.167;2.96;9.23;4.084318324;9;117
5;paravance-36.rennes.grid5000.fr;thermos-root-devel-WordCountTopology-1-cac4f47b-3d43-4c49-832a-e60f508e64d8;["container_1_Consume_and_count_1"];1.25;1533506512.19285;37.9;147.86;46.163996081;10;149
5;paravance-32.rennes.grid5000.fr;thermos-root-devel-WordCountTopology-2-6139abf1-4829-4ee6-b74f-2a8de72e60a8;["container_2_Emit_random_words_2"];1.25;1533506512.16632;32.33;172.87;207.797055048;10;149
6;paravance-32.rennes.grid5000.fr;thermos-root-devel-WordCountTopology-2-6139abf1-4829-4ee6-b74f-2a8de72e60a8;["container_2_Emit_random_words_2"];1.25;1533506522.38292;34.3;182.87;218.95624171;10;149
6;paravance-36.rennes.grid5000.fr;thermos-root-devel-WordCountTopology-1-cac4f47b-3d43-4c49-832a-e60f508e64d8;["container_1_Consume_and_count_1"];1.25;1533506522.41456;40.09;156.71;47.215932224;10;149
6;paravance-31.rennes.grid5000.fr;thermos-root-devel-WordCountTopology-0-1b966f44-e454-4c3a-a014-1fa493c9d3cc;["topology_master"];1.25;1533506522.38433;3.09;9.41;4.09235056;9;117
7;paravance-36.rennes.grid5000.fr;thermos-root-devel-WordCountTopology-1-cac4f47b-3d43-4c49-832a-e60f508e64d8;["container_1_Consume_and_count_1"];1.25;1533506532.63468;42.23;165.46;48.55969297;10;149
7;paravance-31.rennes.grid5000.fr;thermos-root-devel-WordCountTopology-0-1b966f44-e454-4c3a-a014-1fa493c9d3cc;["topology_master"];1.25;1533506532.59914;3.12;9.5;4.09235056;9;117
7;paravance-32.rennes.grid5000.fr;thermos-root-devel-WordCountTopology-2-6139abf1-4829-4ee6-b74f-2a8de72e60a8;["container_2_Emit_random_words_2"];1.25;1533506532.59975;36.17;192.88;230.854195672;10;149
8;paravance-31.rennes.grid5000.fr;thermos-root-devel-WordCountTopology-0-1b966f44-e454-4c3a-a014-1fa493c9d3cc;["topology_master"];1.25;1533506542.71551;3.22;9.64;4.120397714;9;117
8;paravance-36.rennes.grid5000.fr;thermos-root-devel-WordCountTopology-1-cac4f47b-3d43-4c49-832a-e60f508e64d8;["container_1_Consume_and_count_1"];1.25;1533506542.85647;44.49;174.65;50.489716854;10;149
8;paravance-32.rennes.grid5000.fr;thermos-root-devel-WordCountTopology-2-6139abf1-4829-4ee6-b74f-2a8de72e60a8;["container_2_Emit_random_words_2"];1.25;1533506542.81508;38.08;202.86;241.81825106;10;149
9;paravance-36.rennes.grid5000.fr;thermos-root-devel-WordCountTopology-1-cac4f47b-3d43-4c49-832a-e60f508e64d8;["container_1_Consume_and_count_1"];1.25;1533506553.07672;46.63;183.68;52.351729719;10;149
9;paravance-31.rennes.grid5000.fr;thermos-root-devel-WordCountTopology-0-1b966f44-e454-4c3a-a014-1fa493c9d3cc;["topology_master"];1.25;1533506553.03047;3.28;9.71;4.120397714;9;117
9;paravance-32.rennes.grid5000.fr;thermos-root-devel-WordCountTopology-2-6139abf1-4829-4ee6-b74f-2a8de72e60a8;["container_2_Emit_random_words_2"];1.25;1533506553.02978;39.91;212.91;252.517589664;10;149
10;paravance-32.rennes.grid5000.fr;thermos-root-devel-WordCountTopology-2-6139abf1-4829-4ee6-b74f-2a8de72e60a8;["container_2_Emit_random_words_2"];1.25;1533506563.24586;41.83;222.94;263.707790585;10;149
10;paravance-36.rennes.grid5000.fr;thermos-root-devel-WordCountTopology-1-cac4f47b-3d43-4c49-832a-e60f508e64d8;["container_1_Consume_and_count_1"];1.25;1533506563.29871;48.8;193.41;59.077146646;10;149
10;paravance-31.rennes.grid5000.fr;thermos-root-devel-WordCountTopology-0-1b966f44-e454-4c3a-a014-1fa493c9d3cc;["topology_master"];1.25;1533506563.24682;3.34;9.8;4.120397714;9;117
11;paravance-32.rennes.grid5000.fr;thermos-root-devel-WordCountTopology-2-6139abf1-4829-4ee6-b74f-2a8de72e60a8;["container_2_Emit_random_words_2"];1.25;1533506573.46274;43.69;233.11;275.46616406;10;149
11;paravance-31.rennes.grid5000.fr;thermos-root-devel-WordCountTopology-0-1b966f44-e454-4c3a-a014-1fa493c9d3cc;["topology_master"];1.25;1533506573.46451;3.4;9.88;4.120397714;9;117
11;paravance-36.rennes.grid5000.fr;thermos-root-devel-WordCountTopology-1-cac4f47b-3d43-4c49-832a-e60f508e64d8;["container_1_Consume_and_count_1"];1.25;1533506573.51988;51.01;202.77;64.946745351;10;149
12;paravance-32.rennes.grid5000.fr;thermos-root-devel-WordCountTopology-2-6139abf1-4829-4ee6-b74f-2a8de72e60a8;["container_2_Emit_random_words_2"];1.25;1533506583.67939;45.55;243.21;286.00729584;10;149
12;paravance-31.rennes.grid5000.fr;thermos-root-devel-WordCountTopology-0-1b966f44-e454-4c3a-a014-1fa493c9d3cc;["topology_master"];1.25;1533506583.6805;3.54;10.17;4.120397714;9;117
12;paravance-36.rennes.grid5000.fr;thermos-root-devel-WordCountTopology-1-cac4f47b-3d43-4c49-832a-e60f508e64d8;["container_1_Consume_and_count_1"];1.25;1533506583.74205;53.26;211.8;67.710308166;10;149
13;paravance-32.rennes.grid5000.fr;thermos-root-devel-WordCountTopology-2-6139abf1-4829-4ee6-b74f-2a8de72e60a8;["container_2_Emit_random_words_2"];1.25;1533506593.89745;47.35;253.25;297.892787421;10;149
13;paravance-31.rennes.grid5000.fr;thermos-root-devel-WordCountTopology-0-1b966f44-e454-4c3a-a014-1fa493c9d3cc;["topology_master"];1.25;1533506593.89822;3.56;10.2;4.120397714;9;117
13;paravance-36.rennes.grid5000.fr;thermos-root-devel-WordCountTopology-1-cac4f47b-3d43-4c49-832a-e60f508e64d8;["container_1_Consume_and_count_1"];1.25;1533506593.95989;55.43;220.83;73.067448959;10;149
14;paravance-32.rennes.grid5000.fr;thermos-root-devel-WordCountTopology-2-6139abf1-4829-4ee6-b74f-2a8de72e60a8;["container_2_Emit_random_words_2"];1.25;1533506604.11343;49.2;263.27;308.915397192;10;149
14;paravance-36.rennes.grid5000.fr;thermos-root-devel-WordCountTopology-1-cac4f47b-3d43-4c49-832a-e60f508e64d8;["container_1_Consume_and_count_1"];1.25;1533506604.17554;57.64;229.79;75.731266242;10;149
14;paravance-31.rennes.grid5000.fr;thermos-root-devel-WordCountTopology-0-1b966f44-e454-4c3a-a014-1fa493c9d3cc;["topology_master"];1.25;1533506604.11452;3.65;10.33;4.120397714;9;117
15;paravance-36.rennes.grid5000.fr;thermos-root-devel-WordCountTopology-1-cac4f47b-3d43-4c49-832a-e60f508e64d8;["container_1_Consume_and_count_1"];1.25;1533506614.39207;59.81;238.68;78.080804239;10;149
15;paravance-32.rennes.grid5000.fr;thermos-root-devel-WordCountTopology-2-6139abf1-4829-4ee6-b74f-2a8de72e60a8;["container_2_Emit_random_words_2"];1.25;1533506614.33184;51.06;273.39;320.352154318;10;149
15;paravance-31.rennes.grid5000.fr;thermos-root-devel-WordCountTopology-0-1b966f44-e454-4c3a-a014-1fa493c9d3cc;["topology_master"];1.25;1533506614.33276;3.71;10.41;4.120397714;9;117
16;paravance-36.rennes.grid5000.fr;thermos-root-devel-WordCountTopology-1-cac4f47b-3d43-4c49-832a-e60f508e64d8;["container_1_Consume_and_count_1"];1.25;1533506624.60888;62.05;247.73;80.63125908;10;149
16;paravance-32.rennes.grid5000.fr;thermos-root-devel-WordCountTopology-2-6139abf1-4829-4ee6-b74f-2a8de72e60a8;["container_2_Emit_random_words_2"];1.25;1533506624.54856;52.96;283.51;331.276179527;10;149
16;paravance-31.rennes.grid5000.fr;thermos-root-devel-WordCountTopology-0-1b966f44-e454-4c3a-a014-1fa493c9d3cc;["topology_master"];1.25;1533506624.54904;3.77;10.49;4.120397714;9;117
17;paravance-32.rennes.grid5000.fr;thermos-root-devel-WordCountTopology-2-6139abf1-4829-4ee6-b74f-2a8de72e60a8;["container_2_Emit_random_words_2"];1.25;1533506634.76359;54.89;293.67;341.791441374;10;149
17;paravance-36.rennes.grid5000.fr;thermos-root-devel-WordCountTopology-1-cac4f47b-3d43-4c49-832a-e60f508e64d8;["container_1_Consume_and_count_1"];1.25;1533506634.82555;64.32;256.81;83.216129545;10;149
17;paravance-31.rennes.grid5000.fr;thermos-root-devel-WordCountTopology-0-1b966f44-e454-4c3a-a014-1fa493c9d3cc;["topology_master"];1.25;1533506634.76454;3.83;10.56;4.120397714;9;117
18;paravance-31.rennes.grid5000.fr;thermos-root-devel-WordCountTopology-0-1b966f44-e454-4c3a-a014-1fa493c9d3cc;["topology_master"];1.25;1533506644.97992;3.95;10.77;4.120397714;9;117
18;paravance-32.rennes.grid5000.fr;thermos-root-devel-WordCountTopology-2-6139abf1-4829-4ee6-b74f-2a8de72e60a8;["container_2_Emit_random_words_2"];1.25;1533506644.98002;56.77;303.74;352.568211076;10;149
18;paravance-36.rennes.grid5000.fr;thermos-root-devel-WordCountTopology-1-cac4f47b-3d43-4c49-832a-e60f508e64d8;["container_1_Consume_and_count_1"];1.25;1533506645.04222;66.6;266.14;88.538428909;10;149
19;paravance-32.rennes.grid5000.fr;thermos-root-devel-WordCountTopology-2-6139abf1-4829-4ee6-b74f-2a8de72e60a8;["container_2_Emit_random_words_2"];1.25;1533506655.19511;58.62;313.81;362.837391411;10;149
19;paravance-36.rennes.grid5000.fr;thermos-root-devel-WordCountTopology-1-cac4f47b-3d43-4c49-832a-e60f508e64d8;["container_1_Consume_and_count_1"];1.25;1533506655.25726;68.74;275.16;91.993712853;10;149
19;paravance-31.rennes.grid5000.fr;thermos-root-devel-WordCountTopology-0-1b966f44-e454-4c3a-a014-1fa493c9d3cc;["topology_master"];1.25;1533506655.19599;3.98;10.8;4.120397714;9;117
20;paravance-32.rennes.grid5000.fr;thermos-root-devel-WordCountTopology-2-6139abf1-4829-4ee6-b74f-2a8de72e60a8;["container_2_Emit_random_words_2"];1.25;1533506665.41162;60.49;323.93;374.415036841;10;149
20;paravance-31.rennes.grid5000.fr;thermos-root-devel-WordCountTopology-0-1b966f44-e454-4c3a-a014-1fa493c9d3cc;["topology_master"];1.25;1533506665.41313;4.07;10.93;4.120397714;9;117
20;paravance-36.rennes.grid5000.fr;thermos-root-devel-WordCountTopology-1-cac4f47b-3d43-4c49-832a-e60f508e64d8;["container_1_Consume_and_count_1"];1.25;1533506665.47373;70.97;284.08;95.63445801;10;149
21;paravance-31.rennes.grid5000.fr;thermos-root-devel-WordCountTopology-0-1b966f44-e454-4c3a-a014-1fa493c9d3cc;["topology_master"];1.25;1533506675.62885;4.13;11.0;4.120397714;9;117
21;paravance-32.rennes.grid5000.fr;thermos-root-devel-WordCountTopology-2-6139abf1-4829-4ee6-b74f-2a8de72e60a8;["container_2_Emit_random_words_2"];1.25;1533506675.62801;62.32;333.99;385.351192921;10;149
21;paravance-36.rennes.grid5000.fr;thermos-root-devel-WordCountTopology-1-cac4f47b-3d43-4c49-832a-e60f508e64d8;["container_1_Consume_and_count_1"];1.25;1533506675.68945;73.15;292.98;98.11396001;10;149
22;paravance-36.rennes.grid5000.fr;thermos-root-devel-WordCountTopology-1-cac4f47b-3d43-4c49-832a-e60f508e64d8;["container_1_Consume_and_count_1"];1.25;1533506685.90512;75.42;302.1;101.011760356;10;149
22;paravance-31.rennes.grid5000.fr;thermos-root-devel-WordCountTopology-0-1b966f44-e454-4c3a-a014-1fa493c9d3cc;["topology_master"];1.25;1533506685.84511;4.19;11.08;4.120397714;9;117
22;paravance-32.rennes.grid5000.fr;thermos-root-devel-WordCountTopology-2-6139abf1-4829-4ee6-b74f-2a8de72e60a8;["container_2_Emit_random_words_2"];1.25;1533506685.84472;64.22;344.03;396.320443461;10;149
23;paravance-36.rennes.grid5000.fr;thermos-root-devel-WordCountTopology-1-cac4f47b-3d43-4c49-832a-e60f508e64d8;["container_1_Consume_and_count_1"];1.25;1533506696.12213;77.69;311.31;104.645997188;10;149
23;paravance-31.rennes.grid5000.fr;thermos-root-devel-WordCountTopology-0-1b966f44-e454-4c3a-a014-1fa493c9d3cc;["topology_master"];1.25;1533506696.06151;4.25;11.15;4.120397714;9;117
23;paravance-32.rennes.grid5000.fr;thermos-root-devel-WordCountTopology-2-6139abf1-4829-4ee6-b74f-2a8de72e60a8;["container_2_Emit_random_words_2"];1.25;1533506696.06109;66.09;354.11;406.415950136;10;149
24;paravance-32.rennes.grid5000.fr;thermos-root-devel-WordCountTopology-2-6139abf1-4829-4ee6-b74f-2a8de72e60a8;["container_2_Emit_random_words_2"];1.25;1533506706.27755;67.98;364.22;416.663793374;10;149
24;paravance-31.rennes.grid5000.fr;thermos-root-devel-WordCountTopology-0-1b966f44-e454-4c3a-a014-1fa493c9d3cc;["topology_master"];1.25;1533506706.27811;4.36;11.35;4.120397714;9;117
24;paravance-36.rennes.grid5000.fr;thermos-root-devel-WordCountTopology-1-cac4f47b-3d43-4c49-832a-e60f508e64d8;["container_1_Consume_and_count_1"];1.25;1533506706.33896;79.97;320.56;109.128139041;10;150
25;paravance-31.rennes.grid5000.fr;thermos-root-devel-WordCountTopology-0-1b966f44-e454-4c3a-a014-1fa493c9d3cc;["topology_master"];1.25;1533506716.49462;4.39;11.38;4.120397714;9;117
25;paravance-36.rennes.grid5000.fr;thermos-root-devel-WordCountTopology-1-cac4f47b-3d43-4c49-832a-e60f508e64d8;["container_1_Consume_and_count_1"];1.25;1533506716.55719;82.24;329.86;113.375783199;10;150
25;paravance-32.rennes.grid5000.fr;thermos-root-devel-WordCountTopology-2-6139abf1-4829-4ee6-b74f-2a8de72e60a8;["container_2_Emit_random_words_2"];1.25;1533506716.49471;69.86;374.4;426.241940952;10;149
26;paravance-31.rennes.grid5000.fr;thermos-root-devel-WordCountTopology-0-1b966f44-e454-4c3a-a014-1fa493c9d3cc;["topology_master"];1.25;1533506726.7116;4.48;11.5;4.120397714;9;117
26;paravance-36.rennes.grid5000.fr;thermos-root-devel-WordCountTopology-1-cac4f47b-3d43-4c49-832a-e60f508e64d8;["container_1_Consume_and_count_1"];1.25;1533506726.77243;84.53;339.53;127.426962188;10;149
26;paravance-32.rennes.grid5000.fr;thermos-root-devel-WordCountTopology-2-6139abf1-4829-4ee6-b74f-2a8de72e60a8;["container_2_Emit_random_words_2"];1.25;1533506726.71135;71.78;384.53;436.389271218;10;149
27;paravance-31.rennes.grid5000.fr;thermos-root-devel-WordCountTopology-0-1b966f44-e454-4c3a-a014-1fa493c9d3cc;["topology_master"];1.25;1533506736.82784;4.53;11.57;4.120397714;9;117
27;paravance-36.rennes.grid5000.fr;thermos-root-devel-WordCountTopology-1-cac4f47b-3d43-4c49-832a-e60f508e64d8;["container_1_Consume_and_count_1"];1.25;1533506736.9868;86.56;349.58;143.274626875;10;149
27;paravance-32.rennes.grid5000.fr;thermos-root-devel-WordCountTopology-2-6139abf1-4829-4ee6-b74f-2a8de72e60a8;["container_2_Emit_random_words_2"];1.25;1533506736.92671;73.38;393.18;444.358505471;10;149
28;paravance-31.rennes.grid5000.fr;thermos-root-devel-WordCountTopology-0-1b966f44-e454-4c3a-a014-1fa493c9d3cc;["topology_master"];1.25;1533506747.14279;4.59;11.65;4.120397714;9;117
28;paravance-32.rennes.grid5000.fr;thermos-root-devel-WordCountTopology-2-6139abf1-4829-4ee6-b74f-2a8de72e60a8;["container_2_Emit_random_words_2"];1.25;1533506747.14302;75.29;403.22;455.110061556;10;149
28;paravance-36.rennes.grid5000.fr;thermos-root-devel-WordCountTopology-1-cac4f47b-3d43-4c49-832a-e60f508e64d8;["container_1_Consume_and_count_1"];1.25;1533506747.20518;88.86;359.36;157.094239165;10;149
29;paravance-32.rennes.grid5000.fr;thermos-root-devel-WordCountTopology-2-6139abf1-4829-4ee6-b74f-2a8de72e60a8;["container_2_Emit_random_words_2"];1.25;1533506757.35852;77.22;413.34;465.70024139;10;150
29;paravance-36.rennes.grid5000.fr;thermos-root-devel-WordCountTopology-1-cac4f47b-3d43-4c49-832a-e60f508e64d8;["container_1_Consume_and_count_1"];1.25;1533506757.41939;91.11;368.91;165.89438756;10;148
29;paravance-31.rennes.grid5000.fr;thermos-root-devel-WordCountTopology-0-1b966f44-e454-4c3a-a014-1fa493c9d3cc;["topology_master"];1.25;1533506757.35929;4.65;11.72;4.120397714;9;117
30;paravance-31.rennes.grid5000.fr;thermos-root-devel-WordCountTopology-0-1b966f44-e454-4c3a-a014-1fa493c9d3cc;["topology_master"];1.25;1533506767.575;4.76;11.89;4.120397714;9;117
30;paravance-36.rennes.grid5000.fr;thermos-root-devel-WordCountTopology-1-cac4f47b-3d43-4c49-832a-e60f508e64d8;["container_1_Consume_and_count_1"];1.25;1533506767.63594;93.34;377.77;170.479666342;10;149
30;paravance-32.rennes.grid5000.fr;thermos-root-devel-WordCountTopology-2-6139abf1-4829-4ee6-b74f-2a8de72e60a8;["container_2_Emit_random_words_2"];1.25;1533506767.57315;79.11;423.36;476.479660637;10;149
31;paravance-36.rennes.grid5000.fr;thermos-root-devel-WordCountTopology-1-cac4f47b-3d43-4c49-832a-e60f508e64d8;["container_1_Consume_and_count_1"];1.25;1533506777.85128;95.54;386.8;174.240640988;10;149
31;paravance-32.rennes.grid5000.fr;thermos-root-devel-WordCountTopology-2-6139abf1-4829-4ee6-b74f-2a8de72e60a8;["container_2_Emit_random_words_2"];1.25;1533506777.79007;80.99;433.45;486.894720906;10;149
31;paravance-31.rennes.grid5000.fr;thermos-root-devel-WordCountTopology-0-1b966f44-e454-4c3a-a014-1fa493c9d3cc;["topology_master"];1.25;1533506777.79161;4.82;11.97;4.120397714;9;117
32;paravance-31.rennes.grid5000.fr;thermos-root-devel-WordCountTopology-0-1b966f44-e454-4c3a-a014-1fa493c9d3cc;["topology_master"];1.25;1533506788.00649;4.88;12.04;4.120397714;9;117
32;paravance-32.rennes.grid5000.fr;thermos-root-devel-WordCountTopology-2-6139abf1-4829-4ee6-b74f-2a8de72e60a8;["container_2_Emit_random_words_2"];1.25;1533506788.00648;82.82;443.51;497.833138132;10;149
32;paravance-36.rennes.grid5000.fr;thermos-root-devel-WordCountTopology-1-cac4f47b-3d43-4c49-832a-e60f508e64d8;["container_1_Consume_and_count_1"];1.25;1533506788.06706;97.76;395.8;177.507450339;10;149
33;paravance-32.rennes.grid5000.fr;thermos-root-devel-WordCountTopology-2-6139abf1-4829-4ee6-b74f-2a8de72e60a8;["container_2_Emit_random_words_2"];1.25;1533506798.22119;84.69;453.53;508.671755553;10;149
33;paravance-31.rennes.grid5000.fr;thermos-root-devel-WordCountTopology-0-1b966f44-e454-4c3a-a014-1fa493c9d3cc;["topology_master"];1.25;1533506798.22198;4.97;12.16;4.120397714;9;117
33;paravance-36.rennes.grid5000.fr;thermos-root-devel-WordCountTopology-1-cac4f47b-3d43-4c49-832a-e60f508e64d8;["container_1_Consume_and_count_1"];1.25;1533506798.28356;100.08;405.03;182.087314936;10;149
34;paravance-36.rennes.grid5000.fr;thermos-root-devel-WordCountTopology-1-cac4f47b-3d43-4c49-832a-e60f508e64d8;["container_1_Consume_and_count_1"];1.25;1533506808.49974;102.35;414.29;185.725381519;10;149
34;paravance-31.rennes.grid5000.fr;thermos-root-devel-WordCountTopology-0-1b966f44-e454-4c3a-a014-1fa493c9d3cc;["topology_master"];1.25;1533506808.43798;5.0;12.19;4.120397714;9;117
34;paravance-32.rennes.grid5000.fr;thermos-root-devel-WordCountTopology-2-6139abf1-4829-4ee6-b74f-2a8de72e60a8;["container_2_Emit_random_words_2"];1.25;1533506808.43783;86.54;463.68;519.500614639;10;149
35;paravance-32.rennes.grid5000.fr;thermos-root-devel-WordCountTopology-2-6139abf1-4829-4ee6-b74f-2a8de72e60a8;["container_2_Emit_random_words_2"];1.25;1533506818.65363;88.5;473.75;530.572508558;10;149
35;paravance-31.rennes.grid5000.fr;thermos-root-devel-WordCountTopology-0-1b966f44-e454-4c3a-a014-1fa493c9d3cc;["topology_master"];1.25;1533506818.65506;5.1;12.32;4.120397714;9;117
35;paravance-36.rennes.grid5000.fr;thermos-root-devel-WordCountTopology-1-cac4f47b-3d43-4c49-832a-e60f508e64d8;["container_1_Consume_and_count_1"];1.25;1533506818.71553;104.6;423.18;189.374208706;10;149
36;paravance-32.rennes.grid5000.fr;thermos-root-devel-WordCountTopology-2-6139abf1-4829-4ee6-b74f-2a8de72e60a8;["container_2_Emit_random_words_2"];1.25;1533506828.8703;90.4;483.75;541.827584964;10;149
36;paravance-31.rennes.grid5000.fr;thermos-root-devel-WordCountTopology-0-1b966f44-e454-4c3a-a014-1fa493c9d3cc;["topology_master"];1.25;1533506828.87167;5.17;12.5;4.120397714;9;117
36;paravance-36.rennes.grid5000.fr;thermos-root-devel-WordCountTopology-1-cac4f47b-3d43-4c49-832a-e60f508e64d8;["container_1_Consume_and_count_1"];1.25;1533506828.93183;106.84;432.31;193.493137947;10;149
37;paravance-32.rennes.grid5000.fr;thermos-root-devel-WordCountTopology-2-6139abf1-4829-4ee6-b74f-2a8de72e60a8;["container_2_Emit_random_words_2"];1.25;1533506839.08856;92.3;493.9;552.347636309;10;149
37;paravance-31.rennes.grid5000.fr;thermos-root-devel-WordCountTopology-0-1b966f44-e454-4c3a-a014-1fa493c9d3cc;["topology_master"];1.25;1533506839.0886;5.22;12.57;4.120397714;9;117
37;paravance-36.rennes.grid5000.fr;thermos-root-devel-WordCountTopology-1-cac4f47b-3d43-4c49-832a-e60f508e64d8;["container_1_Consume_and_count_1"];1.25;1533506839.14788;109.1;441.36;196.601589522;10;149
38;paravance-31.rennes.grid5000.fr;thermos-root-devel-WordCountTopology-0-1b966f44-e454-4c3a-a014-1fa493c9d3cc;["topology_master"];1.25;1533506849.30413;5.28;12.64;4.120397714;9;117
38;paravance-36.rennes.grid5000.fr;thermos-root-devel-WordCountTopology-1-cac4f47b-3d43-4c49-832a-e60f508e64d8;["container_1_Consume_and_count_1"];1.25;1533506849.36369;111.27;450.2;199.212914462;10;149
38;paravance-32.rennes.grid5000.fr;thermos-root-devel-WordCountTopology-2-6139abf1-4829-4ee6-b74f-2a8de72e60a8;["container_2_Emit_random_words_2"];1.25;1533506849.30308;94.16;504.01;563.26477629;10;149
39;paravance-32.rennes.grid5000.fr;thermos-root-devel-WordCountTopology-2-6139abf1-4829-4ee6-b74f-2a8de72e60a8;["container_2_Emit_random_words_2"];1.25;1533506859.51856;96.11;514.04;573.79434437;10;149
39;paravance-31.rennes.grid5000.fr;thermos-root-devel-WordCountTopology-0-1b966f44-e454-4c3a-a014-1fa493c9d3cc;["topology_master"];1.25;1533506859.52018;5.36;12.76;4.120397714;9;117
39;paravance-36.rennes.grid5000.fr;thermos-root-devel-WordCountTopology-1-cac4f47b-3d43-4c49-832a-e60f508e64d8;["container_1_Consume_and_count_1"];1.25;1533506859.57964;113.54;459.31;202.754916182;10;149
40;paravance-36.rennes.grid5000.fr;thermos-root-devel-WordCountTopology-1-cac4f47b-3d43-4c49-832a-e60f508e64d8;["container_1_Consume_and_count_1"];1.25;1533506869.79657;115.78;468.46;204.355266582;10;149
40;paravance-31.rennes.grid5000.fr;thermos-root-devel-WordCountTopology-0-1b966f44-e454-4c3a-a014-1fa493c9d3cc;["topology_master"];1.25;1533506869.73656;5.42;12.83;4.120397714;9;117
40;paravance-32.rennes.grid5000.fr;thermos-root-devel-WordCountTopology-2-6139abf1-4829-4ee6-b74f-2a8de72e60a8;["container_2_Emit_random_words_2"];1.25;1533506869.75146;98.09;524.08;584.646212225;10;149
41;paravance-32.rennes.grid5000.fr;thermos-root-devel-WordCountTopology-2-6139abf1-4829-4ee6-b74f-2a8de72e60a8;["container_2_Emit_random_words_2"];1.25;1533506879.96485;100.01;534.07;595.326733037;10;149
41;paravance-31.rennes.grid5000.fr;thermos-root-devel-WordCountTopology-0-1b966f44-e454-4c3a-a014-1fa493c9d3cc;["topology_master"];1.25;1533506879.96622;5.49;12.93;4.120397714;9;117
41;paravance-36.rennes.grid5000.fr;thermos-root-devel-WordCountTopology-1-cac4f47b-3d43-4c49-832a-e60f508e64d8;["container_1_Consume_and_count_1"];1.25;1533506880.02578;118.04;477.41;206.893390908;10;149
42;paravance-36.rennes.grid5000.fr;thermos-root-devel-WordCountTopology-1-cac4f47b-3d43-4c49-832a-e60f508e64d8;["container_1_Consume_and_count_1"];1.25;1533506890.2412;120.32;486.74;212.369033318;10;149
42;paravance-31.rennes.grid5000.fr;thermos-root-devel-WordCountTopology-0-1b966f44-e454-4c3a-a014-1fa493c9d3cc;["topology_master"];1.25;1533506890.18188;5.55;13.04;4.120397714;9;117
42;paravance-32.rennes.grid5000.fr;thermos-root-devel-WordCountTopology-2-6139abf1-4829-4ee6-b74f-2a8de72e60a8;["container_2_Emit_random_words_2"];1.25;1533506890.17982;101.94;544.18;604.926566763;10;149
43;paravance-36.rennes.grid5000.fr;thermos-root-devel-WordCountTopology-1-cac4f47b-3d43-4c49-832a-e60f508e64d8;["container_1_Consume_and_count_1"];1.25;1533506900.45675;122.56;495.9;215.401160433;10;149
43;paravance-32.rennes.grid5000.fr;thermos-root-devel-WordCountTopology-2-6139abf1-4829-4ee6-b74f-2a8de72e60a8;["container_2_Emit_random_words_2"];1.25;1533506900.39683;103.79;554.37;615.6799785;10;149
43;paravance-31.rennes.grid5000.fr;thermos-root-devel-WordCountTopology-0-1b966f44-e454-4c3a-a014-1fa493c9d3cc;["topology_master"];1.25;1533506900.39839;5.64;13.16;4.120397714;9;117
44;paravance-31.rennes.grid5000.fr;thermos-root-devel-WordCountTopology-0-1b966f44-e454-4c3a-a014-1fa493c9d3cc;["topology_master"];1.25;1533506910.61411;5.67;13.19;4.120397714;9;117
44;paravance-32.rennes.grid5000.fr;thermos-root-devel-WordCountTopology-2-6139abf1-4829-4ee6-b74f-2a8de72e60a8;["container_2_Emit_random_words_2"];1.25;1533506910.6121;105.64;564.52;626.126948831;10;149
44;paravance-36.rennes.grid5000.fr;thermos-root-devel-WordCountTopology-1-cac4f47b-3d43-4c49-832a-e60f508e64d8;["container_1_Consume_and_count_1"];1.25;1533506910.67481;124.84;505.21;220.743854261;10;149
45;paravance-31.rennes.grid5000.fr;thermos-root-devel-WordCountTopology-0-1b966f44-e454-4c3a-a014-1fa493c9d3cc;["topology_master"];1.25;1533506920.82988;5.76;13.31;4.120397714;9;117
45;paravance-32.rennes.grid5000.fr;thermos-root-devel-WordCountTopology-2-6139abf1-4829-4ee6-b74f-2a8de72e60a8;["container_2_Emit_random_words_2"];1.25;1533506920.82942;107.54;574.68;637.293700015;10;149
45;paravance-36.rennes.grid5000.fr;thermos-root-devel-WordCountTopology-1-cac4f47b-3d43-4c49-832a-e60f508e64d8;["container_1_Consume_and_count_1"];1.25;1533506920.89138;127.11;514.34;223.611845796;10;149
46;paravance-36.rennes.grid5000.fr;thermos-root-devel-WordCountTopology-1-cac4f47b-3d43-4c49-832a-e60f508e64d8;["container_1_Consume_and_count_1"];1.25;1533506931.10615;129.4;523.63;226.5960552;10;149
46;paravance-32.rennes.grid5000.fr;thermos-root-devel-WordCountTopology-2-6139abf1-4829-4ee6-b74f-2a8de72e60a8;["container_2_Emit_random_words_2"];1.25;1533506931.0452;109.41;584.84;647.249818198;10;149
46;paravance-31.rennes.grid5000.fr;thermos-root-devel-WordCountTopology-0-1b966f44-e454-4c3a-a014-1fa493c9d3cc;["topology_master"];1.25;1533506931.04674;5.81;13.38;4.120397714;9;117
47;paravance-31.rennes.grid5000.fr;thermos-root-devel-WordCountTopology-0-1b966f44-e454-4c3a-a014-1fa493c9d3cc;["topology_master"];1.25;1533506941.1641;5.88;13.46;4.120397714;9;117
47;paravance-32.rennes.grid5000.fr;thermos-root-devel-WordCountTopology-2-6139abf1-4829-4ee6-b74f-2a8de72e60a8;["container_2_Emit_random_words_2"];1.25;1533506941.26321;111.35;594.93;657.974527425;10;149
47;paravance-36.rennes.grid5000.fr;thermos-root-devel-WordCountTopology-1-cac4f47b-3d43-4c49-832a-e60f508e64d8;["container_1_Consume_and_count_1"];1.25;1533506941.32377;131.65;532.66;231.472878206;10;149
48;paravance-32.rennes.grid5000.fr;thermos-root-devel-WordCountTopology-2-6139abf1-4829-4ee6-b74f-2a8de72e60a8;["container_2_Emit_random_words_2"];1.25;1533506951.47921;113.25;604.95;668.217168634;10;149
48;paravance-31.rennes.grid5000.fr;thermos-root-devel-WordCountTopology-0-1b966f44-e454-4c3a-a014-1fa493c9d3cc;["topology_master"];1.25;1533506951.48116;5.95;13.6;4.120397714;9;117
48;paravance-36.rennes.grid5000.fr;thermos-root-devel-WordCountTopology-1-cac4f47b-3d43-4c49-832a-e60f508e64d8;["container_1_Consume_and_count_1"];1.25;1533506951.5408;133.83;541.27;235.175501211;10;149
49;paravance-31.rennes.grid5000.fr;thermos-root-devel-WordCountTopology-0-1b966f44-e454-4c3a-a014-1fa493c9d3cc;["topology_master"];1.25;1533506961.69673;6.04;13.73;4.120397714;9;117
49;paravance-32.rennes.grid5000.fr;thermos-root-devel-WordCountTopology-2-6139abf1-4829-4ee6-b74f-2a8de72e60a8;["container_2_Emit_random_words_2"];1.25;1533506961.69443;115.18;615.05;678.324408007;10;149
49;paravance-36.rennes.grid5000.fr;thermos-root-devel-WordCountTopology-1-cac4f47b-3d43-4c49-832a-e60f508e64d8;["container_1_Consume_and_count_1"];1.25;1533506961.75718;136.06;550.35;238.887721427;10;149
50;paravance-32.rennes.grid5000.fr;thermos-root-devel-WordCountTopology-2-6139abf1-4829-4ee6-b74f-2a8de72e60a8;["container_2_Emit_random_words_2"];1.25;1533506971.90992;117.07;625.1;688.516575265;10;149
50;paravance-36.rennes.grid5000.fr;thermos-root-devel-WordCountTopology-1-cac4f47b-3d43-4c49-832a-e60f508e64d8;["container_1_Consume_and_count_1"];1.25;1533506971.97171;138.36;559.59;243.631747147;10;149
50;paravance-31.rennes.grid5000.fr;thermos-root-devel-WordCountTopology-0-1b966f44-e454-4c3a-a014-1fa493c9d3cc;["topology_master"];1.25;1533506971.91272;6.07;13.76;4.120397714;9;117
51;paravance-36.rennes.grid5000.fr;thermos-root-devel-WordCountTopology-1-cac4f47b-3d43-4c49-832a-e60f508e64d8;["container_1_Consume_and_count_1"];1.25;1533506982.18675;140.65;568.67;247.176332788;10;149
51;paravance-32.rennes.grid5000.fr;thermos-root-devel-WordCountTopology-2-6139abf1-4829-4ee6-b74f-2a8de72e60a8;["container_2_Emit_random_words_2"];1.25;1533506982.12596;119.0;635.11;698.635385396;10;149
51;paravance-31.rennes.grid5000.fr;thermos-root-devel-WordCountTopology-0-1b966f44-e454-4c3a-a014-1fa493c9d3cc;["topology_master"];1.25;1533506982.12653;6.16;13.89;4.120397714;9;117
52;paravance-31.rennes.grid5000.fr;thermos-root-devel-WordCountTopology-0-1b966f44-e454-4c3a-a014-1fa493c9d3cc;["topology_master"];1.25;1533506992.34325;6.21;13.96;4.120397714;9;117
52;paravance-32.rennes.grid5000.fr;thermos-root-devel-WordCountTopology-2-6139abf1-4829-4ee6-b74f-2a8de72e60a8;["container_2_Emit_random_words_2"];1.25;1533506992.3418;120.88;645.15;708.825315461;10;149
52;paravance-36.rennes.grid5000.fr;thermos-root-devel-WordCountTopology-1-cac4f47b-3d43-4c49-832a-e60f508e64d8;["container_1_Consume_and_count_1"];1.25;1533506992.40316;142.9;577.81;249.657186405;10;149
53;paravance-36.rennes.grid5000.fr;thermos-root-devel-WordCountTopology-1-cac4f47b-3d43-4c49-832a-e60f508e64d8;["container_1_Consume_and_count_1"];1.25;1533507002.61905;145.27;587.0;253.196555537;10;149
53;paravance-31.rennes.grid5000.fr;thermos-root-devel-WordCountTopology-0-1b966f44-e454-4c3a-a014-1fa493c9d3cc;["topology_master"];1.25;1533507002.55923;6.28;14.05;4.120397714;9;117
53;paravance-32.rennes.grid5000.fr;thermos-root-devel-WordCountTopology-2-6139abf1-4829-4ee6-b74f-2a8de72e60a8;["container_2_Emit_random_words_2"];1.25;1533507002.55711;122.81;655.15;718.914744297;10;149
54;paravance-32.rennes.grid5000.fr;thermos-root-devel-WordCountTopology-2-6139abf1-4829-4ee6-b74f-2a8de72e60a8;["container_2_Emit_random_words_2"];1.25;1533507012.6742;124.67;665.07;729.420980699;10;149
54;paravance-36.rennes.grid5000.fr;thermos-root-devel-WordCountTopology-1-cac4f47b-3d43-4c49-832a-e60f508e64d8;["container_1_Consume_and_count_1"];1.25;1533507012.83487;147.61;596.34;258.633202074;10;149
54;paravance-31.rennes.grid5000.fr;thermos-root-devel-WordCountTopology-0-1b966f44-e454-4c3a-a014-1fa493c9d3cc;["topology_master"];1.25;1533507012.7757;6.34;14.15;4.120397714;9;117
55;paravance-32.rennes.grid5000.fr;thermos-root-devel-WordCountTopology-2-6139abf1-4829-4ee6-b74f-2a8de72e60a8;["container_2_Emit_random_words_2"];1.25;1533507022.98996;126.55;675.24;739.683912963;10;149
55;paravance-36.rennes.grid5000.fr;thermos-root-devel-WordCountTopology-1-cac4f47b-3d43-4c49-832a-e60f508e64d8;["container_1_Consume_and_count_1"];1.25;1533507023.05112;149.83;605.39;262.077461467;10;149
55;paravance-31.rennes.grid5000.fr;thermos-root-devel-WordCountTopology-0-1b966f44-e454-4c3a-a014-1fa493c9d3cc;["topology_master"];1.25;1533507022.992;6.43;14.27;4.120397714;9;117
56;paravance-36.rennes.grid5000.fr;thermos-root-devel-WordCountTopology-1-cac4f47b-3d43-4c49-832a-e60f508e64d8;["container_1_Consume_and_count_1"];1.25;1533507033.26591;152.11;614.63;266.500803531;10;149
56;paravance-32.rennes.grid5000.fr;thermos-root-devel-WordCountTopology-2-6139abf1-4829-4ee6-b74f-2a8de72e60a8;["container_2_Emit_random_words_2"];1.25;1533507033.20514;128.41;685.36;748.858638179;10;149
56;paravance-31.rennes.grid5000.fr;thermos-root-devel-WordCountTopology-0-1b966f44-e454-4c3a-a014-1fa493c9d3cc;["topology_master"];1.25;1533507033.20687;6.46;14.3;4.120397714;9;117
57;paravance-32.rennes.grid5000.fr;thermos-root-devel-WordCountTopology-2-6139abf1-4829-4ee6-b74f-2a8de72e60a8;["container_2_Emit_random_words_2"];1.25;1533507043.42259;130.31;695.44;759.24445549;10;149
57;paravance-36.rennes.grid5000.fr;thermos-root-devel-WordCountTopology-1-cac4f47b-3d43-4c49-832a-e60f508e64d8;["container_1_Consume_and_count_1"];1.25;1533507043.48362;154.39;623.62;270.173025075;10;149
57;paravance-31.rennes.grid5000.fr;thermos-root-devel-WordCountTopology-0-1b966f44-e454-4c3a-a014-1fa493c9d3cc;["topology_master"];1.25;1533507043.42439;6.55;14.42;4.120397714;9;117
58;paravance-32.rennes.grid5000.fr;thermos-root-devel-WordCountTopology-2-6139abf1-4829-4ee6-b74f-2a8de72e60a8;["container_2_Emit_random_words_2"];1.25;1533507053.63862;132.22;705.59;769.38980095;10;149
58;paravance-36.rennes.grid5000.fr;thermos-root-devel-WordCountTopology-1-cac4f47b-3d43-4c49-832a-e60f508e64d8;["container_1_Consume_and_count_1"];1.25;1533507053.69988;156.66;632.82;273.237708538;10;149
58;paravance-31.rennes.grid5000.fr;thermos-root-devel-WordCountTopology-0-1b966f44-e454-4c3a-a014-1fa493c9d3cc;["topology_master"];1.25;1533507053.64038;6.6;14.49;4.120397714;9;117
59;paravance-36.rennes.grid5000.fr;thermos-root-devel-WordCountTopology-1-cac4f47b-3d43-4c49-832a-e60f508e64d8;["container_1_Consume_and_count_1"];1.25;1533507063.91425;159.04;642.08;279.244632758;10;149
59;paravance-32.rennes.grid5000.fr;thermos-root-devel-WordCountTopology-2-6139abf1-4829-4ee6-b74f-2a8de72e60a8;["container_2_Emit_random_words_2"];1.25;1533507063.85305;134.12;715.67;779.611660124;10;149
59;paravance-31.rennes.grid5000.fr;thermos-root-devel-WordCountTopology-0-1b966f44-e454-4c3a-a014-1fa493c9d3cc;["topology_master"];1.25;1533507063.85516;6.68;14.63;4.120397714;9;117
60;paravance-32.rennes.grid5000.fr;thermos-root-devel-WordCountTopology-2-6139abf1-4829-4ee6-b74f-2a8de72e60a8;["container_2_Emit_random_words_2"];1.25;1533507074.0696;136.0;725.73;789.732746406;10;149
60;paravance-36.rennes.grid5000.fr;thermos-root-devel-WordCountTopology-1-cac4f47b-3d43-4c49-832a-e60f508e64d8;["container_1_Consume_and_count_1"];1.25;1533507074.13079;161.35;651.29;283.488026003;10;149
60;paravance-31.rennes.grid5000.fr;thermos-root-devel-WordCountTopology-0-1b966f44-e454-4c3a-a014-1fa493c9d3cc;["topology_master"];1.25;1533507074.07143;6.74;14.71;4.120397714;9;117
