mesure_id;slave_id;executor_id;heron_instances;cpus_limit;timestamp_A;cpus_system_time_secs_A;cpus_user_time_secs_A;cpus_throttled_time_secs_A;processes;threads
0;paravance-63.rennes.grid5000.fr;thermos-root-devel-WordCountTopology-1-ea573bbf-2a89-4876-8cbf-e68f846ba7bc;["container_1_Consume_and_count_1"];2.25;1533752901.36448;17.5;179.36;191.95380744;10;151
0;paravance-65.rennes.grid5000.fr;thermos-root-devel-WordCountTopology-2-1dddf7df-6a75-4e0e-bbc0-ba706e394bc1;["container_2_Emit_random_words_2"];2.25;1533752901.37502;5.81;80.84;12.624673094;10;149
0;paravance-64.rennes.grid5000.fr;thermos-root-devel-WordCountTopology-0-bc1f6ef9-a72b-4404-b5de-d78ec23fa783;["topology_master"];2.25;1533752901.36805;2.41;8.19;1.576839303;9;117
1;paravance-65.rennes.grid5000.fr;thermos-root-devel-WordCountTopology-2-1dddf7df-6a75-4e0e-bbc0-ba706e394bc1;["container_2_Emit_random_words_2"];2.25;1533752911.48853;6.24;90.4;12.624673094;10;149
1;paravance-64.rennes.grid5000.fr;thermos-root-devel-WordCountTopology-0-bc1f6ef9-a72b-4404-b5de-d78ec23fa783;["topology_master"];2.25;1533752911.58211;2.48;8.33;1.576839303;9;117
1;paravance-63.rennes.grid5000.fr;thermos-root-devel-WordCountTopology-1-ea573bbf-2a89-4876-8cbf-e68f846ba7bc;["container_1_Consume_and_count_1"];2.25;1533752911.57931;19.08;199.05;210.555094437;10;151
2;paravance-63.rennes.grid5000.fr;thermos-root-devel-WordCountTopology-1-ea573bbf-2a89-4876-8cbf-e68f846ba7bc;["container_1_Consume_and_count_1"];2.25;1533752921.79353;21.75;218.06;223.627425675;10;151
2;paravance-65.rennes.grid5000.fr;thermos-root-devel-WordCountTopology-2-1dddf7df-6a75-4e0e-bbc0-ba706e394bc1;["container_2_Emit_random_words_2"];2.25;1533752921.80192;6.81;103.63;12.651199655;10;149
2;paravance-64.rennes.grid5000.fr;thermos-root-devel-WordCountTopology-0-bc1f6ef9-a72b-4404-b5de-d78ec23fa783;["topology_master"];2.25;1533752921.79617;2.57;8.46;1.576839303;9;117
3;paravance-63.rennes.grid5000.fr;thermos-root-devel-WordCountTopology-1-ea573bbf-2a89-4876-8cbf-e68f846ba7bc;["container_1_Consume_and_count_1"];2.25;1533752932.00913;23.39;238.4;243.177353972;10;151
3;paravance-64.rennes.grid5000.fr;thermos-root-devel-WordCountTopology-0-bc1f6ef9-a72b-4404-b5de-d78ec23fa783;["topology_master"];2.25;1533752932.01146;2.64;8.54;1.576839303;9;117
3;paravance-65.rennes.grid5000.fr;thermos-root-devel-WordCountTopology-2-1dddf7df-6a75-4e0e-bbc0-ba706e394bc1;["container_2_Emit_random_words_2"];2.25;1533752932.0182;7.1;109.11;12.651199655;10;149
4;paravance-64.rennes.grid5000.fr;thermos-root-devel-WordCountTopology-0-bc1f6ef9-a72b-4404-b5de-d78ec23fa783;["topology_master"];2.25;1533752942.13001;2.7;8.62;1.576839303;9;117
4;paravance-63.rennes.grid5000.fr;thermos-root-devel-WordCountTopology-1-ea573bbf-2a89-4876-8cbf-e68f846ba7bc;["container_1_Consume_and_count_1"];2.25;1533752942.22711;25.11;258.64;265.622876248;10;151
4;paravance-65.rennes.grid5000.fr;thermos-root-devel-WordCountTopology-2-1dddf7df-6a75-4e0e-bbc0-ba706e394bc1;["container_2_Emit_random_words_2"];2.25;1533752942.23593;7.54;118.78;12.667415178;10;149
5;paravance-63.rennes.grid5000.fr;thermos-root-devel-WordCountTopology-1-ea573bbf-2a89-4876-8cbf-e68f846ba7bc;["container_1_Consume_and_count_1"];2.25;1533752952.34265;27.01;278.39;285.508123177;10;151
5;paravance-64.rennes.grid5000.fr;thermos-root-devel-WordCountTopology-0-bc1f6ef9-a72b-4404-b5de-d78ec23fa783;["topology_master"];2.25;1533752952.44415;2.75;8.7;1.576839303;9;117
5;paravance-65.rennes.grid5000.fr;thermos-root-devel-WordCountTopology-2-1dddf7df-6a75-4e0e-bbc0-ba706e394bc1;["container_2_Emit_random_words_2"];2.25;1533752952.45178;7.98;128.9;12.66743902;10;149
6;paravance-63.rennes.grid5000.fr;thermos-root-devel-WordCountTopology-1-ea573bbf-2a89-4876-8cbf-e68f846ba7bc;["container_1_Consume_and_count_1"];2.25;1533752962.6571;29.26;298.18;301.362682128;10;151
6;paravance-65.rennes.grid5000.fr;thermos-root-devel-WordCountTopology-2-1dddf7df-6a75-4e0e-bbc0-ba706e394bc1;["container_2_Emit_random_words_2"];2.25;1533752962.6663;8.52;140.14;12.815259601;10;149
6;paravance-64.rennes.grid5000.fr;thermos-root-devel-WordCountTopology-0-bc1f6ef9-a72b-4404-b5de-d78ec23fa783;["topology_master"];2.25;1533752962.66013;2.88;8.91;1.576839303;9;117
7;paravance-64.rennes.grid5000.fr;thermos-root-devel-WordCountTopology-0-bc1f6ef9-a72b-4404-b5de-d78ec23fa783;["topology_master"];2.25;1533752972.8782;2.91;8.94;1.576839303;9;117
7;paravance-63.rennes.grid5000.fr;thermos-root-devel-WordCountTopology-1-ea573bbf-2a89-4876-8cbf-e68f846ba7bc;["container_1_Consume_and_count_1"];2.25;1533752972.87545;30.99;318.08;319.04463203;10;151
7;paravance-65.rennes.grid5000.fr;thermos-root-devel-WordCountTopology-2-1dddf7df-6a75-4e0e-bbc0-ba706e394bc1;["container_2_Emit_random_words_2"];2.25;1533752972.88566;8.77;145.23;12.843326811;10;149
8;paravance-63.rennes.grid5000.fr;thermos-root-devel-WordCountTopology-1-ea573bbf-2a89-4876-8cbf-e68f846ba7bc;["container_1_Consume_and_count_1"];2.25;1533752983.09286;32.89;337.66;337.103303959;10;151
8;paravance-64.rennes.grid5000.fr;thermos-root-devel-WordCountTopology-0-bc1f6ef9-a72b-4404-b5de-d78ec23fa783;["topology_master"];2.25;1533752983.09628;3.0;9.07;1.576839303;9;117
8;paravance-65.rennes.grid5000.fr;thermos-root-devel-WordCountTopology-2-1dddf7df-6a75-4e0e-bbc0-ba706e394bc1;["container_2_Emit_random_words_2"];2.25;1533752983.10197;9.22;154.54;12.882317322;10;149
9;paravance-63.rennes.grid5000.fr;thermos-root-devel-WordCountTopology-1-ea573bbf-2a89-4876-8cbf-e68f846ba7bc;["container_1_Consume_and_count_1"];2.25;1533752993.31025;34.4;357.92;358.227676461;10;151
9;paravance-64.rennes.grid5000.fr;thermos-root-devel-WordCountTopology-0-bc1f6ef9-a72b-4404-b5de-d78ec23fa783;["topology_master"];2.25;1533752993.31352;3.06;9.15;1.576839303;9;117
9;paravance-65.rennes.grid5000.fr;thermos-root-devel-WordCountTopology-2-1dddf7df-6a75-4e0e-bbc0-ba706e394bc1;["container_2_Emit_random_words_2"];2.25;1533752993.32038;9.58;162.3;12.882317322;10;149
10;paravance-64.rennes.grid5000.fr;thermos-root-devel-WordCountTopology-0-bc1f6ef9-a72b-4404-b5de-d78ec23fa783;["topology_master"];2.25;1533753003.53035;3.12;9.23;1.576839303;9;117
10;paravance-63.rennes.grid5000.fr;thermos-root-devel-WordCountTopology-1-ea573bbf-2a89-4876-8cbf-e68f846ba7bc;["container_1_Consume_and_count_1"];2.25;1533753003.52787;36.09;378.22;378.441911023;10;151
10;paravance-65.rennes.grid5000.fr;thermos-root-devel-WordCountTopology-2-1dddf7df-6a75-4e0e-bbc0-ba706e394bc1;["container_2_Emit_random_words_2"];2.25;1533753003.53783;9.93;169.31;12.882317322;10;149
11;paravance-63.rennes.grid5000.fr;thermos-root-devel-WordCountTopology-1-ea573bbf-2a89-4876-8cbf-e68f846ba7bc;["container_1_Consume_and_count_1"];2.25;1533753013.74496;37.65;398.66;400.461825526;10;151
11;paravance-65.rennes.grid5000.fr;thermos-root-devel-WordCountTopology-2-1dddf7df-6a75-4e0e-bbc0-ba706e394bc1;["container_2_Emit_random_words_2"];2.25;1533753013.75455;10.26;176.0;12.882317322;10;149
11;paravance-64.rennes.grid5000.fr;thermos-root-devel-WordCountTopology-0-bc1f6ef9-a72b-4404-b5de-d78ec23fa783;["topology_master"];2.25;1533753013.74907;3.18;9.31;1.576839303;9;117
12;paravance-63.rennes.grid5000.fr;thermos-root-devel-WordCountTopology-1-ea573bbf-2a89-4876-8cbf-e68f846ba7bc;["container_1_Consume_and_count_1"];2.25;1533753023.96063;39.43;418.71;419.283595629;10;151
12;paravance-65.rennes.grid5000.fr;thermos-root-devel-WordCountTopology-2-1dddf7df-6a75-4e0e-bbc0-ba706e394bc1;["container_2_Emit_random_words_2"];2.25;1533753023.97057;10.5;178.28;12.882317322;10;149
12;paravance-64.rennes.grid5000.fr;thermos-root-devel-WordCountTopology-0-bc1f6ef9-a72b-4404-b5de-d78ec23fa783;["topology_master"];2.25;1533753023.96384;3.31;9.57;1.576839303;9;117
13;paravance-65.rennes.grid5000.fr;thermos-root-devel-WordCountTopology-2-1dddf7df-6a75-4e0e-bbc0-ba706e394bc1;["container_2_Emit_random_words_2"];2.25;1533753034.18823;10.86;186.76;12.882317322;10;149
13;paravance-63.rennes.grid5000.fr;thermos-root-devel-WordCountTopology-1-ea573bbf-2a89-4876-8cbf-e68f846ba7bc;["container_1_Consume_and_count_1"];2.25;1533753034.17993;41.37;438.74;437.977566754;10;151
13;paravance-64.rennes.grid5000.fr;thermos-root-devel-WordCountTopology-0-bc1f6ef9-a72b-4404-b5de-d78ec23fa783;["topology_master"];2.25;1533753034.18314;3.34;9.6;1.576839303;9;117
14;paravance-63.rennes.grid5000.fr;thermos-root-devel-WordCountTopology-1-ea573bbf-2a89-4876-8cbf-e68f846ba7bc;["container_1_Consume_and_count_1"];2.25;1533753044.3962;42.94;459.18;459.23358637;10;151
14;paravance-64.rennes.grid5000.fr;thermos-root-devel-WordCountTopology-0-bc1f6ef9-a72b-4404-b5de-d78ec23fa783;["topology_master"];2.25;1533753044.40006;3.43;9.76;1.576839303;9;117
14;paravance-65.rennes.grid5000.fr;thermos-root-devel-WordCountTopology-2-1dddf7df-6a75-4e0e-bbc0-ba706e394bc1;["container_2_Emit_random_words_2"];2.25;1533753044.40711;11.21;193.1;12.981209363;10;149
15;paravance-65.rennes.grid5000.fr;thermos-root-devel-WordCountTopology-2-1dddf7df-6a75-4e0e-bbc0-ba706e394bc1;["container_2_Emit_random_words_2"];2.25;1533753054.62479;11.87;210.51;13.003595199;10;149
15;paravance-64.rennes.grid5000.fr;thermos-root-devel-WordCountTopology-0-bc1f6ef9-a72b-4404-b5de-d78ec23fa783;["topology_master"];2.25;1533753054.61728;3.48;9.83;1.576839303;9;117
15;paravance-63.rennes.grid5000.fr;thermos-root-devel-WordCountTopology-1-ea573bbf-2a89-4876-8cbf-e68f846ba7bc;["container_1_Consume_and_count_1"];2.25;1533753054.61521;45.51;478.43;474.32408292;10;151
16;paravance-65.rennes.grid5000.fr;thermos-root-devel-WordCountTopology-2-1dddf7df-6a75-4e0e-bbc0-ba706e394bc1;["container_2_Emit_random_words_2"];2.25;1533753064.84162;12.36;222.87;13.003595199;10;149
16;paravance-64.rennes.grid5000.fr;thermos-root-devel-WordCountTopology-0-bc1f6ef9-a72b-4404-b5de-d78ec23fa783;["topology_master"];2.25;1533753064.83456;3.54;9.92;1.576839303;9;117
16;paravance-63.rennes.grid5000.fr;thermos-root-devel-WordCountTopology-1-ea573bbf-2a89-4876-8cbf-e68f846ba7bc;["container_1_Consume_and_count_1"];2.25;1533753064.83203;48.14;497.58;486.259575828;10;151
17;paravance-63.rennes.grid5000.fr;thermos-root-devel-WordCountTopology-1-ea573bbf-2a89-4876-8cbf-e68f846ba7bc;["container_1_Consume_and_count_1"];2.25;1533753075.04761;50.75;516.75;498.757709212;10;151
17;paravance-65.rennes.grid5000.fr;thermos-root-devel-WordCountTopology-2-1dddf7df-6a75-4e0e-bbc0-ba706e394bc1;["container_2_Emit_random_words_2"];2.25;1533753075.05665;12.99;240.87;13.039721216;10;149
17;paravance-64.rennes.grid5000.fr;thermos-root-devel-WordCountTopology-0-bc1f6ef9-a72b-4404-b5de-d78ec23fa783;["topology_master"];2.25;1533753075.05086;3.61;10.0;1.576839303;9;117
18;paravance-63.rennes.grid5000.fr;thermos-root-devel-WordCountTopology-1-ea573bbf-2a89-4876-8cbf-e68f846ba7bc;["container_1_Consume_and_count_1"];2.25;1533753085.26352;52.72;536.18;516.119636867;10;151
18;paravance-64.rennes.grid5000.fr;thermos-root-devel-WordCountTopology-0-bc1f6ef9-a72b-4404-b5de-d78ec23fa783;["topology_master"];2.25;1533753085.26674;3.72;10.26;1.576839303;9;117
18;paravance-65.rennes.grid5000.fr;thermos-root-devel-WordCountTopology-2-1dddf7df-6a75-4e0e-bbc0-ba706e394bc1;["container_2_Emit_random_words_2"];2.25;1533753085.27424;13.52;251.83;13.099158954;10;149
19;paravance-65.rennes.grid5000.fr;thermos-root-devel-WordCountTopology-2-1dddf7df-6a75-4e0e-bbc0-ba706e394bc1;["container_2_Emit_random_words_2"];2.25;1533753095.39116;13.68;254.49;13.099158954;10;149
19;paravance-63.rennes.grid5000.fr;thermos-root-devel-WordCountTopology-1-ea573bbf-2a89-4876-8cbf-e68f846ba7bc;["container_1_Consume_and_count_1"];2.25;1533753095.48047;54.31;556.45;534.609232409;10;151
19;paravance-64.rennes.grid5000.fr;thermos-root-devel-WordCountTopology-0-bc1f6ef9-a72b-4404-b5de-d78ec23fa783;["topology_master"];2.25;1533753095.48369;3.75;10.29;1.576839303;9;117
20;paravance-63.rennes.grid5000.fr;thermos-root-devel-WordCountTopology-1-ea573bbf-2a89-4876-8cbf-e68f846ba7bc;["container_1_Consume_and_count_1"];2.25;1533753105.69638;55.92;576.9;556.389102246;10;151
20;paravance-64.rennes.grid5000.fr;thermos-root-devel-WordCountTopology-0-bc1f6ef9-a72b-4404-b5de-d78ec23fa783;["topology_master"];2.25;1533753105.70093;3.84;10.42;1.576839303;9;117
20;paravance-65.rennes.grid5000.fr;thermos-root-devel-WordCountTopology-2-1dddf7df-6a75-4e0e-bbc0-ba706e394bc1;["container_2_Emit_random_words_2"];2.25;1533753105.70782;14.13;263.98;13.149841969;10;149
21;paravance-63.rennes.grid5000.fr;thermos-root-devel-WordCountTopology-1-ea573bbf-2a89-4876-8cbf-e68f846ba7bc;["container_1_Consume_and_count_1"];2.25;1533753115.91469;57.3;597.71;576.788230541;10;151
21;paravance-64.rennes.grid5000.fr;thermos-root-devel-WordCountTopology-0-bc1f6ef9-a72b-4404-b5de-d78ec23fa783;["topology_master"];2.25;1533753115.91843;3.89;10.49;1.576839303;9;117
21;paravance-65.rennes.grid5000.fr;thermos-root-devel-WordCountTopology-2-1dddf7df-6a75-4e0e-bbc0-ba706e394bc1;["container_2_Emit_random_words_2"];2.25;1533753115.92547;14.5;272.07;13.151541214;10;149
22;paravance-65.rennes.grid5000.fr;thermos-root-devel-WordCountTopology-2-1dddf7df-6a75-4e0e-bbc0-ba706e394bc1;["container_2_Emit_random_words_2"];2.25;1533753126.14342;15.02;284.71;13.171573939;10;149
22;paravance-63.rennes.grid5000.fr;thermos-root-devel-WordCountTopology-1-ea573bbf-2a89-4876-8cbf-e68f846ba7bc;["container_1_Consume_and_count_1"];2.25;1533753126.1323;59.33;617.7;597.496663306;10;151
22;paravance-64.rennes.grid5000.fr;thermos-root-devel-WordCountTopology-0-bc1f6ef9-a72b-4404-b5de-d78ec23fa783;["topology_master"];2.25;1533753126.13568;3.95;10.56;1.576839303;9;117
23;paravance-65.rennes.grid5000.fr;thermos-root-devel-WordCountTopology-2-1dddf7df-6a75-4e0e-bbc0-ba706e394bc1;["container_2_Emit_random_words_2"];2.25;1533753136.25866;15.39;292.72;13.171573939;10;149
23;paravance-64.rennes.grid5000.fr;thermos-root-devel-WordCountTopology-0-bc1f6ef9-a72b-4404-b5de-d78ec23fa783;["topology_master"];2.25;1533753136.35119;4.01;10.63;1.576839303;9;117
23;paravance-63.rennes.grid5000.fr;thermos-root-devel-WordCountTopology-1-ea573bbf-2a89-4876-8cbf-e68f846ba7bc;["container_1_Consume_and_count_1"];2.25;1533753136.34846;61.09;637.86;618.86504996;10;151
24;paravance-63.rennes.grid5000.fr;thermos-root-devel-WordCountTopology-1-ea573bbf-2a89-4876-8cbf-e68f846ba7bc;["container_1_Consume_and_count_1"];2.25;1533753146.56547;62.79;657.91;636.539211327;10;151
24;paravance-65.rennes.grid5000.fr;thermos-root-devel-WordCountTopology-2-1dddf7df-6a75-4e0e-bbc0-ba706e394bc1;["container_2_Emit_random_words_2"];2.25;1533753146.57516;15.67;296.36;13.171573939;10;149
24;paravance-64.rennes.grid5000.fr;thermos-root-devel-WordCountTopology-0-bc1f6ef9-a72b-4404-b5de-d78ec23fa783;["topology_master"];2.25;1533753146.56846;4.11;10.8;1.576839303;9;117
25;paravance-63.rennes.grid5000.fr;thermos-root-devel-WordCountTopology-1-ea573bbf-2a89-4876-8cbf-e68f846ba7bc;["container_1_Consume_and_count_1"];2.25;1533753156.78286;64.22;678.39;654.250334014;10;151
25;paravance-64.rennes.grid5000.fr;thermos-root-devel-WordCountTopology-0-bc1f6ef9-a72b-4404-b5de-d78ec23fa783;["topology_master"];2.25;1533753156.78684;4.14;10.83;1.576839303;9;117
25;paravance-65.rennes.grid5000.fr;thermos-root-devel-WordCountTopology-2-1dddf7df-6a75-4e0e-bbc0-ba706e394bc1;["container_2_Emit_random_words_2"];2.25;1533753156.79375;15.83;298.69;13.171573939;10;149
26;paravance-64.rennes.grid5000.fr;thermos-root-devel-WordCountTopology-0-bc1f6ef9-a72b-4404-b5de-d78ec23fa783;["topology_master"];2.25;1533753167.00291;4.23;10.96;1.576839303;9;117
26;paravance-63.rennes.grid5000.fr;thermos-root-devel-WordCountTopology-1-ea573bbf-2a89-4876-8cbf-e68f846ba7bc;["container_1_Consume_and_count_1"];2.25;1533753167.00009;65.72;698.97;676.572483286;10;151
26;paravance-65.rennes.grid5000.fr;thermos-root-devel-WordCountTopology-2-1dddf7df-6a75-4e0e-bbc0-ba706e394bc1;["container_2_Emit_random_words_2"];2.25;1533753167.01099;16.27;308.23;13.178223618;10;149
27;paravance-63.rennes.grid5000.fr;thermos-root-devel-WordCountTopology-1-ea573bbf-2a89-4876-8cbf-e68f846ba7bc;["container_1_Consume_and_count_1"];2.25;1533753177.21692;67.48;719.05;696.983812731;10;151
27;paravance-64.rennes.grid5000.fr;thermos-root-devel-WordCountTopology-0-bc1f6ef9-a72b-4404-b5de-d78ec23fa783;["topology_master"];2.25;1533753177.22057;4.29;11.03;1.576839303;9;117
27;paravance-65.rennes.grid5000.fr;thermos-root-devel-WordCountTopology-2-1dddf7df-6a75-4e0e-bbc0-ba706e394bc1;["container_2_Emit_random_words_2"];2.25;1533753177.22853;16.66;317.2;13.178248366;10;149
28;paravance-63.rennes.grid5000.fr;thermos-root-devel-WordCountTopology-1-ea573bbf-2a89-4876-8cbf-e68f846ba7bc;["container_1_Consume_and_count_1"];2.25;1533753187.43531;69.14;739.33;717.177565436;10;151
28;paravance-65.rennes.grid5000.fr;thermos-root-devel-WordCountTopology-2-1dddf7df-6a75-4e0e-bbc0-ba706e394bc1;["container_2_Emit_random_words_2"];2.25;1533753187.44655;17.02;325.07;13.178248366;10;149
28;paravance-64.rennes.grid5000.fr;thermos-root-devel-WordCountTopology-0-bc1f6ef9-a72b-4404-b5de-d78ec23fa783;["topology_master"];2.25;1533753187.43775;4.35;11.11;1.576839303;9;117
29;paravance-63.rennes.grid5000.fr;thermos-root-devel-WordCountTopology-1-ea573bbf-2a89-4876-8cbf-e68f846ba7bc;["container_1_Consume_and_count_1"];2.25;1533753197.65287;70.77;759.42;736.07722764;10;149
29;paravance-65.rennes.grid5000.fr;thermos-root-devel-WordCountTopology-2-1dddf7df-6a75-4e0e-bbc0-ba706e394bc1;["container_2_Emit_random_words_2"];2.25;1533753197.66389;17.26;327.59;13.254299779;10;149
29;paravance-64.rennes.grid5000.fr;thermos-root-devel-WordCountTopology-0-bc1f6ef9-a72b-4404-b5de-d78ec23fa783;["topology_master"];2.25;1533753197.65653;4.47;11.26;1.576839303;9;117
30;paravance-63.rennes.grid5000.fr;thermos-root-devel-WordCountTopology-1-ea573bbf-2a89-4876-8cbf-e68f846ba7bc;["container_1_Consume_and_count_1"];2.25;1533753207.86957;72.04;779.33;754.11722343;10;151
30;paravance-64.rennes.grid5000.fr;thermos-root-devel-WordCountTopology-0-bc1f6ef9-a72b-4404-b5de-d78ec23fa783;["topology_master"];2.25;1533753207.87338;4.53;11.39;1.576839303;9;117
30;paravance-65.rennes.grid5000.fr;thermos-root-devel-WordCountTopology-2-1dddf7df-6a75-4e0e-bbc0-ba706e394bc1;["container_2_Emit_random_words_2"];2.25;1533753207.88174;17.5;332.7;13.254299779;10;149
31;paravance-64.rennes.grid5000.fr;thermos-root-devel-WordCountTopology-0-bc1f6ef9-a72b-4404-b5de-d78ec23fa783;["topology_master"];2.25;1533753218.09101;4.59;11.46;1.576839303;9;117
31;paravance-63.rennes.grid5000.fr;thermos-root-devel-WordCountTopology-1-ea573bbf-2a89-4876-8cbf-e68f846ba7bc;["container_1_Consume_and_count_1"];2.25;1533753218.08842;74.16;799.19;768.764558191;10;151
31;paravance-65.rennes.grid5000.fr;thermos-root-devel-WordCountTopology-2-1dddf7df-6a75-4e0e-bbc0-ba706e394bc1;["container_2_Emit_random_words_2"];2.25;1533753218.09913;18.15;349.25;13.258376482;10;149
32;paravance-63.rennes.grid5000.fr;thermos-root-devel-WordCountTopology-1-ea573bbf-2a89-4876-8cbf-e68f846ba7bc;["container_1_Consume_and_count_1"];2.25;1533753228.30581;75.66;819.31;786.501116624;10;151
32;paravance-64.rennes.grid5000.fr;thermos-root-devel-WordCountTopology-0-bc1f6ef9-a72b-4404-b5de-d78ec23fa783;["topology_master"];2.25;1533753228.30895;4.65;11.54;1.576839303;9;117
32;paravance-65.rennes.grid5000.fr;thermos-root-devel-WordCountTopology-2-1dddf7df-6a75-4e0e-bbc0-ba706e394bc1;["container_2_Emit_random_words_2"];2.25;1533753228.31808;18.5;357.09;13.258457053;10;149
33;paravance-65.rennes.grid5000.fr;thermos-root-devel-WordCountTopology-2-1dddf7df-6a75-4e0e-bbc0-ba706e394bc1;["container_2_Emit_random_words_2"];2.25;1533753238.53495;18.86;363.6;13.258457053;10;149
33;paravance-64.rennes.grid5000.fr;thermos-root-devel-WordCountTopology-0-bc1f6ef9-a72b-4404-b5de-d78ec23fa783;["topology_master"];2.25;1533753238.52886;4.75;11.68;1.576839303;9;117
33;paravance-63.rennes.grid5000.fr;thermos-root-devel-WordCountTopology-1-ea573bbf-2a89-4876-8cbf-e68f846ba7bc;["container_1_Consume_and_count_1"];2.25;1533753238.52551;77.18;839.84;806.111330073;10;151
34;paravance-63.rennes.grid5000.fr;thermos-root-devel-WordCountTopology-1-ea573bbf-2a89-4876-8cbf-e68f846ba7bc;["container_1_Consume_and_count_1"];2.25;1533753248.74218;78.98;859.55;821.161959303;10;151
34;paravance-65.rennes.grid5000.fr;thermos-root-devel-WordCountTopology-2-1dddf7df-6a75-4e0e-bbc0-ba706e394bc1;["container_2_Emit_random_words_2"];2.25;1533753248.75311;19.33;376.26;13.258457053;10;149
34;paravance-64.rennes.grid5000.fr;thermos-root-devel-WordCountTopology-0-bc1f6ef9-a72b-4404-b5de-d78ec23fa783;["topology_master"];2.25;1533753248.74613;4.8;11.73;1.576839303;9;117
35;paravance-63.rennes.grid5000.fr;thermos-root-devel-WordCountTopology-1-ea573bbf-2a89-4876-8cbf-e68f846ba7bc;["container_1_Consume_and_count_1"];2.25;1533753258.95865;80.68;879.77;840.514083339;10;151
35;paravance-64.rennes.grid5000.fr;thermos-root-devel-WordCountTopology-0-bc1f6ef9-a72b-4404-b5de-d78ec23fa783;["topology_master"];2.25;1533753258.96337;4.88;11.84;1.576839303;9;117
35;paravance-65.rennes.grid5000.fr;thermos-root-devel-WordCountTopology-2-1dddf7df-6a75-4e0e-bbc0-ba706e394bc1;["container_2_Emit_random_words_2"];2.25;1533753258.96995;19.61;380.25;13.31458298;10;149
36;paravance-63.rennes.grid5000.fr;thermos-root-devel-WordCountTopology-1-ea573bbf-2a89-4876-8cbf-e68f846ba7bc;["container_1_Consume_and_count_1"];2.25;1533753269.17756;82.25;900.07;859.065886622;10;151
36;paravance-64.rennes.grid5000.fr;thermos-root-devel-WordCountTopology-0-bc1f6ef9-a72b-4404-b5de-d78ec23fa783;["topology_master"];2.25;1533753269.18065;4.94;11.96;1.576839303;9;117
36;paravance-65.rennes.grid5000.fr;thermos-root-devel-WordCountTopology-2-1dddf7df-6a75-4e0e-bbc0-ba706e394bc1;["container_2_Emit_random_words_2"];2.25;1533753269.18911;19.97;387.41;13.315018783;10;149
37;paravance-63.rennes.grid5000.fr;thermos-root-devel-WordCountTopology-1-ea573bbf-2a89-4876-8cbf-e68f846ba7bc;["container_1_Consume_and_count_1"];2.25;1533753279.39468;83.72;920.25;879.743308519;10;151
37;paravance-65.rennes.grid5000.fr;thermos-root-devel-WordCountTopology-2-1dddf7df-6a75-4e0e-bbc0-ba706e394bc1;["container_2_Emit_random_words_2"];2.25;1533753279.40753;20.36;395.12;13.315018783;10;149
37;paravance-64.rennes.grid5000.fr;thermos-root-devel-WordCountTopology-0-bc1f6ef9-a72b-4404-b5de-d78ec23fa783;["topology_master"];2.25;1533753279.39988;5.04;12.09;1.576839303;9;117
38;paravance-63.rennes.grid5000.fr;thermos-root-devel-WordCountTopology-1-ea573bbf-2a89-4876-8cbf-e68f846ba7bc;["container_1_Consume_and_count_1"];2.25;1533753289.61254;85.21;940.01;898.451254605;10;151
38;paravance-64.rennes.grid5000.fr;thermos-root-devel-WordCountTopology-0-bc1f6ef9-a72b-4404-b5de-d78ec23fa783;["topology_master"];2.25;1533753289.61658;5.07;12.12;1.576839303;9;117
38;paravance-65.rennes.grid5000.fr;thermos-root-devel-WordCountTopology-2-1dddf7df-6a75-4e0e-bbc0-ba706e394bc1;["container_2_Emit_random_words_2"];2.25;1533753289.6261;20.66;402.16;13.315018783;10;149
39;paravance-64.rennes.grid5000.fr;thermos-root-devel-WordCountTopology-0-bc1f6ef9-a72b-4404-b5de-d78ec23fa783;["topology_master"];2.25;1533753299.83438;5.15;12.24;1.576839303;9;117
39;paravance-65.rennes.grid5000.fr;thermos-root-devel-WordCountTopology-2-1dddf7df-6a75-4e0e-bbc0-ba706e394bc1;["container_2_Emit_random_words_2"];2.25;1533753299.84287;20.92;405.72;13.315018783;10;149
39;paravance-63.rennes.grid5000.fr;thermos-root-devel-WordCountTopology-1-ea573bbf-2a89-4876-8cbf-e68f846ba7bc;["container_1_Consume_and_count_1"];2.25;1533753299.83079;86.68;960.44;916.906525092;10;151
40;paravance-63.rennes.grid5000.fr;thermos-root-devel-WordCountTopology-1-ea573bbf-2a89-4876-8cbf-e68f846ba7bc;["container_1_Consume_and_count_1"];2.25;1533753310.04719;88.67;979.88;933.147703959;10;151
40;paravance-65.rennes.grid5000.fr;thermos-root-devel-WordCountTopology-2-1dddf7df-6a75-4e0e-bbc0-ba706e394bc1;["container_2_Emit_random_words_2"];2.25;1533753310.0602;21.26;412.89;13.323073561;10;149
40;paravance-64.rennes.grid5000.fr;thermos-root-devel-WordCountTopology-0-bc1f6ef9-a72b-4404-b5de-d78ec23fa783;["topology_master"];2.25;1533753310.05299;5.21;12.31;1.576839303;9;117
41;paravance-63.rennes.grid5000.fr;thermos-root-devel-WordCountTopology-1-ea573bbf-2a89-4876-8cbf-e68f846ba7bc;["container_1_Consume_and_count_1"];2.25;1533753320.26448;90.34;999.09;951.772147189;10;151
41;paravance-65.rennes.grid5000.fr;thermos-root-devel-WordCountTopology-2-1dddf7df-6a75-4e0e-bbc0-ba706e394bc1;["container_2_Emit_random_words_2"];2.25;1533753320.27869;21.56;418.27;13.323073561;10;149
41;paravance-64.rennes.grid5000.fr;thermos-root-devel-WordCountTopology-0-bc1f6ef9-a72b-4404-b5de-d78ec23fa783;["topology_master"];2.25;1533753320.26919;5.27;12.39;1.576839303;9;117
42;paravance-63.rennes.grid5000.fr;thermos-root-devel-WordCountTopology-1-ea573bbf-2a89-4876-8cbf-e68f846ba7bc;["container_1_Consume_and_count_1"];2.25;1533753330.48204;91.69;1016.43;965.373102585;10;151
42;paravance-65.rennes.grid5000.fr;thermos-root-devel-WordCountTopology-2-1dddf7df-6a75-4e0e-bbc0-ba706e394bc1;["container_2_Emit_random_words_2"];2.25;1533753330.49558;21.85;423.95;13.35053502;10;149
42;paravance-64.rennes.grid5000.fr;thermos-root-devel-WordCountTopology-0-bc1f6ef9-a72b-4404-b5de-d78ec23fa783;["topology_master"];2.25;1533753330.48589;5.34;12.51;1.576839303;9;117
43;paravance-63.rennes.grid5000.fr;thermos-root-devel-WordCountTopology-1-ea573bbf-2a89-4876-8cbf-e68f846ba7bc;["container_1_Consume_and_count_1"];2.25;1533753340.69936;92.58;1033.39;978.635039381;10;151
43;paravance-65.rennes.grid5000.fr;thermos-root-devel-WordCountTopology-2-1dddf7df-6a75-4e0e-bbc0-ba706e394bc1;["container_2_Emit_random_words_2"];2.25;1533753340.71265;22.22;431.24;13.354928609;10;149
43;paravance-64.rennes.grid5000.fr;thermos-root-devel-WordCountTopology-0-bc1f6ef9-a72b-4404-b5de-d78ec23fa783;["topology_master"];2.25;1533753340.70347;5.43;12.63;1.576839303;9;117
44;paravance-65.rennes.grid5000.fr;thermos-root-devel-WordCountTopology-2-1dddf7df-6a75-4e0e-bbc0-ba706e394bc1;["container_2_Emit_random_words_2"];2.25;1533753350.92835;22.5;437.28;13.354928609;10;149
44;paravance-64.rennes.grid5000.fr;thermos-root-devel-WordCountTopology-0-bc1f6ef9-a72b-4404-b5de-d78ec23fa783;["topology_master"];2.25;1533753350.92014;5.46;12.67;1.576839303;9;117
44;paravance-63.rennes.grid5000.fr;thermos-root-devel-WordCountTopology-1-ea573bbf-2a89-4876-8cbf-e68f846ba7bc;["container_1_Consume_and_count_1"];2.25;1533753350.91748;93.54;1053.25;995.328954318;10;151
45;paravance-65.rennes.grid5000.fr;thermos-root-devel-WordCountTopology-2-1dddf7df-6a75-4e0e-bbc0-ba706e394bc1;["container_2_Emit_random_words_2"];2.25;1533753361.14319;22.86;444.4;13.355958079;10;149
45;paravance-63.rennes.grid5000.fr;thermos-root-devel-WordCountTopology-1-ea573bbf-2a89-4876-8cbf-e68f846ba7bc;["container_1_Consume_and_count_1"];2.25;1533753361.13251;94.85;1073.96;1017.085962799;10;151
45;paravance-64.rennes.grid5000.fr;thermos-root-devel-WordCountTopology-0-bc1f6ef9-a72b-4404-b5de-d78ec23fa783;["topology_master"];2.25;1533753361.13627;5.55;12.8;1.576839303;9;117
46;paravance-64.rennes.grid5000.fr;thermos-root-devel-WordCountTopology-0-bc1f6ef9-a72b-4404-b5de-d78ec23fa783;["topology_master"];2.25;1533753371.35142;5.6;12.86;1.576839303;9;117
46;paravance-63.rennes.grid5000.fr;thermos-root-devel-WordCountTopology-1-ea573bbf-2a89-4876-8cbf-e68f846ba7bc;["container_1_Consume_and_count_1"];2.25;1533753371.3473;96.3;1094.31;1034.880163685;10;151
46;paravance-65.rennes.grid5000.fr;thermos-root-devel-WordCountTopology-2-1dddf7df-6a75-4e0e-bbc0-ba706e394bc1;["container_2_Emit_random_words_2"];2.25;1533753371.35896;23.06;447.19;13.355958079;10;149
47;paravance-63.rennes.grid5000.fr;thermos-root-devel-WordCountTopology-1-ea573bbf-2a89-4876-8cbf-e68f846ba7bc;["container_1_Consume_and_count_1"];2.25;1533753381.56145;97.68;1114.98;1055.171839109;10;151
47;paravance-64.rennes.grid5000.fr;thermos-root-devel-WordCountTopology-0-bc1f6ef9-a72b-4404-b5de-d78ec23fa783;["topology_master"];2.25;1533753381.56585;5.67;12.95;1.576839303;9;117
47;paravance-65.rennes.grid5000.fr;thermos-root-devel-WordCountTopology-2-1dddf7df-6a75-4e0e-bbc0-ba706e394bc1;["container_2_Emit_random_words_2"];2.25;1533753381.57424;23.41;454.0;13.355958079;10;149
48;paravance-63.rennes.grid5000.fr;thermos-root-devel-WordCountTopology-1-ea573bbf-2a89-4876-8cbf-e68f846ba7bc;["container_1_Consume_and_count_1"];2.25;1533753391.77791;99.26;1133.9;1072.980842051;10;151
48;paravance-64.rennes.grid5000.fr;thermos-root-devel-WordCountTopology-0-bc1f6ef9-a72b-4404-b5de-d78ec23fa783;["topology_master"];2.25;1533753391.78259;5.73;13.07;1.576839303;9;117
48;paravance-65.rennes.grid5000.fr;thermos-root-devel-WordCountTopology-2-1dddf7df-6a75-4e0e-bbc0-ba706e394bc1;["container_2_Emit_random_words_2"];2.25;1533753391.7919;23.76;461.46;13.373202554;10;149
49;paravance-63.rennes.grid5000.fr;thermos-root-devel-WordCountTopology-1-ea573bbf-2a89-4876-8cbf-e68f846ba7bc;["container_1_Consume_and_count_1"];2.25;1533753401.99313;100.56;1154.07;1093.196136875;10;151
49;paravance-64.rennes.grid5000.fr;thermos-root-devel-WordCountTopology-0-bc1f6ef9-a72b-4404-b5de-d78ec23fa783;["topology_master"];2.25;1533753401.99803;5.82;13.19;1.576839303;9;117
49;paravance-65.rennes.grid5000.fr;thermos-root-devel-WordCountTopology-2-1dddf7df-6a75-4e0e-bbc0-ba706e394bc1;["container_2_Emit_random_words_2"];2.25;1533753402.00763;24.11;468.26;13.376265525;10;149
50;paravance-64.rennes.grid5000.fr;thermos-root-devel-WordCountTopology-0-bc1f6ef9-a72b-4404-b5de-d78ec23fa783;["topology_master"];2.25;1533753412.21559;5.85;13.24;1.576839303;9;117
50;paravance-65.rennes.grid5000.fr;thermos-root-devel-WordCountTopology-2-1dddf7df-6a75-4e0e-bbc0-ba706e394bc1;["container_2_Emit_random_words_2"];2.25;1533753412.22577;24.46;476.92;13.376265525;10;149
50;paravance-63.rennes.grid5000.fr;thermos-root-devel-WordCountTopology-1-ea573bbf-2a89-4876-8cbf-e68f846ba7bc;["container_1_Consume_and_count_1"];2.25;1533753412.21208;102.15;1174.53;1115.330187686;10;151
51;paravance-63.rennes.grid5000.fr;thermos-root-devel-WordCountTopology-1-ea573bbf-2a89-4876-8cbf-e68f846ba7bc;["container_1_Consume_and_count_1"];2.25;1533753422.43145;103.99;1194.67;1131.29254173;10;151
51;paravance-64.rennes.grid5000.fr;thermos-root-devel-WordCountTopology-0-bc1f6ef9-a72b-4404-b5de-d78ec23fa783;["topology_master"];2.25;1533753422.43445;5.94;13.37;1.576839303;9;117
51;paravance-65.rennes.grid5000.fr;thermos-root-devel-WordCountTopology-2-1dddf7df-6a75-4e0e-bbc0-ba706e394bc1;["container_2_Emit_random_words_2"];2.25;1533753422.4442;24.85;484.61;13.376265525;10;149
52;paravance-63.rennes.grid5000.fr;thermos-root-devel-WordCountTopology-1-ea573bbf-2a89-4876-8cbf-e68f846ba7bc;["container_1_Consume_and_count_1"];2.25;1533753432.6488;106.09;1213.72;1145.036174856;10;151
52;paravance-64.rennes.grid5000.fr;thermos-root-devel-WordCountTopology-0-bc1f6ef9-a72b-4404-b5de-d78ec23fa783;["topology_master"];2.25;1533753432.65192;6.0;13.44;1.576839303;9;117
52;paravance-65.rennes.grid5000.fr;thermos-root-devel-WordCountTopology-2-1dddf7df-6a75-4e0e-bbc0-ba706e394bc1;["container_2_Emit_random_words_2"];2.25;1533753432.66282;25.38;497.2;13.376265525;10;149
53;paravance-65.rennes.grid5000.fr;thermos-root-devel-WordCountTopology-2-1dddf7df-6a75-4e0e-bbc0-ba706e394bc1;["container_2_Emit_random_words_2"];2.25;1533753442.87839;25.73;504.29;13.376265525;10;149
53;paravance-63.rennes.grid5000.fr;thermos-root-devel-WordCountTopology-1-ea573bbf-2a89-4876-8cbf-e68f846ba7bc;["container_1_Consume_and_count_1"];2.25;1533753442.86561;107.56;1234.26;1164.90861576;10;151
53;paravance-64.rennes.grid5000.fr;thermos-root-devel-WordCountTopology-0-bc1f6ef9-a72b-4404-b5de-d78ec23fa783;["topology_master"];2.25;1533753442.86828;6.07;13.56;1.576839303;9;117
54;paravance-65.rennes.grid5000.fr;thermos-root-devel-WordCountTopology-2-1dddf7df-6a75-4e0e-bbc0-ba706e394bc1;["container_2_Emit_random_words_2"];2.25;1533753453.09549;26.13;512.55;13.6152111;10;149
54;paravance-64.rennes.grid5000.fr;thermos-root-devel-WordCountTopology-0-bc1f6ef9-a72b-4404-b5de-d78ec23fa783;["topology_master"];2.25;1533753453.08583;6.13;13.64;1.576839303;9;117
54;paravance-63.rennes.grid5000.fr;thermos-root-devel-WordCountTopology-1-ea573bbf-2a89-4876-8cbf-e68f846ba7bc;["container_1_Consume_and_count_1"];2.25;1533753453.08328;108.84;1255.19;1186.709778152;10;151
55;paravance-65.rennes.grid5000.fr;thermos-root-devel-WordCountTopology-2-1dddf7df-6a75-4e0e-bbc0-ba706e394bc1;["container_2_Emit_random_words_2"];2.25;1533753463.31085;26.37;515.75;13.6152111;10;149
55;paravance-64.rennes.grid5000.fr;thermos-root-devel-WordCountTopology-0-bc1f6ef9-a72b-4404-b5de-d78ec23fa783;["topology_master"];2.25;1533753463.30235;6.22;13.76;1.576839303;9;117
55;paravance-63.rennes.grid5000.fr;thermos-root-devel-WordCountTopology-1-ea573bbf-2a89-4876-8cbf-e68f846ba7bc;["container_1_Consume_and_count_1"];2.25;1533753463.29852;110.33;1275.62;1206.947319476;10;151
56;paravance-64.rennes.grid5000.fr;thermos-root-devel-WordCountTopology-0-bc1f6ef9-a72b-4404-b5de-d78ec23fa783;["topology_master"];2.25;1533753473.51951;6.24;13.79;1.576839303;9;117
56;paravance-63.rennes.grid5000.fr;thermos-root-devel-WordCountTopology-1-ea573bbf-2a89-4876-8cbf-e68f846ba7bc;["container_1_Consume_and_count_1"];2.25;1533753473.51668;112.11;1295.7;1225.876540804;10;151
56;paravance-65.rennes.grid5000.fr;thermos-root-devel-WordCountTopology-2-1dddf7df-6a75-4e0e-bbc0-ba706e394bc1;["container_2_Emit_random_words_2"];2.25;1533753473.52969;26.61;520.61;13.6152111;10;149
57;paravance-63.rennes.grid5000.fr;thermos-root-devel-WordCountTopology-1-ea573bbf-2a89-4876-8cbf-e68f846ba7bc;["container_1_Consume_and_count_1"];2.25;1533753483.73406;113.48;1315.65;1243.56943802;10;151
57;paravance-64.rennes.grid5000.fr;thermos-root-devel-WordCountTopology-0-bc1f6ef9-a72b-4404-b5de-d78ec23fa783;["topology_master"];2.25;1533753483.73772;6.33;13.91;1.576839303;9;117
57;paravance-65.rennes.grid5000.fr;thermos-root-devel-WordCountTopology-2-1dddf7df-6a75-4e0e-bbc0-ba706e394bc1;["container_2_Emit_random_words_2"];2.25;1533753483.74774;26.98;527.01;13.615267024;10;149
58;paravance-64.rennes.grid5000.fr;thermos-root-devel-WordCountTopology-0-bc1f6ef9-a72b-4404-b5de-d78ec23fa783;["topology_master"];2.25;1533753493.95514;6.39;13.98;1.576839303;9;117
58;paravance-63.rennes.grid5000.fr;thermos-root-devel-WordCountTopology-1-ea573bbf-2a89-4876-8cbf-e68f846ba7bc;["container_1_Consume_and_count_1"];2.25;1533753493.95229;114.96;1335.31;1262.622769701;10;151
58;paravance-65.rennes.grid5000.fr;thermos-root-devel-WordCountTopology-2-1dddf7df-6a75-4e0e-bbc0-ba706e394bc1;["container_2_Emit_random_words_2"];2.25;1533753493.96576;27.32;534.0;13.654110458;10;149
59;paravance-63.rennes.grid5000.fr;thermos-root-devel-WordCountTopology-1-ea573bbf-2a89-4876-8cbf-e68f846ba7bc;["container_1_Consume_and_count_1"];2.25;1533753504.16733;116.41;1355.32;1281.111687891;10;151
59;paravance-64.rennes.grid5000.fr;thermos-root-devel-WordCountTopology-0-bc1f6ef9-a72b-4404-b5de-d78ec23fa783;["topology_master"];2.25;1533753504.17198;6.45;14.08;1.576839303;9;117
59;paravance-65.rennes.grid5000.fr;thermos-root-devel-WordCountTopology-2-1dddf7df-6a75-4e0e-bbc0-ba706e394bc1;["container_2_Emit_random_words_2"];2.25;1533753504.18064;27.77;544.87;14.129087196;10;149
60;paravance-64.rennes.grid5000.fr;thermos-root-devel-WordCountTopology-0-bc1f6ef9-a72b-4404-b5de-d78ec23fa783;["topology_master"];2.25;1533753514.38819;6.51;14.16;1.576839303;9;117
60;paravance-63.rennes.grid5000.fr;thermos-root-devel-WordCountTopology-1-ea573bbf-2a89-4876-8cbf-e68f846ba7bc;["container_1_Consume_and_count_1"];2.25;1533753514.38469;118.03;1375.7;1300.021067534;10;151
60;paravance-65.rennes.grid5000.fr;thermos-root-devel-WordCountTopology-2-1dddf7df-6a75-4e0e-bbc0-ba706e394bc1;["container_2_Emit_random_words_2"];2.25;1533753514.39867;27.98;548.45;14.14404982;10;149
