mesure_id;slave_id;executor_id;heron_instances;cpus_limit;timestamp_A;cpus_system_time_secs_A;cpus_user_time_secs_A;cpus_throttled_time_secs_A;processes;threads
0;paravance-3.rennes.grid5000.fr;thermos-root-devel-WordCountTopology-1-27160572-61a2-4064-a7ad-48ad017240e2;["container_1_Consume_and_count_1"];5.25;1533113408.24021;29.66;205.44;0.171767492;10;149
0;paravance-29.rennes.grid5000.fr;thermos-root-devel-WordCountTopology-0-4e1cddba-e250-4103-9441-6a3e6ca8ecef;["topology_master"];5.25;1533113408.28133;2.41;8.08;0.0;9;117
0;paravance-27.rennes.grid5000.fr;thermos-root-devel-WordCountTopology-2-79db9f22-4b89-49f3-ac77-479dec521c32;["container_2_Emit_random_words_2"];5.25;1533113408.1362;18.42;220.22;1.161265492;10;149
1;paravance-27.rennes.grid5000.fr;thermos-root-devel-WordCountTopology-2-79db9f22-4b89-49f3-ac77-479dec521c32;["container_2_Emit_random_words_2"];5.25;1533113418.36107;19.88;239.24;1.161265492;10;149
1;paravance-29.rennes.grid5000.fr;thermos-root-devel-WordCountTopology-0-4e1cddba-e250-4103-9441-6a3e6ca8ecef;["topology_master"];5.25;1533113418.5014;2.48;8.24;0.0;9;117
1;paravance-3.rennes.grid5000.fr;thermos-root-devel-WordCountTopology-1-27160572-61a2-4064-a7ad-48ad017240e2;["container_1_Consume_and_count_1"];5.25;1533113418.46015;32.35;226.66;0.171767492;10;149
2;paravance-27.rennes.grid5000.fr;thermos-root-devel-WordCountTopology-2-79db9f22-4b89-49f3-ac77-479dec521c32;["container_2_Emit_random_words_2"];5.25;1533113428.58125;21.39;258.14;1.161265492;10;149
2;paravance-29.rennes.grid5000.fr;thermos-root-devel-WordCountTopology-0-4e1cddba-e250-4103-9441-6a3e6ca8ecef;["topology_master"];5.25;1533113428.71787;2.57;8.37;0.0;9;117
2;paravance-3.rennes.grid5000.fr;thermos-root-devel-WordCountTopology-1-27160572-61a2-4064-a7ad-48ad017240e2;["container_1_Consume_and_count_1"];5.25;1533113428.67671;35.01;246.8;0.171767492;10;149
3;paravance-27.rennes.grid5000.fr;thermos-root-devel-WordCountTopology-2-79db9f22-4b89-49f3-ac77-479dec521c32;["container_2_Emit_random_words_2"];5.25;1533113438.80064;22.7;276.03;1.161265492;10;149
3;paravance-29.rennes.grid5000.fr;thermos-root-devel-WordCountTopology-0-4e1cddba-e250-4103-9441-6a3e6ca8ecef;["topology_master"];5.25;1533113438.93029;2.6;8.4;0.0;9;117
3;paravance-3.rennes.grid5000.fr;thermos-root-devel-WordCountTopology-1-27160572-61a2-4064-a7ad-48ad017240e2;["container_1_Consume_and_count_1"];5.25;1533113438.88881;37.31;267.14;0.171767492;10;149
4;paravance-27.rennes.grid5000.fr;thermos-root-devel-WordCountTopology-2-79db9f22-4b89-49f3-ac77-479dec521c32;["container_2_Emit_random_words_2"];5.25;1533113448.92178;24.16;294.82;1.161265492;10;149
4;paravance-29.rennes.grid5000.fr;thermos-root-devel-WordCountTopology-0-4e1cddba-e250-4103-9441-6a3e6ca8ecef;["topology_master"];5.25;1533113449.14768;2.69;8.53;0.0;9;117
4;paravance-3.rennes.grid5000.fr;thermos-root-devel-WordCountTopology-1-27160572-61a2-4064-a7ad-48ad017240e2;["container_1_Consume_and_count_1"];5.25;1533113449.10628;39.61;286.59;0.171767492;10;149
5;paravance-3.rennes.grid5000.fr;thermos-root-devel-WordCountTopology-1-27160572-61a2-4064-a7ad-48ad017240e2;["container_1_Consume_and_count_1"];5.25;1533113459.32138;41.81;305.8;0.171767492;10;149
5;paravance-29.rennes.grid5000.fr;thermos-root-devel-WordCountTopology-0-4e1cddba-e250-4103-9441-6a3e6ca8ecef;["topology_master"];5.25;1533113459.36376;2.75;8.61;0.0;9;117
5;paravance-27.rennes.grid5000.fr;thermos-root-devel-WordCountTopology-2-79db9f22-4b89-49f3-ac77-479dec521c32;["container_2_Emit_random_words_2"];5.25;1533113459.24587;25.52;312.65;1.161265492;10;149
6;paravance-3.rennes.grid5000.fr;thermos-root-devel-WordCountTopology-1-27160572-61a2-4064-a7ad-48ad017240e2;["container_1_Consume_and_count_1"];5.25;1533113469.53571;44.25;325.14;0.171767492;10;149
6;paravance-27.rennes.grid5000.fr;thermos-root-devel-WordCountTopology-2-79db9f22-4b89-49f3-ac77-479dec521c32;["container_2_Emit_random_words_2"];5.25;1533113469.46275;26.9;329.93;1.161265492;10;149
6;paravance-29.rennes.grid5000.fr;thermos-root-devel-WordCountTopology-0-4e1cddba-e250-4103-9441-6a3e6ca8ecef;["topology_master"];5.25;1533113469.57747;2.87;8.79;0.0;9;117
7;paravance-27.rennes.grid5000.fr;thermos-root-devel-WordCountTopology-2-79db9f22-4b89-49f3-ac77-479dec521c32;["container_2_Emit_random_words_2"];5.25;1533113479.68332;28.25;348.34;1.161265492;10;149
7;paravance-29.rennes.grid5000.fr;thermos-root-devel-WordCountTopology-0-4e1cddba-e250-4103-9441-6a3e6ca8ecef;["topology_master"];5.25;1533113479.7937;2.91;8.88;0.0;9;117
7;paravance-3.rennes.grid5000.fr;thermos-root-devel-WordCountTopology-1-27160572-61a2-4064-a7ad-48ad017240e2;["container_1_Consume_and_count_1"];5.25;1533113479.75187;46.63;345.06;0.171767492;10;149
8;paravance-27.rennes.grid5000.fr;thermos-root-devel-WordCountTopology-2-79db9f22-4b89-49f3-ac77-479dec521c32;["container_2_Emit_random_words_2"];5.25;1533113489.90196;29.69;366.16;1.161265492;10;149
8;paravance-3.rennes.grid5000.fr;thermos-root-devel-WordCountTopology-1-27160572-61a2-4064-a7ad-48ad017240e2;["container_1_Consume_and_count_1"];5.25;1533113489.96494;48.99;363.35;0.171767492;10;149
8;paravance-29.rennes.grid5000.fr;thermos-root-devel-WordCountTopology-0-4e1cddba-e250-4103-9441-6a3e6ca8ecef;["topology_master"];5.25;1533113490.00882;3.0;9.02;0.0;9;117
9;paravance-27.rennes.grid5000.fr;thermos-root-devel-WordCountTopology-2-79db9f22-4b89-49f3-ac77-479dec521c32;["container_2_Emit_random_words_2"];5.25;1533113500.12355;31.12;385.43;1.161265492;10;149
9;paravance-3.rennes.grid5000.fr;thermos-root-devel-WordCountTopology-1-27160572-61a2-4064-a7ad-48ad017240e2;["container_1_Consume_and_count_1"];5.25;1533113500.18045;51.48;378.84;0.171767492;10;149
9;paravance-29.rennes.grid5000.fr;thermos-root-devel-WordCountTopology-0-4e1cddba-e250-4103-9441-6a3e6ca8ecef;["topology_master"];5.25;1533113500.22251;3.06;9.09;0.0;9;117
10;paravance-29.rennes.grid5000.fr;thermos-root-devel-WordCountTopology-0-4e1cddba-e250-4103-9441-6a3e6ca8ecef;["topology_master"];5.25;1533113510.33672;3.11;9.16;0.0;9;117
10;paravance-3.rennes.grid5000.fr;thermos-root-devel-WordCountTopology-1-27160572-61a2-4064-a7ad-48ad017240e2;["container_1_Consume_and_count_1"];5.25;1533113510.39529;53.91;393.85;0.171767492;10;149
10;paravance-27.rennes.grid5000.fr;thermos-root-devel-WordCountTopology-2-79db9f22-4b89-49f3-ac77-479dec521c32;["container_2_Emit_random_words_2"];5.25;1533113510.3427;32.56;404.21;1.161265492;10;149
11;paravance-27.rennes.grid5000.fr;thermos-root-devel-WordCountTopology-2-79db9f22-4b89-49f3-ac77-479dec521c32;["container_2_Emit_random_words_2"];5.25;1533113520.46286;33.98;423.08;1.161265492;10;149
11;paravance-29.rennes.grid5000.fr;thermos-root-devel-WordCountTopology-0-4e1cddba-e250-4103-9441-6a3e6ca8ecef;["topology_master"];5.25;1533113520.65259;3.17;9.24;0.0;9;117
11;paravance-3.rennes.grid5000.fr;thermos-root-devel-WordCountTopology-1-27160572-61a2-4064-a7ad-48ad017240e2;["container_1_Consume_and_count_1"];5.25;1533113520.61085;56.38;409.2;0.171767492;10;149
12;paravance-3.rennes.grid5000.fr;thermos-root-devel-WordCountTopology-1-27160572-61a2-4064-a7ad-48ad017240e2;["container_1_Consume_and_count_1"];5.25;1533113530.82703;58.91;424.79;0.171767492;10;149
12;paravance-29.rennes.grid5000.fr;thermos-root-devel-WordCountTopology-0-4e1cddba-e250-4103-9441-6a3e6ca8ecef;["topology_master"];5.25;1533113530.86838;3.3;9.54;0.0;9;117
12;paravance-27.rennes.grid5000.fr;thermos-root-devel-WordCountTopology-2-79db9f22-4b89-49f3-ac77-479dec521c32;["container_2_Emit_random_words_2"];5.25;1533113530.78456;35.48;442.38;1.161265492;10;149
13;paravance-3.rennes.grid5000.fr;thermos-root-devel-WordCountTopology-1-27160572-61a2-4064-a7ad-48ad017240e2;["container_1_Consume_and_count_1"];5.25;1533113541.04302;61.39;440.2;0.171767492;10;149
13;paravance-29.rennes.grid5000.fr;thermos-root-devel-WordCountTopology-0-4e1cddba-e250-4103-9441-6a3e6ca8ecef;["topology_master"];5.25;1533113541.08423;3.33;9.57;0.0;9;117
13;paravance-27.rennes.grid5000.fr;thermos-root-devel-WordCountTopology-2-79db9f22-4b89-49f3-ac77-479dec521c32;["container_2_Emit_random_words_2"];5.25;1533113541.00654;36.88;461.52;1.161265492;10;149
14;paravance-3.rennes.grid5000.fr;thermos-root-devel-WordCountTopology-1-27160572-61a2-4064-a7ad-48ad017240e2;["container_1_Consume_and_count_1"];5.25;1533113551.25607;63.85;455.16;0.171767492;10;149
14;paravance-29.rennes.grid5000.fr;thermos-root-devel-WordCountTopology-0-4e1cddba-e250-4103-9441-6a3e6ca8ecef;["topology_master"];5.25;1533113551.29807;3.42;9.7;0.0;9;117
14;paravance-27.rennes.grid5000.fr;thermos-root-devel-WordCountTopology-2-79db9f22-4b89-49f3-ac77-479dec521c32;["container_2_Emit_random_words_2"];5.25;1533113551.22472;38.34;480.87;1.161265492;10;149
15;paravance-29.rennes.grid5000.fr;thermos-root-devel-WordCountTopology-0-4e1cddba-e250-4103-9441-6a3e6ca8ecef;["topology_master"];5.25;1533113561.51337;3.48;9.77;0.0;9;117
15;paravance-3.rennes.grid5000.fr;thermos-root-devel-WordCountTopology-1-27160572-61a2-4064-a7ad-48ad017240e2;["container_1_Consume_and_count_1"];5.25;1533113561.47099;66.36;470.58;0.171767492;10;149
15;paravance-27.rennes.grid5000.fr;thermos-root-devel-WordCountTopology-2-79db9f22-4b89-49f3-ac77-479dec521c32;["container_2_Emit_random_words_2"];5.25;1533113561.44421;39.84;499.56;1.161265492;10;149
16;paravance-27.rennes.grid5000.fr;thermos-root-devel-WordCountTopology-2-79db9f22-4b89-49f3-ac77-479dec521c32;["container_2_Emit_random_words_2"];5.25;1533113571.66556;41.37;518.28;1.161265492;10;149
16;paravance-3.rennes.grid5000.fr;thermos-root-devel-WordCountTopology-1-27160572-61a2-4064-a7ad-48ad017240e2;["container_1_Consume_and_count_1"];5.25;1533113571.68865;68.91;486.41;0.171767492;10;149
16;paravance-29.rennes.grid5000.fr;thermos-root-devel-WordCountTopology-0-4e1cddba-e250-4103-9441-6a3e6ca8ecef;["topology_master"];5.25;1533113571.73124;3.54;9.85;0.0;9;117
17;paravance-27.rennes.grid5000.fr;thermos-root-devel-WordCountTopology-2-79db9f22-4b89-49f3-ac77-479dec521c32;["container_2_Emit_random_words_2"];5.25;1533113581.88474;42.79;537.24;1.161265492;10;149
17;paravance-3.rennes.grid5000.fr;thermos-root-devel-WordCountTopology-1-27160572-61a2-4064-a7ad-48ad017240e2;["container_1_Consume_and_count_1"];5.25;1533113581.90179;71.46;501.85;0.171767492;10;149
17;paravance-29.rennes.grid5000.fr;thermos-root-devel-WordCountTopology-0-4e1cddba-e250-4103-9441-6a3e6ca8ecef;["topology_master"];5.25;1533113581.94381;3.6;9.93;0.0;9;117
18;paravance-3.rennes.grid5000.fr;thermos-root-devel-WordCountTopology-1-27160572-61a2-4064-a7ad-48ad017240e2;["container_1_Consume_and_count_1"];5.25;1533113592.1167;74.02;517.25;0.171767492;10;149
18;paravance-27.rennes.grid5000.fr;thermos-root-devel-WordCountTopology-2-79db9f22-4b89-49f3-ac77-479dec521c32;["container_2_Emit_random_words_2"];5.25;1533113592.10468;44.28;556.3;1.161265492;10;149
18;paravance-29.rennes.grid5000.fr;thermos-root-devel-WordCountTopology-0-4e1cddba-e250-4103-9441-6a3e6ca8ecef;["topology_master"];5.25;1533113592.15987;3.72;10.13;0.0;9;117
19;paravance-3.rennes.grid5000.fr;thermos-root-devel-WordCountTopology-1-27160572-61a2-4064-a7ad-48ad017240e2;["container_1_Consume_and_count_1"];5.25;1533113602.33522;76.63;533.61;0.171767492;10;149
19;paravance-29.rennes.grid5000.fr;thermos-root-devel-WordCountTopology-0-4e1cddba-e250-4103-9441-6a3e6ca8ecef;["topology_master"];5.25;1533113602.37742;3.75;10.16;0.0;9;117
19;paravance-27.rennes.grid5000.fr;thermos-root-devel-WordCountTopology-2-79db9f22-4b89-49f3-ac77-479dec521c32;["container_2_Emit_random_words_2"];5.25;1533113602.32855;45.73;575.03;1.161265492;10;149
20;paravance-27.rennes.grid5000.fr;thermos-root-devel-WordCountTopology-2-79db9f22-4b89-49f3-ac77-479dec521c32;["container_2_Emit_random_words_2"];5.25;1533113612.55046;47.2;593.97;1.161265492;10;149
20;paravance-29.rennes.grid5000.fr;thermos-root-devel-WordCountTopology-0-4e1cddba-e250-4103-9441-6a3e6ca8ecef;["topology_master"];5.25;1533113612.59275;3.84;10.29;0.0;9;117
20;paravance-3.rennes.grid5000.fr;thermos-root-devel-WordCountTopology-1-27160572-61a2-4064-a7ad-48ad017240e2;["container_1_Consume_and_count_1"];5.25;1533113612.55112;79.18;548.96;0.171767492;10;149
21;paravance-3.rennes.grid5000.fr;thermos-root-devel-WordCountTopology-1-27160572-61a2-4064-a7ad-48ad017240e2;["container_1_Consume_and_count_1"];5.25;1533113622.7667;81.68;564.18;0.171767492;10;149
21;paravance-29.rennes.grid5000.fr;thermos-root-devel-WordCountTopology-0-4e1cddba-e250-4103-9441-6a3e6ca8ecef;["topology_master"];5.25;1533113622.80878;3.9;10.36;0.0;9;117
21;paravance-27.rennes.grid5000.fr;thermos-root-devel-WordCountTopology-2-79db9f22-4b89-49f3-ac77-479dec521c32;["container_2_Emit_random_words_2"];5.25;1533113622.771;48.68;612.66;1.161265492;10;149
22;paravance-29.rennes.grid5000.fr;thermos-root-devel-WordCountTopology-0-4e1cddba-e250-4103-9441-6a3e6ca8ecef;["topology_master"];5.25;1533113633.02555;3.96;10.43;0.0;9;117
22;paravance-27.rennes.grid5000.fr;thermos-root-devel-WordCountTopology-2-79db9f22-4b89-49f3-ac77-479dec521c32;["container_2_Emit_random_words_2"];5.25;1533113632.99172;50.13;631.51;1.161265492;10;149
22;paravance-3.rennes.grid5000.fr;thermos-root-devel-WordCountTopology-1-27160572-61a2-4064-a7ad-48ad017240e2;["container_1_Consume_and_count_1"];5.25;1533113632.98394;84.23;579.93;0.171767492;10;149
23;paravance-3.rennes.grid5000.fr;thermos-root-devel-WordCountTopology-1-27160572-61a2-4064-a7ad-48ad017240e2;["container_1_Consume_and_count_1"];5.25;1533113643.19794;86.73;595.8;0.171767492;10;149
23;paravance-27.rennes.grid5000.fr;thermos-root-devel-WordCountTopology-2-79db9f22-4b89-49f3-ac77-479dec521c32;["container_2_Emit_random_words_2"];5.25;1533113643.21188;51.53;650.67;1.161265492;10;149
23;paravance-29.rennes.grid5000.fr;thermos-root-devel-WordCountTopology-0-4e1cddba-e250-4103-9441-6a3e6ca8ecef;["topology_master"];5.25;1533113643.24015;4.01;10.5;0.0;9;117
24;paravance-3.rennes.grid5000.fr;thermos-root-devel-WordCountTopology-1-27160572-61a2-4064-a7ad-48ad017240e2;["container_1_Consume_and_count_1"];5.25;1533113653.41435;89.3;611.53;0.171767492;10;149
24;paravance-27.rennes.grid5000.fr;thermos-root-devel-WordCountTopology-2-79db9f22-4b89-49f3-ac77-479dec521c32;["container_2_Emit_random_words_2"];5.25;1533113653.43367;53.0;669.89;1.161265492;10;149
24;paravance-29.rennes.grid5000.fr;thermos-root-devel-WordCountTopology-0-4e1cddba-e250-4103-9441-6a3e6ca8ecef;["topology_master"];5.25;1533113653.4562;4.13;10.69;0.0;9;117
25;paravance-29.rennes.grid5000.fr;thermos-root-devel-WordCountTopology-0-4e1cddba-e250-4103-9441-6a3e6ca8ecef;["topology_master"];5.25;1533113663.67038;4.16;10.72;0.0;9;117
25;paravance-27.rennes.grid5000.fr;thermos-root-devel-WordCountTopology-2-79db9f22-4b89-49f3-ac77-479dec521c32;["container_2_Emit_random_words_2"];5.25;1533113663.65227;54.44;688.73;1.161265492;10;149
25;paravance-3.rennes.grid5000.fr;thermos-root-devel-WordCountTopology-1-27160572-61a2-4064-a7ad-48ad017240e2;["container_1_Consume_and_count_1"];5.25;1533113663.62754;91.89;627.14;0.171767492;10;149
26;paravance-3.rennes.grid5000.fr;thermos-root-devel-WordCountTopology-1-27160572-61a2-4064-a7ad-48ad017240e2;["container_1_Consume_and_count_1"];5.25;1533113673.8498;94.45;642.69;0.171767492;10;149
26;paravance-27.rennes.grid5000.fr;thermos-root-devel-WordCountTopology-2-79db9f22-4b89-49f3-ac77-479dec521c32;["container_2_Emit_random_words_2"];5.25;1533113673.87927;55.92;707.86;1.161265492;10;149
26;paravance-29.rennes.grid5000.fr;thermos-root-devel-WordCountTopology-0-4e1cddba-e250-4103-9441-6a3e6ca8ecef;["topology_master"];5.25;1533113673.89264;4.25;10.84;0.0;9;117
27;paravance-29.rennes.grid5000.fr;thermos-root-devel-WordCountTopology-0-4e1cddba-e250-4103-9441-6a3e6ca8ecef;["topology_master"];5.25;1533113684.10741;4.3;10.91;0.0;9;117
27;paravance-3.rennes.grid5000.fr;thermos-root-devel-WordCountTopology-1-27160572-61a2-4064-a7ad-48ad017240e2;["container_1_Consume_and_count_1"];5.25;1533113684.06631;96.98;658.51;0.171767492;10;149
27;paravance-27.rennes.grid5000.fr;thermos-root-devel-WordCountTopology-2-79db9f22-4b89-49f3-ac77-479dec521c32;["container_2_Emit_random_words_2"];5.25;1533113684.10038;57.36;727.02;1.161265492;10;149
28;paravance-3.rennes.grid5000.fr;thermos-root-devel-WordCountTopology-1-27160572-61a2-4064-a7ad-48ad017240e2;["container_1_Consume_and_count_1"];5.25;1533113694.2804;99.51;677.37;0.171767492;10;149
28;paravance-27.rennes.grid5000.fr;thermos-root-devel-WordCountTopology-2-79db9f22-4b89-49f3-ac77-479dec521c32;["container_2_Emit_random_words_2"];5.25;1533113694.31959;58.71;744.76;1.161265492;10;149
28;paravance-29.rennes.grid5000.fr;thermos-root-devel-WordCountTopology-0-4e1cddba-e250-4103-9441-6a3e6ca8ecef;["topology_master"];5.25;1533113694.32342;4.36;10.99;0.0;9;117
29;paravance-27.rennes.grid5000.fr;thermos-root-devel-WordCountTopology-2-79db9f22-4b89-49f3-ac77-479dec521c32;["container_2_Emit_random_words_2"];5.25;1533113704.54066;60.15;763.45;1.161265492;10;147
29;paravance-3.rennes.grid5000.fr;thermos-root-devel-WordCountTopology-1-27160572-61a2-4064-a7ad-48ad017240e2;["container_1_Consume_and_count_1"];5.25;1533113704.49748;101.94;696.9;0.171767492;10;149
29;paravance-29.rennes.grid5000.fr;thermos-root-devel-WordCountTopology-0-4e1cddba-e250-4103-9441-6a3e6ca8ecef;["topology_master"];5.25;1533113704.53961;4.42;11.06;0.0;9;117
30;paravance-3.rennes.grid5000.fr;thermos-root-devel-WordCountTopology-1-27160572-61a2-4064-a7ad-48ad017240e2;["container_1_Consume_and_count_1"];5.25;1533113714.71379;104.54;716.74;0.171767492;10;149
30;paravance-27.rennes.grid5000.fr;thermos-root-devel-WordCountTopology-2-79db9f22-4b89-49f3-ac77-479dec521c32;["container_2_Emit_random_words_2"];5.25;1533113714.76315;61.63;782.29;1.161265492;10;149
30;paravance-29.rennes.grid5000.fr;thermos-root-devel-WordCountTopology-0-4e1cddba-e250-4103-9441-6a3e6ca8ecef;["topology_master"];5.25;1533113714.75664;4.54;11.25;0.0;9;117
31;paravance-3.rennes.grid5000.fr;thermos-root-devel-WordCountTopology-1-27160572-61a2-4064-a7ad-48ad017240e2;["container_1_Consume_and_count_1"];5.25;1533113724.92988;106.98;736.97;0.171767492;10;149
31;paravance-27.rennes.grid5000.fr;thermos-root-devel-WordCountTopology-2-79db9f22-4b89-49f3-ac77-479dec521c32;["container_2_Emit_random_words_2"];5.25;1533113724.98435;62.97;800.21;1.161265492;10;149
31;paravance-29.rennes.grid5000.fr;thermos-root-devel-WordCountTopology-0-4e1cddba-e250-4103-9441-6a3e6ca8ecef;["topology_master"];5.25;1533113724.97266;4.6;11.34;0.0;9;117
32;paravance-3.rennes.grid5000.fr;thermos-root-devel-WordCountTopology-1-27160572-61a2-4064-a7ad-48ad017240e2;["container_1_Consume_and_count_1"];5.25;1533113735.14606;109.58;756.59;0.171767492;10;149
32;paravance-27.rennes.grid5000.fr;thermos-root-devel-WordCountTopology-2-79db9f22-4b89-49f3-ac77-479dec521c32;["container_2_Emit_random_words_2"];5.25;1533113735.20513;64.44;818.61;1.161265492;10;149
32;paravance-29.rennes.grid5000.fr;thermos-root-devel-WordCountTopology-0-4e1cddba-e250-4103-9441-6a3e6ca8ecef;["topology_master"];5.25;1533113735.18866;4.66;11.41;0.0;9;117
33;paravance-3.rennes.grid5000.fr;thermos-root-devel-WordCountTopology-1-27160572-61a2-4064-a7ad-48ad017240e2;["container_1_Consume_and_count_1"];5.25;1533113745.36076;112.01;775.8;0.171767492;10;149
33;paravance-27.rennes.grid5000.fr;thermos-root-devel-WordCountTopology-2-79db9f22-4b89-49f3-ac77-479dec521c32;["container_2_Emit_random_words_2"];5.25;1533113745.42543;65.82;836.15;1.161265492;10;149
33;paravance-29.rennes.grid5000.fr;thermos-root-devel-WordCountTopology-0-4e1cddba-e250-4103-9441-6a3e6ca8ecef;["topology_master"];5.25;1533113745.40415;4.75;11.54;0.0;9;117
34;paravance-3.rennes.grid5000.fr;thermos-root-devel-WordCountTopology-1-27160572-61a2-4064-a7ad-48ad017240e2;["container_1_Consume_and_count_1"];5.25;1533113755.58342;114.09;793.48;0.171767492;10;149
34;paravance-27.rennes.grid5000.fr;thermos-root-devel-WordCountTopology-2-79db9f22-4b89-49f3-ac77-479dec521c32;["container_2_Emit_random_words_2"];5.25;1533113755.65357;67.19;853.75;1.161265492;10;149
34;paravance-29.rennes.grid5000.fr;thermos-root-devel-WordCountTopology-0-4e1cddba-e250-4103-9441-6a3e6ca8ecef;["topology_master"];5.25;1533113755.62602;4.78;11.57;0.0;9;117
35;paravance-3.rennes.grid5000.fr;thermos-root-devel-WordCountTopology-1-27160572-61a2-4064-a7ad-48ad017240e2;["container_1_Consume_and_count_1"];5.25;1533113765.79744;116.19;809.02;0.171767492;10;149
35;paravance-27.rennes.grid5000.fr;thermos-root-devel-WordCountTopology-2-79db9f22-4b89-49f3-ac77-479dec521c32;["container_2_Emit_random_words_2"];5.25;1533113765.87241;68.71;872.68;1.161265492;10;149
35;paravance-29.rennes.grid5000.fr;thermos-root-devel-WordCountTopology-0-4e1cddba-e250-4103-9441-6a3e6ca8ecef;["topology_master"];5.25;1533113765.83953;4.88;11.71;0.0;9;117
36;paravance-29.rennes.grid5000.fr;thermos-root-devel-WordCountTopology-0-4e1cddba-e250-4103-9441-6a3e6ca8ecef;["topology_master"];5.25;1533113776.05692;4.95;11.9;0.0;9;117
36;paravance-3.rennes.grid5000.fr;thermos-root-devel-WordCountTopology-1-27160572-61a2-4064-a7ad-48ad017240e2;["container_1_Consume_and_count_1"];5.25;1533113776.01378;118.1;823.99;0.171767492;10;149
36;paravance-27.rennes.grid5000.fr;thermos-root-devel-WordCountTopology-2-79db9f22-4b89-49f3-ac77-479dec521c32;["container_2_Emit_random_words_2"];5.25;1533113776.08759;70.21;891.59;1.161265492;10;149
37;paravance-3.rennes.grid5000.fr;thermos-root-devel-WordCountTopology-1-27160572-61a2-4064-a7ad-48ad017240e2;["container_1_Consume_and_count_1"];5.25;1533113786.22597;120.1;839.77;0.171767492;10;149
37;paravance-27.rennes.grid5000.fr;thermos-root-devel-WordCountTopology-2-79db9f22-4b89-49f3-ac77-479dec521c32;["container_2_Emit_random_words_2"];5.25;1533113786.30076;71.7;910.58;1.161265492;10;149
37;paravance-29.rennes.grid5000.fr;thermos-root-devel-WordCountTopology-0-4e1cddba-e250-4103-9441-6a3e6ca8ecef;["topology_master"];5.25;1533113786.26799;5.02;11.98;0.0;9;117
38;paravance-27.rennes.grid5000.fr;thermos-root-devel-WordCountTopology-2-79db9f22-4b89-49f3-ac77-479dec521c32;["container_2_Emit_random_words_2"];5.25;1533113796.51507;73.13;929.49;1.161265492;10;149
38;paravance-3.rennes.grid5000.fr;thermos-root-devel-WordCountTopology-1-27160572-61a2-4064-a7ad-48ad017240e2;["container_1_Consume_and_count_1"];5.25;1533113796.44208;122.0;855.09;0.171767492;10;149
38;paravance-29.rennes.grid5000.fr;thermos-root-devel-WordCountTopology-0-4e1cddba-e250-4103-9441-6a3e6ca8ecef;["topology_master"];5.25;1533113796.48366;5.08;12.05;0.0;9;117
39;paravance-27.rennes.grid5000.fr;thermos-root-devel-WordCountTopology-2-79db9f22-4b89-49f3-ac77-479dec521c32;["container_2_Emit_random_words_2"];5.25;1533113806.63102;74.6;948.28;1.161265492;10;149
39;paravance-3.rennes.grid5000.fr;thermos-root-devel-WordCountTopology-1-27160572-61a2-4064-a7ad-48ad017240e2;["container_1_Consume_and_count_1"];5.25;1533113806.65704;124.01;870.82;0.171767492;10;149
39;paravance-29.rennes.grid5000.fr;thermos-root-devel-WordCountTopology-0-4e1cddba-e250-4103-9441-6a3e6ca8ecef;["topology_master"];5.25;1533113806.6989;5.17;12.17;0.0;9;117
40;paravance-29.rennes.grid5000.fr;thermos-root-devel-WordCountTopology-0-4e1cddba-e250-4103-9441-6a3e6ca8ecef;["topology_master"];5.25;1533113816.91511;5.22;12.24;0.0;9;117
40;paravance-27.rennes.grid5000.fr;thermos-root-devel-WordCountTopology-2-79db9f22-4b89-49f3-ac77-479dec521c32;["container_2_Emit_random_words_2"];5.25;1533113816.94677;76.1;967.27;1.161265492;10;149
40;paravance-3.rennes.grid5000.fr;thermos-root-devel-WordCountTopology-1-27160572-61a2-4064-a7ad-48ad017240e2;["container_1_Consume_and_count_1"];5.25;1533113816.9151;125.96;886.75;0.171767492;10;149
41;paravance-27.rennes.grid5000.fr;thermos-root-devel-WordCountTopology-2-79db9f22-4b89-49f3-ac77-479dec521c32;["container_2_Emit_random_words_2"];5.25;1533113827.20231;77.58;986.26;1.161265492;10;149
41;paravance-3.rennes.grid5000.fr;thermos-root-devel-WordCountTopology-1-27160572-61a2-4064-a7ad-48ad017240e2;["container_1_Consume_and_count_1"];5.25;1533113827.12807;127.89;902.61;0.171767492;10;149
41;paravance-29.rennes.grid5000.fr;thermos-root-devel-WordCountTopology-0-4e1cddba-e250-4103-9441-6a3e6ca8ecef;["topology_master"];5.25;1533113827.17234;5.3;12.34;0.0;9;117
42;paravance-3.rennes.grid5000.fr;thermos-root-devel-WordCountTopology-1-27160572-61a2-4064-a7ad-48ad017240e2;["container_1_Consume_and_count_1"];5.25;1533113837.34429;129.91;918.8;0.171767492;10;149
42;paravance-27.rennes.grid5000.fr;thermos-root-devel-WordCountTopology-2-79db9f22-4b89-49f3-ac77-479dec521c32;["container_2_Emit_random_words_2"];5.25;1533113837.41844;79.04;1005.21;1.161265492;10;149
42;paravance-29.rennes.grid5000.fr;thermos-root-devel-WordCountTopology-0-4e1cddba-e250-4103-9441-6a3e6ca8ecef;["topology_master"];5.25;1533113837.38673;5.37;12.45;0.0;9;117
43;paravance-27.rennes.grid5000.fr;thermos-root-devel-WordCountTopology-2-79db9f22-4b89-49f3-ac77-479dec521c32;["container_2_Emit_random_words_2"];5.25;1533113847.63308;80.49;1024.35;1.161265492;10;149
43;paravance-29.rennes.grid5000.fr;thermos-root-devel-WordCountTopology-0-4e1cddba-e250-4103-9441-6a3e6ca8ecef;["topology_master"];5.25;1533113847.60203;5.46;12.57;0.0;9;117
43;paravance-3.rennes.grid5000.fr;thermos-root-devel-WordCountTopology-1-27160572-61a2-4064-a7ad-48ad017240e2;["container_1_Consume_and_count_1"];5.25;1533113847.55988;131.91;934.8;0.171767492;10;149
44;paravance-3.rennes.grid5000.fr;thermos-root-devel-WordCountTopology-1-27160572-61a2-4064-a7ad-48ad017240e2;["container_1_Consume_and_count_1"];5.25;1533113857.77487;133.89;950.91;0.171767492;10;149
44;paravance-27.rennes.grid5000.fr;thermos-root-devel-WordCountTopology-2-79db9f22-4b89-49f3-ac77-479dec521c32;["container_2_Emit_random_words_2"];5.25;1533113857.84859;81.91;1043.3;1.161265492;10;149
44;paravance-29.rennes.grid5000.fr;thermos-root-devel-WordCountTopology-0-4e1cddba-e250-4103-9441-6a3e6ca8ecef;["topology_master"];5.25;1533113857.81798;5.49;12.6;0.0;9;117
45;paravance-27.rennes.grid5000.fr;thermos-root-devel-WordCountTopology-2-79db9f22-4b89-49f3-ac77-479dec521c32;["container_2_Emit_random_words_2"];5.25;1533113867.96461;83.35;1061.92;1.161265492;10;149
45;paravance-29.rennes.grid5000.fr;thermos-root-devel-WordCountTopology-0-4e1cddba-e250-4103-9441-6a3e6ca8ecef;["topology_master"];5.25;1533113868.03197;5.58;12.72;0.0;9;117
45;paravance-3.rennes.grid5000.fr;thermos-root-devel-WordCountTopology-1-27160572-61a2-4064-a7ad-48ad017240e2;["container_1_Consume_and_count_1"];5.25;1533113867.99152;135.89;966.7;0.171767492;10;149
46;paravance-27.rennes.grid5000.fr;thermos-root-devel-WordCountTopology-2-79db9f22-4b89-49f3-ac77-479dec521c32;["container_2_Emit_random_words_2"];5.25;1533113878.27926;84.83;1080.72;1.161265492;10;149
46;paravance-3.rennes.grid5000.fr;thermos-root-devel-WordCountTopology-1-27160572-61a2-4064-a7ad-48ad017240e2;["container_1_Consume_and_count_1"];5.25;1533113878.20579;137.84;982.54;0.171767492;10;149
46;paravance-29.rennes.grid5000.fr;thermos-root-devel-WordCountTopology-0-4e1cddba-e250-4103-9441-6a3e6ca8ecef;["topology_master"];5.25;1533113878.24803;5.63;12.79;0.0;9;117
47;paravance-3.rennes.grid5000.fr;thermos-root-devel-WordCountTopology-1-27160572-61a2-4064-a7ad-48ad017240e2;["container_1_Consume_and_count_1"];5.25;1533113888.42089;139.82;998.4;0.171767492;10;149
47;paravance-27.rennes.grid5000.fr;thermos-root-devel-WordCountTopology-2-79db9f22-4b89-49f3-ac77-479dec521c32;["container_2_Emit_random_words_2"];5.25;1533113888.49497;86.27;1099.65;1.161265492;10;149
47;paravance-29.rennes.grid5000.fr;thermos-root-devel-WordCountTopology-0-4e1cddba-e250-4103-9441-6a3e6ca8ecef;["topology_master"];5.25;1533113888.46351;5.71;12.89;0.0;9;117
48;paravance-27.rennes.grid5000.fr;thermos-root-devel-WordCountTopology-2-79db9f22-4b89-49f3-ac77-479dec521c32;["container_2_Emit_random_words_2"];5.25;1533113898.70907;87.72;1118.51;1.161265492;10;149
48;paravance-3.rennes.grid5000.fr;thermos-root-devel-WordCountTopology-1-27160572-61a2-4064-a7ad-48ad017240e2;["container_1_Consume_and_count_1"];5.25;1533113898.63565;141.95;1015.66;0.171767492;10;149
48;paravance-29.rennes.grid5000.fr;thermos-root-devel-WordCountTopology-0-4e1cddba-e250-4103-9441-6a3e6ca8ecef;["topology_master"];5.25;1533113898.67844;5.77;13.02;0.0;9;117
49;paravance-3.rennes.grid5000.fr;thermos-root-devel-WordCountTopology-1-27160572-61a2-4064-a7ad-48ad017240e2;["container_1_Consume_and_count_1"];5.25;1533113908.84933;144.09;1034.77;0.171767492;10;149
49;paravance-27.rennes.grid5000.fr;thermos-root-devel-WordCountTopology-2-79db9f22-4b89-49f3-ac77-479dec521c32;["container_2_Emit_random_words_2"];5.25;1533113908.92547;89.08;1135.78;1.161265492;10;149
49;paravance-29.rennes.grid5000.fr;thermos-root-devel-WordCountTopology-0-4e1cddba-e250-4103-9441-6a3e6ca8ecef;["topology_master"];5.25;1533113908.89231;5.86;13.15;0.0;9;117
50;paravance-3.rennes.grid5000.fr;thermos-root-devel-WordCountTopology-1-27160572-61a2-4064-a7ad-48ad017240e2;["container_1_Consume_and_count_1"];5.25;1533113919.06523;146.2;1054.22;0.171767492;10;149
50;paravance-27.rennes.grid5000.fr;thermos-root-devel-WordCountTopology-2-79db9f22-4b89-49f3-ac77-479dec521c32;["container_2_Emit_random_words_2"];5.25;1533113919.14057;90.38;1153.05;1.161265492;10;149
50;paravance-29.rennes.grid5000.fr;thermos-root-devel-WordCountTopology-0-4e1cddba-e250-4103-9441-6a3e6ca8ecef;["topology_master"];5.25;1533113919.10738;5.89;13.18;0.0;9;117
51;paravance-29.rennes.grid5000.fr;thermos-root-devel-WordCountTopology-0-4e1cddba-e250-4103-9441-6a3e6ca8ecef;["topology_master"];5.25;1533113929.32311;5.98;13.31;0.0;9;117
51;paravance-27.rennes.grid5000.fr;thermos-root-devel-WordCountTopology-2-79db9f22-4b89-49f3-ac77-479dec521c32;["container_2_Emit_random_words_2"];5.25;1533113929.35578;91.78;1171.58;1.161265492;10;149
51;paravance-3.rennes.grid5000.fr;thermos-root-devel-WordCountTopology-1-27160572-61a2-4064-a7ad-48ad017240e2;["container_1_Consume_and_count_1"];5.25;1533113929.28134;148.22;1070.5;0.171767492;10;149
52;paravance-27.rennes.grid5000.fr;thermos-root-devel-WordCountTopology-2-79db9f22-4b89-49f3-ac77-479dec521c32;["container_2_Emit_random_words_2"];5.25;1533113939.57145;93.27;1190.68;1.161265492;10;149
52;paravance-3.rennes.grid5000.fr;thermos-root-devel-WordCountTopology-1-27160572-61a2-4064-a7ad-48ad017240e2;["container_1_Consume_and_count_1"];5.25;1533113939.49838;150.19;1086.29;0.171767492;10;149
52;paravance-29.rennes.grid5000.fr;thermos-root-devel-WordCountTopology-0-4e1cddba-e250-4103-9441-6a3e6ca8ecef;["topology_master"];5.25;1533113939.54047;6.03;13.38;0.0;9;117
53;paravance-3.rennes.grid5000.fr;thermos-root-devel-WordCountTopology-1-27160572-61a2-4064-a7ad-48ad017240e2;["container_1_Consume_and_count_1"];5.25;1533113949.71338;152.21;1102.34;0.171767492;10;149
53;paravance-27.rennes.grid5000.fr;thermos-root-devel-WordCountTopology-2-79db9f22-4b89-49f3-ac77-479dec521c32;["container_2_Emit_random_words_2"];5.25;1533113949.78859;94.78;1209.44;1.161265492;10;149
53;paravance-29.rennes.grid5000.fr;thermos-root-devel-WordCountTopology-0-4e1cddba-e250-4103-9441-6a3e6ca8ecef;["topology_master"];5.25;1533113949.7555;6.11;13.5;0.0;9;117
54;paravance-27.rennes.grid5000.fr;thermos-root-devel-WordCountTopology-2-79db9f22-4b89-49f3-ac77-479dec521c32;["container_2_Emit_random_words_2"];5.25;1533113960.00358;96.24;1228.31;1.161265492;10;149
54;paravance-3.rennes.grid5000.fr;thermos-root-devel-WordCountTopology-1-27160572-61a2-4064-a7ad-48ad017240e2;["container_1_Consume_and_count_1"];5.25;1533113959.92941;154.2;1118.07;0.171767492;10;149
54;paravance-29.rennes.grid5000.fr;thermos-root-devel-WordCountTopology-0-4e1cddba-e250-4103-9441-6a3e6ca8ecef;["topology_master"];5.25;1533113959.97245;6.17;13.6;0.0;9;117
55;paravance-27.rennes.grid5000.fr;thermos-root-devel-WordCountTopology-2-79db9f22-4b89-49f3-ac77-479dec521c32;["container_2_Emit_random_words_2"];5.25;1533113970.22019;97.68;1247.67;1.161265492;10;149
55;paravance-3.rennes.grid5000.fr;thermos-root-devel-WordCountTopology-1-27160572-61a2-4064-a7ad-48ad017240e2;["container_1_Consume_and_count_1"];5.25;1533113970.14671;156.26;1133.88;0.171767492;10;149
55;paravance-29.rennes.grid5000.fr;thermos-root-devel-WordCountTopology-0-4e1cddba-e250-4103-9441-6a3e6ca8ecef;["topology_master"];5.25;1533113970.18855;6.26;13.73;0.0;9;117
56;paravance-3.rennes.grid5000.fr;thermos-root-devel-WordCountTopology-1-27160572-61a2-4064-a7ad-48ad017240e2;["container_1_Consume_and_count_1"];5.25;1533113980.3623;158.24;1149.78;0.171767492;10;149
56;paravance-27.rennes.grid5000.fr;thermos-root-devel-WordCountTopology-2-79db9f22-4b89-49f3-ac77-479dec521c32;["container_2_Emit_random_words_2"];5.25;1533113980.4371;99.09;1266.72;1.161265492;10;149
56;paravance-29.rennes.grid5000.fr;thermos-root-devel-WordCountTopology-0-4e1cddba-e250-4103-9441-6a3e6ca8ecef;["topology_master"];5.25;1533113980.40384;6.29;13.76;0.0;9;117
57;paravance-3.rennes.grid5000.fr;thermos-root-devel-WordCountTopology-1-27160572-61a2-4064-a7ad-48ad017240e2;["container_1_Consume_and_count_1"];5.25;1533113990.57678;160.24;1165.49;0.171767492;10;149
57;paravance-27.rennes.grid5000.fr;thermos-root-devel-WordCountTopology-2-79db9f22-4b89-49f3-ac77-479dec521c32;["container_2_Emit_random_words_2"];5.25;1533113990.65025;100.55;1285.92;1.161265492;10;149
57;paravance-29.rennes.grid5000.fr;thermos-root-devel-WordCountTopology-0-4e1cddba-e250-4103-9441-6a3e6ca8ecef;["topology_master"];5.25;1533113990.61872;6.38;13.88;0.0;9;117
58;paravance-3.rennes.grid5000.fr;thermos-root-devel-WordCountTopology-1-27160572-61a2-4064-a7ad-48ad017240e2;["container_1_Consume_and_count_1"];5.25;1533114000.79143;162.24;1181.21;0.171767492;10;149
58;paravance-27.rennes.grid5000.fr;thermos-root-devel-WordCountTopology-2-79db9f22-4b89-49f3-ac77-479dec521c32;["container_2_Emit_random_words_2"];5.25;1533114000.86588;101.99;1305.03;1.161265492;10;149
58;paravance-29.rennes.grid5000.fr;thermos-root-devel-WordCountTopology-0-4e1cddba-e250-4103-9441-6a3e6ca8ecef;["topology_master"];5.25;1533114000.83419;6.44;13.95;0.0;9;117
59;paravance-3.rennes.grid5000.fr;thermos-root-devel-WordCountTopology-1-27160572-61a2-4064-a7ad-48ad017240e2;["container_1_Consume_and_count_1"];5.25;1533114011.00664;164.25;1196.98;0.171767492;10;149
59;paravance-27.rennes.grid5000.fr;thermos-root-devel-WordCountTopology-2-79db9f22-4b89-49f3-ac77-479dec521c32;["container_2_Emit_random_words_2"];5.25;1533114011.08201;103.49;1323.87;1.161265492;10;149
59;paravance-29.rennes.grid5000.fr;thermos-root-devel-WordCountTopology-0-4e1cddba-e250-4103-9441-6a3e6ca8ecef;["topology_master"];5.25;1533114011.05015;6.52;14.07;0.0;9;117
60;paravance-3.rennes.grid5000.fr;thermos-root-devel-WordCountTopology-1-27160572-61a2-4064-a7ad-48ad017240e2;["container_1_Consume_and_count_1"];5.25;1533114021.22199;166.22;1212.63;0.171767492;10;149
60;paravance-29.rennes.grid5000.fr;thermos-root-devel-WordCountTopology-0-4e1cddba-e250-4103-9441-6a3e6ca8ecef;["topology_master"];5.25;1533114021.26446;6.57;14.14;0.0;9;117
60;paravance-27.rennes.grid5000.fr;thermos-root-devel-WordCountTopology-2-79db9f22-4b89-49f3-ac77-479dec521c32;["container_2_Emit_random_words_2"];5.25;1533114021.29676;104.97;1342.78;1.161265492;10;149
