mesure_id;slave_id;executor_id;heron_instances;cpus_limit;timestamp_A;cpus_system_time_secs_A;cpus_user_time_secs_A;cpus_throttled_time_secs_A;processes;threads
0;paravance-29.rennes.grid5000.fr;thermos-root-devel-WordCountTopology-2-efe44ad9-4d00-40d2-9913-8e017cd4f107;["container_2_Emit_random_words_2"];3.25;1533762827.95927;28.03;112.56;5.815180881;10;149
0;paravance-6.rennes.grid5000.fr;thermos-root-devel-WordCountTopology-1-a7bce48e-6789-42d5-bb51-7235caaa4d15;["container_1_Consume_and_count_1"];3.25;1533762827.37603;32.06;226.89;8.600106921;10;149
0;paravance-7.rennes.grid5000.fr;thermos-root-devel-WordCountTopology-0-360b2ab4-3a7d-4123-92f2-d5d335358816;["topology_master"];3.25;1533762827.71104;2.46;8.03;0.0;9;117
1;paravance-6.rennes.grid5000.fr;thermos-root-devel-WordCountTopology-1-a7bce48e-6789-42d5-bb51-7235caaa4d15;["container_1_Consume_and_count_1"];3.25;1533762837.60377;34.65;247.07;9.054378708;10;149
1;paravance-7.rennes.grid5000.fr;thermos-root-devel-WordCountTopology-0-360b2ab4-3a7d-4123-92f2-d5d335358816;["topology_master"];3.25;1533762837.93349;2.53;8.19;0.0;9;117
1;paravance-29.rennes.grid5000.fr;thermos-root-devel-WordCountTopology-2-efe44ad9-4d00-40d2-9913-8e017cd4f107;["container_2_Emit_random_words_2"];3.25;1533762838.17894;30.41;121.76;5.819071815;10;149
2;paravance-6.rennes.grid5000.fr;thermos-root-devel-WordCountTopology-1-a7bce48e-6789-42d5-bb51-7235caaa4d15;["container_1_Consume_and_count_1"];3.25;1533762847.8242;37.24;266.83;9.525586548;10;149
2;paravance-7.rennes.grid5000.fr;thermos-root-devel-WordCountTopology-0-360b2ab4-3a7d-4123-92f2-d5d335358816;["topology_master"];3.25;1533762848.14969;2.62;8.33;0.0;9;117
2;paravance-29.rennes.grid5000.fr;thermos-root-devel-WordCountTopology-2-efe44ad9-4d00-40d2-9913-8e017cd4f107;["container_2_Emit_random_words_2"];3.25;1533762848.38931;32.73;130.46;5.819071815;10;149
3;paravance-6.rennes.grid5000.fr;thermos-root-devel-WordCountTopology-1-a7bce48e-6789-42d5-bb51-7235caaa4d15;["container_1_Consume_and_count_1"];3.25;1533762858.04291;39.94;286.92;10.190309524;10;149
3;paravance-29.rennes.grid5000.fr;thermos-root-devel-WordCountTopology-2-efe44ad9-4d00-40d2-9913-8e017cd4f107;["container_2_Emit_random_words_2"];3.25;1533762858.59689;35.28;139.84;5.819071815;10;149
3;paravance-7.rennes.grid5000.fr;thermos-root-devel-WordCountTopology-0-360b2ab4-3a7d-4123-92f2-d5d335358816;["topology_master"];3.25;1533762858.36341;2.65;8.37;0.0;9;117
4;paravance-6.rennes.grid5000.fr;thermos-root-devel-WordCountTopology-1-a7bce48e-6789-42d5-bb51-7235caaa4d15;["container_1_Consume_and_count_1"];3.25;1533762868.26441;42.63;306.66;10.73851971;10;149
4;paravance-29.rennes.grid5000.fr;thermos-root-devel-WordCountTopology-2-efe44ad9-4d00-40d2-9913-8e017cd4f107;["container_2_Emit_random_words_2"];3.25;1533762868.80854;37.63;148.88;5.819071815;10;149
4;paravance-7.rennes.grid5000.fr;thermos-root-devel-WordCountTopology-0-360b2ab4-3a7d-4123-92f2-d5d335358816;["topology_master"];3.25;1533762868.57984;2.74;8.48;0.0;9;117
5;paravance-7.rennes.grid5000.fr;thermos-root-devel-WordCountTopology-0-360b2ab4-3a7d-4123-92f2-d5d335358816;["topology_master"];3.25;1533762878.79686;2.8;8.56;0.0;9;117
5;paravance-6.rennes.grid5000.fr;thermos-root-devel-WordCountTopology-1-a7bce48e-6789-42d5-bb51-7235caaa4d15;["container_1_Consume_and_count_1"];3.25;1533762878.48845;45.17;326.33;11.19745342;10;149
5;paravance-29.rennes.grid5000.fr;thermos-root-devel-WordCountTopology-2-efe44ad9-4d00-40d2-9913-8e017cd4f107;["container_2_Emit_random_words_2"];3.25;1533762879.02144;39.89;157.22;5.819071815;10;149
6;paravance-6.rennes.grid5000.fr;thermos-root-devel-WordCountTopology-1-a7bce48e-6789-42d5-bb51-7235caaa4d15;["container_1_Consume_and_count_1"];3.25;1533762888.70965;47.81;345.76;11.568372542;10;149
6;paravance-29.rennes.grid5000.fr;thermos-root-devel-WordCountTopology-2-efe44ad9-4d00-40d2-9913-8e017cd4f107;["container_2_Emit_random_words_2"];3.25;1533762889.23273;42.14;165.85;5.819071815;10;149
6;paravance-7.rennes.grid5000.fr;thermos-root-devel-WordCountTopology-0-360b2ab4-3a7d-4123-92f2-d5d335358816;["topology_master"];3.25;1533762889.01423;2.92;8.74;0.0;9;117
7;paravance-29.rennes.grid5000.fr;thermos-root-devel-WordCountTopology-2-efe44ad9-4d00-40d2-9913-8e017cd4f107;["container_2_Emit_random_words_2"];3.25;1533762899.44335;44.3;174.3;5.819071815;10;149
7;paravance-6.rennes.grid5000.fr;thermos-root-devel-WordCountTopology-1-a7bce48e-6789-42d5-bb51-7235caaa4d15;["container_1_Consume_and_count_1"];3.25;1533762898.93072;50.3;365.04;12.10816587;10;149
7;paravance-7.rennes.grid5000.fr;thermos-root-devel-WordCountTopology-0-360b2ab4-3a7d-4123-92f2-d5d335358816;["topology_master"];3.25;1533762899.22948;2.96;8.85;0.0;9;117
8;paravance-6.rennes.grid5000.fr;thermos-root-devel-WordCountTopology-1-a7bce48e-6789-42d5-bb51-7235caaa4d15;["container_1_Consume_and_count_1"];3.25;1533762909.0538;53.08;384.52;12.585530452;10;149
8;paravance-29.rennes.grid5000.fr;thermos-root-devel-WordCountTopology-2-efe44ad9-4d00-40d2-9913-8e017cd4f107;["container_2_Emit_random_words_2"];3.25;1533762909.65526;46.67;183.32;5.819071815;10;149
8;paravance-7.rennes.grid5000.fr;thermos-root-devel-WordCountTopology-0-360b2ab4-3a7d-4123-92f2-d5d335358816;["topology_master"];3.25;1533762909.44671;3.05;8.98;0.0;9;117
9;paravance-7.rennes.grid5000.fr;thermos-root-devel-WordCountTopology-0-360b2ab4-3a7d-4123-92f2-d5d335358816;["topology_master"];3.25;1533762919.66078;3.11;9.05;0.0;9;117
9;paravance-6.rennes.grid5000.fr;thermos-root-devel-WordCountTopology-1-a7bce48e-6789-42d5-bb51-7235caaa4d15;["container_1_Consume_and_count_1"];3.25;1533762919.37334;55.75;404.84;13.320877165;10;149
9;paravance-29.rennes.grid5000.fr;thermos-root-devel-WordCountTopology-2-efe44ad9-4d00-40d2-9913-8e017cd4f107;["container_2_Emit_random_words_2"];3.25;1533762919.86498;48.8;192.03;5.819071815;10;149
10;paravance-6.rennes.grid5000.fr;thermos-root-devel-WordCountTopology-1-a7bce48e-6789-42d5-bb51-7235caaa4d15;["container_1_Consume_and_count_1"];3.25;1533762929.59438;58.03;423.92;13.783905983;10;149
10;paravance-7.rennes.grid5000.fr;thermos-root-devel-WordCountTopology-0-360b2ab4-3a7d-4123-92f2-d5d335358816;["topology_master"];3.25;1533762929.87659;3.17;9.13;0.0;9;117
10;paravance-29.rennes.grid5000.fr;thermos-root-devel-WordCountTopology-2-efe44ad9-4d00-40d2-9913-8e017cd4f107;["container_2_Emit_random_words_2"];3.25;1533762930.07567;50.75;199.34;5.819071815;10;149
11;paravance-6.rennes.grid5000.fr;thermos-root-devel-WordCountTopology-1-a7bce48e-6789-42d5-bb51-7235caaa4d15;["container_1_Consume_and_count_1"];3.25;1533762939.8131;60.51;443.16;14.205951784;10;149
11;paravance-7.rennes.grid5000.fr;thermos-root-devel-WordCountTopology-0-360b2ab4-3a7d-4123-92f2-d5d335358816;["topology_master"];3.25;1533762940.09091;3.23;9.2;0.0;9;117
11;paravance-29.rennes.grid5000.fr;thermos-root-devel-WordCountTopology-2-efe44ad9-4d00-40d2-9913-8e017cd4f107;["container_2_Emit_random_words_2"];3.25;1533762940.28552;52.86;207.52;5.819071815;10;149
12;paravance-6.rennes.grid5000.fr;thermos-root-devel-WordCountTopology-1-a7bce48e-6789-42d5-bb51-7235caaa4d15;["container_1_Consume_and_count_1"];3.25;1533762950.0346;62.91;462.41;14.859426773;10;149
12;paravance-7.rennes.grid5000.fr;thermos-root-devel-WordCountTopology-0-360b2ab4-3a7d-4123-92f2-d5d335358816;["topology_master"];3.25;1533762950.30836;3.35;9.47;0.0;9;117
12;paravance-29.rennes.grid5000.fr;thermos-root-devel-WordCountTopology-2-efe44ad9-4d00-40d2-9913-8e017cd4f107;["container_2_Emit_random_words_2"];3.25;1533762950.49835;54.9;215.13;5.819071815;10;149
13;paravance-29.rennes.grid5000.fr;thermos-root-devel-WordCountTopology-2-efe44ad9-4d00-40d2-9913-8e017cd4f107;["container_2_Emit_random_words_2"];3.25;1533762960.70607;57.03;223.3;5.819071815;10;149
13;paravance-7.rennes.grid5000.fr;thermos-root-devel-WordCountTopology-0-360b2ab4-3a7d-4123-92f2-d5d335358816;["topology_master"];3.25;1533762960.5227;3.38;9.49;0.0;9;117
13;paravance-6.rennes.grid5000.fr;thermos-root-devel-WordCountTopology-1-a7bce48e-6789-42d5-bb51-7235caaa4d15;["container_1_Consume_and_count_1"];3.25;1533762960.25541;65.33;481.32;15.413225612;10;149
14;paravance-6.rennes.grid5000.fr;thermos-root-devel-WordCountTopology-1-a7bce48e-6789-42d5-bb51-7235caaa4d15;["container_1_Consume_and_count_1"];3.25;1533762970.47626;67.79;501.18;16.047501049;10;149
14;paravance-29.rennes.grid5000.fr;thermos-root-devel-WordCountTopology-2-efe44ad9-4d00-40d2-9913-8e017cd4f107;["container_2_Emit_random_words_2"];3.25;1533762970.9177;59.15;231.14;5.82422568;10;149
14;paravance-7.rennes.grid5000.fr;thermos-root-devel-WordCountTopology-0-360b2ab4-3a7d-4123-92f2-d5d335358816;["topology_master"];3.25;1533762970.73941;3.47;9.62;0.0;9;117
15;paravance-6.rennes.grid5000.fr;thermos-root-devel-WordCountTopology-1-a7bce48e-6789-42d5-bb51-7235caaa4d15;["container_1_Consume_and_count_1"];3.25;1533762980.69827;70.35;520.35;16.323183419;10;149
15;paravance-29.rennes.grid5000.fr;thermos-root-devel-WordCountTopology-2-efe44ad9-4d00-40d2-9913-8e017cd4f107;["container_2_Emit_random_words_2"];3.25;1533762981.12964;61.31;239.58;5.82422568;10;149
15;paravance-7.rennes.grid5000.fr;thermos-root-devel-WordCountTopology-0-360b2ab4-3a7d-4123-92f2-d5d335358816;["topology_master"];3.25;1533762980.95615;3.53;9.7;0.0;9;117
16;paravance-6.rennes.grid5000.fr;thermos-root-devel-WordCountTopology-1-a7bce48e-6789-42d5-bb51-7235caaa4d15;["container_1_Consume_and_count_1"];3.25;1533762990.91934;72.79;539.43;16.910055819;10;149
16;paravance-7.rennes.grid5000.fr;thermos-root-devel-WordCountTopology-0-360b2ab4-3a7d-4123-92f2-d5d335358816;["topology_master"];3.25;1533762991.17086;3.59;9.78;0.0;9;117
16;paravance-29.rennes.grid5000.fr;thermos-root-devel-WordCountTopology-2-efe44ad9-4d00-40d2-9913-8e017cd4f107;["container_2_Emit_random_words_2"];3.25;1533762991.34089;63.4;247.39;5.82422568;10;149
17;paravance-6.rennes.grid5000.fr;thermos-root-devel-WordCountTopology-1-a7bce48e-6789-42d5-bb51-7235caaa4d15;["container_1_Consume_and_count_1"];3.25;1533763001.1391;75.22;558.92;17.676061272;10;149
17;paravance-7.rennes.grid5000.fr;thermos-root-devel-WordCountTopology-0-360b2ab4-3a7d-4123-92f2-d5d335358816;["topology_master"];3.25;1533763001.38639;3.64;9.85;0.0;9;117
17;paravance-29.rennes.grid5000.fr;thermos-root-devel-WordCountTopology-2-efe44ad9-4d00-40d2-9913-8e017cd4f107;["container_2_Emit_random_words_2"];3.25;1533763001.55031;65.39;255.31;5.82422568;10;149
18;paravance-7.rennes.grid5000.fr;thermos-root-devel-WordCountTopology-0-360b2ab4-3a7d-4123-92f2-d5d335358816;["topology_master"];3.25;1533763011.50324;3.76;10.07;0.0;9;117
18;paravance-6.rennes.grid5000.fr;thermos-root-devel-WordCountTopology-1-a7bce48e-6789-42d5-bb51-7235caaa4d15;["container_1_Consume_and_count_1"];3.25;1533763011.35895;77.33;578.13;18.399750479;10;150
18;paravance-29.rennes.grid5000.fr;thermos-root-devel-WordCountTopology-2-efe44ad9-4d00-40d2-9913-8e017cd4f107;["container_2_Emit_random_words_2"];3.25;1533763011.76149;67.3;262.6;5.82422568;10;149
19;paravance-7.rennes.grid5000.fr;thermos-root-devel-WordCountTopology-0-360b2ab4-3a7d-4123-92f2-d5d335358816;["topology_master"];3.25;1533763021.81538;3.78;10.1;0.0;9;117
19;paravance-6.rennes.grid5000.fr;thermos-root-devel-WordCountTopology-1-a7bce48e-6789-42d5-bb51-7235caaa4d15;["container_1_Consume_and_count_1"];3.25;1533763021.57955;79.46;596.69;18.834020653;10;150
19;paravance-29.rennes.grid5000.fr;thermos-root-devel-WordCountTopology-2-efe44ad9-4d00-40d2-9913-8e017cd4f107;["container_2_Emit_random_words_2"];3.25;1533763021.96976;69.07;269.59;5.82422568;10;149
20;paravance-29.rennes.grid5000.fr;thermos-root-devel-WordCountTopology-2-efe44ad9-4d00-40d2-9913-8e017cd4f107;["container_2_Emit_random_words_2"];3.25;1533763032.17991;71.06;276.91;5.82422568;10;149
20;paravance-6.rennes.grid5000.fr;thermos-root-devel-WordCountTopology-1-a7bce48e-6789-42d5-bb51-7235caaa4d15;["container_1_Consume_and_count_1"];3.25;1533763031.79938;81.7;615.69;19.467063991;10;149
20;paravance-7.rennes.grid5000.fr;thermos-root-devel-WordCountTopology-0-360b2ab4-3a7d-4123-92f2-d5d335358816;["topology_master"];3.25;1533763032.03175;3.87;10.22;0.0;9;117
21;paravance-6.rennes.grid5000.fr;thermos-root-devel-WordCountTopology-1-a7bce48e-6789-42d5-bb51-7235caaa4d15;["container_1_Consume_and_count_1"];3.25;1533763042.0196;84.17;634.4;19.964335338;10;149
21;paravance-29.rennes.grid5000.fr;thermos-root-devel-WordCountTopology-2-efe44ad9-4d00-40d2-9913-8e017cd4f107;["container_2_Emit_random_words_2"];3.25;1533763042.38861;73.03;284.37;5.82422568;10;149
21;paravance-7.rennes.grid5000.fr;thermos-root-devel-WordCountTopology-0-360b2ab4-3a7d-4123-92f2-d5d335358816;["topology_master"];3.25;1533763042.24568;3.93;10.29;0.0;9;117
22;paravance-6.rennes.grid5000.fr;thermos-root-devel-WordCountTopology-1-a7bce48e-6789-42d5-bb51-7235caaa4d15;["container_1_Consume_and_count_1"];3.25;1533763052.23845;86.41;653.68;20.535607471;10;149
22;paravance-7.rennes.grid5000.fr;thermos-root-devel-WordCountTopology-0-360b2ab4-3a7d-4123-92f2-d5d335358816;["topology_master"];3.25;1533763052.46107;3.98;10.37;0.0;9;117
22;paravance-29.rennes.grid5000.fr;thermos-root-devel-WordCountTopology-2-efe44ad9-4d00-40d2-9913-8e017cd4f107;["container_2_Emit_random_words_2"];3.25;1533763052.5996;74.9;291.63;5.82422568;10;149
23;paravance-6.rennes.grid5000.fr;thermos-root-devel-WordCountTopology-1-a7bce48e-6789-42d5-bb51-7235caaa4d15;["container_1_Consume_and_count_1"];3.25;1533763062.46076;88.72;672.96;21.009125833;10;149
23;paravance-7.rennes.grid5000.fr;thermos-root-devel-WordCountTopology-0-360b2ab4-3a7d-4123-92f2-d5d335358816;["topology_master"];3.25;1533763062.67691;4.04;10.44;0.0;9;117
23;paravance-29.rennes.grid5000.fr;thermos-root-devel-WordCountTopology-2-efe44ad9-4d00-40d2-9913-8e017cd4f107;["container_2_Emit_random_words_2"];3.25;1533763062.81003;77.02;298.95;5.82422568;10;149
24;paravance-29.rennes.grid5000.fr;thermos-root-devel-WordCountTopology-2-efe44ad9-4d00-40d2-9913-8e017cd4f107;["container_2_Emit_random_words_2"];3.25;1533763073.01976;79.2;307.02;5.82422568;10;149
24;paravance-6.rennes.grid5000.fr;thermos-root-devel-WordCountTopology-1-a7bce48e-6789-42d5-bb51-7235caaa4d15;["container_1_Consume_and_count_1"];3.25;1533763072.68105;91.24;692.43;21.507178438;10;149
24;paravance-7.rennes.grid5000.fr;thermos-root-devel-WordCountTopology-0-360b2ab4-3a7d-4123-92f2-d5d335358816;["topology_master"];3.25;1533763072.89101;4.15;10.62;0.0;9;117
25;paravance-6.rennes.grid5000.fr;thermos-root-devel-WordCountTopology-1-a7bce48e-6789-42d5-bb51-7235caaa4d15;["container_1_Consume_and_count_1"];3.25;1533763082.90163;93.72;711.19;22.054981133;10;149
25;paravance-29.rennes.grid5000.fr;thermos-root-devel-WordCountTopology-2-efe44ad9-4d00-40d2-9913-8e017cd4f107;["container_2_Emit_random_words_2"];3.25;1533763083.2302;81.3;314.24;5.82422568;10;149
25;paravance-7.rennes.grid5000.fr;thermos-root-devel-WordCountTopology-0-360b2ab4-3a7d-4123-92f2-d5d335358816;["topology_master"];3.25;1533763083.10746;4.18;10.65;0.0;9;117
26;paravance-6.rennes.grid5000.fr;thermos-root-devel-WordCountTopology-1-a7bce48e-6789-42d5-bb51-7235caaa4d15;["container_1_Consume_and_count_1"];3.25;1533763093.1216;96.15;730.2;22.83147723;10;149
26;paravance-7.rennes.grid5000.fr;thermos-root-devel-WordCountTopology-0-360b2ab4-3a7d-4123-92f2-d5d335358816;["topology_master"];3.25;1533763093.32207;4.27;10.77;0.0;9;117
26;paravance-29.rennes.grid5000.fr;thermos-root-devel-WordCountTopology-2-efe44ad9-4d00-40d2-9913-8e017cd4f107;["container_2_Emit_random_words_2"];3.25;1533763093.44057;83.26;321.38;5.82422568;10;149
27;paravance-6.rennes.grid5000.fr;thermos-root-devel-WordCountTopology-1-a7bce48e-6789-42d5-bb51-7235caaa4d15;["container_1_Consume_and_count_1"];3.25;1533763103.34116;98.48;748.54;23.467866035;10;149
27;paravance-29.rennes.grid5000.fr;thermos-root-devel-WordCountTopology-2-efe44ad9-4d00-40d2-9913-8e017cd4f107;["container_2_Emit_random_words_2"];3.25;1533763103.65124;85.15;327.91;5.82422568;10;149
27;paravance-7.rennes.grid5000.fr;thermos-root-devel-WordCountTopology-0-360b2ab4-3a7d-4123-92f2-d5d335358816;["topology_master"];3.25;1533763103.53798;4.32;10.84;0.0;9;117
28;paravance-6.rennes.grid5000.fr;thermos-root-devel-WordCountTopology-1-a7bce48e-6789-42d5-bb51-7235caaa4d15;["container_1_Consume_and_count_1"];3.25;1533763113.56387;101.07;767.02;24.06878736;10;149
28;paravance-29.rennes.grid5000.fr;thermos-root-devel-WordCountTopology-2-efe44ad9-4d00-40d2-9913-8e017cd4f107;["container_2_Emit_random_words_2"];3.25;1533763113.86045;87.14;335.59;5.82422568;10;149
28;paravance-7.rennes.grid5000.fr;thermos-root-devel-WordCountTopology-0-360b2ab4-3a7d-4123-92f2-d5d335358816;["topology_master"];3.25;1533763113.75242;4.38;10.92;0.0;9;117
29;paravance-29.rennes.grid5000.fr;thermos-root-devel-WordCountTopology-2-efe44ad9-4d00-40d2-9913-8e017cd4f107;["container_2_Emit_random_words_2"];3.25;1533763123.96879;89.05;342.88;5.82422568;10;149
29;paravance-6.rennes.grid5000.fr;thermos-root-devel-WordCountTopology-1-a7bce48e-6789-42d5-bb51-7235caaa4d15;["container_1_Consume_and_count_1"];3.25;1533763123.78131;103.56;786.03;24.753009779;10;147
29;paravance-7.rennes.grid5000.fr;thermos-root-devel-WordCountTopology-0-360b2ab4-3a7d-4123-92f2-d5d335358816;["topology_master"];3.25;1533763123.9655;4.43;10.99;0.0;9;117
30;paravance-6.rennes.grid5000.fr;thermos-root-devel-WordCountTopology-1-a7bce48e-6789-42d5-bb51-7235caaa4d15;["container_1_Consume_and_count_1"];3.25;1533763134.00081;105.84;805.55;25.439113874;10;149
30;paravance-7.rennes.grid5000.fr;thermos-root-devel-WordCountTopology-0-360b2ab4-3a7d-4123-92f2-d5d335358816;["topology_master"];3.25;1533763134.17978;4.53;11.15;0.0;9;117
30;paravance-29.rennes.grid5000.fr;thermos-root-devel-WordCountTopology-2-efe44ad9-4d00-40d2-9913-8e017cd4f107;["container_2_Emit_random_words_2"];3.25;1533763134.2779;91.08;350.15;5.82422568;10;149
31;paravance-6.rennes.grid5000.fr;thermos-root-devel-WordCountTopology-1-a7bce48e-6789-42d5-bb51-7235caaa4d15;["container_1_Consume_and_count_1"];3.25;1533763144.22068;108.2;824.44;25.934547701;10;149
31;paravance-29.rennes.grid5000.fr;thermos-root-devel-WordCountTopology-2-efe44ad9-4d00-40d2-9913-8e017cd4f107;["container_2_Emit_random_words_2"];3.25;1533763144.48769;93.0;356.98;5.82422568;10;147
31;paravance-7.rennes.grid5000.fr;thermos-root-devel-WordCountTopology-0-360b2ab4-3a7d-4123-92f2-d5d335358816;["topology_master"];3.25;1533763144.39567;4.59;11.23;0.0;9;117
32;paravance-6.rennes.grid5000.fr;thermos-root-devel-WordCountTopology-1-a7bce48e-6789-42d5-bb51-7235caaa4d15;["container_1_Consume_and_count_1"];3.25;1533763154.44259;110.58;843.75;26.774106792;10;149
32;paravance-29.rennes.grid5000.fr;thermos-root-devel-WordCountTopology-2-efe44ad9-4d00-40d2-9913-8e017cd4f107;["container_2_Emit_random_words_2"];3.25;1533763154.70066;95.02;363.94;5.82422568;10;149
32;paravance-7.rennes.grid5000.fr;thermos-root-devel-WordCountTopology-0-360b2ab4-3a7d-4123-92f2-d5d335358816;["topology_master"];3.25;1533763154.61292;4.65;11.31;0.0;9;117
33;paravance-6.rennes.grid5000.fr;thermos-root-devel-WordCountTopology-1-a7bce48e-6789-42d5-bb51-7235caaa4d15;["container_1_Consume_and_count_1"];3.25;1533763164.6649;113.0;863.1;27.434869756;10;149
33;paravance-29.rennes.grid5000.fr;thermos-root-devel-WordCountTopology-2-efe44ad9-4d00-40d2-9913-8e017cd4f107;["container_2_Emit_random_words_2"];3.25;1533763164.91118;97.06;371.0;5.82422568;10;149
33;paravance-7.rennes.grid5000.fr;thermos-root-devel-WordCountTopology-0-360b2ab4-3a7d-4123-92f2-d5d335358816;["topology_master"];3.25;1533763164.82756;4.74;11.43;0.0;9;117
34;paravance-6.rennes.grid5000.fr;thermos-root-devel-WordCountTopology-1-a7bce48e-6789-42d5-bb51-7235caaa4d15;["container_1_Consume_and_count_1"];3.25;1533763174.88288;115.34;882.06;27.969248018;10;149
34;paravance-7.rennes.grid5000.fr;thermos-root-devel-WordCountTopology-0-360b2ab4-3a7d-4123-92f2-d5d335358816;["topology_master"];3.25;1533763175.04156;4.77;11.46;0.0;9;117
34;paravance-29.rennes.grid5000.fr;thermos-root-devel-WordCountTopology-2-efe44ad9-4d00-40d2-9913-8e017cd4f107;["container_2_Emit_random_words_2"];3.25;1533763175.12037;98.97;377.88;5.82422568;10;149
35;paravance-7.rennes.grid5000.fr;thermos-root-devel-WordCountTopology-0-360b2ab4-3a7d-4123-92f2-d5d335358816;["topology_master"];3.25;1533763185.15756;4.86;11.58;0.0;9;117
35;paravance-6.rennes.grid5000.fr;thermos-root-devel-WordCountTopology-1-a7bce48e-6789-42d5-bb51-7235caaa4d15;["container_1_Consume_and_count_1"];3.25;1533763185.10332;117.65;901.35;28.537104014;10;149
35;paravance-29.rennes.grid5000.fr;thermos-root-devel-WordCountTopology-2-efe44ad9-4d00-40d2-9913-8e017cd4f107;["container_2_Emit_random_words_2"];3.25;1533763185.3311;100.89;384.48;5.82422568;10;149
36;paravance-29.rennes.grid5000.fr;thermos-root-devel-WordCountTopology-2-efe44ad9-4d00-40d2-9913-8e017cd4f107;["container_2_Emit_random_words_2"];3.25;1533763195.53992;102.96;391.76;5.82422568;10;149
36;paravance-6.rennes.grid5000.fr;thermos-root-devel-WordCountTopology-1-a7bce48e-6789-42d5-bb51-7235caaa4d15;["container_1_Consume_and_count_1"];3.25;1533763195.32487;120.11;920.26;28.806850766;10;149
36;paravance-7.rennes.grid5000.fr;thermos-root-devel-WordCountTopology-0-360b2ab4-3a7d-4123-92f2-d5d335358816;["topology_master"];3.25;1533763195.47307;4.93;11.76;0.0;9;117
37;paravance-6.rennes.grid5000.fr;thermos-root-devel-WordCountTopology-1-a7bce48e-6789-42d5-bb51-7235caaa4d15;["container_1_Consume_and_count_1"];3.25;1533763205.54438;122.79;939.99;29.356493292;10;149
37;paravance-7.rennes.grid5000.fr;thermos-root-devel-WordCountTopology-0-360b2ab4-3a7d-4123-92f2-d5d335358816;["topology_master"];3.25;1533763205.68676;5.01;11.87;0.0;9;117
37;paravance-29.rennes.grid5000.fr;thermos-root-devel-WordCountTopology-2-efe44ad9-4d00-40d2-9913-8e017cd4f107;["container_2_Emit_random_words_2"];3.25;1533763205.75031;105.16;399.91;5.82422568;10;149
38;paravance-6.rennes.grid5000.fr;thermos-root-devel-WordCountTopology-1-a7bce48e-6789-42d5-bb51-7235caaa4d15;["container_1_Consume_and_count_1"];3.25;1533763215.76551;125.3;959.27;29.860200356;10;149
38;paravance-7.rennes.grid5000.fr;thermos-root-devel-WordCountTopology-0-360b2ab4-3a7d-4123-92f2-d5d335358816;["topology_master"];3.25;1533763215.90357;5.05;11.91;0.0;9;117
38;paravance-29.rennes.grid5000.fr;thermos-root-devel-WordCountTopology-2-efe44ad9-4d00-40d2-9913-8e017cd4f107;["container_2_Emit_random_words_2"];3.25;1533763215.96194;107.27;407.26;5.82422568;10;149
39;paravance-7.rennes.grid5000.fr;thermos-root-devel-WordCountTopology-0-360b2ab4-3a7d-4123-92f2-d5d335358816;["topology_master"];3.25;1533763226.11783;5.13;12.03;0.0;9;117
39;paravance-6.rennes.grid5000.fr;thermos-root-devel-WordCountTopology-1-a7bce48e-6789-42d5-bb51-7235caaa4d15;["container_1_Consume_and_count_1"];3.25;1533763225.98675;127.61;978.26;30.279746235;10;149
39;paravance-29.rennes.grid5000.fr;thermos-root-devel-WordCountTopology-2-efe44ad9-4d00-40d2-9913-8e017cd4f107;["container_2_Emit_random_words_2"];3.25;1533763226.17129;109.12;413.92;5.82422568;10;149
40;paravance-7.rennes.grid5000.fr;thermos-root-devel-WordCountTopology-0-360b2ab4-3a7d-4123-92f2-d5d335358816;["topology_master"];3.25;1533763236.33483;5.19;12.1;0.0;9;117
40;paravance-6.rennes.grid5000.fr;thermos-root-devel-WordCountTopology-1-a7bce48e-6789-42d5-bb51-7235caaa4d15;["container_1_Consume_and_count_1"];3.25;1533763236.20993;129.88;997.21;30.787503824;10;149
40;paravance-29.rennes.grid5000.fr;thermos-root-devel-WordCountTopology-2-efe44ad9-4d00-40d2-9913-8e017cd4f107;["container_2_Emit_random_words_2"];3.25;1533763236.4011;111.08;420.96;5.82422568;10;149
41;paravance-29.rennes.grid5000.fr;thermos-root-devel-WordCountTopology-2-efe44ad9-4d00-40d2-9913-8e017cd4f107;["container_2_Emit_random_words_2"];3.25;1533763246.61105;113.0;427.49;5.82422568;10;149
41;paravance-6.rennes.grid5000.fr;thermos-root-devel-WordCountTopology-1-a7bce48e-6789-42d5-bb51-7235caaa4d15;["container_1_Consume_and_count_1"];3.25;1533763246.44576;132.06;1015.71;31.375373811;10;149
41;paravance-7.rennes.grid5000.fr;thermos-root-devel-WordCountTopology-0-360b2ab4-3a7d-4123-92f2-d5d335358816;["topology_master"];3.25;1533763246.56852;5.26;12.19;0.0;9;117
42;paravance-6.rennes.grid5000.fr;thermos-root-devel-WordCountTopology-1-a7bce48e-6789-42d5-bb51-7235caaa4d15;["container_1_Consume_and_count_1"];3.25;1533763256.66605;134.31;1034.92;32.11055481;10;149
42;paravance-7.rennes.grid5000.fr;thermos-root-devel-WordCountTopology-0-360b2ab4-3a7d-4123-92f2-d5d335358816;["topology_master"];3.25;1533763256.7832;5.32;12.3;0.0;9;117
42;paravance-29.rennes.grid5000.fr;thermos-root-devel-WordCountTopology-2-efe44ad9-4d00-40d2-9913-8e017cd4f107;["container_2_Emit_random_words_2"];3.25;1533763256.82143;114.94;434.31;5.82422568;10;149
43;paravance-6.rennes.grid5000.fr;thermos-root-devel-WordCountTopology-1-a7bce48e-6789-42d5-bb51-7235caaa4d15;["container_1_Consume_and_count_1"];3.25;1533763266.8854;136.54;1054.07;32.586175559;10;149
43;paravance-7.rennes.grid5000.fr;thermos-root-devel-WordCountTopology-0-360b2ab4-3a7d-4123-92f2-d5d335358816;["topology_master"];3.25;1533763266.99863;5.4;12.42;0.0;9;117
43;paravance-29.rennes.grid5000.fr;thermos-root-devel-WordCountTopology-2-efe44ad9-4d00-40d2-9913-8e017cd4f107;["container_2_Emit_random_words_2"];3.25;1533763267.03234;116.82;440.96;5.82422568;10;149
44;paravance-6.rennes.grid5000.fr;thermos-root-devel-WordCountTopology-1-a7bce48e-6789-42d5-bb51-7235caaa4d15;["container_1_Consume_and_count_1"];3.25;1533763277.10519;138.8;1072.79;33.00485845;10;149
44;paravance-7.rennes.grid5000.fr;thermos-root-devel-WordCountTopology-0-360b2ab4-3a7d-4123-92f2-d5d335358816;["topology_master"];3.25;1533763277.21273;5.43;12.45;0.0;9;117
44;paravance-29.rennes.grid5000.fr;thermos-root-devel-WordCountTopology-2-efe44ad9-4d00-40d2-9913-8e017cd4f107;["container_2_Emit_random_words_2"];3.25;1533763277.24092;118.8;447.78;5.82422568;10;149
45;paravance-6.rennes.grid5000.fr;thermos-root-devel-WordCountTopology-1-a7bce48e-6789-42d5-bb51-7235caaa4d15;["container_1_Consume_and_count_1"];3.25;1533763287.32616;141.01;1092.05;33.355330075;10;149
45;paravance-7.rennes.grid5000.fr;thermos-root-devel-WordCountTopology-0-360b2ab4-3a7d-4123-92f2-d5d335358816;["topology_master"];3.25;1533763287.42815;5.52;12.57;0.0;9;117
45;paravance-29.rennes.grid5000.fr;thermos-root-devel-WordCountTopology-2-efe44ad9-4d00-40d2-9913-8e017cd4f107;["container_2_Emit_random_words_2"];3.25;1533763287.45044;120.59;454.03;5.82422568;10;149
46;paravance-6.rennes.grid5000.fr;thermos-root-devel-WordCountTopology-1-a7bce48e-6789-42d5-bb51-7235caaa4d15;["container_1_Consume_and_count_1"];3.25;1533763297.54416;143.25;1111.39;33.794294584;10;149
46;paravance-29.rennes.grid5000.fr;thermos-root-devel-WordCountTopology-2-efe44ad9-4d00-40d2-9913-8e017cd4f107;["container_2_Emit_random_words_2"];3.25;1533763297.65813;122.44;460.51;5.82422568;10;149
46;paravance-7.rennes.grid5000.fr;thermos-root-devel-WordCountTopology-0-360b2ab4-3a7d-4123-92f2-d5d335358816;["topology_master"];3.25;1533763297.64105;5.58;12.64;0.0;9;117
47;paravance-6.rennes.grid5000.fr;thermos-root-devel-WordCountTopology-1-a7bce48e-6789-42d5-bb51-7235caaa4d15;["container_1_Consume_and_count_1"];3.25;1533763307.76504;145.64;1130.88;34.457904297;10;149
47;paravance-29.rennes.grid5000.fr;thermos-root-devel-WordCountTopology-2-efe44ad9-4d00-40d2-9913-8e017cd4f107;["container_2_Emit_random_words_2"];3.25;1533763307.86759;124.44;467.7;5.82422568;10;149
47;paravance-7.rennes.grid5000.fr;thermos-root-devel-WordCountTopology-0-360b2ab4-3a7d-4123-92f2-d5d335358816;["topology_master"];3.25;1533763307.85565;5.65;12.73;0.0;9;117
48;paravance-6.rennes.grid5000.fr;thermos-root-devel-WordCountTopology-1-a7bce48e-6789-42d5-bb51-7235caaa4d15;["container_1_Consume_and_count_1"];3.25;1533763317.98577;147.95;1149.67;35.020554436;10;149
48;paravance-7.rennes.grid5000.fr;thermos-root-devel-WordCountTopology-0-360b2ab4-3a7d-4123-92f2-d5d335358816;["topology_master"];3.25;1533763318.07098;5.71;12.87;0.0;9;117
48;paravance-29.rennes.grid5000.fr;thermos-root-devel-WordCountTopology-2-efe44ad9-4d00-40d2-9913-8e017cd4f107;["container_2_Emit_random_words_2"];3.25;1533763318.07962;126.29;474.31;5.82422568;10;149
49;paravance-6.rennes.grid5000.fr;thermos-root-devel-WordCountTopology-1-a7bce48e-6789-42d5-bb51-7235caaa4d15;["container_1_Consume_and_count_1"];3.25;1533763328.20815;150.49;1169.08;35.762139643;10;149
49;paravance-7.rennes.grid5000.fr;thermos-root-devel-WordCountTopology-0-360b2ab4-3a7d-4123-92f2-d5d335358816;["topology_master"];3.25;1533763328.28794;5.8;12.99;0.0;9;117
49;paravance-29.rennes.grid5000.fr;thermos-root-devel-WordCountTopology-2-efe44ad9-4d00-40d2-9913-8e017cd4f107;["container_2_Emit_random_words_2"];3.25;1533763328.29054;128.45;481.87;5.82422568;10;149
50;paravance-29.rennes.grid5000.fr;thermos-root-devel-WordCountTopology-2-efe44ad9-4d00-40d2-9913-8e017cd4f107;["container_2_Emit_random_words_2"];3.25;1533763338.50175;130.58;489.56;5.82422568;10;149
50;paravance-6.rennes.grid5000.fr;thermos-root-devel-WordCountTopology-1-a7bce48e-6789-42d5-bb51-7235caaa4d15;["container_1_Consume_and_count_1"];3.25;1533763338.42928;152.96;1188.19;36.645022621;10;149
50;paravance-7.rennes.grid5000.fr;thermos-root-devel-WordCountTopology-0-360b2ab4-3a7d-4123-92f2-d5d335358816;["topology_master"];3.25;1533763338.50483;5.82;13.02;0.0;9;117
51;paravance-29.rennes.grid5000.fr;thermos-root-devel-WordCountTopology-2-efe44ad9-4d00-40d2-9913-8e017cd4f107;["container_2_Emit_random_words_2"];3.25;1533763348.71309;132.61;496.7;5.82422568;10;149
51;paravance-7.rennes.grid5000.fr;thermos-root-devel-WordCountTopology-0-360b2ab4-3a7d-4123-92f2-d5d335358816;["topology_master"];3.25;1533763348.72055;5.92;13.15;0.0;9;117
51;paravance-6.rennes.grid5000.fr;thermos-root-devel-WordCountTopology-1-a7bce48e-6789-42d5-bb51-7235caaa4d15;["container_1_Consume_and_count_1"];3.25;1533763348.6497;155.39;1207.49;37.034592536;10;149
52;paravance-29.rennes.grid5000.fr;thermos-root-devel-WordCountTopology-2-efe44ad9-4d00-40d2-9913-8e017cd4f107;["container_2_Emit_random_words_2"];3.25;1533763358.92247;134.57;503.57;5.82422568;10;149
52;paravance-6.rennes.grid5000.fr;thermos-root-devel-WordCountTopology-1-a7bce48e-6789-42d5-bb51-7235caaa4d15;["container_1_Consume_and_count_1"];3.25;1533763358.87099;157.79;1226.38;37.477428714;10;149
52;paravance-7.rennes.grid5000.fr;thermos-root-devel-WordCountTopology-0-360b2ab4-3a7d-4123-92f2-d5d335358816;["topology_master"];3.25;1533763358.93691;5.97;13.22;0.0;9;117
53;paravance-6.rennes.grid5000.fr;thermos-root-devel-WordCountTopology-1-a7bce48e-6789-42d5-bb51-7235caaa4d15;["container_1_Consume_and_count_1"];3.25;1533763369.09313;160.1;1245.27;37.847343458;10;149
53;paravance-7.rennes.grid5000.fr;thermos-root-devel-WordCountTopology-0-360b2ab4-3a7d-4123-92f2-d5d335358816;["topology_master"];3.25;1533763369.15287;6.04;13.31;0.0;9;117
53;paravance-29.rennes.grid5000.fr;thermos-root-devel-WordCountTopology-2-efe44ad9-4d00-40d2-9913-8e017cd4f107;["container_2_Emit_random_words_2"];3.25;1533763369.13563;136.51;510.4;5.82422568;10;149
54;paravance-6.rennes.grid5000.fr;thermos-root-devel-WordCountTopology-1-a7bce48e-6789-42d5-bb51-7235caaa4d15;["container_1_Consume_and_count_1"];3.25;1533763379.31242;162.58;1264.78;38.600695918;10;149
54;paravance-7.rennes.grid5000.fr;thermos-root-devel-WordCountTopology-0-360b2ab4-3a7d-4123-92f2-d5d335358816;["topology_master"];3.25;1533763379.36895;6.1;13.43;0.0;9;117
54;paravance-29.rennes.grid5000.fr;thermos-root-devel-WordCountTopology-2-efe44ad9-4d00-40d2-9913-8e017cd4f107;["container_2_Emit_random_words_2"];3.25;1533763379.34613;138.56;517.69;5.82422568;10;149
55;paravance-7.rennes.grid5000.fr;thermos-root-devel-WordCountTopology-0-360b2ab4-3a7d-4123-92f2-d5d335358816;["topology_master"];3.25;1533763389.58459;6.19;13.55;0.0;9;117
55;paravance-6.rennes.grid5000.fr;thermos-root-devel-WordCountTopology-1-a7bce48e-6789-42d5-bb51-7235caaa4d15;["container_1_Consume_and_count_1"];3.25;1533763389.53579;165.07;1284.01;38.995991054;10;149
55;paravance-29.rennes.grid5000.fr;thermos-root-devel-WordCountTopology-2-efe44ad9-4d00-40d2-9913-8e017cd4f107;["container_2_Emit_random_words_2"];3.25;1533763389.55667;140.61;524.86;5.82422568;10;149
56;paravance-6.rennes.grid5000.fr;thermos-root-devel-WordCountTopology-1-a7bce48e-6789-42d5-bb51-7235caaa4d15;["container_1_Consume_and_count_1"];3.25;1533763399.7561;167.52;1303.35;39.499668962;10;149
56;paravance-29.rennes.grid5000.fr;thermos-root-devel-WordCountTopology-2-efe44ad9-4d00-40d2-9913-8e017cd4f107;["container_2_Emit_random_words_2"];3.25;1533763399.7681;142.59;531.96;5.82422568;10;149
56;paravance-7.rennes.grid5000.fr;thermos-root-devel-WordCountTopology-0-360b2ab4-3a7d-4123-92f2-d5d335358816;["topology_master"];3.25;1533763399.80142;6.22;13.57;0.0;9;117
57;paravance-6.rennes.grid5000.fr;thermos-root-devel-WordCountTopology-1-a7bce48e-6789-42d5-bb51-7235caaa4d15;["container_1_Consume_and_count_1"];3.25;1533763409.9791;170.0;1322.51;40.087900149;10;149
57;paravance-7.rennes.grid5000.fr;thermos-root-devel-WordCountTopology-0-360b2ab4-3a7d-4123-92f2-d5d335358816;["topology_master"];3.25;1533763410.01639;6.3;13.69;0.0;9;117
57;paravance-29.rennes.grid5000.fr;thermos-root-devel-WordCountTopology-2-efe44ad9-4d00-40d2-9913-8e017cd4f107;["container_2_Emit_random_words_2"];3.25;1533763409.97823;144.77;539.35;5.82422568;10;149
58;paravance-6.rennes.grid5000.fr;thermos-root-devel-WordCountTopology-1-a7bce48e-6789-42d5-bb51-7235caaa4d15;["container_1_Consume_and_count_1"];3.25;1533763420.19808;172.37;1342.0;40.55550845;10;149
58;paravance-7.rennes.grid5000.fr;thermos-root-devel-WordCountTopology-0-360b2ab4-3a7d-4123-92f2-d5d335358816;["topology_master"];3.25;1533763420.23249;6.36;13.77;0.0;9;117
58;paravance-29.rennes.grid5000.fr;thermos-root-devel-WordCountTopology-2-efe44ad9-4d00-40d2-9913-8e017cd4f107;["container_2_Emit_random_words_2"];3.25;1533763420.19004;146.71;546.11;5.82422568;10;149
59;paravance-6.rennes.grid5000.fr;thermos-root-devel-WordCountTopology-1-a7bce48e-6789-42d5-bb51-7235caaa4d15;["container_1_Consume_and_count_1"];3.25;1533763430.41817;174.48;1360.62;41.160706354;10;149
59;paravance-7.rennes.grid5000.fr;thermos-root-devel-WordCountTopology-0-360b2ab4-3a7d-4123-92f2-d5d335358816;["topology_master"];3.25;1533763430.44849;6.43;13.89;0.0;9;117
59;paravance-29.rennes.grid5000.fr;thermos-root-devel-WordCountTopology-2-efe44ad9-4d00-40d2-9913-8e017cd4f107;["container_2_Emit_random_words_2"];3.25;1533763430.40102;148.53;552.55;5.82422568;10;149
60;paravance-6.rennes.grid5000.fr;thermos-root-devel-WordCountTopology-1-a7bce48e-6789-42d5-bb51-7235caaa4d15;["container_1_Consume_and_count_1"];3.25;1533763440.53979;176.89;1379.33;41.514448954;10;149
60;paravance-29.rennes.grid5000.fr;thermos-root-devel-WordCountTopology-2-efe44ad9-4d00-40d2-9913-8e017cd4f107;["container_2_Emit_random_words_2"];3.25;1533763440.61047;150.37;559.23;5.82422568;10;149
60;paravance-7.rennes.grid5000.fr;thermos-root-devel-WordCountTopology-0-360b2ab4-3a7d-4123-92f2-d5d335358816;["topology_master"];3.25;1533763440.66478;6.49;13.96;0.0;9;117
