mesure_id;slave_id;executor_id;heron_instances;cpus_limit;timestamp_B;cpus_system_time_secs_B;cpus_user_time_secs_B;cpus_throttled_time_secs_B;processes;threads
0;paravance-29.rennes.grid5000.fr;thermos-root-devel-WordCountTopology-0-636a7a84-4a96-4d42-bc0e-af63d661566d;["topology_master"];3.25;1533339045.16377;2.41;8.02;0.2127446;9;117
0;paravance-20.rennes.grid5000.fr;thermos-root-devel-WordCountTopology-1-5b930dc7-028a-45a0-abcc-508c0b9b1e58;["container_1_Consume_and_count_1"];3.25;1533339045.23496;39.64;278.33;64.743363935;10;151
0;paravance-16.rennes.grid5000.fr;thermos-root-devel-WordCountTopology-2-6f8b064b-316f-4e3e-a5e1-62d06ed02449;["container_2_Emit_random_words_2"];3.25;1533339045.22295;16.19;179.05;6.115800119;10;149
1;paravance-20.rennes.grid5000.fr;thermos-root-devel-WordCountTopology-1-5b930dc7-028a-45a0-abcc-508c0b9b1e58;["container_1_Consume_and_count_1"];3.25;1533339055.44907;42.89;306.42;74.386235212;10;151
1;paravance-16.rennes.grid5000.fr;thermos-root-devel-WordCountTopology-2-6f8b064b-316f-4e3e-a5e1-62d06ed02449;["container_2_Emit_random_words_2"];3.25;1533339055.43887;17.23;190.61;6.115800119;10;149
1;paravance-29.rennes.grid5000.fr;thermos-root-devel-WordCountTopology-0-636a7a84-4a96-4d42-bc0e-af63d661566d;["topology_master"];3.25;1533339055.38096;2.5;8.15;0.2127446;9;117
2;paravance-20.rennes.grid5000.fr;thermos-root-devel-WordCountTopology-1-5b930dc7-028a-45a0-abcc-508c0b9b1e58;["container_1_Consume_and_count_1"];3.25;1533339065.66638;46.2;334.28;84.009859958;10;151
2;paravance-29.rennes.grid5000.fr;thermos-root-devel-WordCountTopology-0-636a7a84-4a96-4d42-bc0e-af63d661566d;["topology_master"];3.25;1533339065.59489;2.57;8.24;0.2127446;9;117
2;paravance-16.rennes.grid5000.fr;thermos-root-devel-WordCountTopology-2-6f8b064b-316f-4e3e-a5e1-62d06ed02449;["container_2_Emit_random_words_2"];3.25;1533339065.65389;18.35;204.22;6.115800119;10;149
3;paravance-16.rennes.grid5000.fr;thermos-root-devel-WordCountTopology-2-6f8b064b-316f-4e3e-a5e1-62d06ed02449;["container_2_Emit_random_words_2"];3.25;1533339075.76948;19.41;216.72;6.115800119;10;149
3;paravance-20.rennes.grid5000.fr;thermos-root-devel-WordCountTopology-1-5b930dc7-028a-45a0-abcc-508c0b9b1e58;["container_1_Consume_and_count_1"];3.25;1533339075.88048;49.15;362.56;95.448170217;10;151
3;paravance-29.rennes.grid5000.fr;thermos-root-devel-WordCountTopology-0-636a7a84-4a96-4d42-bc0e-af63d661566d;["topology_master"];3.25;1533339075.80969;2.62;8.31;0.2127446;9;117
4;paravance-20.rennes.grid5000.fr;thermos-root-devel-WordCountTopology-1-5b930dc7-028a-45a0-abcc-508c0b9b1e58;["container_1_Consume_and_count_1"];3.25;1533339086.09485;52.44;390.22;106.53712686;10;151
4;paravance-16.rennes.grid5000.fr;thermos-root-devel-WordCountTopology-2-6f8b064b-316f-4e3e-a5e1-62d06ed02449;["container_2_Emit_random_words_2"];3.25;1533339086.08414;20.67;232.79;6.115800119;10;149
4;paravance-29.rennes.grid5000.fr;thermos-root-devel-WordCountTopology-0-636a7a84-4a96-4d42-bc0e-af63d661566d;["topology_master"];3.25;1533339086.025;2.68;8.38;0.2127446;9;117
5;paravance-29.rennes.grid5000.fr;thermos-root-devel-WordCountTopology-0-636a7a84-4a96-4d42-bc0e-af63d661566d;["topology_master"];3.25;1533339096.24108;2.81;8.6;0.2127446;9;117
5;paravance-20.rennes.grid5000.fr;thermos-root-devel-WordCountTopology-1-5b930dc7-028a-45a0-abcc-508c0b9b1e58;["container_1_Consume_and_count_1"];3.25;1533339096.31309;55.57;419.07;119.583985183;10;151
5;paravance-16.rennes.grid5000.fr;thermos-root-devel-WordCountTopology-2-6f8b064b-316f-4e3e-a5e1-62d06ed02449;["container_2_Emit_random_words_2"];3.25;1533339096.30048;21.84;246.83;6.115800119;10;149
6;paravance-20.rennes.grid5000.fr;thermos-root-devel-WordCountTopology-1-5b930dc7-028a-45a0-abcc-508c0b9b1e58;["container_1_Consume_and_count_1"];3.25;1533339106.53022;58.44;446.99;131.466200413;10;151
6;paravance-16.rennes.grid5000.fr;thermos-root-devel-WordCountTopology-2-6f8b064b-316f-4e3e-a5e1-62d06ed02449;["container_2_Emit_random_words_2"];3.25;1533339106.51824;23.09;261.71;6.115800119;10;149
6;paravance-29.rennes.grid5000.fr;thermos-root-devel-WordCountTopology-0-636a7a84-4a96-4d42-bc0e-af63d661566d;["topology_master"];3.25;1533339106.4599;2.85;8.64;0.2127446;9;117
7;paravance-20.rennes.grid5000.fr;thermos-root-devel-WordCountTopology-1-5b930dc7-028a-45a0-abcc-508c0b9b1e58;["container_1_Consume_and_count_1"];3.25;1533339116.74808;61.18;473.97;141.226910585;10;151
7;paravance-29.rennes.grid5000.fr;thermos-root-devel-WordCountTopology-0-636a7a84-4a96-4d42-bc0e-af63d661566d;["topology_master"];3.25;1533339116.67697;2.94;8.77;0.2127446;9;117
7;paravance-16.rennes.grid5000.fr;thermos-root-devel-WordCountTopology-2-6f8b064b-316f-4e3e-a5e1-62d06ed02449;["container_2_Emit_random_words_2"];3.25;1533339116.73685;24.18;274.56;6.115800119;10;149
8;paravance-20.rennes.grid5000.fr;thermos-root-devel-WordCountTopology-1-5b930dc7-028a-45a0-abcc-508c0b9b1e58;["container_1_Consume_and_count_1"];3.25;1533339126.96494;64.22;502.89;152.821111294;10;151
8;paravance-29.rennes.grid5000.fr;thermos-root-devel-WordCountTopology-0-636a7a84-4a96-4d42-bc0e-af63d661566d;["topology_master"];3.25;1533339126.8947;2.99;8.84;0.2127446;9;117
8;paravance-16.rennes.grid5000.fr;thermos-root-devel-WordCountTopology-2-6f8b064b-316f-4e3e-a5e1-62d06ed02449;["container_2_Emit_random_words_2"];3.25;1533339126.95395;25.16;286.42;6.115800119;10;149
9;paravance-29.rennes.grid5000.fr;thermos-root-devel-WordCountTopology-0-636a7a84-4a96-4d42-bc0e-af63d661566d;["topology_master"];3.25;1533339137.01224;3.05;8.91;0.2127446;9;117
9;paravance-20.rennes.grid5000.fr;thermos-root-devel-WordCountTopology-1-5b930dc7-028a-45a0-abcc-508c0b9b1e58;["container_1_Consume_and_count_1"];3.25;1533339137.18184;67.18;530.63;162.126805438;10;151
9;paravance-16.rennes.grid5000.fr;thermos-root-devel-WordCountTopology-2-6f8b064b-316f-4e3e-a5e1-62d06ed02449;["container_2_Emit_random_words_2"];3.25;1533339137.16935;26.14;297.48;6.115800119;10;149
10;paravance-16.rennes.grid5000.fr;thermos-root-devel-WordCountTopology-2-6f8b064b-316f-4e3e-a5e1-62d06ed02449;["container_2_Emit_random_words_2"];3.25;1533339147.38339;27.33;311.39;6.115800119;10;149
10;paravance-20.rennes.grid5000.fr;thermos-root-devel-WordCountTopology-1-5b930dc7-028a-45a0-abcc-508c0b9b1e58;["container_1_Consume_and_count_1"];3.25;1533339147.39563;70.34;559.04;172.475609629;10;151
10;paravance-29.rennes.grid5000.fr;thermos-root-devel-WordCountTopology-0-636a7a84-4a96-4d42-bc0e-af63d661566d;["topology_master"];3.25;1533339147.3266;3.11;8.99;0.2127446;9;117
11;paravance-20.rennes.grid5000.fr;thermos-root-devel-WordCountTopology-1-5b930dc7-028a-45a0-abcc-508c0b9b1e58;["container_1_Consume_and_count_1"];3.25;1533339157.61243;73.71;587.73;186.113453254;10;151
11;paravance-16.rennes.grid5000.fr;thermos-root-devel-WordCountTopology-2-6f8b064b-316f-4e3e-a5e1-62d06ed02449;["container_2_Emit_random_words_2"];3.25;1533339157.60169;28.63;326.07;6.115800119;10;149
11;paravance-29.rennes.grid5000.fr;thermos-root-devel-WordCountTopology-0-636a7a84-4a96-4d42-bc0e-af63d661566d;["topology_master"];3.25;1533339157.54335;3.23;9.24;0.2127446;9;117
12;paravance-20.rennes.grid5000.fr;thermos-root-devel-WordCountTopology-1-5b930dc7-028a-45a0-abcc-508c0b9b1e58;["container_1_Consume_and_count_1"];3.25;1533339167.72918;76.88;616.37;197.2901839;10;151
12;paravance-29.rennes.grid5000.fr;thermos-root-devel-WordCountTopology-0-636a7a84-4a96-4d42-bc0e-af63d661566d;["topology_master"];3.25;1533339167.75828;3.26;9.27;0.2127446;9;117
12;paravance-16.rennes.grid5000.fr;thermos-root-devel-WordCountTopology-2-6f8b064b-316f-4e3e-a5e1-62d06ed02449;["container_2_Emit_random_words_2"];3.25;1533339167.81756;29.79;340.15;6.115800119;10;149
13;paravance-20.rennes.grid5000.fr;thermos-root-devel-WordCountTopology-1-5b930dc7-028a-45a0-abcc-508c0b9b1e58;["container_1_Consume_and_count_1"];3.25;1533339178.04299;80.05;644.56;209.215618316;10;151
13;paravance-16.rennes.grid5000.fr;thermos-root-devel-WordCountTopology-2-6f8b064b-316f-4e3e-a5e1-62d06ed02449;["container_2_Emit_random_words_2"];3.25;1533339178.03006;30.87;352.72;6.115800119;10;149
13;paravance-29.rennes.grid5000.fr;thermos-root-devel-WordCountTopology-0-636a7a84-4a96-4d42-bc0e-af63d661566d;["topology_master"];3.25;1533339177.9729;3.35;9.42;0.2127446;9;117
14;paravance-20.rennes.grid5000.fr;thermos-root-devel-WordCountTopology-1-5b930dc7-028a-45a0-abcc-508c0b9b1e58;["container_1_Consume_and_count_1"];3.25;1533339188.25513;83.55;672.65;219.624310489;10;151
14;paravance-16.rennes.grid5000.fr;thermos-root-devel-WordCountTopology-2-6f8b064b-316f-4e3e-a5e1-62d06ed02449;["container_2_Emit_random_words_2"];3.25;1533339188.24471;31.99;365.72;6.115800119;10;149
14;paravance-29.rennes.grid5000.fr;thermos-root-devel-WordCountTopology-0-636a7a84-4a96-4d42-bc0e-af63d661566d;["topology_master"];3.25;1533339188.18898;3.41;9.5;0.2127446;9;117
15;paravance-16.rennes.grid5000.fr;thermos-root-devel-WordCountTopology-2-6f8b064b-316f-4e3e-a5e1-62d06ed02449;["container_2_Emit_random_words_2"];3.25;1533339198.46031;33.06;377.94;6.115800119;10;149
15;paravance-20.rennes.grid5000.fr;thermos-root-devel-WordCountTopology-1-5b930dc7-028a-45a0-abcc-508c0b9b1e58;["container_1_Consume_and_count_1"];3.25;1533339198.47654;86.38;700.71;228.750204202;10;151
15;paravance-29.rennes.grid5000.fr;thermos-root-devel-WordCountTopology-0-636a7a84-4a96-4d42-bc0e-af63d661566d;["topology_master"];3.25;1533339198.40426;3.47;9.58;0.2127446;9;117
16;paravance-20.rennes.grid5000.fr;thermos-root-devel-WordCountTopology-1-5b930dc7-028a-45a0-abcc-508c0b9b1e58;["container_1_Consume_and_count_1"];3.25;1533339208.68983;89.43;728.59;239.192376456;10;151
16;paravance-16.rennes.grid5000.fr;thermos-root-devel-WordCountTopology-2-6f8b064b-316f-4e3e-a5e1-62d06ed02449;["container_2_Emit_random_words_2"];3.25;1533339208.67941;34.16;390.67;6.115800119;10;149
16;paravance-29.rennes.grid5000.fr;thermos-root-devel-WordCountTopology-0-636a7a84-4a96-4d42-bc0e-af63d661566d;["topology_master"];3.25;1533339208.62013;3.53;9.66;0.2127446;9;117
17;paravance-20.rennes.grid5000.fr;thermos-root-devel-WordCountTopology-1-5b930dc7-028a-45a0-abcc-508c0b9b1e58;["container_1_Consume_and_count_1"];3.25;1533339218.90839;92.07;755.17;247.493002549;10;151
17;paravance-16.rennes.grid5000.fr;thermos-root-devel-WordCountTopology-2-6f8b064b-316f-4e3e-a5e1-62d06ed02449;["container_2_Emit_random_words_2"];3.25;1533339218.89593;34.94;399.2;6.115800119;10;149
17;paravance-29.rennes.grid5000.fr;thermos-root-devel-WordCountTopology-0-636a7a84-4a96-4d42-bc0e-af63d661566d;["topology_master"];3.25;1533339218.83962;3.65;9.91;0.2127446;9;117
18;paravance-20.rennes.grid5000.fr;thermos-root-devel-WordCountTopology-1-5b930dc7-028a-45a0-abcc-508c0b9b1e58;["container_1_Consume_and_count_1"];3.25;1533339229.12444;95.18;782.14;255.653769067;10;151
18;paravance-29.rennes.grid5000.fr;thermos-root-devel-WordCountTopology-0-636a7a84-4a96-4d42-bc0e-af63d661566d;["topology_master"];3.25;1533339229.05277;3.68;9.93;0.2127446;9;117
18;paravance-16.rennes.grid5000.fr;thermos-root-devel-WordCountTopology-2-6f8b064b-316f-4e3e-a5e1-62d06ed02449;["container_2_Emit_random_words_2"];3.25;1533339229.11102;35.88;410.71;6.115800119;10;149
19;paravance-29.rennes.grid5000.fr;thermos-root-devel-WordCountTopology-0-636a7a84-4a96-4d42-bc0e-af63d661566d;["topology_master"];3.25;1533339239.27006;3.77;10.07;0.2127446;9;117
19;paravance-16.rennes.grid5000.fr;thermos-root-devel-WordCountTopology-2-6f8b064b-316f-4e3e-a5e1-62d06ed02449;["container_2_Emit_random_words_2"];3.25;1533339239.32915;36.84;421.16;6.115800119;10;149
19;paravance-20.rennes.grid5000.fr;thermos-root-devel-WordCountTopology-1-5b930dc7-028a-45a0-abcc-508c0b9b1e58;["container_1_Consume_and_count_1"];3.25;1533339239.34162;98.32;810.55;264.086108368;10;151
20;paravance-20.rennes.grid5000.fr;thermos-root-devel-WordCountTopology-1-5b930dc7-028a-45a0-abcc-508c0b9b1e58;["container_1_Consume_and_count_1"];3.25;1533339249.55662;102.04;838.07;272.488356574;10;151
20;paravance-16.rennes.grid5000.fr;thermos-root-devel-WordCountTopology-2-6f8b064b-316f-4e3e-a5e1-62d06ed02449;["container_2_Emit_random_words_2"];3.25;1533339249.54553;38.14;437.13;6.115800119;10;149
20;paravance-29.rennes.grid5000.fr;thermos-root-devel-WordCountTopology-0-636a7a84-4a96-4d42-bc0e-af63d661566d;["topology_master"];3.25;1533339249.48782;3.83;10.14;0.2127446;9;117
21;paravance-20.rennes.grid5000.fr;thermos-root-devel-WordCountTopology-1-5b930dc7-028a-45a0-abcc-508c0b9b1e58;["container_1_Consume_and_count_1"];3.25;1533339259.77237;105.09;866.56;283.315869703;10;151
21;paravance-16.rennes.grid5000.fr;thermos-root-devel-WordCountTopology-2-6f8b064b-316f-4e3e-a5e1-62d06ed02449;["container_2_Emit_random_words_2"];3.25;1533339259.76058;39.2;449.82;6.115800119;10;149
21;paravance-29.rennes.grid5000.fr;thermos-root-devel-WordCountTopology-0-636a7a84-4a96-4d42-bc0e-af63d661566d;["topology_master"];3.25;1533339259.7036;3.89;10.21;0.2127446;9;117
22;paravance-20.rennes.grid5000.fr;thermos-root-devel-WordCountTopology-1-5b930dc7-028a-45a0-abcc-508c0b9b1e58;["container_1_Consume_and_count_1"];3.25;1533339269.98898;108.38;895.36;294.881432415;10;151
22;paravance-16.rennes.grid5000.fr;thermos-root-devel-WordCountTopology-2-6f8b064b-316f-4e3e-a5e1-62d06ed02449;["container_2_Emit_random_words_2"];3.25;1533339269.97682;40.34;463.57;6.115800119;10;149
22;paravance-29.rennes.grid5000.fr;thermos-root-devel-WordCountTopology-0-636a7a84-4a96-4d42-bc0e-af63d661566d;["topology_master"];3.25;1533339269.91864;3.94;10.29;0.2127446;9;117
23;paravance-20.rennes.grid5000.fr;thermos-root-devel-WordCountTopology-1-5b930dc7-028a-45a0-abcc-508c0b9b1e58;["container_1_Consume_and_count_1"];3.25;1533339280.20459;111.55;924.29;308.624081134;10;151
23;paravance-16.rennes.grid5000.fr;thermos-root-devel-WordCountTopology-2-6f8b064b-316f-4e3e-a5e1-62d06ed02449;["container_2_Emit_random_words_2"];3.25;1533339280.19219;41.63;478.35;6.115800119;10;149
23;paravance-29.rennes.grid5000.fr;thermos-root-devel-WordCountTopology-0-636a7a84-4a96-4d42-bc0e-af63d661566d;["topology_master"];3.25;1533339280.13434;4.06;10.47;0.2127446;9;117
24;paravance-20.rennes.grid5000.fr;thermos-root-devel-WordCountTopology-1-5b930dc7-028a-45a0-abcc-508c0b9b1e58;["container_1_Consume_and_count_1"];3.25;1533339290.41939;114.9;951.59;319.666503074;10;151
24;paravance-16.rennes.grid5000.fr;thermos-root-devel-WordCountTopology-2-6f8b064b-316f-4e3e-a5e1-62d06ed02449;["container_2_Emit_random_words_2"];3.25;1533339290.40737;42.82;493.02;6.115800119;10;149
24;paravance-29.rennes.grid5000.fr;thermos-root-devel-WordCountTopology-0-636a7a84-4a96-4d42-bc0e-af63d661566d;["topology_master"];3.25;1533339290.34999;4.09;10.5;0.2127446;9;117
25;paravance-20.rennes.grid5000.fr;thermos-root-devel-WordCountTopology-1-5b930dc7-028a-45a0-abcc-508c0b9b1e58;["container_1_Consume_and_count_1"];3.25;1533339300.63506;117.77;979.9;330.653643986;10;151
25;paravance-16.rennes.grid5000.fr;thermos-root-devel-WordCountTopology-2-6f8b064b-316f-4e3e-a5e1-62d06ed02449;["container_2_Emit_random_words_2"];3.25;1533339300.62368;43.86;504.67;6.115800119;10;149
25;paravance-29.rennes.grid5000.fr;thermos-root-devel-WordCountTopology-0-636a7a84-4a96-4d42-bc0e-af63d661566d;["topology_master"];3.25;1533339300.56587;4.18;10.63;0.2127446;9;117
26;paravance-20.rennes.grid5000.fr;thermos-root-devel-WordCountTopology-1-5b930dc7-028a-45a0-abcc-508c0b9b1e58;["container_1_Consume_and_count_1"];3.25;1533339310.84911;120.9;1009.0;343.911219412;10;151
26;paravance-16.rennes.grid5000.fr;thermos-root-devel-WordCountTopology-2-6f8b064b-316f-4e3e-a5e1-62d06ed02449;["container_2_Emit_random_words_2"];3.25;1533339310.83862;44.97;518.6;6.115800119;10;149
26;paravance-29.rennes.grid5000.fr;thermos-root-devel-WordCountTopology-0-636a7a84-4a96-4d42-bc0e-af63d661566d;["topology_master"];3.25;1533339310.77978;4.23;10.7;0.2127446;9;117
27;paravance-20.rennes.grid5000.fr;thermos-root-devel-WordCountTopology-1-5b930dc7-028a-45a0-abcc-508c0b9b1e58;["container_1_Consume_and_count_1"];3.25;1533339321.06634;123.61;1036.81;355.198874742;10;151
27;paravance-16.rennes.grid5000.fr;thermos-root-devel-WordCountTopology-2-6f8b064b-316f-4e3e-a5e1-62d06ed02449;["container_2_Emit_random_words_2"];3.25;1533339321.05409;45.87;529.18;6.115800119;10;149
27;paravance-29.rennes.grid5000.fr;thermos-root-devel-WordCountTopology-0-636a7a84-4a96-4d42-bc0e-af63d661566d;["topology_master"];3.25;1533339320.99644;4.3;10.78;0.2127446;9;117
28;paravance-20.rennes.grid5000.fr;thermos-root-devel-WordCountTopology-1-5b930dc7-028a-45a0-abcc-508c0b9b1e58;["container_1_Consume_and_count_1"];3.25;1533339331.18075;127.31;1064.67;365.827534783;10;151
28;paravance-16.rennes.grid5000.fr;thermos-root-devel-WordCountTopology-2-6f8b064b-316f-4e3e-a5e1-62d06ed02449;["container_2_Emit_random_words_2"];3.25;1533339331.26976;47.0;542.11;6.115800119;10;149
28;paravance-29.rennes.grid5000.fr;thermos-root-devel-WordCountTopology-0-636a7a84-4a96-4d42-bc0e-af63d661566d;["topology_master"];3.25;1533339331.21063;4.42;10.93;0.2127446;9;117
29;paravance-20.rennes.grid5000.fr;thermos-root-devel-WordCountTopology-1-5b930dc7-028a-45a0-abcc-508c0b9b1e58;["container_1_Consume_and_count_1"];3.25;1533339341.49727;130.49;1092.37;375.210993987;10;151
29;paravance-16.rennes.grid5000.fr;thermos-root-devel-WordCountTopology-2-6f8b064b-316f-4e3e-a5e1-62d06ed02449;["container_2_Emit_random_words_2"];3.25;1533339341.48605;47.97;553.53;6.115800119;10;149
29;paravance-29.rennes.grid5000.fr;thermos-root-devel-WordCountTopology-0-636a7a84-4a96-4d42-bc0e-af63d661566d;["topology_master"];3.25;1533339341.4273;4.48;11.06;0.2127446;9;117
30;paravance-16.rennes.grid5000.fr;thermos-root-devel-WordCountTopology-2-6f8b064b-316f-4e3e-a5e1-62d06ed02449;["container_2_Emit_random_words_2"];3.25;1533339351.70041;48.76;562.46;6.115800119;10;149
30;paravance-20.rennes.grid5000.fr;thermos-root-devel-WordCountTopology-1-5b930dc7-028a-45a0-abcc-508c0b9b1e58;["container_1_Consume_and_count_1"];3.25;1533339351.71467;132.96;1118.86;382.6098668;10;151
30;paravance-29.rennes.grid5000.fr;thermos-root-devel-WordCountTopology-0-636a7a84-4a96-4d42-bc0e-af63d661566d;["topology_master"];3.25;1533339351.64265;4.54;11.14;0.2127446;9;117
31;paravance-20.rennes.grid5000.fr;thermos-root-devel-WordCountTopology-1-5b930dc7-028a-45a0-abcc-508c0b9b1e58;["container_1_Consume_and_count_1"];3.25;1533339361.93131;136.24;1146.89;393.174319198;10;151
31;paravance-16.rennes.grid5000.fr;thermos-root-devel-WordCountTopology-2-6f8b064b-316f-4e3e-a5e1-62d06ed02449;["container_2_Emit_random_words_2"];3.25;1533339361.91881;49.94;576.78;6.115800119;10;149
31;paravance-29.rennes.grid5000.fr;thermos-root-devel-WordCountTopology-0-636a7a84-4a96-4d42-bc0e-af63d661566d;["topology_master"];3.25;1533339361.85957;4.6;11.22;0.2127446;9;117
32;paravance-20.rennes.grid5000.fr;thermos-root-devel-WordCountTopology-1-5b930dc7-028a-45a0-abcc-508c0b9b1e58;["container_1_Consume_and_count_1"];3.25;1533339372.14471;139.35;1175.76;405.066876605;10;151
32;paravance-16.rennes.grid5000.fr;thermos-root-devel-WordCountTopology-2-6f8b064b-316f-4e3e-a5e1-62d06ed02449;["container_2_Emit_random_words_2"];3.25;1533339372.13264;50.94;588.34;6.115800119;10;149
32;paravance-29.rennes.grid5000.fr;thermos-root-devel-WordCountTopology-0-636a7a84-4a96-4d42-bc0e-af63d661566d;["topology_master"];3.25;1533339372.07608;4.69;11.34;0.2127446;9;117
33;paravance-20.rennes.grid5000.fr;thermos-root-devel-WordCountTopology-1-5b930dc7-028a-45a0-abcc-508c0b9b1e58;["container_1_Consume_and_count_1"];3.25;1533339382.36041;142.86;1203.44;413.071401508;10;151
33;paravance-16.rennes.grid5000.fr;thermos-root-devel-WordCountTopology-2-6f8b064b-316f-4e3e-a5e1-62d06ed02449;["container_2_Emit_random_words_2"];3.25;1533339382.34982;52.31;605.62;6.115800119;10;149
33;paravance-29.rennes.grid5000.fr;thermos-root-devel-WordCountTopology-0-636a7a84-4a96-4d42-bc0e-af63d661566d;["topology_master"];3.25;1533339382.2923;4.72;11.37;0.2127446;9;117
34;paravance-20.rennes.grid5000.fr;thermos-root-devel-WordCountTopology-1-5b930dc7-028a-45a0-abcc-508c0b9b1e58;["container_1_Consume_and_count_1"];3.25;1533339392.57957;145.34;1230.49;422.631596006;10;151
34;paravance-29.rennes.grid5000.fr;thermos-root-devel-WordCountTopology-0-636a7a84-4a96-4d42-bc0e-af63d661566d;["topology_master"];3.25;1533339392.50834;4.82;11.5;0.2127446;9;117
34;paravance-16.rennes.grid5000.fr;thermos-root-devel-WordCountTopology-2-6f8b064b-316f-4e3e-a5e1-62d06ed02449;["container_2_Emit_random_words_2"];3.25;1533339392.56741;53.19;615.07;6.115800119;10;149
35;paravance-20.rennes.grid5000.fr;thermos-root-devel-WordCountTopology-1-5b930dc7-028a-45a0-abcc-508c0b9b1e58;["container_1_Consume_and_count_1"];3.25;1533339402.79438;147.79;1257.3;431.18594486;10;151
35;paravance-16.rennes.grid5000.fr;thermos-root-devel-WordCountTopology-2-6f8b064b-316f-4e3e-a5e1-62d06ed02449;["container_2_Emit_random_words_2"];3.25;1533339402.78282;54.0;624.32;6.115800119;10;149
35;paravance-29.rennes.grid5000.fr;thermos-root-devel-WordCountTopology-0-636a7a84-4a96-4d42-bc0e-af63d661566d;["topology_master"];3.25;1533339402.72512;4.88;11.62;0.2127446;9;117
36;paravance-20.rennes.grid5000.fr;thermos-root-devel-WordCountTopology-1-5b930dc7-028a-45a0-abcc-508c0b9b1e58;["container_1_Consume_and_count_1"];3.25;1533339413.00957;150.55;1285.12;439.615857973;10;151
36;paravance-16.rennes.grid5000.fr;thermos-root-devel-WordCountTopology-2-6f8b064b-316f-4e3e-a5e1-62d06ed02449;["container_2_Emit_random_words_2"];3.25;1533339412.9964;54.81;633.87;6.115800119;10;149
36;paravance-29.rennes.grid5000.fr;thermos-root-devel-WordCountTopology-0-636a7a84-4a96-4d42-bc0e-af63d661566d;["topology_master"];3.25;1533339412.94;4.97;11.76;0.2127446;9;117
37;paravance-16.rennes.grid5000.fr;thermos-root-devel-WordCountTopology-2-6f8b064b-316f-4e3e-a5e1-62d06ed02449;["container_2_Emit_random_words_2"];3.25;1533339423.21091;55.77;645.35;6.115800119;10;149
37;paravance-20.rennes.grid5000.fr;thermos-root-devel-WordCountTopology-1-5b930dc7-028a-45a0-abcc-508c0b9b1e58;["container_1_Consume_and_count_1"];3.25;1533339423.22474;153.44;1312.02;448.340560622;10;151
37;paravance-29.rennes.grid5000.fr;thermos-root-devel-WordCountTopology-0-636a7a84-4a96-4d42-bc0e-af63d661566d;["topology_master"];3.25;1533339423.15414;5.0;11.78;0.2127446;9;117
38;paravance-16.rennes.grid5000.fr;thermos-root-devel-WordCountTopology-2-6f8b064b-316f-4e3e-a5e1-62d06ed02449;["container_2_Emit_random_words_2"];3.25;1533339433.32878;56.8;657.29;6.115800119;10;149
38;paravance-29.rennes.grid5000.fr;thermos-root-devel-WordCountTopology-0-636a7a84-4a96-4d42-bc0e-af63d661566d;["topology_master"];3.25;1533339433.3675;5.09;11.9;0.2127446;9;117
38;paravance-20.rennes.grid5000.fr;thermos-root-devel-WordCountTopology-1-5b930dc7-028a-45a0-abcc-508c0b9b1e58;["container_1_Consume_and_count_1"];3.25;1533339433.44193;156.68;1339.82;459.225622934;10;151
39;paravance-20.rennes.grid5000.fr;thermos-root-devel-WordCountTopology-1-5b930dc7-028a-45a0-abcc-508c0b9b1e58;["container_1_Consume_and_count_1"];3.25;1533339443.65627;160.02;1367.83;469.359013261;10;151
39;paravance-16.rennes.grid5000.fr;thermos-root-devel-WordCountTopology-2-6f8b064b-316f-4e3e-a5e1-62d06ed02449;["container_2_Emit_random_words_2"];3.25;1533339443.64321;58.07;673.2;6.115800119;10;149
39;paravance-29.rennes.grid5000.fr;thermos-root-devel-WordCountTopology-0-636a7a84-4a96-4d42-bc0e-af63d661566d;["topology_master"];3.25;1533339443.58541;5.15;11.98;0.2127446;9;117
40;paravance-20.rennes.grid5000.fr;thermos-root-devel-WordCountTopology-1-5b930dc7-028a-45a0-abcc-508c0b9b1e58;["container_1_Consume_and_count_1"];3.25;1533339453.87132;163.16;1396.62;480.275795392;10;151
40;paravance-16.rennes.grid5000.fr;thermos-root-devel-WordCountTopology-2-6f8b064b-316f-4e3e-a5e1-62d06ed02449;["container_2_Emit_random_words_2"];3.25;1533339453.85761;59.17;685.69;6.115800119;10;149
40;paravance-29.rennes.grid5000.fr;thermos-root-devel-WordCountTopology-0-636a7a84-4a96-4d42-bc0e-af63d661566d;["topology_master"];3.25;1533339453.80112;5.22;12.06;0.2127446;9;117
41;paravance-20.rennes.grid5000.fr;thermos-root-devel-WordCountTopology-1-5b930dc7-028a-45a0-abcc-508c0b9b1e58;["container_1_Consume_and_count_1"];3.25;1533339463.99187;166.28;1424.56;490.149322958;10;151
41;paravance-16.rennes.grid5000.fr;thermos-root-devel-WordCountTopology-2-6f8b064b-316f-4e3e-a5e1-62d06ed02449;["container_2_Emit_random_words_2"];3.25;1533339464.07508;60.22;697.62;6.115800119;10;149
41;paravance-29.rennes.grid5000.fr;thermos-root-devel-WordCountTopology-0-636a7a84-4a96-4d42-bc0e-af63d661566d;["topology_master"];3.25;1533339464.0156;5.28;12.2;0.2127446;9;117
42;paravance-20.rennes.grid5000.fr;thermos-root-devel-WordCountTopology-1-5b930dc7-028a-45a0-abcc-508c0b9b1e58;["container_1_Consume_and_count_1"];3.25;1533339474.30361;169.6;1453.52;500.971848788;10;151
42;paravance-16.rennes.grid5000.fr;thermos-root-devel-WordCountTopology-2-6f8b064b-316f-4e3e-a5e1-62d06ed02449;["container_2_Emit_random_words_2"];3.25;1533339474.29197;61.21;708.45;6.115800119;10;149
42;paravance-29.rennes.grid5000.fr;thermos-root-devel-WordCountTopology-0-636a7a84-4a96-4d42-bc0e-af63d661566d;["topology_master"];3.25;1533339474.23284;5.37;12.34;0.2127446;9;117
43;paravance-16.rennes.grid5000.fr;thermos-root-devel-WordCountTopology-2-6f8b064b-316f-4e3e-a5e1-62d06ed02449;["container_2_Emit_random_words_2"];3.25;1533339484.50867;62.15;719.36;6.115800119;10;149
43;paravance-20.rennes.grid5000.fr;thermos-root-devel-WordCountTopology-1-5b930dc7-028a-45a0-abcc-508c0b9b1e58;["container_1_Consume_and_count_1"];3.25;1533339484.52189;173.09;1481.69;511.250193208;10;151
43;paravance-29.rennes.grid5000.fr;thermos-root-devel-WordCountTopology-0-636a7a84-4a96-4d42-bc0e-af63d661566d;["topology_master"];3.25;1533339484.45012;5.4;12.37;0.2127446;9;117
44;paravance-20.rennes.grid5000.fr;thermos-root-devel-WordCountTopology-1-5b930dc7-028a-45a0-abcc-508c0b9b1e58;["container_1_Consume_and_count_1"];3.25;1533339494.74003;176.31;1509.46;522.204501745;10;151
44;paravance-16.rennes.grid5000.fr;thermos-root-devel-WordCountTopology-2-6f8b064b-316f-4e3e-a5e1-62d06ed02449;["container_2_Emit_random_words_2"];3.25;1533339494.72705;63.31;732.92;6.115800119;10;149
44;paravance-29.rennes.grid5000.fr;thermos-root-devel-WordCountTopology-0-636a7a84-4a96-4d42-bc0e-af63d661566d;["topology_master"];3.25;1533339494.66779;5.49;12.49;0.2127446;9;117
45;paravance-16.rennes.grid5000.fr;thermos-root-devel-WordCountTopology-2-6f8b064b-316f-4e3e-a5e1-62d06ed02449;["container_2_Emit_random_words_2"];3.25;1533339504.94458;64.65;748.39;6.115800119;10;149
45;paravance-29.rennes.grid5000.fr;thermos-root-devel-WordCountTopology-0-636a7a84-4a96-4d42-bc0e-af63d661566d;["topology_master"];3.25;1533339504.88587;5.54;12.56;0.2127446;9;117
45;paravance-20.rennes.grid5000.fr;thermos-root-devel-WordCountTopology-1-5b930dc7-028a-45a0-abcc-508c0b9b1e58;["container_1_Consume_and_count_1"];3.25;1533339504.95975;179.69;1538.18;534.603090903;10;151
46;paravance-20.rennes.grid5000.fr;thermos-root-devel-WordCountTopology-1-5b930dc7-028a-45a0-abcc-508c0b9b1e58;["container_1_Consume_and_count_1"];3.25;1533339515.17549;182.66;1567.31;546.504508183;10;151
46;paravance-16.rennes.grid5000.fr;thermos-root-devel-WordCountTopology-2-6f8b064b-316f-4e3e-a5e1-62d06ed02449;["container_2_Emit_random_words_2"];3.25;1533339515.16158;65.75;761.35;6.115800119;10;149
46;paravance-29.rennes.grid5000.fr;thermos-root-devel-WordCountTopology-0-636a7a84-4a96-4d42-bc0e-af63d661566d;["topology_master"];3.25;1533339515.10458;5.61;12.64;0.2127446;9;117
47;paravance-16.rennes.grid5000.fr;thermos-root-devel-WordCountTopology-2-6f8b064b-316f-4e3e-a5e1-62d06ed02449;["container_2_Emit_random_words_2"];3.25;1533339525.37829;66.76;773.25;6.115800119;10;149
47;paravance-20.rennes.grid5000.fr;thermos-root-devel-WordCountTopology-1-5b930dc7-028a-45a0-abcc-508c0b9b1e58;["container_1_Consume_and_count_1"];3.25;1533339525.39335;186.02;1595.79;557.293216547;10;151
47;paravance-29.rennes.grid5000.fr;thermos-root-devel-WordCountTopology-0-636a7a84-4a96-4d42-bc0e-af63d661566d;["topology_master"];3.25;1533339525.322;5.67;12.77;0.2127446;9;117
48;paravance-20.rennes.grid5000.fr;thermos-root-devel-WordCountTopology-1-5b930dc7-028a-45a0-abcc-508c0b9b1e58;["container_1_Consume_and_count_1"];3.25;1533339535.60823;189.43;1624.32;567.956797556;10;151
48;paravance-16.rennes.grid5000.fr;thermos-root-devel-WordCountTopology-2-6f8b064b-316f-4e3e-a5e1-62d06ed02449;["container_2_Emit_random_words_2"];3.25;1533339535.59721;67.94;788.1;6.115800119;10;149
48;paravance-29.rennes.grid5000.fr;thermos-root-devel-WordCountTopology-0-636a7a84-4a96-4d42-bc0e-af63d661566d;["topology_master"];3.25;1533339535.53912;5.76;12.9;0.2127446;9;117
49;paravance-20.rennes.grid5000.fr;thermos-root-devel-WordCountTopology-1-5b930dc7-028a-45a0-abcc-508c0b9b1e58;["container_1_Consume_and_count_1"];3.25;1533339545.82713;192.27;1650.57;576.488773242;10;151
49;paravance-29.rennes.grid5000.fr;thermos-root-devel-WordCountTopology-0-636a7a84-4a96-4d42-bc0e-af63d661566d;["topology_master"];3.25;1533339545.75576;5.79;12.93;0.2127446;9;117
49;paravance-16.rennes.grid5000.fr;thermos-root-devel-WordCountTopology-2-6f8b064b-316f-4e3e-a5e1-62d06ed02449;["container_2_Emit_random_words_2"];3.25;1533339545.81505;68.77;797.91;6.115800119;10;149
50;paravance-20.rennes.grid5000.fr;thermos-root-devel-WordCountTopology-1-5b930dc7-028a-45a0-abcc-508c0b9b1e58;["container_1_Consume_and_count_1"];3.25;1533339556.04391;195.25;1678.41;586.258878417;10;151
50;paravance-29.rennes.grid5000.fr;thermos-root-devel-WordCountTopology-0-636a7a84-4a96-4d42-bc0e-af63d661566d;["topology_master"];3.25;1533339555.97127;5.89;13.07;0.2127446;9;117
50;paravance-16.rennes.grid5000.fr;thermos-root-devel-WordCountTopology-2-6f8b064b-316f-4e3e-a5e1-62d06ed02449;["container_2_Emit_random_words_2"];3.25;1533339556.03233;69.71;808.1;6.115800119;10;149
51;paravance-20.rennes.grid5000.fr;thermos-root-devel-WordCountTopology-1-5b930dc7-028a-45a0-abcc-508c0b9b1e58;["container_1_Consume_and_count_1"];3.25;1533339566.25964;198.41;1707.4;598.990704073;10;151
51;paravance-16.rennes.grid5000.fr;thermos-root-devel-WordCountTopology-2-6f8b064b-316f-4e3e-a5e1-62d06ed02449;["container_2_Emit_random_words_2"];3.25;1533339566.24748;71.0;823.23;6.115800119;10;149
51;paravance-29.rennes.grid5000.fr;thermos-root-devel-WordCountTopology-0-636a7a84-4a96-4d42-bc0e-af63d661566d;["topology_master"];3.25;1533339566.19051;5.94;13.14;0.2127446;9;117
52;paravance-20.rennes.grid5000.fr;thermos-root-devel-WordCountTopology-1-5b930dc7-028a-45a0-abcc-508c0b9b1e58;["container_1_Consume_and_count_1"];3.25;1533339576.47984;201.2;1735.29;608.812031949;10;151
52;paravance-29.rennes.grid5000.fr;thermos-root-devel-WordCountTopology-0-636a7a84-4a96-4d42-bc0e-af63d661566d;["topology_master"];3.25;1533339576.40651;6.02;13.25;0.2127446;9;117
52;paravance-16.rennes.grid5000.fr;thermos-root-devel-WordCountTopology-2-6f8b064b-316f-4e3e-a5e1-62d06ed02449;["container_2_Emit_random_words_2"];3.25;1533339576.46727;71.9;833.06;6.115800119;10;149
53;paravance-20.rennes.grid5000.fr;thermos-root-devel-WordCountTopology-1-5b930dc7-028a-45a0-abcc-508c0b9b1e58;["container_1_Consume_and_count_1"];3.25;1533339586.69544;204.26;1764.24;622.311475281;10;151
53;paravance-29.rennes.grid5000.fr;thermos-root-devel-WordCountTopology-0-636a7a84-4a96-4d42-bc0e-af63d661566d;["topology_master"];3.25;1533339586.6238;6.07;13.32;0.2127446;9;117
53;paravance-16.rennes.grid5000.fr;thermos-root-devel-WordCountTopology-2-6f8b064b-316f-4e3e-a5e1-62d06ed02449;["container_2_Emit_random_words_2"];3.25;1533339586.68358;72.96;845.81;6.115800119;10;149
54;paravance-20.rennes.grid5000.fr;thermos-root-devel-WordCountTopology-1-5b930dc7-028a-45a0-abcc-508c0b9b1e58;["container_1_Consume_and_count_1"];3.25;1533339596.91275;207.63;1792.33;633.219625053;10;151
54;paravance-16.rennes.grid5000.fr;thermos-root-devel-WordCountTopology-2-6f8b064b-316f-4e3e-a5e1-62d06ed02449;["container_2_Emit_random_words_2"];3.25;1533339596.90026;74.3;860.82;6.115800119;10;149
54;paravance-29.rennes.grid5000.fr;thermos-root-devel-WordCountTopology-0-636a7a84-4a96-4d42-bc0e-af63d661566d;["topology_master"];3.25;1533339596.84101;6.17;13.45;0.2127446;9;117
55;paravance-20.rennes.grid5000.fr;thermos-root-devel-WordCountTopology-1-5b930dc7-028a-45a0-abcc-508c0b9b1e58;["container_1_Consume_and_count_1"];3.25;1533339607.12758;211.64;1820.32;643.567048022;10;151
55;paravance-16.rennes.grid5000.fr;thermos-root-devel-WordCountTopology-2-6f8b064b-316f-4e3e-a5e1-62d06ed02449;["container_2_Emit_random_words_2"];3.25;1533339607.11497;75.7;877.72;6.115800119;10;149
55;paravance-29.rennes.grid5000.fr;thermos-root-devel-WordCountTopology-0-636a7a84-4a96-4d42-bc0e-af63d661566d;["topology_master"];3.25;1533339607.05581;6.19;13.47;0.2127446;9;117
56;paravance-20.rennes.grid5000.fr;thermos-root-devel-WordCountTopology-1-5b930dc7-028a-45a0-abcc-508c0b9b1e58;["container_1_Consume_and_count_1"];3.25;1533339617.24735;214.72;1848.15;652.836554073;10;151
56;paravance-16.rennes.grid5000.fr;thermos-root-devel-WordCountTopology-2-6f8b064b-316f-4e3e-a5e1-62d06ed02449;["container_2_Emit_random_words_2"];3.25;1533339617.33209;76.88;891.14;6.115800119;10;149
56;paravance-29.rennes.grid5000.fr;thermos-root-devel-WordCountTopology-0-636a7a84-4a96-4d42-bc0e-af63d661566d;["topology_master"];3.25;1533339617.27297;6.28;13.6;0.2127446;9;117
57;paravance-20.rennes.grid5000.fr;thermos-root-devel-WordCountTopology-1-5b930dc7-028a-45a0-abcc-508c0b9b1e58;["container_1_Consume_and_count_1"];3.25;1533339627.46291;218.21;1875.97;661.412870372;10;151
57;paravance-16.rennes.grid5000.fr;thermos-root-devel-WordCountTopology-2-6f8b064b-316f-4e3e-a5e1-62d06ed02449;["container_2_Emit_random_words_2"];3.25;1533339627.54742;78.01;904.14;6.115800119;10;149
57;paravance-29.rennes.grid5000.fr;thermos-root-devel-WordCountTopology-0-636a7a84-4a96-4d42-bc0e-af63d661566d;["topology_master"];3.25;1533339627.48968;6.34;13.67;0.2127446;9;117
58;paravance-20.rennes.grid5000.fr;thermos-root-devel-WordCountTopology-1-5b930dc7-028a-45a0-abcc-508c0b9b1e58;["container_1_Consume_and_count_1"];3.25;1533339637.77763;221.71;1904.95;674.583976509;10;151
58;paravance-16.rennes.grid5000.fr;thermos-root-devel-WordCountTopology-2-6f8b064b-316f-4e3e-a5e1-62d06ed02449;["container_2_Emit_random_words_2"];3.25;1533339637.76401;79.5;921.69;6.115800119;10;149
58;paravance-29.rennes.grid5000.fr;thermos-root-devel-WordCountTopology-0-636a7a84-4a96-4d42-bc0e-af63d661566d;["topology_master"];3.25;1533339637.70552;6.41;13.78;0.2127446;9;117
59;paravance-16.rennes.grid5000.fr;thermos-root-devel-WordCountTopology-2-6f8b064b-316f-4e3e-a5e1-62d06ed02449;["container_2_Emit_random_words_2"];3.25;1533339647.97817;80.6;934.71;6.115800119;10;149
59;paravance-20.rennes.grid5000.fr;thermos-root-devel-WordCountTopology-1-5b930dc7-028a-45a0-abcc-508c0b9b1e58;["container_1_Consume_and_count_1"];3.25;1533339647.99282;225.03;1933.8;686.26714732;10;151
59;paravance-29.rennes.grid5000.fr;thermos-root-devel-WordCountTopology-0-636a7a84-4a96-4d42-bc0e-af63d661566d;["topology_master"];3.25;1533339647.91979;6.47;13.85;0.2127446;9;117
60;paravance-16.rennes.grid5000.fr;thermos-root-devel-WordCountTopology-2-6f8b064b-316f-4e3e-a5e1-62d06ed02449;["container_2_Emit_random_words_2"];3.25;1533339658.09464;81.62;945.95;6.115800119;10;149
60;paravance-20.rennes.grid5000.fr;thermos-root-devel-WordCountTopology-1-5b930dc7-028a-45a0-abcc-508c0b9b1e58;["container_1_Consume_and_count_1"];3.25;1533339658.207;228.07;1960.83;696.241732678;10;151
60;paravance-29.rennes.grid5000.fr;thermos-root-devel-WordCountTopology-0-636a7a84-4a96-4d42-bc0e-af63d661566d;["topology_master"];3.25;1533339658.13552;6.56;13.98;0.2127446;9;117
