mesure_id;slave_id;executor_id;heron_instances;cpus_limit;timestamp_A;cpus_system_time_secs_A;cpus_user_time_secs_A;cpus_throttled_time_secs_A;word_size;throttle;run_id
0;graphene-76.nancy.grid5000.fr;thermos-root-devel-WordCountTopology-1-d4c6dbe0-486f-4e81-ac41-0b8f20ba342a;["container_1_Consume_and_count_1"];3.25;1532615857.50314;18.11;65.95;0.075800301;1500;0;1
0;graphene-99.nancy.grid5000.fr;thermos-root-devel-WordCountTopology-2-f2ea35ae-2b7f-471d-93a7-ffde8046deea;["container_2_Emit_random_words_2"];3.25;1532615857.28821;12.45;50.7;0.165779947;1500;0;1
0;graphene-8.nancy.grid5000.fr;thermos-root-devel-WordCountTopology-0-af32ac2e-0bde-483c-90e2-78cc5f685723;["topology_master"];3.25;1532615857.26166;2.06;9.41;0.0;1500;0;1
1;graphene-76.nancy.grid5000.fr;thermos-root-devel-WordCountTopology-1-d4c6dbe0-486f-4e81-ac41-0b8f20ba342a;["container_1_Consume_and_count_1"];3.25;1532615867.75478;21.6;77.91;0.075800301;1500;0;1
1;graphene-99.nancy.grid5000.fr;thermos-root-devel-WordCountTopology-2-f2ea35ae-2b7f-471d-93a7-ffde8046deea;["container_2_Emit_random_words_2"];3.25;1532615867.54866;14.67;58.02;0.165779947;1500;0;1
1;graphene-8.nancy.grid5000.fr;thermos-root-devel-WordCountTopology-0-af32ac2e-0bde-483c-90e2-78cc5f685723;["topology_master"];3.25;1532615867.52421;2.1;9.58;0.0;1500;0;1
2;graphene-99.nancy.grid5000.fr;thermos-root-devel-WordCountTopology-2-f2ea35ae-2b7f-471d-93a7-ffde8046deea;["container_2_Emit_random_words_2"];3.25;1532615877.76509;16.93;65.31;0.165779947;1500;0;1
2;graphene-76.nancy.grid5000.fr;thermos-root-devel-WordCountTopology-1-d4c6dbe0-486f-4e81-ac41-0b8f20ba342a;["container_1_Consume_and_count_1"];3.25;1532615877.9605;25.09;89.41;0.075800301;1500;0;1
2;graphene-8.nancy.grid5000.fr;thermos-root-devel-WordCountTopology-0-af32ac2e-0bde-483c-90e2-78cc5f685723;["topology_master"];3.25;1532615877.74123;2.15;9.64;0.0;1500;0;1
3;graphene-76.nancy.grid5000.fr;thermos-root-devel-WordCountTopology-1-d4c6dbe0-486f-4e81-ac41-0b8f20ba342a;["container_1_Consume_and_count_1"];3.25;1532615888.16615;28.54;101.18;0.075800301;1500;0;1
3;graphene-8.nancy.grid5000.fr;thermos-root-devel-WordCountTopology-0-af32ac2e-0bde-483c-90e2-78cc5f685723;["topology_master"];3.25;1532615887.95648;2.18;9.67;0.0;1500;0;1
3;graphene-99.nancy.grid5000.fr;thermos-root-devel-WordCountTopology-2-f2ea35ae-2b7f-471d-93a7-ffde8046deea;["container_2_Emit_random_words_2"];3.25;1532615887.98338;19.04;71.99;0.165779947;1500;0;1
4;graphene-76.nancy.grid5000.fr;thermos-root-devel-WordCountTopology-1-d4c6dbe0-486f-4e81-ac41-0b8f20ba342a;["container_1_Consume_and_count_1"];3.25;1532615898.37516;32.03;113.02;0.075800301;1500;0;1
4;graphene-99.nancy.grid5000.fr;thermos-root-devel-WordCountTopology-2-f2ea35ae-2b7f-471d-93a7-ffde8046deea;["container_2_Emit_random_words_2"];3.25;1532615898.2002;21.26;79.07;0.165779947;1500;0;1
4;graphene-8.nancy.grid5000.fr;thermos-root-devel-WordCountTopology-0-af32ac2e-0bde-483c-90e2-78cc5f685723;["topology_master"];3.25;1532615898.17634;2.22;9.74;0.0;1500;0;1
5;graphene-76.nancy.grid5000.fr;thermos-root-devel-WordCountTopology-1-d4c6dbe0-486f-4e81-ac41-0b8f20ba342a;["container_1_Consume_and_count_1"];3.25;1532615908.58144;35.46;124.71;0.075800301;1500;0;1
5;graphene-8.nancy.grid5000.fr;thermos-root-devel-WordCountTopology-0-af32ac2e-0bde-483c-90e2-78cc5f685723;["topology_master"];3.25;1532615908.39231;2.26;9.79;0.0;1500;0;1
5;graphene-99.nancy.grid5000.fr;thermos-root-devel-WordCountTopology-2-f2ea35ae-2b7f-471d-93a7-ffde8046deea;["container_2_Emit_random_words_2"];3.25;1532615908.4189;23.48;86.24;0.165779947;1500;0;1
6;graphene-76.nancy.grid5000.fr;thermos-root-devel-WordCountTopology-1-d4c6dbe0-486f-4e81-ac41-0b8f20ba342a;["container_1_Consume_and_count_1"];3.25;1532615918.79104;38.98;136.36;0.075800301;1500;0;1
6;graphene-8.nancy.grid5000.fr;thermos-root-devel-WordCountTopology-0-af32ac2e-0bde-483c-90e2-78cc5f685723;["topology_master"];3.25;1532615918.61151;2.32;9.86;0.0;1500;0;1
6;graphene-99.nancy.grid5000.fr;thermos-root-devel-WordCountTopology-2-f2ea35ae-2b7f-471d-93a7-ffde8046deea;["container_2_Emit_random_words_2"];3.25;1532615918.63799;25.66;93.01;0.165779947;1500;0;1
7;graphene-76.nancy.grid5000.fr;thermos-root-devel-WordCountTopology-1-d4c6dbe0-486f-4e81-ac41-0b8f20ba342a;["container_1_Consume_and_count_1"];3.25;1532615928.99942;42.42;147.91;0.075800301;1500;0;1
7;graphene-99.nancy.grid5000.fr;thermos-root-devel-WordCountTopology-2-f2ea35ae-2b7f-471d-93a7-ffde8046deea;["container_2_Emit_random_words_2"];3.25;1532615928.85479;27.87;100.04;0.165779947;1500;0;1
7;graphene-8.nancy.grid5000.fr;thermos-root-devel-WordCountTopology-0-af32ac2e-0bde-483c-90e2-78cc5f685723;["topology_master"];3.25;1532615928.83096;2.35;9.96;0.0;1500;0;1
8;graphene-76.nancy.grid5000.fr;thermos-root-devel-WordCountTopology-1-d4c6dbe0-486f-4e81-ac41-0b8f20ba342a;["container_1_Consume_and_count_1"];3.25;1532615939.20556;45.91;159.51;0.075800301;1500;0;1
8;graphene-8.nancy.grid5000.fr;thermos-root-devel-WordCountTopology-0-af32ac2e-0bde-483c-90e2-78cc5f685723;["topology_master"];3.25;1532615939.04741;2.4;10.01;0.0;1500;0;1
8;graphene-99.nancy.grid5000.fr;thermos-root-devel-WordCountTopology-2-f2ea35ae-2b7f-471d-93a7-ffde8046deea;["container_2_Emit_random_words_2"];3.25;1532615939.07222;30.15;107.25;0.165779947;1500;0;1
9;graphene-76.nancy.grid5000.fr;thermos-root-devel-WordCountTopology-1-d4c6dbe0-486f-4e81-ac41-0b8f20ba342a;["container_1_Consume_and_count_1"];3.25;1532615949.41437;49.41;170.93;0.075800301;1500;0;1
9;graphene-8.nancy.grid5000.fr;thermos-root-devel-WordCountTopology-0-af32ac2e-0bde-483c-90e2-78cc5f685723;["topology_master"];3.25;1532615949.26503;2.42;10.04;0.0;1500;0;1
9;graphene-99.nancy.grid5000.fr;thermos-root-devel-WordCountTopology-2-f2ea35ae-2b7f-471d-93a7-ffde8046deea;["container_2_Emit_random_words_2"];3.25;1532615949.29068;32.38;114.24;0.165779947;1500;0;1
10;graphene-76.nancy.grid5000.fr;thermos-root-devel-WordCountTopology-1-d4c6dbe0-486f-4e81-ac41-0b8f20ba342a;["container_1_Consume_and_count_1"];3.25;1532615959.62227;52.94;182.24;0.075800301;1500;0;1
10;graphene-8.nancy.grid5000.fr;thermos-root-devel-WordCountTopology-0-af32ac2e-0bde-483c-90e2-78cc5f685723;["topology_master"];3.25;1532615959.48511;2.47;10.1;0.0;1500;0;1
10;graphene-99.nancy.grid5000.fr;thermos-root-devel-WordCountTopology-2-f2ea35ae-2b7f-471d-93a7-ffde8046deea;["container_2_Emit_random_words_2"];3.25;1532615959.51096;34.53;120.92;0.165779947;1500;0;1
11;graphene-76.nancy.grid5000.fr;thermos-root-devel-WordCountTopology-1-d4c6dbe0-486f-4e81-ac41-0b8f20ba342a;["container_1_Consume_and_count_1"];3.25;1532615969.83188;56.44;193.85;0.075800301;1500;0;1
11;graphene-99.nancy.grid5000.fr;thermos-root-devel-WordCountTopology-2-f2ea35ae-2b7f-471d-93a7-ffde8046deea;["container_2_Emit_random_words_2"];3.25;1532615969.62821;36.76;127.86;0.165779947;1500;0;1
11;graphene-8.nancy.grid5000.fr;thermos-root-devel-WordCountTopology-0-af32ac2e-0bde-483c-90e2-78cc5f685723;["topology_master"];3.25;1532615969.60426;2.51;10.14;0.0;1500;0;1
12;graphene-76.nancy.grid5000.fr;thermos-root-devel-WordCountTopology-1-d4c6dbe0-486f-4e81-ac41-0b8f20ba342a;["container_1_Consume_and_count_1"];3.25;1532615979.93869;59.91;205.28;0.075800301;1500;0;1
12;graphene-8.nancy.grid5000.fr;thermos-root-devel-WordCountTopology-0-af32ac2e-0bde-483c-90e2-78cc5f685723;["topology_master"];3.25;1532615979.82158;2.57;10.22;0.0;1500;0;1
12;graphene-99.nancy.grid5000.fr;thermos-root-devel-WordCountTopology-2-f2ea35ae-2b7f-471d-93a7-ffde8046deea;["container_2_Emit_random_words_2"];3.25;1532615979.84546;39.05;135.17;0.165779947;1500;0;1
13;graphene-99.nancy.grid5000.fr;thermos-root-devel-WordCountTopology-2-f2ea35ae-2b7f-471d-93a7-ffde8046deea;["container_2_Emit_random_words_2"];3.25;1532615989.96689;41.21;142.02;0.165779947;1500;0;1
13;graphene-76.nancy.grid5000.fr;thermos-root-devel-WordCountTopology-1-d4c6dbe0-486f-4e81-ac41-0b8f20ba342a;["container_1_Consume_and_count_1"];3.25;1532615990.14914;63.4;216.77;0.075800301;1500;0;1
13;graphene-8.nancy.grid5000.fr;thermos-root-devel-WordCountTopology-0-af32ac2e-0bde-483c-90e2-78cc5f685723;["topology_master"];3.25;1532615990.0408;2.61;10.34;0.0;1500;0;1
14;graphene-76.nancy.grid5000.fr;thermos-root-devel-WordCountTopology-1-d4c6dbe0-486f-4e81-ac41-0b8f20ba342a;["container_1_Consume_and_count_1"];3.25;1532616000.35572;66.88;228.34;0.075800301;1500;0;1
14;graphene-8.nancy.grid5000.fr;thermos-root-devel-WordCountTopology-0-af32ac2e-0bde-483c-90e2-78cc5f685723;["topology_master"];3.25;1532616000.25738;2.65;10.4;0.0;1500;0;1
14;graphene-99.nancy.grid5000.fr;thermos-root-devel-WordCountTopology-2-f2ea35ae-2b7f-471d-93a7-ffde8046deea;["container_2_Emit_random_words_2"];3.25;1532616000.28149;43.46;149.05;0.165779947;1500;0;1
15;graphene-76.nancy.grid5000.fr;thermos-root-devel-WordCountTopology-1-d4c6dbe0-486f-4e81-ac41-0b8f20ba342a;["container_1_Consume_and_count_1"];3.25;1532616010.56106;70.34;239.7;0.075800301;1500;0;1
15;graphene-8.nancy.grid5000.fr;thermos-root-devel-WordCountTopology-0-af32ac2e-0bde-483c-90e2-78cc5f685723;["topology_master"];3.25;1532616010.47414;2.68;10.43;0.0;1500;0;1
15;graphene-99.nancy.grid5000.fr;thermos-root-devel-WordCountTopology-2-f2ea35ae-2b7f-471d-93a7-ffde8046deea;["container_2_Emit_random_words_2"];3.25;1532616010.49872;45.71;156.2;0.165779947;1500;0;1
16;graphene-8.nancy.grid5000.fr;thermos-root-devel-WordCountTopology-0-af32ac2e-0bde-483c-90e2-78cc5f685723;["topology_master"];3.25;1532616020.59573;2.72;10.5;0.0;1500;0;1
16;graphene-76.nancy.grid5000.fr;thermos-root-devel-WordCountTopology-1-d4c6dbe0-486f-4e81-ac41-0b8f20ba342a;["container_1_Consume_and_count_1"];3.25;1532616020.77314;73.82;251.47;0.075800301;1500;0;1
16;graphene-99.nancy.grid5000.fr;thermos-root-devel-WordCountTopology-2-f2ea35ae-2b7f-471d-93a7-ffde8046deea;["container_2_Emit_random_words_2"];3.25;1532616020.72155;47.92;163.11;0.165779947;1500;0;1
17;graphene-76.nancy.grid5000.fr;thermos-root-devel-WordCountTopology-1-d4c6dbe0-486f-4e81-ac41-0b8f20ba342a;["container_1_Consume_and_count_1"];3.25;1532616030.98394;77.29;263.15;0.075800301;1500;0;1
17;graphene-8.nancy.grid5000.fr;thermos-root-devel-WordCountTopology-0-af32ac2e-0bde-483c-90e2-78cc5f685723;["topology_master"];3.25;1532616030.91678;2.75;10.54;0.0;1500;0;1
17;graphene-99.nancy.grid5000.fr;thermos-root-devel-WordCountTopology-2-f2ea35ae-2b7f-471d-93a7-ffde8046deea;["container_2_Emit_random_words_2"];3.25;1532616030.94231;50.1;169.91;0.165779947;1500;0;1
18;graphene-76.nancy.grid5000.fr;thermos-root-devel-WordCountTopology-1-d4c6dbe0-486f-4e81-ac41-0b8f20ba342a;["container_1_Consume_and_count_1"];3.25;1532616041.19046;80.74;274.96;0.075800301;1500;0;1
18;graphene-8.nancy.grid5000.fr;thermos-root-devel-WordCountTopology-0-af32ac2e-0bde-483c-90e2-78cc5f685723;["topology_master"];3.25;1532616041.13423;2.8;10.6;0.0;1500;0;1
18;graphene-99.nancy.grid5000.fr;thermos-root-devel-WordCountTopology-2-f2ea35ae-2b7f-471d-93a7-ffde8046deea;["container_2_Emit_random_words_2"];3.25;1532616041.159;52.35;177.1;0.165779947;1500;0;1
19;graphene-8.nancy.grid5000.fr;thermos-root-devel-WordCountTopology-0-af32ac2e-0bde-483c-90e2-78cc5f685723;["topology_master"];3.25;1532616051.25276;2.84;10.71;0.0;1500;0;1
19;graphene-76.nancy.grid5000.fr;thermos-root-devel-WordCountTopology-1-d4c6dbe0-486f-4e81-ac41-0b8f20ba342a;["container_1_Consume_and_count_1"];3.25;1532616051.39902;84.18;286.97;0.075800301;1500;0;1
19;graphene-99.nancy.grid5000.fr;thermos-root-devel-WordCountTopology-2-f2ea35ae-2b7f-471d-93a7-ffde8046deea;["container_2_Emit_random_words_2"];3.25;1532616051.37745;54.54;184.21;0.165779947;1500;0;1
20;graphene-76.nancy.grid5000.fr;thermos-root-devel-WordCountTopology-1-d4c6dbe0-486f-4e81-ac41-0b8f20ba342a;["container_1_Consume_and_count_1"];3.25;1532616061.60636;87.55;299.72;0.075800301;1500;0;1
20;graphene-8.nancy.grid5000.fr;thermos-root-devel-WordCountTopology-0-af32ac2e-0bde-483c-90e2-78cc5f685723;["topology_master"];3.25;1532616061.57038;2.88;10.76;0.0;1500;0;1
20;graphene-99.nancy.grid5000.fr;thermos-root-devel-WordCountTopology-2-f2ea35ae-2b7f-471d-93a7-ffde8046deea;["container_2_Emit_random_words_2"];3.25;1532616061.59751;56.67;190.92;0.165779947;1500;0;1
21;graphene-76.nancy.grid5000.fr;thermos-root-devel-WordCountTopology-1-d4c6dbe0-486f-4e81-ac41-0b8f20ba342a;["container_1_Consume_and_count_1"];3.25;1532616071.81542;90.79;313.4;0.075800301;1500;0;1
21;graphene-8.nancy.grid5000.fr;thermos-root-devel-WordCountTopology-0-af32ac2e-0bde-483c-90e2-78cc5f685723;["topology_master"];3.25;1532616071.78909;2.91;10.8;0.0;1500;0;1
21;graphene-99.nancy.grid5000.fr;thermos-root-devel-WordCountTopology-2-f2ea35ae-2b7f-471d-93a7-ffde8046deea;["container_2_Emit_random_words_2"];3.25;1532616071.81392;58.96;198.15;0.165779947;1500;0;1
22;graphene-76.nancy.grid5000.fr;thermos-root-devel-WordCountTopology-1-d4c6dbe0-486f-4e81-ac41-0b8f20ba342a;["container_1_Consume_and_count_1"];3.25;1532616081.92344;93.95;327.4;0.075800301;1500;0;1
22;graphene-8.nancy.grid5000.fr;thermos-root-devel-WordCountTopology-0-af32ac2e-0bde-483c-90e2-78cc5f685723;["topology_master"];3.25;1532616082.00749;2.95;10.85;0.0;1500;0;1
22;graphene-99.nancy.grid5000.fr;thermos-root-devel-WordCountTopology-2-f2ea35ae-2b7f-471d-93a7-ffde8046deea;["container_2_Emit_random_words_2"];3.25;1532616082.03421;61.2;205.21;0.165779947;1500;0;1
23;graphene-76.nancy.grid5000.fr;thermos-root-devel-WordCountTopology-1-d4c6dbe0-486f-4e81-ac41-0b8f20ba342a;["container_1_Consume_and_count_1"];3.25;1532616092.23524;97.08;342.5;0.075800301;1500;0;1
23;graphene-99.nancy.grid5000.fr;thermos-root-devel-WordCountTopology-2-f2ea35ae-2b7f-471d-93a7-ffde8046deea;["container_2_Emit_random_words_2"];3.25;1532616092.25321;63.36;211.97;0.165779947;1500;0;1
23;graphene-8.nancy.grid5000.fr;thermos-root-devel-WordCountTopology-0-af32ac2e-0bde-483c-90e2-78cc5f685723;["topology_master"];3.25;1532616092.23019;2.99;10.89;0.0;1500;0;1
24;graphene-76.nancy.grid5000.fr;thermos-root-devel-WordCountTopology-1-d4c6dbe0-486f-4e81-ac41-0b8f20ba342a;["container_1_Consume_and_count_1"];3.25;1532616102.4423;100.2;357.46;0.075800301;1500;0;1
24;graphene-99.nancy.grid5000.fr;thermos-root-devel-WordCountTopology-2-f2ea35ae-2b7f-471d-93a7-ffde8046deea;["container_2_Emit_random_words_2"];3.25;1532616102.47122;65.66;219.34;0.165779947;1500;0;1
24;graphene-8.nancy.grid5000.fr;thermos-root-devel-WordCountTopology-0-af32ac2e-0bde-483c-90e2-78cc5f685723;["topology_master"];3.25;1532616102.44672;3.04;10.95;0.0;1500;0;1
25;graphene-76.nancy.grid5000.fr;thermos-root-devel-WordCountTopology-1-d4c6dbe0-486f-4e81-ac41-0b8f20ba342a;["container_1_Consume_and_count_1"];3.25;1532616112.65055;103.34;372.72;0.075800301;1500;0;1
25;graphene-8.nancy.grid5000.fr;thermos-root-devel-WordCountTopology-0-af32ac2e-0bde-483c-90e2-78cc5f685723;["topology_master"];3.25;1532616112.66533;3.07;11.08;0.0;1500;0;1
25;graphene-99.nancy.grid5000.fr;thermos-root-devel-WordCountTopology-2-f2ea35ae-2b7f-471d-93a7-ffde8046deea;["container_2_Emit_random_words_2"];3.25;1532616112.69214;67.84;226.33;0.165779947;1500;0;1
26;graphene-76.nancy.grid5000.fr;thermos-root-devel-WordCountTopology-1-d4c6dbe0-486f-4e81-ac41-0b8f20ba342a;["container_1_Consume_and_count_1"];3.25;1532616122.8611;106.46;387.9;0.075800301;1500;0;1
26;graphene-99.nancy.grid5000.fr;thermos-root-devel-WordCountTopology-2-f2ea35ae-2b7f-471d-93a7-ffde8046deea;["container_2_Emit_random_words_2"];3.25;1532616122.91079;70.05;233.16;0.165779947;1500;0;1
26;graphene-8.nancy.grid5000.fr;thermos-root-devel-WordCountTopology-0-af32ac2e-0bde-483c-90e2-78cc5f685723;["topology_master"];3.25;1532616122.88687;3.12;11.13;0.0;1500;0;1
27;graphene-76.nancy.grid5000.fr;thermos-root-devel-WordCountTopology-1-d4c6dbe0-486f-4e81-ac41-0b8f20ba342a;["container_1_Consume_and_count_1"];3.25;1532616133.0693;109.5;403.46;0.075800301;1500;0;1
27;graphene-8.nancy.grid5000.fr;thermos-root-devel-WordCountTopology-0-af32ac2e-0bde-483c-90e2-78cc5f685723;["topology_master"];3.25;1532616133.10342;3.14;11.17;0.0;1500;0;1
27;graphene-99.nancy.grid5000.fr;thermos-root-devel-WordCountTopology-2-f2ea35ae-2b7f-471d-93a7-ffde8046deea;["container_2_Emit_random_words_2"];3.25;1532616133.12732;72.32;240.32;0.165779947;1500;0;1
28;graphene-76.nancy.grid5000.fr;thermos-root-devel-WordCountTopology-1-d4c6dbe0-486f-4e81-ac41-0b8f20ba342a;["container_1_Consume_and_count_1"];3.25;1532616143.28245;112.56;418.71;0.075800301;1500;0;1
28;graphene-8.nancy.grid5000.fr;thermos-root-devel-WordCountTopology-0-af32ac2e-0bde-483c-90e2-78cc5f685723;["topology_master"];3.25;1532616143.32193;3.18;11.22;0.0;1500;0;1
28;graphene-99.nancy.grid5000.fr;thermos-root-devel-WordCountTopology-2-f2ea35ae-2b7f-471d-93a7-ffde8046deea;["container_2_Emit_random_words_2"];3.25;1532616143.34661;74.57;247.44;0.165779947;1500;0;1
29;graphene-76.nancy.grid5000.fr;thermos-root-devel-WordCountTopology-1-d4c6dbe0-486f-4e81-ac41-0b8f20ba342a;["container_1_Consume_and_count_1"];3.25;1532616153.49729;115.67;434.07;0.075800301;1500;0;1
29;graphene-99.nancy.grid5000.fr;thermos-root-devel-WordCountTopology-2-f2ea35ae-2b7f-471d-93a7-ffde8046deea;["container_2_Emit_random_words_2"];3.25;1532616153.56501;76.73;254.16;0.165779947;1500;0;1
29;graphene-8.nancy.grid5000.fr;thermos-root-devel-WordCountTopology-0-af32ac2e-0bde-483c-90e2-78cc5f685723;["topology_master"];3.25;1532616153.54149;3.21;11.25;0.0;1500;0;1
30;graphene-76.nancy.grid5000.fr;thermos-root-devel-WordCountTopology-1-d4c6dbe0-486f-4e81-ac41-0b8f20ba342a;["container_1_Consume_and_count_1"];3.25;1532616163.70923;118.79;449.43;0.075800301;1500;0;1
30;graphene-99.nancy.grid5000.fr;thermos-root-devel-WordCountTopology-2-f2ea35ae-2b7f-471d-93a7-ffde8046deea;["container_2_Emit_random_words_2"];3.25;1532616163.78175;79.02;261.37;0.165779947;1500;0;1
30;graphene-8.nancy.grid5000.fr;thermos-root-devel-WordCountTopology-0-af32ac2e-0bde-483c-90e2-78cc5f685723;["topology_master"];3.25;1532616163.75819;3.26;11.32;0.0;1500;0;1
31;graphene-76.nancy.grid5000.fr;thermos-root-devel-WordCountTopology-1-d4c6dbe0-486f-4e81-ac41-0b8f20ba342a;["container_1_Consume_and_count_1"];3.25;1532616173.92133;121.88;464.63;0.075800301;1500;0;1
31;graphene-8.nancy.grid5000.fr;thermos-root-devel-WordCountTopology-0-af32ac2e-0bde-483c-90e2-78cc5f685723;["topology_master"];3.25;1532616173.97477;3.28;11.43;0.0;1500;0;1
31;graphene-99.nancy.grid5000.fr;thermos-root-devel-WordCountTopology-2-f2ea35ae-2b7f-471d-93a7-ffde8046deea;["container_2_Emit_random_words_2"];3.25;1532616174.00104;81.26;268.51;0.165779947;1500;0;1
32;graphene-8.nancy.grid5000.fr;thermos-root-devel-WordCountTopology-0-af32ac2e-0bde-483c-90e2-78cc5f685723;["topology_master"];3.25;1532616184.19657;3.33;11.48;0.0;1500;0;1
32;graphene-76.nancy.grid5000.fr;thermos-root-devel-WordCountTopology-1-d4c6dbe0-486f-4e81-ac41-0b8f20ba342a;["container_1_Consume_and_count_1"];3.25;1532616184.13734;125.0;480.02;0.075800301;1500;0;1
32;graphene-99.nancy.grid5000.fr;thermos-root-devel-WordCountTopology-2-f2ea35ae-2b7f-471d-93a7-ffde8046deea;["container_2_Emit_random_words_2"];3.25;1532616184.22034;83.43;275.31;0.165779947;1500;0;1
33;graphene-76.nancy.grid5000.fr;thermos-root-devel-WordCountTopology-1-d4c6dbe0-486f-4e81-ac41-0b8f20ba342a;["container_1_Consume_and_count_1"];3.25;1532616194.34777;128.07;495.64;0.075800301;1500;0;1
33;graphene-8.nancy.grid5000.fr;thermos-root-devel-WordCountTopology-0-af32ac2e-0bde-483c-90e2-78cc5f685723;["topology_master"];3.25;1532616194.40956;3.36;11.53;0.0;1500;0;1
33;graphene-99.nancy.grid5000.fr;thermos-root-devel-WordCountTopology-2-f2ea35ae-2b7f-471d-93a7-ffde8046deea;["container_2_Emit_random_words_2"];3.25;1532616194.43923;85.7;282.55;0.165779947;1500;0;1
34;graphene-76.nancy.grid5000.fr;thermos-root-devel-WordCountTopology-1-d4c6dbe0-486f-4e81-ac41-0b8f20ba342a;["container_1_Consume_and_count_1"];3.25;1532616204.46456;131.12;510.8;0.075800301;1500;0;1
34;graphene-8.nancy.grid5000.fr;thermos-root-devel-WordCountTopology-0-af32ac2e-0bde-483c-90e2-78cc5f685723;["topology_master"];3.25;1532616204.63445;3.39;11.57;0.0;1500;0;1
34;graphene-99.nancy.grid5000.fr;thermos-root-devel-WordCountTopology-2-f2ea35ae-2b7f-471d-93a7-ffde8046deea;["container_2_Emit_random_words_2"];3.25;1532616204.66019;87.92;289.54;0.165779947;1500;0;1
35;graphene-8.nancy.grid5000.fr;thermos-root-devel-WordCountTopology-0-af32ac2e-0bde-483c-90e2-78cc5f685723;["topology_master"];3.25;1532616214.75286;3.44;11.63;0.0;1500;0;1
35;graphene-76.nancy.grid5000.fr;thermos-root-devel-WordCountTopology-1-d4c6dbe0-486f-4e81-ac41-0b8f20ba342a;["container_1_Consume_and_count_1"];3.25;1532616214.77885;134.29;526.27;0.075800301;1500;0;1
35;graphene-99.nancy.grid5000.fr;thermos-root-devel-WordCountTopology-2-f2ea35ae-2b7f-471d-93a7-ffde8046deea;["container_2_Emit_random_words_2"];3.25;1532616214.8777;90.12;296.33;0.165779947;1500;0;1
36;graphene-76.nancy.grid5000.fr;thermos-root-devel-WordCountTopology-1-d4c6dbe0-486f-4e81-ac41-0b8f20ba342a;["container_1_Consume_and_count_1"];3.25;1532616224.98939;137.33;541.84;0.075800301;1500;0;1
36;graphene-8.nancy.grid5000.fr;thermos-root-devel-WordCountTopology-0-af32ac2e-0bde-483c-90e2-78cc5f685723;["topology_master"];3.25;1532616225.06869;3.48;11.71;0.0;1500;0;1
36;graphene-99.nancy.grid5000.fr;thermos-root-devel-WordCountTopology-2-f2ea35ae-2b7f-471d-93a7-ffde8046deea;["container_2_Emit_random_words_2"];3.25;1532616225.09341;92.41;303.62;0.165779947;1500;0;1
37;graphene-76.nancy.grid5000.fr;thermos-root-devel-WordCountTopology-1-d4c6dbe0-486f-4e81-ac41-0b8f20ba342a;["container_1_Consume_and_count_1"];3.25;1532616235.2035;140.49;557.08;0.075800301;1500;0;1
37;graphene-8.nancy.grid5000.fr;thermos-root-devel-WordCountTopology-0-af32ac2e-0bde-483c-90e2-78cc5f685723;["topology_master"];3.25;1532616235.28748;3.52;11.75;0.0;1500;0;1
37;graphene-99.nancy.grid5000.fr;thermos-root-devel-WordCountTopology-2-f2ea35ae-2b7f-471d-93a7-ffde8046deea;["container_2_Emit_random_words_2"];3.25;1532616235.31178;94.62;310.64;0.165779947;1500;0;1
38;graphene-76.nancy.grid5000.fr;thermos-root-devel-WordCountTopology-1-d4c6dbe0-486f-4e81-ac41-0b8f20ba342a;["container_1_Consume_and_count_1"];3.25;1532616245.41758;143.62;572.56;0.075800301;1500;0;1
38;graphene-8.nancy.grid5000.fr;thermos-root-devel-WordCountTopology-0-af32ac2e-0bde-483c-90e2-78cc5f685723;["topology_master"];3.25;1532616245.50733;3.56;11.8;0.0;1500;0;1
38;graphene-99.nancy.grid5000.fr;thermos-root-devel-WordCountTopology-2-f2ea35ae-2b7f-471d-93a7-ffde8046deea;["container_2_Emit_random_words_2"];3.25;1532616245.53053;96.78;317.13;0.165779947;1500;0;1
39;graphene-76.nancy.grid5000.fr;thermos-root-devel-WordCountTopology-1-d4c6dbe0-486f-4e81-ac41-0b8f20ba342a;["container_1_Consume_and_count_1"];3.25;1532616255.63075;146.66;588.11;0.075800301;1500;0;1
39;graphene-99.nancy.grid5000.fr;thermos-root-devel-WordCountTopology-2-f2ea35ae-2b7f-471d-93a7-ffde8046deea;["container_2_Emit_random_words_2"];3.25;1532616255.74887;99.09;323.94;0.165779947;1500;0;1
39;graphene-8.nancy.grid5000.fr;thermos-root-devel-WordCountTopology-0-af32ac2e-0bde-483c-90e2-78cc5f685723;["topology_master"];3.25;1532616255.72503;3.6;11.85;0.0;1500;0;1
40;graphene-76.nancy.grid5000.fr;thermos-root-devel-WordCountTopology-1-d4c6dbe0-486f-4e81-ac41-0b8f20ba342a;["container_1_Consume_and_count_1"];3.25;1532616265.84166;149.77;603.26;0.075800301;1500;0;1
40;graphene-8.nancy.grid5000.fr;thermos-root-devel-WordCountTopology-0-af32ac2e-0bde-483c-90e2-78cc5f685723;["topology_master"];3.25;1532616265.94164;3.63;11.88;0.0;1500;0;1
40;graphene-99.nancy.grid5000.fr;thermos-root-devel-WordCountTopology-2-f2ea35ae-2b7f-471d-93a7-ffde8046deea;["container_2_Emit_random_words_2"];3.25;1532616265.96796;101.29;330.35;0.165779947;1500;0;1
41;graphene-76.nancy.grid5000.fr;thermos-root-devel-WordCountTopology-1-d4c6dbe0-486f-4e81-ac41-0b8f20ba342a;["container_1_Consume_and_count_1"];3.25;1532616276.079;152.83;618.8;0.075800301;1500;0;1
41;graphene-99.nancy.grid5000.fr;thermos-root-devel-WordCountTopology-2-f2ea35ae-2b7f-471d-93a7-ffde8046deea;["container_2_Emit_random_words_2"];3.25;1532616276.20487;103.5;336.78;0.165779947;1500;0;1
41;graphene-8.nancy.grid5000.fr;thermos-root-devel-WordCountTopology-0-af32ac2e-0bde-483c-90e2-78cc5f685723;["topology_master"];3.25;1532616276.18393;3.69;11.95;0.0;1500;0;1
42;graphene-76.nancy.grid5000.fr;thermos-root-devel-WordCountTopology-1-d4c6dbe0-486f-4e81-ac41-0b8f20ba342a;["container_1_Consume_and_count_1"];3.25;1532616286.29075;155.91;634.24;0.075800301;1500;0;1
42;graphene-8.nancy.grid5000.fr;thermos-root-devel-WordCountTopology-0-af32ac2e-0bde-483c-90e2-78cc5f685723;["topology_master"];3.25;1532616286.40108;3.72;12.07;0.0;1500;0;1
42;graphene-99.nancy.grid5000.fr;thermos-root-devel-WordCountTopology-2-f2ea35ae-2b7f-471d-93a7-ffde8046deea;["container_2_Emit_random_words_2"];3.25;1532616286.41634;105.81;343.64;0.165779947;1500;0;1
43;graphene-76.nancy.grid5000.fr;thermos-root-devel-WordCountTopology-1-d4c6dbe0-486f-4e81-ac41-0b8f20ba342a;["container_1_Consume_and_count_1"];3.25;1532616296.50521;159.02;649.46;0.075800301;1500;0;1
43;graphene-8.nancy.grid5000.fr;thermos-root-devel-WordCountTopology-0-af32ac2e-0bde-483c-90e2-78cc5f685723;["topology_master"];3.25;1532616296.62067;3.75;12.11;0.0;1500;0;1
43;graphene-99.nancy.grid5000.fr;thermos-root-devel-WordCountTopology-2-f2ea35ae-2b7f-471d-93a7-ffde8046deea;["container_2_Emit_random_words_2"];3.25;1532616296.6318;107.97;349.89;0.165779947;1500;0;1
44;graphene-76.nancy.grid5000.fr;thermos-root-devel-WordCountTopology-1-d4c6dbe0-486f-4e81-ac41-0b8f20ba342a;["container_1_Consume_and_count_1"];3.25;1532616306.71887;162.14;664.96;0.075800301;1500;0;1
44;graphene-99.nancy.grid5000.fr;thermos-root-devel-WordCountTopology-2-f2ea35ae-2b7f-471d-93a7-ffde8046deea;["container_2_Emit_random_words_2"];3.25;1532616306.84297;110.19;356.47;0.165779947;1500;0;1
44;graphene-8.nancy.grid5000.fr;thermos-root-devel-WordCountTopology-0-af32ac2e-0bde-483c-90e2-78cc5f685723;["topology_master"];3.25;1532616306.83856;3.79;12.15;0.0;1500;0;1
45;graphene-76.nancy.grid5000.fr;thermos-root-devel-WordCountTopology-1-d4c6dbe0-486f-4e81-ac41-0b8f20ba342a;["container_1_Consume_and_count_1"];3.25;1532616316.92986;165.27;680.35;0.075800301;1500;0;1
45;graphene-8.nancy.grid5000.fr;thermos-root-devel-WordCountTopology-0-af32ac2e-0bde-483c-90e2-78cc5f685723;["topology_master"];3.25;1532616317.055;3.84;12.21;0.0;1500;0;1
45;graphene-99.nancy.grid5000.fr;thermos-root-devel-WordCountTopology-2-f2ea35ae-2b7f-471d-93a7-ffde8046deea;["container_2_Emit_random_words_2"];3.25;1532616317.05635;112.46;363.13;0.165779947;1500;0;1
46;graphene-76.nancy.grid5000.fr;thermos-root-devel-WordCountTopology-1-d4c6dbe0-486f-4e81-ac41-0b8f20ba342a;["container_1_Consume_and_count_1"];3.25;1532616327.14381;168.42;695.64;0.075800301;1500;0;1
46;graphene-8.nancy.grid5000.fr;thermos-root-devel-WordCountTopology-0-af32ac2e-0bde-483c-90e2-78cc5f685723;["topology_master"];3.25;1532616327.26944;3.86;12.24;0.0;1500;0;1
46;graphene-99.nancy.grid5000.fr;thermos-root-devel-WordCountTopology-2-f2ea35ae-2b7f-471d-93a7-ffde8046deea;["container_2_Emit_random_words_2"];3.25;1532616327.26996;114.58;369.33;0.165779947;1500;0;1
47;graphene-99.nancy.grid5000.fr;thermos-root-devel-WordCountTopology-2-f2ea35ae-2b7f-471d-93a7-ffde8046deea;["container_2_Emit_random_words_2"];3.25;1532616337.38261;116.81;375.97;0.165779947;1500;0;1
47;graphene-76.nancy.grid5000.fr;thermos-root-devel-WordCountTopology-1-d4c6dbe0-486f-4e81-ac41-0b8f20ba342a;["container_1_Consume_and_count_1"];3.25;1532616337.35711;171.49;711.25;0.075800301;1500;0;1
47;graphene-8.nancy.grid5000.fr;thermos-root-devel-WordCountTopology-0-af32ac2e-0bde-483c-90e2-78cc5f685723;["topology_master"];3.25;1532616337.48328;3.9;12.31;0.0;1500;0;1
48;graphene-76.nancy.grid5000.fr;thermos-root-devel-WordCountTopology-1-d4c6dbe0-486f-4e81-ac41-0b8f20ba342a;["container_1_Consume_and_count_1"];3.25;1532616347.57052;174.56;726.62;0.075800301;1500;0;1
48;graphene-8.nancy.grid5000.fr;thermos-root-devel-WordCountTopology-0-af32ac2e-0bde-483c-90e2-78cc5f685723;["topology_master"];3.25;1532616347.69559;3.93;12.38;0.0;1500;0;1
48;graphene-99.nancy.grid5000.fr;thermos-root-devel-WordCountTopology-2-f2ea35ae-2b7f-471d-93a7-ffde8046deea;["container_2_Emit_random_words_2"];3.25;1532616347.69532;119.07;382.57;0.165779947;1500;0;1
49;graphene-76.nancy.grid5000.fr;thermos-root-devel-WordCountTopology-1-d4c6dbe0-486f-4e81-ac41-0b8f20ba342a;["container_1_Consume_and_count_1"];3.25;1532616357.7834;177.73;741.91;0.075800301;1500;0;1
49;graphene-99.nancy.grid5000.fr;thermos-root-devel-WordCountTopology-2-f2ea35ae-2b7f-471d-93a7-ffde8046deea;["container_2_Emit_random_words_2"];3.25;1532616357.90923;121.21;388.91;0.165779947;1500;0;1
49;graphene-8.nancy.grid5000.fr;thermos-root-devel-WordCountTopology-0-af32ac2e-0bde-483c-90e2-78cc5f685723;["topology_master"];3.25;1532616357.90925;3.96;12.41;0.0;1500;0;1
50;graphene-76.nancy.grid5000.fr;thermos-root-devel-WordCountTopology-1-d4c6dbe0-486f-4e81-ac41-0b8f20ba342a;["container_1_Consume_and_count_1"];3.25;1532616367.99554;180.79;757.37;0.075800301;1500;0;1
50;graphene-8.nancy.grid5000.fr;thermos-root-devel-WordCountTopology-0-af32ac2e-0bde-483c-90e2-78cc5f685723;["topology_master"];3.25;1532616368.12127;4.0;12.46;0.0;1500;0;1
50;graphene-99.nancy.grid5000.fr;thermos-root-devel-WordCountTopology-2-f2ea35ae-2b7f-471d-93a7-ffde8046deea;["container_2_Emit_random_words_2"];3.25;1532616368.11996;123.49;395.7;0.165779947;1500;0;1
51;graphene-76.nancy.grid5000.fr;thermos-root-devel-WordCountTopology-1-d4c6dbe0-486f-4e81-ac41-0b8f20ba342a;["container_1_Consume_and_count_1"];3.25;1532616378.20867;184.0;772.57;0.075800301;1500;0;1
51;graphene-8.nancy.grid5000.fr;thermos-root-devel-WordCountTopology-0-af32ac2e-0bde-483c-90e2-78cc5f685723;["topology_master"];3.25;1532616378.33414;4.04;12.51;0.0;1500;0;1
51;graphene-99.nancy.grid5000.fr;thermos-root-devel-WordCountTopology-2-f2ea35ae-2b7f-471d-93a7-ffde8046deea;["container_2_Emit_random_words_2"];3.25;1532616378.33444;125.68;402.09;0.165779947;1500;0;1
52;graphene-76.nancy.grid5000.fr;thermos-root-devel-WordCountTopology-1-d4c6dbe0-486f-4e81-ac41-0b8f20ba342a;["container_1_Consume_and_count_1"];3.25;1532616388.42318;187.08;787.98;0.075800301;1500;0;1
52;graphene-99.nancy.grid5000.fr;thermos-root-devel-WordCountTopology-2-f2ea35ae-2b7f-471d-93a7-ffde8046deea;["container_2_Emit_random_words_2"];3.25;1532616388.54863;127.85;408.41;0.165779947;1500;0;1
52;graphene-8.nancy.grid5000.fr;thermos-root-devel-WordCountTopology-0-af32ac2e-0bde-483c-90e2-78cc5f685723;["topology_master"];3.25;1532616388.54977;4.07;12.54;0.0;1500;0;1
53;graphene-76.nancy.grid5000.fr;thermos-root-devel-WordCountTopology-1-d4c6dbe0-486f-4e81-ac41-0b8f20ba342a;["container_1_Consume_and_count_1"];3.25;1532616398.63656;190.27;803.37;0.075800301;1500;0;1
53;graphene-8.nancy.grid5000.fr;thermos-root-devel-WordCountTopology-0-af32ac2e-0bde-483c-90e2-78cc5f685723;["topology_master"];3.25;1532616398.76188;4.11;12.61;0.0;1500;0;1
53;graphene-99.nancy.grid5000.fr;thermos-root-devel-WordCountTopology-2-f2ea35ae-2b7f-471d-93a7-ffde8046deea;["container_2_Emit_random_words_2"];3.25;1532616398.76116;130.16;415.26;0.165779947;1500;0;1
54;graphene-76.nancy.grid5000.fr;thermos-root-devel-WordCountTopology-1-d4c6dbe0-486f-4e81-ac41-0b8f20ba342a;["container_1_Consume_and_count_1"];3.25;1532616408.84927;193.34;818.68;0.075800301;1500;0;1
54;graphene-8.nancy.grid5000.fr;thermos-root-devel-WordCountTopology-0-af32ac2e-0bde-483c-90e2-78cc5f685723;["topology_master"];3.25;1532616408.97348;4.14;12.7;0.0;1500;0;1
54;graphene-99.nancy.grid5000.fr;thermos-root-devel-WordCountTopology-2-f2ea35ae-2b7f-471d-93a7-ffde8046deea;["container_2_Emit_random_words_2"];3.25;1532616408.97668;132.33;421.6;0.165779947;1500;0;1
55;graphene-99.nancy.grid5000.fr;thermos-root-devel-WordCountTopology-2-f2ea35ae-2b7f-471d-93a7-ffde8046deea;["container_2_Emit_random_words_2"];3.25;1532616419.18901;134.55;428.15;0.165779947;1500;0;1
55;graphene-76.nancy.grid5000.fr;thermos-root-devel-WordCountTopology-1-d4c6dbe0-486f-4e81-ac41-0b8f20ba342a;["container_1_Consume_and_count_1"];3.25;1532616419.06296;196.43;834.17;0.075800301;1500;0;1
55;graphene-8.nancy.grid5000.fr;thermos-root-devel-WordCountTopology-0-af32ac2e-0bde-483c-90e2-78cc5f685723;["topology_master"];3.25;1532616419.18849;4.18;12.75;0.0;1500;0;1
56;graphene-76.nancy.grid5000.fr;thermos-root-devel-WordCountTopology-1-d4c6dbe0-486f-4e81-ac41-0b8f20ba342a;["container_1_Consume_and_count_1"];3.25;1532616429.2749;199.52;849.49;0.075800301;1500;0;1
56;graphene-8.nancy.grid5000.fr;thermos-root-devel-WordCountTopology-0-af32ac2e-0bde-483c-90e2-78cc5f685723;["topology_master"];3.25;1532616429.40003;4.21;12.78;0.0;1500;0;1
56;graphene-99.nancy.grid5000.fr;thermos-root-devel-WordCountTopology-2-f2ea35ae-2b7f-471d-93a7-ffde8046deea;["container_2_Emit_random_words_2"];3.25;1532616429.40167;136.79;434.77;0.165779947;1500;0;1
57;graphene-76.nancy.grid5000.fr;thermos-root-devel-WordCountTopology-1-d4c6dbe0-486f-4e81-ac41-0b8f20ba342a;["container_1_Consume_and_count_1"];3.25;1532616439.49115;202.69;864.85;0.075800301;1500;0;1
57;graphene-8.nancy.grid5000.fr;thermos-root-devel-WordCountTopology-0-af32ac2e-0bde-483c-90e2-78cc5f685723;["topology_master"];3.25;1532616439.61699;4.26;12.84;0.0;1500;0;1
57;graphene-99.nancy.grid5000.fr;thermos-root-devel-WordCountTopology-2-f2ea35ae-2b7f-471d-93a7-ffde8046deea;["container_2_Emit_random_words_2"];3.25;1532616439.61849;138.9;440.97;0.165779947;1500;0;1
58;graphene-76.nancy.grid5000.fr;thermos-root-devel-WordCountTopology-1-d4c6dbe0-486f-4e81-ac41-0b8f20ba342a;["container_1_Consume_and_count_1"];3.25;1532616449.70535;205.78;880.39;0.075800301;1500;0;1
58;graphene-8.nancy.grid5000.fr;thermos-root-devel-WordCountTopology-0-af32ac2e-0bde-483c-90e2-78cc5f685723;["topology_master"];3.25;1532616449.83172;4.29;12.88;0.0;1500;0;1
58;graphene-99.nancy.grid5000.fr;thermos-root-devel-WordCountTopology-2-f2ea35ae-2b7f-471d-93a7-ffde8046deea;["container_2_Emit_random_words_2"];3.25;1532616449.83063;141.2;447.74;0.165779947;1500;0;1
59;graphene-76.nancy.grid5000.fr;thermos-root-devel-WordCountTopology-1-d4c6dbe0-486f-4e81-ac41-0b8f20ba342a;["container_1_Consume_and_count_1"];3.25;1532616459.9197;208.9;895.69;0.075800301;1500;0;1
59;graphene-8.nancy.grid5000.fr;thermos-root-devel-WordCountTopology-0-af32ac2e-0bde-483c-90e2-78cc5f685723;["topology_master"];3.25;1532616460.04563;4.33;12.94;0.0;1500;0;1
59;graphene-99.nancy.grid5000.fr;thermos-root-devel-WordCountTopology-2-f2ea35ae-2b7f-471d-93a7-ffde8046deea;["container_2_Emit_random_words_2"];3.25;1532616460.04707;143.42;454.26;0.165779947;1500;0;1
60;graphene-76.nancy.grid5000.fr;thermos-root-devel-WordCountTopology-1-d4c6dbe0-486f-4e81-ac41-0b8f20ba342a;["container_1_Consume_and_count_1"];3.25;1532616470.13595;211.94;911.1;0.075800301;1500;0;1
60;graphene-99.nancy.grid5000.fr;thermos-root-devel-WordCountTopology-2-f2ea35ae-2b7f-471d-93a7-ffde8046deea;["container_2_Emit_random_words_2"];3.25;1532616470.26148;145.58;460.58;0.165779947;1500;0;1
60;graphene-8.nancy.grid5000.fr;thermos-root-devel-WordCountTopology-0-af32ac2e-0bde-483c-90e2-78cc5f685723;["topology_master"];3.25;1532616470.26228;4.37;13.05;0.0;1500;0;1
