mesure_id;slave_id;executor_id;heron_instances;cpus_limit;timestamp_A;cpus_system_time_secs_A;cpus_user_time_secs_A;cpus_throttled_time_secs_A;processes;threads
0;paravance-8.rennes.grid5000.fr;thermos-root-devel-WordCountTopology-1-adfda23e-e031-4457-8577-794f8ae1b83b;["container_1_Consume_and_count_1"];1.25;1533728046.01243;28.38;101.12;345.848415683;10;151
0;paravance-9.rennes.grid5000.fr;thermos-root-devel-WordCountTopology-0-d2288d97-07f6-4433-b40f-5bec99b3ea11;["topology_master"];1.25;1533728046.01705;2.5;8.41;7.327657131;9;117
0;paravance-7.rennes.grid5000.fr;thermos-root-devel-WordCountTopology-2-82565f14-dd58-4191-8bf0-cf25c422b00f;["container_2_Emit_random_words_2"];1.25;1533728046.01186;21.68;83.02;117.606529828;10;149
1;paravance-9.rennes.grid5000.fr;thermos-root-devel-WordCountTopology-0-d2288d97-07f6-4433-b40f-5bec99b3ea11;["topology_master"];1.25;1533728056.23374;2.57;8.57;7.327657131;9;117
1;paravance-8.rennes.grid5000.fr;thermos-root-devel-WordCountTopology-1-adfda23e-e031-4457-8577-794f8ae1b83b;["container_1_Consume_and_count_1"];1.25;1533728056.23193;30.92;110.38;376.69099386;10;151
1;paravance-7.rennes.grid5000.fr;thermos-root-devel-WordCountTopology-2-82565f14-dd58-4191-8bf0-cf25c422b00f;["container_2_Emit_random_words_2"];1.25;1533728056.22884;23.29;89.09;123.549758398;10;149
2;paravance-9.rennes.grid5000.fr;thermos-root-devel-WordCountTopology-0-d2288d97-07f6-4433-b40f-5bec99b3ea11;["topology_master"];1.25;1533728066.35257;2.66;8.71;7.327657131;9;117
2;paravance-7.rennes.grid5000.fr;thermos-root-devel-WordCountTopology-2-82565f14-dd58-4191-8bf0-cf25c422b00f;["container_2_Emit_random_words_2"];1.25;1533728066.44588;25.02;95.17;129.827255654;10;149
2;paravance-8.rennes.grid5000.fr;thermos-root-devel-WordCountTopology-1-adfda23e-e031-4457-8577-794f8ae1b83b;["container_1_Consume_and_count_1"];1.25;1533728066.45087;33.61;119.54;405.257856137;10;151
3;paravance-7.rennes.grid5000.fr;thermos-root-devel-WordCountTopology-2-82565f14-dd58-4191-8bf0-cf25c422b00f;["container_2_Emit_random_words_2"];1.25;1533728076.56294;26.73;101.45;136.501321969;10;149
3;paravance-9.rennes.grid5000.fr;thermos-root-devel-WordCountTopology-0-d2288d97-07f6-4433-b40f-5bec99b3ea11;["topology_master"];1.25;1533728076.66894;2.68;8.75;7.327657131;9;117
3;paravance-8.rennes.grid5000.fr;thermos-root-devel-WordCountTopology-1-adfda23e-e031-4457-8577-794f8ae1b83b;["container_1_Consume_and_count_1"];1.25;1533728076.66522;36.15;128.78;433.008516589;10;151
4;paravance-8.rennes.grid5000.fr;thermos-root-devel-WordCountTopology-1-adfda23e-e031-4457-8577-794f8ae1b83b;["container_1_Consume_and_count_1"];1.25;1533728086.88209;38.72;137.98;463.821861792;10;151
4;paravance-7.rennes.grid5000.fr;thermos-root-devel-WordCountTopology-2-82565f14-dd58-4191-8bf0-cf25c422b00f;["container_2_Emit_random_words_2"];1.25;1533728086.87873;28.3;107.01;142.401828703;10;149
4;paravance-9.rennes.grid5000.fr;thermos-root-devel-WordCountTopology-0-d2288d97-07f6-4433-b40f-5bec99b3ea11;["topology_master"];1.25;1533728086.88573;2.78;8.88;7.327657131;9;117
5;paravance-8.rennes.grid5000.fr;thermos-root-devel-WordCountTopology-1-adfda23e-e031-4457-8577-794f8ae1b83b;["container_1_Consume_and_count_1"];1.25;1533728097.09664;41.33;147.26;492.004205059;10;151
5;paravance-9.rennes.grid5000.fr;thermos-root-devel-WordCountTopology-0-d2288d97-07f6-4433-b40f-5bec99b3ea11;["topology_master"];1.25;1533728097.10153;2.84;8.96;7.327657131;9;117
5;paravance-7.rennes.grid5000.fr;thermos-root-devel-WordCountTopology-2-82565f14-dd58-4191-8bf0-cf25c422b00f;["container_2_Emit_random_words_2"];1.25;1533728097.09501;29.99;113.32;149.356809206;10;149
6;paravance-7.rennes.grid5000.fr;thermos-root-devel-WordCountTopology-2-82565f14-dd58-4191-8bf0-cf25c422b00f;["container_2_Emit_random_words_2"];1.25;1533728107.31071;31.76;119.69;155.785605605;10;149
6;paravance-8.rennes.grid5000.fr;thermos-root-devel-WordCountTopology-1-adfda23e-e031-4457-8577-794f8ae1b83b;["container_1_Consume_and_count_1"];1.25;1533728107.31532;44.01;156.32;520.752205204;10;151
6;paravance-9.rennes.grid5000.fr;thermos-root-devel-WordCountTopology-0-d2288d97-07f6-4433-b40f-5bec99b3ea11;["topology_master"];1.25;1533728107.31751;2.92;9.08;7.327657131;9;117
7;paravance-7.rennes.grid5000.fr;thermos-root-devel-WordCountTopology-2-82565f14-dd58-4191-8bf0-cf25c422b00f;["container_2_Emit_random_words_2"];1.25;1533728117.52792;33.43;125.81;162.504933213;10;149
7;paravance-9.rennes.grid5000.fr;thermos-root-devel-WordCountTopology-0-d2288d97-07f6-4433-b40f-5bec99b3ea11;["topology_master"];1.25;1533728117.53465;2.99;9.22;7.327657131;9;117
7;paravance-8.rennes.grid5000.fr;thermos-root-devel-WordCountTopology-1-adfda23e-e031-4457-8577-794f8ae1b83b;["container_1_Consume_and_count_1"];1.25;1533728117.53232;46.59;165.5;550.223869229;10;151
8;paravance-7.rennes.grid5000.fr;thermos-root-devel-WordCountTopology-2-82565f14-dd58-4191-8bf0-cf25c422b00f;["container_2_Emit_random_words_2"];1.25;1533728127.64671;35.14;131.99;169.323514021;10;149
8;paravance-8.rennes.grid5000.fr;thermos-root-devel-WordCountTopology-1-adfda23e-e031-4457-8577-794f8ae1b83b;["container_1_Consume_and_count_1"];1.25;1533728127.75055;49.25;174.64;577.143848111;10;151
8;paravance-9.rennes.grid5000.fr;thermos-root-devel-WordCountTopology-0-d2288d97-07f6-4433-b40f-5bec99b3ea11;["topology_master"];1.25;1533728127.75364;3.08;9.36;7.331716001;9;117
9;paravance-9.rennes.grid5000.fr;thermos-root-devel-WordCountTopology-0-d2288d97-07f6-4433-b40f-5bec99b3ea11;["topology_master"];1.25;1533728137.97002;3.14;9.44;7.331716001;9;117
9;paravance-8.rennes.grid5000.fr;thermos-root-devel-WordCountTopology-1-adfda23e-e031-4457-8577-794f8ae1b83b;["container_1_Consume_and_count_1"];1.25;1533728137.96746;51.89;183.71;604.510535811;10;151
9;paravance-7.rennes.grid5000.fr;thermos-root-devel-WordCountTopology-2-82565f14-dd58-4191-8bf0-cf25c422b00f;["container_2_Emit_random_words_2"];1.25;1533728137.96495;36.82;138.18;175.019466016;10;149
10;paravance-8.rennes.grid5000.fr;thermos-root-devel-WordCountTopology-1-adfda23e-e031-4457-8577-794f8ae1b83b;["container_1_Consume_and_count_1"];1.25;1533728148.18395;54.5;192.91;633.335143948;10;151
10;paravance-7.rennes.grid5000.fr;thermos-root-devel-WordCountTopology-2-82565f14-dd58-4191-8bf0-cf25c422b00f;["container_2_Emit_random_words_2"];1.25;1533728148.18011;38.57;144.58;181.232207474;10;149
10;paravance-9.rennes.grid5000.fr;thermos-root-devel-WordCountTopology-0-d2288d97-07f6-4433-b40f-5bec99b3ea11;["topology_master"];1.25;1533728148.18767;3.2;9.52;7.331716001;9;117
11;paravance-8.rennes.grid5000.fr;thermos-root-devel-WordCountTopology-1-adfda23e-e031-4457-8577-794f8ae1b83b;["container_1_Consume_and_count_1"];1.25;1533728158.40268;57.16;202.0;659.890631781;10;151
11;paravance-9.rennes.grid5000.fr;thermos-root-devel-WordCountTopology-0-d2288d97-07f6-4433-b40f-5bec99b3ea11;["topology_master"];1.25;1533728158.40591;3.26;9.59;7.331716001;9;117
11;paravance-7.rennes.grid5000.fr;thermos-root-devel-WordCountTopology-2-82565f14-dd58-4191-8bf0-cf25c422b00f;["container_2_Emit_random_words_2"];1.25;1533728158.39938;40.25;150.65;188.017661455;10;149
12;paravance-8.rennes.grid5000.fr;thermos-root-devel-WordCountTopology-1-adfda23e-e031-4457-8577-794f8ae1b83b;["container_1_Consume_and_count_1"];1.25;1533728168.62227;59.73;211.2;690.807268444;10;151
12;paravance-7.rennes.grid5000.fr;thermos-root-devel-WordCountTopology-2-82565f14-dd58-4191-8bf0-cf25c422b00f;["container_2_Emit_random_words_2"];1.25;1533728168.61902;42.02;156.64;194.240354436;10;149
12;paravance-9.rennes.grid5000.fr;thermos-root-devel-WordCountTopology-0-d2288d97-07f6-4433-b40f-5bec99b3ea11;["topology_master"];1.25;1533728168.62607;3.38;9.82;7.331716001;9;117
13;paravance-9.rennes.grid5000.fr;thermos-root-devel-WordCountTopology-0-d2288d97-07f6-4433-b40f-5bec99b3ea11;["topology_master"];1.25;1533728178.84438;3.41;9.89;7.331716001;9;117
13;paravance-8.rennes.grid5000.fr;thermos-root-devel-WordCountTopology-1-adfda23e-e031-4457-8577-794f8ae1b83b;["container_1_Consume_and_count_1"];1.25;1533728178.84133;62.3;220.51;719.212076691;10;151
13;paravance-7.rennes.grid5000.fr;thermos-root-devel-WordCountTopology-2-82565f14-dd58-4191-8bf0-cf25c422b00f;["container_2_Emit_random_words_2"];1.25;1533728178.83673;43.79;163.19;201.12267874;10;149
14;paravance-8.rennes.grid5000.fr;thermos-root-devel-WordCountTopology-1-adfda23e-e031-4457-8577-794f8ae1b83b;["container_1_Consume_and_count_1"];1.25;1533728189.05879;64.79;229.91;751.892484162;10;151
14;paravance-9.rennes.grid5000.fr;thermos-root-devel-WordCountTopology-0-d2288d97-07f6-4433-b40f-5bec99b3ea11;["topology_master"];1.25;1533728189.06249;3.5;10.02;7.331716001;9;117
14;paravance-7.rennes.grid5000.fr;thermos-root-devel-WordCountTopology-2-82565f14-dd58-4191-8bf0-cf25c422b00f;["container_2_Emit_random_words_2"];1.25;1533728189.05555;45.45;168.93;207.163184661;10;149
15;paravance-8.rennes.grid5000.fr;thermos-root-devel-WordCountTopology-1-adfda23e-e031-4457-8577-794f8ae1b83b;["container_1_Consume_and_count_1"];1.25;1533728199.27908;67.4;239.0;782.399874949;10;151
15;paravance-9.rennes.grid5000.fr;thermos-root-devel-WordCountTopology-0-d2288d97-07f6-4433-b40f-5bec99b3ea11;["topology_master"];1.25;1533728199.28337;3.55;10.09;7.331716001;9;117
15;paravance-7.rennes.grid5000.fr;thermos-root-devel-WordCountTopology-2-82565f14-dd58-4191-8bf0-cf25c422b00f;["container_2_Emit_random_words_2"];1.25;1533728199.27571;47.02;174.57;212.748673489;10;149
16;paravance-7.rennes.grid5000.fr;thermos-root-devel-WordCountTopology-2-82565f14-dd58-4191-8bf0-cf25c422b00f;["container_2_Emit_random_words_2"];1.25;1533728209.49263;48.7;180.53;219.139033802;10;149
16;paravance-9.rennes.grid5000.fr;thermos-root-devel-WordCountTopology-0-d2288d97-07f6-4433-b40f-5bec99b3ea11;["topology_master"];1.25;1533728209.50057;3.61;10.17;7.331716001;9;117
16;paravance-8.rennes.grid5000.fr;thermos-root-devel-WordCountTopology-1-adfda23e-e031-4457-8577-794f8ae1b83b;["container_1_Consume_and_count_1"];1.25;1533728209.49591;69.9;248.33;813.056434523;10;151
17;paravance-7.rennes.grid5000.fr;thermos-root-devel-WordCountTopology-2-82565f14-dd58-4191-8bf0-cf25c422b00f;["container_2_Emit_random_words_2"];1.25;1533728219.71076;50.38;186.68;225.050915452;10;149
17;paravance-9.rennes.grid5000.fr;thermos-root-devel-WordCountTopology-0-d2288d97-07f6-4433-b40f-5bec99b3ea11;["topology_master"];1.25;1533728219.71808;3.67;10.25;7.331716001;9;117
17;paravance-8.rennes.grid5000.fr;thermos-root-devel-WordCountTopology-1-adfda23e-e031-4457-8577-794f8ae1b83b;["container_1_Consume_and_count_1"];1.25;1533728219.71636;72.56;257.52;841.115865863;10;151
18;paravance-9.rennes.grid5000.fr;thermos-root-devel-WordCountTopology-0-d2288d97-07f6-4433-b40f-5bec99b3ea11;["topology_master"];1.25;1533728229.93666;3.79;10.48;7.331716001;9;117
18;paravance-7.rennes.grid5000.fr;thermos-root-devel-WordCountTopology-2-82565f14-dd58-4191-8bf0-cf25c422b00f;["container_2_Emit_random_words_2"];1.25;1533728229.92811;51.92;192.19;231.25641976;10;149
18;paravance-8.rennes.grid5000.fr;thermos-root-devel-WordCountTopology-1-adfda23e-e031-4457-8577-794f8ae1b83b;["container_1_Consume_and_count_1"];1.25;1533728229.93374;75.05;266.85;874.089035709;10;152
19;paravance-8.rennes.grid5000.fr;thermos-root-devel-WordCountTopology-1-adfda23e-e031-4457-8577-794f8ae1b83b;["container_1_Consume_and_count_1"];1.25;1533728240.1504;77.58;276.2;904.021539465;10;152
19;paravance-7.rennes.grid5000.fr;thermos-root-devel-WordCountTopology-2-82565f14-dd58-4191-8bf0-cf25c422b00f;["container_2_Emit_random_words_2"];1.25;1533728240.14616;53.71;198.42;237.673898825;10;149
19;paravance-9.rennes.grid5000.fr;thermos-root-devel-WordCountTopology-0-d2288d97-07f6-4433-b40f-5bec99b3ea11;["topology_master"];1.25;1533728240.15399;3.82;10.51;7.331716001;9;117
20;paravance-7.rennes.grid5000.fr;thermos-root-devel-WordCountTopology-2-82565f14-dd58-4191-8bf0-cf25c422b00f;["container_2_Emit_random_words_2"];1.25;1533728250.36274;55.38;204.28;243.931801109;10;149
20;paravance-8.rennes.grid5000.fr;thermos-root-devel-WordCountTopology-1-adfda23e-e031-4457-8577-794f8ae1b83b;["container_1_Consume_and_count_1"];1.25;1533728250.36803;80.1;285.55;936.127439105;10;151
20;paravance-9.rennes.grid5000.fr;thermos-root-devel-WordCountTopology-0-d2288d97-07f6-4433-b40f-5bec99b3ea11;["topology_master"];1.25;1533728250.3717;3.91;10.63;7.331716001;9;117
21;paravance-8.rennes.grid5000.fr;thermos-root-devel-WordCountTopology-1-adfda23e-e031-4457-8577-794f8ae1b83b;["container_1_Consume_and_count_1"];1.25;1533728260.58388;82.69;294.8;965.812243964;10;151
21;paravance-9.rennes.grid5000.fr;thermos-root-devel-WordCountTopology-0-d2288d97-07f6-4433-b40f-5bec99b3ea11;["topology_master"];1.25;1533728260.58848;3.97;10.71;7.331716001;9;117
21;paravance-7.rennes.grid5000.fr;thermos-root-devel-WordCountTopology-2-82565f14-dd58-4191-8bf0-cf25c422b00f;["container_2_Emit_random_words_2"];1.25;1533728260.58089;57.05;210.53;250.143458256;10;149
22;paravance-8.rennes.grid5000.fr;thermos-root-devel-WordCountTopology-1-adfda23e-e031-4457-8577-794f8ae1b83b;["container_1_Consume_and_count_1"];1.25;1533728270.79937;85.34;303.9;995.179682938;10;151
22;paravance-9.rennes.grid5000.fr;thermos-root-devel-WordCountTopology-0-d2288d97-07f6-4433-b40f-5bec99b3ea11;["topology_master"];1.25;1533728270.80243;4.02;10.78;7.331716001;9;117
22;paravance-7.rennes.grid5000.fr;thermos-root-devel-WordCountTopology-2-82565f14-dd58-4191-8bf0-cf25c422b00f;["container_2_Emit_random_words_2"];1.25;1533728270.79392;58.69;216.28;256.208745621;10;149
23;paravance-9.rennes.grid5000.fr;thermos-root-devel-WordCountTopology-0-d2288d97-07f6-4433-b40f-5bec99b3ea11;["topology_master"];1.25;1533728281.01909;4.08;10.85;7.331716001;9;117
23;paravance-8.rennes.grid5000.fr;thermos-root-devel-WordCountTopology-1-adfda23e-e031-4457-8577-794f8ae1b83b;["container_1_Consume_and_count_1"];1.25;1533728281.01546;87.87;313.1;1023.582316029;10;151
23;paravance-7.rennes.grid5000.fr;thermos-root-devel-WordCountTopology-2-82565f14-dd58-4191-8bf0-cf25c422b00f;["container_2_Emit_random_words_2"];1.25;1533728281.01139;60.65;223.16;263.28367575;10;149
24;paravance-9.rennes.grid5000.fr;thermos-root-devel-WordCountTopology-0-d2288d97-07f6-4433-b40f-5bec99b3ea11;["topology_master"];1.25;1533728291.23872;4.19;11.03;7.331716001;9;117
24;paravance-8.rennes.grid5000.fr;thermos-root-devel-WordCountTopology-1-adfda23e-e031-4457-8577-794f8ae1b83b;["container_1_Consume_and_count_1"];1.25;1533728291.23435;90.4;322.37;1052.630673888;10;151
24;paravance-7.rennes.grid5000.fr;thermos-root-devel-WordCountTopology-2-82565f14-dd58-4191-8bf0-cf25c422b00f;["container_2_Emit_random_words_2"];1.25;1533728291.23161;62.43;229.51;269.499855741;10;149
25;paravance-7.rennes.grid5000.fr;thermos-root-devel-WordCountTopology-2-82565f14-dd58-4191-8bf0-cf25c422b00f;["container_2_Emit_random_words_2"];1.25;1533728301.44943;63.99;235.17;275.162703465;10;149
25;paravance-9.rennes.grid5000.fr;thermos-root-devel-WordCountTopology-0-d2288d97-07f6-4433-b40f-5bec99b3ea11;["topology_master"];1.25;1533728301.45754;4.22;11.06;7.331716001;9;117
25;paravance-8.rennes.grid5000.fr;thermos-root-devel-WordCountTopology-1-adfda23e-e031-4457-8577-794f8ae1b83b;["container_1_Consume_and_count_1"];1.25;1533728301.45382;92.88;331.74;1084.917790593;10;151
26;paravance-7.rennes.grid5000.fr;thermos-root-devel-WordCountTopology-2-82565f14-dd58-4191-8bf0-cf25c422b00f;["container_2_Emit_random_words_2"];1.25;1533728311.66814;65.62;240.98;281.103582323;10;149
26;paravance-8.rennes.grid5000.fr;thermos-root-devel-WordCountTopology-1-adfda23e-e031-4457-8577-794f8ae1b83b;["container_1_Consume_and_count_1"];1.25;1533728311.67282;95.37;341.1;1114.150907518;10;151
26;paravance-9.rennes.grid5000.fr;thermos-root-devel-WordCountTopology-0-d2288d97-07f6-4433-b40f-5bec99b3ea11;["topology_master"];1.25;1533728311.67629;4.3;11.18;7.331716001;9;117
27;paravance-8.rennes.grid5000.fr;thermos-root-devel-WordCountTopology-1-adfda23e-e031-4457-8577-794f8ae1b83b;["container_1_Consume_and_count_1"];1.25;1533728321.89196;97.87;350.37;1147.379013672;10;151
27;paravance-9.rennes.grid5000.fr;thermos-root-devel-WordCountTopology-0-d2288d97-07f6-4433-b40f-5bec99b3ea11;["topology_master"];1.25;1533728321.89489;4.36;11.25;7.331716001;9;117
27;paravance-7.rennes.grid5000.fr;thermos-root-devel-WordCountTopology-2-82565f14-dd58-4191-8bf0-cf25c422b00f;["container_2_Emit_random_words_2"];1.25;1533728321.88753;67.08;246.31;286.558191184;10;149
28;paravance-7.rennes.grid5000.fr;thermos-root-devel-WordCountTopology-2-82565f14-dd58-4191-8bf0-cf25c422b00f;["container_2_Emit_random_words_2"];1.25;1533728332.00507;68.59;251.66;293.094836322;10;149
28;paravance-8.rennes.grid5000.fr;thermos-root-devel-WordCountTopology-1-adfda23e-e031-4457-8577-794f8ae1b83b;["container_1_Consume_and_count_1"];1.25;1533728332.11016;100.47;359.57;1180.891603912;10;151
28;paravance-9.rennes.grid5000.fr;thermos-root-devel-WordCountTopology-0-d2288d97-07f6-4433-b40f-5bec99b3ea11;["topology_master"];1.25;1533728332.11331;4.42;11.33;7.331716001;9;117
29;paravance-9.rennes.grid5000.fr;thermos-root-devel-WordCountTopology-0-d2288d97-07f6-4433-b40f-5bec99b3ea11;["topology_master"];1.25;1533728342.32989;4.47;11.4;7.331716001;9;117
29;paravance-8.rennes.grid5000.fr;thermos-root-devel-WordCountTopology-1-adfda23e-e031-4457-8577-794f8ae1b83b;["container_1_Consume_and_count_1"];1.25;1533728342.32655;103.16;368.8;1212.215994909;10;151
29;paravance-7.rennes.grid5000.fr;thermos-root-devel-WordCountTopology-2-82565f14-dd58-4191-8bf0-cf25c422b00f;["container_2_Emit_random_words_2"];1.25;1533728342.32229;70.24;257.61;300.229273109;10;149
30;paravance-8.rennes.grid5000.fr;thermos-root-devel-WordCountTopology-1-adfda23e-e031-4457-8577-794f8ae1b83b;["container_1_Consume_and_count_1"];1.25;1533728352.54717;105.67;378.19;1244.701418131;10;151
30;paravance-9.rennes.grid5000.fr;thermos-root-devel-WordCountTopology-0-d2288d97-07f6-4433-b40f-5bec99b3ea11;["topology_master"];1.25;1533728352.54889;4.58;11.57;7.331716001;9;117
30;paravance-7.rennes.grid5000.fr;thermos-root-devel-WordCountTopology-2-82565f14-dd58-4191-8bf0-cf25c422b00f;["container_2_Emit_random_words_2"];1.25;1533728352.54102;71.9;263.56;306.262794239;10;149
31;paravance-7.rennes.grid5000.fr;thermos-root-devel-WordCountTopology-2-82565f14-dd58-4191-8bf0-cf25c422b00f;["container_2_Emit_random_words_2"];1.25;1533728362.75866;73.45;269.09;311.190860418;10;149
31;paravance-8.rennes.grid5000.fr;thermos-root-devel-WordCountTopology-1-adfda23e-e031-4457-8577-794f8ae1b83b;["container_1_Consume_and_count_1"];1.25;1533728362.7634;108.16;387.57;1276.350976302;10;151
31;paravance-9.rennes.grid5000.fr;thermos-root-devel-WordCountTopology-0-d2288d97-07f6-4433-b40f-5bec99b3ea11;["topology_master"];1.25;1533728362.76777;4.64;11.65;7.331716001;9;115
32;paravance-9.rennes.grid5000.fr;thermos-root-devel-WordCountTopology-0-d2288d97-07f6-4433-b40f-5bec99b3ea11;["topology_master"];1.25;1533728372.98106;4.7;11.73;7.331716001;9;117
32;paravance-7.rennes.grid5000.fr;thermos-root-devel-WordCountTopology-2-82565f14-dd58-4191-8bf0-cf25c422b00f;["container_2_Emit_random_words_2"];1.25;1533728372.9723;75.22;274.27;315.535430566;10;149
32;paravance-8.rennes.grid5000.fr;thermos-root-devel-WordCountTopology-1-adfda23e-e031-4457-8577-794f8ae1b83b;["container_1_Consume_and_count_1"];1.25;1533728372.97662;110.62;396.92;1309.22808094;10;151
33;paravance-9.rennes.grid5000.fr;thermos-root-devel-WordCountTopology-0-d2288d97-07f6-4433-b40f-5bec99b3ea11;["topology_master"];1.25;1533728383.198;4.79;11.85;7.331716001;9;117
33;paravance-7.rennes.grid5000.fr;thermos-root-devel-WordCountTopology-2-82565f14-dd58-4191-8bf0-cf25c422b00f;["container_2_Emit_random_words_2"];1.25;1533728383.18835;76.87;279.43;320.459712825;10;149
33;paravance-8.rennes.grid5000.fr;thermos-root-devel-WordCountTopology-1-adfda23e-e031-4457-8577-794f8ae1b83b;["container_1_Consume_and_count_1"];1.25;1533728383.19481;113.09;406.28;1341.375921575;10;149
34;paravance-8.rennes.grid5000.fr;thermos-root-devel-WordCountTopology-1-adfda23e-e031-4457-8577-794f8ae1b83b;["container_1_Consume_and_count_1"];1.25;1533728393.41089;115.56;415.6;1373.526883649;10;151
34;paravance-9.rennes.grid5000.fr;thermos-root-devel-WordCountTopology-0-d2288d97-07f6-4433-b40f-5bec99b3ea11;["topology_master"];1.25;1533728393.41446;4.81;11.87;7.331716001;9;117
34;paravance-7.rennes.grid5000.fr;thermos-root-devel-WordCountTopology-2-82565f14-dd58-4191-8bf0-cf25c422b00f;["container_2_Emit_random_words_2"];1.25;1533728393.40693;78.51;284.88;325.689332245;10;149
35;paravance-9.rennes.grid5000.fr;thermos-root-devel-WordCountTopology-0-d2288d97-07f6-4433-b40f-5bec99b3ea11;["topology_master"];1.25;1533728403.62908;4.91;12.0;7.331716001;9;117
35;paravance-8.rennes.grid5000.fr;thermos-root-devel-WordCountTopology-1-adfda23e-e031-4457-8577-794f8ae1b83b;["container_1_Consume_and_count_1"];1.25;1533728403.62559;118.01;424.97;1407.239882197;10;151
35;paravance-7.rennes.grid5000.fr;thermos-root-devel-WordCountTopology-2-82565f14-dd58-4191-8bf0-cf25c422b00f;["container_2_Emit_random_words_2"];1.25;1533728403.62105;80.14;290.22;330.833313987;10;149
36;paravance-7.rennes.grid5000.fr;thermos-root-devel-WordCountTopology-2-82565f14-dd58-4191-8bf0-cf25c422b00f;["container_2_Emit_random_words_2"];1.25;1533728413.83884;81.71;295.36;335.326388357;10;149
36;paravance-8.rennes.grid5000.fr;thermos-root-devel-WordCountTopology-1-adfda23e-e031-4457-8577-794f8ae1b83b;["container_1_Consume_and_count_1"];1.25;1533728413.8439;120.5;434.32;1438.967931678;10;151
36;paravance-9.rennes.grid5000.fr;thermos-root-devel-WordCountTopology-0-d2288d97-07f6-4433-b40f-5bec99b3ea11;["topology_master"];1.25;1533728413.84761;4.97;12.18;7.331716001;9;117
37;paravance-8.rennes.grid5000.fr;thermos-root-devel-WordCountTopology-1-adfda23e-e031-4457-8577-794f8ae1b83b;["container_1_Consume_and_count_1"];1.25;1533728424.0614;122.92;443.78;1471.301617473;10;151
37;paravance-7.rennes.grid5000.fr;thermos-root-devel-WordCountTopology-2-82565f14-dd58-4191-8bf0-cf25c422b00f;["container_2_Emit_random_words_2"];1.25;1533728424.05677;83.3;300.46;340.33625644;10;149
37;paravance-9.rennes.grid5000.fr;thermos-root-devel-WordCountTopology-0-d2288d97-07f6-4433-b40f-5bec99b3ea11;["topology_master"];1.25;1533728424.06521;5.03;12.25;7.331716001;9;117
38;paravance-8.rennes.grid5000.fr;thermos-root-devel-WordCountTopology-1-adfda23e-e031-4457-8577-794f8ae1b83b;["container_1_Consume_and_count_1"];1.25;1533728434.27983;125.36;453.17;1502.534974238;10;151
38;paravance-9.rennes.grid5000.fr;thermos-root-devel-WordCountTopology-0-d2288d97-07f6-4433-b40f-5bec99b3ea11;["topology_master"];1.25;1533728434.28355;5.08;12.33;7.331716001;9;117
38;paravance-7.rennes.grid5000.fr;thermos-root-devel-WordCountTopology-2-82565f14-dd58-4191-8bf0-cf25c422b00f;["container_2_Emit_random_words_2"];1.25;1533728434.27551;84.9;305.79;345.517856797;10;149
39;paravance-8.rennes.grid5000.fr;thermos-root-devel-WordCountTopology-1-adfda23e-e031-4457-8577-794f8ae1b83b;["container_1_Consume_and_count_1"];1.25;1533728444.49672;127.93;462.43;1531.165798711;10;151
39;paravance-7.rennes.grid5000.fr;thermos-root-devel-WordCountTopology-2-82565f14-dd58-4191-8bf0-cf25c422b00f;["container_2_Emit_random_words_2"];1.25;1533728444.49135;86.62;311.36;351.682729299;10;149
39;paravance-9.rennes.grid5000.fr;thermos-root-devel-WordCountTopology-0-d2288d97-07f6-4433-b40f-5bec99b3ea11;["topology_master"];1.25;1533728444.4998;5.17;12.45;7.331716001;9;117
40;paravance-7.rennes.grid5000.fr;thermos-root-devel-WordCountTopology-2-82565f14-dd58-4191-8bf0-cf25c422b00f;["container_2_Emit_random_words_2"];1.25;1533728454.7081;88.29;316.84;356.632800864;10;149
40;paravance-8.rennes.grid5000.fr;thermos-root-devel-WordCountTopology-1-adfda23e-e031-4457-8577-794f8ae1b83b;["container_1_Consume_and_count_1"];1.25;1533728454.71287;130.36;471.91;1564.661760862;10;151
40;paravance-9.rennes.grid5000.fr;thermos-root-devel-WordCountTopology-0-d2288d97-07f6-4433-b40f-5bec99b3ea11;["topology_master"];1.25;1533728454.71828;5.2;12.47;7.331716001;9;117
41;paravance-7.rennes.grid5000.fr;thermos-root-devel-WordCountTopology-2-82565f14-dd58-4191-8bf0-cf25c422b00f;["container_2_Emit_random_words_2"];1.25;1533728464.92355;89.97;322.22;362.383235927;10;149
41;paravance-9.rennes.grid5000.fr;thermos-root-devel-WordCountTopology-0-d2288d97-07f6-4433-b40f-5bec99b3ea11;["topology_master"];1.25;1533728464.93286;5.29;12.6;7.331716001;9;117
41;paravance-8.rennes.grid5000.fr;thermos-root-devel-WordCountTopology-1-adfda23e-e031-4457-8577-794f8ae1b83b;["container_1_Consume_and_count_1"];1.25;1533728464.92799;132.8;481.33;1598.529336712;10;151
42;paravance-8.rennes.grid5000.fr;thermos-root-devel-WordCountTopology-1-adfda23e-e031-4457-8577-794f8ae1b83b;["container_1_Consume_and_count_1"];1.25;1533728475.1474;135.25;490.76;1630.648747494;10;151
42;paravance-9.rennes.grid5000.fr;thermos-root-devel-WordCountTopology-0-d2288d97-07f6-4433-b40f-5bec99b3ea11;["topology_master"];1.25;1533728475.15095;5.35;12.72;7.331716001;9;117
42;paravance-7.rennes.grid5000.fr;thermos-root-devel-WordCountTopology-2-82565f14-dd58-4191-8bf0-cf25c422b00f;["container_2_Emit_random_words_2"];1.25;1533728475.14303;91.56;327.51;367.38000258;10;149
43;paravance-8.rennes.grid5000.fr;thermos-root-devel-WordCountTopology-1-adfda23e-e031-4457-8577-794f8ae1b83b;["container_1_Consume_and_count_1"];1.25;1533728485.36174;137.74;500.14;1662.31857543;10;151
43;paravance-9.rennes.grid5000.fr;thermos-root-devel-WordCountTopology-0-d2288d97-07f6-4433-b40f-5bec99b3ea11;["topology_master"];1.25;1533728485.36698;5.44;12.84;7.331716001;9;117
43;paravance-7.rennes.grid5000.fr;thermos-root-devel-WordCountTopology-2-82565f14-dd58-4191-8bf0-cf25c422b00f;["container_2_Emit_random_words_2"];1.25;1533728485.35881;93.19;333.08;372.653664183;10;149
44;paravance-8.rennes.grid5000.fr;thermos-root-devel-WordCountTopology-1-adfda23e-e031-4457-8577-794f8ae1b83b;["container_1_Consume_and_count_1"];1.25;1533728495.5783;140.14;509.54;1693.747936343;10;151
44;paravance-7.rennes.grid5000.fr;thermos-root-devel-WordCountTopology-2-82565f14-dd58-4191-8bf0-cf25c422b00f;["container_2_Emit_random_words_2"];1.25;1533728495.57376;94.77;338.49;377.417544583;10;149
44;paravance-9.rennes.grid5000.fr;thermos-root-devel-WordCountTopology-0-d2288d97-07f6-4433-b40f-5bec99b3ea11;["topology_master"];1.25;1533728495.58266;5.47;12.86;7.331716001;9;117
45;paravance-8.rennes.grid5000.fr;thermos-root-devel-WordCountTopology-1-adfda23e-e031-4457-8577-794f8ae1b83b;["container_1_Consume_and_count_1"];1.25;1533728505.79457;142.62;518.84;1725.724061623;10;151
45;paravance-7.rennes.grid5000.fr;thermos-root-devel-WordCountTopology-2-82565f14-dd58-4191-8bf0-cf25c422b00f;["container_2_Emit_random_words_2"];1.25;1533728505.79005;96.4;343.85;382.200063463;10;149
45;paravance-9.rennes.grid5000.fr;thermos-root-devel-WordCountTopology-0-d2288d97-07f6-4433-b40f-5bec99b3ea11;["topology_master"];1.25;1533728505.79841;5.55;12.98;7.331716001;9;117
46;paravance-9.rennes.grid5000.fr;thermos-root-devel-WordCountTopology-0-d2288d97-07f6-4433-b40f-5bec99b3ea11;["topology_master"];1.25;1533728516.01382;5.61;13.05;7.331716001;9;117
46;paravance-7.rennes.grid5000.fr;thermos-root-devel-WordCountTopology-2-82565f14-dd58-4191-8bf0-cf25c422b00f;["container_2_Emit_random_words_2"];1.25;1533728516.00559;97.94;348.97;386.793333474;10;149
46;paravance-8.rennes.grid5000.fr;thermos-root-devel-WordCountTopology-1-adfda23e-e031-4457-8577-794f8ae1b83b;["container_1_Consume_and_count_1"];1.25;1533728516.01022;145.07;528.16;1757.494249913;10;151
47;paravance-9.rennes.grid5000.fr;thermos-root-devel-WordCountTopology-0-d2288d97-07f6-4433-b40f-5bec99b3ea11;["topology_master"];1.25;1533728526.23235;5.67;13.14;7.331716001;9;117
47;paravance-8.rennes.grid5000.fr;thermos-root-devel-WordCountTopology-1-adfda23e-e031-4457-8577-794f8ae1b83b;["container_1_Consume_and_count_1"];1.25;1533728526.22901;147.52;537.55;1791.736935478;10;151
47;paravance-7.rennes.grid5000.fr;thermos-root-devel-WordCountTopology-2-82565f14-dd58-4191-8bf0-cf25c422b00f;["container_2_Emit_random_words_2"];1.25;1533728526.22357;99.5;353.99;391.570917129;10;149
48;paravance-8.rennes.grid5000.fr;thermos-root-devel-WordCountTopology-1-adfda23e-e031-4457-8577-794f8ae1b83b;["container_1_Consume_and_count_1"];1.25;1533728536.44528;149.97;547.02;1824.879829134;10;151
48;paravance-9.rennes.grid5000.fr;thermos-root-devel-WordCountTopology-0-d2288d97-07f6-4433-b40f-5bec99b3ea11;["topology_master"];1.25;1533728536.44994;5.74;13.28;7.331716001;9;117
48;paravance-7.rennes.grid5000.fr;thermos-root-devel-WordCountTopology-2-82565f14-dd58-4191-8bf0-cf25c422b00f;["container_2_Emit_random_words_2"];1.25;1533728536.44113;101.09;359.22;397.017245997;10;149
49;paravance-8.rennes.grid5000.fr;thermos-root-devel-WordCountTopology-1-adfda23e-e031-4457-8577-794f8ae1b83b;["container_1_Consume_and_count_1"];1.25;1533728546.661;152.5;556.37;1856.443523712;10;151
49;paravance-9.rennes.grid5000.fr;thermos-root-devel-WordCountTopology-0-d2288d97-07f6-4433-b40f-5bec99b3ea11;["topology_master"];1.25;1533728546.66608;5.82;13.4;7.331716001;9;117
49;paravance-7.rennes.grid5000.fr;thermos-root-devel-WordCountTopology-2-82565f14-dd58-4191-8bf0-cf25c422b00f;["container_2_Emit_random_words_2"];1.25;1533728546.65662;102.56;364.26;402.2162953;10;149
50;paravance-8.rennes.grid5000.fr;thermos-root-devel-WordCountTopology-1-adfda23e-e031-4457-8577-794f8ae1b83b;["container_1_Consume_and_count_1"];1.25;1533728556.87813;154.92;565.85;1886.731676699;10;151
50;paravance-7.rennes.grid5000.fr;thermos-root-devel-WordCountTopology-2-82565f14-dd58-4191-8bf0-cf25c422b00f;["container_2_Emit_random_words_2"];1.25;1533728556.87252;104.22;369.89;407.355719345;10;149
50;paravance-9.rennes.grid5000.fr;thermos-root-devel-WordCountTopology-0-d2288d97-07f6-4433-b40f-5bec99b3ea11;["topology_master"];1.25;1533728556.88227;5.85;13.43;7.331716001;9;117
51;paravance-9.rennes.grid5000.fr;thermos-root-devel-WordCountTopology-0-d2288d97-07f6-4433-b40f-5bec99b3ea11;["topology_master"];1.25;1533728567.09971;5.94;13.55;7.331716001;9;117
51;paravance-8.rennes.grid5000.fr;thermos-root-devel-WordCountTopology-1-adfda23e-e031-4457-8577-794f8ae1b83b;["container_1_Consume_and_count_1"];1.25;1533728567.09579;157.42;575.23;1919.704361691;10;151
51;paravance-7.rennes.grid5000.fr;thermos-root-devel-WordCountTopology-2-82565f14-dd58-4191-8bf0-cf25c422b00f;["container_2_Emit_random_words_2"];1.25;1533728567.0901;105.81;375.05;412.036008899;10;149
52;paravance-7.rennes.grid5000.fr;thermos-root-devel-WordCountTopology-2-82565f14-dd58-4191-8bf0-cf25c422b00f;["container_2_Emit_random_words_2"];1.25;1533728577.30886;107.32;380.18;416.551389723;10;149
52;paravance-9.rennes.grid5000.fr;thermos-root-devel-WordCountTopology-0-d2288d97-07f6-4433-b40f-5bec99b3ea11;["topology_master"];1.25;1533728577.31886;6.0;13.63;7.331716001;9;117
52;paravance-8.rennes.grid5000.fr;thermos-root-devel-WordCountTopology-1-adfda23e-e031-4457-8577-794f8ae1b83b;["container_1_Consume_and_count_1"];1.25;1533728577.31475;159.88;584.53;1952.214957417;10;151
53;paravance-8.rennes.grid5000.fr;thermos-root-devel-WordCountTopology-1-adfda23e-e031-4457-8577-794f8ae1b83b;["container_1_Consume_and_count_1"];1.25;1533728587.53167;162.34;593.84;1985.249780972;10;151
53;paravance-7.rennes.grid5000.fr;thermos-root-devel-WordCountTopology-2-82565f14-dd58-4191-8bf0-cf25c422b00f;["container_2_Emit_random_words_2"];1.25;1533728587.5286;109.09;385.86;422.30624482;10;149
53;paravance-9.rennes.grid5000.fr;thermos-root-devel-WordCountTopology-0-d2288d97-07f6-4433-b40f-5bec99b3ea11;["topology_master"];1.25;1533728587.53835;6.06;13.74;7.331716001;9;117
54;paravance-8.rennes.grid5000.fr;thermos-root-devel-WordCountTopology-1-adfda23e-e031-4457-8577-794f8ae1b83b;["container_1_Consume_and_count_1"];1.25;1533728597.74889;164.77;603.35;2018.778978362;10;151
54;paravance-7.rennes.grid5000.fr;thermos-root-devel-WordCountTopology-2-82565f14-dd58-4191-8bf0-cf25c422b00f;["container_2_Emit_random_words_2"];1.25;1533728597.74282;110.62;390.86;426.503211744;10;149
54;paravance-9.rennes.grid5000.fr;thermos-root-devel-WordCountTopology-0-d2288d97-07f6-4433-b40f-5bec99b3ea11;["topology_master"];1.25;1533728597.75351;6.12;13.84;7.331716001;9;117
55;paravance-9.rennes.grid5000.fr;thermos-root-devel-WordCountTopology-0-d2288d97-07f6-4433-b40f-5bec99b3ea11;["topology_master"];1.25;1533728607.96941;6.21;13.96;7.331716001;9;117
55;paravance-8.rennes.grid5000.fr;thermos-root-devel-WordCountTopology-1-adfda23e-e031-4457-8577-794f8ae1b83b;["container_1_Consume_and_count_1"];1.25;1533728607.96507;167.09;612.86;2055.262364011;10;151
55;paravance-7.rennes.grid5000.fr;thermos-root-devel-WordCountTopology-2-82565f14-dd58-4191-8bf0-cf25c422b00f;["container_2_Emit_random_words_2"];1.25;1533728607.96078;112.14;395.9;431.058680538;10;149
56;paravance-7.rennes.grid5000.fr;thermos-root-devel-WordCountTopology-2-82565f14-dd58-4191-8bf0-cf25c422b00f;["container_2_Emit_random_words_2"];1.25;1533728618.17676;113.89;401.56;436.976506348;10;149
56;paravance-8.rennes.grid5000.fr;thermos-root-devel-WordCountTopology-1-adfda23e-e031-4457-8577-794f8ae1b83b;["container_1_Consume_and_count_1"];1.25;1533728618.18243;169.52;622.23;2085.979948928;10;151
56;paravance-9.rennes.grid5000.fr;thermos-root-devel-WordCountTopology-0-d2288d97-07f6-4433-b40f-5bec99b3ea11;["topology_master"];1.25;1533728618.18703;6.24;13.98;7.331716001;9;117
57;paravance-8.rennes.grid5000.fr;thermos-root-devel-WordCountTopology-1-adfda23e-e031-4457-8577-794f8ae1b83b;["container_1_Consume_and_count_1"];1.25;1533728628.30034;171.95;631.44;2119.316998508;10;151
57;paravance-9.rennes.grid5000.fr;thermos-root-devel-WordCountTopology-0-d2288d97-07f6-4433-b40f-5bec99b3ea11;["topology_master"];1.25;1533728628.30424;6.33;14.11;7.331716001;9;117
57;paravance-7.rennes.grid5000.fr;thermos-root-devel-WordCountTopology-2-82565f14-dd58-4191-8bf0-cf25c422b00f;["container_2_Emit_random_words_2"];1.25;1533728628.39548;115.58;407.09;442.84852928;10;149
58;paravance-8.rennes.grid5000.fr;thermos-root-devel-WordCountTopology-1-adfda23e-e031-4457-8577-794f8ae1b83b;["container_1_Consume_and_count_1"];1.25;1533728638.61486;174.43;640.82;2151.964423619;10;151
58;paravance-7.rennes.grid5000.fr;thermos-root-devel-WordCountTopology-2-82565f14-dd58-4191-8bf0-cf25c422b00f;["container_2_Emit_random_words_2"];1.25;1533728638.61055;117.18;412.28;447.41637658;10;149
58;paravance-9.rennes.grid5000.fr;thermos-root-devel-WordCountTopology-0-d2288d97-07f6-4433-b40f-5bec99b3ea11;["topology_master"];1.25;1533728638.6207;6.39;14.18;7.331716001;9;117
59;paravance-8.rennes.grid5000.fr;thermos-root-devel-WordCountTopology-1-adfda23e-e031-4457-8577-794f8ae1b83b;["container_1_Consume_and_count_1"];1.25;1533728648.83239;176.9;650.14;2183.974001947;10;151
59;paravance-7.rennes.grid5000.fr;thermos-root-devel-WordCountTopology-2-82565f14-dd58-4191-8bf0-cf25c422b00f;["container_2_Emit_random_words_2"];1.25;1533728648.82776;119.17;417.83;452.747365239;10;149
59;paravance-9.rennes.grid5000.fr;thermos-root-devel-WordCountTopology-0-d2288d97-07f6-4433-b40f-5bec99b3ea11;["topology_master"];1.25;1533728648.83721;6.47;14.29;7.331716001;9;117
60;paravance-7.rennes.grid5000.fr;thermos-root-devel-WordCountTopology-2-82565f14-dd58-4191-8bf0-cf25c422b00f;["container_2_Emit_random_words_2"];1.25;1533728659.04674;120.99;423.18;458.006590208;10;149
60;paravance-8.rennes.grid5000.fr;thermos-root-devel-WordCountTopology-1-adfda23e-e031-4457-8577-794f8ae1b83b;["container_1_Consume_and_count_1"];1.25;1533728659.05176;179.3;659.51;2217.375387092;10;151
60;paravance-9.rennes.grid5000.fr;thermos-root-devel-WordCountTopology-0-d2288d97-07f6-4433-b40f-5bec99b3ea11;["topology_master"];1.25;1533728659.05609;6.52;14.37;7.331716001;9;117
