{
  "status": "success",
  "executiontime": 0.00018405914306640625,
  "message": "",
  "result": {
    "bolts": {
      "Consume_and_count": [
        "container_1_Consume_and_count_1"
      ]
    },
    "instances": {
      "container_2_Emit_random_words_2": {
        "stmgrId": "stmgr-2",
        "logfile": "http://paravance-29.rennes.grid5000.fr:31006/file/log-files/container_2_Emit_random_words_2.log.0",
        "id": "container_2_Emit_random_words_2",
        "name": "Emit_random_words"
      },
      "container_1_Consume_and_count_1": {
        "stmgrId": "stmgr-1",
        "logfile": "http://paravance-20.rennes.grid5000.fr:31700/file/log-files/container_1_Consume_and_count_1.log.0",
        "id": "container_1_Consume_and_count_1",
        "name": "Consume_and_count"
      }
    },
    "instance_groups": {
      "container_1_Consume_and": [
        "container_1_Consume_and_count_1"
      ],
      "container_2_Emit_random": [
        "container_2_Emit_random_words_2"
      ]
    },
    "spouts": {
      "Emit_random_words": [
        "container_2_Emit_random_words_2"
      ]
    },
    "config": {
      "topology.message.timeout.secs": "30",
      "topology.team.environment": "devel",
      "topology.serializer.classname": "org.apache.heron.streamlet.impl.KryoSerializer",
      "topology.team.name": "root",
      "topology.debug": "false",
      "topology.max.spout.pending": "100",
      "topology.container.padding.percentage": "400",
      "topology.enable.message.timeouts": "true",
      "topology.component.parallelism": "1",
      "topology.name": "WordCountTopology",
      "topology.stmgrs": "2",
      "topology.reliability.mode": "ATMOST_ONCE"
    },
    "stmgrs": {
      "stmgr-1": {
        "cwd": "/var/lib/mesos/slaves/b3d7fd87-f60e-426d-b168-eda445be85e1-S0/frameworks/75deb08a-eb1b-415c-8b2c-e922be5f7d98-0000/executors/thermos-root-devel-WordCountTopology-1-78381fbd-ed21-488c-aceb-f3e536983582/runs/f4076562-6d8b-4d64-bdde-ef98d379f754/sandbox",
        "host": "paravance-20.rennes.grid5000.fr",
        "joburl": "http://paravance-20.rennes.grid5000.fr:31700/browse/",
        "shell_port": 31700,
        "logfiles": "http://paravance-20.rennes.grid5000.fr:31700/browse/log-files",
        "pid": 2142,
        "id": "stmgr-1",
        "instance_ids": [
          "container_1_Consume_and_count_1"
        ],
        "port": 31245
      },
      "stmgr-2": {
        "cwd": "/var/lib/mesos/slaves/b3d7fd87-f60e-426d-b168-eda445be85e1-S2/frameworks/75deb08a-eb1b-415c-8b2c-e922be5f7d98-0000/executors/thermos-root-devel-WordCountTopology-2-75458ab0-d07e-4176-925e-bed33f5eb085/runs/a1da6e9e-e6b5-479b-a428-1b47439262c0/sandbox",
        "host": "paravance-29.rennes.grid5000.fr",
        "joburl": "http://paravance-29.rennes.grid5000.fr:31006/browse/",
        "shell_port": 31006,
        "logfiles": "http://paravance-29.rennes.grid5000.fr:31006/browse/log-files",
        "pid": 2178,
        "id": "stmgr-2",
        "instance_ids": [
          "container_2_Emit_random_words_2"
        ],
        "port": 31215
      }
    }
  },
  "tracker_version": "0.17.8-61-gd7c8c62"
}