mesure_id;slave_id;executor_id;heron_instances;cpus_limit;timestamp_A;cpus_system_time_secs_A;cpus_user_time_secs_A;cpus_throttled_time_secs_A;processes;threads
0;paravance-72.rennes.grid5000.fr;thermos-root-devel-WordCountTopology-0-173863ee-acd2-4a1e-b0f4-733e8c2495ce;["topology_master"];1.25;1533812725.31684;2.54;8.48;3.684681246;9;117
0;paravance-70.rennes.grid5000.fr;thermos-root-devel-WordCountTopology-1-3780eb35-e798-4abc-b8f7-14d7a7cb6492;["container_1_Consume_and_count_1"];1.25;1533812725.01796;16.22;99.84;43.861045645;10;149
0;paravance-71.rennes.grid5000.fr;thermos-root-devel-WordCountTopology-2-9961aa52-fea9-4657-a4e9-c3977b730252;["container_2_Emit_random_words_2"];1.25;1533812725.23473;12.75;131.67;136.705574114;10;149
1;paravance-71.rennes.grid5000.fr;thermos-root-devel-WordCountTopology-2-9961aa52-fea9-4657-a4e9-c3977b730252;["container_2_Emit_random_words_2"];1.25;1533812735.45756;13.65;142.72;146.518102642;10;149
1;paravance-70.rennes.grid5000.fr;thermos-root-devel-WordCountTopology-1-3780eb35-e798-4abc-b8f7-14d7a7cb6492;["container_1_Consume_and_count_1"];1.25;1533812735.241;17.46;108.19;46.217569018;10;149
1;paravance-72.rennes.grid5000.fr;thermos-root-devel-WordCountTopology-0-173863ee-acd2-4a1e-b0f4-733e8c2495ce;["topology_master"];1.25;1533812735.53691;2.61;8.65;3.684681246;9;117
2;paravance-70.rennes.grid5000.fr;thermos-root-devel-WordCountTopology-1-3780eb35-e798-4abc-b8f7-14d7a7cb6492;["container_1_Consume_and_count_1"];1.25;1533812745.36268;18.71;116.23;47.297290287;10;149
2;paravance-71.rennes.grid5000.fr;thermos-root-devel-WordCountTopology-2-9961aa52-fea9-4657-a4e9-c3977b730252;["container_2_Emit_random_words_2"];1.25;1533812745.67895;14.59;153.72;155.499032352;10;149
2;paravance-72.rennes.grid5000.fr;thermos-root-devel-WordCountTopology-0-173863ee-acd2-4a1e-b0f4-733e8c2495ce;["topology_master"];1.25;1533812745.75291;2.7;8.77;3.684681246;9;117
3;paravance-71.rennes.grid5000.fr;thermos-root-devel-WordCountTopology-2-9961aa52-fea9-4657-a4e9-c3977b730252;["container_2_Emit_random_words_2"];1.25;1533812755.89932;15.54;164.69;163.640675201;10;149
3;paravance-72.rennes.grid5000.fr;thermos-root-devel-WordCountTopology-0-173863ee-acd2-4a1e-b0f4-733e8c2495ce;["topology_master"];1.25;1533812755.96937;2.73;8.81;3.684681246;9;117
3;paravance-70.rennes.grid5000.fr;thermos-root-devel-WordCountTopology-1-3780eb35-e798-4abc-b8f7-14d7a7cb6492;["container_1_Consume_and_count_1"];1.25;1533812755.68477;19.92;124.51;48.443675323;10;149
4;paravance-72.rennes.grid5000.fr;thermos-root-devel-WordCountTopology-0-173863ee-acd2-4a1e-b0f4-733e8c2495ce;["topology_master"];1.25;1533812766.18395;2.81;8.92;3.684681246;9;117
4;paravance-71.rennes.grid5000.fr;thermos-root-devel-WordCountTopology-2-9961aa52-fea9-4657-a4e9-c3977b730252;["container_2_Emit_random_words_2"];1.25;1533812766.12061;16.49;175.62;171.32025733;10;149
4;paravance-70.rennes.grid5000.fr;thermos-root-devel-WordCountTopology-1-3780eb35-e798-4abc-b8f7-14d7a7cb6492;["container_1_Consume_and_count_1"];1.25;1533812765.90599;21.17;132.67;50.101466758;10;149
5;paravance-70.rennes.grid5000.fr;thermos-root-devel-WordCountTopology-1-3780eb35-e798-4abc-b8f7-14d7a7cb6492;["container_1_Consume_and_count_1"];1.25;1533812776.12412;22.44;141.21;51.858538997;10;149
5;paravance-71.rennes.grid5000.fr;thermos-root-devel-WordCountTopology-2-9961aa52-fea9-4657-a4e9-c3977b730252;["container_2_Emit_random_words_2"];1.25;1533812776.3411;17.42;186.72;179.538600519;10;149
5;paravance-72.rennes.grid5000.fr;thermos-root-devel-WordCountTopology-0-173863ee-acd2-4a1e-b0f4-733e8c2495ce;["topology_master"];1.25;1533812776.39994;2.87;9.0;3.684681246;9;117
6;paravance-72.rennes.grid5000.fr;thermos-root-devel-WordCountTopology-0-173863ee-acd2-4a1e-b0f4-733e8c2495ce;["topology_master"];1.25;1533812786.62799;2.96;9.1;3.68870506;9;117
6;paravance-71.rennes.grid5000.fr;thermos-root-devel-WordCountTopology-2-9961aa52-fea9-4657-a4e9-c3977b730252;["container_2_Emit_random_words_2"];1.25;1533812786.57788;18.32;197.79;188.422424801;10;149
6;paravance-70.rennes.grid5000.fr;thermos-root-devel-WordCountTopology-1-3780eb35-e798-4abc-b8f7-14d7a7cb6492;["container_1_Consume_and_count_1"];1.25;1533812786.36425;23.72;149.54;53.366954838;10;149
7;paravance-72.rennes.grid5000.fr;thermos-root-devel-WordCountTopology-0-173863ee-acd2-4a1e-b0f4-733e8c2495ce;["topology_master"];1.25;1533812796.74862;3.03;9.27;3.68870506;9;117
7;paravance-70.rennes.grid5000.fr;thermos-root-devel-WordCountTopology-1-3780eb35-e798-4abc-b8f7-14d7a7cb6492;["container_1_Consume_and_count_1"];1.25;1533812796.58425;24.99;157.97;55.339501008;10;149
7;paravance-71.rennes.grid5000.fr;thermos-root-devel-WordCountTopology-2-9961aa52-fea9-4657-a4e9-c3977b730252;["container_2_Emit_random_words_2"];1.25;1533812796.80131;19.25;208.74;197.464261051;10;149
8;paravance-71.rennes.grid5000.fr;thermos-root-devel-WordCountTopology-2-9961aa52-fea9-4657-a4e9-c3977b730252;["container_2_Emit_random_words_2"];1.25;1533812807.02175;20.18;219.81;206.659031835;10;149
8;paravance-72.rennes.grid5000.fr;thermos-root-devel-WordCountTopology-0-173863ee-acd2-4a1e-b0f4-733e8c2495ce;["topology_master"];1.25;1533812807.06522;3.12;9.4;3.68870506;9;117
8;paravance-70.rennes.grid5000.fr;thermos-root-devel-WordCountTopology-1-3780eb35-e798-4abc-b8f7-14d7a7cb6492;["container_1_Consume_and_count_1"];1.25;1533812806.80763;26.27;166.59;57.583120451;10;149
9;paravance-71.rennes.grid5000.fr;thermos-root-devel-WordCountTopology-2-9961aa52-fea9-4657-a4e9-c3977b730252;["container_2_Emit_random_words_2"];1.25;1533812817.24375;21.06;230.95;214.369258596;10;149
9;paravance-72.rennes.grid5000.fr;thermos-root-devel-WordCountTopology-0-173863ee-acd2-4a1e-b0f4-733e8c2495ce;["topology_master"];1.25;1533812817.28174;3.14;9.43;3.68870506;9;117
9;paravance-70.rennes.grid5000.fr;thermos-root-devel-WordCountTopology-1-3780eb35-e798-4abc-b8f7-14d7a7cb6492;["container_1_Consume_and_count_1"];1.25;1533812817.02659;27.53;174.98;58.684524946;10;149
10;paravance-70.rennes.grid5000.fr;thermos-root-devel-WordCountTopology-1-3780eb35-e798-4abc-b8f7-14d7a7cb6492;["container_1_Consume_and_count_1"];1.25;1533812827.24946;28.79;183.18;60.72707705;10;149
10;paravance-71.rennes.grid5000.fr;thermos-root-devel-WordCountTopology-2-9961aa52-fea9-4657-a4e9-c3977b730252;["container_2_Emit_random_words_2"];1.25;1533812827.46613;22.01;241.89;222.97727852;10;149
10;paravance-72.rennes.grid5000.fr;thermos-root-devel-WordCountTopology-0-173863ee-acd2-4a1e-b0f4-733e8c2495ce;["topology_master"];1.25;1533812827.49866;3.23;9.55;3.68870506;9;117
11;paravance-71.rennes.grid5000.fr;thermos-root-devel-WordCountTopology-2-9961aa52-fea9-4657-a4e9-c3977b730252;["container_2_Emit_random_words_2"];1.25;1533812837.68675;22.96;252.85;232.891756103;10;149
11;paravance-72.rennes.grid5000.fr;thermos-root-devel-WordCountTopology-0-173863ee-acd2-4a1e-b0f4-733e8c2495ce;["topology_master"];1.25;1533812837.71447;3.29;9.62;3.68870506;9;117
11;paravance-70.rennes.grid5000.fr;thermos-root-devel-WordCountTopology-1-3780eb35-e798-4abc-b8f7-14d7a7cb6492;["container_1_Consume_and_count_1"];1.25;1533812837.47098;30.06;191.59;61.859809581;10;149
12;paravance-72.rennes.grid5000.fr;thermos-root-devel-WordCountTopology-0-173863ee-acd2-4a1e-b0f4-733e8c2495ce;["topology_master"];1.25;1533812847.92832;3.41;9.77;3.68872609;9;117
12;paravance-71.rennes.grid5000.fr;thermos-root-devel-WordCountTopology-2-9961aa52-fea9-4657-a4e9-c3977b730252;["container_2_Emit_random_words_2"];1.25;1533812847.90548;23.93;263.83;241.618663242;10;149
12;paravance-70.rennes.grid5000.fr;thermos-root-devel-WordCountTopology-1-3780eb35-e798-4abc-b8f7-14d7a7cb6492;["container_1_Consume_and_count_1"];1.25;1533812847.68984;31.37;200.01;63.333323567;10;149
13;paravance-71.rennes.grid5000.fr;thermos-root-devel-WordCountTopology-2-9961aa52-fea9-4657-a4e9-c3977b730252;["container_2_Emit_random_words_2"];1.25;1533812858.12783;24.82;275.07;250.530143076;10;149
13;paravance-70.rennes.grid5000.fr;thermos-root-devel-WordCountTopology-1-3780eb35-e798-4abc-b8f7-14d7a7cb6492;["container_1_Consume_and_count_1"];1.25;1533812857.91141;32.63;208.27;64.795793033;10;149
13;paravance-72.rennes.grid5000.fr;thermos-root-devel-WordCountTopology-0-173863ee-acd2-4a1e-b0f4-733e8c2495ce;["topology_master"];1.25;1533812858.14558;3.44;9.86;3.68872609;9;117
14;paravance-71.rennes.grid5000.fr;thermos-root-devel-WordCountTopology-2-9961aa52-fea9-4657-a4e9-c3977b730252;["container_2_Emit_random_words_2"];1.25;1533812868.34787;25.73;286.12;259.652425999;10;149
14;paravance-72.rennes.grid5000.fr;thermos-root-devel-WordCountTopology-0-173863ee-acd2-4a1e-b0f4-733e8c2495ce;["topology_master"];1.25;1533812868.36122;3.53;9.98;3.68872609;9;117
14;paravance-70.rennes.grid5000.fr;thermos-root-devel-WordCountTopology-1-3780eb35-e798-4abc-b8f7-14d7a7cb6492;["container_1_Consume_and_count_1"];1.25;1533812868.13205;33.89;216.34;65.97962144;10;149
15;paravance-70.rennes.grid5000.fr;thermos-root-devel-WordCountTopology-1-3780eb35-e798-4abc-b8f7-14d7a7cb6492;["container_1_Consume_and_count_1"];1.25;1533812878.35284;35.12;224.63;66.979213546;10;149
15;paravance-71.rennes.grid5000.fr;thermos-root-devel-WordCountTopology-2-9961aa52-fea9-4657-a4e9-c3977b730252;["container_2_Emit_random_words_2"];1.25;1533812878.56965;26.61;297.11;267.19270756;10;149
15;paravance-72.rennes.grid5000.fr;thermos-root-devel-WordCountTopology-0-173863ee-acd2-4a1e-b0f4-733e8c2495ce;["topology_master"];1.25;1533812878.57725;3.59;10.06;3.68872609;9;117
16;paravance-72.rennes.grid5000.fr;thermos-root-devel-WordCountTopology-0-173863ee-acd2-4a1e-b0f4-733e8c2495ce;["topology_master"];1.25;1533812888.69414;3.64;10.13;3.68872609;9;117
16;paravance-70.rennes.grid5000.fr;thermos-root-devel-WordCountTopology-1-3780eb35-e798-4abc-b8f7-14d7a7cb6492;["container_1_Consume_and_count_1"];1.25;1533812888.57447;36.4;233.02;68.852454639;10;149
16;paravance-71.rennes.grid5000.fr;thermos-root-devel-WordCountTopology-2-9961aa52-fea9-4657-a4e9-c3977b730252;["container_2_Emit_random_words_2"];1.25;1533812888.79096;27.54;308.09;276.551748348;10;149
17;paravance-72.rennes.grid5000.fr;thermos-root-devel-WordCountTopology-0-173863ee-acd2-4a1e-b0f4-733e8c2495ce;["topology_master"];1.25;1533812899.00928;3.7;10.21;3.68872609;9;117
17;paravance-71.rennes.grid5000.fr;thermos-root-devel-WordCountTopology-2-9961aa52-fea9-4657-a4e9-c3977b730252;["container_2_Emit_random_words_2"];1.25;1533812899.01091;28.43;319.08;285.230601328;10;149
17;paravance-70.rennes.grid5000.fr;thermos-root-devel-WordCountTopology-1-3780eb35-e798-4abc-b8f7-14d7a7cb6492;["container_1_Consume_and_count_1"];1.25;1533812898.79642;37.69;241.72;70.35761083;10;149
18;paravance-71.rennes.grid5000.fr;thermos-root-devel-WordCountTopology-2-9961aa52-fea9-4657-a4e9-c3977b730252;["container_2_Emit_random_words_2"];1.25;1533812909.23231;29.33;330.06;293.475786446;10;149
18;paravance-72.rennes.grid5000.fr;thermos-root-devel-WordCountTopology-0-173863ee-acd2-4a1e-b0f4-733e8c2495ce;["topology_master"];1.25;1533812909.22241;3.83;10.52;3.692754132;9;117
18;paravance-70.rennes.grid5000.fr;thermos-root-devel-WordCountTopology-1-3780eb35-e798-4abc-b8f7-14d7a7cb6492;["container_1_Consume_and_count_1"];1.25;1533812909.01658;39.04;250.38;71.962749091;10;149
19;paravance-70.rennes.grid5000.fr;thermos-root-devel-WordCountTopology-1-3780eb35-e798-4abc-b8f7-14d7a7cb6492;["container_1_Consume_and_count_1"];1.25;1533812919.23618;40.26;258.69;73.244049556;10;149
19;paravance-72.rennes.grid5000.fr;thermos-root-devel-WordCountTopology-0-173863ee-acd2-4a1e-b0f4-733e8c2495ce;["topology_master"];1.25;1533812919.44041;3.86;10.55;3.692754132;9;117
19;paravance-71.rennes.grid5000.fr;thermos-root-devel-WordCountTopology-2-9961aa52-fea9-4657-a4e9-c3977b730252;["container_2_Emit_random_words_2"];1.25;1533812919.45249;30.24;340.97;302.183192991;10;149
20;paravance-72.rennes.grid5000.fr;thermos-root-devel-WordCountTopology-0-173863ee-acd2-4a1e-b0f4-733e8c2495ce;["topology_master"];1.25;1533812929.65576;3.95;10.68;3.692754132;9;117
20;paravance-70.rennes.grid5000.fr;thermos-root-devel-WordCountTopology-1-3780eb35-e798-4abc-b8f7-14d7a7cb6492;["container_1_Consume_and_count_1"];1.25;1533812929.45714;41.58;267.29;74.479888309;10;149
20;paravance-71.rennes.grid5000.fr;thermos-root-devel-WordCountTopology-2-9961aa52-fea9-4657-a4e9-c3977b730252;["container_2_Emit_random_words_2"];1.25;1533812929.67386;31.13;352.04;310.835352859;10;149
21;paravance-70.rennes.grid5000.fr;thermos-root-devel-WordCountTopology-1-3780eb35-e798-4abc-b8f7-14d7a7cb6492;["container_1_Consume_and_count_1"];1.25;1533812939.67848;42.9;276.07;75.664324069;10;149
21;paravance-71.rennes.grid5000.fr;thermos-root-devel-WordCountTopology-2-9961aa52-fea9-4657-a4e9-c3977b730252;["container_2_Emit_random_words_2"];1.25;1533812939.89474;32.0;363.25;319.537944027;10;149
21;paravance-72.rennes.grid5000.fr;thermos-root-devel-WordCountTopology-0-173863ee-acd2-4a1e-b0f4-733e8c2495ce;["topology_master"];1.25;1533812939.8722;4.0;10.75;3.692754132;9;117
22;paravance-72.rennes.grid5000.fr;thermos-root-devel-WordCountTopology-0-173863ee-acd2-4a1e-b0f4-733e8c2495ce;["topology_master"];1.25;1533812950.08976;4.06;10.83;3.692754132;9;117
22;paravance-71.rennes.grid5000.fr;thermos-root-devel-WordCountTopology-2-9961aa52-fea9-4657-a4e9-c3977b730252;["container_2_Emit_random_words_2"];1.25;1533812950.1169;32.91;374.29;327.779347796;10;149
22;paravance-70.rennes.grid5000.fr;thermos-root-devel-WordCountTopology-1-3780eb35-e798-4abc-b8f7-14d7a7cb6492;["container_1_Consume_and_count_1"];1.25;1533812949.90027;44.2;284.55;77.076163192;10;149
23;paravance-71.rennes.grid5000.fr;thermos-root-devel-WordCountTopology-2-9961aa52-fea9-4657-a4e9-c3977b730252;["container_2_Emit_random_words_2"];1.25;1533812960.33842;33.78;385.26;336.170303199;10;149
23;paravance-70.rennes.grid5000.fr;thermos-root-devel-WordCountTopology-1-3780eb35-e798-4abc-b8f7-14d7a7cb6492;["container_1_Consume_and_count_1"];1.25;1533812960.12236;45.48;293.17;78.58683222;10;149
23;paravance-72.rennes.grid5000.fr;thermos-root-devel-WordCountTopology-0-173863ee-acd2-4a1e-b0f4-733e8c2495ce;["topology_master"];1.25;1533812960.30592;4.12;10.9;3.692754132;9;117
24;paravance-72.rennes.grid5000.fr;thermos-root-devel-WordCountTopology-0-173863ee-acd2-4a1e-b0f4-733e8c2495ce;["topology_master"];1.25;1533812970.52018;4.23;11.08;3.692754132;9;117
24;paravance-71.rennes.grid5000.fr;thermos-root-devel-WordCountTopology-2-9961aa52-fea9-4657-a4e9-c3977b730252;["container_2_Emit_random_words_2"];1.25;1533812970.55899;34.68;396.26;344.551391089;10;149
24;paravance-70.rennes.grid5000.fr;thermos-root-devel-WordCountTopology-1-3780eb35-e798-4abc-b8f7-14d7a7cb6492;["container_1_Consume_and_count_1"];1.25;1533812970.34434;46.81;301.82;80.193870888;10;149
25;paravance-70.rennes.grid5000.fr;thermos-root-devel-WordCountTopology-1-3780eb35-e798-4abc-b8f7-14d7a7cb6492;["container_1_Consume_and_count_1"];1.25;1533812980.56441;48.06;310.35;81.602777276;10;149
25;paravance-71.rennes.grid5000.fr;thermos-root-devel-WordCountTopology-2-9961aa52-fea9-4657-a4e9-c3977b730252;["container_2_Emit_random_words_2"];1.25;1533812980.77995;35.57;407.27;352.24834401;10;149
25;paravance-72.rennes.grid5000.fr;thermos-root-devel-WordCountTopology-0-173863ee-acd2-4a1e-b0f4-733e8c2495ce;["topology_master"];1.25;1533812980.73751;4.26;11.1;3.692754132;9;117
26;paravance-70.rennes.grid5000.fr;thermos-root-devel-WordCountTopology-1-3780eb35-e798-4abc-b8f7-14d7a7cb6492;["container_1_Consume_and_count_1"];1.25;1533812990.78501;49.36;318.69;82.447672723;10;149
26;paravance-72.rennes.grid5000.fr;thermos-root-devel-WordCountTopology-0-173863ee-acd2-4a1e-b0f4-733e8c2495ce;["topology_master"];1.25;1533812990.95371;4.34;11.22;3.692754132;9;117
26;paravance-71.rennes.grid5000.fr;thermos-root-devel-WordCountTopology-2-9961aa52-fea9-4657-a4e9-c3977b730252;["container_2_Emit_random_words_2"];1.25;1533812991.00182;36.57;418.22;361.084704196;10;149
27;paravance-71.rennes.grid5000.fr;thermos-root-devel-WordCountTopology-2-9961aa52-fea9-4657-a4e9-c3977b730252;["container_2_Emit_random_words_2"];1.25;1533813001.22242;37.54;429.25;369.222577035;10;149
27;paravance-70.rennes.grid5000.fr;thermos-root-devel-WordCountTopology-1-3780eb35-e798-4abc-b8f7-14d7a7cb6492;["container_1_Consume_and_count_1"];1.25;1533813001.00706;50.66;327.26;83.400921795;10;149
27;paravance-72.rennes.grid5000.fr;thermos-root-devel-WordCountTopology-0-173863ee-acd2-4a1e-b0f4-733e8c2495ce;["topology_master"];1.25;1533813001.16897;4.39;11.28;3.692754132;9;117
28;paravance-70.rennes.grid5000.fr;thermos-root-devel-WordCountTopology-1-3780eb35-e798-4abc-b8f7-14d7a7cb6492;["container_1_Consume_and_count_1"];1.25;1533813011.22828;51.9;335.55;84.586965978;10;149
28;paravance-71.rennes.grid5000.fr;thermos-root-devel-WordCountTopology-2-9961aa52-fea9-4657-a4e9-c3977b730252;["container_2_Emit_random_words_2"];1.25;1533813011.44403;38.49;440.21;377.872783983;10;149
28;paravance-72.rennes.grid5000.fr;thermos-root-devel-WordCountTopology-0-173863ee-acd2-4a1e-b0f4-733e8c2495ce;["topology_master"];1.25;1533813011.38605;4.45;11.36;3.692754132;9;117
29;paravance-72.rennes.grid5000.fr;thermos-root-devel-WordCountTopology-0-173863ee-acd2-4a1e-b0f4-733e8c2495ce;["topology_master"];1.25;1533813021.50177;4.51;11.43;3.692754132;9;117
29;paravance-70.rennes.grid5000.fr;thermos-root-devel-WordCountTopology-1-3780eb35-e798-4abc-b8f7-14d7a7cb6492;["container_1_Consume_and_count_1"];1.25;1533813021.44958;53.19;344.28;85.478799547;10;149
29;paravance-71.rennes.grid5000.fr;thermos-root-devel-WordCountTopology-2-9961aa52-fea9-4657-a4e9-c3977b730252;["container_2_Emit_random_words_2"];1.25;1533813021.66182;39.45;451.19;386.204613362;10;149
30;paravance-72.rennes.grid5000.fr;thermos-root-devel-WordCountTopology-0-173863ee-acd2-4a1e-b0f4-733e8c2495ce;["topology_master"];1.25;1533813031.81547;4.62;11.6;3.692754132;9;117
30;paravance-71.rennes.grid5000.fr;thermos-root-devel-WordCountTopology-2-9961aa52-fea9-4657-a4e9-c3977b730252;["container_2_Emit_random_words_2"];1.25;1533813031.87633;40.4;462.14;395.686816618;10;149
30;paravance-70.rennes.grid5000.fr;thermos-root-devel-WordCountTopology-1-3780eb35-e798-4abc-b8f7-14d7a7cb6492;["container_1_Consume_and_count_1"];1.25;1533813031.6702;54.43;352.37;86.820267227;10;149
31;paravance-71.rennes.grid5000.fr;thermos-root-devel-WordCountTopology-2-9961aa52-fea9-4657-a4e9-c3977b730252;["container_2_Emit_random_words_2"];1.25;1533813042.09191;41.26;473.21;404.280354722;10;149
31;paravance-70.rennes.grid5000.fr;thermos-root-devel-WordCountTopology-1-3780eb35-e798-4abc-b8f7-14d7a7cb6492;["container_1_Consume_and_count_1"];1.25;1533813041.89095;55.64;360.72;87.501149853;10;149
31;paravance-72.rennes.grid5000.fr;thermos-root-devel-WordCountTopology-0-173863ee-acd2-4a1e-b0f4-733e8c2495ce;["topology_master"];1.25;1533813042.03108;4.65;11.63;3.692754132;9;117
32;paravance-70.rennes.grid5000.fr;thermos-root-devel-WordCountTopology-1-3780eb35-e798-4abc-b8f7-14d7a7cb6492;["container_1_Consume_and_count_1"];1.25;1533813052.01157;56.92;369.17;88.331399591;10;149
32;paravance-71.rennes.grid5000.fr;thermos-root-devel-WordCountTopology-2-9961aa52-fea9-4657-a4e9-c3977b730252;["container_2_Emit_random_words_2"];1.25;1533813052.30762;42.22;484.32;413.401129206;10;149
32;paravance-72.rennes.grid5000.fr;thermos-root-devel-WordCountTopology-0-173863ee-acd2-4a1e-b0f4-733e8c2495ce;["topology_master"];1.25;1533813052.24837;4.74;11.75;3.692754132;9;117
33;paravance-70.rennes.grid5000.fr;thermos-root-devel-WordCountTopology-1-3780eb35-e798-4abc-b8f7-14d7a7cb6492;["container_1_Consume_and_count_1"];1.25;1533813062.33153;58.21;377.62;88.899825064;10;149
33;paravance-72.rennes.grid5000.fr;thermos-root-devel-WordCountTopology-0-173863ee-acd2-4a1e-b0f4-733e8c2495ce;["topology_master"];1.25;1533813062.46356;4.82;11.86;3.692754132;9;117
33;paravance-71.rennes.grid5000.fr;thermos-root-devel-WordCountTopology-2-9961aa52-fea9-4657-a4e9-c3977b730252;["container_2_Emit_random_words_2"];1.25;1533813062.52385;43.13;495.39;422.574783866;10;149
34;paravance-71.rennes.grid5000.fr;thermos-root-devel-WordCountTopology-2-9961aa52-fea9-4657-a4e9-c3977b730252;["container_2_Emit_random_words_2"];1.25;1533813072.73878;43.98;506.46;432.510362798;10;149
34;paravance-72.rennes.grid5000.fr;thermos-root-devel-WordCountTopology-0-173863ee-acd2-4a1e-b0f4-733e8c2495ce;["topology_master"];1.25;1533813072.67964;4.85;11.89;3.692754132;9;117
34;paravance-70.rennes.grid5000.fr;thermos-root-devel-WordCountTopology-1-3780eb35-e798-4abc-b8f7-14d7a7cb6492;["container_1_Consume_and_count_1"];1.25;1533813072.55539;59.39;385.81;89.427220457;10;149
35;paravance-72.rennes.grid5000.fr;thermos-root-devel-WordCountTopology-0-173863ee-acd2-4a1e-b0f4-733e8c2495ce;["topology_master"];1.25;1533813082.79878;4.95;12.02;3.692754132;9;117
35;paravance-71.rennes.grid5000.fr;thermos-root-devel-WordCountTopology-2-9961aa52-fea9-4657-a4e9-c3977b730252;["container_2_Emit_random_words_2"];1.25;1533813082.95691;44.87;517.57;442.407962273;10;149
35;paravance-70.rennes.grid5000.fr;thermos-root-devel-WordCountTopology-1-3780eb35-e798-4abc-b8f7-14d7a7cb6492;["container_1_Consume_and_count_1"];1.25;1533813082.77777;60.64;394.02;90.141289813;10;149
36;paravance-72.rennes.grid5000.fr;thermos-root-devel-WordCountTopology-0-173863ee-acd2-4a1e-b0f4-733e8c2495ce;["topology_master"];1.25;1533813093.11106;5.01;12.18;3.692754132;9;117
36;paravance-71.rennes.grid5000.fr;thermos-root-devel-WordCountTopology-2-9961aa52-fea9-4657-a4e9-c3977b730252;["container_2_Emit_random_words_2"];1.25;1533813093.17397;45.78;528.76;451.458010375;10;149
36;paravance-70.rennes.grid5000.fr;thermos-root-devel-WordCountTopology-1-3780eb35-e798-4abc-b8f7-14d7a7cb6492;["container_1_Consume_and_count_1"];1.25;1533813092.99754;61.9;402.54;90.948407905;10;149
37;paravance-70.rennes.grid5000.fr;thermos-root-devel-WordCountTopology-1-3780eb35-e798-4abc-b8f7-14d7a7cb6492;["container_1_Consume_and_count_1"];1.25;1533813103.21803;63.19;411.09;91.960591697;10;149
37;paravance-71.rennes.grid5000.fr;thermos-root-devel-WordCountTopology-2-9961aa52-fea9-4657-a4e9-c3977b730252;["container_2_Emit_random_words_2"];1.25;1533813103.38808;46.7;540.04;460.183217629;10;149
37;paravance-72.rennes.grid5000.fr;thermos-root-devel-WordCountTopology-0-173863ee-acd2-4a1e-b0f4-733e8c2495ce;["topology_master"];1.25;1533813103.32837;5.07;12.26;3.692754132;9;117
38;paravance-71.rennes.grid5000.fr;thermos-root-devel-WordCountTopology-2-9961aa52-fea9-4657-a4e9-c3977b730252;["container_2_Emit_random_words_2"];1.25;1533813113.60331;47.56;551.18;469.466939263;10;149
38;paravance-70.rennes.grid5000.fr;thermos-root-devel-WordCountTopology-1-3780eb35-e798-4abc-b8f7-14d7a7cb6492;["container_1_Consume_and_count_1"];1.25;1533813113.43885;64.41;419.29;92.619394586;10;149
38;paravance-72.rennes.grid5000.fr;thermos-root-devel-WordCountTopology-0-173863ee-acd2-4a1e-b0f4-733e8c2495ce;["topology_master"];1.25;1533813113.54375;5.13;12.33;3.692754132;9;117
39;paravance-71.rennes.grid5000.fr;thermos-root-devel-WordCountTopology-2-9961aa52-fea9-4657-a4e9-c3977b730252;["container_2_Emit_random_words_2"];1.25;1533813123.81836;48.47;562.24;478.649614092;10;149
39;paravance-70.rennes.grid5000.fr;thermos-root-devel-WordCountTopology-1-3780eb35-e798-4abc-b8f7-14d7a7cb6492;["container_1_Consume_and_count_1"];1.25;1533813123.65799;65.66;427.54;93.586915831;10;149
39;paravance-72.rennes.grid5000.fr;thermos-root-devel-WordCountTopology-0-173863ee-acd2-4a1e-b0f4-733e8c2495ce;["topology_master"];1.25;1533813123.75883;5.21;12.45;3.692754132;9;117
40;paravance-72.rennes.grid5000.fr;thermos-root-devel-WordCountTopology-0-173863ee-acd2-4a1e-b0f4-733e8c2495ce;["topology_master"];1.25;1533813133.97388;5.24;12.47;3.692754132;9;117
40;paravance-71.rennes.grid5000.fr;thermos-root-devel-WordCountTopology-2-9961aa52-fea9-4657-a4e9-c3977b730252;["container_2_Emit_random_words_2"];1.25;1533813134.03346;49.37;573.32;487.570828731;10;149
40;paravance-70.rennes.grid5000.fr;thermos-root-devel-WordCountTopology-1-3780eb35-e798-4abc-b8f7-14d7a7cb6492;["container_1_Consume_and_count_1"];1.25;1533813133.91225;66.9;436.03;94.52029879;10;149
41;paravance-71.rennes.grid5000.fr;thermos-root-devel-WordCountTopology-2-9961aa52-fea9-4657-a4e9-c3977b730252;["container_2_Emit_random_words_2"];1.25;1533813144.28076;50.33;584.34;496.910566632;10;149
41;paravance-70.rennes.grid5000.fr;thermos-root-devel-WordCountTopology-1-3780eb35-e798-4abc-b8f7-14d7a7cb6492;["container_1_Consume_and_count_1"];1.25;1533813144.1317;68.24;444.86;96.610687822;10;149
41;paravance-72.rennes.grid5000.fr;thermos-root-devel-WordCountTopology-0-173863ee-acd2-4a1e-b0f4-733e8c2495ce;["topology_master"];1.25;1533813144.22289;5.34;12.61;3.692754132;9;117
42;paravance-72.rennes.grid5000.fr;thermos-root-devel-WordCountTopology-0-173863ee-acd2-4a1e-b0f4-733e8c2495ce;["topology_master"];1.25;1533813154.43756;5.4;12.75;3.692754132;9;117
42;paravance-71.rennes.grid5000.fr;thermos-root-devel-WordCountTopology-2-9961aa52-fea9-4657-a4e9-c3977b730252;["container_2_Emit_random_words_2"];1.25;1533813154.49677;51.25;595.35;507.595077179;10;149
42;paravance-70.rennes.grid5000.fr;thermos-root-devel-WordCountTopology-1-3780eb35-e798-4abc-b8f7-14d7a7cb6492;["container_1_Consume_and_count_1"];1.25;1533813154.35396;69.67;454.49;100.470387756;10;149
43;paravance-72.rennes.grid5000.fr;thermos-root-devel-WordCountTopology-0-173863ee-acd2-4a1e-b0f4-733e8c2495ce;["topology_master"];1.25;1533813164.65333;5.46;12.82;3.692754132;9;117
43;paravance-71.rennes.grid5000.fr;thermos-root-devel-WordCountTopology-2-9961aa52-fea9-4657-a4e9-c3977b730252;["container_2_Emit_random_words_2"];1.25;1533813164.71417;52.18;606.41;517.19951268;10;149
43;paravance-70.rennes.grid5000.fr;thermos-root-devel-WordCountTopology-1-3780eb35-e798-4abc-b8f7-14d7a7cb6492;["container_1_Consume_and_count_1"];1.25;1533813164.57529;71.12;464.17;102.987840503;10;149
44;paravance-70.rennes.grid5000.fr;thermos-root-devel-WordCountTopology-1-3780eb35-e798-4abc-b8f7-14d7a7cb6492;["container_1_Consume_and_count_1"];1.25;1533813174.79525;72.4;472.85;104.797215149;10;149
44;paravance-72.rennes.grid5000.fr;thermos-root-devel-WordCountTopology-0-173863ee-acd2-4a1e-b0f4-733e8c2495ce;["topology_master"];1.25;1533813174.87029;5.52;12.89;3.692754132;9;117
44;paravance-71.rennes.grid5000.fr;thermos-root-devel-WordCountTopology-2-9961aa52-fea9-4657-a4e9-c3977b730252;["container_2_Emit_random_words_2"];1.25;1533813174.92961;53.1;617.47;526.032129932;10;149
45;paravance-72.rennes.grid5000.fr;thermos-root-devel-WordCountTopology-0-173863ee-acd2-4a1e-b0f4-733e8c2495ce;["topology_master"];1.25;1533813185.08635;5.6;13.01;3.692754132;9;117
45;paravance-71.rennes.grid5000.fr;thermos-root-devel-WordCountTopology-2-9961aa52-fea9-4657-a4e9-c3977b730252;["container_2_Emit_random_words_2"];1.25;1533813185.14566;54.04;628.46;535.200590297;10;149
45;paravance-70.rennes.grid5000.fr;thermos-root-devel-WordCountTopology-1-3780eb35-e798-4abc-b8f7-14d7a7cb6492;["container_1_Consume_and_count_1"];1.25;1533813185.01681;73.71;481.62;107.5935714;10;149
46;paravance-72.rennes.grid5000.fr;thermos-root-devel-WordCountTopology-0-173863ee-acd2-4a1e-b0f4-733e8c2495ce;["topology_master"];1.25;1533813195.30298;5.66;13.08;3.692754132;9;117
46;paravance-71.rennes.grid5000.fr;thermos-root-devel-WordCountTopology-2-9961aa52-fea9-4657-a4e9-c3977b730252;["container_2_Emit_random_words_2"];1.25;1533813195.36333;54.92;639.56;543.765245282;10;149
46;paravance-70.rennes.grid5000.fr;thermos-root-devel-WordCountTopology-1-3780eb35-e798-4abc-b8f7-14d7a7cb6492;["container_1_Consume_and_count_1"];1.25;1533813195.23963;74.98;490.25;110.080252543;10;149
47;paravance-71.rennes.grid5000.fr;thermos-root-devel-WordCountTopology-2-9961aa52-fea9-4657-a4e9-c3977b730252;["container_2_Emit_random_words_2"];1.25;1533813205.5793;55.89;650.58;553.859656799;10;149
47;paravance-70.rennes.grid5000.fr;thermos-root-devel-WordCountTopology-1-3780eb35-e798-4abc-b8f7-14d7a7cb6492;["container_1_Consume_and_count_1"];1.25;1533813205.46031;76.39;499.38;112.778555205;10;149
47;paravance-72.rennes.grid5000.fr;thermos-root-devel-WordCountTopology-0-173863ee-acd2-4a1e-b0f4-733e8c2495ce;["topology_master"];1.25;1533813205.52079;5.73;13.16;3.692754132;9;117
48;paravance-70.rennes.grid5000.fr;thermos-root-devel-WordCountTopology-1-3780eb35-e798-4abc-b8f7-14d7a7cb6492;["container_1_Consume_and_count_1"];1.25;1533813215.68084;77.69;508.15;114.941353802;10;149
48;paravance-72.rennes.grid5000.fr;thermos-root-devel-WordCountTopology-0-173863ee-acd2-4a1e-b0f4-733e8c2495ce;["topology_master"];1.25;1533813215.73502;5.79;13.3;3.692754132;9;117
48;paravance-71.rennes.grid5000.fr;thermos-root-devel-WordCountTopology-2-9961aa52-fea9-4657-a4e9-c3977b730252;["container_2_Emit_random_words_2"];1.25;1533813215.79585;56.78;661.75;562.970200253;10;149
49;paravance-71.rennes.grid5000.fr;thermos-root-devel-WordCountTopology-2-9961aa52-fea9-4657-a4e9-c3977b730252;["container_2_Emit_random_words_2"];1.25;1533813226.01062;57.71;672.92;571.60372782;10;149
49;paravance-70.rennes.grid5000.fr;thermos-root-devel-WordCountTopology-1-3780eb35-e798-4abc-b8f7-14d7a7cb6492;["container_1_Consume_and_count_1"];1.25;1533813225.90219;78.99;516.94;116.064681943;10;149
49;paravance-72.rennes.grid5000.fr;thermos-root-devel-WordCountTopology-0-173863ee-acd2-4a1e-b0f4-733e8c2495ce;["topology_master"];1.25;1533813225.95139;5.87;13.41;3.692754132;9;117
50;paravance-71.rennes.grid5000.fr;thermos-root-devel-WordCountTopology-2-9961aa52-fea9-4657-a4e9-c3977b730252;["container_2_Emit_random_words_2"];1.25;1533813236.22716;58.65;683.86;580.329779489;10;149
50;paravance-70.rennes.grid5000.fr;thermos-root-devel-WordCountTopology-1-3780eb35-e798-4abc-b8f7-14d7a7cb6492;["container_1_Consume_and_count_1"];1.25;1533813236.12374;80.29;525.59;116.851012738;10;149
50;paravance-72.rennes.grid5000.fr;thermos-root-devel-WordCountTopology-0-173863ee-acd2-4a1e-b0f4-733e8c2495ce;["topology_master"];1.25;1533813236.16768;5.9;13.44;3.692754132;9;117
51;paravance-71.rennes.grid5000.fr;thermos-root-devel-WordCountTopology-2-9961aa52-fea9-4657-a4e9-c3977b730252;["container_2_Emit_random_words_2"];1.25;1533813246.44222;59.6;694.82;589.79347696;10;149
51;paravance-72.rennes.grid5000.fr;thermos-root-devel-WordCountTopology-0-173863ee-acd2-4a1e-b0f4-733e8c2495ce;["topology_master"];1.25;1533813246.38486;5.99;13.57;3.692754132;9;117
51;paravance-70.rennes.grid5000.fr;thermos-root-devel-WordCountTopology-1-3780eb35-e798-4abc-b8f7-14d7a7cb6492;["container_1_Consume_and_count_1"];1.25;1533813246.34604;81.61;534.42;117.978729132;10;149
52;paravance-70.rennes.grid5000.fr;thermos-root-devel-WordCountTopology-1-3780eb35-e798-4abc-b8f7-14d7a7cb6492;["container_1_Consume_and_count_1"];1.25;1533813256.56683;82.87;543.06;118.566586811;10;149
52;paravance-71.rennes.grid5000.fr;thermos-root-devel-WordCountTopology-2-9961aa52-fea9-4657-a4e9-c3977b730252;["container_2_Emit_random_words_2"];1.25;1533813256.66024;60.5;705.84;598.526882062;10;149
52;paravance-72.rennes.grid5000.fr;thermos-root-devel-WordCountTopology-0-173863ee-acd2-4a1e-b0f4-733e8c2495ce;["topology_master"];1.25;1533813256.6011;6.04;13.64;3.692754132;9;117
53;paravance-72.rennes.grid5000.fr;thermos-root-devel-WordCountTopology-0-173863ee-acd2-4a1e-b0f4-733e8c2495ce;["topology_master"];1.25;1533813266.81632;6.11;13.73;3.692754132;9;117
53;paravance-70.rennes.grid5000.fr;thermos-root-devel-WordCountTopology-1-3780eb35-e798-4abc-b8f7-14d7a7cb6492;["container_1_Consume_and_count_1"];1.25;1533813266.78933;84.18;551.59;119.334695529;10;149
53;paravance-71.rennes.grid5000.fr;thermos-root-devel-WordCountTopology-2-9961aa52-fea9-4657-a4e9-c3977b730252;["container_2_Emit_random_words_2"];1.25;1533813266.87594;61.44;716.85;607.88781417;10;149
54;paravance-72.rennes.grid5000.fr;thermos-root-devel-WordCountTopology-0-173863ee-acd2-4a1e-b0f4-733e8c2495ce;["topology_master"];1.25;1533813277.03233;6.17;13.84;3.692754132;9;117
54;paravance-71.rennes.grid5000.fr;thermos-root-devel-WordCountTopology-2-9961aa52-fea9-4657-a4e9-c3977b730252;["container_2_Emit_random_words_2"];1.25;1533813277.09206;62.35;727.87;616.685055725;10;149
54;paravance-70.rennes.grid5000.fr;thermos-root-devel-WordCountTopology-1-3780eb35-e798-4abc-b8f7-14d7a7cb6492;["container_1_Consume_and_count_1"];1.25;1533813277.01036;85.46;560.21;120.045718945;10;149
55;paravance-70.rennes.grid5000.fr;thermos-root-devel-WordCountTopology-1-3780eb35-e798-4abc-b8f7-14d7a7cb6492;["container_1_Consume_and_count_1"];1.25;1533813287.23151;86.78;568.85;120.949528592;10;149
55;paravance-72.rennes.grid5000.fr;thermos-root-devel-WordCountTopology-0-173863ee-acd2-4a1e-b0f4-733e8c2495ce;["topology_master"];1.25;1533813287.25004;6.26;13.96;3.692754132;9;117
55;paravance-71.rennes.grid5000.fr;thermos-root-devel-WordCountTopology-2-9961aa52-fea9-4657-a4e9-c3977b730252;["container_2_Emit_random_words_2"];1.25;1533813287.31072;63.26;738.94;625.145193884;10;149
56;paravance-72.rennes.grid5000.fr;thermos-root-devel-WordCountTopology-0-173863ee-acd2-4a1e-b0f4-733e8c2495ce;["topology_master"];1.25;1533813297.46329;6.28;13.98;3.692754132;9;117
56;paravance-71.rennes.grid5000.fr;thermos-root-devel-WordCountTopology-2-9961aa52-fea9-4657-a4e9-c3977b730252;["container_2_Emit_random_words_2"];1.25;1533813297.52272;64.21;750.02;633.916224765;10;149
56;paravance-70.rennes.grid5000.fr;thermos-root-devel-WordCountTopology-1-3780eb35-e798-4abc-b8f7-14d7a7cb6492;["container_1_Consume_and_count_1"];1.25;1533813297.45199;88.06;577.75;121.694480949;10;149
57;paravance-71.rennes.grid5000.fr;thermos-root-devel-WordCountTopology-2-9961aa52-fea9-4657-a4e9-c3977b730252;["container_2_Emit_random_words_2"];1.25;1533813307.74005;65.17;761.11;643.468639049;10;149
57;paravance-72.rennes.grid5000.fr;thermos-root-devel-WordCountTopology-0-173863ee-acd2-4a1e-b0f4-733e8c2495ce;["topology_master"];1.25;1533813307.68159;6.37;14.1;3.692754132;9;117
57;paravance-70.rennes.grid5000.fr;thermos-root-devel-WordCountTopology-1-3780eb35-e798-4abc-b8f7-14d7a7cb6492;["container_1_Consume_and_count_1"];1.25;1533813307.67513;89.39;586.4;123.089054097;10;149
58;paravance-70.rennes.grid5000.fr;thermos-root-devel-WordCountTopology-1-3780eb35-e798-4abc-b8f7-14d7a7cb6492;["container_1_Consume_and_count_1"];1.25;1533813317.89359;90.68;595.22;124.325075863;10;149
58;paravance-71.rennes.grid5000.fr;thermos-root-devel-WordCountTopology-2-9961aa52-fea9-4657-a4e9-c3977b730252;["container_2_Emit_random_words_2"];1.25;1533813317.95634;66.09;772.14;652.012947093;10;149
58;paravance-72.rennes.grid5000.fr;thermos-root-devel-WordCountTopology-0-173863ee-acd2-4a1e-b0f4-733e8c2495ce;["topology_master"];1.25;1533813317.89737;6.43;14.18;3.692754132;9;117
59;paravance-71.rennes.grid5000.fr;thermos-root-devel-WordCountTopology-2-9961aa52-fea9-4657-a4e9-c3977b730252;["container_2_Emit_random_words_2"];1.25;1533813328.17084;67.05;783.15;661.678591487;10;149
59;paravance-70.rennes.grid5000.fr;thermos-root-devel-WordCountTopology-1-3780eb35-e798-4abc-b8f7-14d7a7cb6492;["container_1_Consume_and_count_1"];1.25;1533813328.11424;91.97;603.63;125.123114246;10;149
59;paravance-72.rennes.grid5000.fr;thermos-root-devel-WordCountTopology-0-173863ee-acd2-4a1e-b0f4-733e8c2495ce;["topology_master"];1.25;1533813328.11245;6.5;14.28;3.692754132;9;117
60;paravance-70.rennes.grid5000.fr;thermos-root-devel-WordCountTopology-1-3780eb35-e798-4abc-b8f7-14d7a7cb6492;["container_1_Consume_and_count_1"];1.25;1533813338.33582;93.2;611.76;125.917194179;10;149
60;paravance-71.rennes.grid5000.fr;thermos-root-devel-WordCountTopology-2-9961aa52-fea9-4657-a4e9-c3977b730252;["container_2_Emit_random_words_2"];1.25;1533813338.38811;67.96;794.17;671.011549065;10;149
60;paravance-72.rennes.grid5000.fr;thermos-root-devel-WordCountTopology-0-173863ee-acd2-4a1e-b0f4-733e8c2495ce;["topology_master"];1.25;1533813338.32956;6.56;14.38;3.692754132;9;117
