mesure_id;slave_id;executor_id;heron_instances;cpus_limit;timestamp_A;cpus_system_time_secs_A;cpus_user_time_secs_A;cpus_throttled_time_secs_A;processes;threads
0;paravance-3.rennes.grid5000.fr;thermos-root-devel-WordCountTopology-1-97fd681b-043f-4cce-b9bb-6dca33f50c83;["container_1_Consume_and_count_1"];5.25;1533252443.20249;48.06;248.22;0.881478026;10;151
0;paravance-37.rennes.grid5000.fr;thermos-root-devel-WordCountTopology-0-53d71473-5305-4169-af6b-67e298a81287;["topology_master"];5.25;1533252443.20391;2.4;7.88;0.0;9;117
0;paravance-8.rennes.grid5000.fr;thermos-root-devel-WordCountTopology-2-0a0fb41b-8320-4335-909c-9bc7a07c1b4d;["container_2_Emit_random_words_2"];5.25;1533252443.26584;19.83;176.22;1.401839736;10;149
1;paravance-3.rennes.grid5000.fr;thermos-root-devel-WordCountTopology-1-97fd681b-043f-4cce-b9bb-6dca33f50c83;["container_1_Consume_and_count_1"];5.25;1533252453.32102;53.95;277.96;0.881478026;10;151
1;paravance-8.rennes.grid5000.fr;thermos-root-devel-WordCountTopology-2-0a0fb41b-8320-4335-909c-9bc7a07c1b4d;["container_2_Emit_random_words_2"];5.25;1533252453.48254;21.87;195.7;1.401839736;10;149
1;paravance-37.rennes.grid5000.fr;thermos-root-devel-WordCountTopology-0-53d71473-5305-4169-af6b-67e298a81287;["topology_master"];5.25;1533252453.42188;2.47;8.02;0.0;9;117
2;paravance-3.rennes.grid5000.fr;thermos-root-devel-WordCountTopology-1-97fd681b-043f-4cce-b9bb-6dca33f50c83;["container_1_Consume_and_count_1"];5.25;1533252463.63625;59.71;307.33;0.881478026;10;151
2;paravance-8.rennes.grid5000.fr;thermos-root-devel-WordCountTopology-2-0a0fb41b-8320-4335-909c-9bc7a07c1b4d;["container_2_Emit_random_words_2"];5.25;1533252463.69761;23.98;215.25;1.401839736;10;149
2;paravance-37.rennes.grid5000.fr;thermos-root-devel-WordCountTopology-0-53d71473-5305-4169-af6b-67e298a81287;["topology_master"];5.25;1533252463.63651;2.56;8.14;0.0;9;117
3;paravance-3.rennes.grid5000.fr;thermos-root-devel-WordCountTopology-1-97fd681b-043f-4cce-b9bb-6dca33f50c83;["container_1_Consume_and_count_1"];5.25;1533252473.85452;65.03;335.49;0.881478026;10;151
3;paravance-8.rennes.grid5000.fr;thermos-root-devel-WordCountTopology-2-0a0fb41b-8320-4335-909c-9bc7a07c1b4d;["container_2_Emit_random_words_2"];5.25;1533252473.91569;25.96;234.38;1.401839736;10;149
3;paravance-37.rennes.grid5000.fr;thermos-root-devel-WordCountTopology-0-53d71473-5305-4169-af6b-67e298a81287;["topology_master"];5.25;1533252473.85447;2.62;8.23;0.0;9;117
4;paravance-3.rennes.grid5000.fr;thermos-root-devel-WordCountTopology-1-97fd681b-043f-4cce-b9bb-6dca33f50c83;["container_1_Consume_and_count_1"];5.25;1533252484.07005;70.5;362.75;0.881478026;10;151
4;paravance-37.rennes.grid5000.fr;thermos-root-devel-WordCountTopology-0-53d71473-5305-4169-af6b-67e298a81287;["topology_master"];5.25;1533252484.06896;2.67;8.31;0.0;9;117
4;paravance-8.rennes.grid5000.fr;thermos-root-devel-WordCountTopology-2-0a0fb41b-8320-4335-909c-9bc7a07c1b4d;["container_2_Emit_random_words_2"];5.25;1533252484.13136;27.91;253.48;1.401839736;10;149
5;paravance-3.rennes.grid5000.fr;thermos-root-devel-WordCountTopology-1-97fd681b-043f-4cce-b9bb-6dca33f50c83;["container_1_Consume_and_count_1"];5.25;1533252494.28658;76.21;392.09;0.881478026;10;151
5;paravance-8.rennes.grid5000.fr;thermos-root-devel-WordCountTopology-2-0a0fb41b-8320-4335-909c-9bc7a07c1b4d;["container_2_Emit_random_words_2"];5.25;1533252494.34882;30.0;272.64;1.401839736;10;149
5;paravance-37.rennes.grid5000.fr;thermos-root-devel-WordCountTopology-0-53d71473-5305-4169-af6b-67e298a81287;["topology_master"];5.25;1533252494.28774;2.73;8.38;0.0;9;117
6;paravance-3.rennes.grid5000.fr;thermos-root-devel-WordCountTopology-1-97fd681b-043f-4cce-b9bb-6dca33f50c83;["container_1_Consume_and_count_1"];5.25;1533252504.50311;81.9;422.22;0.881478026;10;151
6;paravance-8.rennes.grid5000.fr;thermos-root-devel-WordCountTopology-2-0a0fb41b-8320-4335-909c-9bc7a07c1b4d;["container_2_Emit_random_words_2"];5.25;1533252504.56514;32.14;292.3;1.401839736;10;149
6;paravance-37.rennes.grid5000.fr;thermos-root-devel-WordCountTopology-0-53d71473-5305-4169-af6b-67e298a81287;["topology_master"];5.25;1533252504.50457;2.86;8.64;0.0;9;117
7;paravance-37.rennes.grid5000.fr;thermos-root-devel-WordCountTopology-0-53d71473-5305-4169-af6b-67e298a81287;["topology_master"];5.25;1533252514.62159;2.88;8.68;0.0;9;117
7;paravance-3.rennes.grid5000.fr;thermos-root-devel-WordCountTopology-1-97fd681b-043f-4cce-b9bb-6dca33f50c83;["container_1_Consume_and_count_1"];5.25;1533252514.72125;87.13;451.07;0.881478026;10;151
7;paravance-8.rennes.grid5000.fr;thermos-root-devel-WordCountTopology-2-0a0fb41b-8320-4335-909c-9bc7a07c1b4d;["container_2_Emit_random_words_2"];5.25;1533252514.78303;34.18;311.74;1.401839736;10;149
8;paravance-3.rennes.grid5000.fr;thermos-root-devel-WordCountTopology-1-97fd681b-043f-4cce-b9bb-6dca33f50c83;["container_1_Consume_and_count_1"];5.25;1533252524.93627;91.93;478.38;0.881478026;10;151
8;paravance-8.rennes.grid5000.fr;thermos-root-devel-WordCountTopology-2-0a0fb41b-8320-4335-909c-9bc7a07c1b4d;["container_2_Emit_random_words_2"];5.25;1533252524.99776;36.33;331.41;1.401839736;10;149
8;paravance-37.rennes.grid5000.fr;thermos-root-devel-WordCountTopology-0-53d71473-5305-4169-af6b-67e298a81287;["topology_master"];5.25;1533252524.93741;2.98;8.8;0.0;9;117
9;paravance-3.rennes.grid5000.fr;thermos-root-devel-WordCountTopology-1-97fd681b-043f-4cce-b9bb-6dca33f50c83;["container_1_Consume_and_count_1"];5.25;1533252535.15251;97.22;505.67;0.881478026;10;151
9;paravance-8.rennes.grid5000.fr;thermos-root-devel-WordCountTopology-2-0a0fb41b-8320-4335-909c-9bc7a07c1b4d;["container_2_Emit_random_words_2"];5.25;1533252535.21544;38.35;350.99;1.401839736;10;149
9;paravance-37.rennes.grid5000.fr;thermos-root-devel-WordCountTopology-0-53d71473-5305-4169-af6b-67e298a81287;["topology_master"];5.25;1533252535.15377;3.04;8.89;0.0;9;117
10;paravance-3.rennes.grid5000.fr;thermos-root-devel-WordCountTopology-1-97fd681b-043f-4cce-b9bb-6dca33f50c83;["container_1_Consume_and_count_1"];5.25;1533252545.37248;102.25;532.24;0.881478026;10;151
10;paravance-8.rennes.grid5000.fr;thermos-root-devel-WordCountTopology-2-0a0fb41b-8320-4335-909c-9bc7a07c1b4d;["container_2_Emit_random_words_2"];5.25;1533252545.43229;40.3;370.38;1.401839736;10;149
10;paravance-37.rennes.grid5000.fr;thermos-root-devel-WordCountTopology-0-53d71473-5305-4169-af6b-67e298a81287;["topology_master"];5.25;1533252545.37143;3.11;8.97;0.0;9;117
11;paravance-3.rennes.grid5000.fr;thermos-root-devel-WordCountTopology-1-97fd681b-043f-4cce-b9bb-6dca33f50c83;["container_1_Consume_and_count_1"];5.25;1533252555.58781;107.09;558.95;0.881478026;10;151
11;paravance-8.rennes.grid5000.fr;thermos-root-devel-WordCountTopology-2-0a0fb41b-8320-4335-909c-9bc7a07c1b4d;["container_2_Emit_random_words_2"];5.25;1533252555.64948;42.38;389.98;1.401839736;10;149
11;paravance-37.rennes.grid5000.fr;thermos-root-devel-WordCountTopology-0-53d71473-5305-4169-af6b-67e298a81287;["topology_master"];5.25;1533252555.58902;3.16;9.05;0.0;9;117
12;paravance-3.rennes.grid5000.fr;thermos-root-devel-WordCountTopology-1-97fd681b-043f-4cce-b9bb-6dca33f50c83;["container_1_Consume_and_count_1"];5.25;1533252565.80621;112.12;586.45;0.881478026;10;151
12;paravance-8.rennes.grid5000.fr;thermos-root-devel-WordCountTopology-2-0a0fb41b-8320-4335-909c-9bc7a07c1b4d;["container_2_Emit_random_words_2"];5.25;1533252565.86827;44.64;408.93;1.401839736;10;149
12;paravance-37.rennes.grid5000.fr;thermos-root-devel-WordCountTopology-0-53d71473-5305-4169-af6b-67e298a81287;["topology_master"];5.25;1533252565.80596;3.29;9.28;0.0;9;117
13;paravance-3.rennes.grid5000.fr;thermos-root-devel-WordCountTopology-1-97fd681b-043f-4cce-b9bb-6dca33f50c83;["container_1_Consume_and_count_1"];5.25;1533252576.02381;116.97;612.56;0.881478026;10;151
13;paravance-37.rennes.grid5000.fr;thermos-root-devel-WordCountTopology-0-53d71473-5305-4169-af6b-67e298a81287;["topology_master"];5.25;1533252576.02456;3.31;9.31;0.0;9;117
13;paravance-8.rennes.grid5000.fr;thermos-root-devel-WordCountTopology-2-0a0fb41b-8320-4335-909c-9bc7a07c1b4d;["container_2_Emit_random_words_2"];5.25;1533252576.08595;46.68;428.34;1.401839736;10;149
14;paravance-3.rennes.grid5000.fr;thermos-root-devel-WordCountTopology-1-97fd681b-043f-4cce-b9bb-6dca33f50c83;["container_1_Consume_and_count_1"];5.25;1533252586.24012;121.98;638.95;0.881478026;10;151
14;paravance-8.rennes.grid5000.fr;thermos-root-devel-WordCountTopology-2-0a0fb41b-8320-4335-909c-9bc7a07c1b4d;["container_2_Emit_random_words_2"];5.25;1533252586.30309;48.76;447.79;1.401839736;10;149
14;paravance-37.rennes.grid5000.fr;thermos-root-devel-WordCountTopology-0-53d71473-5305-4169-af6b-67e298a81287;["topology_master"];5.25;1533252586.24242;3.41;9.47;0.0;9;117
15;paravance-3.rennes.grid5000.fr;thermos-root-devel-WordCountTopology-1-97fd681b-043f-4cce-b9bb-6dca33f50c83;["container_1_Consume_and_count_1"];5.25;1533252596.45919;127.23;667.03;0.881478026;10;151
15;paravance-37.rennes.grid5000.fr;thermos-root-devel-WordCountTopology-0-53d71473-5305-4169-af6b-67e298a81287;["topology_master"];5.25;1533252596.45892;3.46;9.54;0.0;9;117
15;paravance-8.rennes.grid5000.fr;thermos-root-devel-WordCountTopology-2-0a0fb41b-8320-4335-909c-9bc7a07c1b4d;["container_2_Emit_random_words_2"];5.25;1533252596.52147;50.85;467.39;1.401839736;10;149
16;paravance-3.rennes.grid5000.fr;thermos-root-devel-WordCountTopology-1-97fd681b-043f-4cce-b9bb-6dca33f50c83;["container_1_Consume_and_count_1"];5.25;1533252606.67205;132.21;693.08;0.881478026;10;151
16;paravance-8.rennes.grid5000.fr;thermos-root-devel-WordCountTopology-2-0a0fb41b-8320-4335-909c-9bc7a07c1b4d;["container_2_Emit_random_words_2"];5.25;1533252606.73554;52.92;486.72;1.401839736;10;149
16;paravance-37.rennes.grid5000.fr;thermos-root-devel-WordCountTopology-0-53d71473-5305-4169-af6b-67e298a81287;["topology_master"];5.25;1533252606.67418;3.52;9.63;0.0;9;117
17;paravance-3.rennes.grid5000.fr;thermos-root-devel-WordCountTopology-1-97fd681b-043f-4cce-b9bb-6dca33f50c83;["container_1_Consume_and_count_1"];5.25;1533252616.89231;137.24;720.95;0.881478026;10;151
17;paravance-8.rennes.grid5000.fr;thermos-root-devel-WordCountTopology-2-0a0fb41b-8320-4335-909c-9bc7a07c1b4d;["container_2_Emit_random_words_2"];5.25;1533252616.95336;55.0;506.27;1.401839736;10;149
17;paravance-37.rennes.grid5000.fr;thermos-root-devel-WordCountTopology-0-53d71473-5305-4169-af6b-67e298a81287;["topology_master"];5.25;1533252616.89167;3.57;9.7;0.0;9;117
18;paravance-8.rennes.grid5000.fr;thermos-root-devel-WordCountTopology-2-0a0fb41b-8320-4335-909c-9bc7a07c1b4d;["container_2_Emit_random_words_2"];5.25;1533252627.07029;57.11;525.75;1.401839736;10;149
18;paravance-3.rennes.grid5000.fr;thermos-root-devel-WordCountTopology-1-97fd681b-043f-4cce-b9bb-6dca33f50c83;["container_1_Consume_and_count_1"];5.25;1533252627.10852;142.36;747.28;0.881478026;10;151
18;paravance-37.rennes.grid5000.fr;thermos-root-devel-WordCountTopology-0-53d71473-5305-4169-af6b-67e298a81287;["topology_master"];5.25;1533252627.10855;3.69;9.89;0.0;9;117
19;paravance-8.rennes.grid5000.fr;thermos-root-devel-WordCountTopology-2-0a0fb41b-8320-4335-909c-9bc7a07c1b4d;["container_2_Emit_random_words_2"];5.25;1533252637.38652;59.22;545.29;1.401839736;10;149
19;paravance-3.rennes.grid5000.fr;thermos-root-devel-WordCountTopology-1-97fd681b-043f-4cce-b9bb-6dca33f50c83;["container_1_Consume_and_count_1"];5.25;1533252637.32457;147.59;775.08;0.881478026;10;151
19;paravance-37.rennes.grid5000.fr;thermos-root-devel-WordCountTopology-0-53d71473-5305-4169-af6b-67e298a81287;["topology_master"];5.25;1533252637.32618;3.71;9.92;0.0;9;117
20;paravance-37.rennes.grid5000.fr;thermos-root-devel-WordCountTopology-0-53d71473-5305-4169-af6b-67e298a81287;["topology_master"];5.25;1533252647.54197;3.8;10.05;0.0;9;117
20;paravance-3.rennes.grid5000.fr;thermos-root-devel-WordCountTopology-1-97fd681b-043f-4cce-b9bb-6dca33f50c83;["container_1_Consume_and_count_1"];5.25;1533252647.54083;152.81;802.25;0.881478026;10;151
20;paravance-8.rennes.grid5000.fr;thermos-root-devel-WordCountTopology-2-0a0fb41b-8320-4335-909c-9bc7a07c1b4d;["container_2_Emit_random_words_2"];5.25;1533252647.60295;61.39;564.61;1.401839736;10;149
21;paravance-3.rennes.grid5000.fr;thermos-root-devel-WordCountTopology-1-97fd681b-043f-4cce-b9bb-6dca33f50c83;["container_1_Consume_and_count_1"];5.25;1533252657.75911;158.07;829.94;0.881478026;10;151
21;paravance-8.rennes.grid5000.fr;thermos-root-devel-WordCountTopology-2-0a0fb41b-8320-4335-909c-9bc7a07c1b4d;["container_2_Emit_random_words_2"];5.25;1533252657.82069;63.47;584.07;1.401839736;10;149
21;paravance-37.rennes.grid5000.fr;thermos-root-devel-WordCountTopology-0-53d71473-5305-4169-af6b-67e298a81287;["topology_master"];5.25;1533252657.75941;3.87;10.12;0.0;9;117
22;paravance-3.rennes.grid5000.fr;thermos-root-devel-WordCountTopology-1-97fd681b-043f-4cce-b9bb-6dca33f50c83;["container_1_Consume_and_count_1"];5.25;1533252667.97436;163.15;857.02;0.881478026;10;151
22;paravance-8.rennes.grid5000.fr;thermos-root-devel-WordCountTopology-2-0a0fb41b-8320-4335-909c-9bc7a07c1b4d;["container_2_Emit_random_words_2"];5.25;1533252668.03555;65.54;603.71;1.401839736;10;149
22;paravance-37.rennes.grid5000.fr;thermos-root-devel-WordCountTopology-0-53d71473-5305-4169-af6b-67e298a81287;["topology_master"];5.25;1533252667.97462;3.93;10.2;0.0;9;117
23;paravance-3.rennes.grid5000.fr;thermos-root-devel-WordCountTopology-1-97fd681b-043f-4cce-b9bb-6dca33f50c83;["container_1_Consume_and_count_1"];5.25;1533252678.19155;168.35;884.15;0.881478026;10;151
23;paravance-8.rennes.grid5000.fr;thermos-root-devel-WordCountTopology-2-0a0fb41b-8320-4335-909c-9bc7a07c1b4d;["container_2_Emit_random_words_2"];5.25;1533252678.25333;67.62;623.16;1.401839736;10;149
23;paravance-37.rennes.grid5000.fr;thermos-root-devel-WordCountTopology-0-53d71473-5305-4169-af6b-67e298a81287;["topology_master"];5.25;1533252678.19188;3.99;10.27;0.0;9;117
24;paravance-3.rennes.grid5000.fr;thermos-root-devel-WordCountTopology-1-97fd681b-043f-4cce-b9bb-6dca33f50c83;["container_1_Consume_and_count_1"];5.25;1533252688.40797;173.59;911.46;0.881478026;10;151
24;paravance-8.rennes.grid5000.fr;thermos-root-devel-WordCountTopology-2-0a0fb41b-8320-4335-909c-9bc7a07c1b4d;["container_2_Emit_random_words_2"];5.25;1533252688.47018;69.83;642.39;1.401839736;10;149
24;paravance-37.rennes.grid5000.fr;thermos-root-devel-WordCountTopology-0-53d71473-5305-4169-af6b-67e298a81287;["topology_master"];5.25;1533252688.4091;4.1;10.45;0.0;9;117
25;paravance-3.rennes.grid5000.fr;thermos-root-devel-WordCountTopology-1-97fd681b-043f-4cce-b9bb-6dca33f50c83;["container_1_Consume_and_count_1"];5.25;1533252698.62475;178.6;937.87;0.881478026;10;151
25;paravance-37.rennes.grid5000.fr;thermos-root-devel-WordCountTopology-0-53d71473-5305-4169-af6b-67e298a81287;["topology_master"];5.25;1533252698.62609;4.13;10.48;0.0;9;117
25;paravance-8.rennes.grid5000.fr;thermos-root-devel-WordCountTopology-2-0a0fb41b-8320-4335-909c-9bc7a07c1b4d;["container_2_Emit_random_words_2"];5.25;1533252698.6873;71.91;661.96;1.401839736;10;149
26;paravance-37.rennes.grid5000.fr;thermos-root-devel-WordCountTopology-0-53d71473-5305-4169-af6b-67e298a81287;["topology_master"];5.25;1533252708.84245;4.22;10.6;0.0;9;117
26;paravance-3.rennes.grid5000.fr;thermos-root-devel-WordCountTopology-1-97fd681b-043f-4cce-b9bb-6dca33f50c83;["container_1_Consume_and_count_1"];5.25;1533252708.84302;183.73;965.2;0.881478026;10;151
26;paravance-8.rennes.grid5000.fr;thermos-root-devel-WordCountTopology-2-0a0fb41b-8320-4335-909c-9bc7a07c1b4d;["container_2_Emit_random_words_2"];5.25;1533252708.90526;74.0;681.43;1.401839736;10;149
27;paravance-3.rennes.grid5000.fr;thermos-root-devel-WordCountTopology-1-97fd681b-043f-4cce-b9bb-6dca33f50c83;["container_1_Consume_and_count_1"];5.25;1533252719.05712;189.3;993.72;0.881478026;10;149
27;paravance-37.rennes.grid5000.fr;thermos-root-devel-WordCountTopology-0-53d71473-5305-4169-af6b-67e298a81287;["topology_master"];5.25;1533252719.05876;4.28;10.68;0.0;9;117
27;paravance-8.rennes.grid5000.fr;thermos-root-devel-WordCountTopology-2-0a0fb41b-8320-4335-909c-9bc7a07c1b4d;["container_2_Emit_random_words_2"];5.25;1533252719.12016;76.09;700.95;1.401839736;10;149
28;paravance-3.rennes.grid5000.fr;thermos-root-devel-WordCountTopology-1-97fd681b-043f-4cce-b9bb-6dca33f50c83;["container_1_Consume_and_count_1"];5.25;1533252729.27241;194.53;1021.42;0.881478026;10;151
28;paravance-37.rennes.grid5000.fr;thermos-root-devel-WordCountTopology-0-53d71473-5305-4169-af6b-67e298a81287;["topology_master"];5.25;1533252729.27318;4.34;10.76;0.0;9;117
28;paravance-8.rennes.grid5000.fr;thermos-root-devel-WordCountTopology-2-0a0fb41b-8320-4335-909c-9bc7a07c1b4d;["container_2_Emit_random_words_2"];5.25;1533252729.33487;78.15;720.46;1.401839736;10;149
29;paravance-37.rennes.grid5000.fr;thermos-root-devel-WordCountTopology-0-53d71473-5305-4169-af6b-67e298a81287;["topology_master"];5.25;1533252739.49067;4.45;10.9;0.0;9;117
29;paravance-3.rennes.grid5000.fr;thermos-root-devel-WordCountTopology-1-97fd681b-043f-4cce-b9bb-6dca33f50c83;["container_1_Consume_and_count_1"];5.25;1533252739.49121;199.64;1047.01;0.881478026;10;151
29;paravance-8.rennes.grid5000.fr;thermos-root-devel-WordCountTopology-2-0a0fb41b-8320-4335-909c-9bc7a07c1b4d;["container_2_Emit_random_words_2"];5.25;1533252739.5521;80.1;739.58;1.401839736;10;149
30;paravance-8.rennes.grid5000.fr;thermos-root-devel-WordCountTopology-2-0a0fb41b-8320-4335-909c-9bc7a07c1b4d;["container_2_Emit_random_words_2"];5.25;1533252749.77024;81.99;758.79;1.401839736;10;149
30;paravance-3.rennes.grid5000.fr;thermos-root-devel-WordCountTopology-1-97fd681b-043f-4cce-b9bb-6dca33f50c83;["container_1_Consume_and_count_1"];5.25;1533252749.70823;204.71;1073.05;0.881478026;10;151
30;paravance-37.rennes.grid5000.fr;thermos-root-devel-WordCountTopology-0-53d71473-5305-4169-af6b-67e298a81287;["topology_master"];5.25;1533252749.70976;4.51;11.03;0.0;9;117
31;paravance-3.rennes.grid5000.fr;thermos-root-devel-WordCountTopology-1-97fd681b-043f-4cce-b9bb-6dca33f50c83;["container_1_Consume_and_count_1"];5.25;1533252759.92468;209.74;1099.51;0.881478026;10;151
31;paravance-8.rennes.grid5000.fr;thermos-root-devel-WordCountTopology-2-0a0fb41b-8320-4335-909c-9bc7a07c1b4d;["container_2_Emit_random_words_2"];5.25;1533252759.98758;84.1;778.49;1.401839736;10;149
31;paravance-37.rennes.grid5000.fr;thermos-root-devel-WordCountTopology-0-53d71473-5305-4169-af6b-67e298a81287;["topology_master"];5.25;1533252759.9271;4.57;11.11;0.0;9;117
32;paravance-3.rennes.grid5000.fr;thermos-root-devel-WordCountTopology-1-97fd681b-043f-4cce-b9bb-6dca33f50c83;["container_1_Consume_and_count_1"];5.25;1533252770.14269;215.0;1125.3;0.881478026;10;151
32;paravance-8.rennes.grid5000.fr;thermos-root-devel-WordCountTopology-2-0a0fb41b-8320-4335-909c-9bc7a07c1b4d;["container_2_Emit_random_words_2"];5.25;1533252770.20332;86.16;798.05;1.401839736;10;149
32;paravance-37.rennes.grid5000.fr;thermos-root-devel-WordCountTopology-0-53d71473-5305-4169-af6b-67e298a81287;["topology_master"];5.25;1533252770.14198;4.62;11.19;0.0;9;117
33;paravance-3.rennes.grid5000.fr;thermos-root-devel-WordCountTopology-1-97fd681b-043f-4cce-b9bb-6dca33f50c83;["container_1_Consume_and_count_1"];5.25;1533252780.35963;220.36;1151.56;0.881478026;10;151
33;paravance-37.rennes.grid5000.fr;thermos-root-devel-WordCountTopology-0-53d71473-5305-4169-af6b-67e298a81287;["topology_master"];5.25;1533252780.35942;4.71;11.31;0.0;9;117
33;paravance-8.rennes.grid5000.fr;thermos-root-devel-WordCountTopology-2-0a0fb41b-8320-4335-909c-9bc7a07c1b4d;["container_2_Emit_random_words_2"];5.25;1533252780.42032;88.25;817.55;1.401839736;10;149
34;paravance-3.rennes.grid5000.fr;thermos-root-devel-WordCountTopology-1-97fd681b-043f-4cce-b9bb-6dca33f50c83;["container_1_Consume_and_count_1"];5.25;1533252790.57714;225.57;1178.62;0.881478026;10;151
34;paravance-37.rennes.grid5000.fr;thermos-root-devel-WordCountTopology-0-53d71473-5305-4169-af6b-67e298a81287;["topology_master"];5.25;1533252790.5763;4.74;11.33;0.0;9;117
34;paravance-8.rennes.grid5000.fr;thermos-root-devel-WordCountTopology-2-0a0fb41b-8320-4335-909c-9bc7a07c1b4d;["container_2_Emit_random_words_2"];5.25;1533252790.63814;90.3;836.83;1.401839736;10;149
35;paravance-3.rennes.grid5000.fr;thermos-root-devel-WordCountTopology-1-97fd681b-043f-4cce-b9bb-6dca33f50c83;["container_1_Consume_and_count_1"];5.25;1533252800.79447;230.82;1206.76;0.881478026;10;151
35;paravance-37.rennes.grid5000.fr;thermos-root-devel-WordCountTopology-0-53d71473-5305-4169-af6b-67e298a81287;["topology_master"];5.25;1533252800.79522;4.84;11.47;0.0;9;117
35;paravance-8.rennes.grid5000.fr;thermos-root-devel-WordCountTopology-2-0a0fb41b-8320-4335-909c-9bc7a07c1b4d;["container_2_Emit_random_words_2"];5.25;1533252800.85569;92.38;856.4;1.401839736;10;149
36;paravance-8.rennes.grid5000.fr;thermos-root-devel-WordCountTopology-2-0a0fb41b-8320-4335-909c-9bc7a07c1b4d;["container_2_Emit_random_words_2"];5.25;1533252811.07436;94.28;874.27;1.401839736;10;149
36;paravance-37.rennes.grid5000.fr;thermos-root-devel-WordCountTopology-0-53d71473-5305-4169-af6b-67e298a81287;["topology_master"];5.25;1533252811.01275;4.91;11.6;0.0;9;117
36;paravance-3.rennes.grid5000.fr;thermos-root-devel-WordCountTopology-1-97fd681b-043f-4cce-b9bb-6dca33f50c83;["container_1_Consume_and_count_1"];5.25;1533252811.01351;235.65;1235.83;0.881478026;10;151
37;paravance-8.rennes.grid5000.fr;thermos-root-devel-WordCountTopology-2-0a0fb41b-8320-4335-909c-9bc7a07c1b4d;["container_2_Emit_random_words_2"];5.25;1533252821.29231;96.38;893.92;1.401839736;10;149
37;paravance-3.rennes.grid5000.fr;thermos-root-devel-WordCountTopology-1-97fd681b-043f-4cce-b9bb-6dca33f50c83;["container_1_Consume_and_count_1"];5.25;1533252821.23273;240.86;1261.74;0.881478026;10;151
37;paravance-37.rennes.grid5000.fr;thermos-root-devel-WordCountTopology-0-53d71473-5305-4169-af6b-67e298a81287;["topology_master"];5.25;1533252821.23161;4.99;11.72;0.0;9;117
38;paravance-3.rennes.grid5000.fr;thermos-root-devel-WordCountTopology-1-97fd681b-043f-4cce-b9bb-6dca33f50c83;["container_1_Consume_and_count_1"];5.25;1533252831.34772;245.67;1288.72;0.881478026;10;151
38;paravance-8.rennes.grid5000.fr;thermos-root-devel-WordCountTopology-2-0a0fb41b-8320-4335-909c-9bc7a07c1b4d;["container_2_Emit_random_words_2"];5.25;1533252831.50878;98.35;913.05;1.401839736;10;149
38;paravance-37.rennes.grid5000.fr;thermos-root-devel-WordCountTopology-0-53d71473-5305-4169-af6b-67e298a81287;["topology_master"];5.25;1533252831.44923;5.02;11.75;0.0;9;117
39;paravance-8.rennes.grid5000.fr;thermos-root-devel-WordCountTopology-2-0a0fb41b-8320-4335-909c-9bc7a07c1b4d;["container_2_Emit_random_words_2"];5.25;1533252841.72376;100.33;932.1;1.401839736;10;149
39;paravance-37.rennes.grid5000.fr;thermos-root-devel-WordCountTopology-0-53d71473-5305-4169-af6b-67e298a81287;["topology_master"];5.25;1533252841.66311;5.1;11.87;0.0;9;117
39;paravance-3.rennes.grid5000.fr;thermos-root-devel-WordCountTopology-1-97fd681b-043f-4cce-b9bb-6dca33f50c83;["container_1_Consume_and_count_1"];5.25;1533252841.66352;250.75;1317.6;0.881478026;10;151
40;paravance-3.rennes.grid5000.fr;thermos-root-devel-WordCountTopology-1-97fd681b-043f-4cce-b9bb-6dca33f50c83;["container_1_Consume_and_count_1"];5.25;1533252851.878;255.57;1344.97;0.881478026;10;151
40;paravance-8.rennes.grid5000.fr;thermos-root-devel-WordCountTopology-2-0a0fb41b-8320-4335-909c-9bc7a07c1b4d;["container_2_Emit_random_words_2"];5.25;1533252851.93891;102.3;950.87;1.401839736;10;149
40;paravance-37.rennes.grid5000.fr;thermos-root-devel-WordCountTopology-0-53d71473-5305-4169-af6b-67e298a81287;["topology_master"];5.25;1533252851.87821;5.16;11.94;0.0;9;117
41;paravance-8.rennes.grid5000.fr;thermos-root-devel-WordCountTopology-2-0a0fb41b-8320-4335-909c-9bc7a07c1b4d;["container_2_Emit_random_words_2"];5.25;1533252862.1589;104.33;970.15;1.401839736;10;149
41;paravance-3.rennes.grid5000.fr;thermos-root-devel-WordCountTopology-1-97fd681b-043f-4cce-b9bb-6dca33f50c83;["container_1_Consume_and_count_1"];5.25;1533252862.09718;260.52;1372.38;0.881478026;10;151
41;paravance-37.rennes.grid5000.fr;thermos-root-devel-WordCountTopology-0-53d71473-5305-4169-af6b-67e298a81287;["topology_master"];5.25;1533252862.0985;5.23;12.03;0.0;9;117
42;paravance-3.rennes.grid5000.fr;thermos-root-devel-WordCountTopology-1-97fd681b-043f-4cce-b9bb-6dca33f50c83;["container_1_Consume_and_count_1"];5.25;1533252872.31349;265.6;1400.65;0.881478026;10;151
42;paravance-8.rennes.grid5000.fr;thermos-root-devel-WordCountTopology-2-0a0fb41b-8320-4335-909c-9bc7a07c1b4d;["container_2_Emit_random_words_2"];5.25;1533252872.37494;106.42;989.78;1.401839736;10;149
42;paravance-37.rennes.grid5000.fr;thermos-root-devel-WordCountTopology-0-53d71473-5305-4169-af6b-67e298a81287;["topology_master"];5.25;1533252872.31393;5.29;12.17;0.0;9;117
43;paravance-3.rennes.grid5000.fr;thermos-root-devel-WordCountTopology-1-97fd681b-043f-4cce-b9bb-6dca33f50c83;["container_1_Consume_and_count_1"];5.25;1533252882.53072;271.14;1428.9;0.881478026;10;151
43;paravance-37.rennes.grid5000.fr;thermos-root-devel-WordCountTopology-0-53d71473-5305-4169-af6b-67e298a81287;["topology_master"];5.25;1533252882.5313;5.37;12.29;0.0;9;117
43;paravance-8.rennes.grid5000.fr;thermos-root-devel-WordCountTopology-2-0a0fb41b-8320-4335-909c-9bc7a07c1b4d;["container_2_Emit_random_words_2"];5.25;1533252882.59183;108.52;1009.33;1.401839736;10;149
44;paravance-8.rennes.grid5000.fr;thermos-root-devel-WordCountTopology-2-0a0fb41b-8320-4335-909c-9bc7a07c1b4d;["container_2_Emit_random_words_2"];5.25;1533252892.80722;110.51;1028.71;1.401839736;10;149
44;paravance-37.rennes.grid5000.fr;thermos-root-devel-WordCountTopology-0-53d71473-5305-4169-af6b-67e298a81287;["topology_master"];5.25;1533252892.74641;5.4;12.33;0.0;9;117
44;paravance-3.rennes.grid5000.fr;thermos-root-devel-WordCountTopology-1-97fd681b-043f-4cce-b9bb-6dca33f50c83;["container_1_Consume_and_count_1"];5.25;1533252892.74778;276.83;1455.42;0.881478026;10;151
45;paravance-3.rennes.grid5000.fr;thermos-root-devel-WordCountTopology-1-97fd681b-043f-4cce-b9bb-6dca33f50c83;["container_1_Consume_and_count_1"];5.25;1533252902.96374;282.29;1480.93;0.881478026;10;151
45;paravance-8.rennes.grid5000.fr;thermos-root-devel-WordCountTopology-2-0a0fb41b-8320-4335-909c-9bc7a07c1b4d;["container_2_Emit_random_words_2"];5.25;1533252903.02518;112.55;1048.24;1.401839736;10;149
45;paravance-37.rennes.grid5000.fr;thermos-root-devel-WordCountTopology-0-53d71473-5305-4169-af6b-67e298a81287;["topology_master"];5.25;1533252902.96518;5.49;12.45;0.0;9;117
46;paravance-8.rennes.grid5000.fr;thermos-root-devel-WordCountTopology-2-0a0fb41b-8320-4335-909c-9bc7a07c1b4d;["container_2_Emit_random_words_2"];5.25;1533252913.24137;114.59;1067.75;1.401839736;10;149
46;paravance-3.rennes.grid5000.fr;thermos-root-devel-WordCountTopology-1-97fd681b-043f-4cce-b9bb-6dca33f50c83;["container_1_Consume_and_count_1"];5.25;1533252913.18124;287.94;1507.9;0.881478026;10;151
46;paravance-37.rennes.grid5000.fr;thermos-root-devel-WordCountTopology-0-53d71473-5305-4169-af6b-67e298a81287;["topology_master"];5.25;1533252913.17933;5.54;12.52;0.0;9;117
47;paravance-37.rennes.grid5000.fr;thermos-root-devel-WordCountTopology-0-53d71473-5305-4169-af6b-67e298a81287;["topology_master"];5.25;1533252923.39562;5.61;12.6;0.0;9;117
47;paravance-3.rennes.grid5000.fr;thermos-root-devel-WordCountTopology-1-97fd681b-043f-4cce-b9bb-6dca33f50c83;["container_1_Consume_and_count_1"];5.25;1533252923.39637;293.45;1533.4;0.881478026;10;151
47;paravance-8.rennes.grid5000.fr;thermos-root-devel-WordCountTopology-2-0a0fb41b-8320-4335-909c-9bc7a07c1b4d;["container_2_Emit_random_words_2"];5.25;1533252923.457;116.59;1087.01;1.401839736;10;149
48;paravance-37.rennes.grid5000.fr;thermos-root-devel-WordCountTopology-0-53d71473-5305-4169-af6b-67e298a81287;["topology_master"];5.25;1533252933.61221;5.67;12.75;0.0;9;117
48;paravance-8.rennes.grid5000.fr;thermos-root-devel-WordCountTopology-2-0a0fb41b-8320-4335-909c-9bc7a07c1b4d;["container_2_Emit_random_words_2"];5.25;1533252933.67291;118.55;1105.68;1.401839736;10;149
48;paravance-3.rennes.grid5000.fr;thermos-root-devel-WordCountTopology-1-97fd681b-043f-4cce-b9bb-6dca33f50c83;["container_1_Consume_and_count_1"];5.25;1533252933.61361;298.65;1559.31;0.881478026;10;151
49;paravance-3.rennes.grid5000.fr;thermos-root-devel-WordCountTopology-1-97fd681b-043f-4cce-b9bb-6dca33f50c83;["container_1_Consume_and_count_1"];5.25;1533252943.82892;304.07;1586.98;0.881478026;10;151
49;paravance-8.rennes.grid5000.fr;thermos-root-devel-WordCountTopology-2-0a0fb41b-8320-4335-909c-9bc7a07c1b4d;["container_2_Emit_random_words_2"];5.25;1533252943.89112;120.6;1124.86;1.401839736;10;149
49;paravance-37.rennes.grid5000.fr;thermos-root-devel-WordCountTopology-0-53d71473-5305-4169-af6b-67e298a81287;["topology_master"];5.25;1533252943.8301;5.76;12.86;0.0;9;117
50;paravance-8.rennes.grid5000.fr;thermos-root-devel-WordCountTopology-2-0a0fb41b-8320-4335-909c-9bc7a07c1b4d;["container_2_Emit_random_words_2"];5.25;1533252954.10637;122.62;1144.24;1.401839736;10;149
50;paravance-3.rennes.grid5000.fr;thermos-root-devel-WordCountTopology-1-97fd681b-043f-4cce-b9bb-6dca33f50c83;["container_1_Consume_and_count_1"];5.25;1533252954.04595;309.57;1614.06;0.881478026;10;151
50;paravance-37.rennes.grid5000.fr;thermos-root-devel-WordCountTopology-0-53d71473-5305-4169-af6b-67e298a81287;["topology_master"];5.25;1533252954.04611;5.79;12.9;0.0;9;117
51;paravance-3.rennes.grid5000.fr;thermos-root-devel-WordCountTopology-1-97fd681b-043f-4cce-b9bb-6dca33f50c83;["container_1_Consume_and_count_1"];5.25;1533252964.26433;315.08;1641.68;0.881478026;10;151
51;paravance-37.rennes.grid5000.fr;thermos-root-devel-WordCountTopology-0-53d71473-5305-4169-af6b-67e298a81287;["topology_master"];5.25;1533252964.26401;5.89;13.03;0.0;9;117
51;paravance-8.rennes.grid5000.fr;thermos-root-devel-WordCountTopology-2-0a0fb41b-8320-4335-909c-9bc7a07c1b4d;["container_2_Emit_random_words_2"];5.25;1533252964.32518;124.7;1163.79;1.401839736;10;149
52;paravance-8.rennes.grid5000.fr;thermos-root-devel-WordCountTopology-2-0a0fb41b-8320-4335-909c-9bc7a07c1b4d;["container_2_Emit_random_words_2"];5.25;1533252974.54241;126.68;1182.76;1.401839736;10;149
52;paravance-3.rennes.grid5000.fr;thermos-root-devel-WordCountTopology-1-97fd681b-043f-4cce-b9bb-6dca33f50c83;["container_1_Consume_and_count_1"];5.25;1533252974.48182;320.41;1668.17;0.881478026;10;151
52;paravance-37.rennes.grid5000.fr;thermos-root-devel-WordCountTopology-0-53d71473-5305-4169-af6b-67e298a81287;["topology_master"];5.25;1533252974.48183;5.94;13.11;0.0;9;117
53;paravance-8.rennes.grid5000.fr;thermos-root-devel-WordCountTopology-2-0a0fb41b-8320-4335-909c-9bc7a07c1b4d;["container_2_Emit_random_words_2"];5.25;1533252984.75911;128.71;1202.06;1.401839736;10;149
53;paravance-3.rennes.grid5000.fr;thermos-root-devel-WordCountTopology-1-97fd681b-043f-4cce-b9bb-6dca33f50c83;["container_1_Consume_and_count_1"];5.25;1533252984.69727;325.78;1695.18;0.881478026;10;151
53;paravance-37.rennes.grid5000.fr;thermos-root-devel-WordCountTopology-0-53d71473-5305-4169-af6b-67e298a81287;["topology_master"];5.25;1533252984.6986;6.02;13.22;0.0;9;117
54;paravance-8.rennes.grid5000.fr;thermos-root-devel-WordCountTopology-2-0a0fb41b-8320-4335-909c-9bc7a07c1b4d;["container_2_Emit_random_words_2"];5.25;1533252994.97596;130.64;1220.66;1.401839736;10;149
54;paravance-37.rennes.grid5000.fr;thermos-root-devel-WordCountTopology-0-53d71473-5305-4169-af6b-67e298a81287;["topology_master"];5.25;1533252994.91459;6.07;13.29;0.0;9;117
54;paravance-3.rennes.grid5000.fr;thermos-root-devel-WordCountTopology-1-97fd681b-043f-4cce-b9bb-6dca33f50c83;["container_1_Consume_and_count_1"];5.25;1533252994.9162;330.89;1721.13;0.881478026;10;151
55;paravance-3.rennes.grid5000.fr;thermos-root-devel-WordCountTopology-1-97fd681b-043f-4cce-b9bb-6dca33f50c83;["container_1_Consume_and_count_1"];5.25;1533253005.13179;336.09;1748.42;0.881478026;10;151
55;paravance-37.rennes.grid5000.fr;thermos-root-devel-WordCountTopology-0-53d71473-5305-4169-af6b-67e298a81287;["topology_master"];5.25;1533253005.1311;6.16;13.41;0.0;9;117
55;paravance-8.rennes.grid5000.fr;thermos-root-devel-WordCountTopology-2-0a0fb41b-8320-4335-909c-9bc7a07c1b4d;["container_2_Emit_random_words_2"];5.25;1533253005.19285;132.68;1239.64;1.401839736;10;149
56;paravance-37.rennes.grid5000.fr;thermos-root-devel-WordCountTopology-0-53d71473-5305-4169-af6b-67e298a81287;["topology_master"];5.25;1533253015.34874;6.19;13.44;0.0;9;117
56;paravance-8.rennes.grid5000.fr;thermos-root-devel-WordCountTopology-2-0a0fb41b-8320-4335-909c-9bc7a07c1b4d;["container_2_Emit_random_words_2"];5.25;1533253015.4097;134.75;1258.95;1.401839736;10;149
56;paravance-3.rennes.grid5000.fr;thermos-root-devel-WordCountTopology-1-97fd681b-043f-4cce-b9bb-6dca33f50c83;["container_1_Consume_and_count_1"];5.25;1533253015.34875;341.47;1775.54;0.881478026;10;151
57;paravance-8.rennes.grid5000.fr;thermos-root-devel-WordCountTopology-2-0a0fb41b-8320-4335-909c-9bc7a07c1b4d;["container_2_Emit_random_words_2"];5.25;1533253025.62715;136.71;1278.21;1.401839736;10;149
57;paravance-3.rennes.grid5000.fr;thermos-root-devel-WordCountTopology-1-97fd681b-043f-4cce-b9bb-6dca33f50c83;["container_1_Consume_and_count_1"];5.25;1533253025.56596;346.92;1802.35;0.881478026;10;151
57;paravance-37.rennes.grid5000.fr;thermos-root-devel-WordCountTopology-0-53d71473-5305-4169-af6b-67e298a81287;["topology_master"];5.25;1533253025.56606;6.28;13.56;0.0;9;117
58;paravance-8.rennes.grid5000.fr;thermos-root-devel-WordCountTopology-2-0a0fb41b-8320-4335-909c-9bc7a07c1b4d;["container_2_Emit_random_words_2"];5.25;1533253035.84301;138.76;1297.58;1.401839736;10;149
58;paravance-3.rennes.grid5000.fr;thermos-root-devel-WordCountTopology-1-97fd681b-043f-4cce-b9bb-6dca33f50c83;["container_1_Consume_and_count_1"];5.25;1533253035.78293;352.31;1830.07;0.881478026;10;151
58;paravance-37.rennes.grid5000.fr;thermos-root-devel-WordCountTopology-0-53d71473-5305-4169-af6b-67e298a81287;["topology_master"];5.25;1533253035.7821;6.33;13.64;0.0;9;117
59;paravance-8.rennes.grid5000.fr;thermos-root-devel-WordCountTopology-2-0a0fb41b-8320-4335-909c-9bc7a07c1b4d;["container_2_Emit_random_words_2"];5.25;1533253046.05793;140.75;1316.72;1.401839736;10;149
59;paravance-3.rennes.grid5000.fr;thermos-root-devel-WordCountTopology-1-97fd681b-043f-4cce-b9bb-6dca33f50c83;["container_1_Consume_and_count_1"];5.25;1533253045.99609;357.67;1856.98;0.881478026;10;151
59;paravance-37.rennes.grid5000.fr;thermos-root-devel-WordCountTopology-0-53d71473-5305-4169-af6b-67e298a81287;["topology_master"];5.25;1533253045.9972;6.4;13.74;0.0;9;117
60;paravance-37.rennes.grid5000.fr;thermos-root-devel-WordCountTopology-0-53d71473-5305-4169-af6b-67e298a81287;["topology_master"];5.25;1533253056.21212;6.45;13.81;0.0;9;117
60;paravance-8.rennes.grid5000.fr;thermos-root-devel-WordCountTopology-2-0a0fb41b-8320-4335-909c-9bc7a07c1b4d;["container_2_Emit_random_words_2"];5.25;1533253056.27414;142.74;1335.84;1.401839736;10;149
60;paravance-3.rennes.grid5000.fr;thermos-root-devel-WordCountTopology-1-97fd681b-043f-4cce-b9bb-6dca33f50c83;["container_1_Consume_and_count_1"];5.25;1533253056.21418;362.8;1882.97;0.881478026;10;151
