mesure_id;slave_id;executor_id;heron_instances;cpus_limit;timestamp_A;cpus_system_time_secs_A;cpus_user_time_secs_A;cpus_throttled_time_secs_A;processes;threads
0;paravance-65.rennes.grid5000.fr;thermos-root-devel-WordCountTopology-1-f804e60a-80e3-42ab-b087-e06fb756de54;["container_1_Consume_and_count_1"];3.25;1533124812.54531;47.4;278.54;11.272678788;10;149
0;paravance-66.rennes.grid5000.fr;thermos-root-devel-WordCountTopology-0-ae2f7657-1d67-456e-b779-25bd7504ad3d;["topology_master"];3.25;1533124812.57183;2.38;8.04;0.0;9;117
0;paravance-67.rennes.grid5000.fr;thermos-root-devel-WordCountTopology-2-64e23fdd-798c-4a68-a9e6-56b43b316263;["container_2_Emit_random_words_2"];3.25;1533124812.44672;34.17;192.87;4.404759794;10;149
1;paravance-65.rennes.grid5000.fr;thermos-root-devel-WordCountTopology-1-f804e60a-80e3-42ab-b087-e06fb756de54;["container_1_Consume_and_count_1"];3.25;1533124822.75943;51.19;302.2;12.036665046;10;149
1;paravance-67.rennes.grid5000.fr;thermos-root-devel-WordCountTopology-2-64e23fdd-798c-4a68-a9e6-56b43b316263;["container_2_Emit_random_words_2"];3.25;1533124822.65824;36.78;207.84;4.404759794;10;149
1;paravance-66.rennes.grid5000.fr;thermos-root-devel-WordCountTopology-0-ae2f7657-1d67-456e-b779-25bd7504ad3d;["topology_master"];3.25;1533124822.7842;2.45;8.22;0.0;9;117
2;paravance-67.rennes.grid5000.fr;thermos-root-devel-WordCountTopology-2-64e23fdd-798c-4a68-a9e6-56b43b316263;["container_2_Emit_random_words_2"];3.25;1533124832.77003;39.48;222.46;4.404759794;10;149
2;paravance-65.rennes.grid5000.fr;thermos-root-devel-WordCountTopology-1-f804e60a-80e3-42ab-b087-e06fb756de54;["container_1_Consume_and_count_1"];3.25;1533124832.96989;54.94;326.54;13.022883962;10;149
2;paravance-66.rennes.grid5000.fr;thermos-root-devel-WordCountTopology-0-ae2f7657-1d67-456e-b779-25bd7504ad3d;["topology_master"];3.25;1533124832.99443;2.54;8.35;0.0;9;117
3;paravance-65.rennes.grid5000.fr;thermos-root-devel-WordCountTopology-1-f804e60a-80e3-42ab-b087-e06fb756de54;["container_1_Consume_and_count_1"];3.25;1533124843.17779;58.6;351.41;13.952540051;10;149
3;paravance-66.rennes.grid5000.fr;thermos-root-devel-WordCountTopology-0-ae2f7657-1d67-456e-b779-25bd7504ad3d;["topology_master"];3.25;1533124843.20457;2.57;8.38;0.0;9;117
3;paravance-67.rennes.grid5000.fr;thermos-root-devel-WordCountTopology-2-64e23fdd-798c-4a68-a9e6-56b43b316263;["container_2_Emit_random_words_2"];3.25;1533124843.08093;42.04;236.74;4.404759794;10;149
4;paravance-67.rennes.grid5000.fr;thermos-root-devel-WordCountTopology-2-64e23fdd-798c-4a68-a9e6-56b43b316263;["container_2_Emit_random_words_2"];3.25;1533124853.29027;44.85;252.6;4.404759794;10;149
4;paravance-65.rennes.grid5000.fr;thermos-root-devel-WordCountTopology-1-f804e60a-80e3-42ab-b087-e06fb756de54;["container_1_Consume_and_count_1"];3.25;1533124853.3905;62.67;375.7;14.8942892;10;149
4;paravance-66.rennes.grid5000.fr;thermos-root-devel-WordCountTopology-0-ae2f7657-1d67-456e-b779-25bd7504ad3d;["topology_master"];3.25;1533124853.41366;2.66;8.51;0.0;9;117
5;paravance-65.rennes.grid5000.fr;thermos-root-devel-WordCountTopology-1-f804e60a-80e3-42ab-b087-e06fb756de54;["container_1_Consume_and_count_1"];3.25;1533124863.6017;66.63;400.35;15.765906252;10;149
5;paravance-66.rennes.grid5000.fr;thermos-root-devel-WordCountTopology-0-ae2f7657-1d67-456e-b779-25bd7504ad3d;["topology_master"];3.25;1533124863.62592;2.72;8.58;0.0;9;117
5;paravance-67.rennes.grid5000.fr;thermos-root-devel-WordCountTopology-2-64e23fdd-798c-4a68-a9e6-56b43b316263;["container_2_Emit_random_words_2"];3.25;1533124863.50271;47.55;268.97;4.404759794;10;149
6;paravance-67.rennes.grid5000.fr;thermos-root-devel-WordCountTopology-2-64e23fdd-798c-4a68-a9e6-56b43b316263;["container_2_Emit_random_words_2"];3.25;1533124873.71102;50.31;285.15;4.404763121;10;149
6;paravance-65.rennes.grid5000.fr;thermos-root-devel-WordCountTopology-1-f804e60a-80e3-42ab-b087-e06fb756de54;["container_1_Consume_and_count_1"];3.25;1533124873.8117;70.54;424.49;16.907756179;10;149
6;paravance-66.rennes.grid5000.fr;thermos-root-devel-WordCountTopology-0-ae2f7657-1d67-456e-b779-25bd7504ad3d;["topology_master"];3.25;1533124873.83509;2.8;8.7;0.0;9;117
7;paravance-65.rennes.grid5000.fr;thermos-root-devel-WordCountTopology-1-f804e60a-80e3-42ab-b087-e06fb756de54;["container_1_Consume_and_count_1"];3.25;1533124884.01958;74.24;449.03;17.910692352;10;149
7;paravance-67.rennes.grid5000.fr;thermos-root-devel-WordCountTopology-2-64e23fdd-798c-4a68-a9e6-56b43b316263;["container_2_Emit_random_words_2"];3.25;1533124883.91989;53.01;300.59;4.416092304;10;149
7;paravance-66.rennes.grid5000.fr;thermos-root-devel-WordCountTopology-0-ae2f7657-1d67-456e-b779-25bd7504ad3d;["topology_master"];3.25;1533124884.04398;2.86;8.83;0.0;9;117
8;paravance-66.rennes.grid5000.fr;thermos-root-devel-WordCountTopology-0-ae2f7657-1d67-456e-b779-25bd7504ad3d;["topology_master"];3.25;1533124894.25996;2.94;8.96;0.0;9;117
8;paravance-67.rennes.grid5000.fr;thermos-root-devel-WordCountTopology-2-64e23fdd-798c-4a68-a9e6-56b43b316263;["container_2_Emit_random_words_2"];3.25;1533124894.13734;55.87;316.93;4.416092304;10;149
8;paravance-65.rennes.grid5000.fr;thermos-root-devel-WordCountTopology-1-f804e60a-80e3-42ab-b087-e06fb756de54;["container_1_Consume_and_count_1"];3.25;1533124894.23509;78.37;473.37;18.841659363;10;149
9;paravance-65.rennes.grid5000.fr;thermos-root-devel-WordCountTopology-1-f804e60a-80e3-42ab-b087-e06fb756de54;["container_1_Consume_and_count_1"];3.25;1533124904.45619;82.16;497.56;19.806580119;10;149
9;paravance-67.rennes.grid5000.fr;thermos-root-devel-WordCountTopology-2-64e23fdd-798c-4a68-a9e6-56b43b316263;["container_2_Emit_random_words_2"];3.25;1533124904.35573;58.55;332.2;4.416092304;10;149
9;paravance-66.rennes.grid5000.fr;thermos-root-devel-WordCountTopology-0-ae2f7657-1d67-456e-b779-25bd7504ad3d;["topology_master"];3.25;1533124904.48054;2.97;8.99;0.0;9;117
10;paravance-67.rennes.grid5000.fr;thermos-root-devel-WordCountTopology-2-64e23fdd-798c-4a68-a9e6-56b43b316263;["container_2_Emit_random_words_2"];3.25;1533124914.56661;61.21;347.18;4.416092304;10;149
10;paravance-66.rennes.grid5000.fr;thermos-root-devel-WordCountTopology-0-ae2f7657-1d67-456e-b779-25bd7504ad3d;["topology_master"];3.25;1533124914.69057;3.06;9.11;0.0;9;117
10;paravance-65.rennes.grid5000.fr;thermos-root-devel-WordCountTopology-1-f804e60a-80e3-42ab-b087-e06fb756de54;["container_1_Consume_and_count_1"];3.25;1533124914.66731;85.98;521.92;20.452856646;10;149
11;paravance-67.rennes.grid5000.fr;thermos-root-devel-WordCountTopology-2-64e23fdd-798c-4a68-a9e6-56b43b316263;["container_2_Emit_random_words_2"];3.25;1533124924.77582;63.92;362.32;4.416092304;10;149
11;paravance-66.rennes.grid5000.fr;thermos-root-devel-WordCountTopology-0-ae2f7657-1d67-456e-b779-25bd7504ad3d;["topology_master"];3.25;1533124924.89968;3.12;9.19;0.0;9;117
11;paravance-65.rennes.grid5000.fr;thermos-root-devel-WordCountTopology-1-f804e60a-80e3-42ab-b087-e06fb756de54;["container_1_Consume_and_count_1"];3.25;1533124924.87621;89.87;545.68;21.218621101;10;149
12;paravance-67.rennes.grid5000.fr;thermos-root-devel-WordCountTopology-2-64e23fdd-798c-4a68-a9e6-56b43b316263;["container_2_Emit_random_words_2"];3.25;1533124934.98343;66.74;377.95;4.422242675;10;149
12;paravance-65.rennes.grid5000.fr;thermos-root-devel-WordCountTopology-1-f804e60a-80e3-42ab-b087-e06fb756de54;["container_1_Consume_and_count_1"];3.25;1533124935.08435;93.82;570.35;22.270422404;10;149
12;paravance-66.rennes.grid5000.fr;thermos-root-devel-WordCountTopology-0-ae2f7657-1d67-456e-b779-25bd7504ad3d;["topology_master"];3.25;1533124935.10826;3.21;9.42;0.0;9;117
13;paravance-65.rennes.grid5000.fr;thermos-root-devel-WordCountTopology-1-f804e60a-80e3-42ab-b087-e06fb756de54;["container_1_Consume_and_count_1"];3.25;1533124945.29183;97.66;594.86;23.146466933;10;149
13;paravance-67.rennes.grid5000.fr;thermos-root-devel-WordCountTopology-2-64e23fdd-798c-4a68-a9e6-56b43b316263;["container_2_Emit_random_words_2"];3.25;1533124945.19174;69.45;393.34;4.422242675;10;149
13;paravance-66.rennes.grid5000.fr;thermos-root-devel-WordCountTopology-0-ae2f7657-1d67-456e-b779-25bd7504ad3d;["topology_master"];3.25;1533124945.31524;3.27;9.49;0.0;9;117
14;paravance-67.rennes.grid5000.fr;thermos-root-devel-WordCountTopology-2-64e23fdd-798c-4a68-a9e6-56b43b316263;["container_2_Emit_random_words_2"];3.25;1533124955.40069;72.25;409.83;4.422242675;10;149
14;paravance-65.rennes.grid5000.fr;thermos-root-devel-WordCountTopology-1-f804e60a-80e3-42ab-b087-e06fb756de54;["container_1_Consume_and_count_1"];3.25;1533124955.50151;101.74;618.91;23.78167393;10;149
14;paravance-66.rennes.grid5000.fr;thermos-root-devel-WordCountTopology-0-ae2f7657-1d67-456e-b779-25bd7504ad3d;["topology_master"];3.25;1533124955.52447;3.36;9.63;0.0;9;117
15;paravance-65.rennes.grid5000.fr;thermos-root-devel-WordCountTopology-1-f804e60a-80e3-42ab-b087-e06fb756de54;["container_1_Consume_and_count_1"];3.25;1533124965.71365;105.4;642.92;24.211393797;10;149
15;paravance-66.rennes.grid5000.fr;thermos-root-devel-WordCountTopology-0-ae2f7657-1d67-456e-b779-25bd7504ad3d;["topology_master"];3.25;1533124965.7395;3.42;9.7;0.0;9;117
15;paravance-67.rennes.grid5000.fr;thermos-root-devel-WordCountTopology-2-64e23fdd-798c-4a68-a9e6-56b43b316263;["container_2_Emit_random_words_2"];3.25;1533124965.61893;74.85;424.32;4.422242675;10;149
16;paravance-65.rennes.grid5000.fr;thermos-root-devel-WordCountTopology-1-f804e60a-80e3-42ab-b087-e06fb756de54;["container_1_Consume_and_count_1"];3.25;1533124975.92662;109.03;666.89;24.994714101;10;149
16;paravance-66.rennes.grid5000.fr;thermos-root-devel-WordCountTopology-0-ae2f7657-1d67-456e-b779-25bd7504ad3d;["topology_master"];3.25;1533124975.95048;3.48;9.78;0.0;9;117
16;paravance-67.rennes.grid5000.fr;thermos-root-devel-WordCountTopology-2-64e23fdd-798c-4a68-a9e6-56b43b316263;["container_2_Emit_random_words_2"];3.25;1533124975.82693;77.35;438.1;4.422242675;10;149
17;paravance-65.rennes.grid5000.fr;thermos-root-devel-WordCountTopology-1-f804e60a-80e3-42ab-b087-e06fb756de54;["container_1_Consume_and_count_1"];3.25;1533124986.13691;112.81;691.02;25.678032398;10;149
17;paravance-67.rennes.grid5000.fr;thermos-root-devel-WordCountTopology-2-64e23fdd-798c-4a68-a9e6-56b43b316263;["container_2_Emit_random_words_2"];3.25;1533124986.0372;79.95;452.84;4.422242675;10;149
17;paravance-66.rennes.grid5000.fr;thermos-root-devel-WordCountTopology-0-ae2f7657-1d67-456e-b779-25bd7504ad3d;["topology_master"];3.25;1533124986.16072;3.53;9.85;0.0;9;117
18;paravance-65.rennes.grid5000.fr;thermos-root-devel-WordCountTopology-1-f804e60a-80e3-42ab-b087-e06fb756de54;["container_1_Consume_and_count_1"];3.25;1533124996.34645;116.81;714.39;26.327815135;10;149
18;paravance-67.rennes.grid5000.fr;thermos-root-devel-WordCountTopology-2-64e23fdd-798c-4a68-a9e6-56b43b316263;["container_2_Emit_random_words_2"];3.25;1533124996.2488;82.7;468.85;4.422242675;10;149
18;paravance-66.rennes.grid5000.fr;thermos-root-devel-WordCountTopology-0-ae2f7657-1d67-456e-b779-25bd7504ad3d;["topology_master"];3.25;1533124996.37037;3.65;10.07;0.0;9;117
19;paravance-67.rennes.grid5000.fr;thermos-root-devel-WordCountTopology-2-64e23fdd-798c-4a68-a9e6-56b43b316263;["container_2_Emit_random_words_2"];3.25;1533125006.46291;85.28;483.95;4.422242675;10;149
19;paravance-65.rennes.grid5000.fr;thermos-root-devel-WordCountTopology-1-f804e60a-80e3-42ab-b087-e06fb756de54;["container_1_Consume_and_count_1"];3.25;1533125006.55703;120.48;737.59;26.651284103;10;149
19;paravance-66.rennes.grid5000.fr;thermos-root-devel-WordCountTopology-0-ae2f7657-1d67-456e-b779-25bd7504ad3d;["topology_master"];3.25;1533125006.58026;3.68;10.1;0.0;9;117
20;paravance-67.rennes.grid5000.fr;thermos-root-devel-WordCountTopology-2-64e23fdd-798c-4a68-a9e6-56b43b316263;["container_2_Emit_random_words_2"];3.25;1533125016.67915;87.88;499.14;4.422242675;10;149
20;paravance-66.rennes.grid5000.fr;thermos-root-devel-WordCountTopology-0-ae2f7657-1d67-456e-b779-25bd7504ad3d;["topology_master"];3.25;1533125016.7908;3.76;10.23;0.0;9;117
20;paravance-65.rennes.grid5000.fr;thermos-root-devel-WordCountTopology-1-f804e60a-80e3-42ab-b087-e06fb756de54;["container_1_Consume_and_count_1"];3.25;1533125016.7677;124.24;761.18;27.275548705;10;149
21;paravance-65.rennes.grid5000.fr;thermos-root-devel-WordCountTopology-1-f804e60a-80e3-42ab-b087-e06fb756de54;["container_1_Consume_and_count_1"];3.25;1533125026.97807;128.14;785.2;27.841431256;10;149
21;paravance-67.rennes.grid5000.fr;thermos-root-devel-WordCountTopology-2-64e23fdd-798c-4a68-a9e6-56b43b316263;["container_2_Emit_random_words_2"];3.25;1533125026.89521;90.54;514.69;4.422242675;10;149
21;paravance-66.rennes.grid5000.fr;thermos-root-devel-WordCountTopology-0-ae2f7657-1d67-456e-b779-25bd7504ad3d;["topology_master"];3.25;1533125027.00093;3.82;10.3;0.0;9;117
22;paravance-65.rennes.grid5000.fr;thermos-root-devel-WordCountTopology-1-f804e60a-80e3-42ab-b087-e06fb756de54;["container_1_Consume_and_count_1"];3.25;1533125037.18814;131.93;809.98;28.722632009;10;149
22;paravance-66.rennes.grid5000.fr;thermos-root-devel-WordCountTopology-0-ae2f7657-1d67-456e-b779-25bd7504ad3d;["topology_master"];3.25;1533125037.21239;3.88;10.38;0.0;9;117
22;paravance-67.rennes.grid5000.fr;thermos-root-devel-WordCountTopology-2-64e23fdd-798c-4a68-a9e6-56b43b316263;["container_2_Emit_random_words_2"];3.25;1533125037.11195;93.21;530.35;4.422242675;10;149
23;paravance-67.rennes.grid5000.fr;thermos-root-devel-WordCountTopology-2-64e23fdd-798c-4a68-a9e6-56b43b316263;["container_2_Emit_random_words_2"];3.25;1533125047.3265;95.87;544.99;4.422242675;10;149
23;paravance-65.rennes.grid5000.fr;thermos-root-devel-WordCountTopology-1-f804e60a-80e3-42ab-b087-e06fb756de54;["container_1_Consume_and_count_1"];3.25;1533125047.40017;135.79;834.09;29.570997701;10;149
23;paravance-66.rennes.grid5000.fr;thermos-root-devel-WordCountTopology-0-ae2f7657-1d67-456e-b779-25bd7504ad3d;["topology_master"];3.25;1533125047.42296;3.93;10.45;0.0;9;117
24;paravance-66.rennes.grid5000.fr;thermos-root-devel-WordCountTopology-0-ae2f7657-1d67-456e-b779-25bd7504ad3d;["topology_master"];3.25;1533125057.63113;4.03;10.63;0.0;9;117
24;paravance-65.rennes.grid5000.fr;thermos-root-devel-WordCountTopology-1-f804e60a-80e3-42ab-b087-e06fb756de54;["container_1_Consume_and_count_1"];3.25;1533125057.60845;139.72;859.59;30.281851439;10;149
24;paravance-67.rennes.grid5000.fr;thermos-root-devel-WordCountTopology-2-64e23fdd-798c-4a68-a9e6-56b43b316263;["container_2_Emit_random_words_2"];3.25;1533125057.54169;98.67;560.43;4.422242675;10;149
25;paravance-65.rennes.grid5000.fr;thermos-root-devel-WordCountTopology-1-f804e60a-80e3-42ab-b087-e06fb756de54;["container_1_Consume_and_count_1"];3.25;1533125067.81895;143.7;884.66;31.333965051;10;149
25;paravance-67.rennes.grid5000.fr;thermos-root-devel-WordCountTopology-2-64e23fdd-798c-4a68-a9e6-56b43b316263;["container_2_Emit_random_words_2"];3.25;1533125067.75669;101.33;575.98;4.422242675;10;149
25;paravance-66.rennes.grid5000.fr;thermos-root-devel-WordCountTopology-0-ae2f7657-1d67-456e-b779-25bd7504ad3d;["topology_master"];3.25;1533125067.84234;4.06;10.66;0.0;9;117
26;paravance-67.rennes.grid5000.fr;thermos-root-devel-WordCountTopology-2-64e23fdd-798c-4a68-a9e6-56b43b316263;["container_2_Emit_random_words_2"];3.25;1533125077.97282;104.1;591.39;4.422242675;10;149
26;paravance-66.rennes.grid5000.fr;thermos-root-devel-WordCountTopology-0-ae2f7657-1d67-456e-b779-25bd7504ad3d;["topology_master"];3.25;1533125078.05287;4.14;10.78;0.0;9;117
26;paravance-65.rennes.grid5000.fr;thermos-root-devel-WordCountTopology-1-f804e60a-80e3-42ab-b087-e06fb756de54;["container_1_Consume_and_count_1"];3.25;1533125078.03099;147.66;909.76;32.760549526;10;149
27;paravance-65.rennes.grid5000.fr;thermos-root-devel-WordCountTopology-1-f804e60a-80e3-42ab-b087-e06fb756de54;["container_1_Consume_and_count_1"];3.25;1533125088.24132;151.51;935.01;33.72513535;10;149
27;paravance-67.rennes.grid5000.fr;thermos-root-devel-WordCountTopology-2-64e23fdd-798c-4a68-a9e6-56b43b316263;["container_2_Emit_random_words_2"];3.25;1533125088.18814;106.75;606.27;4.422242675;10;149
27;paravance-66.rennes.grid5000.fr;thermos-root-devel-WordCountTopology-0-ae2f7657-1d67-456e-b779-25bd7504ad3d;["topology_master"];3.25;1533125088.26366;4.2;10.85;0.0;9;117
28;paravance-65.rennes.grid5000.fr;thermos-root-devel-WordCountTopology-1-f804e60a-80e3-42ab-b087-e06fb756de54;["container_1_Consume_and_count_1"];3.25;1533125098.44984;155.62;960.21;34.734993735;10;149
28;paravance-66.rennes.grid5000.fr;thermos-root-devel-WordCountTopology-0-ae2f7657-1d67-456e-b779-25bd7504ad3d;["topology_master"];3.25;1533125098.47379;4.26;10.92;0.0;9;117
28;paravance-67.rennes.grid5000.fr;thermos-root-devel-WordCountTopology-2-64e23fdd-798c-4a68-a9e6-56b43b316263;["container_2_Emit_random_words_2"];3.25;1533125098.40296;109.59;622.41;4.422242675;10;149
29;paravance-66.rennes.grid5000.fr;thermos-root-devel-WordCountTopology-0-ae2f7657-1d67-456e-b779-25bd7504ad3d;["topology_master"];3.25;1533125108.68447;4.31;10.99;0.0;9;117
29;paravance-65.rennes.grid5000.fr;thermos-root-devel-WordCountTopology-1-f804e60a-80e3-42ab-b087-e06fb756de54;["container_1_Consume_and_count_1"];3.25;1533125108.66234;159.36;983.06;35.105132826;10;149
29;paravance-67.rennes.grid5000.fr;thermos-root-devel-WordCountTopology-2-64e23fdd-798c-4a68-a9e6-56b43b316263;["container_2_Emit_random_words_2"];3.25;1533125108.61983;112.22;637.12;4.422242675;10;149
30;paravance-66.rennes.grid5000.fr;thermos-root-devel-WordCountTopology-0-ae2f7657-1d67-456e-b779-25bd7504ad3d;["topology_master"];3.25;1533125118.89494;4.42;11.17;0.0;9;117
30;paravance-65.rennes.grid5000.fr;thermos-root-devel-WordCountTopology-1-f804e60a-80e3-42ab-b087-e06fb756de54;["container_1_Consume_and_count_1"];3.25;1533125118.87209;163.21;1006.74;35.902421664;10;149
30;paravance-67.rennes.grid5000.fr;thermos-root-devel-WordCountTopology-2-64e23fdd-798c-4a68-a9e6-56b43b316263;["container_2_Emit_random_words_2"];3.25;1533125118.8365;114.95;652.3;4.422242675;10;149
31;paravance-67.rennes.grid5000.fr;thermos-root-devel-WordCountTopology-2-64e23fdd-798c-4a68-a9e6-56b43b316263;["container_2_Emit_random_words_2"];3.25;1533125129.051;117.65;667.54;4.422242675;10;149
31;paravance-65.rennes.grid5000.fr;thermos-root-devel-WordCountTopology-1-f804e60a-80e3-42ab-b087-e06fb756de54;["container_1_Consume_and_count_1"];3.25;1533125129.08353;167.09;1031.67;36.663581059;10;149
31;paravance-66.rennes.grid5000.fr;thermos-root-devel-WordCountTopology-0-ae2f7657-1d67-456e-b779-25bd7504ad3d;["topology_master"];3.25;1533125129.10631;4.45;11.19;0.0;9;117
32;paravance-65.rennes.grid5000.fr;thermos-root-devel-WordCountTopology-1-f804e60a-80e3-42ab-b087-e06fb756de54;["container_1_Consume_and_count_1"];3.25;1533125139.29294;170.86;1055.4;37.537385282;10;149
32;paravance-67.rennes.grid5000.fr;thermos-root-devel-WordCountTopology-2-64e23fdd-798c-4a68-a9e6-56b43b316263;["container_2_Emit_random_words_2"];3.25;1533125139.26797;120.35;683.3;4.422242675;10;149
32;paravance-66.rennes.grid5000.fr;thermos-root-devel-WordCountTopology-0-ae2f7657-1d67-456e-b779-25bd7504ad3d;["topology_master"];3.25;1533125139.31767;4.55;11.33;0.0;9;117
33;paravance-65.rennes.grid5000.fr;thermos-root-devel-WordCountTopology-1-f804e60a-80e3-42ab-b087-e06fb756de54;["container_1_Consume_and_count_1"];3.25;1533125149.50502;174.53;1079.45;38.280820166;10;149
33;paravance-67.rennes.grid5000.fr;thermos-root-devel-WordCountTopology-2-64e23fdd-798c-4a68-a9e6-56b43b316263;["container_2_Emit_random_words_2"];3.25;1533125149.48261;122.89;698.04;4.422242675;10;149
33;paravance-66.rennes.grid5000.fr;thermos-root-devel-WordCountTopology-0-ae2f7657-1d67-456e-b779-25bd7504ad3d;["topology_master"];3.25;1533125149.52726;4.64;11.45;0.0;9;117
34;paravance-65.rennes.grid5000.fr;thermos-root-devel-WordCountTopology-1-f804e60a-80e3-42ab-b087-e06fb756de54;["container_1_Consume_and_count_1"];3.25;1533125159.71486;178.49;1103.42;39.071059584;10;149
34;paravance-66.rennes.grid5000.fr;thermos-root-devel-WordCountTopology-0-ae2f7657-1d67-456e-b779-25bd7504ad3d;["topology_master"];3.25;1533125159.73669;4.66;11.48;0.0;9;117
34;paravance-67.rennes.grid5000.fr;thermos-root-devel-WordCountTopology-2-64e23fdd-798c-4a68-a9e6-56b43b316263;["container_2_Emit_random_words_2"];3.25;1533125159.69745;125.55;714.54;4.422242675;10;149
35;paravance-66.rennes.grid5000.fr;thermos-root-devel-WordCountTopology-0-ae2f7657-1d67-456e-b779-25bd7504ad3d;["topology_master"];3.25;1533125169.94529;4.76;11.62;0.0;9;117
35;paravance-65.rennes.grid5000.fr;thermos-root-devel-WordCountTopology-1-f804e60a-80e3-42ab-b087-e06fb756de54;["container_1_Consume_and_count_1"];3.25;1533125169.924;182.71;1127.83;39.937019917;10;149
35;paravance-67.rennes.grid5000.fr;thermos-root-devel-WordCountTopology-2-64e23fdd-798c-4a68-a9e6-56b43b316263;["container_2_Emit_random_words_2"];3.25;1533125169.91161;128.42;731.54;4.422242675;10;149
36;paravance-65.rennes.grid5000.fr;thermos-root-devel-WordCountTopology-1-f804e60a-80e3-42ab-b087-e06fb756de54;["container_1_Consume_and_count_1"];3.25;1533125180.13502;186.66;1152.81;40.856564134;10;149
36;paravance-67.rennes.grid5000.fr;thermos-root-devel-WordCountTopology-2-64e23fdd-798c-4a68-a9e6-56b43b316263;["container_2_Emit_random_words_2"];3.25;1533125180.12681;131.37;748.62;4.422242675;10;149
36;paravance-66.rennes.grid5000.fr;thermos-root-devel-WordCountTopology-0-ae2f7657-1d67-456e-b779-25bd7504ad3d;["topology_master"];3.25;1533125180.15654;4.82;11.78;0.0;9;117
37;paravance-65.rennes.grid5000.fr;thermos-root-devel-WordCountTopology-1-f804e60a-80e3-42ab-b087-e06fb756de54;["container_1_Consume_and_count_1"];3.25;1533125190.34546;190.61;1177.02;41.844670661;10;149
37;paravance-67.rennes.grid5000.fr;thermos-root-devel-WordCountTopology-2-64e23fdd-798c-4a68-a9e6-56b43b316263;["container_2_Emit_random_words_2"];3.25;1533125190.34217;134.06;763.69;4.422242675;10;149
37;paravance-66.rennes.grid5000.fr;thermos-root-devel-WordCountTopology-0-ae2f7657-1d67-456e-b779-25bd7504ad3d;["topology_master"];3.25;1533125190.36695;4.88;11.85;0.0;9;117
38;paravance-65.rennes.grid5000.fr;thermos-root-devel-WordCountTopology-1-f804e60a-80e3-42ab-b087-e06fb756de54;["container_1_Consume_and_count_1"];3.25;1533125200.56058;194.44;1201.85;42.922385713;10;149
38;paravance-66.rennes.grid5000.fr;thermos-root-devel-WordCountTopology-0-ae2f7657-1d67-456e-b779-25bd7504ad3d;["topology_master"];3.25;1533125200.57627;4.93;11.92;0.0;9;117
38;paravance-67.rennes.grid5000.fr;thermos-root-devel-WordCountTopology-2-64e23fdd-798c-4a68-a9e6-56b43b316263;["container_2_Emit_random_words_2"];3.25;1533125200.55868;136.78;778.85;4.422242675;10;149
39;paravance-65.rennes.grid5000.fr;thermos-root-devel-WordCountTopology-1-f804e60a-80e3-42ab-b087-e06fb756de54;["container_1_Consume_and_count_1"];3.25;1533125210.77691;198.29;1226.24;43.920274089;10;149
39;paravance-66.rennes.grid5000.fr;thermos-root-devel-WordCountTopology-0-ae2f7657-1d67-456e-b779-25bd7504ad3d;["topology_master"];3.25;1533125210.78635;5.02;12.05;0.0;9;117
39;paravance-67.rennes.grid5000.fr;thermos-root-devel-WordCountTopology-2-64e23fdd-798c-4a68-a9e6-56b43b316263;["container_2_Emit_random_words_2"];3.25;1533125210.77349;139.43;793.32;4.422242675;10;149
40;paravance-67.rennes.grid5000.fr;thermos-root-devel-WordCountTopology-2-64e23fdd-798c-4a68-a9e6-56b43b316263;["container_2_Emit_random_words_2"];3.25;1533125220.98708;142.17;808.88;4.422242675;10;149
40;paravance-66.rennes.grid5000.fr;thermos-root-devel-WordCountTopology-0-ae2f7657-1d67-456e-b779-25bd7504ad3d;["topology_master"];3.25;1533125220.99702;5.05;12.07;0.0;9;117
40;paravance-65.rennes.grid5000.fr;thermos-root-devel-WordCountTopology-1-f804e60a-80e3-42ab-b087-e06fb756de54;["container_1_Consume_and_count_1"];3.25;1533125221.0102;202.21;1250.47;44.4875934;10;149
41;paravance-67.rennes.grid5000.fr;thermos-root-devel-WordCountTopology-2-64e23fdd-798c-4a68-a9e6-56b43b316263;["container_2_Emit_random_words_2"];3.25;1533125231.22112;144.89;824.32;4.422242675;10;149
41;paravance-65.rennes.grid5000.fr;thermos-root-devel-WordCountTopology-1-f804e60a-80e3-42ab-b087-e06fb756de54;["container_1_Consume_and_count_1"];3.25;1533125231.22538;206.18;1275.39;45.846057592;10;149
41;paravance-66.rennes.grid5000.fr;thermos-root-devel-WordCountTopology-0-ae2f7657-1d67-456e-b779-25bd7504ad3d;["topology_master"];3.25;1533125231.22496;5.14;12.2;0.0;9;117
42;paravance-65.rennes.grid5000.fr;thermos-root-devel-WordCountTopology-1-f804e60a-80e3-42ab-b087-e06fb756de54;["container_1_Consume_and_count_1"];3.25;1533125241.43865;210.03;1299.63;46.863577226;10;149
42;paravance-67.rennes.grid5000.fr;thermos-root-devel-WordCountTopology-2-64e23fdd-798c-4a68-a9e6-56b43b316263;["container_2_Emit_random_words_2"];3.25;1533125241.43579;147.58;839.57;4.422242675;10;149
42;paravance-66.rennes.grid5000.fr;thermos-root-devel-WordCountTopology-0-ae2f7657-1d67-456e-b779-25bd7504ad3d;["topology_master"];3.25;1533125241.43523;5.2;12.32;0.0;9;117
43;paravance-65.rennes.grid5000.fr;thermos-root-devel-WordCountTopology-1-f804e60a-80e3-42ab-b087-e06fb756de54;["container_1_Consume_and_count_1"];3.25;1533125251.65482;213.7;1324.25;48.119279502;10;149
43;paravance-67.rennes.grid5000.fr;thermos-root-devel-WordCountTopology-2-64e23fdd-798c-4a68-a9e6-56b43b316263;["container_2_Emit_random_words_2"];3.25;1533125251.65039;150.14;853.37;4.422242675;10;149
43;paravance-66.rennes.grid5000.fr;thermos-root-devel-WordCountTopology-0-ae2f7657-1d67-456e-b779-25bd7504ad3d;["topology_master"];3.25;1533125251.65037;5.26;12.39;0.0;9;117
44;paravance-65.rennes.grid5000.fr;thermos-root-devel-WordCountTopology-1-f804e60a-80e3-42ab-b087-e06fb756de54;["container_1_Consume_and_count_1"];3.25;1533125261.86911;217.42;1349.31;48.865716163;10;149
44;paravance-67.rennes.grid5000.fr;thermos-root-devel-WordCountTopology-2-64e23fdd-798c-4a68-a9e6-56b43b316263;["container_2_Emit_random_words_2"];3.25;1533125261.86693;152.64;867.45;4.422242675;10;149
44;paravance-66.rennes.grid5000.fr;thermos-root-devel-WordCountTopology-0-ae2f7657-1d67-456e-b779-25bd7504ad3d;["topology_master"];3.25;1533125261.86598;5.32;12.46;0.0;9;117
45;paravance-66.rennes.grid5000.fr;thermos-root-devel-WordCountTopology-0-ae2f7657-1d67-456e-b779-25bd7504ad3d;["topology_master"];3.25;1533125272.08085;5.4;12.58;0.0;9;117
45;paravance-67.rennes.grid5000.fr;thermos-root-devel-WordCountTopology-2-64e23fdd-798c-4a68-a9e6-56b43b316263;["container_2_Emit_random_words_2"];3.25;1533125272.08194;155.23;882.09;4.422242675;10;149
45;paravance-65.rennes.grid5000.fr;thermos-root-devel-WordCountTopology-1-f804e60a-80e3-42ab-b087-e06fb756de54;["container_1_Consume_and_count_1"];3.25;1533125272.08676;221.21;1373.37;49.7812996;10;149
46;paravance-65.rennes.grid5000.fr;thermos-root-devel-WordCountTopology-1-f804e60a-80e3-42ab-b087-e06fb756de54;["container_1_Consume_and_count_1"];3.25;1533125282.30287;224.95;1398.28;50.6618548;10;149
46;paravance-67.rennes.grid5000.fr;thermos-root-devel-WordCountTopology-2-64e23fdd-798c-4a68-a9e6-56b43b316263;["container_2_Emit_random_words_2"];3.25;1533125282.29853;157.88;896.5;4.422242675;10;149
46;paravance-66.rennes.grid5000.fr;thermos-root-devel-WordCountTopology-0-ae2f7657-1d67-456e-b779-25bd7504ad3d;["topology_master"];3.25;1533125282.2981;5.46;12.65;0.0;9;117
47;paravance-65.rennes.grid5000.fr;thermos-root-devel-WordCountTopology-1-f804e60a-80e3-42ab-b087-e06fb756de54;["container_1_Consume_and_count_1"];3.25;1533125292.51703;228.81;1422.95;51.395991594;10;149
47;paravance-67.rennes.grid5000.fr;thermos-root-devel-WordCountTopology-2-64e23fdd-798c-4a68-a9e6-56b43b316263;["container_2_Emit_random_words_2"];3.25;1533125292.5147;160.51;911.33;4.422242675;10;149
47;paravance-66.rennes.grid5000.fr;thermos-root-devel-WordCountTopology-0-ae2f7657-1d67-456e-b779-25bd7504ad3d;["topology_master"];3.25;1533125292.51389;5.53;12.74;0.0;9;117
48;paravance-67.rennes.grid5000.fr;thermos-root-devel-WordCountTopology-2-64e23fdd-798c-4a68-a9e6-56b43b316263;["container_2_Emit_random_words_2"];3.25;1533125302.73036;163.1;926.06;4.422242675;10;149
48;paravance-65.rennes.grid5000.fr;thermos-root-devel-WordCountTopology-1-f804e60a-80e3-42ab-b087-e06fb756de54;["container_1_Consume_and_count_1"];3.25;1533125302.73345;232.65;1446.52;52.078280412;10;149
48;paravance-66.rennes.grid5000.fr;thermos-root-devel-WordCountTopology-0-ae2f7657-1d67-456e-b779-25bd7504ad3d;["topology_master"];3.25;1533125302.72919;5.6;12.88;0.0;9;117
49;paravance-67.rennes.grid5000.fr;thermos-root-devel-WordCountTopology-2-64e23fdd-798c-4a68-a9e6-56b43b316263;["container_2_Emit_random_words_2"];3.25;1533125312.94466;165.82;941.23;4.422242675;10;149
49;paravance-66.rennes.grid5000.fr;thermos-root-devel-WordCountTopology-0-ae2f7657-1d67-456e-b779-25bd7504ad3d;["topology_master"];3.25;1533125312.94407;5.68;13.0;0.0;9;117
49;paravance-65.rennes.grid5000.fr;thermos-root-devel-WordCountTopology-1-f804e60a-80e3-42ab-b087-e06fb756de54;["container_1_Consume_and_count_1"];3.25;1533125312.94982;236.55;1470.63;52.846169365;10;149
50;paravance-67.rennes.grid5000.fr;thermos-root-devel-WordCountTopology-2-64e23fdd-798c-4a68-a9e6-56b43b316263;["container_2_Emit_random_words_2"];3.25;1533125323.16121;168.45;956.85;4.422242675;10;149
50;paravance-66.rennes.grid5000.fr;thermos-root-devel-WordCountTopology-0-ae2f7657-1d67-456e-b779-25bd7504ad3d;["topology_master"];3.25;1533125323.16003;5.71;13.03;0.0;9;117
50;paravance-65.rennes.grid5000.fr;thermos-root-devel-WordCountTopology-1-f804e60a-80e3-42ab-b087-e06fb756de54;["container_1_Consume_and_count_1"];3.25;1533125323.1661;240.6;1495.37;53.487083799;10;149
51;paravance-67.rennes.grid5000.fr;thermos-root-devel-WordCountTopology-2-64e23fdd-798c-4a68-a9e6-56b43b316263;["container_2_Emit_random_words_2"];3.25;1533125333.37726;171.09;971.98;4.422242675;10;149
51;paravance-65.rennes.grid5000.fr;thermos-root-devel-WordCountTopology-1-f804e60a-80e3-42ab-b087-e06fb756de54;["container_1_Consume_and_count_1"];3.25;1533125333.38189;244.59;1519.62;54.339833309;10;149
51;paravance-66.rennes.grid5000.fr;thermos-root-devel-WordCountTopology-0-ae2f7657-1d67-456e-b779-25bd7504ad3d;["topology_master"];3.25;1533125333.37648;5.8;13.16;0.0;9;117
52;paravance-65.rennes.grid5000.fr;thermos-root-devel-WordCountTopology-1-f804e60a-80e3-42ab-b087-e06fb756de54;["container_1_Consume_and_count_1"];3.25;1533125343.59813;248.76;1543.77;55.141644481;10;149
52;paravance-66.rennes.grid5000.fr;thermos-root-devel-WordCountTopology-0-ae2f7657-1d67-456e-b779-25bd7504ad3d;["topology_master"];3.25;1533125343.59267;5.86;13.24;0.0;9;117
52;paravance-67.rennes.grid5000.fr;thermos-root-devel-WordCountTopology-2-64e23fdd-798c-4a68-a9e6-56b43b316263;["container_2_Emit_random_words_2"];3.25;1533125343.59475;173.92;988.34;4.422242675;10;149
53;paravance-65.rennes.grid5000.fr;thermos-root-devel-WordCountTopology-1-f804e60a-80e3-42ab-b087-e06fb756de54;["container_1_Consume_and_count_1"];3.25;1533125353.81394;252.79;1568.74;56.354803742;10;149
53;paravance-67.rennes.grid5000.fr;thermos-root-devel-WordCountTopology-2-64e23fdd-798c-4a68-a9e6-56b43b316263;["container_2_Emit_random_words_2"];3.25;1533125353.80963;176.67;1004.14;4.422242675;10;149
53;paravance-66.rennes.grid5000.fr;thermos-root-devel-WordCountTopology-0-ae2f7657-1d67-456e-b779-25bd7504ad3d;["topology_master"];3.25;1533125353.80896;5.93;13.34;0.0;9;117
54;paravance-67.rennes.grid5000.fr;thermos-root-devel-WordCountTopology-2-64e23fdd-798c-4a68-a9e6-56b43b316263;["container_2_Emit_random_words_2"];3.25;1533125364.02595;179.42;1019.87;4.422242675;10;149
54;paravance-65.rennes.grid5000.fr;thermos-root-devel-WordCountTopology-1-f804e60a-80e3-42ab-b087-e06fb756de54;["container_1_Consume_and_count_1"];3.25;1533125364.02999;256.9;1593.47;57.592336488;10;149
54;paravance-66.rennes.grid5000.fr;thermos-root-devel-WordCountTopology-0-ae2f7657-1d67-456e-b779-25bd7504ad3d;["topology_master"];3.25;1533125364.02549;5.99;13.45;0.0;9;117
55;paravance-67.rennes.grid5000.fr;thermos-root-devel-WordCountTopology-2-64e23fdd-798c-4a68-a9e6-56b43b316263;["container_2_Emit_random_words_2"];3.25;1533125374.24177;182.18;1035.14;4.422242675;10;149
55;paravance-65.rennes.grid5000.fr;thermos-root-devel-WordCountTopology-1-f804e60a-80e3-42ab-b087-e06fb756de54;["container_1_Consume_and_count_1"];3.25;1533125374.24652;261.04;1617.95;58.55775028;10;149
55;paravance-66.rennes.grid5000.fr;thermos-root-devel-WordCountTopology-0-ae2f7657-1d67-456e-b779-25bd7504ad3d;["topology_master"];3.25;1533125374.24084;6.08;13.56;0.0;9;117
56;paravance-66.rennes.grid5000.fr;thermos-root-devel-WordCountTopology-0-ae2f7657-1d67-456e-b779-25bd7504ad3d;["topology_master"];3.25;1533125384.45738;6.11;13.59;0.0;9;117
56;paravance-67.rennes.grid5000.fr;thermos-root-devel-WordCountTopology-2-64e23fdd-798c-4a68-a9e6-56b43b316263;["container_2_Emit_random_words_2"];3.25;1533125384.45858;184.69;1049.45;4.422242675;10;149
56;paravance-65.rennes.grid5000.fr;thermos-root-devel-WordCountTopology-1-f804e60a-80e3-42ab-b087-e06fb756de54;["container_1_Consume_and_count_1"];3.25;1533125384.46348;264.85;1641.78;59.459529213;10;149
57;paravance-65.rennes.grid5000.fr;thermos-root-devel-WordCountTopology-1-f804e60a-80e3-42ab-b087-e06fb756de54;["container_1_Consume_and_count_1"];3.25;1533125394.67905;268.94;1666.65;60.578583515;10;149
57;paravance-67.rennes.grid5000.fr;thermos-root-devel-WordCountTopology-2-64e23fdd-798c-4a68-a9e6-56b43b316263;["container_2_Emit_random_words_2"];3.25;1533125394.67554;187.45;1064.88;4.422242675;10;149
57;paravance-66.rennes.grid5000.fr;thermos-root-devel-WordCountTopology-0-ae2f7657-1d67-456e-b779-25bd7504ad3d;["topology_master"];3.25;1533125394.675;6.2;13.72;0.0;9;117
58;paravance-67.rennes.grid5000.fr;thermos-root-devel-WordCountTopology-2-64e23fdd-798c-4a68-a9e6-56b43b316263;["container_2_Emit_random_words_2"];3.25;1533125404.89226;190.13;1080.18;4.422242675;10;149
58;paravance-65.rennes.grid5000.fr;thermos-root-devel-WordCountTopology-1-f804e60a-80e3-42ab-b087-e06fb756de54;["container_1_Consume_and_count_1"];3.25;1533125404.89612;272.84;1690.53;61.06613463;10;149
58;paravance-66.rennes.grid5000.fr;thermos-root-devel-WordCountTopology-0-ae2f7657-1d67-456e-b779-25bd7504ad3d;["topology_master"];3.25;1533125404.88996;6.25;13.78;0.0;9;117
59;paravance-65.rennes.grid5000.fr;thermos-root-devel-WordCountTopology-1-f804e60a-80e3-42ab-b087-e06fb756de54;["container_1_Consume_and_count_1"];3.25;1533125415.11339;277.28;1714.94;61.890673956;10;149
59;paravance-66.rennes.grid5000.fr;thermos-root-devel-WordCountTopology-0-ae2f7657-1d67-456e-b779-25bd7504ad3d;["topology_master"];3.25;1533125415.10737;6.33;13.92;0.0;9;117
59;paravance-67.rennes.grid5000.fr;thermos-root-devel-WordCountTopology-2-64e23fdd-798c-4a68-a9e6-56b43b316263;["container_2_Emit_random_words_2"];3.25;1533125415.10785;193.15;1098.53;4.422242675;10;149
60;paravance-67.rennes.grid5000.fr;thermos-root-devel-WordCountTopology-2-64e23fdd-798c-4a68-a9e6-56b43b316263;["container_2_Emit_random_words_2"];3.25;1533125425.3248;195.94;1115.19;4.422242675;10;149
60;paravance-66.rennes.grid5000.fr;thermos-root-devel-WordCountTopology-0-ae2f7657-1d67-456e-b779-25bd7504ad3d;["topology_master"];3.25;1533125425.32377;6.39;14.0;0.0;9;117
60;paravance-65.rennes.grid5000.fr;thermos-root-devel-WordCountTopology-1-f804e60a-80e3-42ab-b087-e06fb756de54;["container_1_Consume_and_count_1"];3.25;1533125425.33047;281.53;1738.75;62.617065262;10;149
