------------------------------------------------------
 submission_time: 1533339954
------------------------------------------------------
timeslice start: 1533340320; backpressure time in ms: 0.0
timeslice start: 1533340560; backpressure time in ms: 0.0
timeslice start: 1533340260; backpressure time in ms: 0.0
timeslice start: 1533340200; backpressure time in ms: 0.0
timeslice start: 1533340620; backpressure time in ms: 735.0
timeslice start: 1533340140; backpressure time in ms: 0.0
timeslice start: 1533340080; backpressure time in ms: 0.0
timeslice start: 1533340500; backpressure time in ms: 0.0
timeslice start: 1533340440; backpressure time in ms: 0.0
timeslice start: 1533340380; backpressure time in ms: 0.0
