mesure_id;slave_id;executor_id;heron_instances;cpus_limit;timestamp_B;cpus_system_time_secs_B;cpus_user_time_secs_B;cpus_throttled_time_secs_B;processes;threads
0;paravance-9.rennes.grid5000.fr;thermos-root-devel-WordCountTopology-0-70177e11-d9e5-4640-ae5d-7ce1929a67df;["topology_master"];4.25;1533253660.7317;2.5;8.13;0.0;9;117
0;paravance-11.rennes.grid5000.fr;thermos-root-devel-WordCountTopology-1-2d5d4e09-8b57-4df5-8360-c78ea0eabfc5;["container_1_Consume_and_count_1"];4.25;1533253660.71505;39.61;250.49;0.464652466;10;149
0;paravance-26.rennes.grid5000.fr;thermos-root-devel-WordCountTopology-2-ecb83f8f-4827-45da-baa8-d76af850e9a6;["container_2_Emit_random_words_2"];4.25;1533253660.94079;25.81;232.65;2.51425061;10;149
1;paravance-11.rennes.grid5000.fr;thermos-root-devel-WordCountTopology-1-2d5d4e09-8b57-4df5-8360-c78ea0eabfc5;["container_1_Consume_and_count_1"];4.25;1533253670.83356;42.53;271.24;0.464652466;10;149
1;paravance-9.rennes.grid5000.fr;thermos-root-devel-WordCountTopology-0-70177e11-d9e5-4640-ae5d-7ce1929a67df;["topology_master"];4.25;1533253671.04978;2.58;8.26;0.0;9;117
1;paravance-26.rennes.grid5000.fr;thermos-root-devel-WordCountTopology-2-ecb83f8f-4827-45da-baa8-d76af850e9a6;["container_2_Emit_random_words_2"];4.25;1533253671.15559;27.74;250.67;2.51425061;10;149
2;paravance-11.rennes.grid5000.fr;thermos-root-devel-WordCountTopology-1-2d5d4e09-8b57-4df5-8360-c78ea0eabfc5;["container_1_Consume_and_count_1"];4.25;1533253681.15386;45.37;292.3;0.464652466;10;149
2;paravance-9.rennes.grid5000.fr;thermos-root-devel-WordCountTopology-0-70177e11-d9e5-4640-ae5d-7ce1929a67df;["topology_master"];4.25;1533253681.27025;2.61;8.29;0.0;9;117
2;paravance-26.rennes.grid5000.fr;thermos-root-devel-WordCountTopology-2-ecb83f8f-4827-45da-baa8-d76af850e9a6;["container_2_Emit_random_words_2"];4.25;1533253681.36895;29.74;270.72;2.51425061;10;149
3;paravance-26.rennes.grid5000.fr;thermos-root-devel-WordCountTopology-2-ecb83f8f-4827-45da-baa8-d76af850e9a6;["container_2_Emit_random_words_2"];4.25;1533253691.58299;31.81;290.56;2.51425061;10;149
3;paravance-9.rennes.grid5000.fr;thermos-root-devel-WordCountTopology-0-70177e11-d9e5-4640-ae5d-7ce1929a67df;["topology_master"];4.25;1533253691.48972;2.69;8.41;0.0;9;117
3;paravance-11.rennes.grid5000.fr;thermos-root-devel-WordCountTopology-1-2d5d4e09-8b57-4df5-8360-c78ea0eabfc5;["container_1_Consume_and_count_1"];4.25;1533253691.37361;48.64;313.65;0.464652466;10;149
4;paravance-11.rennes.grid5000.fr;thermos-root-devel-WordCountTopology-1-2d5d4e09-8b57-4df5-8360-c78ea0eabfc5;["container_1_Consume_and_count_1"];4.25;1533253701.59285;51.61;334.82;0.464652466;10;149
4;paravance-9.rennes.grid5000.fr;thermos-root-devel-WordCountTopology-0-70177e11-d9e5-4640-ae5d-7ce1929a67df;["topology_master"];4.25;1533253701.71054;2.75;8.49;0.0;9;117
4;paravance-26.rennes.grid5000.fr;thermos-root-devel-WordCountTopology-2-ecb83f8f-4827-45da-baa8-d76af850e9a6;["container_2_Emit_random_words_2"];4.25;1533253701.7998;33.74;309.66;2.51425061;10;149
5;paravance-11.rennes.grid5000.fr;thermos-root-devel-WordCountTopology-1-2d5d4e09-8b57-4df5-8360-c78ea0eabfc5;["container_1_Consume_and_count_1"];4.25;1533253711.8153;54.75;355.82;0.464652466;10;149
5;paravance-26.rennes.grid5000.fr;thermos-root-devel-WordCountTopology-2-ecb83f8f-4827-45da-baa8-d76af850e9a6;["container_2_Emit_random_words_2"];4.25;1533253712.01514;35.65;328.43;2.51425061;10;149
5;paravance-9.rennes.grid5000.fr;thermos-root-devel-WordCountTopology-0-70177e11-d9e5-4640-ae5d-7ce1929a67df;["topology_master"];4.25;1533253711.93199;2.83;8.6;0.0;9;117
6;paravance-11.rennes.grid5000.fr;thermos-root-devel-WordCountTopology-1-2d5d4e09-8b57-4df5-8360-c78ea0eabfc5;["container_1_Consume_and_count_1"];4.25;1533253722.0361;57.69;377.25;0.464652466;10;149
6;paravance-26.rennes.grid5000.fr;thermos-root-devel-WordCountTopology-2-ecb83f8f-4827-45da-baa8-d76af850e9a6;["container_2_Emit_random_words_2"];4.25;1533253722.23006;37.52;347.69;2.51425061;10;149
6;paravance-9.rennes.grid5000.fr;thermos-root-devel-WordCountTopology-0-70177e11-d9e5-4640-ae5d-7ce1929a67df;["topology_master"];4.25;1533253722.1517;2.89;8.74;0.0;9;117
7;paravance-11.rennes.grid5000.fr;thermos-root-devel-WordCountTopology-1-2d5d4e09-8b57-4df5-8360-c78ea0eabfc5;["container_1_Consume_and_count_1"];4.25;1533253732.25677;60.85;399.51;0.464652466;10;149
7;paravance-9.rennes.grid5000.fr;thermos-root-devel-WordCountTopology-0-70177e11-d9e5-4640-ae5d-7ce1929a67df;["topology_master"];4.25;1533253732.37247;2.98;8.87;0.0;9;117
7;paravance-26.rennes.grid5000.fr;thermos-root-devel-WordCountTopology-2-ecb83f8f-4827-45da-baa8-d76af850e9a6;["container_2_Emit_random_words_2"];4.25;1533253732.44693;39.56;366.33;2.51425061;10;149
8;paravance-11.rennes.grid5000.fr;thermos-root-devel-WordCountTopology-1-2d5d4e09-8b57-4df5-8360-c78ea0eabfc5;["container_1_Consume_and_count_1"];4.25;1533253742.47528;63.89;420.7;0.464652466;10;149
8;paravance-26.rennes.grid5000.fr;thermos-root-devel-WordCountTopology-2-ecb83f8f-4827-45da-baa8-d76af850e9a6;["container_2_Emit_random_words_2"];4.25;1533253742.66148;41.54;385.13;2.51425061;10;149
8;paravance-9.rennes.grid5000.fr;thermos-root-devel-WordCountTopology-0-70177e11-d9e5-4640-ae5d-7ce1929a67df;["topology_master"];4.25;1533253742.59391;3.01;8.9;0.0;9;117
9;paravance-9.rennes.grid5000.fr;thermos-root-devel-WordCountTopology-0-70177e11-d9e5-4640-ae5d-7ce1929a67df;["topology_master"];4.25;1533253752.81292;3.1;9.02;0.0;9;117
9;paravance-11.rennes.grid5000.fr;thermos-root-devel-WordCountTopology-1-2d5d4e09-8b57-4df5-8360-c78ea0eabfc5;["container_1_Consume_and_count_1"];4.25;1533253752.69809;66.93;441.54;0.464652466;10;149
9;paravance-26.rennes.grid5000.fr;thermos-root-devel-WordCountTopology-2-ecb83f8f-4827-45da-baa8-d76af850e9a6;["container_2_Emit_random_words_2"];4.25;1533253752.8773;43.39;402.89;2.51425061;10;149
10;paravance-9.rennes.grid5000.fr;thermos-root-devel-WordCountTopology-0-70177e11-d9e5-4640-ae5d-7ce1929a67df;["topology_master"];4.25;1533253763.03442;3.16;9.1;0.0;9;117
10;paravance-11.rennes.grid5000.fr;thermos-root-devel-WordCountTopology-1-2d5d4e09-8b57-4df5-8360-c78ea0eabfc5;["container_1_Consume_and_count_1"];4.25;1533253762.91957;69.98;463.13;0.464652466;10;149
10;paravance-26.rennes.grid5000.fr;thermos-root-devel-WordCountTopology-2-ecb83f8f-4827-45da-baa8-d76af850e9a6;["container_2_Emit_random_words_2"];4.25;1533253763.09392;45.39;421.72;2.51425061;10;149
11;paravance-11.rennes.grid5000.fr;thermos-root-devel-WordCountTopology-1-2d5d4e09-8b57-4df5-8360-c78ea0eabfc5;["container_1_Consume_and_count_1"];4.25;1533253773.1405;73.06;484.07;0.464652466;10;149
11;paravance-26.rennes.grid5000.fr;thermos-root-devel-WordCountTopology-2-ecb83f8f-4827-45da-baa8-d76af850e9a6;["container_2_Emit_random_words_2"];4.25;1533253773.30893;47.33;439.81;2.51425061;10;149
11;paravance-9.rennes.grid5000.fr;thermos-root-devel-WordCountTopology-0-70177e11-d9e5-4640-ae5d-7ce1929a67df;["topology_master"];4.25;1533253773.25641;3.28;9.34;0.0;9;117
12;paravance-11.rennes.grid5000.fr;thermos-root-devel-WordCountTopology-1-2d5d4e09-8b57-4df5-8360-c78ea0eabfc5;["container_1_Consume_and_count_1"];4.25;1533253783.36009;75.91;504.65;0.464652466;10;149
12;paravance-26.rennes.grid5000.fr;thermos-root-devel-WordCountTopology-2-ecb83f8f-4827-45da-baa8-d76af850e9a6;["container_2_Emit_random_words_2"];4.25;1533253783.52524;49.19;457.53;2.51425061;10;149
12;paravance-9.rennes.grid5000.fr;thermos-root-devel-WordCountTopology-0-70177e11-d9e5-4640-ae5d-7ce1929a67df;["topology_master"];4.25;1533253783.47668;3.31;9.36;0.0;9;117
13;paravance-9.rennes.grid5000.fr;thermos-root-devel-WordCountTopology-0-70177e11-d9e5-4640-ae5d-7ce1929a67df;["topology_master"];4.25;1533253793.6975;3.4;9.5;0.0;9;117
13;paravance-11.rennes.grid5000.fr;thermos-root-devel-WordCountTopology-1-2d5d4e09-8b57-4df5-8360-c78ea0eabfc5;["container_1_Consume_and_count_1"];4.25;1533253793.58278;78.97;524.94;0.464652466;10;149
13;paravance-26.rennes.grid5000.fr;thermos-root-devel-WordCountTopology-2-ecb83f8f-4827-45da-baa8-d76af850e9a6;["container_2_Emit_random_words_2"];4.25;1533253793.741;51.05;474.61;2.51425061;10;149
14;paravance-11.rennes.grid5000.fr;thermos-root-devel-WordCountTopology-1-2d5d4e09-8b57-4df5-8360-c78ea0eabfc5;["container_1_Consume_and_count_1"];4.25;1533253803.80361;82.1;545.16;0.464652466;10;149
14;paravance-9.rennes.grid5000.fr;thermos-root-devel-WordCountTopology-0-70177e11-d9e5-4640-ae5d-7ce1929a67df;["topology_master"];4.25;1533253803.91906;3.45;9.57;0.0;9;117
14;paravance-26.rennes.grid5000.fr;thermos-root-devel-WordCountTopology-2-ecb83f8f-4827-45da-baa8-d76af850e9a6;["container_2_Emit_random_words_2"];4.25;1533253803.95792;52.91;492.63;2.51425061;10;149
15;paravance-11.rennes.grid5000.fr;thermos-root-devel-WordCountTopology-1-2d5d4e09-8b57-4df5-8360-c78ea0eabfc5;["container_1_Consume_and_count_1"];4.25;1533253814.02403;85.12;566.74;0.464652466;10;149
15;paravance-26.rennes.grid5000.fr;thermos-root-devel-WordCountTopology-2-ecb83f8f-4827-45da-baa8-d76af850e9a6;["container_2_Emit_random_words_2"];4.25;1533253814.1723;54.85;511.28;2.51425061;10;149
15;paravance-9.rennes.grid5000.fr;thermos-root-devel-WordCountTopology-0-70177e11-d9e5-4640-ae5d-7ce1929a67df;["topology_master"];4.25;1533253814.13913;3.51;9.65;0.0;9;117
16;paravance-11.rennes.grid5000.fr;thermos-root-devel-WordCountTopology-1-2d5d4e09-8b57-4df5-8360-c78ea0eabfc5;["container_1_Consume_and_count_1"];4.25;1533253824.24362;87.98;586.87;0.464652466;10;149
16;paravance-26.rennes.grid5000.fr;thermos-root-devel-WordCountTopology-2-ecb83f8f-4827-45da-baa8-d76af850e9a6;["container_2_Emit_random_words_2"];4.25;1533253824.38805;56.64;526.97;2.51425061;10;149
16;paravance-9.rennes.grid5000.fr;thermos-root-devel-WordCountTopology-0-70177e11-d9e5-4640-ae5d-7ce1929a67df;["topology_master"];4.25;1533253824.36066;3.57;9.72;0.0;9;117
17;paravance-26.rennes.grid5000.fr;thermos-root-devel-WordCountTopology-2-ecb83f8f-4827-45da-baa8-d76af850e9a6;["container_2_Emit_random_words_2"];4.25;1533253834.60039;58.6;545.1;2.51425061;10;149
17;paravance-11.rennes.grid5000.fr;thermos-root-devel-WordCountTopology-1-2d5d4e09-8b57-4df5-8360-c78ea0eabfc5;["container_1_Consume_and_count_1"];4.25;1533253834.46382;91.13;607.63;0.464652466;10;149
17;paravance-9.rennes.grid5000.fr;thermos-root-devel-WordCountTopology-0-70177e11-d9e5-4640-ae5d-7ce1929a67df;["topology_master"];4.25;1533253834.58038;3.68;10.0;0.0;9;117
18;paravance-11.rennes.grid5000.fr;thermos-root-devel-WordCountTopology-1-2d5d4e09-8b57-4df5-8360-c78ea0eabfc5;["container_1_Consume_and_count_1"];4.25;1533253844.68442;94.04;627.65;0.464652466;10;149
18;paravance-26.rennes.grid5000.fr;thermos-root-devel-WordCountTopology-2-ecb83f8f-4827-45da-baa8-d76af850e9a6;["container_2_Emit_random_words_2"];4.25;1533253844.8176;60.41;561.85;2.51425061;10;149
18;paravance-9.rennes.grid5000.fr;thermos-root-devel-WordCountTopology-0-70177e11-d9e5-4640-ae5d-7ce1929a67df;["topology_master"];4.25;1533253844.80008;3.71;10.02;0.0;9;117
19;paravance-11.rennes.grid5000.fr;thermos-root-devel-WordCountTopology-1-2d5d4e09-8b57-4df5-8360-c78ea0eabfc5;["container_1_Consume_and_count_1"];4.25;1533253854.90266;96.88;648.13;0.464652466;10;149
19;paravance-26.rennes.grid5000.fr;thermos-root-devel-WordCountTopology-2-ecb83f8f-4827-45da-baa8-d76af850e9a6;["container_2_Emit_random_words_2"];4.25;1533253855.03229;62.22;578.42;2.51425061;10;149
19;paravance-9.rennes.grid5000.fr;thermos-root-devel-WordCountTopology-0-70177e11-d9e5-4640-ae5d-7ce1929a67df;["topology_master"];4.25;1533253855.02074;3.79;10.15;0.0;9;117
20;paravance-26.rennes.grid5000.fr;thermos-root-devel-WordCountTopology-2-ecb83f8f-4827-45da-baa8-d76af850e9a6;["container_2_Emit_random_words_2"];4.25;1533253865.24731;64.1;595.61;2.51425061;10;149
20;paravance-11.rennes.grid5000.fr;thermos-root-devel-WordCountTopology-1-2d5d4e09-8b57-4df5-8360-c78ea0eabfc5;["container_1_Consume_and_count_1"];4.25;1533253865.12476;99.78;668.15;0.464652466;10;149
20;paravance-9.rennes.grid5000.fr;thermos-root-devel-WordCountTopology-0-70177e11-d9e5-4640-ae5d-7ce1929a67df;["topology_master"];4.25;1533253865.24154;3.85;10.22;0.0;9;117
21;paravance-11.rennes.grid5000.fr;thermos-root-devel-WordCountTopology-1-2d5d4e09-8b57-4df5-8360-c78ea0eabfc5;["container_1_Consume_and_count_1"];4.25;1533253875.3454;102.65;689.42;0.464652466;10;149
21;paravance-9.rennes.grid5000.fr;thermos-root-devel-WordCountTopology-0-70177e11-d9e5-4640-ae5d-7ce1929a67df;["topology_master"];4.25;1533253875.46084;3.91;10.3;0.0;9;117
21;paravance-26.rennes.grid5000.fr;thermos-root-devel-WordCountTopology-2-ecb83f8f-4827-45da-baa8-d76af850e9a6;["container_2_Emit_random_words_2"];4.25;1533253875.46399;65.94;612.15;2.51425061;10;149
22;paravance-11.rennes.grid5000.fr;thermos-root-devel-WordCountTopology-1-2d5d4e09-8b57-4df5-8360-c78ea0eabfc5;["container_1_Consume_and_count_1"];4.25;1533253885.56615;105.64;710.62;0.464652466;10;149
22;paravance-9.rennes.grid5000.fr;thermos-root-devel-WordCountTopology-0-70177e11-d9e5-4640-ae5d-7ce1929a67df;["topology_master"];4.25;1533253885.68139;3.96;10.37;0.0;9;117
22;paravance-26.rennes.grid5000.fr;thermos-root-devel-WordCountTopology-2-ecb83f8f-4827-45da-baa8-d76af850e9a6;["container_2_Emit_random_words_2"];4.25;1533253885.67947;67.75;629.01;2.51425061;10;149
23;paravance-11.rennes.grid5000.fr;thermos-root-devel-WordCountTopology-1-2d5d4e09-8b57-4df5-8360-c78ea0eabfc5;["container_1_Consume_and_count_1"];4.25;1533253895.78585;108.66;730.87;0.464652466;10;149
23;paravance-26.rennes.grid5000.fr;thermos-root-devel-WordCountTopology-2-ecb83f8f-4827-45da-baa8-d76af850e9a6;["container_2_Emit_random_words_2"];4.25;1533253895.89425;69.61;645.59;2.51425061;10;149
23;paravance-9.rennes.grid5000.fr;thermos-root-devel-WordCountTopology-0-70177e11-d9e5-4640-ae5d-7ce1929a67df;["topology_master"];4.25;1533253895.90219;4.07;10.55;0.0;9;117
24;paravance-11.rennes.grid5000.fr;thermos-root-devel-WordCountTopology-1-2d5d4e09-8b57-4df5-8360-c78ea0eabfc5;["container_1_Consume_and_count_1"];4.25;1533253906.00536;111.8;752.0;0.464652466;10;149
24;paravance-9.rennes.grid5000.fr;thermos-root-devel-WordCountTopology-0-70177e11-d9e5-4640-ae5d-7ce1929a67df;["topology_master"];4.25;1533253906.12134;4.09;10.57;0.0;9;117
24;paravance-26.rennes.grid5000.fr;thermos-root-devel-WordCountTopology-2-ecb83f8f-4827-45da-baa8-d76af850e9a6;["container_2_Emit_random_words_2"];4.25;1533253906.10953;71.41;662.45;2.51425061;10;149
25;paravance-11.rennes.grid5000.fr;thermos-root-devel-WordCountTopology-1-2d5d4e09-8b57-4df5-8360-c78ea0eabfc5;["container_1_Consume_and_count_1"];4.25;1533253916.22568;114.98;773.25;0.464652466;10;149
25;paravance-9.rennes.grid5000.fr;thermos-root-devel-WordCountTopology-0-70177e11-d9e5-4640-ae5d-7ce1929a67df;["topology_master"];4.25;1533253916.34156;4.18;10.69;0.0;9;117
25;paravance-26.rennes.grid5000.fr;thermos-root-devel-WordCountTopology-2-ecb83f8f-4827-45da-baa8-d76af850e9a6;["container_2_Emit_random_words_2"];4.25;1533253916.32507;73.42;680.84;2.51425061;10;149
26;paravance-11.rennes.grid5000.fr;thermos-root-devel-WordCountTopology-1-2d5d4e09-8b57-4df5-8360-c78ea0eabfc5;["container_1_Consume_and_count_1"];4.25;1533253926.44567;118.06;793.6;0.464652466;10;149
26;paravance-26.rennes.grid5000.fr;thermos-root-devel-WordCountTopology-2-ecb83f8f-4827-45da-baa8-d76af850e9a6;["container_2_Emit_random_words_2"];4.25;1533253926.53901;75.28;698.42;2.51425061;10;149
26;paravance-9.rennes.grid5000.fr;thermos-root-devel-WordCountTopology-0-70177e11-d9e5-4640-ae5d-7ce1929a67df;["topology_master"];4.25;1533253926.56301;4.23;10.77;0.0;9;117
27;paravance-11.rennes.grid5000.fr;thermos-root-devel-WordCountTopology-1-2d5d4e09-8b57-4df5-8360-c78ea0eabfc5;["container_1_Consume_and_count_1"];4.25;1533253936.66695;121.32;815.31;0.464652466;10;149
27;paravance-26.rennes.grid5000.fr;thermos-root-devel-WordCountTopology-2-ecb83f8f-4827-45da-baa8-d76af850e9a6;["container_2_Emit_random_words_2"];4.25;1533253936.75427;77.24;717.76;2.51425061;10;149
27;paravance-9.rennes.grid5000.fr;thermos-root-devel-WordCountTopology-0-70177e11-d9e5-4640-ae5d-7ce1929a67df;["topology_master"];4.25;1533253936.78292;4.3;10.84;0.0;9;117
28;paravance-11.rennes.grid5000.fr;thermos-root-devel-WordCountTopology-1-2d5d4e09-8b57-4df5-8360-c78ea0eabfc5;["container_1_Consume_and_count_1"];4.25;1533253946.88817;124.38;835.97;0.464652466;10;149
28;paravance-9.rennes.grid5000.fr;thermos-root-devel-WordCountTopology-0-70177e11-d9e5-4640-ae5d-7ce1929a67df;["topology_master"];4.25;1533253947.00384;4.35;10.91;0.0;9;117
28;paravance-26.rennes.grid5000.fr;thermos-root-devel-WordCountTopology-2-ecb83f8f-4827-45da-baa8-d76af850e9a6;["container_2_Emit_random_words_2"];4.25;1533253946.97197;79.15;735.65;2.51425061;10;149
29;paravance-11.rennes.grid5000.fr;thermos-root-devel-WordCountTopology-1-2d5d4e09-8b57-4df5-8360-c78ea0eabfc5;["container_1_Consume_and_count_1"];4.25;1533253957.1083;127.67;857.97;0.464652466;10;149
29;paravance-26.rennes.grid5000.fr;thermos-root-devel-WordCountTopology-2-ecb83f8f-4827-45da-baa8-d76af850e9a6;["container_2_Emit_random_words_2"];4.25;1533253957.18787;81.17;755.05;2.51425061;10;149
29;paravance-9.rennes.grid5000.fr;thermos-root-devel-WordCountTopology-0-70177e11-d9e5-4640-ae5d-7ce1929a67df;["topology_master"];4.25;1533253957.22583;4.47;11.1;0.0;9;117
30;paravance-11.rennes.grid5000.fr;thermos-root-devel-WordCountTopology-1-2d5d4e09-8b57-4df5-8360-c78ea0eabfc5;["container_1_Consume_and_count_1"];4.25;1533253967.33137;130.82;879.81;0.464652466;10;149
30;paravance-26.rennes.grid5000.fr;thermos-root-devel-WordCountTopology-2-ecb83f8f-4827-45da-baa8-d76af850e9a6;["container_2_Emit_random_words_2"];4.25;1533253967.40361;83.26;773.45;2.51425061;10;149
30;paravance-9.rennes.grid5000.fr;thermos-root-devel-WordCountTopology-0-70177e11-d9e5-4640-ae5d-7ce1929a67df;["topology_master"];4.25;1533253967.44817;4.53;11.18;0.0;9;117
31;paravance-11.rennes.grid5000.fr;thermos-root-devel-WordCountTopology-1-2d5d4e09-8b57-4df5-8360-c78ea0eabfc5;["container_1_Consume_and_count_1"];4.25;1533253977.55317;133.92;901.19;0.471377547;10;149
31;paravance-9.rennes.grid5000.fr;thermos-root-devel-WordCountTopology-0-70177e11-d9e5-4640-ae5d-7ce1929a67df;["topology_master"];4.25;1533253977.66773;4.58;11.25;0.0;9;117
31;paravance-26.rennes.grid5000.fr;thermos-root-devel-WordCountTopology-2-ecb83f8f-4827-45da-baa8-d76af850e9a6;["container_2_Emit_random_words_2"];4.25;1533253977.62075;85.22;791.05;2.51425061;10;149
32;paravance-11.rennes.grid5000.fr;thermos-root-devel-WordCountTopology-1-2d5d4e09-8b57-4df5-8360-c78ea0eabfc5;["container_1_Consume_and_count_1"];4.25;1533253987.77379;137.31;923.03;0.471377547;10;149
32;paravance-9.rennes.grid5000.fr;thermos-root-devel-WordCountTopology-0-70177e11-d9e5-4640-ae5d-7ce1929a67df;["topology_master"];4.25;1533253987.88899;4.68;11.39;0.0;9;117
32;paravance-26.rennes.grid5000.fr;thermos-root-devel-WordCountTopology-2-ecb83f8f-4827-45da-baa8-d76af850e9a6;["container_2_Emit_random_words_2"];4.25;1533253987.83628;87.37;810.77;2.51425061;10;149
33;paravance-26.rennes.grid5000.fr;thermos-root-devel-WordCountTopology-2-ecb83f8f-4827-45da-baa8-d76af850e9a6;["container_2_Emit_random_words_2"];4.25;1533253998.04895;89.52;830.76;2.51425061;10;149
33;paravance-11.rennes.grid5000.fr;thermos-root-devel-WordCountTopology-1-2d5d4e09-8b57-4df5-8360-c78ea0eabfc5;["container_1_Consume_and_count_1"];4.25;1533253997.99276;140.28;941.15;0.471377547;10;149
33;paravance-9.rennes.grid5000.fr;thermos-root-devel-WordCountTopology-0-70177e11-d9e5-4640-ae5d-7ce1929a67df;["topology_master"];4.25;1533253998.10857;4.71;11.41;0.0;9;117
34;paravance-9.rennes.grid5000.fr;thermos-root-devel-WordCountTopology-0-70177e11-d9e5-4640-ae5d-7ce1929a67df;["topology_master"];4.25;1533254008.32561;4.8;11.55;0.0;9;117
34;paravance-11.rennes.grid5000.fr;thermos-root-devel-WordCountTopology-1-2d5d4e09-8b57-4df5-8360-c78ea0eabfc5;["container_1_Consume_and_count_1"];4.25;1533254008.21342;143.56;957.45;0.471377547;10;149
34;paravance-26.rennes.grid5000.fr;thermos-root-devel-WordCountTopology-2-ecb83f8f-4827-45da-baa8-d76af850e9a6;["container_2_Emit_random_words_2"];4.25;1533254008.26553;91.63;850.14;2.51425061;10;149
35;paravance-11.rennes.grid5000.fr;thermos-root-devel-WordCountTopology-1-2d5d4e09-8b57-4df5-8360-c78ea0eabfc5;["container_1_Consume_and_count_1"];4.25;1533254018.43336;146.59;974.22;0.471377547;10;149
35;paravance-26.rennes.grid5000.fr;thermos-root-devel-WordCountTopology-2-ecb83f8f-4827-45da-baa8-d76af850e9a6;["container_2_Emit_random_words_2"];4.25;1533254018.48143;93.65;870.01;2.51425061;10;149
35;paravance-9.rennes.grid5000.fr;thermos-root-devel-WordCountTopology-0-70177e11-d9e5-4640-ae5d-7ce1929a67df;["topology_master"];4.25;1533254018.54273;4.87;11.72;0.0;9;117
36;paravance-11.rennes.grid5000.fr;thermos-root-devel-WordCountTopology-1-2d5d4e09-8b57-4df5-8360-c78ea0eabfc5;["container_1_Consume_and_count_1"];4.25;1533254028.65583;149.66;990.08;0.471377547;10;149
36;paravance-26.rennes.grid5000.fr;thermos-root-devel-WordCountTopology-2-ecb83f8f-4827-45da-baa8-d76af850e9a6;["container_2_Emit_random_words_2"];4.25;1533254028.69689;95.64;890.08;2.51425061;10;149
36;paravance-9.rennes.grid5000.fr;thermos-root-devel-WordCountTopology-0-70177e11-d9e5-4640-ae5d-7ce1929a67df;["topology_master"];4.25;1533254028.75891;4.93;11.8;0.0;9;117
37;paravance-9.rennes.grid5000.fr;thermos-root-devel-WordCountTopology-0-70177e11-d9e5-4640-ae5d-7ce1929a67df;["topology_master"];4.25;1533254038.97367;4.98;11.87;0.0;9;117
37;paravance-26.rennes.grid5000.fr;thermos-root-devel-WordCountTopology-2-ecb83f8f-4827-45da-baa8-d76af850e9a6;["container_2_Emit_random_words_2"];4.25;1533254038.91352;97.65;909.97;2.51425061;10;149
37;paravance-11.rennes.grid5000.fr;thermos-root-devel-WordCountTopology-1-2d5d4e09-8b57-4df5-8360-c78ea0eabfc5;["container_1_Consume_and_count_1"];4.25;1533254038.87735;152.81;1006.72;0.471377547;10;149
38;paravance-11.rennes.grid5000.fr;thermos-root-devel-WordCountTopology-1-2d5d4e09-8b57-4df5-8360-c78ea0eabfc5;["container_1_Consume_and_count_1"];4.25;1533254049.0966;155.7;1022.68;0.471377547;10;149
38;paravance-26.rennes.grid5000.fr;thermos-root-devel-WordCountTopology-2-ecb83f8f-4827-45da-baa8-d76af850e9a6;["container_2_Emit_random_words_2"];4.25;1533254049.12873;99.7;929.9;2.51425061;10;149
38;paravance-9.rennes.grid5000.fr;thermos-root-devel-WordCountTopology-0-70177e11-d9e5-4640-ae5d-7ce1929a67df;["topology_master"];4.25;1533254049.19026;5.08;12.01;0.0;9;117
39;paravance-26.rennes.grid5000.fr;thermos-root-devel-WordCountTopology-2-ecb83f8f-4827-45da-baa8-d76af850e9a6;["container_2_Emit_random_words_2"];4.25;1533254059.34082;101.69;949.79;2.51425061;10;149
39;paravance-11.rennes.grid5000.fr;thermos-root-devel-WordCountTopology-1-2d5d4e09-8b57-4df5-8360-c78ea0eabfc5;["container_1_Consume_and_count_1"];4.25;1533254059.31716;159.04;1039.36;0.471377547;10;149
39;paravance-9.rennes.grid5000.fr;thermos-root-devel-WordCountTopology-0-70177e11-d9e5-4640-ae5d-7ce1929a67df;["topology_master"];4.25;1533254059.40444;5.1;12.03;0.0;9;117
40;paravance-11.rennes.grid5000.fr;thermos-root-devel-WordCountTopology-1-2d5d4e09-8b57-4df5-8360-c78ea0eabfc5;["container_1_Consume_and_count_1"];4.25;1533254069.55134;161.98;1055.7;0.471377547;10;149
40;paravance-9.rennes.grid5000.fr;thermos-root-devel-WordCountTopology-0-70177e11-d9e5-4640-ae5d-7ce1929a67df;["topology_master"];4.25;1533254069.63368;5.2;12.17;0.0;9;117
40;paravance-26.rennes.grid5000.fr;thermos-root-devel-WordCountTopology-2-ecb83f8f-4827-45da-baa8-d76af850e9a6;["container_2_Emit_random_words_2"];4.25;1533254069.57651;103.7;969.89;2.51425061;10;149
41;paravance-9.rennes.grid5000.fr;thermos-root-devel-WordCountTopology-0-70177e11-d9e5-4640-ae5d-7ce1929a67df;["topology_master"];4.25;1533254079.85156;5.27;12.28;0.0;9;117
41;paravance-11.rennes.grid5000.fr;thermos-root-devel-WordCountTopology-1-2d5d4e09-8b57-4df5-8360-c78ea0eabfc5;["container_1_Consume_and_count_1"];4.25;1533254079.77526;165.3;1072.25;0.471377547;10;149
41;paravance-26.rennes.grid5000.fr;thermos-root-devel-WordCountTopology-2-ecb83f8f-4827-45da-baa8-d76af850e9a6;["container_2_Emit_random_words_2"];4.25;1533254079.79086;105.73;990.29;2.51425061;10;149
42;paravance-11.rennes.grid5000.fr;thermos-root-devel-WordCountTopology-1-2d5d4e09-8b57-4df5-8360-c78ea0eabfc5;["container_1_Consume_and_count_1"];4.25;1533254089.99597;168.33;1088.89;0.471377547;10;149
42;paravance-9.rennes.grid5000.fr;thermos-root-devel-WordCountTopology-0-70177e11-d9e5-4640-ae5d-7ce1929a67df;["topology_master"];4.25;1533254090.06725;5.33;12.36;0.0;9;117
42;paravance-26.rennes.grid5000.fr;thermos-root-devel-WordCountTopology-2-ecb83f8f-4827-45da-baa8-d76af850e9a6;["container_2_Emit_random_words_2"];4.25;1533254090.00716;107.78;1011.31;2.51425061;10;149
43;paravance-11.rennes.grid5000.fr;thermos-root-devel-WordCountTopology-1-2d5d4e09-8b57-4df5-8360-c78ea0eabfc5;["container_1_Consume_and_count_1"];4.25;1533254100.21655;171.33;1104.69;0.471377547;10;149
43;paravance-9.rennes.grid5000.fr;thermos-root-devel-WordCountTopology-0-70177e11-d9e5-4640-ae5d-7ce1929a67df;["topology_master"];4.25;1533254100.28384;5.39;12.44;0.0;9;117
43;paravance-26.rennes.grid5000.fr;thermos-root-devel-WordCountTopology-2-ecb83f8f-4827-45da-baa8-d76af850e9a6;["container_2_Emit_random_words_2"];4.25;1533254100.22316;109.72;1032.03;2.51425061;10;149
44;paravance-9.rennes.grid5000.fr;thermos-root-devel-WordCountTopology-0-70177e11-d9e5-4640-ae5d-7ce1929a67df;["topology_master"];4.25;1533254110.49961;5.48;12.56;0.0;9;117
44;paravance-11.rennes.grid5000.fr;thermos-root-devel-WordCountTopology-1-2d5d4e09-8b57-4df5-8360-c78ea0eabfc5;["container_1_Consume_and_count_1"];4.25;1533254110.43895;174.43;1121.07;0.471377547;10;149
44;paravance-26.rennes.grid5000.fr;thermos-root-devel-WordCountTopology-2-ecb83f8f-4827-45da-baa8-d76af850e9a6;["container_2_Emit_random_words_2"];4.25;1533254110.43961;111.76;1052.46;2.51425061;10;149
45;paravance-26.rennes.grid5000.fr;thermos-root-devel-WordCountTopology-2-ecb83f8f-4827-45da-baa8-d76af850e9a6;["container_2_Emit_random_words_2"];4.25;1533254120.65356;113.82;1072.78;2.51425061;10;149
45;paravance-11.rennes.grid5000.fr;thermos-root-devel-WordCountTopology-1-2d5d4e09-8b57-4df5-8360-c78ea0eabfc5;["container_1_Consume_and_count_1"];4.25;1533254120.65969;177.31;1136.85;0.471377547;10;149
45;paravance-9.rennes.grid5000.fr;thermos-root-devel-WordCountTopology-0-70177e11-d9e5-4640-ae5d-7ce1929a67df;["topology_master"];4.25;1533254120.71604;5.54;12.64;0.0;9;117
46;paravance-11.rennes.grid5000.fr;thermos-root-devel-WordCountTopology-1-2d5d4e09-8b57-4df5-8360-c78ea0eabfc5;["container_1_Consume_and_count_1"];4.25;1533254130.87819;180.51;1153.24;0.471377547;10;149
46;paravance-9.rennes.grid5000.fr;thermos-root-devel-WordCountTopology-0-70177e11-d9e5-4640-ae5d-7ce1929a67df;["topology_master"];4.25;1533254130.92979;5.61;12.73;0.0;9;117
46;paravance-26.rennes.grid5000.fr;thermos-root-devel-WordCountTopology-2-ecb83f8f-4827-45da-baa8-d76af850e9a6;["container_2_Emit_random_words_2"];4.25;1533254130.8726;115.9;1093.18;2.51425061;10;149
47;paravance-11.rennes.grid5000.fr;thermos-root-devel-WordCountTopology-1-2d5d4e09-8b57-4df5-8360-c78ea0eabfc5;["container_1_Consume_and_count_1"];4.25;1533254141.10068;183.44;1169.69;0.471377547;10;149
47;paravance-9.rennes.grid5000.fr;thermos-root-devel-WordCountTopology-0-70177e11-d9e5-4640-ae5d-7ce1929a67df;["topology_master"];4.25;1533254141.14625;5.68;12.87;0.0;9;117
47;paravance-26.rennes.grid5000.fr;thermos-root-devel-WordCountTopology-2-ecb83f8f-4827-45da-baa8-d76af850e9a6;["container_2_Emit_random_words_2"];4.25;1533254141.087;117.96;1113.37;2.51425061;10;149
48;paravance-11.rennes.grid5000.fr;thermos-root-devel-WordCountTopology-1-2d5d4e09-8b57-4df5-8360-c78ea0eabfc5;["container_1_Consume_and_count_1"];4.25;1533254151.32081;186.69;1185.91;0.471377547;10;149
48;paravance-26.rennes.grid5000.fr;thermos-root-devel-WordCountTopology-2-ecb83f8f-4827-45da-baa8-d76af850e9a6;["container_2_Emit_random_words_2"];4.25;1533254151.30146;120.03;1133.56;2.51425061;10;149
48;paravance-9.rennes.grid5000.fr;thermos-root-devel-WordCountTopology-0-70177e11-d9e5-4640-ae5d-7ce1929a67df;["topology_master"];4.25;1533254151.36168;5.76;12.99;0.0;9;117
49;paravance-9.rennes.grid5000.fr;thermos-root-devel-WordCountTopology-0-70177e11-d9e5-4640-ae5d-7ce1929a67df;["topology_master"];4.25;1533254161.5771;5.79;13.02;0.0;9;117
49;paravance-26.rennes.grid5000.fr;thermos-root-devel-WordCountTopology-2-ecb83f8f-4827-45da-baa8-d76af850e9a6;["container_2_Emit_random_words_2"];4.25;1533254161.5166;122.08;1154.28;2.51425061;10;149
49;paravance-11.rennes.grid5000.fr;thermos-root-devel-WordCountTopology-1-2d5d4e09-8b57-4df5-8360-c78ea0eabfc5;["container_1_Consume_and_count_1"];4.25;1533254161.54243;189.69;1202.31;0.471377547;10;149
50;paravance-26.rennes.grid5000.fr;thermos-root-devel-WordCountTopology-2-ecb83f8f-4827-45da-baa8-d76af850e9a6;["container_2_Emit_random_words_2"];4.25;1533254171.63241;124.15;1174.44;2.51425061;10;149
50;paravance-11.rennes.grid5000.fr;thermos-root-devel-WordCountTopology-1-2d5d4e09-8b57-4df5-8360-c78ea0eabfc5;["container_1_Consume_and_count_1"];4.25;1533254171.76234;192.81;1218.28;0.471377547;10;149
50;paravance-9.rennes.grid5000.fr;thermos-root-devel-WordCountTopology-0-70177e11-d9e5-4640-ae5d-7ce1929a67df;["topology_master"];4.25;1533254171.79284;5.89;13.16;0.0;9;117
51;paravance-26.rennes.grid5000.fr;thermos-root-devel-WordCountTopology-2-ecb83f8f-4827-45da-baa8-d76af850e9a6;["container_2_Emit_random_words_2"];4.25;1533254181.94825;126.22;1195.08;2.51425061;10;149
51;paravance-11.rennes.grid5000.fr;thermos-root-devel-WordCountTopology-1-2d5d4e09-8b57-4df5-8360-c78ea0eabfc5;["container_1_Consume_and_count_1"];4.25;1533254181.98446;195.97;1234.86;0.471377547;10;149
51;paravance-9.rennes.grid5000.fr;thermos-root-devel-WordCountTopology-0-70177e11-d9e5-4640-ae5d-7ce1929a67df;["topology_master"];4.25;1533254182.00867;5.95;13.24;0.0;9;117
52;paravance-11.rennes.grid5000.fr;thermos-root-devel-WordCountTopology-1-2d5d4e09-8b57-4df5-8360-c78ea0eabfc5;["container_1_Consume_and_count_1"];4.25;1533254192.20409;198.91;1250.71;0.471377547;10;149
52;paravance-26.rennes.grid5000.fr;thermos-root-devel-WordCountTopology-2-ecb83f8f-4827-45da-baa8-d76af850e9a6;["container_2_Emit_random_words_2"];4.25;1533254192.16423;128.31;1215.57;2.51425061;10;149
52;paravance-9.rennes.grid5000.fr;thermos-root-devel-WordCountTopology-0-70177e11-d9e5-4640-ae5d-7ce1929a67df;["topology_master"];4.25;1533254192.22506;6.02;13.33;0.0;9;117
53;paravance-11.rennes.grid5000.fr;thermos-root-devel-WordCountTopology-1-2d5d4e09-8b57-4df5-8360-c78ea0eabfc5;["container_1_Consume_and_count_1"];4.25;1533254202.42329;202.18;1267.49;0.471377547;10;149
53;paravance-9.rennes.grid5000.fr;thermos-root-devel-WordCountTopology-0-70177e11-d9e5-4640-ae5d-7ce1929a67df;["topology_master"];4.25;1533254202.43891;6.08;13.44;0.0;9;117
53;paravance-26.rennes.grid5000.fr;thermos-root-devel-WordCountTopology-2-ecb83f8f-4827-45da-baa8-d76af850e9a6;["container_2_Emit_random_words_2"];4.25;1533254202.37852;130.38;1236.03;2.51425061;10;149
54;paravance-11.rennes.grid5000.fr;thermos-root-devel-WordCountTopology-1-2d5d4e09-8b57-4df5-8360-c78ea0eabfc5;["container_1_Consume_and_count_1"];4.25;1533254212.64328;205.13;1283.66;0.471377547;10;149
54;paravance-26.rennes.grid5000.fr;thermos-root-devel-WordCountTopology-2-ecb83f8f-4827-45da-baa8-d76af850e9a6;["container_2_Emit_random_words_2"];4.25;1533254212.59308;132.46;1256.51;2.51425061;10;149
54;paravance-9.rennes.grid5000.fr;thermos-root-devel-WordCountTopology-0-70177e11-d9e5-4640-ae5d-7ce1929a67df;["topology_master"];4.25;1533254212.65408;6.17;13.56;0.0;9;117
55;paravance-11.rennes.grid5000.fr;thermos-root-devel-WordCountTopology-1-2d5d4e09-8b57-4df5-8360-c78ea0eabfc5;["container_1_Consume_and_count_1"];4.25;1533254222.863;208.27;1299.51;0.471377547;10;149
55;paravance-26.rennes.grid5000.fr;thermos-root-devel-WordCountTopology-2-ecb83f8f-4827-45da-baa8-d76af850e9a6;["container_2_Emit_random_words_2"];4.25;1533254222.80648;134.49;1276.58;2.51425061;10;149
55;paravance-9.rennes.grid5000.fr;thermos-root-devel-WordCountTopology-0-70177e11-d9e5-4640-ae5d-7ce1929a67df;["topology_master"];4.25;1533254222.86853;6.2;13.59;0.0;9;117
56;paravance-26.rennes.grid5000.fr;thermos-root-devel-WordCountTopology-2-ecb83f8f-4827-45da-baa8-d76af850e9a6;["container_2_Emit_random_words_2"];4.25;1533254233.02249;136.57;1296.78;2.51425061;10;149
56;paravance-9.rennes.grid5000.fr;thermos-root-devel-WordCountTopology-0-70177e11-d9e5-4640-ae5d-7ce1929a67df;["topology_master"];4.25;1533254233.08405;6.29;13.71;0.0;9;117
56;paravance-11.rennes.grid5000.fr;thermos-root-devel-WordCountTopology-1-2d5d4e09-8b57-4df5-8360-c78ea0eabfc5;["container_1_Consume_and_count_1"];4.25;1533254233.08479;211.33;1315.99;0.471377547;10;149
57;paravance-26.rennes.grid5000.fr;thermos-root-devel-WordCountTopology-2-ecb83f8f-4827-45da-baa8-d76af850e9a6;["container_2_Emit_random_words_2"];4.25;1533254243.23826;138.56;1317.53;2.51425061;10;149
57;paravance-11.rennes.grid5000.fr;thermos-root-devel-WordCountTopology-1-2d5d4e09-8b57-4df5-8360-c78ea0eabfc5;["container_1_Consume_and_count_1"];4.25;1533254243.30039;214.09;1332.06;0.471377547;10;149
57;paravance-9.rennes.grid5000.fr;thermos-root-devel-WordCountTopology-0-70177e11-d9e5-4640-ae5d-7ce1929a67df;["topology_master"];4.25;1533254243.3004;6.34;13.78;0.0;9;117
58;paravance-11.rennes.grid5000.fr;thermos-root-devel-WordCountTopology-1-2d5d4e09-8b57-4df5-8360-c78ea0eabfc5;["container_1_Consume_and_count_1"];4.25;1533254253.51538;216.86;1348.31;0.471377547;10;149
58;paravance-9.rennes.grid5000.fr;thermos-root-devel-WordCountTopology-0-70177e11-d9e5-4640-ae5d-7ce1929a67df;["topology_master"];4.25;1533254253.5157;6.41;13.9;0.0;9;117
58;paravance-26.rennes.grid5000.fr;thermos-root-devel-WordCountTopology-2-ecb83f8f-4827-45da-baa8-d76af850e9a6;["container_2_Emit_random_words_2"];4.25;1533254253.45531;140.55;1338.19;2.51425061;10;149
59;paravance-9.rennes.grid5000.fr;thermos-root-devel-WordCountTopology-0-70177e11-d9e5-4640-ae5d-7ce1929a67df;["topology_master"];4.25;1533254263.73088;6.47;13.98;0.0;9;117
59;paravance-26.rennes.grid5000.fr;thermos-root-devel-WordCountTopology-2-ecb83f8f-4827-45da-baa8-d76af850e9a6;["container_2_Emit_random_words_2"];4.25;1533254263.67145;142.53;1358.82;2.51425061;10;149
59;paravance-11.rennes.grid5000.fr;thermos-root-devel-WordCountTopology-1-2d5d4e09-8b57-4df5-8360-c78ea0eabfc5;["container_1_Consume_and_count_1"];4.25;1533254263.73314;219.6;1364.5;0.471377547;10;149
60;paravance-26.rennes.grid5000.fr;thermos-root-devel-WordCountTopology-2-ecb83f8f-4827-45da-baa8-d76af850e9a6;["container_2_Emit_random_words_2"];4.25;1533254273.88604;144.66;1378.47;2.51425061;10;149
60;paravance-9.rennes.grid5000.fr;thermos-root-devel-WordCountTopology-0-70177e11-d9e5-4640-ae5d-7ce1929a67df;["topology_master"];4.25;1533254273.94839;6.56;14.1;0.0;9;117
60;paravance-11.rennes.grid5000.fr;thermos-root-devel-WordCountTopology-1-2d5d4e09-8b57-4df5-8360-c78ea0eabfc5;["container_1_Consume_and_count_1"];4.25;1533254273.94936;222.47;1380.59;0.471377547;10;149
