{
  "status": "success",
  "executiontime": 0.0001850128173828125,
  "message": "",
  "result": {
    "bolts": {
      "Consume_and_count": [
        "container_1_Consume_and_count_1"
      ]
    },
    "instances": {
      "container_2_Emit_random_words_2": {
        "stmgrId": "stmgr-2",
        "logfile": "http://paravance-49.rennes.grid5000.fr:31944/file/log-files/container_2_Emit_random_words_2.log.0",
        "id": "container_2_Emit_random_words_2",
        "name": "Emit_random_words"
      },
      "container_1_Consume_and_count_1": {
        "stmgrId": "stmgr-1",
        "logfile": "http://paravance-42.rennes.grid5000.fr:31894/file/log-files/container_1_Consume_and_count_1.log.0",
        "id": "container_1_Consume_and_count_1",
        "name": "Consume_and_count"
      }
    },
    "instance_groups": {
      "container_1_Consume_and": [
        "container_1_Consume_and_count_1"
      ],
      "container_2_Emit_random": [
        "container_2_Emit_random_words_2"
      ]
    },
    "spouts": {
      "Emit_random_words": [
        "container_2_Emit_random_words_2"
      ]
    },
    "config": {
      "topology.message.timeout.secs": "30",
      "topology.team.environment": "devel",
      "topology.serializer.classname": "org.apache.heron.streamlet.impl.KryoSerializer",
      "topology.team.name": "root",
      "topology.debug": "false",
      "topology.max.spout.pending": "100",
      "topology.container.padding.percentage": "100",
      "topology.enable.message.timeouts": "true",
      "topology.component.parallelism": "1",
      "topology.name": "WordCountTopology",
      "topology.stmgrs": "2",
      "topology.reliability.mode": "ATMOST_ONCE"
    },
    "stmgrs": {
      "stmgr-1": {
        "cwd": "/var/lib/mesos/slaves/98f0a7e5-d007-435b-9a1f-8610d3834a23-S0/frameworks/75deb08a-eb1b-415c-8b2c-e922be5f7d98-0000/executors/thermos-root-devel-WordCountTopology-1-630ea61d-f544-4393-ab66-c99af4f4baf9/runs/252036c7-6343-4c31-a08a-6aa7e93e8862/sandbox",
        "host": "paravance-42.rennes.grid5000.fr",
        "joburl": "http://paravance-42.rennes.grid5000.fr:31894/browse/",
        "shell_port": 31894,
        "logfiles": "http://paravance-42.rennes.grid5000.fr:31894/browse/log-files",
        "pid": 2146,
        "id": "stmgr-1",
        "instance_ids": [
          "container_1_Consume_and_count_1"
        ],
        "port": 31352
      },
      "stmgr-2": {
        "cwd": "/var/lib/mesos/slaves/98f0a7e5-d007-435b-9a1f-8610d3834a23-S2/frameworks/75deb08a-eb1b-415c-8b2c-e922be5f7d98-0000/executors/thermos-root-devel-WordCountTopology-2-f3231af5-b1eb-40aa-bd64-4291fbe9ace3/runs/6054f63a-5933-421d-99cd-ae1d5d226f65/sandbox",
        "host": "paravance-49.rennes.grid5000.fr",
        "joburl": "http://paravance-49.rennes.grid5000.fr:31944/browse/",
        "shell_port": 31944,
        "logfiles": "http://paravance-49.rennes.grid5000.fr:31944/browse/log-files",
        "pid": 2182,
        "id": "stmgr-2",
        "instance_ids": [
          "container_2_Emit_random_words_2"
        ],
        "port": 31949
      }
    }
  },
  "tracker_version": "0.17.8-61-gd7c8c62"
}