mesure_id;slave_id;executor_id;heron_instances;cpus_limit;timestamp_A;cpus_system_time_secs_A;cpus_user_time_secs_A;cpus_throttled_time_secs_A;processes;threads
0;paravance-61.rennes.grid5000.fr;thermos-root-devel-WordCountTopology-2-2bd9adc2-68eb-4169-a9ce-fa7ef3492887;["container_2_Emit_random_words_2"];3.25;1533039933.99825;41.08;172.89;6.422311042;10;149
0;paravance-62.rennes.grid5000.fr;thermos-root-devel-WordCountTopology-0-5499fc2e-d9bc-44dd-ae7a-ebe3e74c9231;["topology_master"];3.25;1533039934.10495;2.48;8.01;0.0;9;117
0;paravance-64.rennes.grid5000.fr;thermos-root-devel-WordCountTopology-1-775d2479-bd66-4ae6-b572-cde800441df7;["container_1_Consume_and_count_1"];3.25;1533039933.98013;51.33;285.94;19.871249003;10;149
1;paravance-64.rennes.grid5000.fr;thermos-root-devel-WordCountTopology-1-775d2479-bd66-4ae6-b572-cde800441df7;["container_1_Consume_and_count_1"];3.25;1533039944.19326;55.55;311.28;22.002084696;10;149
1;paravance-61.rennes.grid5000.fr;thermos-root-devel-WordCountTopology-2-2bd9adc2-68eb-4169-a9ce-fa7ef3492887;["container_2_Emit_random_words_2"];3.25;1533039944.21242;44.49;186.63;6.422311042;10;149
1;paravance-62.rennes.grid5000.fr;thermos-root-devel-WordCountTopology-0-5499fc2e-d9bc-44dd-ae7a-ebe3e74c9231;["topology_master"];3.25;1533039944.31988;2.55;8.17;0.0;9;117
2;paravance-64.rennes.grid5000.fr;thermos-root-devel-WordCountTopology-1-775d2479-bd66-4ae6-b572-cde800441df7;["container_1_Consume_and_count_1"];3.25;1533039954.40331;59.54;336.39;23.886355292;10;149
2;paravance-61.rennes.grid5000.fr;thermos-root-devel-WordCountTopology-2-2bd9adc2-68eb-4169-a9ce-fa7ef3492887;["container_2_Emit_random_words_2"];3.25;1533039954.4231;47.62;198.94;6.422311042;10;149
2;paravance-62.rennes.grid5000.fr;thermos-root-devel-WordCountTopology-0-5499fc2e-d9bc-44dd-ae7a-ebe3e74c9231;["topology_master"];3.25;1533039954.53042;2.64;8.31;0.0;9;117
3;paravance-64.rennes.grid5000.fr;thermos-root-devel-WordCountTopology-1-775d2479-bd66-4ae6-b572-cde800441df7;["container_1_Consume_and_count_1"];3.25;1533039964.61306;63.72;361.31;25.517215972;10;149
3;paravance-61.rennes.grid5000.fr;thermos-root-devel-WordCountTopology-2-2bd9adc2-68eb-4169-a9ce-fa7ef3492887;["container_2_Emit_random_words_2"];3.25;1533039964.63311;50.81;211.71;6.422311042;10;149
3;paravance-62.rennes.grid5000.fr;thermos-root-devel-WordCountTopology-0-5499fc2e-d9bc-44dd-ae7a-ebe3e74c9231;["topology_master"];3.25;1533039964.74057;2.67;8.34;0.0;9;117
4;paravance-64.rennes.grid5000.fr;thermos-root-devel-WordCountTopology-1-775d2479-bd66-4ae6-b572-cde800441df7;["container_1_Consume_and_count_1"];3.25;1533039974.82383;67.7;386.82;26.94069299;10;149
4;paravance-61.rennes.grid5000.fr;thermos-root-devel-WordCountTopology-2-2bd9adc2-68eb-4169-a9ce-fa7ef3492887;["container_2_Emit_random_words_2"];3.25;1533039974.84297;53.94;223.68;6.422311042;10;149
4;paravance-62.rennes.grid5000.fr;thermos-root-devel-WordCountTopology-0-5499fc2e-d9bc-44dd-ae7a-ebe3e74c9231;["topology_master"];3.25;1533039974.95104;2.76;8.46;0.0;9;117
5;paravance-64.rennes.grid5000.fr;thermos-root-devel-WordCountTopology-1-775d2479-bd66-4ae6-b572-cde800441df7;["container_1_Consume_and_count_1"];3.25;1533039985.03447;71.75;413.2;28.882407929;10;149
5;paravance-61.rennes.grid5000.fr;thermos-root-devel-WordCountTopology-2-2bd9adc2-68eb-4169-a9ce-fa7ef3492887;["container_2_Emit_random_words_2"];3.25;1533039985.05409;57.37;237.46;6.422311042;10;149
5;paravance-62.rennes.grid5000.fr;thermos-root-devel-WordCountTopology-0-5499fc2e-d9bc-44dd-ae7a-ebe3e74c9231;["topology_master"];3.25;1533039985.16184;2.81;8.54;0.0;9;117
6;paravance-61.rennes.grid5000.fr;thermos-root-devel-WordCountTopology-2-2bd9adc2-68eb-4169-a9ce-fa7ef3492887;["container_2_Emit_random_words_2"];3.25;1533039995.26261;60.98;251.76;6.422311042;10;149
6;paravance-64.rennes.grid5000.fr;thermos-root-devel-WordCountTopology-1-775d2479-bd66-4ae6-b572-cde800441df7;["container_1_Consume_and_count_1"];3.25;1533039995.24533;76.19;439.62;31.111796355;10;149
6;paravance-62.rennes.grid5000.fr;thermos-root-devel-WordCountTopology-0-5499fc2e-d9bc-44dd-ae7a-ebe3e74c9231;["topology_master"];3.25;1533039995.37078;2.93;8.7;0.0;9;117
7;paravance-61.rennes.grid5000.fr;thermos-root-devel-WordCountTopology-2-2bd9adc2-68eb-4169-a9ce-fa7ef3492887;["container_2_Emit_random_words_2"];3.25;1533040005.47327;64.48;265.96;6.422311042;10;149
7;paravance-62.rennes.grid5000.fr;thermos-root-devel-WordCountTopology-0-5499fc2e-d9bc-44dd-ae7a-ebe3e74c9231;["topology_master"];3.25;1533040005.58081;2.97;8.79;0.0;9;117
7;paravance-64.rennes.grid5000.fr;thermos-root-devel-WordCountTopology-1-775d2479-bd66-4ae6-b572-cde800441df7;["container_1_Consume_and_count_1"];3.25;1533040005.45623;80.53;465.76;33.246314694;10;149
8;paravance-61.rennes.grid5000.fr;thermos-root-devel-WordCountTopology-2-2bd9adc2-68eb-4169-a9ce-fa7ef3492887;["container_2_Emit_random_words_2"];3.25;1533040015.68507;67.81;279.5;6.422311042;10;149
8;paravance-62.rennes.grid5000.fr;thermos-root-devel-WordCountTopology-0-5499fc2e-d9bc-44dd-ae7a-ebe3e74c9231;["topology_master"];3.25;1533040015.79209;3.06;8.93;0.0;9;117
8;paravance-64.rennes.grid5000.fr;thermos-root-devel-WordCountTopology-1-775d2479-bd66-4ae6-b572-cde800441df7;["container_1_Consume_and_count_1"];3.25;1533040015.66664;84.61;491.2;34.953738547;10;149
9;paravance-64.rennes.grid5000.fr;thermos-root-devel-WordCountTopology-1-775d2479-bd66-4ae6-b572-cde800441df7;["container_1_Consume_and_count_1"];3.25;1533040025.87772;88.75;516.07;36.596064949;10;149
9;paravance-62.rennes.grid5000.fr;thermos-root-devel-WordCountTopology-0-5499fc2e-d9bc-44dd-ae7a-ebe3e74c9231;["topology_master"];3.25;1533040026.00399;3.12;9.0;0.0;9;117
9;paravance-61.rennes.grid5000.fr;thermos-root-devel-WordCountTopology-2-2bd9adc2-68eb-4169-a9ce-fa7ef3492887;["container_2_Emit_random_words_2"];3.25;1533040025.89645;71.07;292.52;6.422311042;10;149
10;paravance-64.rennes.grid5000.fr;thermos-root-devel-WordCountTopology-1-775d2479-bd66-4ae6-b572-cde800441df7;["container_1_Consume_and_count_1"];3.25;1533040036.0888;93.02;542.24;38.425805747;10;149
10;paravance-61.rennes.grid5000.fr;thermos-root-devel-WordCountTopology-2-2bd9adc2-68eb-4169-a9ce-fa7ef3492887;["container_2_Emit_random_words_2"];3.25;1533040036.10755;74.52;306.37;6.422311042;10;149
10;paravance-62.rennes.grid5000.fr;thermos-root-devel-WordCountTopology-0-5499fc2e-d9bc-44dd-ae7a-ebe3e74c9231;["topology_master"];3.25;1533040036.21519;3.18;9.08;0.0;9;117
11;paravance-61.rennes.grid5000.fr;thermos-root-devel-WordCountTopology-2-2bd9adc2-68eb-4169-a9ce-fa7ef3492887;["container_2_Emit_random_words_2"];3.25;1533040046.31627;77.81;319.8;6.422311042;10;149
11;paravance-64.rennes.grid5000.fr;thermos-root-devel-WordCountTopology-1-775d2479-bd66-4ae6-b572-cde800441df7;["container_1_Consume_and_count_1"];3.25;1533040046.29785;97.29;568.1;40.489792398;10;149
11;paravance-62.rennes.grid5000.fr;thermos-root-devel-WordCountTopology-0-5499fc2e-d9bc-44dd-ae7a-ebe3e74c9231;["topology_master"];3.25;1533040046.42407;3.24;9.15;0.0;9;117
12;paravance-61.rennes.grid5000.fr;thermos-root-devel-WordCountTopology-2-2bd9adc2-68eb-4169-a9ce-fa7ef3492887;["container_2_Emit_random_words_2"];3.25;1533040056.52463;81.24;334.25;6.422311042;10;149
12;paravance-64.rennes.grid5000.fr;thermos-root-devel-WordCountTopology-1-775d2479-bd66-4ae6-b572-cde800441df7;["container_1_Consume_and_count_1"];3.25;1533040056.50797;101.71;594.43;42.858613418;10;149
12;paravance-62.rennes.grid5000.fr;thermos-root-devel-WordCountTopology-0-5499fc2e-d9bc-44dd-ae7a-ebe3e74c9231;["topology_master"];3.25;1533040056.63313;3.36;9.46;0.0;9;117
13;paravance-61.rennes.grid5000.fr;thermos-root-devel-WordCountTopology-2-2bd9adc2-68eb-4169-a9ce-fa7ef3492887;["container_2_Emit_random_words_2"];3.25;1533040066.73592;84.3;346.96;6.422311042;10;149
13;paravance-62.rennes.grid5000.fr;thermos-root-devel-WordCountTopology-0-5499fc2e-d9bc-44dd-ae7a-ebe3e74c9231;["topology_master"];3.25;1533040066.84231;3.39;9.48;0.0;9;117
13;paravance-64.rennes.grid5000.fr;thermos-root-devel-WordCountTopology-1-775d2479-bd66-4ae6-b572-cde800441df7;["container_1_Consume_and_count_1"];3.25;1533040066.71804;105.7;619.14;44.101317107;10;149
14;paravance-64.rennes.grid5000.fr;thermos-root-devel-WordCountTopology-1-775d2479-bd66-4ae6-b572-cde800441df7;["container_1_Consume_and_count_1"];3.25;1533040076.92715;109.95;644.56;45.858397347;10;149
14;paravance-62.rennes.grid5000.fr;thermos-root-devel-WordCountTopology-0-5499fc2e-d9bc-44dd-ae7a-ebe3e74c9231;["topology_master"];3.25;1533040077.05303;3.48;9.61;0.0;9;117
14;paravance-61.rennes.grid5000.fr;thermos-root-devel-WordCountTopology-2-2bd9adc2-68eb-4169-a9ce-fa7ef3492887;["container_2_Emit_random_words_2"];3.25;1533040076.94668;87.66;360.38;6.422311042;10;149
15;paravance-61.rennes.grid5000.fr;thermos-root-devel-WordCountTopology-2-2bd9adc2-68eb-4169-a9ce-fa7ef3492887;["container_2_Emit_random_words_2"];3.25;1533040087.15542;90.99;373.67;6.422311042;10;149
15;paravance-64.rennes.grid5000.fr;thermos-root-devel-WordCountTopology-1-775d2479-bd66-4ae6-b572-cde800441df7;["container_1_Consume_and_count_1"];3.25;1533040087.13695;114.1;669.93;47.479021056;10;149
15;paravance-62.rennes.grid5000.fr;thermos-root-devel-WordCountTopology-0-5499fc2e-d9bc-44dd-ae7a-ebe3e74c9231;["topology_master"];3.25;1533040087.26373;3.54;9.68;0.0;9;117
16;paravance-64.rennes.grid5000.fr;thermos-root-devel-WordCountTopology-1-775d2479-bd66-4ae6-b572-cde800441df7;["container_1_Consume_and_count_1"];3.25;1533040097.34639;118.4;696.13;49.71489923;10;149
16;paravance-61.rennes.grid5000.fr;thermos-root-devel-WordCountTopology-2-2bd9adc2-68eb-4169-a9ce-fa7ef3492887;["container_2_Emit_random_words_2"];3.25;1533040097.36652;94.51;387.37;6.422311042;10;149
16;paravance-62.rennes.grid5000.fr;thermos-root-devel-WordCountTopology-0-5499fc2e-d9bc-44dd-ae7a-ebe3e74c9231;["topology_master"];3.25;1533040097.47414;3.59;9.77;0.0;9;117
17;paravance-64.rennes.grid5000.fr;thermos-root-devel-WordCountTopology-1-775d2479-bd66-4ae6-b572-cde800441df7;["container_1_Consume_and_count_1"];3.25;1533040107.5599;122.62;721.23;51.728867732;10;149
17;paravance-62.rennes.grid5000.fr;thermos-root-devel-WordCountTopology-0-5499fc2e-d9bc-44dd-ae7a-ebe3e74c9231;["topology_master"];3.25;1533040107.68447;3.65;9.84;0.0;9;117
17;paravance-61.rennes.grid5000.fr;thermos-root-devel-WordCountTopology-2-2bd9adc2-68eb-4169-a9ce-fa7ef3492887;["container_2_Emit_random_words_2"];3.25;1533040107.58116;97.82;400.08;6.422311042;10;149
18;paravance-64.rennes.grid5000.fr;thermos-root-devel-WordCountTopology-1-775d2479-bd66-4ae6-b572-cde800441df7;["container_1_Consume_and_count_1"];3.25;1533040117.77063;127.12;747.1;54.227636211;10;149
18;paravance-61.rennes.grid5000.fr;thermos-root-devel-WordCountTopology-2-2bd9adc2-68eb-4169-a9ce-fa7ef3492887;["container_2_Emit_random_words_2"];3.25;1533040117.7896;101.27;414.08;6.516430401;10;149
18;paravance-62.rennes.grid5000.fr;thermos-root-devel-WordCountTopology-0-5499fc2e-d9bc-44dd-ae7a-ebe3e74c9231;["topology_master"];3.25;1533040117.89815;3.77;10.05;0.0;9;117
19;paravance-62.rennes.grid5000.fr;thermos-root-devel-WordCountTopology-0-5499fc2e-d9bc-44dd-ae7a-ebe3e74c9231;["topology_master"];3.25;1533040128.1079;3.8;10.08;0.0;9;117
19;paravance-64.rennes.grid5000.fr;thermos-root-devel-WordCountTopology-1-775d2479-bd66-4ae6-b572-cde800441df7;["container_1_Consume_and_count_1"];3.25;1533040127.9844;131.42;772.49;55.854814675;10;149
19;paravance-61.rennes.grid5000.fr;thermos-root-devel-WordCountTopology-2-2bd9adc2-68eb-4169-a9ce-fa7ef3492887;["container_2_Emit_random_words_2"];3.25;1533040128.00354;104.75;428.2;6.516430401;10;149
20;paravance-64.rennes.grid5000.fr;thermos-root-devel-WordCountTopology-1-775d2479-bd66-4ae6-b572-cde800441df7;["container_1_Consume_and_count_1"];3.25;1533040138.09477;135.73;797.96;57.960415368;10;149
20;paravance-61.rennes.grid5000.fr;thermos-root-devel-WordCountTopology-2-2bd9adc2-68eb-4169-a9ce-fa7ef3492887;["container_2_Emit_random_words_2"];3.25;1533040138.21174;108.31;442.14;6.516430401;10;149
20;paravance-62.rennes.grid5000.fr;thermos-root-devel-WordCountTopology-0-5499fc2e-d9bc-44dd-ae7a-ebe3e74c9231;["topology_master"];3.25;1533040138.31895;3.89;10.21;0.0;9;117
21;paravance-61.rennes.grid5000.fr;thermos-root-devel-WordCountTopology-2-2bd9adc2-68eb-4169-a9ce-fa7ef3492887;["container_2_Emit_random_words_2"];3.25;1533040148.422;111.72;455.8;6.516430401;10;149
21;paravance-62.rennes.grid5000.fr;thermos-root-devel-WordCountTopology-0-5499fc2e-d9bc-44dd-ae7a-ebe3e74c9231;["topology_master"];3.25;1533040148.53011;3.94;10.28;0.0;9;117
21;paravance-64.rennes.grid5000.fr;thermos-root-devel-WordCountTopology-1-775d2479-bd66-4ae6-b572-cde800441df7;["container_1_Consume_and_count_1"];3.25;1533040148.40745;140.0;823.27;59.875774106;10;149
22;paravance-62.rennes.grid5000.fr;thermos-root-devel-WordCountTopology-0-5499fc2e-d9bc-44dd-ae7a-ebe3e74c9231;["topology_master"];3.25;1533040158.7426;4.0;10.35;0.0;9;117
22;paravance-64.rennes.grid5000.fr;thermos-root-devel-WordCountTopology-1-775d2479-bd66-4ae6-b572-cde800441df7;["container_1_Consume_and_count_1"];3.25;1533040158.61948;143.99;847.98;61.485902973;10;149
22;paravance-61.rennes.grid5000.fr;thermos-root-devel-WordCountTopology-2-2bd9adc2-68eb-4169-a9ce-fa7ef3492887;["container_2_Emit_random_words_2"];3.25;1533040158.63636;115.0;468.13;6.516430401;10;149
23;paravance-64.rennes.grid5000.fr;thermos-root-devel-WordCountTopology-1-775d2479-bd66-4ae6-b572-cde800441df7;["container_1_Consume_and_count_1"];3.25;1533040168.8289;148.26;873.72;63.187671987;10;149
23;paravance-61.rennes.grid5000.fr;thermos-root-devel-WordCountTopology-2-2bd9adc2-68eb-4169-a9ce-fa7ef3492887;["container_2_Emit_random_words_2"];3.25;1533040168.84759;118.35;481.34;6.516430401;10;149
23;paravance-62.rennes.grid5000.fr;thermos-root-devel-WordCountTopology-0-5499fc2e-d9bc-44dd-ae7a-ebe3e74c9231;["topology_master"];3.25;1533040168.95535;4.06;10.43;0.0;9;117
24;paravance-61.rennes.grid5000.fr;thermos-root-devel-WordCountTopology-2-2bd9adc2-68eb-4169-a9ce-fa7ef3492887;["container_2_Emit_random_words_2"];3.25;1533040179.05681;121.46;493.56;6.516430401;10;149
24;paravance-62.rennes.grid5000.fr;thermos-root-devel-WordCountTopology-0-5499fc2e-d9bc-44dd-ae7a-ebe3e74c9231;["topology_master"];3.25;1533040179.16541;4.17;10.61;0.0;9;117
24;paravance-64.rennes.grid5000.fr;thermos-root-devel-WordCountTopology-1-775d2479-bd66-4ae6-b572-cde800441df7;["container_1_Consume_and_count_1"];3.25;1533040179.03944;152.27;898.48;65.554184725;10;149
25;paravance-64.rennes.grid5000.fr;thermos-root-devel-WordCountTopology-1-775d2479-bd66-4ae6-b572-cde800441df7;["container_1_Consume_and_count_1"];3.25;1533040189.25034;156.24;922.63;67.157390055;10;149
25;paravance-61.rennes.grid5000.fr;thermos-root-devel-WordCountTopology-2-2bd9adc2-68eb-4169-a9ce-fa7ef3492887;["container_2_Emit_random_words_2"];3.25;1533040189.26856;124.55;505.72;6.516430401;10;149
25;paravance-62.rennes.grid5000.fr;thermos-root-devel-WordCountTopology-0-5499fc2e-d9bc-44dd-ae7a-ebe3e74c9231;["topology_master"];3.25;1533040189.377;4.2;10.64;0.0;9;117
26;paravance-61.rennes.grid5000.fr;thermos-root-devel-WordCountTopology-2-2bd9adc2-68eb-4169-a9ce-fa7ef3492887;["container_2_Emit_random_words_2"];3.25;1533040199.47908;128.0;519.89;6.516430401;10;149
26;paravance-62.rennes.grid5000.fr;thermos-root-devel-WordCountTopology-0-5499fc2e-d9bc-44dd-ae7a-ebe3e74c9231;["topology_master"];3.25;1533040199.58689;4.28;10.76;0.0;9;117
26;paravance-64.rennes.grid5000.fr;thermos-root-devel-WordCountTopology-1-775d2479-bd66-4ae6-b572-cde800441df7;["container_1_Consume_and_count_1"];3.25;1533040199.46236;160.65;948.43;69.041078012;10;149
27;paravance-61.rennes.grid5000.fr;thermos-root-devel-WordCountTopology-2-2bd9adc2-68eb-4169-a9ce-fa7ef3492887;["container_2_Emit_random_words_2"];3.25;1533040209.69021;131.37;533.47;6.516430401;10;149
27;paravance-64.rennes.grid5000.fr;thermos-root-devel-WordCountTopology-1-775d2479-bd66-4ae6-b572-cde800441df7;["container_1_Consume_and_count_1"];3.25;1533040209.6721;164.94;973.6;70.468576159;10;149
27;paravance-62.rennes.grid5000.fr;thermos-root-devel-WordCountTopology-0-5499fc2e-d9bc-44dd-ae7a-ebe3e74c9231;["topology_master"];3.25;1533040209.79857;4.34;10.83;0.0;9;117
28;paravance-64.rennes.grid5000.fr;thermos-root-devel-WordCountTopology-1-775d2479-bd66-4ae6-b572-cde800441df7;["container_1_Consume_and_count_1"];3.25;1533040219.88361;169.44;1000.14;72.444566151;10;149
28;paravance-61.rennes.grid5000.fr;thermos-root-devel-WordCountTopology-2-2bd9adc2-68eb-4169-a9ce-fa7ef3492887;["container_2_Emit_random_words_2"];3.25;1533040219.90205;135.0;548.32;6.516430401;10;149
28;paravance-62.rennes.grid5000.fr;thermos-root-devel-WordCountTopology-0-5499fc2e-d9bc-44dd-ae7a-ebe3e74c9231;["topology_master"];3.25;1533040220.01033;4.4;10.9;0.0;9;117
29;paravance-64.rennes.grid5000.fr;thermos-root-devel-WordCountTopology-1-775d2479-bd66-4ae6-b572-cde800441df7;["container_1_Consume_and_count_1"];3.25;1533040230.09372;173.56;1025.47;74.158729712;10;149
29;paravance-61.rennes.grid5000.fr;thermos-root-devel-WordCountTopology-2-2bd9adc2-68eb-4169-a9ce-fa7ef3492887;["container_2_Emit_random_words_2"];3.25;1533040230.11265;138.24;561.14;6.516430401;10;149
29;paravance-62.rennes.grid5000.fr;thermos-root-devel-WordCountTopology-0-5499fc2e-d9bc-44dd-ae7a-ebe3e74c9231;["topology_master"];3.25;1533040230.22001;4.45;10.98;0.0;9;117
30;paravance-61.rennes.grid5000.fr;thermos-root-devel-WordCountTopology-2-2bd9adc2-68eb-4169-a9ce-fa7ef3492887;["container_2_Emit_random_words_2"];3.25;1533040240.32092;141.91;574.92;6.516430401;10;149
30;paravance-64.rennes.grid5000.fr;thermos-root-devel-WordCountTopology-1-775d2479-bd66-4ae6-b572-cde800441df7;["container_1_Consume_and_count_1"];3.25;1533040240.30415;177.96;1050.9;76.24014722;10;149
30;paravance-62.rennes.grid5000.fr;thermos-root-devel-WordCountTopology-0-5499fc2e-d9bc-44dd-ae7a-ebe3e74c9231;["topology_master"];3.25;1533040240.42971;4.57;11.15;0.0;9;117
31;paravance-64.rennes.grid5000.fr;thermos-root-devel-WordCountTopology-1-775d2479-bd66-4ae6-b572-cde800441df7;["container_1_Consume_and_count_1"];3.25;1533040250.51463;182.41;1076.71;77.991742344;10;147
31;paravance-62.rennes.grid5000.fr;thermos-root-devel-WordCountTopology-0-5499fc2e-d9bc-44dd-ae7a-ebe3e74c9231;["topology_master"];3.25;1533040250.63927;4.62;11.22;0.0;9;117
31;paravance-61.rennes.grid5000.fr;thermos-root-devel-WordCountTopology-2-2bd9adc2-68eb-4169-a9ce-fa7ef3492887;["container_2_Emit_random_words_2"];3.25;1533040250.53238;145.29;588.64;6.516430401;10;147
32;paravance-64.rennes.grid5000.fr;thermos-root-devel-WordCountTopology-1-775d2479-bd66-4ae6-b572-cde800441df7;["container_1_Consume_and_count_1"];3.25;1533040260.72494;186.6;1101.6;79.398293582;10;149
32;paravance-62.rennes.grid5000.fr;thermos-root-devel-WordCountTopology-0-5499fc2e-d9bc-44dd-ae7a-ebe3e74c9231;["topology_master"];3.25;1533040260.85001;4.68;11.29;0.0;9;117
32;paravance-61.rennes.grid5000.fr;thermos-root-devel-WordCountTopology-2-2bd9adc2-68eb-4169-a9ce-fa7ef3492887;["container_2_Emit_random_words_2"];3.25;1533040260.74281;148.67;602.01;6.516430401;10;149
33;paravance-62.rennes.grid5000.fr;thermos-root-devel-WordCountTopology-0-5499fc2e-d9bc-44dd-ae7a-ebe3e74c9231;["topology_master"];3.25;1533040271.05993;4.77;11.42;0.0;9;117
33;paravance-64.rennes.grid5000.fr;thermos-root-devel-WordCountTopology-1-775d2479-bd66-4ae6-b572-cde800441df7;["container_1_Consume_and_count_1"];3.25;1533040270.93582;190.86;1127.3;81.455817519;10;149
33;paravance-61.rennes.grid5000.fr;thermos-root-devel-WordCountTopology-2-2bd9adc2-68eb-4169-a9ce-fa7ef3492887;["container_2_Emit_random_words_2"];3.25;1533040270.95342;152.26;615.49;6.516430401;10;149
34;paravance-64.rennes.grid5000.fr;thermos-root-devel-WordCountTopology-1-775d2479-bd66-4ae6-b572-cde800441df7;["container_1_Consume_and_count_1"];3.25;1533040281.14503;195.01;1151.91;83.228275975;10;149
34;paravance-61.rennes.grid5000.fr;thermos-root-devel-WordCountTopology-2-2bd9adc2-68eb-4169-a9ce-fa7ef3492887;["container_2_Emit_random_words_2"];3.25;1533040281.16356;155.63;628.84;6.516430401;10;149
34;paravance-62.rennes.grid5000.fr;thermos-root-devel-WordCountTopology-0-5499fc2e-d9bc-44dd-ae7a-ebe3e74c9231;["topology_master"];3.25;1533040281.27135;4.8;11.44;0.0;9;117
35;paravance-64.rennes.grid5000.fr;thermos-root-devel-WordCountTopology-1-775d2479-bd66-4ae6-b572-cde800441df7;["container_1_Consume_and_count_1"];3.25;1533040291.3524;199.57;1178.31;85.625465138;10;149
35;paravance-61.rennes.grid5000.fr;thermos-root-devel-WordCountTopology-2-2bd9adc2-68eb-4169-a9ce-fa7ef3492887;["container_2_Emit_random_words_2"];3.25;1533040291.3714;159.37;643.87;6.516430401;10;149
35;paravance-62.rennes.grid5000.fr;thermos-root-devel-WordCountTopology-0-5499fc2e-d9bc-44dd-ae7a-ebe3e74c9231;["topology_master"];3.25;1533040291.47949;4.89;11.57;0.0;9;117
36;paravance-64.rennes.grid5000.fr;thermos-root-devel-WordCountTopology-1-775d2479-bd66-4ae6-b572-cde800441df7;["container_1_Consume_and_count_1"];3.25;1533040301.56607;203.96;1203.27;87.891108201;10;149
36;paravance-61.rennes.grid5000.fr;thermos-root-devel-WordCountTopology-2-2bd9adc2-68eb-4169-a9ce-fa7ef3492887;["container_2_Emit_random_words_2"];3.25;1533040301.5834;162.69;657.63;6.516430401;10;149
36;paravance-62.rennes.grid5000.fr;thermos-root-devel-WordCountTopology-0-5499fc2e-d9bc-44dd-ae7a-ebe3e74c9231;["topology_master"];3.25;1533040301.69222;4.96;11.74;0.0;9;117
37;paravance-64.rennes.grid5000.fr;thermos-root-devel-WordCountTopology-1-775d2479-bd66-4ae6-b572-cde800441df7;["container_1_Consume_and_count_1"];3.25;1533040311.77528;208.43;1229.07;89.88105188;10;149
37;paravance-62.rennes.grid5000.fr;thermos-root-devel-WordCountTopology-0-5499fc2e-d9bc-44dd-ae7a-ebe3e74c9231;["topology_master"];3.25;1533040311.90054;5.02;11.81;0.0;9;117
37;paravance-61.rennes.grid5000.fr;thermos-root-devel-WordCountTopology-2-2bd9adc2-68eb-4169-a9ce-fa7ef3492887;["container_2_Emit_random_words_2"];3.25;1533040311.79337;166.32;671.79;6.516430401;10;149
38;paravance-64.rennes.grid5000.fr;thermos-root-devel-WordCountTopology-1-775d2479-bd66-4ae6-b572-cde800441df7;["container_1_Consume_and_count_1"];3.25;1533040321.99048;212.7;1254.68;91.933833545;10;149
38;paravance-61.rennes.grid5000.fr;thermos-root-devel-WordCountTopology-2-2bd9adc2-68eb-4169-a9ce-fa7ef3492887;["container_2_Emit_random_words_2"];3.25;1533040322.00171;169.9;685.02;6.516430401;10;149
38;paravance-62.rennes.grid5000.fr;thermos-root-devel-WordCountTopology-0-5499fc2e-d9bc-44dd-ae7a-ebe3e74c9231;["topology_master"];3.25;1533040322.10989;5.07;11.88;0.0;9;117
39;paravance-64.rennes.grid5000.fr;thermos-root-devel-WordCountTopology-1-775d2479-bd66-4ae6-b572-cde800441df7;["container_1_Consume_and_count_1"];3.25;1533040332.20409;216.58;1279.11;93.457151627;10;149
39;paravance-62.rennes.grid5000.fr;thermos-root-devel-WordCountTopology-0-5499fc2e-d9bc-44dd-ae7a-ebe3e74c9231;["topology_master"];3.25;1533040332.32025;5.15;12.0;0.0;9;117
39;paravance-61.rennes.grid5000.fr;thermos-root-devel-WordCountTopology-2-2bd9adc2-68eb-4169-a9ce-fa7ef3492887;["container_2_Emit_random_words_2"];3.25;1533040332.2129;173.07;697.01;6.516430401;10;149
40;paravance-61.rennes.grid5000.fr;thermos-root-devel-WordCountTopology-2-2bd9adc2-68eb-4169-a9ce-fa7ef3492887;["container_2_Emit_random_words_2"];3.25;1533040342.42215;176.37;710.13;6.516430401;10;149
40;paravance-62.rennes.grid5000.fr;thermos-root-devel-WordCountTopology-0-5499fc2e-d9bc-44dd-ae7a-ebe3e74c9231;["topology_master"];3.25;1533040342.52988;5.21;12.07;0.0;9;117
40;paravance-64.rennes.grid5000.fr;thermos-root-devel-WordCountTopology-1-775d2479-bd66-4ae6-b572-cde800441df7;["container_1_Consume_and_count_1"];3.25;1533040342.43351;220.63;1305.39;95.371421193;10;149
41;paravance-62.rennes.grid5000.fr;thermos-root-devel-WordCountTopology-0-5499fc2e-d9bc-44dd-ae7a-ebe3e74c9231;["topology_master"];3.25;1533040352.75128;5.28;12.15;0.0;9;117
41;paravance-61.rennes.grid5000.fr;thermos-root-devel-WordCountTopology-2-2bd9adc2-68eb-4169-a9ce-fa7ef3492887;["container_2_Emit_random_words_2"];3.25;1533040352.64376;180.04;724.25;6.516430401;10;149
41;paravance-64.rennes.grid5000.fr;thermos-root-devel-WordCountTopology-1-775d2479-bd66-4ae6-b572-cde800441df7;["container_1_Consume_and_count_1"];3.25;1533040352.64741;225.22;1331.81;97.407026886;10;149
42;paravance-64.rennes.grid5000.fr;thermos-root-devel-WordCountTopology-1-775d2479-bd66-4ae6-b572-cde800441df7;["container_1_Consume_and_count_1"];3.25;1533040362.86234;229.53;1357.49;99.530993343;10;149
42;paravance-62.rennes.grid5000.fr;thermos-root-devel-WordCountTopology-0-5499fc2e-d9bc-44dd-ae7a-ebe3e74c9231;["topology_master"];3.25;1533040362.96222;5.34;12.28;0.0;9;117
42;paravance-61.rennes.grid5000.fr;thermos-root-devel-WordCountTopology-2-2bd9adc2-68eb-4169-a9ce-fa7ef3492887;["container_2_Emit_random_words_2"];3.25;1533040362.86034;183.59;738.09;6.516430401;10;149
43;paravance-61.rennes.grid5000.fr;thermos-root-devel-WordCountTopology-2-2bd9adc2-68eb-4169-a9ce-fa7ef3492887;["container_2_Emit_random_words_2"];3.25;1533040373.07595;187.24;751.83;6.516430401;10;149
43;paravance-62.rennes.grid5000.fr;thermos-root-devel-WordCountTopology-0-5499fc2e-d9bc-44dd-ae7a-ebe3e74c9231;["topology_master"];3.25;1533040373.17398;5.43;12.4;0.0;9;117
43;paravance-64.rennes.grid5000.fr;thermos-root-devel-WordCountTopology-1-775d2479-bd66-4ae6-b572-cde800441df7;["container_1_Consume_and_count_1"];3.25;1533040373.0797;234.03;1382.62;101.555542047;10;149
44;paravance-64.rennes.grid5000.fr;thermos-root-devel-WordCountTopology-1-775d2479-bd66-4ae6-b572-cde800441df7;["container_1_Consume_and_count_1"];3.25;1533040383.2952;238.21;1407.56;103.179158018;10;149
44;paravance-62.rennes.grid5000.fr;thermos-root-devel-WordCountTopology-0-5499fc2e-d9bc-44dd-ae7a-ebe3e74c9231;["topology_master"];3.25;1533040383.38532;5.45;12.42;0.0;9;117
44;paravance-61.rennes.grid5000.fr;thermos-root-devel-WordCountTopology-2-2bd9adc2-68eb-4169-a9ce-fa7ef3492887;["container_2_Emit_random_words_2"];3.25;1533040383.29436;190.51;764.46;6.516430401;10;149
45;paravance-64.rennes.grid5000.fr;thermos-root-devel-WordCountTopology-1-775d2479-bd66-4ae6-b572-cde800441df7;["container_1_Consume_and_count_1"];3.25;1533040393.51107;242.29;1432.13;104.967133356;10;149
45;paravance-61.rennes.grid5000.fr;thermos-root-devel-WordCountTopology-2-2bd9adc2-68eb-4169-a9ce-fa7ef3492887;["container_2_Emit_random_words_2"];3.25;1533040393.50877;193.82;776.64;6.516430401;10;149
45;paravance-62.rennes.grid5000.fr;thermos-root-devel-WordCountTopology-0-5499fc2e-d9bc-44dd-ae7a-ebe3e74c9231;["topology_master"];3.25;1533040393.59647;5.54;12.54;0.0;9;117
46;paravance-62.rennes.grid5000.fr;thermos-root-devel-WordCountTopology-0-5499fc2e-d9bc-44dd-ae7a-ebe3e74c9231;["topology_master"];3.25;1533040403.80442;5.6;12.61;0.0;9;117
46;paravance-61.rennes.grid5000.fr;thermos-root-devel-WordCountTopology-2-2bd9adc2-68eb-4169-a9ce-fa7ef3492887;["container_2_Emit_random_words_2"];3.25;1533040403.72262;197.0;789.26;6.516430401;10;149
46;paravance-64.rennes.grid5000.fr;thermos-root-devel-WordCountTopology-1-775d2479-bd66-4ae6-b572-cde800441df7;["container_1_Consume_and_count_1"];3.25;1533040403.72485;246.44;1456.71;106.568181903;10;149
47;paravance-64.rennes.grid5000.fr;thermos-root-devel-WordCountTopology-1-775d2479-bd66-4ae6-b572-cde800441df7;["container_1_Consume_and_count_1"];3.25;1533040413.94116;250.74;1482.97;108.479936273;10;149
47;paravance-62.rennes.grid5000.fr;thermos-root-devel-WordCountTopology-0-5499fc2e-d9bc-44dd-ae7a-ebe3e74c9231;["topology_master"];3.25;1533040414.01552;5.66;12.7;0.0;9;117
47;paravance-61.rennes.grid5000.fr;thermos-root-devel-WordCountTopology-2-2bd9adc2-68eb-4169-a9ce-fa7ef3492887;["container_2_Emit_random_words_2"];3.25;1533040413.93835;200.43;802.3;6.516430401;10;149
48;paravance-64.rennes.grid5000.fr;thermos-root-devel-WordCountTopology-1-775d2479-bd66-4ae6-b572-cde800441df7;["container_1_Consume_and_count_1"];3.25;1533040424.15658;254.8;1508.69;110.385973479;10;149
48;paravance-61.rennes.grid5000.fr;thermos-root-devel-WordCountTopology-2-2bd9adc2-68eb-4169-a9ce-fa7ef3492887;["container_2_Emit_random_words_2"];3.25;1533040424.15447;203.6;814.36;6.516430401;10;149
48;paravance-62.rennes.grid5000.fr;thermos-root-devel-WordCountTopology-0-5499fc2e-d9bc-44dd-ae7a-ebe3e74c9231;["topology_master"];3.25;1533040424.22666;5.72;12.83;0.0;9;117
49;paravance-64.rennes.grid5000.fr;thermos-root-devel-WordCountTopology-1-775d2479-bd66-4ae6-b572-cde800441df7;["container_1_Consume_and_count_1"];3.25;1533040434.37276;259.03;1534.15;112.043734226;10;149
49;paravance-62.rennes.grid5000.fr;thermos-root-devel-WordCountTopology-0-5499fc2e-d9bc-44dd-ae7a-ebe3e74c9231;["topology_master"];3.25;1533040434.43644;5.81;12.95;0.0;9;117
49;paravance-61.rennes.grid5000.fr;thermos-root-devel-WordCountTopology-2-2bd9adc2-68eb-4169-a9ce-fa7ef3492887;["container_2_Emit_random_words_2"];3.25;1533040434.37056;206.79;826.73;6.516430401;10;149
50;paravance-62.rennes.grid5000.fr;thermos-root-devel-WordCountTopology-0-5499fc2e-d9bc-44dd-ae7a-ebe3e74c9231;["topology_master"];3.25;1533040444.54675;5.83;12.98;0.0;9;117
50;paravance-61.rennes.grid5000.fr;thermos-root-devel-WordCountTopology-2-2bd9adc2-68eb-4169-a9ce-fa7ef3492887;["container_2_Emit_random_words_2"];3.25;1533040444.58431;209.97;838.96;6.516430401;10;149
50;paravance-64.rennes.grid5000.fr;thermos-root-devel-WordCountTopology-1-775d2479-bd66-4ae6-b572-cde800441df7;["container_1_Consume_and_count_1"];3.25;1533040444.5882;263.08;1560.3;113.87107593;10;149
51;paravance-61.rennes.grid5000.fr;thermos-root-devel-WordCountTopology-2-2bd9adc2-68eb-4169-a9ce-fa7ef3492887;["container_2_Emit_random_words_2"];3.25;1533040454.79985;213.22;850.99;6.516430401;10;149
51;paravance-64.rennes.grid5000.fr;thermos-root-devel-WordCountTopology-1-775d2479-bd66-4ae6-b572-cde800441df7;["container_1_Consume_and_count_1"];3.25;1533040454.80234;267.12;1585.91;116.238730702;10;149
51;paravance-62.rennes.grid5000.fr;thermos-root-devel-WordCountTopology-0-5499fc2e-d9bc-44dd-ae7a-ebe3e74c9231;["topology_master"];3.25;1533040454.85719;5.92;13.1;0.0;9;117
52;paravance-64.rennes.grid5000.fr;thermos-root-devel-WordCountTopology-1-775d2479-bd66-4ae6-b572-cde800441df7;["container_1_Consume_and_count_1"];3.25;1533040465.01882;271.28;1610.74;117.457121997;10;149
52;paravance-61.rennes.grid5000.fr;thermos-root-devel-WordCountTopology-2-2bd9adc2-68eb-4169-a9ce-fa7ef3492887;["container_2_Emit_random_words_2"];3.25;1533040465.0164;216.35;863.12;6.516430401;10;149
52;paravance-62.rennes.grid5000.fr;thermos-root-devel-WordCountTopology-0-5499fc2e-d9bc-44dd-ae7a-ebe3e74c9231;["topology_master"];3.25;1533040465.0679;5.98;13.18;0.0;9;117
53;paravance-64.rennes.grid5000.fr;thermos-root-devel-WordCountTopology-1-775d2479-bd66-4ae6-b572-cde800441df7;["container_1_Consume_and_count_1"];3.25;1533040475.23363;275.47;1635.8;118.993339662;10;149
53;paravance-62.rennes.grid5000.fr;thermos-root-devel-WordCountTopology-0-5499fc2e-d9bc-44dd-ae7a-ebe3e74c9231;["topology_master"];3.25;1533040475.27926;6.05;13.28;0.0;9;117
53;paravance-61.rennes.grid5000.fr;thermos-root-devel-WordCountTopology-2-2bd9adc2-68eb-4169-a9ce-fa7ef3492887;["container_2_Emit_random_words_2"];3.25;1533040475.23277;219.56;875.85;6.516430401;10;149
54;paravance-64.rennes.grid5000.fr;thermos-root-devel-WordCountTopology-1-775d2479-bd66-4ae6-b572-cde800441df7;["container_1_Consume_and_count_1"];3.25;1533040485.45038;279.44;1660.77;120.565779642;10;149
54;paravance-61.rennes.grid5000.fr;thermos-root-devel-WordCountTopology-2-2bd9adc2-68eb-4169-a9ce-fa7ef3492887;["container_2_Emit_random_words_2"];3.25;1533040485.44882;222.79;888.06;6.516430401;10;149
54;paravance-62.rennes.grid5000.fr;thermos-root-devel-WordCountTopology-0-5499fc2e-d9bc-44dd-ae7a-ebe3e74c9231;["topology_master"];3.25;1533040485.49101;6.11;13.38;0.0;9;117
55;paravance-64.rennes.grid5000.fr;thermos-root-devel-WordCountTopology-1-775d2479-bd66-4ae6-b572-cde800441df7;["container_1_Consume_and_count_1"];3.25;1533040495.66776;283.53;1686.51;122.31389168;10;149
55;paravance-61.rennes.grid5000.fr;thermos-root-devel-WordCountTopology-2-2bd9adc2-68eb-4169-a9ce-fa7ef3492887;["container_2_Emit_random_words_2"];3.25;1533040495.66487;225.95;900.7;6.516430401;10;149
55;paravance-62.rennes.grid5000.fr;thermos-root-devel-WordCountTopology-0-5499fc2e-d9bc-44dd-ae7a-ebe3e74c9231;["topology_master"];3.25;1533040495.70055;6.2;13.5;0.0;9;117
56;paravance-61.rennes.grid5000.fr;thermos-root-devel-WordCountTopology-2-2bd9adc2-68eb-4169-a9ce-fa7ef3492887;["container_2_Emit_random_words_2"];3.25;1533040505.8801;229.21;913.24;6.516430401;10;149
56;paravance-64.rennes.grid5000.fr;thermos-root-devel-WordCountTopology-1-775d2479-bd66-4ae6-b572-cde800441df7;["container_1_Consume_and_count_1"];3.25;1533040505.88336;287.64;1712.36;124.025113273;10;149
56;paravance-62.rennes.grid5000.fr;thermos-root-devel-WordCountTopology-0-5499fc2e-d9bc-44dd-ae7a-ebe3e74c9231;["topology_master"];3.25;1533040505.91198;6.22;13.52;0.0;9;117
57;paravance-64.rennes.grid5000.fr;thermos-root-devel-WordCountTopology-1-775d2479-bd66-4ae6-b572-cde800441df7;["container_1_Consume_and_count_1"];3.25;1533040516.0994;291.73;1738.32;125.834105089;10;149
57;paravance-61.rennes.grid5000.fr;thermos-root-devel-WordCountTopology-2-2bd9adc2-68eb-4169-a9ce-fa7ef3492887;["container_2_Emit_random_words_2"];3.25;1533040516.09635;232.45;925.46;6.516430401;10;149
57;paravance-62.rennes.grid5000.fr;thermos-root-devel-WordCountTopology-0-5499fc2e-d9bc-44dd-ae7a-ebe3e74c9231;["topology_master"];3.25;1533040516.12363;6.31;13.64;0.0;9;117
58;paravance-64.rennes.grid5000.fr;thermos-root-devel-WordCountTopology-1-775d2479-bd66-4ae6-b572-cde800441df7;["container_1_Consume_and_count_1"];3.25;1533040526.3137;295.98;1764.54;127.513688568;10;149
58;paravance-61.rennes.grid5000.fr;thermos-root-devel-WordCountTopology-2-2bd9adc2-68eb-4169-a9ce-fa7ef3492887;["container_2_Emit_random_words_2"];3.25;1533040526.3116;235.87;938.42;6.516430401;10;149
58;paravance-62.rennes.grid5000.fr;thermos-root-devel-WordCountTopology-0-5499fc2e-d9bc-44dd-ae7a-ebe3e74c9231;["topology_master"];3.25;1533040526.33363;6.36;13.71;0.0;9;117
59;paravance-64.rennes.grid5000.fr;thermos-root-devel-WordCountTopology-1-775d2479-bd66-4ae6-b572-cde800441df7;["container_1_Consume_and_count_1"];3.25;1533040536.52963;300.11;1789.86;128.965509226;10;149
59;paravance-61.rennes.grid5000.fr;thermos-root-devel-WordCountTopology-2-2bd9adc2-68eb-4169-a9ce-fa7ef3492887;["container_2_Emit_random_words_2"];3.25;1533040536.52684;239.04;950.92;6.516430401;10;149
59;paravance-62.rennes.grid5000.fr;thermos-root-devel-WordCountTopology-0-5499fc2e-d9bc-44dd-ae7a-ebe3e74c9231;["topology_master"];3.25;1533040536.54378;6.43;13.83;0.0;9;117
60;paravance-61.rennes.grid5000.fr;thermos-root-devel-WordCountTopology-2-2bd9adc2-68eb-4169-a9ce-fa7ef3492887;["container_2_Emit_random_words_2"];3.25;1533040546.64053;242.3;963.93;6.516430401;10;149
60;paravance-62.rennes.grid5000.fr;thermos-root-devel-WordCountTopology-0-5499fc2e-d9bc-44dd-ae7a-ebe3e74c9231;["topology_master"];3.25;1533040546.75132;6.49;13.9;0.0;9;117
60;paravance-64.rennes.grid5000.fr;thermos-root-devel-WordCountTopology-1-775d2479-bd66-4ae6-b572-cde800441df7;["container_1_Consume_and_count_1"];3.25;1533040546.74518;304.1;1815.74;130.42911717;10;149
