{
  "status": "success",
  "executiontime": 0.00018715858459472656,
  "message": "",
  "result": {
    "bolts": {
      "Consume_and_count": [
        "container_1_Consume_and_count_1"
      ]
    },
    "instances": {
      "container_2_Emit_random_words_2": {
        "stmgrId": "stmgr-2",
        "logfile": "http://paravance-22.rennes.grid5000.fr:31157/file/log-files/container_2_Emit_random_words_2.log.0",
        "id": "container_2_Emit_random_words_2",
        "name": "Emit_random_words"
      },
      "container_1_Consume_and_count_1": {
        "stmgrId": "stmgr-1",
        "logfile": "http://paravance-16.rennes.grid5000.fr:31981/file/log-files/container_1_Consume_and_count_1.log.0",
        "id": "container_1_Consume_and_count_1",
        "name": "Consume_and_count"
      }
    },
    "instance_groups": {
      "container_1_Consume_and": [
        "container_1_Consume_and_count_1"
      ],
      "container_2_Emit_random": [
        "container_2_Emit_random_words_2"
      ]
    },
    "spouts": {
      "Emit_random_words": [
        "container_2_Emit_random_words_2"
      ]
    },
    "config": {
      "topology.message.timeout.secs": "30",
      "topology.team.environment": "devel",
      "topology.serializer.classname": "org.apache.heron.streamlet.impl.KryoSerializer",
      "topology.team.name": "root",
      "topology.debug": "false",
      "topology.max.spout.pending": "100",
      "topology.container.padding.percentage": "300",
      "topology.enable.message.timeouts": "true",
      "topology.component.parallelism": "1",
      "topology.name": "WordCountTopology",
      "topology.stmgrs": "2",
      "topology.reliability.mode": "ATMOST_ONCE"
    },
    "stmgrs": {
      "stmgr-1": {
        "cwd": "/var/lib/mesos/slaves/6cca494c-3c9e-445d-b53b-10d1324c619a-S2/frameworks/75deb08a-eb1b-415c-8b2c-e922be5f7d98-0000/executors/thermos-root-devel-WordCountTopology-1-f7db2ae6-3af4-42b3-b9d4-74549fff039f/runs/7f55a2df-ac5b-45f5-9440-5a58949d9bc4/sandbox",
        "host": "paravance-16.rennes.grid5000.fr",
        "joburl": "http://paravance-16.rennes.grid5000.fr:31981/browse/",
        "shell_port": 31981,
        "logfiles": "http://paravance-16.rennes.grid5000.fr:31981/browse/log-files",
        "pid": 2766,
        "id": "stmgr-1",
        "instance_ids": [
          "container_1_Consume_and_count_1"
        ],
        "port": 31533
      },
      "stmgr-2": {
        "cwd": "/var/lib/mesos/slaves/6cca494c-3c9e-445d-b53b-10d1324c619a-S1/frameworks/75deb08a-eb1b-415c-8b2c-e922be5f7d98-0000/executors/thermos-root-devel-WordCountTopology-2-09f8db90-be25-4c1a-a364-1021d498372a/runs/225b2a6f-6e57-453b-959a-18548cf76a05/sandbox",
        "host": "paravance-22.rennes.grid5000.fr",
        "joburl": "http://paravance-22.rennes.grid5000.fr:31157/browse/",
        "shell_port": 31157,
        "logfiles": "http://paravance-22.rennes.grid5000.fr:31157/browse/log-files",
        "pid": 2841,
        "id": "stmgr-2",
        "instance_ids": [
          "container_2_Emit_random_words_2"
        ],
        "port": 31813
      }
    }
  },
  "tracker_version": "0.17.8-61-gd7c8c62"
}