{
  "status": "success",
  "executiontime": 0.0001990795135498047,
  "message": "",
  "result": {
    "bolts": {
      "Consume_and_count": [
        "container_1_Consume_and_count_1"
      ]
    },
    "instances": {
      "container_2_Emit_random_words_2": {
        "stmgrId": "stmgr-2",
        "logfile": "http://paravance-60.rennes.grid5000.fr:31901/file/log-files/container_2_Emit_random_words_2.log.0",
        "id": "container_2_Emit_random_words_2",
        "name": "Emit_random_words"
      },
      "container_1_Consume_and_count_1": {
        "stmgrId": "stmgr-1",
        "logfile": "http://paravance-59.rennes.grid5000.fr:31736/file/log-files/container_1_Consume_and_count_1.log.0",
        "id": "container_1_Consume_and_count_1",
        "name": "Consume_and_count"
      }
    },
    "instance_groups": {
      "container_1_Consume_and": [
        "container_1_Consume_and_count_1"
      ],
      "container_2_Emit_random": [
        "container_2_Emit_random_words_2"
      ]
    },
    "spouts": {
      "Emit_random_words": [
        "container_2_Emit_random_words_2"
      ]
    },
    "config": {
      "topology.message.timeout.secs": "30",
      "topology.team.environment": "devel",
      "topology.serializer.classname": "org.apache.heron.streamlet.impl.KryoSerializer",
      "topology.team.name": "root",
      "topology.debug": "false",
      "topology.max.spout.pending": "100",
      "topology.container.padding.percentage": "300",
      "topology.enable.message.timeouts": "true",
      "topology.component.parallelism": "1",
      "topology.name": "WordCountTopology",
      "topology.stmgrs": "2",
      "topology.reliability.mode": "ATMOST_ONCE"
    },
    "stmgrs": {
      "stmgr-1": {
        "cwd": "/var/lib/mesos/slaves/64a53e07-45ef-43ef-9da7-475b756f0313-S1/frameworks/75deb08a-eb1b-415c-8b2c-e922be5f7d98-0000/executors/thermos-root-devel-WordCountTopology-1-0e3c4bb3-d039-4b97-a552-203af0665939/runs/2267b81e-c0fa-404b-8401-a381ccb1bf88/sandbox",
        "host": "paravance-59.rennes.grid5000.fr",
        "joburl": "http://paravance-59.rennes.grid5000.fr:31736/browse/",
        "shell_port": 31736,
        "logfiles": "http://paravance-59.rennes.grid5000.fr:31736/browse/log-files",
        "pid": 2847,
        "id": "stmgr-1",
        "instance_ids": [
          "container_1_Consume_and_count_1"
        ],
        "port": 31645
      },
      "stmgr-2": {
        "cwd": "/var/lib/mesos/slaves/64a53e07-45ef-43ef-9da7-475b756f0313-S2/frameworks/75deb08a-eb1b-415c-8b2c-e922be5f7d98-0000/executors/thermos-root-devel-WordCountTopology-2-40093ec9-7cfa-40f4-9635-455cda968f8b/runs/002c52a6-0a8b-4711-855c-ccbf58af79a3/sandbox",
        "host": "paravance-60.rennes.grid5000.fr",
        "joburl": "http://paravance-60.rennes.grid5000.fr:31901/browse/",
        "shell_port": 31901,
        "logfiles": "http://paravance-60.rennes.grid5000.fr:31901/browse/log-files",
        "pid": 2757,
        "id": "stmgr-2",
        "instance_ids": [
          "container_2_Emit_random_words_2"
        ],
        "port": 31122
      }
    }
  },
  "tracker_version": "0.17.8-61-gd7c8c62"
}