mesure_id;slave_id;executor_id;heron_instances;cpus_limit;timestamp_B;cpus_system_time_secs_B;cpus_user_time_secs_B;cpus_throttled_time_secs_B;processes;threads
0;paravance-16.rennes.grid5000.fr;thermos-root-devel-WordCountTopology-2-dfe6e16c-ddba-43f2-8325-9b41043bccef;["container_2_Emit_random_words_2"];3.25;1533338278.03434;20.73;245.8;4.351598211;10;149
0;paravance-20.rennes.grid5000.fr;thermos-root-devel-WordCountTopology-0-526a82c2-651f-490e-91e0-0aa2d7a158d3;["topology_master"];3.25;1533338278.04289;2.61;8.55;0.0;9;117
0;paravance-29.rennes.grid5000.fr;thermos-root-devel-WordCountTopology-1-09c60ce1-0a95-4d21-bed8-0b4447f16db5;["container_1_Consume_and_count_1"];3.25;1533338277.98708;30.85;202.35;2.495182564;10;149
1;paravance-29.rennes.grid5000.fr;thermos-root-devel-WordCountTopology-1-09c60ce1-0a95-4d21-bed8-0b4447f16db5;["container_1_Consume_and_count_1"];3.25;1533338288.1961;33.03;218.27;2.495182564;10;149
1;paravance-16.rennes.grid5000.fr;thermos-root-devel-WordCountTopology-2-dfe6e16c-ddba-43f2-8325-9b41043bccef;["container_2_Emit_random_words_2"];3.25;1533338288.24982;22.27;264.75;4.351598211;10;149
1;paravance-20.rennes.grid5000.fr;thermos-root-devel-WordCountTopology-0-526a82c2-651f-490e-91e0-0aa2d7a158d3;["topology_master"];3.25;1533338288.25973;2.71;8.69;0.0;9;117
2;paravance-29.rennes.grid5000.fr;thermos-root-devel-WordCountTopology-1-09c60ce1-0a95-4d21-bed8-0b4447f16db5;["container_1_Consume_and_count_1"];3.25;1533338298.40745;35.46;233.63;2.495182564;10;149
2;paravance-16.rennes.grid5000.fr;thermos-root-devel-WordCountTopology-2-dfe6e16c-ddba-43f2-8325-9b41043bccef;["container_2_Emit_random_words_2"];3.25;1533338298.46473;23.71;283.79;4.351598211;10;149
2;paravance-20.rennes.grid5000.fr;thermos-root-devel-WordCountTopology-0-526a82c2-651f-490e-91e0-0aa2d7a158d3;["topology_master"];3.25;1533338298.47461;2.74;8.72;0.0;9;117
3;paravance-16.rennes.grid5000.fr;thermos-root-devel-WordCountTopology-2-dfe6e16c-ddba-43f2-8325-9b41043bccef;["container_2_Emit_random_words_2"];3.25;1533338308.68003;25.29;302.72;4.351598211;10;149
3;paravance-29.rennes.grid5000.fr;thermos-root-devel-WordCountTopology-1-09c60ce1-0a95-4d21-bed8-0b4447f16db5;["container_1_Consume_and_count_1"];3.25;1533338308.6223;37.93;249.08;2.495182564;10;149
3;paravance-20.rennes.grid5000.fr;thermos-root-devel-WordCountTopology-0-526a82c2-651f-490e-91e0-0aa2d7a158d3;["topology_master"];3.25;1533338308.69013;2.82;8.84;0.0;9;117
4;paravance-16.rennes.grid5000.fr;thermos-root-devel-WordCountTopology-2-dfe6e16c-ddba-43f2-8325-9b41043bccef;["container_2_Emit_random_words_2"];3.25;1533338318.89638;26.8;321.66;4.351598211;10;149
4;paravance-29.rennes.grid5000.fr;thermos-root-devel-WordCountTopology-1-09c60ce1-0a95-4d21-bed8-0b4447f16db5;["container_1_Consume_and_count_1"];3.25;1533338318.83867;40.35;264.2;2.495182564;10;149
4;paravance-20.rennes.grid5000.fr;thermos-root-devel-WordCountTopology-0-526a82c2-651f-490e-91e0-0aa2d7a158d3;["topology_master"];3.25;1533338318.90681;2.88;8.92;0.0;9;117
5;paravance-20.rennes.grid5000.fr;thermos-root-devel-WordCountTopology-0-526a82c2-651f-490e-91e0-0aa2d7a158d3;["topology_master"];3.25;1533338329.12066;2.96;9.01;0.0;9;117
5;paravance-29.rennes.grid5000.fr;thermos-root-devel-WordCountTopology-1-09c60ce1-0a95-4d21-bed8-0b4447f16db5;["container_1_Consume_and_count_1"];3.25;1533338329.05384;42.87;279.88;2.495182564;10;149
5;paravance-16.rennes.grid5000.fr;thermos-root-devel-WordCountTopology-2-dfe6e16c-ddba-43f2-8325-9b41043bccef;["container_2_Emit_random_words_2"];3.25;1533338329.11296;28.36;340.47;4.351598211;10;149
6;paravance-16.rennes.grid5000.fr;thermos-root-devel-WordCountTopology-2-dfe6e16c-ddba-43f2-8325-9b41043bccef;["container_2_Emit_random_words_2"];3.25;1533338339.32819;29.85;359.48;4.371928541;10;149
6;paravance-20.rennes.grid5000.fr;thermos-root-devel-WordCountTopology-0-526a82c2-651f-490e-91e0-0aa2d7a158d3;["topology_master"];3.25;1533338339.33692;3.03;9.17;0.0;9;117
6;paravance-29.rennes.grid5000.fr;thermos-root-devel-WordCountTopology-1-09c60ce1-0a95-4d21-bed8-0b4447f16db5;["container_1_Consume_and_count_1"];3.25;1533338339.27118;45.35;295.63;2.495182564;10;149
7;paravance-29.rennes.grid5000.fr;thermos-root-devel-WordCountTopology-1-09c60ce1-0a95-4d21-bed8-0b4447f16db5;["container_1_Consume_and_count_1"];3.25;1533338349.48585;47.82;310.79;2.495182564;10;149
7;paravance-16.rennes.grid5000.fr;thermos-root-devel-WordCountTopology-2-dfe6e16c-ddba-43f2-8325-9b41043bccef;["container_2_Emit_random_words_2"];3.25;1533338349.54419;31.38;378.33;4.371928541;10;149
7;paravance-20.rennes.grid5000.fr;thermos-root-devel-WordCountTopology-0-526a82c2-651f-490e-91e0-0aa2d7a158d3;["topology_master"];3.25;1533338349.55455;3.13;9.32;0.0;9;117
8;paravance-16.rennes.grid5000.fr;thermos-root-devel-WordCountTopology-2-dfe6e16c-ddba-43f2-8325-9b41043bccef;["container_2_Emit_random_words_2"];3.25;1533338359.75805;32.86;397.29;4.371928541;10;149
8;paravance-29.rennes.grid5000.fr;thermos-root-devel-WordCountTopology-1-09c60ce1-0a95-4d21-bed8-0b4447f16db5;["container_1_Consume_and_count_1"];3.25;1533338359.70149;50.25;325.84;2.495182564;10;149
8;paravance-20.rennes.grid5000.fr;thermos-root-devel-WordCountTopology-0-526a82c2-651f-490e-91e0-0aa2d7a158d3;["topology_master"];3.25;1533338359.76799;3.16;9.34;0.0;9;117
9;paravance-29.rennes.grid5000.fr;thermos-root-devel-WordCountTopology-1-09c60ce1-0a95-4d21-bed8-0b4447f16db5;["container_1_Consume_and_count_1"];3.25;1533338369.91603;52.67;341.16;2.495182564;10;149
9;paravance-16.rennes.grid5000.fr;thermos-root-devel-WordCountTopology-2-dfe6e16c-ddba-43f2-8325-9b41043bccef;["container_2_Emit_random_words_2"];3.25;1533338369.97475;34.32;416.35;4.371928541;10;149
9;paravance-20.rennes.grid5000.fr;thermos-root-devel-WordCountTopology-0-526a82c2-651f-490e-91e0-0aa2d7a158d3;["topology_master"];3.25;1533338369.98457;3.25;9.47;0.0;9;117
10;paravance-29.rennes.grid5000.fr;thermos-root-devel-WordCountTopology-1-09c60ce1-0a95-4d21-bed8-0b4447f16db5;["container_1_Consume_and_count_1"];3.25;1533338380.1313;55.09;356.27;2.495182564;10;149
10;paravance-20.rennes.grid5000.fr;thermos-root-devel-WordCountTopology-0-526a82c2-651f-490e-91e0-0aa2d7a158d3;["topology_master"];3.25;1533338380.19995;3.31;9.54;0.0;9;117
10;paravance-16.rennes.grid5000.fr;thermos-root-devel-WordCountTopology-2-dfe6e16c-ddba-43f2-8325-9b41043bccef;["container_2_Emit_random_words_2"];3.25;1533338380.19037;35.81;435.51;4.371928541;10;149
11;paravance-16.rennes.grid5000.fr;thermos-root-devel-WordCountTopology-2-dfe6e16c-ddba-43f2-8325-9b41043bccef;["container_2_Emit_random_words_2"];3.25;1533338390.40465;37.4;454.45;4.371928541;10;149
11;paravance-29.rennes.grid5000.fr;thermos-root-devel-WordCountTopology-1-09c60ce1-0a95-4d21-bed8-0b4447f16db5;["container_1_Consume_and_count_1"];3.25;1533338390.34591;57.61;371.74;2.495182564;10;149
11;paravance-20.rennes.grid5000.fr;thermos-root-devel-WordCountTopology-0-526a82c2-651f-490e-91e0-0aa2d7a158d3;["topology_master"];3.25;1533338390.41397;3.42;9.68;0.0;9;117
12;paravance-29.rennes.grid5000.fr;thermos-root-devel-WordCountTopology-1-09c60ce1-0a95-4d21-bed8-0b4447f16db5;["container_1_Consume_and_count_1"];3.25;1533338400.56168;60.02;386.95;2.495182564;10;149
12;paravance-16.rennes.grid5000.fr;thermos-root-devel-WordCountTopology-2-dfe6e16c-ddba-43f2-8325-9b41043bccef;["container_2_Emit_random_words_2"];3.25;1533338400.61922;38.88;473.41;4.371928541;10;149
12;paravance-20.rennes.grid5000.fr;thermos-root-devel-WordCountTopology-0-526a82c2-651f-490e-91e0-0aa2d7a158d3;["topology_master"];3.25;1533338400.63045;3.47;9.83;0.0;9;117
13;paravance-29.rennes.grid5000.fr;thermos-root-devel-WordCountTopology-1-09c60ce1-0a95-4d21-bed8-0b4447f16db5;["container_1_Consume_and_count_1"];3.25;1533338410.77557;62.49;402.4;2.495182564;10;149
13;paravance-16.rennes.grid5000.fr;thermos-root-devel-WordCountTopology-2-dfe6e16c-ddba-43f2-8325-9b41043bccef;["container_2_Emit_random_words_2"];3.25;1533338410.83461;40.41;492.29;4.371928541;10;149
13;paravance-20.rennes.grid5000.fr;thermos-root-devel-WordCountTopology-0-526a82c2-651f-490e-91e0-0aa2d7a158d3;["topology_master"];3.25;1533338410.84594;3.56;9.97;0.0;9;117
14;paravance-16.rennes.grid5000.fr;thermos-root-devel-WordCountTopology-2-dfe6e16c-ddba-43f2-8325-9b41043bccef;["container_2_Emit_random_words_2"];3.25;1533338421.04977;41.88;511.49;4.371928541;10;149
14;paravance-20.rennes.grid5000.fr;thermos-root-devel-WordCountTopology-0-526a82c2-651f-490e-91e0-0aa2d7a158d3;["topology_master"];3.25;1533338421.0596;3.62;10.04;0.0;9;117
14;paravance-29.rennes.grid5000.fr;thermos-root-devel-WordCountTopology-1-09c60ce1-0a95-4d21-bed8-0b4447f16db5;["container_1_Consume_and_count_1"];3.25;1533338420.99304;64.95;417.53;2.495182564;10;149
15;paravance-20.rennes.grid5000.fr;thermos-root-devel-WordCountTopology-0-526a82c2-651f-490e-91e0-0aa2d7a158d3;["topology_master"];3.25;1533338431.27401;3.68;10.12;0.0;9;117
15;paravance-16.rennes.grid5000.fr;thermos-root-devel-WordCountTopology-2-dfe6e16c-ddba-43f2-8325-9b41043bccef;["container_2_Emit_random_words_2"];3.25;1533338431.265;43.39;530.49;4.371928541;10;149
15;paravance-29.rennes.grid5000.fr;thermos-root-devel-WordCountTopology-1-09c60ce1-0a95-4d21-bed8-0b4447f16db5;["container_1_Consume_and_count_1"];3.25;1533338431.20703;67.43;432.94;2.495182564;10;149
16;paravance-29.rennes.grid5000.fr;thermos-root-devel-WordCountTopology-1-09c60ce1-0a95-4d21-bed8-0b4447f16db5;["container_1_Consume_and_count_1"];3.25;1533338441.42146;69.92;448.49;2.495182564;10;149
16;paravance-16.rennes.grid5000.fr;thermos-root-devel-WordCountTopology-2-dfe6e16c-ddba-43f2-8325-9b41043bccef;["container_2_Emit_random_words_2"];3.25;1533338441.47991;44.9;549.34;4.371928541;10;149
16;paravance-20.rennes.grid5000.fr;thermos-root-devel-WordCountTopology-0-526a82c2-651f-490e-91e0-0aa2d7a158d3;["topology_master"];3.25;1533338441.48992;3.73;10.2;0.0;9;117
17;paravance-29.rennes.grid5000.fr;thermos-root-devel-WordCountTopology-1-09c60ce1-0a95-4d21-bed8-0b4447f16db5;["container_1_Consume_and_count_1"];3.25;1533338451.63536;72.49;464.24;2.495182564;10;149
17;paravance-16.rennes.grid5000.fr;thermos-root-devel-WordCountTopology-2-dfe6e16c-ddba-43f2-8325-9b41043bccef;["container_2_Emit_random_words_2"];3.25;1533338451.69383;46.44;568.76;4.381649494;10;149
17;paravance-20.rennes.grid5000.fr;thermos-root-devel-WordCountTopology-0-526a82c2-651f-490e-91e0-0aa2d7a158d3;["topology_master"];3.25;1533338451.70407;3.85;10.4;0.0;9;117
18;paravance-20.rennes.grid5000.fr;thermos-root-devel-WordCountTopology-0-526a82c2-651f-490e-91e0-0aa2d7a158d3;["topology_master"];3.25;1533338461.91654;3.88;10.45;0.0;9;117
18;paravance-29.rennes.grid5000.fr;thermos-root-devel-WordCountTopology-1-09c60ce1-0a95-4d21-bed8-0b4447f16db5;["container_1_Consume_and_count_1"];3.25;1533338461.8483;74.86;479.14;2.495182564;10;149
18;paravance-16.rennes.grid5000.fr;thermos-root-devel-WordCountTopology-2-dfe6e16c-ddba-43f2-8325-9b41043bccef;["container_2_Emit_random_words_2"];3.25;1533338461.90777;47.91;588.23;4.381649494;10;149
19;paravance-16.rennes.grid5000.fr;thermos-root-devel-WordCountTopology-2-dfe6e16c-ddba-43f2-8325-9b41043bccef;["container_2_Emit_random_words_2"];3.25;1533338472.12022;49.48;607.91;4.381649494;10;149
19;paravance-20.rennes.grid5000.fr;thermos-root-devel-WordCountTopology-0-526a82c2-651f-490e-91e0-0aa2d7a158d3;["topology_master"];3.25;1533338472.13015;3.98;10.57;0.0;9;117
19;paravance-29.rennes.grid5000.fr;thermos-root-devel-WordCountTopology-1-09c60ce1-0a95-4d21-bed8-0b4447f16db5;["container_1_Consume_and_count_1"];3.25;1533338472.06216;77.38;494.47;2.495182564;10;149
20;paravance-29.rennes.grid5000.fr;thermos-root-devel-WordCountTopology-1-09c60ce1-0a95-4d21-bed8-0b4447f16db5;["container_1_Consume_and_count_1"];3.25;1533338482.27654;79.83;509.93;2.495182564;10;149
20;paravance-16.rennes.grid5000.fr;thermos-root-devel-WordCountTopology-2-dfe6e16c-ddba-43f2-8325-9b41043bccef;["container_2_Emit_random_words_2"];3.25;1533338482.33519;50.99;626.97;4.381649494;10;149
20;paravance-20.rennes.grid5000.fr;thermos-root-devel-WordCountTopology-0-526a82c2-651f-490e-91e0-0aa2d7a158d3;["topology_master"];3.25;1533338482.34611;4.03;10.64;0.0;9;117
21;paravance-29.rennes.grid5000.fr;thermos-root-devel-WordCountTopology-1-09c60ce1-0a95-4d21-bed8-0b4447f16db5;["container_1_Consume_and_count_1"];3.25;1533338492.49265;82.28;525.15;2.495182564;10;149
21;paravance-16.rennes.grid5000.fr;thermos-root-devel-WordCountTopology-2-dfe6e16c-ddba-43f2-8325-9b41043bccef;["container_2_Emit_random_words_2"];3.25;1533338492.55099;52.51;646.11;4.381649494;10;149
21;paravance-20.rennes.grid5000.fr;thermos-root-devel-WordCountTopology-0-526a82c2-651f-490e-91e0-0aa2d7a158d3;["topology_master"];3.25;1533338492.56151;4.1;10.72;0.0;9;117
22;paravance-29.rennes.grid5000.fr;thermos-root-devel-WordCountTopology-1-09c60ce1-0a95-4d21-bed8-0b4447f16db5;["container_1_Consume_and_count_1"];3.25;1533338502.70641;84.68;540.27;2.495182564;10;149
22;paravance-20.rennes.grid5000.fr;thermos-root-devel-WordCountTopology-0-526a82c2-651f-490e-91e0-0aa2d7a158d3;["topology_master"];3.25;1533338502.77658;4.15;10.8;0.0;9;117
22;paravance-16.rennes.grid5000.fr;thermos-root-devel-WordCountTopology-2-dfe6e16c-ddba-43f2-8325-9b41043bccef;["container_2_Emit_random_words_2"];3.25;1533338502.76664;53.97;665.25;4.381649494;10;149
23;paravance-29.rennes.grid5000.fr;thermos-root-devel-WordCountTopology-1-09c60ce1-0a95-4d21-bed8-0b4447f16db5;["container_1_Consume_and_count_1"];3.25;1533338512.92252;87.19;555.62;2.495182564;10;149
23;paravance-16.rennes.grid5000.fr;thermos-root-devel-WordCountTopology-2-dfe6e16c-ddba-43f2-8325-9b41043bccef;["container_2_Emit_random_words_2"];3.25;1533338512.9815;55.59;684.22;4.381649494;10;149
23;paravance-20.rennes.grid5000.fr;thermos-root-devel-WordCountTopology-0-526a82c2-651f-490e-91e0-0aa2d7a158d3;["topology_master"];3.25;1533338512.99207;4.27;11.0;0.0;9;117
24;paravance-29.rennes.grid5000.fr;thermos-root-devel-WordCountTopology-1-09c60ce1-0a95-4d21-bed8-0b4447f16db5;["container_1_Consume_and_count_1"];3.25;1533338523.13748;89.61;570.84;2.495182564;10;149
24;paravance-20.rennes.grid5000.fr;thermos-root-devel-WordCountTopology-0-526a82c2-651f-490e-91e0-0aa2d7a158d3;["topology_master"];3.25;1533338523.20686;4.29;11.02;0.0;9;117
24;paravance-16.rennes.grid5000.fr;thermos-root-devel-WordCountTopology-2-dfe6e16c-ddba-43f2-8325-9b41043bccef;["container_2_Emit_random_words_2"];3.25;1533338523.19708;57.07;703.11;4.381649494;10;149
25;paravance-29.rennes.grid5000.fr;thermos-root-devel-WordCountTopology-1-09c60ce1-0a95-4d21-bed8-0b4447f16db5;["container_1_Consume_and_count_1"];3.25;1533338533.35249;92.09;585.97;2.495182564;10;149
25;paravance-16.rennes.grid5000.fr;thermos-root-devel-WordCountTopology-2-dfe6e16c-ddba-43f2-8325-9b41043bccef;["container_2_Emit_random_words_2"];3.25;1533338533.41163;58.58;722.17;4.381649494;10;149
25;paravance-20.rennes.grid5000.fr;thermos-root-devel-WordCountTopology-0-526a82c2-651f-490e-91e0-0aa2d7a158d3;["topology_master"];3.25;1533338533.42181;4.38;11.14;0.0;9;117
26;paravance-16.rennes.grid5000.fr;thermos-root-devel-WordCountTopology-2-dfe6e16c-ddba-43f2-8325-9b41043bccef;["container_2_Emit_random_words_2"];3.25;1533338543.62465;60.09;741.14;4.381649494;10;149
26;paravance-29.rennes.grid5000.fr;thermos-root-devel-WordCountTopology-1-09c60ce1-0a95-4d21-bed8-0b4447f16db5;["container_1_Consume_and_count_1"];3.25;1533338543.56694;94.54;601.25;2.495182564;10;149
26;paravance-20.rennes.grid5000.fr;thermos-root-devel-WordCountTopology-0-526a82c2-651f-490e-91e0-0aa2d7a158d3;["topology_master"];3.25;1533338543.63589;4.44;11.21;0.0;9;117
27;paravance-20.rennes.grid5000.fr;thermos-root-devel-WordCountTopology-0-526a82c2-651f-490e-91e0-0aa2d7a158d3;["topology_master"];3.25;1533338553.85101;4.5;11.28;0.0;9;117
27;paravance-29.rennes.grid5000.fr;thermos-root-devel-WordCountTopology-1-09c60ce1-0a95-4d21-bed8-0b4447f16db5;["container_1_Consume_and_count_1"];3.25;1533338553.78397;96.99;616.65;2.495182564;10;149
27;paravance-16.rennes.grid5000.fr;thermos-root-devel-WordCountTopology-2-dfe6e16c-ddba-43f2-8325-9b41043bccef;["container_2_Emit_random_words_2"];3.25;1533338553.84247;61.62;759.9;4.381649494;10;149
28;paravance-29.rennes.grid5000.fr;thermos-root-devel-WordCountTopology-1-09c60ce1-0a95-4d21-bed8-0b4447f16db5;["container_1_Consume_and_count_1"];3.25;1533338563.99871;99.4;631.96;2.495182564;10;149
28;paravance-20.rennes.grid5000.fr;thermos-root-devel-WordCountTopology-0-526a82c2-651f-490e-91e0-0aa2d7a158d3;["topology_master"];3.25;1533338564.06715;4.55;11.36;0.0;9;117
28;paravance-16.rennes.grid5000.fr;thermos-root-devel-WordCountTopology-2-dfe6e16c-ddba-43f2-8325-9b41043bccef;["container_2_Emit_random_words_2"];3.25;1533338564.05804;63.15;778.52;4.381649494;10;149
29;paravance-29.rennes.grid5000.fr;thermos-root-devel-WordCountTopology-1-09c60ce1-0a95-4d21-bed8-0b4447f16db5;["container_1_Consume_and_count_1"];3.25;1533338574.21427;101.91;647.69;2.495182564;10;149
29;paravance-16.rennes.grid5000.fr;thermos-root-devel-WordCountTopology-2-dfe6e16c-ddba-43f2-8325-9b41043bccef;["container_2_Emit_random_words_2"];3.25;1533338574.27353;64.72;797.41;4.381649494;10;149
29;paravance-20.rennes.grid5000.fr;thermos-root-devel-WordCountTopology-0-526a82c2-651f-490e-91e0-0aa2d7a158d3;["topology_master"];3.25;1533338574.28456;4.66;11.53;0.0;9;117
30;paravance-20.rennes.grid5000.fr;thermos-root-devel-WordCountTopology-0-526a82c2-651f-490e-91e0-0aa2d7a158d3;["topology_master"];3.25;1533338584.39918;4.72;11.59;0.0;9;115
30;paravance-16.rennes.grid5000.fr;thermos-root-devel-WordCountTopology-2-dfe6e16c-ddba-43f2-8325-9b41043bccef;["container_2_Emit_random_words_2"];3.25;1533338584.48872;66.26;816.2;4.381649494;10;149
30;paravance-29.rennes.grid5000.fr;thermos-root-devel-WordCountTopology-1-09c60ce1-0a95-4d21-bed8-0b4447f16db5;["container_1_Consume_and_count_1"];3.25;1533338584.43077;104.34;663.44;2.495182564;10;149
31;paravance-29.rennes.grid5000.fr;thermos-root-devel-WordCountTopology-1-09c60ce1-0a95-4d21-bed8-0b4447f16db5;["container_1_Consume_and_count_1"];3.25;1533338594.6456;106.79;678.58;2.495182564;10;149
31;paravance-16.rennes.grid5000.fr;thermos-root-devel-WordCountTopology-2-dfe6e16c-ddba-43f2-8325-9b41043bccef;["container_2_Emit_random_words_2"];3.25;1533338594.70449;67.76;835.14;4.381649494;10;149
31;paravance-20.rennes.grid5000.fr;thermos-root-devel-WordCountTopology-0-526a82c2-651f-490e-91e0-0aa2d7a158d3;["topology_master"];3.25;1533338594.71536;4.78;11.67;0.0;9;117
32;paravance-16.rennes.grid5000.fr;thermos-root-devel-WordCountTopology-2-dfe6e16c-ddba-43f2-8325-9b41043bccef;["container_2_Emit_random_words_2"];3.25;1533338604.91936;69.36;853.84;4.381649494;10;149
32;paravance-29.rennes.grid5000.fr;thermos-root-devel-WordCountTopology-1-09c60ce1-0a95-4d21-bed8-0b4447f16db5;["container_1_Consume_and_count_1"];3.25;1533338604.86066;109.21;693.99;2.495182564;10;149
32;paravance-20.rennes.grid5000.fr;thermos-root-devel-WordCountTopology-0-526a82c2-651f-490e-91e0-0aa2d7a158d3;["topology_master"];3.25;1533338604.93045;4.87;11.79;0.0;9;117
33;paravance-16.rennes.grid5000.fr;thermos-root-devel-WordCountTopology-2-dfe6e16c-ddba-43f2-8325-9b41043bccef;["container_2_Emit_random_words_2"];3.25;1533338615.13484;70.81;872.78;4.381649494;10;149
33;paravance-29.rennes.grid5000.fr;thermos-root-devel-WordCountTopology-1-09c60ce1-0a95-4d21-bed8-0b4447f16db5;["container_1_Consume_and_count_1"];3.25;1533338615.07717;111.61;709.51;2.495182564;10;149
33;paravance-20.rennes.grid5000.fr;thermos-root-devel-WordCountTopology-0-526a82c2-651f-490e-91e0-0aa2d7a158d3;["topology_master"];3.25;1533338615.14658;4.9;11.82;0.0;9;117
34;paravance-16.rennes.grid5000.fr;thermos-root-devel-WordCountTopology-2-dfe6e16c-ddba-43f2-8325-9b41043bccef;["container_2_Emit_random_words_2"];3.25;1533338625.35028;72.38;891.63;4.381649494;10;149
34;paravance-29.rennes.grid5000.fr;thermos-root-devel-WordCountTopology-1-09c60ce1-0a95-4d21-bed8-0b4447f16db5;["container_1_Consume_and_count_1"];3.25;1533338625.29338;114.04;724.58;2.495182564;10;149
34;paravance-20.rennes.grid5000.fr;thermos-root-devel-WordCountTopology-0-526a82c2-651f-490e-91e0-0aa2d7a158d3;["topology_master"];3.25;1533338625.36218;4.99;11.95;0.0;9;117
35;paravance-29.rennes.grid5000.fr;thermos-root-devel-WordCountTopology-1-09c60ce1-0a95-4d21-bed8-0b4447f16db5;["container_1_Consume_and_count_1"];3.25;1533338635.5083;116.37;739.78;2.495182564;10;149
35;paravance-16.rennes.grid5000.fr;thermos-root-devel-WordCountTopology-2-dfe6e16c-ddba-43f2-8325-9b41043bccef;["container_2_Emit_random_words_2"];3.25;1533338635.56725;73.89;910.33;4.381649494;10;149
35;paravance-20.rennes.grid5000.fr;thermos-root-devel-WordCountTopology-0-526a82c2-651f-490e-91e0-0aa2d7a158d3;["topology_master"];3.25;1533338635.57898;5.06;12.12;0.0;9;117
36;paravance-29.rennes.grid5000.fr;thermos-root-devel-WordCountTopology-1-09c60ce1-0a95-4d21-bed8-0b4447f16db5;["container_1_Consume_and_count_1"];3.25;1533338645.72436;118.75;755.2;2.495182564;10;149
36;paravance-16.rennes.grid5000.fr;thermos-root-devel-WordCountTopology-2-dfe6e16c-ddba-43f2-8325-9b41043bccef;["container_2_Emit_random_words_2"];3.25;1533338645.78318;75.38;929.53;4.381649494;10;149
36;paravance-20.rennes.grid5000.fr;thermos-root-devel-WordCountTopology-0-526a82c2-651f-490e-91e0-0aa2d7a158d3;["topology_master"];3.25;1533338645.79398;5.12;12.19;0.0;9;117
37;paravance-29.rennes.grid5000.fr;thermos-root-devel-WordCountTopology-1-09c60ce1-0a95-4d21-bed8-0b4447f16db5;["container_1_Consume_and_count_1"];3.25;1533338655.94114;121.11;770.26;2.495182564;10;149
37;paravance-16.rennes.grid5000.fr;thermos-root-devel-WordCountTopology-2-dfe6e16c-ddba-43f2-8325-9b41043bccef;["container_2_Emit_random_words_2"];3.25;1533338655.99975;76.86;948.53;4.381649494;10;149
37;paravance-20.rennes.grid5000.fr;thermos-root-devel-WordCountTopology-0-526a82c2-651f-490e-91e0-0aa2d7a158d3;["topology_master"];3.25;1533338656.01156;5.18;12.27;0.0;9;117
38;paravance-20.rennes.grid5000.fr;thermos-root-devel-WordCountTopology-0-526a82c2-651f-490e-91e0-0aa2d7a158d3;["topology_master"];3.25;1533338666.22631;5.27;12.39;0.0;9;117
38;paravance-16.rennes.grid5000.fr;thermos-root-devel-WordCountTopology-2-dfe6e16c-ddba-43f2-8325-9b41043bccef;["container_2_Emit_random_words_2"];3.25;1533338666.2158;78.35;967.68;4.381649494;10;149
38;paravance-29.rennes.grid5000.fr;thermos-root-devel-WordCountTopology-1-09c60ce1-0a95-4d21-bed8-0b4447f16db5;["container_1_Consume_and_count_1"];3.25;1533338666.15679;123.52;785.55;2.495182564;10;149
39;paravance-29.rennes.grid5000.fr;thermos-root-devel-WordCountTopology-1-09c60ce1-0a95-4d21-bed8-0b4447f16db5;["container_1_Consume_and_count_1"];3.25;1533338676.37237;125.93;801.42;2.495182564;10;149
39;paravance-20.rennes.grid5000.fr;thermos-root-devel-WordCountTopology-0-526a82c2-651f-490e-91e0-0aa2d7a158d3;["topology_master"];3.25;1533338676.44339;5.3;12.41;0.0;9;117
39;paravance-16.rennes.grid5000.fr;thermos-root-devel-WordCountTopology-2-dfe6e16c-ddba-43f2-8325-9b41043bccef;["container_2_Emit_random_words_2"];3.25;1533338676.43218;79.85;986.81;4.381649494;10;149
40;paravance-16.rennes.grid5000.fr;thermos-root-devel-WordCountTopology-2-dfe6e16c-ddba-43f2-8325-9b41043bccef;["container_2_Emit_random_words_2"];3.25;1533338686.54865;81.39;1005.61;4.381649494;10;149
40;paravance-29.rennes.grid5000.fr;thermos-root-devel-WordCountTopology-1-09c60ce1-0a95-4d21-bed8-0b4447f16db5;["container_1_Consume_and_count_1"];3.25;1533338686.60438;128.31;817.51;2.495182564;10;149
40;paravance-20.rennes.grid5000.fr;thermos-root-devel-WordCountTopology-0-526a82c2-651f-490e-91e0-0aa2d7a158d3;["topology_master"];3.25;1533338686.67994;5.4;12.54;0.0;9;117
41;paravance-29.rennes.grid5000.fr;thermos-root-devel-WordCountTopology-1-09c60ce1-0a95-4d21-bed8-0b4447f16db5;["container_1_Consume_and_count_1"];3.25;1533338696.8238;130.59;832.97;2.495182564;10;149
41;paravance-16.rennes.grid5000.fr;thermos-root-devel-WordCountTopology-2-dfe6e16c-ddba-43f2-8325-9b41043bccef;["container_2_Emit_random_words_2"];3.25;1533338696.88292;82.97;1024.64;4.381649494;10;149
41;paravance-20.rennes.grid5000.fr;thermos-root-devel-WordCountTopology-0-526a82c2-651f-490e-91e0-0aa2d7a158d3;["topology_master"];3.25;1533338696.89464;5.46;12.65;0.0;9;117
42;paravance-29.rennes.grid5000.fr;thermos-root-devel-WordCountTopology-1-09c60ce1-0a95-4d21-bed8-0b4447f16db5;["container_1_Consume_and_count_1"];3.25;1533338707.0397;132.95;848.59;2.495182564;10;149
42;paravance-16.rennes.grid5000.fr;thermos-root-devel-WordCountTopology-2-dfe6e16c-ddba-43f2-8325-9b41043bccef;["container_2_Emit_random_words_2"];3.25;1533338707.09879;84.51;1043.81;4.381649494;10;149
42;paravance-20.rennes.grid5000.fr;thermos-root-devel-WordCountTopology-0-526a82c2-651f-490e-91e0-0aa2d7a158d3;["topology_master"];3.25;1533338707.11064;5.51;12.73;0.0;9;117
43;paravance-29.rennes.grid5000.fr;thermos-root-devel-WordCountTopology-1-09c60ce1-0a95-4d21-bed8-0b4447f16db5;["container_1_Consume_and_count_1"];3.25;1533338717.25627;135.12;863.72;2.495182564;10;149
43;paravance-16.rennes.grid5000.fr;thermos-root-devel-WordCountTopology-2-dfe6e16c-ddba-43f2-8325-9b41043bccef;["container_2_Emit_random_words_2"];3.25;1533338717.316;86.0;1062.79;4.381649494;10;149
43;paravance-20.rennes.grid5000.fr;thermos-root-devel-WordCountTopology-0-526a82c2-651f-490e-91e0-0aa2d7a158d3;["topology_master"];3.25;1533338717.32658;5.57;12.8;0.0;9;117
44;paravance-29.rennes.grid5000.fr;thermos-root-devel-WordCountTopology-1-09c60ce1-0a95-4d21-bed8-0b4447f16db5;["container_1_Consume_and_count_1"];3.25;1533338727.47382;137.44;879.61;2.495182564;10;149
44;paravance-16.rennes.grid5000.fr;thermos-root-devel-WordCountTopology-2-dfe6e16c-ddba-43f2-8325-9b41043bccef;["container_2_Emit_random_words_2"];3.25;1533338727.53205;87.52;1081.73;4.381649494;10;149
44;paravance-20.rennes.grid5000.fr;thermos-root-devel-WordCountTopology-0-526a82c2-651f-490e-91e0-0aa2d7a158d3;["topology_master"];3.25;1533338727.54335;5.66;12.92;0.0;9;117
45;paravance-29.rennes.grid5000.fr;thermos-root-devel-WordCountTopology-1-09c60ce1-0a95-4d21-bed8-0b4447f16db5;["container_1_Consume_and_count_1"];3.25;1533338737.68734;139.74;895.09;2.495182564;10;149
45;paravance-20.rennes.grid5000.fr;thermos-root-devel-WordCountTopology-0-526a82c2-651f-490e-91e0-0aa2d7a158d3;["topology_master"];3.25;1533338737.75898;5.71;12.99;0.0;9;117
45;paravance-16.rennes.grid5000.fr;thermos-root-devel-WordCountTopology-2-dfe6e16c-ddba-43f2-8325-9b41043bccef;["container_2_Emit_random_words_2"];3.25;1533338737.74863;89.02;1100.76;4.381649494;10;149
46;paravance-16.rennes.grid5000.fr;thermos-root-devel-WordCountTopology-2-dfe6e16c-ddba-43f2-8325-9b41043bccef;["container_2_Emit_random_words_2"];3.25;1533338747.96422;90.53;1119.86;4.381649494;10;149
46;paravance-29.rennes.grid5000.fr;thermos-root-devel-WordCountTopology-1-09c60ce1-0a95-4d21-bed8-0b4447f16db5;["container_1_Consume_and_count_1"];3.25;1533338747.90646;141.97;910.45;2.495182564;10;149
46;paravance-20.rennes.grid5000.fr;thermos-root-devel-WordCountTopology-0-526a82c2-651f-490e-91e0-0aa2d7a158d3;["topology_master"];3.25;1533338747.97591;5.78;13.08;0.0;9;117
47;paravance-29.rennes.grid5000.fr;thermos-root-devel-WordCountTopology-1-09c60ce1-0a95-4d21-bed8-0b4447f16db5;["container_1_Consume_and_count_1"];3.25;1533338758.12141;144.23;925.74;2.495182564;10;149
47;paravance-16.rennes.grid5000.fr;thermos-root-devel-WordCountTopology-2-dfe6e16c-ddba-43f2-8325-9b41043bccef;["container_2_Emit_random_words_2"];3.25;1533338758.18062;92.04;1138.78;4.381649494;10;149
47;paravance-20.rennes.grid5000.fr;thermos-root-devel-WordCountTopology-0-526a82c2-651f-490e-91e0-0aa2d7a158d3;["topology_master"];3.25;1533338758.1925;5.85;13.22;0.0;9;117
48;paravance-29.rennes.grid5000.fr;thermos-root-devel-WordCountTopology-1-09c60ce1-0a95-4d21-bed8-0b4447f16db5;["container_1_Consume_and_count_1"];3.25;1533338768.33615;146.49;941.06;2.495182564;10;149
48;paravance-16.rennes.grid5000.fr;thermos-root-devel-WordCountTopology-2-dfe6e16c-ddba-43f2-8325-9b41043bccef;["container_2_Emit_random_words_2"];3.25;1533338768.39572;93.55;1157.6;4.381649494;10;149
48;paravance-20.rennes.grid5000.fr;thermos-root-devel-WordCountTopology-0-526a82c2-651f-490e-91e0-0aa2d7a158d3;["topology_master"];3.25;1533338768.40676;5.93;13.34;0.0;9;117
49;paravance-16.rennes.grid5000.fr;thermos-root-devel-WordCountTopology-2-dfe6e16c-ddba-43f2-8325-9b41043bccef;["container_2_Emit_random_words_2"];3.25;1533338778.61054;95.03;1176.44;4.381649494;10;149
49;paravance-29.rennes.grid5000.fr;thermos-root-devel-WordCountTopology-1-09c60ce1-0a95-4d21-bed8-0b4447f16db5;["container_1_Consume_and_count_1"];3.25;1533338778.55147;148.69;956.3;2.495182564;10;149
49;paravance-20.rennes.grid5000.fr;thermos-root-devel-WordCountTopology-0-526a82c2-651f-490e-91e0-0aa2d7a158d3;["topology_master"];3.25;1533338778.62307;5.96;13.37;0.0;9;117
50;paravance-20.rennes.grid5000.fr;thermos-root-devel-WordCountTopology-0-526a82c2-651f-490e-91e0-0aa2d7a158d3;["topology_master"];3.25;1533338788.83799;6.06;13.49;0.0;9;117
50;paravance-16.rennes.grid5000.fr;thermos-root-devel-WordCountTopology-2-dfe6e16c-ddba-43f2-8325-9b41043bccef;["container_2_Emit_random_words_2"];3.25;1533338788.82722;96.53;1195.61;4.381649494;10;149
50;paravance-29.rennes.grid5000.fr;thermos-root-devel-WordCountTopology-1-09c60ce1-0a95-4d21-bed8-0b4447f16db5;["container_1_Consume_and_count_1"];3.25;1533338788.76795;150.98;971.84;2.495182564;10;149
51;paravance-29.rennes.grid5000.fr;thermos-root-devel-WordCountTopology-1-09c60ce1-0a95-4d21-bed8-0b4447f16db5;["container_1_Consume_and_count_1"];3.25;1533338798.98421;153.21;987.57;2.495182564;10;149
51;paravance-16.rennes.grid5000.fr;thermos-root-devel-WordCountTopology-2-dfe6e16c-ddba-43f2-8325-9b41043bccef;["container_2_Emit_random_words_2"];3.25;1533338799.0434;98.04;1214.49;4.381649494;10;149
51;paravance-20.rennes.grid5000.fr;thermos-root-devel-WordCountTopology-0-526a82c2-651f-490e-91e0-0aa2d7a158d3;["topology_master"];3.25;1533338799.05527;6.11;13.57;0.0;9;117
52;paravance-16.rennes.grid5000.fr;thermos-root-devel-WordCountTopology-2-dfe6e16c-ddba-43f2-8325-9b41043bccef;["container_2_Emit_random_words_2"];3.25;1533338809.25734;99.55;1233.51;4.381649494;10;149
52;paravance-29.rennes.grid5000.fr;thermos-root-devel-WordCountTopology-1-09c60ce1-0a95-4d21-bed8-0b4447f16db5;["container_1_Consume_and_count_1"];3.25;1533338809.1998;155.47;1003.22;2.495182564;10;149
52;paravance-20.rennes.grid5000.fr;thermos-root-devel-WordCountTopology-0-526a82c2-651f-490e-91e0-0aa2d7a158d3;["topology_master"];3.25;1533338809.2707;6.18;13.66;0.0;9;117
53;paravance-29.rennes.grid5000.fr;thermos-root-devel-WordCountTopology-1-09c60ce1-0a95-4d21-bed8-0b4447f16db5;["container_1_Consume_and_count_1"];3.25;1533338819.41437;157.79;1018.78;2.495182564;10;149
53;paravance-20.rennes.grid5000.fr;thermos-root-devel-WordCountTopology-0-526a82c2-651f-490e-91e0-0aa2d7a158d3;["topology_master"];3.25;1533338819.48554;6.25;13.77;0.0;9;117
53;paravance-16.rennes.grid5000.fr;thermos-root-devel-WordCountTopology-2-dfe6e16c-ddba-43f2-8325-9b41043bccef;["container_2_Emit_random_words_2"];3.25;1533338819.47414;101.05;1252.62;4.381649494;10;149
54;paravance-16.rennes.grid5000.fr;thermos-root-devel-WordCountTopology-2-dfe6e16c-ddba-43f2-8325-9b41043bccef;["container_2_Emit_random_words_2"];3.25;1533338829.6899;102.58;1271.51;4.381649494;10;149
54;paravance-29.rennes.grid5000.fr;thermos-root-devel-WordCountTopology-1-09c60ce1-0a95-4d21-bed8-0b4447f16db5;["container_1_Consume_and_count_1"];3.25;1533338829.63128;160.01;1034.3;2.495182564;10;149
54;paravance-20.rennes.grid5000.fr;thermos-root-devel-WordCountTopology-0-526a82c2-651f-490e-91e0-0aa2d7a158d3;["topology_master"];3.25;1533338829.70272;6.34;13.9;0.0;9;117
55;paravance-20.rennes.grid5000.fr;thermos-root-devel-WordCountTopology-0-526a82c2-651f-490e-91e0-0aa2d7a158d3;["topology_master"];3.25;1533338839.91741;6.36;13.92;0.0;9;117
55;paravance-16.rennes.grid5000.fr;thermos-root-devel-WordCountTopology-2-dfe6e16c-ddba-43f2-8325-9b41043bccef;["container_2_Emit_random_words_2"];3.25;1533338839.90641;104.05;1290.52;4.381649494;10;149
55;paravance-29.rennes.grid5000.fr;thermos-root-devel-WordCountTopology-1-09c60ce1-0a95-4d21-bed8-0b4447f16db5;["container_1_Consume_and_count_1"];3.25;1533338839.84885;162.23;1050.33;2.495182564;10;149
56;paravance-29.rennes.grid5000.fr;thermos-root-devel-WordCountTopology-1-09c60ce1-0a95-4d21-bed8-0b4447f16db5;["container_1_Consume_and_count_1"];3.25;1533338850.06321;164.49;1066.33;2.495182564;10;149
56;paravance-16.rennes.grid5000.fr;thermos-root-devel-WordCountTopology-2-dfe6e16c-ddba-43f2-8325-9b41043bccef;["container_2_Emit_random_words_2"];3.25;1533338850.12255;105.6;1309.46;4.381649494;10;149
56;paravance-20.rennes.grid5000.fr;thermos-root-devel-WordCountTopology-0-526a82c2-651f-490e-91e0-0aa2d7a158d3;["topology_master"];3.25;1533338850.13498;6.44;14.03;0.0;9;117
57;paravance-16.rennes.grid5000.fr;thermos-root-devel-WordCountTopology-2-dfe6e16c-ddba-43f2-8325-9b41043bccef;["container_2_Emit_random_words_2"];3.25;1533338860.33566;107.12;1328.35;4.381649494;10;149
57;paravance-20.rennes.grid5000.fr;thermos-root-devel-WordCountTopology-0-526a82c2-651f-490e-91e0-0aa2d7a158d3;["topology_master"];3.25;1533338860.3485;6.5;14.11;0.0;9;117
57;paravance-29.rennes.grid5000.fr;thermos-root-devel-WordCountTopology-1-09c60ce1-0a95-4d21-bed8-0b4447f16db5;["container_1_Consume_and_count_1"];3.25;1533338860.27883;166.66;1081.88;2.495182564;10;149
58;paravance-29.rennes.grid5000.fr;thermos-root-devel-WordCountTopology-1-09c60ce1-0a95-4d21-bed8-0b4447f16db5;["container_1_Consume_and_count_1"];3.25;1533338870.49357;168.84;1097.58;2.495182564;10;149
58;paravance-20.rennes.grid5000.fr;thermos-root-devel-WordCountTopology-0-526a82c2-651f-490e-91e0-0aa2d7a158d3;["topology_master"];3.25;1533338870.56456;6.57;14.23;0.0;9;117
58;paravance-16.rennes.grid5000.fr;thermos-root-devel-WordCountTopology-2-dfe6e16c-ddba-43f2-8325-9b41043bccef;["container_2_Emit_random_words_2"];3.25;1533338870.55385;108.66;1347.25;4.381649494;10;149
59;paravance-29.rennes.grid5000.fr;thermos-root-devel-WordCountTopology-1-09c60ce1-0a95-4d21-bed8-0b4447f16db5;["container_1_Consume_and_count_1"];3.25;1533338880.70778;170.86;1113.18;2.495182564;10;149
59;paravance-20.rennes.grid5000.fr;thermos-root-devel-WordCountTopology-0-526a82c2-651f-490e-91e0-0aa2d7a158d3;["topology_master"];3.25;1533338880.78005;6.63;14.3;0.0;9;117
59;paravance-16.rennes.grid5000.fr;thermos-root-devel-WordCountTopology-2-dfe6e16c-ddba-43f2-8325-9b41043bccef;["container_2_Emit_random_words_2"];3.25;1533338880.76831;110.19;1366.03;4.381649494;10;149
60;paravance-29.rennes.grid5000.fr;thermos-root-devel-WordCountTopology-1-09c60ce1-0a95-4d21-bed8-0b4447f16db5;["container_1_Consume_and_count_1"];3.25;1533338890.92492;173.02;1128.89;2.495182564;10;149
60;paravance-20.rennes.grid5000.fr;thermos-root-devel-WordCountTopology-0-526a82c2-651f-490e-91e0-0aa2d7a158d3;["topology_master"];3.25;1533338890.99665;6.72;14.43;0.0;9;117
60;paravance-16.rennes.grid5000.fr;thermos-root-devel-WordCountTopology-2-dfe6e16c-ddba-43f2-8325-9b41043bccef;["container_2_Emit_random_words_2"];3.25;1533338890.98563;111.75;1384.86;4.381649494;10;149
