mesure_id;slave_id;executor_id;heron_instances;cpus_limit;timestamp_A;cpus_system_time_secs_A;cpus_user_time_secs_A;cpus_throttled_time_secs_A;processes;threads
0;paravance-7.rennes.grid5000.fr;thermos-root-devel-WordCountTopology-1-13f47648-c139-4ddc-a968-9229606f9278;["container_1_Consume_and_count_1"];5.25;1532983301.50425;52.62;302.93;0.174624092;10;149
0;paravance-9.rennes.grid5000.fr;thermos-root-devel-WordCountTopology-2-e14b9ed8-3d8b-45db-82ea-4085fdafa4a1;["container_2_Emit_random_words_2"];5.25;1532983301.65595;42.3;181.23;0.778463024;10;149
0;paravance-8.rennes.grid5000.fr;thermos-root-devel-WordCountTopology-0-ae31f827-68ff-4845-a1a2-042f6ab66222;["topology_master"];5.25;1532983301.46514;2.52;8.21;0.0;9;117
1;paravance-7.rennes.grid5000.fr;thermos-root-devel-WordCountTopology-1-13f47648-c139-4ddc-a968-9229606f9278;["container_1_Consume_and_count_1"];5.25;1532983311.72404;57.07;329.57;0.174624092;10;149
1;paravance-8.rennes.grid5000.fr;thermos-root-devel-WordCountTopology-0-ae31f827-68ff-4845-a1a2-042f6ab66222;["topology_master"];5.25;1532983311.68779;2.58;8.36;0.0;9;117
1;paravance-9.rennes.grid5000.fr;thermos-root-devel-WordCountTopology-2-e14b9ed8-3d8b-45db-82ea-4085fdafa4a1;["container_2_Emit_random_words_2"];5.25;1532983311.87095;45.78;195.95;0.778463024;10;149
2;paravance-7.rennes.grid5000.fr;thermos-root-devel-WordCountTopology-1-13f47648-c139-4ddc-a968-9229606f9278;["container_1_Consume_and_count_1"];5.25;1532983321.94294;61.26;356.69;0.174624092;10;149
2;paravance-9.rennes.grid5000.fr;thermos-root-devel-WordCountTopology-2-e14b9ed8-3d8b-45db-82ea-4085fdafa4a1;["container_2_Emit_random_words_2"];5.25;1532983322.08745;49.4;210.67;0.778463024;10;149
2;paravance-8.rennes.grid5000.fr;thermos-root-devel-WordCountTopology-0-ae31f827-68ff-4845-a1a2-042f6ab66222;["topology_master"];5.25;1532983321.91112;2.67;8.49;0.0;9;117
3;paravance-7.rennes.grid5000.fr;thermos-root-devel-WordCountTopology-1-13f47648-c139-4ddc-a968-9229606f9278;["container_1_Consume_and_count_1"];5.25;1532983332.17515;65.83;384.02;0.174624092;10;149
3;paravance-9.rennes.grid5000.fr;thermos-root-devel-WordCountTopology-2-e14b9ed8-3d8b-45db-82ea-4085fdafa4a1;["container_2_Emit_random_words_2"];5.25;1532983332.30969;52.83;225.55;0.778463024;10;149
3;paravance-8.rennes.grid5000.fr;thermos-root-devel-WordCountTopology-0-ae31f827-68ff-4845-a1a2-042f6ab66222;["topology_master"];5.25;1532983332.14957;2.7;8.53;0.0;9;117
4;paravance-7.rennes.grid5000.fr;thermos-root-devel-WordCountTopology-1-13f47648-c139-4ddc-a968-9229606f9278;["container_1_Consume_and_count_1"];5.25;1532983342.3941;70.2;411.52;0.174624092;10;149
4;paravance-9.rennes.grid5000.fr;thermos-root-devel-WordCountTopology-2-e14b9ed8-3d8b-45db-82ea-4085fdafa4a1;["container_2_Emit_random_words_2"];5.25;1532983342.52419;56.32;239.73;0.778463024;10;149
4;paravance-8.rennes.grid5000.fr;thermos-root-devel-WordCountTopology-0-ae31f827-68ff-4845-a1a2-042f6ab66222;["topology_master"];5.25;1532983342.37332;2.78;8.65;0.0;9;117
5;paravance-7.rennes.grid5000.fr;thermos-root-devel-WordCountTopology-1-13f47648-c139-4ddc-a968-9229606f9278;["container_1_Consume_and_count_1"];5.25;1532983352.61051;74.82;438.65;0.174624092;10;149
5;paravance-8.rennes.grid5000.fr;thermos-root-devel-WordCountTopology-0-ae31f827-68ff-4845-a1a2-042f6ab66222;["topology_master"];5.25;1532983352.59643;2.84;8.72;0.0;9;117
5;paravance-9.rennes.grid5000.fr;thermos-root-devel-WordCountTopology-2-e14b9ed8-3d8b-45db-82ea-4085fdafa4a1;["container_2_Emit_random_words_2"];5.25;1532983352.73747;59.86;254.12;0.778463024;10;149
6;paravance-7.rennes.grid5000.fr;thermos-root-devel-WordCountTopology-1-13f47648-c139-4ddc-a968-9229606f9278;["container_1_Consume_and_count_1"];5.25;1532983362.83089;79.34;466.44;0.174624092;10;149
6;paravance-9.rennes.grid5000.fr;thermos-root-devel-WordCountTopology-2-e14b9ed8-3d8b-45db-82ea-4085fdafa4a1;["container_2_Emit_random_words_2"];5.25;1532983362.9504;63.41;268.54;0.778463024;10;149
6;paravance-8.rennes.grid5000.fr;thermos-root-devel-WordCountTopology-0-ae31f827-68ff-4845-a1a2-042f6ab66222;["topology_master"];5.25;1532983362.82038;2.92;8.84;0.0;9;117
7;paravance-7.rennes.grid5000.fr;thermos-root-devel-WordCountTopology-1-13f47648-c139-4ddc-a968-9229606f9278;["container_1_Consume_and_count_1"];5.25;1532983373.05063;83.59;492.84;0.174624092;10;149
7;paravance-9.rennes.grid5000.fr;thermos-root-devel-WordCountTopology-2-e14b9ed8-3d8b-45db-82ea-4085fdafa4a1;["container_2_Emit_random_words_2"];5.25;1532983373.16453;66.71;282.12;0.778463024;10;149
7;paravance-8.rennes.grid5000.fr;thermos-root-devel-WordCountTopology-0-ae31f827-68ff-4845-a1a2-042f6ab66222;["topology_master"];5.25;1532983373.04326;2.99;8.99;0.0;9;117
8;paravance-7.rennes.grid5000.fr;thermos-root-devel-WordCountTopology-1-13f47648-c139-4ddc-a968-9229606f9278;["container_1_Consume_and_count_1"];5.25;1532983383.28289;87.87;519.64;0.174624092;10;149
8;paravance-9.rennes.grid5000.fr;thermos-root-devel-WordCountTopology-2-e14b9ed8-3d8b-45db-82ea-4085fdafa4a1;["container_2_Emit_random_words_2"];5.25;1532983383.39175;69.96;296.25;0.778463024;10;149
8;paravance-8.rennes.grid5000.fr;thermos-root-devel-WordCountTopology-0-ae31f827-68ff-4845-a1a2-042f6ab66222;["topology_master"];5.25;1532983383.28145;3.08;9.12;0.0;9;117
9;paravance-7.rennes.grid5000.fr;thermos-root-devel-WordCountTopology-1-13f47648-c139-4ddc-a968-9229606f9278;["container_1_Consume_and_count_1"];5.25;1532983393.50297;92.08;546.06;0.174624092;10;149
9;paravance-8.rennes.grid5000.fr;thermos-root-devel-WordCountTopology-0-ae31f827-68ff-4845-a1a2-042f6ab66222;["topology_master"];5.25;1532983393.50615;3.1;9.15;0.0;9;117
9;paravance-9.rennes.grid5000.fr;thermos-root-devel-WordCountTopology-2-e14b9ed8-3d8b-45db-82ea-4085fdafa4a1;["container_2_Emit_random_words_2"];5.25;1532983393.60668;73.33;310.16;0.778463024;10;149
10;paravance-7.rennes.grid5000.fr;thermos-root-devel-WordCountTopology-1-13f47648-c139-4ddc-a968-9229606f9278;["container_1_Consume_and_count_1"];5.25;1532983403.71918;96.48;572.67;0.174624092;10;149
10;paravance-9.rennes.grid5000.fr;thermos-root-devel-WordCountTopology-2-e14b9ed8-3d8b-45db-82ea-4085fdafa4a1;["container_2_Emit_random_words_2"];5.25;1532983403.81831;76.72;324.85;0.778463024;10;149
10;paravance-8.rennes.grid5000.fr;thermos-root-devel-WordCountTopology-0-ae31f827-68ff-4845-a1a2-042f6ab66222;["topology_master"];5.25;1532983403.73047;3.2;9.28;0.0;9;117
11;paravance-8.rennes.grid5000.fr;thermos-root-devel-WordCountTopology-0-ae31f827-68ff-4845-a1a2-042f6ab66222;["topology_master"];5.25;1532983413.95286;3.26;9.4;0.0;9;117
11;paravance-7.rennes.grid5000.fr;thermos-root-devel-WordCountTopology-1-13f47648-c139-4ddc-a968-9229606f9278;["container_1_Consume_and_count_1"];5.25;1532983413.93902;101.1;600.8;0.174624092;10;149
11;paravance-9.rennes.grid5000.fr;thermos-root-devel-WordCountTopology-2-e14b9ed8-3d8b-45db-82ea-4085fdafa4a1;["container_2_Emit_random_words_2"];5.25;1532983414.03323;80.4;340.14;0.778463024;10;149
12;paravance-7.rennes.grid5000.fr;thermos-root-devel-WordCountTopology-1-13f47648-c139-4ddc-a968-9229606f9278;["container_1_Consume_and_count_1"];5.25;1532983424.15762;105.75;628.61;0.174624092;10;149
12;paravance-9.rennes.grid5000.fr;thermos-root-devel-WordCountTopology-2-e14b9ed8-3d8b-45db-82ea-4085fdafa4a1;["container_2_Emit_random_words_2"];5.25;1532983424.24668;84.09;355.12;0.778463024;10;149
12;paravance-8.rennes.grid5000.fr;thermos-root-devel-WordCountTopology-0-ae31f827-68ff-4845-a1a2-042f6ab66222;["topology_master"];5.25;1532983424.17928;3.39;9.63;0.0;9;117
13;paravance-7.rennes.grid5000.fr;thermos-root-devel-WordCountTopology-1-13f47648-c139-4ddc-a968-9229606f9278;["container_1_Consume_and_count_1"];5.25;1532983434.37689;110.33;656.66;0.174624092;10;149
13;paravance-9.rennes.grid5000.fr;thermos-root-devel-WordCountTopology-2-e14b9ed8-3d8b-45db-82ea-4085fdafa4a1;["container_2_Emit_random_words_2"];5.25;1532983434.45863;87.68;370.11;0.778463024;10;149
13;paravance-8.rennes.grid5000.fr;thermos-root-devel-WordCountTopology-0-ae31f827-68ff-4845-a1a2-042f6ab66222;["topology_master"];5.25;1532983434.40142;3.41;9.65;0.0;9;117
14;paravance-7.rennes.grid5000.fr;thermos-root-devel-WordCountTopology-1-13f47648-c139-4ddc-a968-9229606f9278;["container_1_Consume_and_count_1"];5.25;1532983444.59352;114.83;684.31;0.174624092;10;149
14;paravance-8.rennes.grid5000.fr;thermos-root-devel-WordCountTopology-0-ae31f827-68ff-4845-a1a2-042f6ab66222;["topology_master"];5.25;1532983444.62427;3.51;9.79;0.0;9;117
14;paravance-9.rennes.grid5000.fr;thermos-root-devel-WordCountTopology-2-e14b9ed8-3d8b-45db-82ea-4085fdafa4a1;["container_2_Emit_random_words_2"];5.25;1532983444.67349;91.08;384.24;0.778463024;10;149
15;paravance-8.rennes.grid5000.fr;thermos-root-devel-WordCountTopology-0-ae31f827-68ff-4845-a1a2-042f6ab66222;["topology_master"];5.25;1532983454.84778;3.56;9.86;0.0;9;117
15;paravance-7.rennes.grid5000.fr;thermos-root-devel-WordCountTopology-1-13f47648-c139-4ddc-a968-9229606f9278;["container_1_Consume_and_count_1"];5.25;1532983454.81387;119.63;712.54;0.174624092;10;149
15;paravance-9.rennes.grid5000.fr;thermos-root-devel-WordCountTopology-2-e14b9ed8-3d8b-45db-82ea-4085fdafa4a1;["container_2_Emit_random_words_2"];5.25;1532983454.88877;94.72;399.44;0.778463024;10;149
16;paravance-8.rennes.grid5000.fr;thermos-root-devel-WordCountTopology-0-ae31f827-68ff-4845-a1a2-042f6ab66222;["topology_master"];5.25;1532983465.06839;3.62;9.94;0.0;9;117
16;paravance-7.rennes.grid5000.fr;thermos-root-devel-WordCountTopology-1-13f47648-c139-4ddc-a968-9229606f9278;["container_1_Consume_and_count_1"];5.25;1532983465.03343;123.78;738.68;0.174624092;10;149
16;paravance-9.rennes.grid5000.fr;thermos-root-devel-WordCountTopology-2-e14b9ed8-3d8b-45db-82ea-4085fdafa4a1;["container_2_Emit_random_words_2"];5.25;1532983465.10151;97.94;413.01;0.778463024;10;149
17;paravance-9.rennes.grid5000.fr;thermos-root-devel-WordCountTopology-2-e14b9ed8-3d8b-45db-82ea-4085fdafa4a1;["container_2_Emit_random_words_2"];5.25;1532983475.31427;101.38;427.28;0.778463024;10;149
17;paravance-8.rennes.grid5000.fr;thermos-root-devel-WordCountTopology-0-ae31f827-68ff-4845-a1a2-042f6ab66222;["topology_master"];5.25;1532983475.28892;3.67;10.01;0.0;9;117
17;paravance-7.rennes.grid5000.fr;thermos-root-devel-WordCountTopology-1-13f47648-c139-4ddc-a968-9229606f9278;["container_1_Consume_and_count_1"];5.25;1532983475.25452;128.09;765.62;0.174624092;10;149
18;paravance-7.rennes.grid5000.fr;thermos-root-devel-WordCountTopology-1-13f47648-c139-4ddc-a968-9229606f9278;["container_1_Consume_and_count_1"];5.25;1532983485.46985;132.59;793.48;0.174624092;10;149
18;paravance-8.rennes.grid5000.fr;thermos-root-devel-WordCountTopology-0-ae31f827-68ff-4845-a1a2-042f6ab66222;["topology_master"];5.25;1532983485.50811;3.8;10.22;0.0;9;117
18;paravance-9.rennes.grid5000.fr;thermos-root-devel-WordCountTopology-2-e14b9ed8-3d8b-45db-82ea-4085fdafa4a1;["container_2_Emit_random_words_2"];5.25;1532983485.52964;104.98;442.17;0.778463024;10;149
19;paravance-9.rennes.grid5000.fr;thermos-root-devel-WordCountTopology-2-e14b9ed8-3d8b-45db-82ea-4085fdafa4a1;["container_2_Emit_random_words_2"];5.25;1532983495.7426;108.37;456.31;0.778463024;10;149
19;paravance-8.rennes.grid5000.fr;thermos-root-devel-WordCountTopology-0-ae31f827-68ff-4845-a1a2-042f6ab66222;["topology_master"];5.25;1532983495.72527;3.83;10.25;0.0;9;117
19;paravance-7.rennes.grid5000.fr;thermos-root-devel-WordCountTopology-1-13f47648-c139-4ddc-a968-9229606f9278;["container_1_Consume_and_count_1"];5.25;1532983495.68956;137.0;820.79;0.174624092;10;149
20;paravance-7.rennes.grid5000.fr;thermos-root-devel-WordCountTopology-1-13f47648-c139-4ddc-a968-9229606f9278;["container_1_Consume_and_count_1"];5.25;1532983505.80946;141.44;847.58;0.174624092;10;149
20;paravance-9.rennes.grid5000.fr;thermos-root-devel-WordCountTopology-2-e14b9ed8-3d8b-45db-82ea-4085fdafa4a1;["container_2_Emit_random_words_2"];5.25;1532983505.95687;111.87;470.8;0.778463024;10;149
20;paravance-8.rennes.grid5000.fr;thermos-root-devel-WordCountTopology-0-ae31f827-68ff-4845-a1a2-042f6ab66222;["topology_master"];5.25;1532983505.94569;3.91;10.38;0.0;9;117
21;paravance-8.rennes.grid5000.fr;thermos-root-devel-WordCountTopology-0-ae31f827-68ff-4845-a1a2-042f6ab66222;["topology_master"];5.25;1532983516.16379;3.97;10.45;0.0;9;117
21;paravance-7.rennes.grid5000.fr;thermos-root-devel-WordCountTopology-1-13f47648-c139-4ddc-a968-9229606f9278;["container_1_Consume_and_count_1"];5.25;1532983516.12665;145.81;874.46;0.174624092;10;149
21;paravance-9.rennes.grid5000.fr;thermos-root-devel-WordCountTopology-2-e14b9ed8-3d8b-45db-82ea-4085fdafa4a1;["container_2_Emit_random_words_2"];5.25;1532983516.17026;115.26;484.67;0.778463024;10;149
22;paravance-7.rennes.grid5000.fr;thermos-root-devel-WordCountTopology-1-13f47648-c139-4ddc-a968-9229606f9278;["container_1_Consume_and_count_1"];5.25;1532983526.34827;149.85;899.47;0.174624092;10;149
22;paravance-8.rennes.grid5000.fr;thermos-root-devel-WordCountTopology-0-ae31f827-68ff-4845-a1a2-042f6ab66222;["topology_master"];5.25;1532983526.38379;4.02;10.52;0.0;9;117
22;paravance-9.rennes.grid5000.fr;thermos-root-devel-WordCountTopology-2-e14b9ed8-3d8b-45db-82ea-4085fdafa4a1;["container_2_Emit_random_words_2"];5.25;1532983526.38578;118.43;497.6;0.778463024;10;149
23;paravance-7.rennes.grid5000.fr;thermos-root-devel-WordCountTopology-1-13f47648-c139-4ddc-a968-9229606f9278;["container_1_Consume_and_count_1"];5.25;1532983536.56394;153.96;925.71;0.174624092;10;149
23;paravance-9.rennes.grid5000.fr;thermos-root-devel-WordCountTopology-2-e14b9ed8-3d8b-45db-82ea-4085fdafa4a1;["container_2_Emit_random_words_2"];5.25;1532983536.59924;121.76;511.3;0.778463024;10;149
23;paravance-8.rennes.grid5000.fr;thermos-root-devel-WordCountTopology-0-ae31f827-68ff-4845-a1a2-042f6ab66222;["topology_master"];5.25;1532983536.60342;4.08;10.59;0.0;9;117
24;paravance-9.rennes.grid5000.fr;thermos-root-devel-WordCountTopology-2-e14b9ed8-3d8b-45db-82ea-4085fdafa4a1;["container_2_Emit_random_words_2"];5.25;1532983546.81134;125.16;524.92;0.778463024;10;149
24;paravance-8.rennes.grid5000.fr;thermos-root-devel-WordCountTopology-0-ae31f827-68ff-4845-a1a2-042f6ab66222;["topology_master"];5.25;1532983546.82056;4.19;10.78;0.0;9;117
24;paravance-7.rennes.grid5000.fr;thermos-root-devel-WordCountTopology-1-13f47648-c139-4ddc-a968-9229606f9278;["container_1_Consume_and_count_1"];5.25;1532983546.78384;158.11;952.62;0.174624092;10;149
25;paravance-7.rennes.grid5000.fr;thermos-root-devel-WordCountTopology-1-13f47648-c139-4ddc-a968-9229606f9278;["container_1_Consume_and_count_1"];5.25;1532983557.00245;162.42;979.21;0.174624092;10;149
25;paravance-9.rennes.grid5000.fr;thermos-root-devel-WordCountTopology-2-e14b9ed8-3d8b-45db-82ea-4085fdafa4a1;["container_2_Emit_random_words_2"];5.25;1532983557.02584;128.49;539.11;0.778463024;10;149
25;paravance-8.rennes.grid5000.fr;thermos-root-devel-WordCountTopology-0-ae31f827-68ff-4845-a1a2-042f6ab66222;["topology_master"];5.25;1532983557.03992;4.22;10.8;0.0;9;117
26;paravance-8.rennes.grid5000.fr;thermos-root-devel-WordCountTopology-0-ae31f827-68ff-4845-a1a2-042f6ab66222;["topology_master"];5.25;1532983567.25757;4.31;10.93;0.0;9;117
26;paravance-7.rennes.grid5000.fr;thermos-root-devel-WordCountTopology-1-13f47648-c139-4ddc-a968-9229606f9278;["container_1_Consume_and_count_1"];5.25;1532983567.22143;166.88;1006.26;0.174624092;10;149
26;paravance-9.rennes.grid5000.fr;thermos-root-devel-WordCountTopology-2-e14b9ed8-3d8b-45db-82ea-4085fdafa4a1;["container_2_Emit_random_words_2"];5.25;1532983567.23935;131.93;552.83;0.778463024;10;149
27;paravance-7.rennes.grid5000.fr;thermos-root-devel-WordCountTopology-1-13f47648-c139-4ddc-a968-9229606f9278;["container_1_Consume_and_count_1"];5.25;1532983577.4393;171.07;1031.75;0.174624092;10;149
27;paravance-8.rennes.grid5000.fr;thermos-root-devel-WordCountTopology-0-ae31f827-68ff-4845-a1a2-042f6ab66222;["topology_master"];5.25;1532983577.47582;4.37;11.0;0.0;9;117
27;paravance-9.rennes.grid5000.fr;thermos-root-devel-WordCountTopology-2-e14b9ed8-3d8b-45db-82ea-4085fdafa4a1;["container_2_Emit_random_words_2"];5.25;1532983577.45336;135.2;566.43;0.778463024;10;149
28;paravance-7.rennes.grid5000.fr;thermos-root-devel-WordCountTopology-1-13f47648-c139-4ddc-a968-9229606f9278;["container_1_Consume_and_count_1"];5.25;1532983587.6575;175.42;1059.07;0.174624092;10;149
28;paravance-8.rennes.grid5000.fr;thermos-root-devel-WordCountTopology-0-ae31f827-68ff-4845-a1a2-042f6ab66222;["topology_master"];5.25;1532983587.69531;4.43;11.08;0.0;9;117
28;paravance-9.rennes.grid5000.fr;thermos-root-devel-WordCountTopology-2-e14b9ed8-3d8b-45db-82ea-4085fdafa4a1;["container_2_Emit_random_words_2"];5.25;1532983587.66734;138.61;580.61;0.778463024;10;149
29;paravance-7.rennes.grid5000.fr;thermos-root-devel-WordCountTopology-1-13f47648-c139-4ddc-a968-9229606f9278;["container_1_Consume_and_count_1"];5.25;1532983597.87647;179.46;1085.82;0.174624092;10;150
29;paravance-8.rennes.grid5000.fr;thermos-root-devel-WordCountTopology-0-ae31f827-68ff-4845-a1a2-042f6ab66222;["topology_master"];5.25;1532983597.91345;4.53;11.22;0.0;9;117
29;paravance-9.rennes.grid5000.fr;thermos-root-devel-WordCountTopology-2-e14b9ed8-3d8b-45db-82ea-4085fdafa4a1;["container_2_Emit_random_words_2"];5.25;1532983597.87951;141.81;593.69;0.778463024;10;149
30;paravance-9.rennes.grid5000.fr;thermos-root-devel-WordCountTopology-2-e14b9ed8-3d8b-45db-82ea-4085fdafa4a1;["container_2_Emit_random_words_2"];5.25;1532983608.09426;145.26;607.65;0.778463024;10;149
30;paravance-7.rennes.grid5000.fr;thermos-root-devel-WordCountTopology-1-13f47648-c139-4ddc-a968-9229606f9278;["container_1_Consume_and_count_1"];5.25;1532983608.09619;183.89;1112.51;0.174624092;10;149
30;paravance-8.rennes.grid5000.fr;thermos-root-devel-WordCountTopology-0-ae31f827-68ff-4845-a1a2-042f6ab66222;["topology_master"];5.25;1532983608.13414;4.59;11.33;0.0;9;117
31;paravance-9.rennes.grid5000.fr;thermos-root-devel-WordCountTopology-2-e14b9ed8-3d8b-45db-82ea-4085fdafa4a1;["container_2_Emit_random_words_2"];5.25;1532983618.30674;148.53;621.11;0.778463024;10;149
31;paravance-8.rennes.grid5000.fr;thermos-root-devel-WordCountTopology-0-ae31f827-68ff-4845-a1a2-042f6ab66222;["topology_master"];5.25;1532983618.35167;4.65;11.41;0.0;9;117
31;paravance-7.rennes.grid5000.fr;thermos-root-devel-WordCountTopology-1-13f47648-c139-4ddc-a968-9229606f9278;["container_1_Consume_and_count_1"];5.25;1532983618.3144;188.04;1137.84;0.174624092;10;149
32;paravance-7.rennes.grid5000.fr;thermos-root-devel-WordCountTopology-1-13f47648-c139-4ddc-a968-9229606f9278;["container_1_Consume_and_count_1"];5.25;1532983628.53342;192.59;1165.07;0.174624092;10;149
32;paravance-8.rennes.grid5000.fr;thermos-root-devel-WordCountTopology-0-ae31f827-68ff-4845-a1a2-042f6ab66222;["topology_master"];5.25;1532983628.56965;4.7;11.48;0.0;9;117
32;paravance-9.rennes.grid5000.fr;thermos-root-devel-WordCountTopology-2-e14b9ed8-3d8b-45db-82ea-4085fdafa4a1;["container_2_Emit_random_words_2"];5.25;1532983628.51935;152.1;635.69;0.778463024;10;149
33;paravance-7.rennes.grid5000.fr;thermos-root-devel-WordCountTopology-1-13f47648-c139-4ddc-a968-9229606f9278;["container_1_Consume_and_count_1"];5.25;1532983638.75148;197.1;1192.67;0.174624092;10;149
33;paravance-9.rennes.grid5000.fr;thermos-root-devel-WordCountTopology-2-e14b9ed8-3d8b-45db-82ea-4085fdafa4a1;["container_2_Emit_random_words_2"];5.25;1532983638.73308;155.65;650.65;0.778463024;10;149
33;paravance-8.rennes.grid5000.fr;thermos-root-devel-WordCountTopology-0-ae31f827-68ff-4845-a1a2-042f6ab66222;["topology_master"];5.25;1532983638.78843;4.78;11.6;0.0;9;117
34;paravance-7.rennes.grid5000.fr;thermos-root-devel-WordCountTopology-1-13f47648-c139-4ddc-a968-9229606f9278;["container_1_Consume_and_count_1"];5.25;1532983648.96969;201.33;1219.45;0.174624092;10;149
34;paravance-9.rennes.grid5000.fr;thermos-root-devel-WordCountTopology-2-e14b9ed8-3d8b-45db-82ea-4085fdafa4a1;["container_2_Emit_random_words_2"];5.25;1532983648.94685;158.94;664.51;0.778463024;10;149
34;paravance-8.rennes.grid5000.fr;thermos-root-devel-WordCountTopology-0-ae31f827-68ff-4845-a1a2-042f6ab66222;["topology_master"];5.25;1532983649.00652;4.81;11.62;0.0;9;117
35;paravance-7.rennes.grid5000.fr;thermos-root-devel-WordCountTopology-1-13f47648-c139-4ddc-a968-9229606f9278;["container_1_Consume_and_count_1"];5.25;1532983659.18804;205.29;1244.67;0.174624092;10;149
35;paravance-9.rennes.grid5000.fr;thermos-root-devel-WordCountTopology-2-e14b9ed8-3d8b-45db-82ea-4085fdafa4a1;["container_2_Emit_random_words_2"];5.25;1532983659.16107;161.96;676.8;0.778463024;10;149
35;paravance-8.rennes.grid5000.fr;thermos-root-devel-WordCountTopology-0-ae31f827-68ff-4845-a1a2-042f6ab66222;["topology_master"];5.25;1532983659.22495;4.9;11.75;0.0;9;117
36;paravance-8.rennes.grid5000.fr;thermos-root-devel-WordCountTopology-0-ae31f827-68ff-4845-a1a2-042f6ab66222;["topology_master"];5.25;1532983669.44455;4.97;11.92;0.0;9;117
36;paravance-9.rennes.grid5000.fr;thermos-root-devel-WordCountTopology-2-e14b9ed8-3d8b-45db-82ea-4085fdafa4a1;["container_2_Emit_random_words_2"];5.25;1532983669.37569;165.14;690.56;0.778463024;10;149
36;paravance-7.rennes.grid5000.fr;thermos-root-devel-WordCountTopology-1-13f47648-c139-4ddc-a968-9229606f9278;["container_1_Consume_and_count_1"];5.25;1532983669.40874;209.5;1270.54;0.174624092;10;149
37;paravance-9.rennes.grid5000.fr;thermos-root-devel-WordCountTopology-2-e14b9ed8-3d8b-45db-82ea-4085fdafa4a1;["container_2_Emit_random_words_2"];5.25;1532983679.58907;168.8;705.24;0.778463024;10;149
37;paravance-7.rennes.grid5000.fr;thermos-root-devel-WordCountTopology-1-13f47648-c139-4ddc-a968-9229606f9278;["container_1_Consume_and_count_1"];5.25;1532983679.62727;213.98;1298.55;0.174624092;10;149
37;paravance-8.rennes.grid5000.fr;thermos-root-devel-WordCountTopology-0-ae31f827-68ff-4845-a1a2-042f6ab66222;["topology_master"];5.25;1532983679.66526;5.03;11.99;0.0;9;117
38;paravance-7.rennes.grid5000.fr;thermos-root-devel-WordCountTopology-1-13f47648-c139-4ddc-a968-9229606f9278;["container_1_Consume_and_count_1"];5.25;1532983689.84534;218.25;1324.89;0.174624092;10;149
38;paravance-8.rennes.grid5000.fr;thermos-root-devel-WordCountTopology-0-ae31f827-68ff-4845-a1a2-042f6ab66222;["topology_master"];5.25;1532983689.88198;5.08;12.06;0.0;9;117
38;paravance-9.rennes.grid5000.fr;thermos-root-devel-WordCountTopology-2-e14b9ed8-3d8b-45db-82ea-4085fdafa4a1;["container_2_Emit_random_words_2"];5.25;1532983689.80272;172.11;718.98;0.778463024;10;149
39;paravance-7.rennes.grid5000.fr;thermos-root-devel-WordCountTopology-1-13f47648-c139-4ddc-a968-9229606f9278;["container_1_Consume_and_count_1"];5.25;1532983700.0654;222.46;1352.16;0.174624092;10;149
39;paravance-8.rennes.grid5000.fr;thermos-root-devel-WordCountTopology-0-ae31f827-68ff-4845-a1a2-042f6ab66222;["topology_master"];5.25;1532983700.10158;5.17;12.19;0.0;9;117
39;paravance-9.rennes.grid5000.fr;thermos-root-devel-WordCountTopology-2-e14b9ed8-3d8b-45db-82ea-4085fdafa4a1;["container_2_Emit_random_words_2"];5.25;1532983700.01655;175.42;732.82;0.778463024;10;149
40;paravance-8.rennes.grid5000.fr;thermos-root-devel-WordCountTopology-0-ae31f827-68ff-4845-a1a2-042f6ab66222;["topology_master"];5.25;1532983710.32206;5.2;12.21;0.0;9;117
40;paravance-9.rennes.grid5000.fr;thermos-root-devel-WordCountTopology-2-e14b9ed8-3d8b-45db-82ea-4085fdafa4a1;["container_2_Emit_random_words_2"];5.25;1532983710.23291;178.97;748.13;0.778463024;10;149
40;paravance-7.rennes.grid5000.fr;thermos-root-devel-WordCountTopology-1-13f47648-c139-4ddc-a968-9229606f9278;["container_1_Consume_and_count_1"];5.25;1532983710.30279;226.89;1380.09;0.174624092;10;149
41;paravance-7.rennes.grid5000.fr;thermos-root-devel-WordCountTopology-1-13f47648-c139-4ddc-a968-9229606f9278;["container_1_Consume_and_count_1"];5.25;1532983720.52211;231.11;1406.72;0.174624092;10;149
41;paravance-8.rennes.grid5000.fr;thermos-root-devel-WordCountTopology-0-ae31f827-68ff-4845-a1a2-042f6ab66222;["topology_master"];5.25;1532983720.55794;5.29;12.34;0.0;9;117
41;paravance-9.rennes.grid5000.fr;thermos-root-devel-WordCountTopology-2-e14b9ed8-3d8b-45db-82ea-4085fdafa4a1;["container_2_Emit_random_words_2"];5.25;1532983720.46436;182.4;761.94;0.778463024;10;149
42;paravance-7.rennes.grid5000.fr;thermos-root-devel-WordCountTopology-1-13f47648-c139-4ddc-a968-9229606f9278;["container_1_Consume_and_count_1"];5.25;1532983730.73919;235.34;1433.29;0.174624092;10;149
42;paravance-8.rennes.grid5000.fr;thermos-root-devel-WordCountTopology-0-ae31f827-68ff-4845-a1a2-042f6ab66222;["topology_master"];5.25;1532983730.77669;5.35;12.45;0.0;9;117
42;paravance-9.rennes.grid5000.fr;thermos-root-devel-WordCountTopology-2-e14b9ed8-3d8b-45db-82ea-4085fdafa4a1;["container_2_Emit_random_words_2"];5.25;1532983730.67754;185.83;775.58;0.778463024;10;149
43;paravance-7.rennes.grid5000.fr;thermos-root-devel-WordCountTopology-1-13f47648-c139-4ddc-a968-9229606f9278;["container_1_Consume_and_count_1"];5.25;1532983740.95759;239.63;1460.11;0.174624092;10;149
43;paravance-9.rennes.grid5000.fr;thermos-root-devel-WordCountTopology-2-e14b9ed8-3d8b-45db-82ea-4085fdafa4a1;["container_2_Emit_random_words_2"];5.25;1532983740.89019;189.19;789.94;0.778463024;10;149
43;paravance-8.rennes.grid5000.fr;thermos-root-devel-WordCountTopology-0-ae31f827-68ff-4845-a1a2-042f6ab66222;["topology_master"];5.25;1532983740.99638;5.44;12.57;0.0;9;117
44;paravance-9.rennes.grid5000.fr;thermos-root-devel-WordCountTopology-2-e14b9ed8-3d8b-45db-82ea-4085fdafa4a1;["container_2_Emit_random_words_2"];5.25;1532983751.10221;192.55;803.81;0.778463024;10;149
44;paravance-8.rennes.grid5000.fr;thermos-root-devel-WordCountTopology-0-ae31f827-68ff-4845-a1a2-042f6ab66222;["topology_master"];5.25;1532983751.21226;5.46;12.59;0.0;9;117
44;paravance-7.rennes.grid5000.fr;thermos-root-devel-WordCountTopology-1-13f47648-c139-4ddc-a968-9229606f9278;["container_1_Consume_and_count_1"];5.25;1532983751.17549;243.83;1486.32;0.174624092;10;149
45;paravance-7.rennes.grid5000.fr;thermos-root-devel-WordCountTopology-1-13f47648-c139-4ddc-a968-9229606f9278;["container_1_Consume_and_count_1"];5.25;1532983761.39535;247.96;1513.19;0.174624092;10;149
45;paravance-8.rennes.grid5000.fr;thermos-root-devel-WordCountTopology-0-ae31f827-68ff-4845-a1a2-042f6ab66222;["topology_master"];5.25;1532983761.43317;5.55;12.71;0.0;9;117
45;paravance-9.rennes.grid5000.fr;thermos-root-devel-WordCountTopology-2-e14b9ed8-3d8b-45db-82ea-4085fdafa4a1;["container_2_Emit_random_words_2"];5.25;1532983761.31712;195.95;817.62;0.778463024;10;149
46;paravance-7.rennes.grid5000.fr;thermos-root-devel-WordCountTopology-1-13f47648-c139-4ddc-a968-9229606f9278;["container_1_Consume_and_count_1"];5.25;1532983771.61233;252.32;1540.2;0.174624092;10;149
46;paravance-9.rennes.grid5000.fr;thermos-root-devel-WordCountTopology-2-e14b9ed8-3d8b-45db-82ea-4085fdafa4a1;["container_2_Emit_random_words_2"];5.25;1532983771.53059;199.41;831.88;0.778463024;10;149
46;paravance-8.rennes.grid5000.fr;thermos-root-devel-WordCountTopology-0-ae31f827-68ff-4845-a1a2-042f6ab66222;["topology_master"];5.25;1532983771.65232;5.6;12.78;0.0;9;117
47;paravance-7.rennes.grid5000.fr;thermos-root-devel-WordCountTopology-1-13f47648-c139-4ddc-a968-9229606f9278;["container_1_Consume_and_count_1"];5.25;1532983781.83164;256.35;1565.58;0.174624092;10;149
47;paravance-9.rennes.grid5000.fr;thermos-root-devel-WordCountTopology-2-e14b9ed8-3d8b-45db-82ea-4085fdafa4a1;["container_2_Emit_random_words_2"];5.25;1532983781.74532;202.39;844.26;0.778463024;10;149
47;paravance-8.rennes.grid5000.fr;thermos-root-devel-WordCountTopology-0-ae31f827-68ff-4845-a1a2-042f6ab66222;["topology_master"];5.25;1532983781.86916;5.67;12.86;0.0;9;117
48;paravance-7.rennes.grid5000.fr;thermos-root-devel-WordCountTopology-1-13f47648-c139-4ddc-a968-9229606f9278;["container_1_Consume_and_count_1"];5.25;1532983792.05162;260.73;1592.39;0.174624092;10;149
48;paravance-9.rennes.grid5000.fr;thermos-root-devel-WordCountTopology-2-e14b9ed8-3d8b-45db-82ea-4085fdafa4a1;["container_2_Emit_random_words_2"];5.25;1532983791.96466;205.68;858.43;0.778463024;10;149
48;paravance-8.rennes.grid5000.fr;thermos-root-devel-WordCountTopology-0-ae31f827-68ff-4845-a1a2-042f6ab66222;["topology_master"];5.25;1532983792.08849;5.73;13.02;0.0;9;117
49;paravance-7.rennes.grid5000.fr;thermos-root-devel-WordCountTopology-1-13f47648-c139-4ddc-a968-9229606f9278;["container_1_Consume_and_count_1"];5.25;1532983802.26887;265.2;1619.96;0.174624092;10;149
49;paravance-9.rennes.grid5000.fr;thermos-root-devel-WordCountTopology-2-e14b9ed8-3d8b-45db-82ea-4085fdafa4a1;["container_2_Emit_random_words_2"];5.25;1532983802.18337;209.27;874.19;0.778463024;10;149
49;paravance-8.rennes.grid5000.fr;thermos-root-devel-WordCountTopology-0-ae31f827-68ff-4845-a1a2-042f6ab66222;["topology_master"];5.25;1532983802.30746;5.82;13.14;0.0;9;117
50;paravance-7.rennes.grid5000.fr;thermos-root-devel-WordCountTopology-1-13f47648-c139-4ddc-a968-9229606f9278;["container_1_Consume_and_count_1"];5.25;1532983812.49087;269.56;1646.76;0.174624092;10;149
50;paravance-9.rennes.grid5000.fr;thermos-root-devel-WordCountTopology-2-e14b9ed8-3d8b-45db-82ea-4085fdafa4a1;["container_2_Emit_random_words_2"];5.25;1532983812.40449;212.68;888.34;0.778463024;10;149
50;paravance-8.rennes.grid5000.fr;thermos-root-devel-WordCountTopology-0-ae31f827-68ff-4845-a1a2-042f6ab66222;["topology_master"];5.25;1532983812.5283;5.84;13.17;0.0;9;117
51;paravance-7.rennes.grid5000.fr;thermos-root-devel-WordCountTopology-1-13f47648-c139-4ddc-a968-9229606f9278;["container_1_Consume_and_count_1"];5.25;1532983822.70908;274.25;1674.49;0.174624092;10;149
51;paravance-8.rennes.grid5000.fr;thermos-root-devel-WordCountTopology-0-ae31f827-68ff-4845-a1a2-042f6ab66222;["topology_master"];5.25;1532983822.74704;5.93;13.29;0.0;9;117
51;paravance-9.rennes.grid5000.fr;thermos-root-devel-WordCountTopology-2-e14b9ed8-3d8b-45db-82ea-4085fdafa4a1;["container_2_Emit_random_words_2"];5.25;1532983822.62399;216.32;903.49;0.778463024;10;149
52;paravance-9.rennes.grid5000.fr;thermos-root-devel-WordCountTopology-2-e14b9ed8-3d8b-45db-82ea-4085fdafa4a1;["container_2_Emit_random_words_2"];5.25;1532983832.8429;219.8;917.82;0.778463024;10;149
52;paravance-7.rennes.grid5000.fr;thermos-root-devel-WordCountTopology-1-13f47648-c139-4ddc-a968-9229606f9278;["container_1_Consume_and_count_1"];5.25;1532983832.92822;278.58;1701.75;0.174624092;10;149
52;paravance-8.rennes.grid5000.fr;thermos-root-devel-WordCountTopology-0-ae31f827-68ff-4845-a1a2-042f6ab66222;["topology_master"];5.25;1532983832.9662;5.98;13.37;0.0;9;117
53;paravance-9.rennes.grid5000.fr;thermos-root-devel-WordCountTopology-2-e14b9ed8-3d8b-45db-82ea-4085fdafa4a1;["container_2_Emit_random_words_2"];5.25;1532983843.06123;223.37;932.51;0.778463024;10;149
53;paravance-8.rennes.grid5000.fr;thermos-root-devel-WordCountTopology-0-ae31f827-68ff-4845-a1a2-042f6ab66222;["topology_master"];5.25;1532983843.18441;6.05;13.47;0.0;9;117
53;paravance-7.rennes.grid5000.fr;thermos-root-devel-WordCountTopology-1-13f47648-c139-4ddc-a968-9229606f9278;["container_1_Consume_and_count_1"];5.25;1532983843.14707;283.13;1728.79;0.174624092;10;149
54;paravance-8.rennes.grid5000.fr;thermos-root-devel-WordCountTopology-0-ae31f827-68ff-4845-a1a2-042f6ab66222;["topology_master"];5.25;1532983853.4014;6.11;13.57;0.0;9;117
54;paravance-7.rennes.grid5000.fr;thermos-root-devel-WordCountTopology-1-13f47648-c139-4ddc-a968-9229606f9278;["container_1_Consume_and_count_1"];5.25;1532983853.3642;287.64;1755.82;0.174624092;10;149
54;paravance-9.rennes.grid5000.fr;thermos-root-devel-WordCountTopology-2-e14b9ed8-3d8b-45db-82ea-4085fdafa4a1;["container_2_Emit_random_words_2"];5.25;1532983853.27863;226.97;947.39;0.778463024;10;149
55;paravance-9.rennes.grid5000.fr;thermos-root-devel-WordCountTopology-2-e14b9ed8-3d8b-45db-82ea-4085fdafa4a1;["container_2_Emit_random_words_2"];5.25;1532983863.49657;230.52;961.95;0.778463024;10;149
55;paravance-8.rennes.grid5000.fr;thermos-root-devel-WordCountTopology-0-ae31f827-68ff-4845-a1a2-042f6ab66222;["topology_master"];5.25;1532983863.61928;6.2;13.68;0.0;9;117
55;paravance-7.rennes.grid5000.fr;thermos-root-devel-WordCountTopology-1-13f47648-c139-4ddc-a968-9229606f9278;["container_1_Consume_and_count_1"];5.25;1532983863.58284;292.11;1782.88;0.174624092;10;149
56;paravance-8.rennes.grid5000.fr;thermos-root-devel-WordCountTopology-0-ae31f827-68ff-4845-a1a2-042f6ab66222;["topology_master"];5.25;1532983873.83649;6.23;13.71;0.0;9;117
56;paravance-7.rennes.grid5000.fr;thermos-root-devel-WordCountTopology-1-13f47648-c139-4ddc-a968-9229606f9278;["container_1_Consume_and_count_1"];5.25;1532983873.79899;296.5;1809.7;0.174624092;10;149
56;paravance-9.rennes.grid5000.fr;thermos-root-devel-WordCountTopology-2-e14b9ed8-3d8b-45db-82ea-4085fdafa4a1;["container_2_Emit_random_words_2"];5.25;1532983873.71425;233.97;975.89;0.778463024;10;149
57;paravance-8.rennes.grid5000.fr;thermos-root-devel-WordCountTopology-0-ae31f827-68ff-4845-a1a2-042f6ab66222;["topology_master"];5.25;1532983884.05671;6.32;13.83;0.0;9;117
57;paravance-7.rennes.grid5000.fr;thermos-root-devel-WordCountTopology-1-13f47648-c139-4ddc-a968-9229606f9278;["container_1_Consume_and_count_1"];5.25;1532983884.01915;300.75;1836.08;0.174624092;10;149
57;paravance-9.rennes.grid5000.fr;thermos-root-devel-WordCountTopology-2-e14b9ed8-3d8b-45db-82ea-4085fdafa4a1;["container_2_Emit_random_words_2"];5.25;1532983883.93397;237.33;989.45;0.778463024;10;149
58;paravance-7.rennes.grid5000.fr;thermos-root-devel-WordCountTopology-1-13f47648-c139-4ddc-a968-9229606f9278;["container_1_Consume_and_count_1"];5.25;1532983894.23908;304.84;1861.77;0.174624092;10;149
58;paravance-9.rennes.grid5000.fr;thermos-root-devel-WordCountTopology-2-e14b9ed8-3d8b-45db-82ea-4085fdafa4a1;["container_2_Emit_random_words_2"];5.25;1532983894.15465;240.49;1002.57;0.778463024;10;149
58;paravance-8.rennes.grid5000.fr;thermos-root-devel-WordCountTopology-0-ae31f827-68ff-4845-a1a2-042f6ab66222;["topology_master"];5.25;1532983894.27658;6.37;13.9;0.0;9;117
59;paravance-9.rennes.grid5000.fr;thermos-root-devel-WordCountTopology-2-e14b9ed8-3d8b-45db-82ea-4085fdafa4a1;["container_2_Emit_random_words_2"];5.25;1532983904.3706;244.03;1017.22;0.778463024;10;149
59;paravance-8.rennes.grid5000.fr;thermos-root-devel-WordCountTopology-0-ae31f827-68ff-4845-a1a2-042f6ab66222;["topology_master"];5.25;1532983904.49363;6.44;14.03;0.0;9;117
59;paravance-7.rennes.grid5000.fr;thermos-root-devel-WordCountTopology-1-13f47648-c139-4ddc-a968-9229606f9278;["container_1_Consume_and_count_1"];5.25;1532983904.45709;309.26;1889.31;0.174624092;10;149
60;paravance-7.rennes.grid5000.fr;thermos-root-devel-WordCountTopology-1-13f47648-c139-4ddc-a968-9229606f9278;["container_1_Consume_and_count_1"];5.25;1532983914.67556;313.3;1915.15;0.174624092;10;149
60;paravance-9.rennes.grid5000.fr;thermos-root-devel-WordCountTopology-2-e14b9ed8-3d8b-45db-82ea-4085fdafa4a1;["container_2_Emit_random_words_2"];5.25;1532983914.58964;247.17;1030.29;0.778463024;10;149
60;paravance-8.rennes.grid5000.fr;thermos-root-devel-WordCountTopology-0-ae31f827-68ff-4845-a1a2-042f6ab66222;["topology_master"];5.25;1532983914.71243;6.5;14.1;0.0;9;117
