mesure_id;slave_id;executor_id;heron_instances;cpus_limit;timestamp_A;cpus_system_time_secs_A;cpus_user_time_secs_A;cpus_throttled_time_secs_A;processes;threads
0;paravance-50.rennes.grid5000.fr;thermos-root-devel-WordCountTopology-0-962ae3ca-e04e-46b5-a2e0-2c55ffe75502;["topology_master"];1.25;1533256214.01346;2.56;8.61;7.013279003;9;117
0;paravance-37.rennes.grid5000.fr;thermos-root-devel-WordCountTopology-1-9c939909-2d48-4f7a-836e-c2272ee61307;["container_1_Consume_and_count_1"];1.25;1533256213.90953;16.76;98.74;317.482651591;10;151
0;paravance-43.rennes.grid5000.fr;thermos-root-devel-WordCountTopology-2-59b086a5-e60d-431a-bc59-8315993508e7;["container_2_Emit_random_words_2"];1.25;1533256214.01011;11.23;79.23;107.401222015;10;149
1;paravance-43.rennes.grid5000.fr;thermos-root-devel-WordCountTopology-2-59b086a5-e60d-431a-bc59-8315993508e7;["container_2_Emit_random_words_2"];1.25;1533256224.22656;11.96;84.83;111.843728406;10;149
1;paravance-50.rennes.grid5000.fr;thermos-root-devel-WordCountTopology-0-962ae3ca-e04e-46b5-a2e0-2c55ffe75502;["topology_master"];1.25;1533256224.23174;2.63;8.75;7.013279003;9;117
1;paravance-37.rennes.grid5000.fr;thermos-root-devel-WordCountTopology-1-9c939909-2d48-4f7a-836e-c2272ee61307;["container_1_Consume_and_count_1"];1.25;1533256224.12838;18.17;109.26;356.181473172;10;151
2;paravance-43.rennes.grid5000.fr;thermos-root-devel-WordCountTopology-2-59b086a5-e60d-431a-bc59-8315993508e7;["container_2_Emit_random_words_2"];1.25;1533256234.34434;12.83;91.36;117.779278578;10;149
2;paravance-37.rennes.grid5000.fr;thermos-root-devel-WordCountTopology-1-9c939909-2d48-4f7a-836e-c2272ee61307;["container_1_Consume_and_count_1"];1.25;1533256234.34511;19.5;119.95;392.735849926;10;151
2;paravance-50.rennes.grid5000.fr;thermos-root-devel-WordCountTopology-0-962ae3ca-e04e-46b5-a2e0-2c55ffe75502;["topology_master"];1.25;1533256234.44886;2.72;8.89;7.013279003;9;117
3;paravance-50.rennes.grid5000.fr;thermos-root-devel-WordCountTopology-0-962ae3ca-e04e-46b5-a2e0-2c55ffe75502;["topology_master"];1.25;1533256244.56523;2.75;8.92;7.013279003;9;117
3;paravance-43.rennes.grid5000.fr;thermos-root-devel-WordCountTopology-2-59b086a5-e60d-431a-bc59-8315993508e7;["container_2_Emit_random_words_2"];1.25;1533256244.66074;13.38;95.42;121.010607928;10;149
3;paravance-37.rennes.grid5000.fr;thermos-root-devel-WordCountTopology-1-9c939909-2d48-4f7a-836e-c2272ee61307;["container_1_Consume_and_count_1"];1.25;1533256244.56185;20.77;130.68;425.632351787;10;151
4;paravance-50.rennes.grid5000.fr;thermos-root-devel-WordCountTopology-0-962ae3ca-e04e-46b5-a2e0-2c55ffe75502;["topology_master"];1.25;1533256254.8821;2.84;9.05;7.013279003;9;117
4;paravance-43.rennes.grid5000.fr;thermos-root-devel-WordCountTopology-2-59b086a5-e60d-431a-bc59-8315993508e7;["container_2_Emit_random_words_2"];1.25;1533256254.87696;14.17;100.98;126.770376074;10;149
4;paravance-37.rennes.grid5000.fr;thermos-root-devel-WordCountTopology-1-9c939909-2d48-4f7a-836e-c2272ee61307;["container_1_Consume_and_count_1"];1.25;1533256254.77888;22.25;141.2;461.902260837;10;151
5;paravance-50.rennes.grid5000.fr;thermos-root-devel-WordCountTopology-0-962ae3ca-e04e-46b5-a2e0-2c55ffe75502;["topology_master"];1.25;1533256265.00072;2.9;9.12;7.013279003;9;117
5;paravance-37.rennes.grid5000.fr;thermos-root-devel-WordCountTopology-1-9c939909-2d48-4f7a-836e-c2272ee61307;["container_1_Consume_and_count_1"];1.25;1533256264.99532;23.55;151.85;492.386149573;10;151
5;paravance-43.rennes.grid5000.fr;thermos-root-devel-WordCountTopology-2-59b086a5-e60d-431a-bc59-8315993508e7;["container_2_Emit_random_words_2"];1.25;1533256265.09538;14.81;105.84;130.780777486;10;149
6;paravance-37.rennes.grid5000.fr;thermos-root-devel-WordCountTopology-1-9c939909-2d48-4f7a-836e-c2272ee61307;["container_1_Consume_and_count_1"];1.25;1533256275.21259;24.82;162.4;524.296094072;10;152
6;paravance-50.rennes.grid5000.fr;thermos-root-devel-WordCountTopology-0-962ae3ca-e04e-46b5-a2e0-2c55ffe75502;["topology_master"];1.25;1533256275.31665;2.99;9.22;7.017306465;9;117
6;paravance-43.rennes.grid5000.fr;thermos-root-devel-WordCountTopology-2-59b086a5-e60d-431a-bc59-8315993508e7;["container_2_Emit_random_words_2"];1.25;1533256275.31246;15.21;108.27;133.541531284;10;150
7;paravance-37.rennes.grid5000.fr;thermos-root-devel-WordCountTopology-1-9c939909-2d48-4f7a-836e-c2272ee61307;["container_1_Consume_and_count_1"];1.25;1533256285.42789;26.05;172.92;555.656339522;10;152
7;paravance-50.rennes.grid5000.fr;thermos-root-devel-WordCountTopology-0-962ae3ca-e04e-46b5-a2e0-2c55ffe75502;["topology_master"];1.25;1533256285.53338;3.05;9.35;7.017306465;9;117
7;paravance-43.rennes.grid5000.fr;thermos-root-devel-WordCountTopology-2-59b086a5-e60d-431a-bc59-8315993508e7;["container_2_Emit_random_words_2"];1.25;1533256285.52833;15.88;113.29;139.034137621;10;150
8;paravance-37.rennes.grid5000.fr;thermos-root-devel-WordCountTopology-1-9c939909-2d48-4f7a-836e-c2272ee61307;["container_1_Consume_and_count_1"];1.25;1533256295.64522;27.41;183.57;596.653303131;10;151
8;paravance-43.rennes.grid5000.fr;thermos-root-devel-WordCountTopology-2-59b086a5-e60d-431a-bc59-8315993508e7;["container_2_Emit_random_words_2"];1.25;1533256295.74513;16.64;118.86;144.610542604;10;149
8;paravance-50.rennes.grid5000.fr;thermos-root-devel-WordCountTopology-0-962ae3ca-e04e-46b5-a2e0-2c55ffe75502;["topology_master"];1.25;1533256295.75066;3.15;9.5;7.017306465;9;117
9;paravance-37.rennes.grid5000.fr;thermos-root-devel-WordCountTopology-1-9c939909-2d48-4f7a-836e-c2272ee61307;["container_1_Consume_and_count_1"];1.25;1533256305.86112;28.65;194.17;628.759393686;10;151
9;paravance-50.rennes.grid5000.fr;thermos-root-devel-WordCountTopology-0-962ae3ca-e04e-46b5-a2e0-2c55ffe75502;["topology_master"];1.25;1533256305.96668;3.21;9.57;7.017306465;9;117
9;paravance-43.rennes.grid5000.fr;thermos-root-devel-WordCountTopology-2-59b086a5-e60d-431a-bc59-8315993508e7;["container_2_Emit_random_words_2"];1.25;1533256305.9614;17.14;122.85;147.905569567;10;149
10;paravance-43.rennes.grid5000.fr;thermos-root-devel-WordCountTopology-2-59b086a5-e60d-431a-bc59-8315993508e7;["container_2_Emit_random_words_2"];1.25;1533256316.17891;17.83;127.87;152.408939402;10;149
10;paravance-50.rennes.grid5000.fr;thermos-root-devel-WordCountTopology-0-962ae3ca-e04e-46b5-a2e0-2c55ffe75502;["topology_master"];1.25;1533256316.18358;3.27;9.65;7.017306465;9;117
10;paravance-37.rennes.grid5000.fr;thermos-root-devel-WordCountTopology-1-9c939909-2d48-4f7a-836e-c2272ee61307;["container_1_Consume_and_count_1"];1.25;1533256316.07979;30.24;204.46;663.963475234;10;151
11;paravance-37.rennes.grid5000.fr;thermos-root-devel-WordCountTopology-1-9c939909-2d48-4f7a-836e-c2272ee61307;["container_1_Consume_and_count_1"];1.25;1533256326.29732;31.38;215.27;694.658786852;10;151
11;paravance-50.rennes.grid5000.fr;thermos-root-devel-WordCountTopology-0-962ae3ca-e04e-46b5-a2e0-2c55ffe75502;["topology_master"];1.25;1533256326.40274;3.33;9.72;7.017306465;9;117
11;paravance-43.rennes.grid5000.fr;thermos-root-devel-WordCountTopology-2-59b086a5-e60d-431a-bc59-8315993508e7;["container_2_Emit_random_words_2"];1.25;1533256326.39737;18.37;131.64;155.546822287;10;149
12;paravance-37.rennes.grid5000.fr;thermos-root-devel-WordCountTopology-1-9c939909-2d48-4f7a-836e-c2272ee61307;["container_1_Consume_and_count_1"];1.25;1533256336.51493;32.55;226.12;728.550829564;10;152
12;paravance-43.rennes.grid5000.fr;thermos-root-devel-WordCountTopology-2-59b086a5-e60d-431a-bc59-8315993508e7;["container_2_Emit_random_words_2"];1.25;1533256336.61432;19.06;137.4;160.707921202;10;149
12;paravance-50.rennes.grid5000.fr;thermos-root-devel-WordCountTopology-0-962ae3ca-e04e-46b5-a2e0-2c55ffe75502;["topology_master"];1.25;1533256336.62083;3.46;9.97;7.017306465;9;117
13;paravance-50.rennes.grid5000.fr;thermos-root-devel-WordCountTopology-0-962ae3ca-e04e-46b5-a2e0-2c55ffe75502;["topology_master"];1.25;1533256346.83759;3.49;10.02;7.017306465;9;117
13;paravance-43.rennes.grid5000.fr;thermos-root-devel-WordCountTopology-2-59b086a5-e60d-431a-bc59-8315993508e7;["container_2_Emit_random_words_2"];1.25;1533256346.8331;19.93;144.28;167.017336511;10;149
13;paravance-37.rennes.grid5000.fr;thermos-root-devel-WordCountTopology-1-9c939909-2d48-4f7a-836e-c2272ee61307;["container_1_Consume_and_count_1"];1.25;1533256346.73501;33.83;236.89;767.307296489;10;152
14;paravance-50.rennes.grid5000.fr;thermos-root-devel-WordCountTopology-0-962ae3ca-e04e-46b5-a2e0-2c55ffe75502;["topology_master"];1.25;1533256357.05586;3.58;10.16;7.017306465;9;117
14;paravance-37.rennes.grid5000.fr;thermos-root-devel-WordCountTopology-1-9c939909-2d48-4f7a-836e-c2272ee61307;["container_1_Consume_and_count_1"];1.25;1533256356.9523;35.06;247.69;803.69441994;10;151
14;paravance-43.rennes.grid5000.fr;thermos-root-devel-WordCountTopology-2-59b086a5-e60d-431a-bc59-8315993508e7;["container_2_Emit_random_words_2"];1.25;1533256357.0502;20.66;149.39;171.58197967;10;149
15;paravance-50.rennes.grid5000.fr;thermos-root-devel-WordCountTopology-0-962ae3ca-e04e-46b5-a2e0-2c55ffe75502;["topology_master"];1.25;1533256367.27543;3.63;10.23;7.017306465;9;117
15;paravance-37.rennes.grid5000.fr;thermos-root-devel-WordCountTopology-1-9c939909-2d48-4f7a-836e-c2272ee61307;["container_1_Consume_and_count_1"];1.25;1533256367.17077;36.44;258.33;839.203121726;10;151
15;paravance-43.rennes.grid5000.fr;thermos-root-devel-WordCountTopology-2-59b086a5-e60d-431a-bc59-8315993508e7;["container_2_Emit_random_words_2"];1.25;1533256367.26982;21.58;157.11;177.946852194;10;149
16;paravance-50.rennes.grid5000.fr;thermos-root-devel-WordCountTopology-0-962ae3ca-e04e-46b5-a2e0-2c55ffe75502;["topology_master"];1.25;1533256377.49383;3.69;10.32;7.017306465;9;117
16;paravance-43.rennes.grid5000.fr;thermos-root-devel-WordCountTopology-2-59b086a5-e60d-431a-bc59-8315993508e7;["container_2_Emit_random_words_2"];1.25;1533256377.48765;22.6;164.21;184.694870533;10;149
16;paravance-37.rennes.grid5000.fr;thermos-root-devel-WordCountTopology-1-9c939909-2d48-4f7a-836e-c2272ee61307;["container_1_Consume_and_count_1"];1.25;1533256377.38902;37.87;269.03;875.373307434;10;151
17;paravance-50.rennes.grid5000.fr;thermos-root-devel-WordCountTopology-0-962ae3ca-e04e-46b5-a2e0-2c55ffe75502;["topology_master"];1.25;1533256387.71184;3.75;10.4;7.017306465;9;117
17;paravance-43.rennes.grid5000.fr;thermos-root-devel-WordCountTopology-2-59b086a5-e60d-431a-bc59-8315993508e7;["container_2_Emit_random_words_2"];1.25;1533256387.70507;23.43;170.2;189.58737618;10;149
17;paravance-37.rennes.grid5000.fr;thermos-root-devel-WordCountTopology-1-9c939909-2d48-4f7a-836e-c2272ee61307;["container_1_Consume_and_count_1"];1.25;1533256387.6075;39.16;279.76;909.637694836;10;151
18;paravance-43.rennes.grid5000.fr;thermos-root-devel-WordCountTopology-2-59b086a5-e60d-431a-bc59-8315993508e7;["container_2_Emit_random_words_2"];1.25;1533256397.92289;24.22;175.84;195.113844588;10;149
18;paravance-37.rennes.grid5000.fr;thermos-root-devel-WordCountTopology-1-9c939909-2d48-4f7a-836e-c2272ee61307;["container_1_Consume_and_count_1"];1.25;1533256397.82369;40.43;290.47;944.776731726;10;151
18;paravance-50.rennes.grid5000.fr;thermos-root-devel-WordCountTopology-0-962ae3ca-e04e-46b5-a2e0-2c55ffe75502;["topology_master"];1.25;1533256397.92947;3.88;10.67;7.037351592;9;117
19;paravance-37.rennes.grid5000.fr;thermos-root-devel-WordCountTopology-1-9c939909-2d48-4f7a-836e-c2272ee61307;["container_1_Consume_and_count_1"];1.25;1533256408.04121;41.94;300.92;981.051524271;10;151
19;paravance-50.rennes.grid5000.fr;thermos-root-devel-WordCountTopology-0-962ae3ca-e04e-46b5-a2e0-2c55ffe75502;["topology_master"];1.25;1533256408.14623;3.91;10.69;7.037351592;9;117
19;paravance-43.rennes.grid5000.fr;thermos-root-devel-WordCountTopology-2-59b086a5-e60d-431a-bc59-8315993508e7;["container_2_Emit_random_words_2"];1.25;1533256408.14199;25.35;184.02;203.17430225;10;149
20;paravance-37.rennes.grid5000.fr;thermos-root-devel-WordCountTopology-1-9c939909-2d48-4f7a-836e-c2272ee61307;["container_1_Consume_and_count_1"];1.25;1533256418.25828;43.48;311.29;1014.959086093;10;151
20;paravance-43.rennes.grid5000.fr;thermos-root-devel-WordCountTopology-2-59b086a5-e60d-431a-bc59-8315993508e7;["container_2_Emit_random_words_2"];1.25;1533256418.35913;26.24;190.23;209.050407996;10;149
20;paravance-50.rennes.grid5000.fr;thermos-root-devel-WordCountTopology-0-962ae3ca-e04e-46b5-a2e0-2c55ffe75502;["topology_master"];1.25;1533256418.36432;4.0;10.83;7.037351592;9;117
21;paravance-43.rennes.grid5000.fr;thermos-root-devel-WordCountTopology-2-59b086a5-e60d-431a-bc59-8315993508e7;["container_2_Emit_random_words_2"];1.25;1533256428.57596;27.51;200.11;217.376238034;10;149
21;paravance-37.rennes.grid5000.fr;thermos-root-devel-WordCountTopology-1-9c939909-2d48-4f7a-836e-c2272ee61307;["container_1_Consume_and_count_1"];1.25;1533256428.47739;45.24;321.63;1046.671444339;10;151
21;paravance-50.rennes.grid5000.fr;thermos-root-devel-WordCountTopology-0-962ae3ca-e04e-46b5-a2e0-2c55ffe75502;["topology_master"];1.25;1533256428.58254;4.06;10.91;7.037351592;9;117
22;paravance-37.rennes.grid5000.fr;thermos-root-devel-WordCountTopology-1-9c939909-2d48-4f7a-836e-c2272ee61307;["container_1_Consume_and_count_1"];1.25;1533256438.69337;46.7;332.19;1081.414684823;10;151
22;paravance-43.rennes.grid5000.fr;thermos-root-devel-WordCountTopology-2-59b086a5-e60d-431a-bc59-8315993508e7;["container_2_Emit_random_words_2"];1.25;1533256438.7947;28.35;206.7;223.522474809;10;149
22;paravance-50.rennes.grid5000.fr;thermos-root-devel-WordCountTopology-0-962ae3ca-e04e-46b5-a2e0-2c55ffe75502;["topology_master"];1.25;1533256438.801;4.12;10.98;7.037351592;9;117
23;paravance-37.rennes.grid5000.fr;thermos-root-devel-WordCountTopology-1-9c939909-2d48-4f7a-836e-c2272ee61307;["container_1_Consume_and_count_1"];1.25;1533256448.91237;48.27;342.68;1114.771510651;10;151
23;paravance-50.rennes.grid5000.fr;thermos-root-devel-WordCountTopology-0-962ae3ca-e04e-46b5-a2e0-2c55ffe75502;["topology_master"];1.25;1533256449.01834;4.18;11.06;7.037351592;9;117
23;paravance-43.rennes.grid5000.fr;thermos-root-devel-WordCountTopology-2-59b086a5-e60d-431a-bc59-8315993508e7;["container_2_Emit_random_words_2"];1.25;1533256449.01122;29.54;215.9;232.747767985;10;149
24;paravance-50.rennes.grid5000.fr;thermos-root-devel-WordCountTopology-0-962ae3ca-e04e-46b5-a2e0-2c55ffe75502;["topology_master"];1.25;1533256459.23614;4.29;11.23;7.037351592;9;117
24;paravance-37.rennes.grid5000.fr;thermos-root-devel-WordCountTopology-1-9c939909-2d48-4f7a-836e-c2272ee61307;["container_1_Consume_and_count_1"];1.25;1533256459.13073;50.01;352.89;1149.448845363;10;151
24;paravance-43.rennes.grid5000.fr;thermos-root-devel-WordCountTopology-2-59b086a5-e60d-431a-bc59-8315993508e7;["container_2_Emit_random_words_2"];1.25;1533256459.23064;30.72;225.36;242.245459037;10;149
25;paravance-37.rennes.grid5000.fr;thermos-root-devel-WordCountTopology-1-9c939909-2d48-4f7a-836e-c2272ee61307;["container_1_Consume_and_count_1"];1.25;1533256469.34913;51.71;363.09;1182.930135893;10;151
25;paravance-50.rennes.grid5000.fr;thermos-root-devel-WordCountTopology-0-962ae3ca-e04e-46b5-a2e0-2c55ffe75502;["topology_master"];1.25;1533256469.45447;4.32;11.26;7.037351592;9;117
25;paravance-43.rennes.grid5000.fr;thermos-root-devel-WordCountTopology-2-59b086a5-e60d-431a-bc59-8315993508e7;["container_2_Emit_random_words_2"];1.25;1533256469.4494;31.88;234.21;250.778673345;10;149
26;paravance-43.rennes.grid5000.fr;thermos-root-devel-WordCountTopology-2-59b086a5-e60d-431a-bc59-8315993508e7;["container_2_Emit_random_words_2"];1.25;1533256479.66658;32.55;239.03;255.325502688;10;149
26;paravance-50.rennes.grid5000.fr;thermos-root-devel-WordCountTopology-0-962ae3ca-e04e-46b5-a2e0-2c55ffe75502;["topology_master"];1.25;1533256479.67324;4.41;11.38;7.037351592;9;117
26;paravance-37.rennes.grid5000.fr;thermos-root-devel-WordCountTopology-1-9c939909-2d48-4f7a-836e-c2272ee61307;["container_1_Consume_and_count_1"];1.25;1533256479.56893;52.92;373.82;1214.541378746;10;151
27;paravance-37.rennes.grid5000.fr;thermos-root-devel-WordCountTopology-1-9c939909-2d48-4f7a-836e-c2272ee61307;["container_1_Consume_and_count_1"];1.25;1533256489.78558;54.29;384.42;1246.553010678;10;151
27;paravance-43.rennes.grid5000.fr;thermos-root-devel-WordCountTopology-2-59b086a5-e60d-431a-bc59-8315993508e7;["container_2_Emit_random_words_2"];1.25;1533256489.88434;33.23;244.02;259.173947851;10;149
27;paravance-50.rennes.grid5000.fr;thermos-root-devel-WordCountTopology-0-962ae3ca-e04e-46b5-a2e0-2c55ffe75502;["topology_master"];1.25;1533256489.89104;4.47;11.46;7.037351592;9;117
28;paravance-50.rennes.grid5000.fr;thermos-root-devel-WordCountTopology-0-962ae3ca-e04e-46b5-a2e0-2c55ffe75502;["topology_master"];1.25;1533256500.10721;4.52;11.54;7.037351592;9;117
28;paravance-37.rennes.grid5000.fr;thermos-root-devel-WordCountTopology-1-9c939909-2d48-4f7a-836e-c2272ee61307;["container_1_Consume_and_count_1"];1.25;1533256500.00199;55.44;395.35;1279.514787718;10;151
28;paravance-43.rennes.grid5000.fr;thermos-root-devel-WordCountTopology-2-59b086a5-e60d-431a-bc59-8315993508e7;["container_2_Emit_random_words_2"];1.25;1533256500.1007;33.95;249.17;264.169175411;10;149
29;paravance-37.rennes.grid5000.fr;thermos-root-devel-WordCountTopology-1-9c939909-2d48-4f7a-836e-c2272ee61307;["container_1_Consume_and_count_1"];1.25;1533256510.22;56.94;405.82;1312.597267576;10;151
29;paravance-50.rennes.grid5000.fr;thermos-root-devel-WordCountTopology-0-962ae3ca-e04e-46b5-a2e0-2c55ffe75502;["topology_master"];1.25;1533256510.32633;4.58;11.61;7.037351592;9;117
29;paravance-43.rennes.grid5000.fr;thermos-root-devel-WordCountTopology-2-59b086a5-e60d-431a-bc59-8315993508e7;["container_2_Emit_random_words_2"];1.25;1533256510.32054;34.85;256.4;270.390851953;10;149
30;paravance-43.rennes.grid5000.fr;thermos-root-devel-WordCountTopology-2-59b086a5-e60d-431a-bc59-8315993508e7;["container_2_Emit_random_words_2"];1.25;1533256520.53818;35.54;261.23;274.610401806;10;149
30;paravance-37.rennes.grid5000.fr;thermos-root-devel-WordCountTopology-1-9c939909-2d48-4f7a-836e-c2272ee61307;["container_1_Consume_and_count_1"];1.25;1533256520.43939;58.02;416.79;1350.527232744;10;151
30;paravance-50.rennes.grid5000.fr;thermos-root-devel-WordCountTopology-0-962ae3ca-e04e-46b5-a2e0-2c55ffe75502;["topology_master"];1.25;1533256520.5443;4.69;11.81;7.037351592;9;117
31;paravance-37.rennes.grid5000.fr;thermos-root-devel-WordCountTopology-1-9c939909-2d48-4f7a-836e-c2272ee61307;["container_1_Consume_and_count_1"];1.25;1533256530.65342;59.67;427.14;1384.366057132;10;151
31;paravance-43.rennes.grid5000.fr;thermos-root-devel-WordCountTopology-2-59b086a5-e60d-431a-bc59-8315993508e7;["container_2_Emit_random_words_2"];1.25;1533256530.75358;36.58;269.84;282.435007377;10;149
31;paravance-50.rennes.grid5000.fr;thermos-root-devel-WordCountTopology-0-962ae3ca-e04e-46b5-a2e0-2c55ffe75502;["topology_master"];1.25;1533256530.75976;4.73;11.85;7.037351592;9;115
32;paravance-43.rennes.grid5000.fr;thermos-root-devel-WordCountTopology-2-59b086a5-e60d-431a-bc59-8315993508e7;["container_2_Emit_random_words_2"];1.25;1533256540.97108;37.5;276.71;288.365221707;10;149
32;paravance-37.rennes.grid5000.fr;thermos-root-devel-WordCountTopology-1-9c939909-2d48-4f7a-836e-c2272ee61307;["container_1_Consume_and_count_1"];1.25;1533256540.87183;61.29;437.57;1418.981133651;10;151
32;paravance-50.rennes.grid5000.fr;thermos-root-devel-WordCountTopology-0-962ae3ca-e04e-46b5-a2e0-2c55ffe75502;["topology_master"];1.25;1533256540.97842;4.81;11.96;7.037351592;9;117
33;paravance-43.rennes.grid5000.fr;thermos-root-devel-WordCountTopology-2-59b086a5-e60d-431a-bc59-8315993508e7;["container_2_Emit_random_words_2"];1.25;1533256551.18894;38.43;283.63;295.255425239;10;149
33;paravance-37.rennes.grid5000.fr;thermos-root-devel-WordCountTopology-1-9c939909-2d48-4f7a-836e-c2272ee61307;["container_1_Consume_and_count_1"];1.25;1533256551.09043;62.85;448.11;1451.330215932;10;149
33;paravance-50.rennes.grid5000.fr;thermos-root-devel-WordCountTopology-0-962ae3ca-e04e-46b5-a2e0-2c55ffe75502;["topology_master"];1.25;1533256551.19567;4.89;12.08;7.037351592;9;117
34;paravance-43.rennes.grid5000.fr;thermos-root-devel-WordCountTopology-2-59b086a5-e60d-431a-bc59-8315993508e7;["container_2_Emit_random_words_2"];1.25;1533256561.40327;39.42;291.13;302.135329794;10;149
34;paravance-50.rennes.grid5000.fr;thermos-root-devel-WordCountTopology-0-962ae3ca-e04e-46b5-a2e0-2c55ffe75502;["topology_master"];1.25;1533256561.41021;4.92;12.11;7.037351592;9;117
34;paravance-37.rennes.grid5000.fr;thermos-root-devel-WordCountTopology-1-9c939909-2d48-4f7a-836e-c2272ee61307;["container_1_Consume_and_count_1"];1.25;1533256561.30459;64.57;458.37;1483.185129473;10;151
35;paravance-50.rennes.grid5000.fr;thermos-root-devel-WordCountTopology-0-962ae3ca-e04e-46b5-a2e0-2c55ffe75502;["topology_master"];1.25;1533256571.62787;5.02;12.24;7.037351592;9;117
35;paravance-43.rennes.grid5000.fr;thermos-root-devel-WordCountTopology-2-59b086a5-e60d-431a-bc59-8315993508e7;["container_2_Emit_random_words_2"];1.25;1533256571.62287;40.13;296.17;306.982806088;10;149
35;paravance-37.rennes.grid5000.fr;thermos-root-devel-WordCountTopology-1-9c939909-2d48-4f7a-836e-c2272ee61307;["container_1_Consume_and_count_1"];1.25;1533256571.52353;65.85;469.11;1517.127234362;10;151
36;paravance-43.rennes.grid5000.fr;thermos-root-devel-WordCountTopology-2-59b086a5-e60d-431a-bc59-8315993508e7;["container_2_Emit_random_words_2"];1.25;1533256581.83935;41.09;303.12;314.202761977;10;149
36;paravance-37.rennes.grid5000.fr;thermos-root-devel-WordCountTopology-1-9c939909-2d48-4f7a-836e-c2272ee61307;["container_1_Consume_and_count_1"];1.25;1533256581.73902;67.6;479.35;1550.658235491;10;151
36;paravance-50.rennes.grid5000.fr;thermos-root-devel-WordCountTopology-0-962ae3ca-e04e-46b5-a2e0-2c55ffe75502;["topology_master"];1.25;1533256581.84533;5.08;12.36;7.037351592;9;117
37;paravance-50.rennes.grid5000.fr;thermos-root-devel-WordCountTopology-0-962ae3ca-e04e-46b5-a2e0-2c55ffe75502;["topology_master"];1.25;1533256592.06475;5.14;12.44;7.037351592;9;117
37;paravance-37.rennes.grid5000.fr;thermos-root-devel-WordCountTopology-1-9c939909-2d48-4f7a-836e-c2272ee61307;["container_1_Consume_and_count_1"];1.25;1533256591.95753;69.4;489.52;1584.083601973;10;151
37;paravance-43.rennes.grid5000.fr;thermos-root-devel-WordCountTopology-2-59b086a5-e60d-431a-bc59-8315993508e7;["container_2_Emit_random_words_2"];1.25;1533256592.0588;42.2;311.5;322.588514435;10;149
38;paravance-50.rennes.grid5000.fr;thermos-root-devel-WordCountTopology-0-962ae3ca-e04e-46b5-a2e0-2c55ffe75502;["topology_master"];1.25;1533256602.18271;5.2;12.52;7.037351592;9;117
38;paravance-43.rennes.grid5000.fr;thermos-root-devel-WordCountTopology-2-59b086a5-e60d-431a-bc59-8315993508e7;["container_2_Emit_random_words_2"];1.25;1533256602.27573;43.26;318.77;329.431400496;10;149
38;paravance-37.rennes.grid5000.fr;thermos-root-devel-WordCountTopology-1-9c939909-2d48-4f7a-836e-c2272ee61307;["container_1_Consume_and_count_1"];1.25;1533256602.17715;71.03;500.06;1616.991502046;10;151
39;paravance-43.rennes.grid5000.fr;thermos-root-devel-WordCountTopology-2-59b086a5-e60d-431a-bc59-8315993508e7;["container_2_Emit_random_words_2"];1.25;1533256612.49064;44.08;324.24;335.219457169;10;149
39;paravance-37.rennes.grid5000.fr;thermos-root-devel-WordCountTopology-1-9c939909-2d48-4f7a-836e-c2272ee61307;["container_1_Consume_and_count_1"];1.25;1533256612.39167;72.64;510.4;1646.655783179;10;151
39;paravance-50.rennes.grid5000.fr;thermos-root-devel-WordCountTopology-0-962ae3ca-e04e-46b5-a2e0-2c55ffe75502;["topology_master"];1.25;1533256612.4983;5.29;12.64;7.037351592;9;117
40;paravance-37.rennes.grid5000.fr;thermos-root-devel-WordCountTopology-1-9c939909-2d48-4f7a-836e-c2272ee61307;["container_1_Consume_and_count_1"];1.25;1533256622.60885;74.35;520.56;1679.425719072;10;151
40;paravance-43.rennes.grid5000.fr;thermos-root-devel-WordCountTopology-2-59b086a5-e60d-431a-bc59-8315993508e7;["container_2_Emit_random_words_2"];1.25;1533256622.70973;45.12;332.21;341.699988601;10;149
40;paravance-50.rennes.grid5000.fr;thermos-root-devel-WordCountTopology-0-962ae3ca-e04e-46b5-a2e0-2c55ffe75502;["topology_master"];1.25;1533256622.71701;5.31;12.66;7.037351592;9;117
41;paravance-37.rennes.grid5000.fr;thermos-root-devel-WordCountTopology-1-9c939909-2d48-4f7a-836e-c2272ee61307;["container_1_Consume_and_count_1"];1.25;1533256632.82882;75.79;531.15;1715.336604313;10;151
41;paravance-50.rennes.grid5000.fr;thermos-root-devel-WordCountTopology-0-962ae3ca-e04e-46b5-a2e0-2c55ffe75502;["topology_master"];1.25;1533256632.93589;5.41;12.8;7.037351592;9;117
41;paravance-43.rennes.grid5000.fr;thermos-root-devel-WordCountTopology-2-59b086a5-e60d-431a-bc59-8315993508e7;["container_2_Emit_random_words_2"];1.25;1533256632.92987;46.13;339.4;347.944240334;10;149
42;paravance-50.rennes.grid5000.fr;thermos-root-devel-WordCountTopology-0-962ae3ca-e04e-46b5-a2e0-2c55ffe75502;["topology_master"];1.25;1533256643.15398;5.47;12.91;7.037351592;9;117
42;paravance-37.rennes.grid5000.fr;thermos-root-devel-WordCountTopology-1-9c939909-2d48-4f7a-836e-c2272ee61307;["container_1_Consume_and_count_1"];1.25;1533256643.04807;77.58;541.29;1745.020928474;10;151
42;paravance-43.rennes.grid5000.fr;thermos-root-devel-WordCountTopology-2-59b086a5-e60d-431a-bc59-8315993508e7;["container_2_Emit_random_words_2"];1.25;1533256643.14778;47.19;347.59;356.64755469;10;149
43;paravance-37.rennes.grid5000.fr;thermos-root-devel-WordCountTopology-1-9c939909-2d48-4f7a-836e-c2272ee61307;["container_1_Consume_and_count_1"];1.25;1533256653.16646;79.19;551.53;1779.683591643;10;151
43;paravance-43.rennes.grid5000.fr;thermos-root-devel-WordCountTopology-2-59b086a5-e60d-431a-bc59-8315993508e7;["container_2_Emit_random_words_2"];1.25;1533256653.36469;48.32;356.37;365.096189069;10;149
43;paravance-50.rennes.grid5000.fr;thermos-root-devel-WordCountTopology-0-962ae3ca-e04e-46b5-a2e0-2c55ffe75502;["topology_master"];1.25;1533256653.37256;5.56;13.04;7.037351592;9;117
44;paravance-43.rennes.grid5000.fr;thermos-root-devel-WordCountTopology-2-59b086a5-e60d-431a-bc59-8315993508e7;["container_2_Emit_random_words_2"];1.25;1533256663.58058;49.3;363.9;372.139383371;10;149
44;paravance-37.rennes.grid5000.fr;thermos-root-devel-WordCountTopology-1-9c939909-2d48-4f7a-836e-c2272ee61307;["container_1_Consume_and_count_1"];1.25;1533256663.48197;80.91;561.89;1811.828460165;10;151
44;paravance-50.rennes.grid5000.fr;thermos-root-devel-WordCountTopology-0-962ae3ca-e04e-46b5-a2e0-2c55ffe75502;["topology_master"];1.25;1533256663.58837;5.59;13.07;7.037351592;9;117
45;paravance-37.rennes.grid5000.fr;thermos-root-devel-WordCountTopology-1-9c939909-2d48-4f7a-836e-c2272ee61307;["container_1_Consume_and_count_1"];1.25;1533256673.70083;82.23;572.64;1849.570203442;10;151
45;paravance-50.rennes.grid5000.fr;thermos-root-devel-WordCountTopology-0-962ae3ca-e04e-46b5-a2e0-2c55ffe75502;["topology_master"];1.25;1533256673.80769;5.68;13.19;7.037351592;9;117
45;paravance-43.rennes.grid5000.fr;thermos-root-devel-WordCountTopology-2-59b086a5-e60d-431a-bc59-8315993508e7;["container_2_Emit_random_words_2"];1.25;1533256673.8005;50.11;369.83;377.596030149;10;149
46;paravance-43.rennes.grid5000.fr;thermos-root-devel-WordCountTopology-2-59b086a5-e60d-431a-bc59-8315993508e7;["container_2_Emit_random_words_2"];1.25;1533256684.018;51.24;379.48;386.607055509;10;149
46;paravance-37.rennes.grid5000.fr;thermos-root-devel-WordCountTopology-1-9c939909-2d48-4f7a-836e-c2272ee61307;["container_1_Consume_and_count_1"];1.25;1533256683.91998;84.12;582.79;1880.232576341;10;151
46;paravance-50.rennes.grid5000.fr;thermos-root-devel-WordCountTopology-0-962ae3ca-e04e-46b5-a2e0-2c55ffe75502;["topology_master"];1.25;1533256684.02527;5.73;13.26;7.037351592;9;117
47;paravance-37.rennes.grid5000.fr;thermos-root-devel-WordCountTopology-1-9c939909-2d48-4f7a-836e-c2272ee61307;["container_1_Consume_and_count_1"];1.25;1533256694.13604;85.87;592.97;1911.791176954;10;151
47;paravance-43.rennes.grid5000.fr;thermos-root-devel-WordCountTopology-2-59b086a5-e60d-431a-bc59-8315993508e7;["container_2_Emit_random_words_2"];1.25;1533256694.23532;52.28;387.57;393.430280657;10;149
47;paravance-50.rennes.grid5000.fr;thermos-root-devel-WordCountTopology-0-962ae3ca-e04e-46b5-a2e0-2c55ffe75502;["topology_master"];1.25;1533256694.24397;5.8;13.34;7.037351592;9;117
48;paravance-37.rennes.grid5000.fr;thermos-root-devel-WordCountTopology-1-9c939909-2d48-4f7a-836e-c2272ee61307;["container_1_Consume_and_count_1"];1.25;1533256704.35308;87.51;603.35;1946.670036614;10;151
48;paravance-43.rennes.grid5000.fr;thermos-root-devel-WordCountTopology-2-59b086a5-e60d-431a-bc59-8315993508e7;["container_2_Emit_random_words_2"];1.25;1533256704.45484;53.46;396.7;402.080663081;10;149
48;paravance-50.rennes.grid5000.fr;thermos-root-devel-WordCountTopology-0-962ae3ca-e04e-46b5-a2e0-2c55ffe75502;["topology_master"];1.25;1533256704.461;5.86;13.47;7.037351592;9;117
49;paravance-37.rennes.grid5000.fr;thermos-root-devel-WordCountTopology-1-9c939909-2d48-4f7a-836e-c2272ee61307;["container_1_Consume_and_count_1"];1.25;1533256714.57078;89.44;613.45;1978.664819285;10;151
49;paravance-50.rennes.grid5000.fr;thermos-root-devel-WordCountTopology-0-962ae3ca-e04e-46b5-a2e0-2c55ffe75502;["topology_master"];1.25;1533256714.67831;5.95;13.6;7.037351592;9;117
49;paravance-43.rennes.grid5000.fr;thermos-root-devel-WordCountTopology-2-59b086a5-e60d-431a-bc59-8315993508e7;["container_2_Emit_random_words_2"];1.25;1533256714.67181;54.67;405.98;410.963505036;10;149
50;paravance-50.rennes.grid5000.fr;thermos-root-devel-WordCountTopology-0-962ae3ca-e04e-46b5-a2e0-2c55ffe75502;["topology_master"];1.25;1533256724.89595;5.98;13.63;7.037351592;9;117
50;paravance-37.rennes.grid5000.fr;thermos-root-devel-WordCountTopology-1-9c939909-2d48-4f7a-836e-c2272ee61307;["container_1_Consume_and_count_1"];1.25;1533256724.78917;91.28;623.59;2008.924227053;10;151
50;paravance-43.rennes.grid5000.fr;thermos-root-devel-WordCountTopology-2-59b086a5-e60d-431a-bc59-8315993508e7;["container_2_Emit_random_words_2"];1.25;1533256724.88817;55.73;414.36;418.435126992;10;149
51;paravance-37.rennes.grid5000.fr;thermos-root-devel-WordCountTopology-1-9c939909-2d48-4f7a-836e-c2272ee61307;["container_1_Consume_and_count_1"];1.25;1533256735.00612;92.96;633.89;2043.271742668;10;151
51;paravance-50.rennes.grid5000.fr;thermos-root-devel-WordCountTopology-0-962ae3ca-e04e-46b5-a2e0-2c55ffe75502;["topology_master"];1.25;1533256735.11334;6.07;13.76;7.037351592;9;117
51;paravance-43.rennes.grid5000.fr;thermos-root-devel-WordCountTopology-2-59b086a5-e60d-431a-bc59-8315993508e7;["container_2_Emit_random_words_2"];1.25;1533256735.10675;56.78;422.36;426.404420565;10;149
52;paravance-37.rennes.grid5000.fr;thermos-root-devel-WordCountTopology-1-9c939909-2d48-4f7a-836e-c2272ee61307;["container_1_Consume_and_count_1"];1.25;1533256745.22497;94.68;644.07;2073.329804645;10;151
52;paravance-50.rennes.grid5000.fr;thermos-root-devel-WordCountTopology-0-962ae3ca-e04e-46b5-a2e0-2c55ffe75502;["topology_master"];1.25;1533256745.33059;6.12;13.83;7.037351592;9;117
52;paravance-43.rennes.grid5000.fr;thermos-root-devel-WordCountTopology-2-59b086a5-e60d-431a-bc59-8315993508e7;["container_2_Emit_random_words_2"];1.25;1533256745.32425;57.74;430.53;433.534957388;10;149
53;paravance-37.rennes.grid5000.fr;thermos-root-devel-WordCountTopology-1-9c939909-2d48-4f7a-836e-c2272ee61307;["container_1_Consume_and_count_1"];1.25;1533256755.44048;96.48;654.2;2103.818220366;10;151
53;paravance-50.rennes.grid5000.fr;thermos-root-devel-WordCountTopology-0-962ae3ca-e04e-46b5-a2e0-2c55ffe75502;["topology_master"];1.25;1533256755.54888;6.19;13.93;7.037351592;9;117
53;paravance-43.rennes.grid5000.fr;thermos-root-devel-WordCountTopology-2-59b086a5-e60d-431a-bc59-8315993508e7;["container_2_Emit_random_words_2"];1.25;1533256755.54182;58.85;439.24;441.901606569;10;149
54;paravance-37.rennes.grid5000.fr;thermos-root-devel-WordCountTopology-1-9c939909-2d48-4f7a-836e-c2272ee61307;["container_1_Consume_and_count_1"];1.25;1533256765.65898;97.84;664.91;2137.940147775;10;151
54;paravance-43.rennes.grid5000.fr;thermos-root-devel-WordCountTopology-2-59b086a5-e60d-431a-bc59-8315993508e7;["container_2_Emit_random_words_2"];1.25;1533256765.75886;59.7;445.64;447.279594984;10;149
54;paravance-50.rennes.grid5000.fr;thermos-root-devel-WordCountTopology-0-962ae3ca-e04e-46b5-a2e0-2c55ffe75502;["topology_master"];1.25;1533256765.76634;6.26;14.03;7.037351592;9;117
55;paravance-37.rennes.grid5000.fr;thermos-root-devel-WordCountTopology-1-9c939909-2d48-4f7a-836e-c2272ee61307;["container_1_Consume_and_count_1"];1.25;1533256775.87546;99.68;675.05;2171.34645006;10;151
55;paravance-43.rennes.grid5000.fr;thermos-root-devel-WordCountTopology-2-59b086a5-e60d-431a-bc59-8315993508e7;["container_2_Emit_random_words_2"];1.25;1533256775.97549;60.77;453.93;454.443205085;10;149
55;paravance-50.rennes.grid5000.fr;thermos-root-devel-WordCountTopology-0-962ae3ca-e04e-46b5-a2e0-2c55ffe75502;["topology_master"];1.25;1533256775.98326;6.35;14.16;7.037351592;9;117
56;paravance-37.rennes.grid5000.fr;thermos-root-devel-WordCountTopology-1-9c939909-2d48-4f7a-836e-c2272ee61307;["container_1_Consume_and_count_1"];1.25;1533256786.09313;101.45;685.35;2203.510293121;10;151
56;paravance-43.rennes.grid5000.fr;thermos-root-devel-WordCountTopology-2-59b086a5-e60d-431a-bc59-8315993508e7;["container_2_Emit_random_words_2"];1.25;1533256786.1946;62.0;463.5;463.687740745;10;149
56;paravance-50.rennes.grid5000.fr;thermos-root-devel-WordCountTopology-0-962ae3ca-e04e-46b5-a2e0-2c55ffe75502;["topology_master"];1.25;1533256786.20076;6.37;14.18;7.037351592;9;117
57;paravance-50.rennes.grid5000.fr;thermos-root-devel-WordCountTopology-0-962ae3ca-e04e-46b5-a2e0-2c55ffe75502;["topology_master"];1.25;1533256796.31934;6.46;14.3;7.037351592;9;117
57;paravance-37.rennes.grid5000.fr;thermos-root-devel-WordCountTopology-1-9c939909-2d48-4f7a-836e-c2272ee61307;["container_1_Consume_and_count_1"];1.25;1533256796.31112;103.32;695.36;2233.850886742;10;151
57;paravance-43.rennes.grid5000.fr;thermos-root-devel-WordCountTopology-2-59b086a5-e60d-431a-bc59-8315993508e7;["container_2_Emit_random_words_2"];1.25;1533256796.41183;63.08;471.95;471.687192569;10;149
58;paravance-37.rennes.grid5000.fr;thermos-root-devel-WordCountTopology-1-9c939909-2d48-4f7a-836e-c2272ee61307;["container_1_Consume_and_count_1"];1.25;1533256806.52615;105.08;705.48;2263.790923046;10;151
58;paravance-50.rennes.grid5000.fr;thermos-root-devel-WordCountTopology-0-962ae3ca-e04e-46b5-a2e0-2c55ffe75502;["topology_master"];1.25;1533256806.63343;6.52;14.37;7.037351592;9;117
58;paravance-43.rennes.grid5000.fr;thermos-root-devel-WordCountTopology-2-59b086a5-e60d-431a-bc59-8315993508e7;["container_2_Emit_random_words_2"];1.25;1533256806.62548;64.08;479.89;479.725757977;10;149
59;paravance-43.rennes.grid5000.fr;thermos-root-devel-WordCountTopology-2-59b086a5-e60d-431a-bc59-8315993508e7;["container_2_Emit_random_words_2"];1.25;1533256816.84302;65.32;489.49;488.528129308;10;149
59;paravance-37.rennes.grid5000.fr;thermos-root-devel-WordCountTopology-1-9c939909-2d48-4f7a-836e-c2272ee61307;["container_1_Consume_and_count_1"];1.25;1533256816.74442;106.97;715.55;2293.92485228;10;151
59;paravance-50.rennes.grid5000.fr;thermos-root-devel-WordCountTopology-0-962ae3ca-e04e-46b5-a2e0-2c55ffe75502;["topology_master"];1.25;1533256816.85156;6.59;14.48;7.037351592;9;117
60;paravance-37.rennes.grid5000.fr;thermos-root-devel-WordCountTopology-1-9c939909-2d48-4f7a-836e-c2272ee61307;["container_1_Consume_and_count_1"];1.25;1533256826.96042;108.87;725.64;2323.205699717;10;151
60;paravance-50.rennes.grid5000.fr;thermos-root-devel-WordCountTopology-0-962ae3ca-e04e-46b5-a2e0-2c55ffe75502;["topology_master"];1.25;1533256827.06798;6.65;14.56;7.037351592;9;117
60;paravance-43.rennes.grid5000.fr;thermos-root-devel-WordCountTopology-2-59b086a5-e60d-431a-bc59-8315993508e7;["container_2_Emit_random_words_2"];1.25;1533256827.06122;66.55;498.77;497.875498523;10;149
