{
  "status": "success",
  "executiontime": 0.00022792816162109375,
  "message": "",
  "result": {
    "bolts": {
      "Consume_and_count": [
        "container_1_Consume_and_count_1"
      ]
    },
    "instances": {
      "container_2_Emit_random_words_2": {
        "stmgrId": "stmgr-2",
        "logfile": "http://paravance-6.rennes.grid5000.fr:31486/file/log-files/container_2_Emit_random_words_2.log.0",
        "id": "container_2_Emit_random_words_2",
        "name": "Emit_random_words"
      },
      "container_1_Consume_and_count_1": {
        "stmgrId": "stmgr-1",
        "logfile": "http://paravance-8.rennes.grid5000.fr:31399/file/log-files/container_1_Consume_and_count_1.log.0",
        "id": "container_1_Consume_and_count_1",
        "name": "Consume_and_count"
      }
    },
    "instance_groups": {
      "container_1_Consume_and": [
        "container_1_Consume_and_count_1"
      ],
      "container_2_Emit_random": [
        "container_2_Emit_random_words_2"
      ]
    },
    "spouts": {
      "Emit_random_words": [
        "container_2_Emit_random_words_2"
      ]
    },
    "config": {
      "topology.message.timeout.secs": "30",
      "topology.team.environment": "devel",
      "topology.serializer.classname": "org.apache.heron.streamlet.impl.KryoSerializer",
      "topology.team.name": "root",
      "topology.debug": "false",
      "topology.max.spout.pending": "100",
      "topology.container.padding.percentage": "100",
      "topology.enable.message.timeouts": "true",
      "topology.component.parallelism": "1",
      "topology.name": "WordCountTopology",
      "topology.stmgrs": "2",
      "topology.reliability.mode": "ATMOST_ONCE"
    },
    "stmgrs": {
      "stmgr-1": {
        "cwd": "/var/lib/mesos/slaves/74886cb1-4d7a-4e03-a554-38ed74562348-S2/frameworks/75deb08a-eb1b-415c-8b2c-e922be5f7d98-0000/executors/thermos-root-devel-WordCountTopology-1-1945ee81-2e67-4b4c-9149-b1ce59425023/runs/07a48d25-a042-4fc4-9ecc-fd6547d51f17/sandbox",
        "host": "paravance-8.rennes.grid5000.fr",
        "joburl": "http://paravance-8.rennes.grid5000.fr:31399/browse/",
        "shell_port": 31399,
        "logfiles": "http://paravance-8.rennes.grid5000.fr:31399/browse/log-files",
        "pid": 2844,
        "id": "stmgr-1",
        "instance_ids": [
          "container_1_Consume_and_count_1"
        ],
        "port": 31435
      },
      "stmgr-2": {
        "cwd": "/var/lib/mesos/slaves/74886cb1-4d7a-4e03-a554-38ed74562348-S0/frameworks/75deb08a-eb1b-415c-8b2c-e922be5f7d98-0000/executors/thermos-root-devel-WordCountTopology-2-e016ede4-49d8-4d20-87e4-9b4d0d18da9f/runs/b04a6d63-0f69-4db0-902b-4b574444bddf/sandbox",
        "host": "paravance-6.rennes.grid5000.fr",
        "joburl": "http://paravance-6.rennes.grid5000.fr:31486/browse/",
        "shell_port": 31486,
        "logfiles": "http://paravance-6.rennes.grid5000.fr:31486/browse/log-files",
        "pid": 2763,
        "id": "stmgr-2",
        "instance_ids": [
          "container_2_Emit_random_words_2"
        ],
        "port": 31499
      }
    }
  },
  "tracker_version": "0.17.8-61-gd7c8c62"
}