mesure_id;slave_id;executor_id;heron_instances;cpus_limit;timestamp_A;cpus_system_time_secs_A;cpus_user_time_secs_A;cpus_throttled_time_secs_A;processes;threads
0;paravance-1.rennes.grid5000.fr;thermos-root-devel-WordCountTopology-2-089b93b5-6892-4c03-9a75-4c06ab5b4cd3;["container_2_Emit_random_words_2"];3.25;1533045196.83726;36.36;149.09;9.766661202;10;149
0;paravance-71.rennes.grid5000.fr;thermos-root-devel-WordCountTopology-1-7cdc7964-8608-4154-95e5-b14bd960e97d;["container_1_Consume_and_count_1"];3.25;1533045196.93017;62.43;214.23;50.209076307;10;151
0;paravance-72.rennes.grid5000.fr;thermos-root-devel-WordCountTopology-0-290f1108-1180-445a-861b-09f5db07c3f1;["topology_master"];3.25;1533045196.99659;2.35;7.95;0.174419483;9;117
1;paravance-71.rennes.grid5000.fr;thermos-root-devel-WordCountTopology-1-7cdc7964-8608-4154-95e5-b14bd960e97d;["container_1_Consume_and_count_1"];3.25;1533045207.14754;69.68;238.72;54.798637509;10;151
1;paravance-1.rennes.grid5000.fr;thermos-root-devel-WordCountTopology-2-089b93b5-6892-4c03-9a75-4c06ab5b4cd3;["container_2_Emit_random_words_2"];3.25;1533045207.15454;40.43;164.99;9.766661202;10;149
1;paravance-72.rennes.grid5000.fr;thermos-root-devel-WordCountTopology-0-290f1108-1180-445a-861b-09f5db07c3f1;["topology_master"];3.25;1533045207.21386;2.41;8.08;0.174419483;9;117
2;paravance-71.rennes.grid5000.fr;thermos-root-devel-WordCountTopology-1-7cdc7964-8608-4154-95e5-b14bd960e97d;["container_1_Consume_and_count_1"];3.25;1533045217.36412;76.82;263.28;59.82726027;10;151
2;paravance-1.rennes.grid5000.fr;thermos-root-devel-WordCountTopology-2-089b93b5-6892-4c03-9a75-4c06ab5b4cd3;["container_2_Emit_random_words_2"];3.25;1533045217.37248;44.29;179.82;9.766661202;10;149
2;paravance-72.rennes.grid5000.fr;thermos-root-devel-WordCountTopology-0-290f1108-1180-445a-861b-09f5db07c3f1;["topology_master"];3.25;1533045217.43164;2.51;8.22;0.174419483;9;117
3;paravance-72.rennes.grid5000.fr;thermos-root-devel-WordCountTopology-0-290f1108-1180-445a-861b-09f5db07c3f1;["topology_master"];3.25;1533045227.5507;2.58;8.3;0.174419483;9;117
3;paravance-1.rennes.grid5000.fr;thermos-root-devel-WordCountTopology-2-089b93b5-6892-4c03-9a75-4c06ab5b4cd3;["container_2_Emit_random_words_2"];3.25;1533045227.59115;47.73;192.92;9.766661202;10;149
3;paravance-71.rennes.grid5000.fr;thermos-root-devel-WordCountTopology-1-7cdc7964-8608-4154-95e5-b14bd960e97d;["container_1_Consume_and_count_1"];3.25;1533045227.58491;83.2;288.86;71.253033314;10;151
4;paravance-1.rennes.grid5000.fr;thermos-root-devel-WordCountTopology-2-089b93b5-6892-4c03-9a75-4c06ab5b4cd3;["container_2_Emit_random_words_2"];3.25;1533045237.80841;51.51;207.07;9.766661202;10;149
4;paravance-71.rennes.grid5000.fr;thermos-root-devel-WordCountTopology-1-7cdc7964-8608-4154-95e5-b14bd960e97d;["container_1_Consume_and_count_1"];3.25;1533045237.80294;90.4;313.3;78.973769119;10;151
4;paravance-72.rennes.grid5000.fr;thermos-root-devel-WordCountTopology-0-290f1108-1180-445a-861b-09f5db07c3f1;["topology_master"];3.25;1533045237.86749;2.64;8.38;0.174419483;9;117
5;paravance-71.rennes.grid5000.fr;thermos-root-devel-WordCountTopology-1-7cdc7964-8608-4154-95e5-b14bd960e97d;["container_1_Consume_and_count_1"];3.25;1533045248.01925;97.47;337.65;84.182062874;10;151
5;paravance-1.rennes.grid5000.fr;thermos-root-devel-WordCountTopology-2-089b93b5-6892-4c03-9a75-4c06ab5b4cd3;["container_2_Emit_random_words_2"];3.25;1533045248.0266;55.57;222.64;9.766661202;10;149
5;paravance-72.rennes.grid5000.fr;thermos-root-devel-WordCountTopology-0-290f1108-1180-445a-861b-09f5db07c3f1;["topology_master"];3.25;1533045248.08544;2.7;8.46;0.174419483;9;117
6;paravance-71.rennes.grid5000.fr;thermos-root-devel-WordCountTopology-1-7cdc7964-8608-4154-95e5-b14bd960e97d;["container_1_Consume_and_count_1"];3.25;1533045258.23668;104.55;362.14;90.201962147;10;151
6;paravance-1.rennes.grid5000.fr;thermos-root-devel-WordCountTopology-2-089b93b5-6892-4c03-9a75-4c06ab5b4cd3;["container_2_Emit_random_words_2"];3.25;1533045258.24453;59.58;238.34;9.766661202;10;149
6;paravance-72.rennes.grid5000.fr;thermos-root-devel-WordCountTopology-0-290f1108-1180-445a-861b-09f5db07c3f1;["topology_master"];3.25;1533045258.30303;2.82;8.65;0.174419483;9;117
7;paravance-71.rennes.grid5000.fr;thermos-root-devel-WordCountTopology-1-7cdc7964-8608-4154-95e5-b14bd960e97d;["container_1_Consume_and_count_1"];3.25;1533045268.45382;111.77;386.33;94.178200797;10;151
7;paravance-1.rennes.grid5000.fr;thermos-root-devel-WordCountTopology-2-089b93b5-6892-4c03-9a75-4c06ab5b4cd3;["container_2_Emit_random_words_2"];3.25;1533045268.46265;63.52;253.95;9.766661202;10;149
7;paravance-72.rennes.grid5000.fr;thermos-root-devel-WordCountTopology-0-290f1108-1180-445a-861b-09f5db07c3f1;["topology_master"];3.25;1533045268.52048;2.85;8.69;0.174419483;9;117
8;paravance-71.rennes.grid5000.fr;thermos-root-devel-WordCountTopology-1-7cdc7964-8608-4154-95e5-b14bd960e97d;["container_1_Consume_and_count_1"];3.25;1533045278.67213;118.86;410.63;98.162338831;10;151
8;paravance-72.rennes.grid5000.fr;thermos-root-devel-WordCountTopology-0-290f1108-1180-445a-861b-09f5db07c3f1;["topology_master"];3.25;1533045278.73692;2.94;8.83;0.174419483;9;117
8;paravance-1.rennes.grid5000.fr;thermos-root-devel-WordCountTopology-2-089b93b5-6892-4c03-9a75-4c06ab5b4cd3;["container_2_Emit_random_words_2"];3.25;1533045278.6793;67.66;269.7;9.766661202;10;149
9;paravance-71.rennes.grid5000.fr;thermos-root-devel-WordCountTopology-1-7cdc7964-8608-4154-95e5-b14bd960e97d;["container_1_Consume_and_count_1"];3.25;1533045288.88964;125.92;435.18;103.041811273;10;151
9;paravance-1.rennes.grid5000.fr;thermos-root-devel-WordCountTopology-2-089b93b5-6892-4c03-9a75-4c06ab5b4cd3;["container_2_Emit_random_words_2"];3.25;1533045288.89513;71.7;284.89;9.766661202;10;149
9;paravance-72.rennes.grid5000.fr;thermos-root-devel-WordCountTopology-0-290f1108-1180-445a-861b-09f5db07c3f1;["topology_master"];3.25;1533045288.95436;3.0;8.9;0.174419483;9;117
10;paravance-1.rennes.grid5000.fr;thermos-root-devel-WordCountTopology-2-089b93b5-6892-4c03-9a75-4c06ab5b4cd3;["container_2_Emit_random_words_2"];3.25;1533045299.10875;75.5;299.89;9.766661202;10;149
10;paravance-71.rennes.grid5000.fr;thermos-root-devel-WordCountTopology-1-7cdc7964-8608-4154-95e5-b14bd960e97d;["container_1_Consume_and_count_1"];3.25;1533045299.10202;132.82;459.93;110.076440479;10;151
10;paravance-72.rennes.grid5000.fr;thermos-root-devel-WordCountTopology-0-290f1108-1180-445a-861b-09f5db07c3f1;["topology_master"];3.25;1533045299.16908;3.06;8.98;0.174419483;9;117
11;paravance-72.rennes.grid5000.fr;thermos-root-devel-WordCountTopology-0-290f1108-1180-445a-861b-09f5db07c3f1;["topology_master"];3.25;1533045309.38614;3.12;9.06;0.174419483;9;117
11;paravance-71.rennes.grid5000.fr;thermos-root-devel-WordCountTopology-1-7cdc7964-8608-4154-95e5-b14bd960e97d;["container_1_Consume_and_count_1"];3.25;1533045309.32169;138.7;484.92;118.104005268;10;151
11;paravance-1.rennes.grid5000.fr;thermos-root-devel-WordCountTopology-2-089b93b5-6892-4c03-9a75-4c06ab5b4cd3;["container_2_Emit_random_words_2"];3.25;1533045309.32843;78.96;312.72;9.766661202;10;149
12;paravance-1.rennes.grid5000.fr;thermos-root-devel-WordCountTopology-2-089b93b5-6892-4c03-9a75-4c06ab5b4cd3;["container_2_Emit_random_words_2"];3.25;1533045319.54531;82.88;327.83;9.782720896;10;149
12;paravance-71.rennes.grid5000.fr;thermos-root-devel-WordCountTopology-1-7cdc7964-8608-4154-95e5-b14bd960e97d;["container_1_Consume_and_count_1"];3.25;1533045319.53923;145.59;509.69;124.471594999;10;151
12;paravance-72.rennes.grid5000.fr;thermos-root-devel-WordCountTopology-0-290f1108-1180-445a-861b-09f5db07c3f1;["topology_master"];3.25;1533045319.60433;3.24;9.35;0.174419483;9;117
13;paravance-71.rennes.grid5000.fr;thermos-root-devel-WordCountTopology-1-7cdc7964-8608-4154-95e5-b14bd960e97d;["container_1_Consume_and_count_1"];3.25;1533045329.7547;152.34;534.68;128.445149885;10;151
13;paravance-1.rennes.grid5000.fr;thermos-root-devel-WordCountTopology-2-089b93b5-6892-4c03-9a75-4c06ab5b4cd3;["container_2_Emit_random_words_2"];3.25;1533045329.76186;87.18;344.21;9.782720896;10;149
13;paravance-72.rennes.grid5000.fr;thermos-root-devel-WordCountTopology-0-290f1108-1180-445a-861b-09f5db07c3f1;["topology_master"];3.25;1533045329.82075;3.27;9.37;0.174419483;9;117
14;paravance-71.rennes.grid5000.fr;thermos-root-devel-WordCountTopology-1-7cdc7964-8608-4154-95e5-b14bd960e97d;["container_1_Consume_and_count_1"];3.25;1533045339.97285;158.49;560.46;137.76740241;10;151
14;paravance-1.rennes.grid5000.fr;thermos-root-devel-WordCountTopology-2-089b93b5-6892-4c03-9a75-4c06ab5b4cd3;["container_2_Emit_random_words_2"];3.25;1533045339.97963;90.98;358.74;9.782720896;10;149
15;paravance-72.rennes.grid5000.fr;thermos-root-devel-WordCountTopology-0-290f1108-1180-445a-861b-09f5db07c3f1;["topology_master"];3.25;1533045350.25396;3.42;9.61;0.174419483;9;117
15;paravance-71.rennes.grid5000.fr;thermos-root-devel-WordCountTopology-1-7cdc7964-8608-4154-95e5-b14bd960e97d;["container_1_Consume_and_count_1"];3.25;1533045350.18933;163.68;586.28;151.097767016;10;151
15;paravance-1.rennes.grid5000.fr;thermos-root-devel-WordCountTopology-2-089b93b5-6892-4c03-9a75-4c06ab5b4cd3;["container_2_Emit_random_words_2"];3.25;1533045350.19657;94.07;370.78;9.782720896;10;149
16;paravance-72.rennes.grid5000.fr;thermos-root-devel-WordCountTopology-0-290f1108-1180-445a-861b-09f5db07c3f1;["topology_master"];3.25;1533045360.46952;3.48;9.7;0.174419483;9;117
16;paravance-71.rennes.grid5000.fr;thermos-root-devel-WordCountTopology-1-7cdc7964-8608-4154-95e5-b14bd960e97d;["container_1_Consume_and_count_1"];3.25;1533045360.40418;169.22;611.62;163.062434378;10;151
16;paravance-1.rennes.grid5000.fr;thermos-root-devel-WordCountTopology-2-089b93b5-6892-4c03-9a75-4c06ab5b4cd3;["container_2_Emit_random_words_2"];3.25;1533045360.41239;97.21;382.46;9.782720896;10;149
17;paravance-71.rennes.grid5000.fr;thermos-root-devel-WordCountTopology-1-7cdc7964-8608-4154-95e5-b14bd960e97d;["container_1_Consume_and_count_1"];3.25;1533045370.61832;176.31;636.11;167.609633649;10;151
17;paravance-72.rennes.grid5000.fr;thermos-root-devel-WordCountTopology-0-290f1108-1180-445a-861b-09f5db07c3f1;["topology_master"];3.25;1533045370.68503;3.54;9.78;0.174419483;9;117
17;paravance-1.rennes.grid5000.fr;thermos-root-devel-WordCountTopology-2-089b93b5-6892-4c03-9a75-4c06ab5b4cd3;["container_2_Emit_random_words_2"];3.25;1533045370.62705;101.09;398.26;9.782720896;10;149
18;paravance-1.rennes.grid5000.fr;thermos-root-devel-WordCountTopology-2-089b93b5-6892-4c03-9a75-4c06ab5b4cd3;["container_2_Emit_random_words_2"];3.25;1533045380.84236;105.05;413.82;9.782720896;10;149
18;paravance-72.rennes.grid5000.fr;thermos-root-devel-WordCountTopology-0-290f1108-1180-445a-861b-09f5db07c3f1;["topology_master"];3.25;1533045380.90159;3.66;9.98;0.174419483;9;117
18;paravance-71.rennes.grid5000.fr;thermos-root-devel-WordCountTopology-1-7cdc7964-8608-4154-95e5-b14bd960e97d;["container_1_Consume_and_count_1"];3.25;1533045380.83481;183.2;660.82;172.256068727;10;151
19;paravance-71.rennes.grid5000.fr;thermos-root-devel-WordCountTopology-1-7cdc7964-8608-4154-95e5-b14bd960e97d;["container_1_Consume_and_count_1"];3.25;1533045391.05467;189.83;685.78;181.113550314;10;151
19;paravance-1.rennes.grid5000.fr;thermos-root-devel-WordCountTopology-2-089b93b5-6892-4c03-9a75-4c06ab5b4cd3;["container_2_Emit_random_words_2"];3.25;1533045391.06336;108.71;427.6;9.782720896;10;149
19;paravance-72.rennes.grid5000.fr;thermos-root-devel-WordCountTopology-0-290f1108-1180-445a-861b-09f5db07c3f1;["topology_master"];3.25;1533045391.12229;3.68;10.01;0.174419483;9;117
20;paravance-72.rennes.grid5000.fr;thermos-root-devel-WordCountTopology-0-290f1108-1180-445a-861b-09f5db07c3f1;["topology_master"];3.25;1533045401.33874;3.78;10.14;0.174419483;9;117
20;paravance-1.rennes.grid5000.fr;thermos-root-devel-WordCountTopology-2-089b93b5-6892-4c03-9a75-4c06ab5b4cd3;["container_2_Emit_random_words_2"];3.25;1533045401.28112;112.66;443.18;9.782720896;10;149
20;paravance-71.rennes.grid5000.fr;thermos-root-devel-WordCountTopology-1-7cdc7964-8608-4154-95e5-b14bd960e97d;["container_1_Consume_and_count_1"];3.25;1533045401.27339;196.63;710.54;186.353661216;10;151
21;paravance-71.rennes.grid5000.fr;thermos-root-devel-WordCountTopology-1-7cdc7964-8608-4154-95e5-b14bd960e97d;["container_1_Consume_and_count_1"];3.25;1533045411.48898;203.42;734.9;191.117652677;10;151
21;paravance-72.rennes.grid5000.fr;thermos-root-devel-WordCountTopology-0-290f1108-1180-445a-861b-09f5db07c3f1;["topology_master"];3.25;1533045411.55576;3.83;10.21;0.174419483;9;117
21;paravance-1.rennes.grid5000.fr;thermos-root-devel-WordCountTopology-2-089b93b5-6892-4c03-9a75-4c06ab5b4cd3;["container_2_Emit_random_words_2"];3.25;1533045411.49775;116.79;459.19;9.782720896;10;149
22;paravance-71.rennes.grid5000.fr;thermos-root-devel-WordCountTopology-1-7cdc7964-8608-4154-95e5-b14bd960e97d;["container_1_Consume_and_count_1"];3.25;1533045421.70655;210.05;759.96;197.127848029;10;151
22;paravance-1.rennes.grid5000.fr;thermos-root-devel-WordCountTopology-2-089b93b5-6892-4c03-9a75-4c06ab5b4cd3;["container_2_Emit_random_words_2"];3.25;1533045421.71359;120.84;474.64;9.782720896;10;149
22;paravance-72.rennes.grid5000.fr;thermos-root-devel-WordCountTopology-0-290f1108-1180-445a-861b-09f5db07c3f1;["topology_master"];3.25;1533045421.77197;3.89;10.28;0.174419483;9;117
23;paravance-71.rennes.grid5000.fr;thermos-root-devel-WordCountTopology-1-7cdc7964-8608-4154-95e5-b14bd960e97d;["container_1_Consume_and_count_1"];3.25;1533045431.92244;216.7;784.85;206.579022245;10;151
23;paravance-72.rennes.grid5000.fr;thermos-root-devel-WordCountTopology-0-290f1108-1180-445a-861b-09f5db07c3f1;["topology_master"];3.25;1533045431.98933;3.95;10.36;0.174419483;9;117
23;paravance-1.rennes.grid5000.fr;thermos-root-devel-WordCountTopology-2-089b93b5-6892-4c03-9a75-4c06ab5b4cd3;["container_2_Emit_random_words_2"];3.25;1533045431.93079;124.46;488.12;9.782720896;10;149
24;paravance-71.rennes.grid5000.fr;thermos-root-devel-WordCountTopology-1-7cdc7964-8608-4154-95e5-b14bd960e97d;["container_1_Consume_and_count_1"];3.25;1533045442.14046;223.49;809.78;214.727139813;10;151
24;paravance-1.rennes.grid5000.fr;thermos-root-devel-WordCountTopology-2-089b93b5-6892-4c03-9a75-4c06ab5b4cd3;["container_2_Emit_random_words_2"];3.25;1533045442.14805;128.15;502.34;9.782720896;10;149
24;paravance-72.rennes.grid5000.fr;thermos-root-devel-WordCountTopology-0-290f1108-1180-445a-861b-09f5db07c3f1;["topology_master"];3.25;1533045442.20747;4.05;10.52;0.174419483;9;117
25;paravance-71.rennes.grid5000.fr;thermos-root-devel-WordCountTopology-1-7cdc7964-8608-4154-95e5-b14bd960e97d;["container_1_Consume_and_count_1"];3.25;1533045452.35699;230.63;834.39;221.172038762;10;151
25;paravance-72.rennes.grid5000.fr;thermos-root-devel-WordCountTopology-0-290f1108-1180-445a-861b-09f5db07c3f1;["topology_master"];3.25;1533045452.42367;4.07;10.55;0.174419483;9;117
25;paravance-1.rennes.grid5000.fr;thermos-root-devel-WordCountTopology-2-089b93b5-6892-4c03-9a75-4c06ab5b4cd3;["container_2_Emit_random_words_2"];3.25;1533045452.36572;131.99;517.39;9.782720896;10;149
26;paravance-71.rennes.grid5000.fr;thermos-root-devel-WordCountTopology-1-7cdc7964-8608-4154-95e5-b14bd960e97d;["container_1_Consume_and_count_1"];3.25;1533045462.57497;237.94;858.56;225.455256314;10;151
26;paravance-1.rennes.grid5000.fr;thermos-root-devel-WordCountTopology-2-089b93b5-6892-4c03-9a75-4c06ab5b4cd3;["container_2_Emit_random_words_2"];3.25;1533045462.58272;135.98;533.01;9.782720896;10;149
26;paravance-72.rennes.grid5000.fr;thermos-root-devel-WordCountTopology-0-290f1108-1180-445a-861b-09f5db07c3f1;["topology_master"];3.25;1533045462.64044;4.16;10.68;0.174419483;9;117
27;paravance-71.rennes.grid5000.fr;thermos-root-devel-WordCountTopology-1-7cdc7964-8608-4154-95e5-b14bd960e97d;["container_1_Consume_and_count_1"];3.25;1533045472.79232;244.9;883.35;231.511002923;10;151
27;paravance-72.rennes.grid5000.fr;thermos-root-devel-WordCountTopology-0-290f1108-1180-445a-861b-09f5db07c3f1;["topology_master"];3.25;1533045472.85895;4.22;10.75;0.174419483;9;117
27;paravance-1.rennes.grid5000.fr;thermos-root-devel-WordCountTopology-2-089b93b5-6892-4c03-9a75-4c06ab5b4cd3;["container_2_Emit_random_words_2"];3.25;1533045472.80078;139.95;548.66;9.782720896;10;149
28;paravance-71.rennes.grid5000.fr;thermos-root-devel-WordCountTopology-1-7cdc7964-8608-4154-95e5-b14bd960e97d;["container_1_Consume_and_count_1"];3.25;1533045483.01044;251.42;908.72;240.287534252;10;151
28;paravance-72.rennes.grid5000.fr;thermos-root-devel-WordCountTopology-0-290f1108-1180-445a-861b-09f5db07c3f1;["topology_master"];3.25;1533045483.0769;4.29;10.83;0.174419483;9;117
28;paravance-1.rennes.grid5000.fr;thermos-root-devel-WordCountTopology-2-089b93b5-6892-4c03-9a75-4c06ab5b4cd3;["container_2_Emit_random_words_2"];3.25;1533045483.01815;143.66;562.91;9.782720896;10;149
29;paravance-71.rennes.grid5000.fr;thermos-root-devel-WordCountTopology-1-7cdc7964-8608-4154-95e5-b14bd960e97d;["container_1_Consume_and_count_1"];3.25;1533045493.22653;258.32;933.58;247.358034711;10;151
29;paravance-1.rennes.grid5000.fr;thermos-root-devel-WordCountTopology-2-089b93b5-6892-4c03-9a75-4c06ab5b4cd3;["container_2_Emit_random_words_2"];3.25;1533045493.23652;147.49;577.32;9.782720896;10;149
29;paravance-72.rennes.grid5000.fr;thermos-root-devel-WordCountTopology-0-290f1108-1180-445a-861b-09f5db07c3f1;["topology_master"];3.25;1533045493.29448;4.4;10.97;0.174419483;9;117
30;paravance-71.rennes.grid5000.fr;thermos-root-devel-WordCountTopology-1-7cdc7964-8608-4154-95e5-b14bd960e97d;["container_1_Consume_and_count_1"];3.25;1533045503.44447;264.88;958.8;254.426926683;10;151
30;paravance-72.rennes.grid5000.fr;thermos-root-devel-WordCountTopology-0-290f1108-1180-445a-861b-09f5db07c3f1;["topology_master"];3.25;1533045503.51063;4.46;11.1;0.174419483;9;117
30;paravance-1.rennes.grid5000.fr;thermos-root-devel-WordCountTopology-2-089b93b5-6892-4c03-9a75-4c06ab5b4cd3;["container_2_Emit_random_words_2"];3.25;1533045503.45388;151.28;591.89;9.782720896;10;149
31;paravance-71.rennes.grid5000.fr;thermos-root-devel-WordCountTopology-1-7cdc7964-8608-4154-95e5-b14bd960e97d;["container_1_Consume_and_count_1"];3.25;1533045513.6619;272.07;983.29;259.789425754;10;151
31;paravance-72.rennes.grid5000.fr;thermos-root-devel-WordCountTopology-0-290f1108-1180-445a-861b-09f5db07c3f1;["topology_master"];3.25;1533045513.73005;4.52;11.19;0.174419483;9;117
31;paravance-1.rennes.grid5000.fr;thermos-root-devel-WordCountTopology-2-089b93b5-6892-4c03-9a75-4c06ab5b4cd3;["container_2_Emit_random_words_2"];3.25;1533045513.67082;155.18;607.41;9.782720896;10;149
32;paravance-71.rennes.grid5000.fr;thermos-root-devel-WordCountTopology-1-7cdc7964-8608-4154-95e5-b14bd960e97d;["container_1_Consume_and_count_1"];3.25;1533045523.87969;278.28;1008.88;269.232719568;10;151
32;paravance-72.rennes.grid5000.fr;thermos-root-devel-WordCountTopology-0-290f1108-1180-445a-861b-09f5db07c3f1;["topology_master"];3.25;1533045523.94684;4.58;11.27;0.174419483;9;117
32;paravance-1.rennes.grid5000.fr;thermos-root-devel-WordCountTopology-2-089b93b5-6892-4c03-9a75-4c06ab5b4cd3;["container_2_Emit_random_words_2"];3.25;1533045523.88838;158.66;620.82;9.782720896;10;149
33;paravance-1.rennes.grid5000.fr;thermos-root-devel-WordCountTopology-2-089b93b5-6892-4c03-9a75-4c06ab5b4cd3;["container_2_Emit_random_words_2"];3.25;1533045534.10792;162.48;635.0;9.782720896;10;149
33;paravance-72.rennes.grid5000.fr;thermos-root-devel-WordCountTopology-0-290f1108-1180-445a-861b-09f5db07c3f1;["topology_master"];3.25;1533045534.16451;4.66;11.39;0.174419483;9;117
33;paravance-71.rennes.grid5000.fr;thermos-root-devel-WordCountTopology-1-7cdc7964-8608-4154-95e5-b14bd960e97d;["container_1_Consume_and_count_1"];3.25;1533045534.09942;284.96;1033.9;277.16637109;10;151
34;paravance-71.rennes.grid5000.fr;thermos-root-devel-WordCountTopology-1-7cdc7964-8608-4154-95e5-b14bd960e97d;["container_1_Consume_and_count_1"];3.25;1533045544.31528;292.3;1058.14;281.844100728;10;151
34;paravance-72.rennes.grid5000.fr;thermos-root-devel-WordCountTopology-0-290f1108-1180-445a-861b-09f5db07c3f1;["topology_master"];3.25;1533045544.38216;4.69;11.42;0.174419483;9;117
34;paravance-1.rennes.grid5000.fr;thermos-root-devel-WordCountTopology-2-089b93b5-6892-4c03-9a75-4c06ab5b4cd3;["container_2_Emit_random_words_2"];3.25;1533045544.32458;166.61;650.4;9.782720896;10;149
35;paravance-72.rennes.grid5000.fr;thermos-root-devel-WordCountTopology-0-290f1108-1180-445a-861b-09f5db07c3f1;["topology_master"];3.25;1533045554.59846;4.79;11.55;0.174419483;9;117
35;paravance-71.rennes.grid5000.fr;thermos-root-devel-WordCountTopology-1-7cdc7964-8608-4154-95e5-b14bd960e97d;["container_1_Consume_and_count_1"];3.25;1533045554.53081;297.38;1084.71;296.551003581;10;151
35;paravance-1.rennes.grid5000.fr;thermos-root-devel-WordCountTopology-2-089b93b5-6892-4c03-9a75-4c06ab5b4cd3;["container_2_Emit_random_words_2"];3.25;1533045554.5413;169.74;662.28;9.782720896;10;149
36;paravance-1.rennes.grid5000.fr;thermos-root-devel-WordCountTopology-2-089b93b5-6892-4c03-9a75-4c06ab5b4cd3;["container_2_Emit_random_words_2"];3.25;1533045564.75836;173.47;676.68;9.782720896;10;149
36;paravance-72.rennes.grid5000.fr;thermos-root-devel-WordCountTopology-0-290f1108-1180-445a-861b-09f5db07c3f1;["topology_master"];3.25;1533045564.81682;4.85;11.66;0.174419483;9;117
36;paravance-71.rennes.grid5000.fr;thermos-root-devel-WordCountTopology-1-7cdc7964-8608-4154-95e5-b14bd960e97d;["container_1_Consume_and_count_1"];3.25;1533045564.75009;303.75;1109.99;305.05140072;10;151
37;paravance-71.rennes.grid5000.fr;thermos-root-devel-WordCountTopology-1-7cdc7964-8608-4154-95e5-b14bd960e97d;["container_1_Consume_and_count_1"];3.25;1533045574.96662;309.79;1135.83;315.016330287;10;151
37;paravance-1.rennes.grid5000.fr;thermos-root-devel-WordCountTopology-2-089b93b5-6892-4c03-9a75-4c06ab5b4cd3;["container_2_Emit_random_words_2"];3.25;1533045574.97589;177.07;690.6;9.782720896;10;149
37;paravance-72.rennes.grid5000.fr;thermos-root-devel-WordCountTopology-0-290f1108-1180-445a-861b-09f5db07c3f1;["topology_master"];3.25;1533045575.03434;4.94;11.79;0.174419483;9;117
38;paravance-1.rennes.grid5000.fr;thermos-root-devel-WordCountTopology-2-089b93b5-6892-4c03-9a75-4c06ab5b4cd3;["container_2_Emit_random_words_2"];3.25;1533045585.19361;181.09;706.6;9.782720896;10;149
38;paravance-71.rennes.grid5000.fr;thermos-root-devel-WordCountTopology-1-7cdc7964-8608-4154-95e5-b14bd960e97d;["container_1_Consume_and_count_1"];3.25;1533045585.18487;317.07;1159.98;318.725206034;10;151
38;paravance-72.rennes.grid5000.fr;thermos-root-devel-WordCountTopology-0-290f1108-1180-445a-861b-09f5db07c3f1;["topology_master"];3.25;1533045585.25355;4.97;11.82;0.174419483;9;117
39;paravance-71.rennes.grid5000.fr;thermos-root-devel-WordCountTopology-1-7cdc7964-8608-4154-95e5-b14bd960e97d;["container_1_Consume_and_count_1"];3.25;1533045595.40215;324.47;1184.16;322.352696489;10;151
39;paravance-1.rennes.grid5000.fr;thermos-root-devel-WordCountTopology-2-089b93b5-6892-4c03-9a75-4c06ab5b4cd3;["container_2_Emit_random_words_2"];3.25;1533045595.41256;185.15;722.67;9.782720896;10;149
39;paravance-72.rennes.grid5000.fr;thermos-root-devel-WordCountTopology-0-290f1108-1180-445a-861b-09f5db07c3f1;["topology_master"];3.25;1533045595.46937;5.06;11.94;0.174419483;9;117
40;paravance-71.rennes.grid5000.fr;thermos-root-devel-WordCountTopology-1-7cdc7964-8608-4154-95e5-b14bd960e97d;["container_1_Consume_and_count_1"];3.25;1533045605.62134;331.48;1208.76;327.094332643;10;151
40;paravance-72.rennes.grid5000.fr;thermos-root-devel-WordCountTopology-0-290f1108-1180-445a-861b-09f5db07c3f1;["topology_master"];3.25;1533045605.68872;5.11;12.01;0.174419483;9;117
40;paravance-1.rennes.grid5000.fr;thermos-root-devel-WordCountTopology-2-089b93b5-6892-4c03-9a75-4c06ab5b4cd3;["container_2_Emit_random_words_2"];3.25;1533045605.63101;189.15;738.51;9.782720896;10;149
41;paravance-1.rennes.grid5000.fr;thermos-root-devel-WordCountTopology-2-089b93b5-6892-4c03-9a75-4c06ab5b4cd3;["container_2_Emit_random_words_2"];3.25;1533045615.84879;192.68;751.77;9.782720896;10;149
41;paravance-72.rennes.grid5000.fr;thermos-root-devel-WordCountTopology-0-290f1108-1180-445a-861b-09f5db07c3f1;["topology_master"];3.25;1533045615.90629;5.18;12.1;0.174419483;9;117
41;paravance-71.rennes.grid5000.fr;thermos-root-devel-WordCountTopology-1-7cdc7964-8608-4154-95e5-b14bd960e97d;["container_1_Consume_and_count_1"];3.25;1533045615.8409;337.75;1233.82;337.101586553;10;151
42;paravance-71.rennes.grid5000.fr;thermos-root-devel-WordCountTopology-1-7cdc7964-8608-4154-95e5-b14bd960e97d;["container_1_Consume_and_count_1"];3.25;1533045626.05768;342.64;1259.55;350.57280316;10;151
42;paravance-72.rennes.grid5000.fr;thermos-root-devel-WordCountTopology-0-290f1108-1180-445a-861b-09f5db07c3f1;["topology_master"];3.25;1533045626.12545;5.24;12.24;0.174419483;9;117
42;paravance-1.rennes.grid5000.fr;thermos-root-devel-WordCountTopology-2-089b93b5-6892-4c03-9a75-4c06ab5b4cd3;["container_2_Emit_random_words_2"];3.25;1533045626.06784;195.3;761.96;9.782720896;10;149
43;paravance-72.rennes.grid5000.fr;thermos-root-devel-WordCountTopology-0-290f1108-1180-445a-861b-09f5db07c3f1;["topology_master"];3.25;1533045636.34298;5.34;12.37;0.174419483;9;117
43;paravance-71.rennes.grid5000.fr;thermos-root-devel-WordCountTopology-1-7cdc7964-8608-4154-95e5-b14bd960e97d;["container_1_Consume_and_count_1"];3.25;1533045636.27762;349.83;1283.95;356.660088367;10;151
43;paravance-1.rennes.grid5000.fr;thermos-root-devel-WordCountTopology-2-089b93b5-6892-4c03-9a75-4c06ab5b4cd3;["container_2_Emit_random_words_2"];3.25;1533045636.28635;199.2;776.69;9.782720896;10;149
44;paravance-72.rennes.grid5000.fr;thermos-root-devel-WordCountTopology-0-290f1108-1180-445a-861b-09f5db07c3f1;["topology_master"];3.25;1533045646.56139;5.36;12.4;0.174419483;9;117
44;paravance-1.rennes.grid5000.fr;thermos-root-devel-WordCountTopology-2-089b93b5-6892-4c03-9a75-4c06ab5b4cd3;["container_2_Emit_random_words_2"];3.25;1533045646.50462;202.88;792.06;9.782720896;10;149
44;paravance-71.rennes.grid5000.fr;thermos-root-devel-WordCountTopology-1-7cdc7964-8608-4154-95e5-b14bd960e97d;["container_1_Consume_and_count_1"];3.25;1533045646.49524;357.03;1308.33;362.16635673;10;151
45;paravance-71.rennes.grid5000.fr;thermos-root-devel-WordCountTopology-1-7cdc7964-8608-4154-95e5-b14bd960e97d;["container_1_Consume_and_count_1"];3.25;1533045656.71024;364.32;1332.55;367.511476708;10;151
45;paravance-72.rennes.grid5000.fr;thermos-root-devel-WordCountTopology-0-290f1108-1180-445a-861b-09f5db07c3f1;["topology_master"];3.25;1533045656.77734;5.45;12.52;0.174419483;9;117
45;paravance-1.rennes.grid5000.fr;thermos-root-devel-WordCountTopology-2-089b93b5-6892-4c03-9a75-4c06ab5b4cd3;["container_2_Emit_random_words_2"];3.25;1533045656.71869;206.74;807.57;9.782720896;10;149
46;paravance-72.rennes.grid5000.fr;thermos-root-devel-WordCountTopology-0-290f1108-1180-445a-861b-09f5db07c3f1;["topology_master"];3.25;1533045666.99329;5.51;12.6;0.174419483;9;117
46;paravance-1.rennes.grid5000.fr;thermos-root-devel-WordCountTopology-2-089b93b5-6892-4c03-9a75-4c06ab5b4cd3;["container_2_Emit_random_words_2"];3.25;1533045666.93679;210.59;822.41;9.782720896;10;149
46;paravance-71.rennes.grid5000.fr;thermos-root-devel-WordCountTopology-1-7cdc7964-8608-4154-95e5-b14bd960e97d;["container_1_Consume_and_count_1"];3.25;1533045666.92652;371.68;1356.57;373.00044351;10;151
47;paravance-72.rennes.grid5000.fr;thermos-root-devel-WordCountTopology-0-290f1108-1180-445a-861b-09f5db07c3f1;["topology_master"];3.25;1533045677.20988;5.57;12.68;0.174419483;9;117
47;paravance-71.rennes.grid5000.fr;thermos-root-devel-WordCountTopology-1-7cdc7964-8608-4154-95e5-b14bd960e97d;["container_1_Consume_and_count_1"];3.25;1533045677.14402;378.83;1380.98;379.220896202;10;151
47;paravance-1.rennes.grid5000.fr;thermos-root-devel-WordCountTopology-2-089b93b5-6892-4c03-9a75-4c06ab5b4cd3;["container_2_Emit_random_words_2"];3.25;1533045677.15258;214.48;837.14;9.782720896;10;149
48;paravance-71.rennes.grid5000.fr;thermos-root-devel-WordCountTopology-1-7cdc7964-8608-4154-95e5-b14bd960e97d;["container_1_Consume_and_count_1"];3.25;1533045687.35917;385.92;1405.66;384.931782921;10;151
48;paravance-72.rennes.grid5000.fr;thermos-root-devel-WordCountTopology-0-290f1108-1180-445a-861b-09f5db07c3f1;["topology_master"];3.25;1533045687.42777;5.64;12.81;0.174419483;9;117
48;paravance-1.rennes.grid5000.fr;thermos-root-devel-WordCountTopology-2-089b93b5-6892-4c03-9a75-4c06ab5b4cd3;["container_2_Emit_random_words_2"];3.25;1533045687.36975;218.28;851.7;9.782720896;10;149
49;paravance-72.rennes.grid5000.fr;thermos-root-devel-WordCountTopology-0-290f1108-1180-445a-861b-09f5db07c3f1;["topology_master"];3.25;1533045697.64362;5.73;12.94;0.174419483;9;117
49;paravance-71.rennes.grid5000.fr;thermos-root-devel-WordCountTopology-1-7cdc7964-8608-4154-95e5-b14bd960e97d;["container_1_Consume_and_count_1"];3.25;1533045697.57777;393.19;1430.05;389.712342296;10;151
49;paravance-1.rennes.grid5000.fr;thermos-root-devel-WordCountTopology-2-089b93b5-6892-4c03-9a75-4c06ab5b4cd3;["container_2_Emit_random_words_2"];3.25;1533045697.58692;222.15;866.82;9.782720896;10;149
50;paravance-71.rennes.grid5000.fr;thermos-root-devel-WordCountTopology-1-7cdc7964-8608-4154-95e5-b14bd960e97d;["container_1_Consume_and_count_1"];3.25;1533045707.79282;400.42;1454.59;394.459044696;10;151
50;paravance-1.rennes.grid5000.fr;thermos-root-devel-WordCountTopology-2-089b93b5-6892-4c03-9a75-4c06ab5b4cd3;["container_2_Emit_random_words_2"];3.25;1533045707.80356;226.04;882.13;9.782720896;10;149
50;paravance-72.rennes.grid5000.fr;thermos-root-devel-WordCountTopology-0-290f1108-1180-445a-861b-09f5db07c3f1;["topology_master"];3.25;1533045707.8605;5.76;12.97;0.174419483;9;117
51;paravance-71.rennes.grid5000.fr;thermos-root-devel-WordCountTopology-1-7cdc7964-8608-4154-95e5-b14bd960e97d;["container_1_Consume_and_count_1"];3.25;1533045718.01098;407.56;1479.08;400.038261044;10;151
51;paravance-72.rennes.grid5000.fr;thermos-root-devel-WordCountTopology-0-290f1108-1180-445a-861b-09f5db07c3f1;["topology_master"];3.25;1533045718.07752;5.85;13.1;0.174419483;9;117
51;paravance-1.rennes.grid5000.fr;thermos-root-devel-WordCountTopology-2-089b93b5-6892-4c03-9a75-4c06ab5b4cd3;["container_2_Emit_random_words_2"];3.25;1533045718.02106;229.92;896.99;9.782720896;10;149
52;paravance-1.rennes.grid5000.fr;thermos-root-devel-WordCountTopology-2-089b93b5-6892-4c03-9a75-4c06ab5b4cd3;["container_2_Emit_random_words_2"];3.25;1533045728.23819;233.89;912.88;9.782720896;10;149
52;paravance-71.rennes.grid5000.fr;thermos-root-devel-WordCountTopology-1-7cdc7964-8608-4154-95e5-b14bd960e97d;["container_1_Consume_and_count_1"];3.25;1533045728.22817;414.63;1503.65;403.796034934;10;151
52;paravance-72.rennes.grid5000.fr;thermos-root-devel-WordCountTopology-0-290f1108-1180-445a-861b-09f5db07c3f1;["topology_master"];3.25;1533045728.295;5.9;13.17;0.174419483;9;117
53;paravance-71.rennes.grid5000.fr;thermos-root-devel-WordCountTopology-1-7cdc7964-8608-4154-95e5-b14bd960e97d;["container_1_Consume_and_count_1"];3.25;1533045738.3485;421.48;1528.16;408.309015626;10;152
53;paravance-72.rennes.grid5000.fr;thermos-root-devel-WordCountTopology-0-290f1108-1180-445a-861b-09f5db07c3f1;["topology_master"];3.25;1533045738.51617;5.98;13.32;0.174419483;9;117
53;paravance-1.rennes.grid5000.fr;thermos-root-devel-WordCountTopology-2-089b93b5-6892-4c03-9a75-4c06ab5b4cd3;["container_2_Emit_random_words_2"];3.25;1533045738.45941;238.07;929.38;9.782720896;10;149
54;paravance-71.rennes.grid5000.fr;thermos-root-devel-WordCountTopology-1-7cdc7964-8608-4154-95e5-b14bd960e97d;["container_1_Consume_and_count_1"];3.25;1533045748.6645;428.56;1553.03;413.691653859;10;152
54;paravance-1.rennes.grid5000.fr;thermos-root-devel-WordCountTopology-2-089b93b5-6892-4c03-9a75-4c06ab5b4cd3;["container_2_Emit_random_words_2"];3.25;1533045748.67607;242.17;945.38;9.782720896;10;149
54;paravance-72.rennes.grid5000.fr;thermos-root-devel-WordCountTopology-0-290f1108-1180-445a-861b-09f5db07c3f1;["topology_master"];3.25;1533045748.73255;6.03;13.39;0.174419483;9;117
55;paravance-1.rennes.grid5000.fr;thermos-root-devel-WordCountTopology-2-089b93b5-6892-4c03-9a75-4c06ab5b4cd3;["container_2_Emit_random_words_2"];3.25;1533045758.893;246.06;959.95;9.782720896;10;149
55;paravance-71.rennes.grid5000.fr;thermos-root-devel-WordCountTopology-1-7cdc7964-8608-4154-95e5-b14bd960e97d;["container_1_Consume_and_count_1"];3.25;1533045758.88351;435.56;1577.71;420.167651607;10;151
55;paravance-72.rennes.grid5000.fr;thermos-root-devel-WordCountTopology-0-290f1108-1180-445a-861b-09f5db07c3f1;["topology_master"];3.25;1533045758.94998;6.12;13.51;0.174419483;9;117
56;paravance-72.rennes.grid5000.fr;thermos-root-devel-WordCountTopology-0-290f1108-1180-445a-861b-09f5db07c3f1;["topology_master"];3.25;1533045769.06851;6.15;13.53;0.174419483;9;117
56;paravance-71.rennes.grid5000.fr;thermos-root-devel-WordCountTopology-1-7cdc7964-8608-4154-95e5-b14bd960e97d;["container_1_Consume_and_count_1"];3.25;1533045769.10064;442.5;1602.31;426.889347575;10;151
56;paravance-1.rennes.grid5000.fr;thermos-root-devel-WordCountTopology-2-089b93b5-6892-4c03-9a75-4c06ab5b4cd3;["container_2_Emit_random_words_2"];3.25;1533045769.11144;249.89;974.62;9.782720896;10;149
57;paravance-1.rennes.grid5000.fr;thermos-root-devel-WordCountTopology-2-089b93b5-6892-4c03-9a75-4c06ab5b4cd3;["container_2_Emit_random_words_2"];3.25;1533045779.33124;253.72;989.39;9.782720896;10;149
57;paravance-71.rennes.grid5000.fr;thermos-root-devel-WordCountTopology-1-7cdc7964-8608-4154-95e5-b14bd960e97d;["container_1_Consume_and_count_1"];3.25;1533045779.32093;449.42;1627.02;433.206283179;10;151
57;paravance-72.rennes.grid5000.fr;thermos-root-devel-WordCountTopology-0-290f1108-1180-445a-861b-09f5db07c3f1;["topology_master"];3.25;1533045779.38973;6.24;13.66;0.174419483;9;117
58;paravance-71.rennes.grid5000.fr;thermos-root-devel-WordCountTopology-1-7cdc7964-8608-4154-95e5-b14bd960e97d;["container_1_Consume_and_count_1"];3.25;1533045789.53596;456.63;1651.45;437.735262723;10;151
58;paravance-1.rennes.grid5000.fr;thermos-root-devel-WordCountTopology-2-089b93b5-6892-4c03-9a75-4c06ab5b4cd3;["container_2_Emit_random_words_2"];3.25;1533045789.54673;257.67;1004.89;9.782720896;10;149
58;paravance-72.rennes.grid5000.fr;thermos-root-devel-WordCountTopology-0-290f1108-1180-445a-861b-09f5db07c3f1;["topology_master"];3.25;1533045789.60376;6.29;13.73;0.174419483;9;117
59;paravance-71.rennes.grid5000.fr;thermos-root-devel-WordCountTopology-1-7cdc7964-8608-4154-95e5-b14bd960e97d;["container_1_Consume_and_count_1"];3.25;1533045799.75207;463.52;1676.23;444.584288454;10;151
59;paravance-1.rennes.grid5000.fr;thermos-root-devel-WordCountTopology-2-089b93b5-6892-4c03-9a75-4c06ab5b4cd3;["container_2_Emit_random_words_2"];3.25;1533045799.76332;261.46;1019.62;9.782720896;10;149
59;paravance-72.rennes.grid5000.fr;thermos-root-devel-WordCountTopology-0-290f1108-1180-445a-861b-09f5db07c3f1;["topology_master"];3.25;1533045799.82052;6.36;13.83;0.174419483;9;117
60;paravance-71.rennes.grid5000.fr;thermos-root-devel-WordCountTopology-1-7cdc7964-8608-4154-95e5-b14bd960e97d;["container_1_Consume_and_count_1"];3.25;1533045809.97033;470.57;1700.88;449.793054612;10;151
60;paravance-72.rennes.grid5000.fr;thermos-root-devel-WordCountTopology-0-290f1108-1180-445a-861b-09f5db07c3f1;["topology_master"];3.25;1533045810.03728;6.42;13.9;0.174419483;9;117
60;paravance-1.rennes.grid5000.fr;thermos-root-devel-WordCountTopology-2-089b93b5-6892-4c03-9a75-4c06ab5b4cd3;["container_2_Emit_random_words_2"];3.25;1533045809.98013;265.49;1034.73;9.782720896;10;149
