mesure_id;slave_id;executor_id;heron_instances;cpus_limit;timestamp_B;cpus_system_time_secs_B;cpus_user_time_secs_B;cpus_throttled_time_secs_B;processes;threads
0;paravance-71.rennes.grid5000.fr;thermos-root-devel-WordCountTopology-0-b75fbfac-7d85-4f55-975f-9456c0c89f0f;["topology_master"];5.25;1533253820.36408;2.45;8.13;0.0;9;117
0;paravance-55.rennes.grid5000.fr;thermos-root-devel-WordCountTopology-1-10a3d310-0d4b-4430-aaea-79174c180ed2;["container_1_Consume_and_count_1"];5.25;1533253820.268;39.98;252.92;0.059403414;10;149
0;paravance-56.rennes.grid5000.fr;thermos-root-devel-WordCountTopology-2-688d6729-92c8-4e51-826a-d4ad8268e0f7;["container_2_Emit_random_words_2"];5.25;1533253820.19641;25.46;230.01;1.263583189;10;149
1;paravance-55.rennes.grid5000.fr;thermos-root-devel-WordCountTopology-1-10a3d310-0d4b-4430-aaea-79174c180ed2;["container_1_Consume_and_count_1"];5.25;1533253830.38448;42.88;273.1;0.059403414;10;149
1;paravance-56.rennes.grid5000.fr;thermos-root-devel-WordCountTopology-2-688d6729-92c8-4e51-826a-d4ad8268e0f7;["container_2_Emit_random_words_2"];5.25;1533253830.41605;27.29;246.56;1.263583189;10;149
1;paravance-71.rennes.grid5000.fr;thermos-root-devel-WordCountTopology-0-b75fbfac-7d85-4f55-975f-9456c0c89f0f;["topology_master"];5.25;1533253830.58248;2.54;8.26;0.0;9;117
2;paravance-55.rennes.grid5000.fr;thermos-root-devel-WordCountTopology-1-10a3d310-0d4b-4430-aaea-79174c180ed2;["container_1_Consume_and_count_1"];5.25;1533253840.69663;45.99;293.97;0.059403414;10;149
2;paravance-56.rennes.grid5000.fr;thermos-root-devel-WordCountTopology-2-688d6729-92c8-4e51-826a-d4ad8268e0f7;["container_2_Emit_random_words_2"];5.25;1533253840.6355;29.12;263.27;1.263583189;10;149
2;paravance-71.rennes.grid5000.fr;thermos-root-devel-WordCountTopology-0-b75fbfac-7d85-4f55-975f-9456c0c89f0f;["topology_master"];5.25;1533253840.79556;2.57;8.29;0.0;9;117
3;paravance-55.rennes.grid5000.fr;thermos-root-devel-WordCountTopology-1-10a3d310-0d4b-4430-aaea-79174c180ed2;["container_1_Consume_and_count_1"];5.25;1533253850.90891;49.34;315.92;0.059403414;10;149
3;paravance-56.rennes.grid5000.fr;thermos-root-devel-WordCountTopology-2-688d6729-92c8-4e51-826a-d4ad8268e0f7;["container_2_Emit_random_words_2"];5.25;1533253850.85268;31.13;281.88;1.263583189;10;149
3;paravance-71.rennes.grid5000.fr;thermos-root-devel-WordCountTopology-0-b75fbfac-7d85-4f55-975f-9456c0c89f0f;["topology_master"];5.25;1533253851.00842;2.66;8.42;0.0;9;117
4;paravance-56.rennes.grid5000.fr;thermos-root-devel-WordCountTopology-2-688d6729-92c8-4e51-826a-d4ad8268e0f7;["container_2_Emit_random_words_2"];5.25;1533253861.07162;33.02;299.33;1.263583189;10;149
4;paravance-55.rennes.grid5000.fr;thermos-root-devel-WordCountTopology-1-10a3d310-0d4b-4430-aaea-79174c180ed2;["container_1_Consume_and_count_1"];5.25;1533253861.12406;52.45;337.18;0.059403414;10;149
4;paravance-71.rennes.grid5000.fr;thermos-root-devel-WordCountTopology-0-b75fbfac-7d85-4f55-975f-9456c0c89f0f;["topology_master"];5.25;1533253861.22191;2.72;8.5;0.0;9;117
5;paravance-56.rennes.grid5000.fr;thermos-root-devel-WordCountTopology-2-688d6729-92c8-4e51-826a-d4ad8268e0f7;["container_2_Emit_random_words_2"];5.25;1533253871.29001;34.9;316.89;1.263583189;10;149
5;paravance-55.rennes.grid5000.fr;thermos-root-devel-WordCountTopology-1-10a3d310-0d4b-4430-aaea-79174c180ed2;["container_1_Consume_and_count_1"];5.25;1533253871.33729;55.42;357.58;0.059403414;10;149
5;paravance-71.rennes.grid5000.fr;thermos-root-devel-WordCountTopology-0-b75fbfac-7d85-4f55-975f-9456c0c89f0f;["topology_master"];5.25;1533253871.43534;2.84;8.67;0.0;9;117
6;paravance-56.rennes.grid5000.fr;thermos-root-devel-WordCountTopology-2-688d6729-92c8-4e51-826a-d4ad8268e0f7;["container_2_Emit_random_words_2"];5.25;1533253881.51012;36.77;334.93;1.263583189;10;149
6;paravance-55.rennes.grid5000.fr;thermos-root-devel-WordCountTopology-1-10a3d310-0d4b-4430-aaea-79174c180ed2;["container_1_Consume_and_count_1"];5.25;1533253881.55244;58.39;378.01;0.059403414;10;149
6;paravance-71.rennes.grid5000.fr;thermos-root-devel-WordCountTopology-0-b75fbfac-7d85-4f55-975f-9456c0c89f0f;["topology_master"];5.25;1533253881.65053;2.87;8.8;0.0;9;117
7;paravance-55.rennes.grid5000.fr;thermos-root-devel-WordCountTopology-1-10a3d310-0d4b-4430-aaea-79174c180ed2;["container_1_Consume_and_count_1"];5.25;1533253891.76685;61.08;397.4;0.059403414;10;149
7;paravance-56.rennes.grid5000.fr;thermos-root-devel-WordCountTopology-2-688d6729-92c8-4e51-826a-d4ad8268e0f7;["container_2_Emit_random_words_2"];5.25;1533253891.73141;38.46;349.96;1.263583189;10;149
7;paravance-71.rennes.grid5000.fr;thermos-root-devel-WordCountTopology-0-b75fbfac-7d85-4f55-975f-9456c0c89f0f;["topology_master"];5.25;1533253891.86523;2.97;8.93;0.0;9;117
8;paravance-55.rennes.grid5000.fr;thermos-root-devel-WordCountTopology-1-10a3d310-0d4b-4430-aaea-79174c180ed2;["container_1_Consume_and_count_1"];5.25;1533253901.98077;64.1;418.14;0.059403414;10;149
8;paravance-71.rennes.grid5000.fr;thermos-root-devel-WordCountTopology-0-b75fbfac-7d85-4f55-975f-9456c0c89f0f;["topology_master"];5.25;1533253902.07887;3.02;9.01;0.0;9;117
8;paravance-56.rennes.grid5000.fr;thermos-root-devel-WordCountTopology-2-688d6729-92c8-4e51-826a-d4ad8268e0f7;["container_2_Emit_random_words_2"];5.25;1533253901.94901;40.26;366.56;1.263583189;10;149
9;paravance-55.rennes.grid5000.fr;thermos-root-devel-WordCountTopology-1-10a3d310-0d4b-4430-aaea-79174c180ed2;["container_1_Consume_and_count_1"];5.25;1533253912.19473;67.09;438.18;0.059403414;10;149
9;paravance-71.rennes.grid5000.fr;thermos-root-devel-WordCountTopology-0-b75fbfac-7d85-4f55-975f-9456c0c89f0f;["topology_master"];5.25;1533253912.29396;3.09;9.09;0.0;9;117
9;paravance-56.rennes.grid5000.fr;thermos-root-devel-WordCountTopology-2-688d6729-92c8-4e51-826a-d4ad8268e0f7;["container_2_Emit_random_words_2"];5.25;1533253912.1709;42.0;382.15;1.263583189;10;149
10;paravance-71.rennes.grid5000.fr;thermos-root-devel-WordCountTopology-0-b75fbfac-7d85-4f55-975f-9456c0c89f0f;["topology_master"];5.25;1533253922.50848;3.14;9.17;0.0;9;117
10;paravance-55.rennes.grid5000.fr;thermos-root-devel-WordCountTopology-1-10a3d310-0d4b-4430-aaea-79174c180ed2;["container_1_Consume_and_count_1"];5.25;1533253922.4123;70.12;458.28;0.059403414;10;149
10;paravance-56.rennes.grid5000.fr;thermos-root-devel-WordCountTopology-2-688d6729-92c8-4e51-826a-d4ad8268e0f7;["container_2_Emit_random_words_2"];5.25;1533253922.39154;43.82;398.71;1.263583189;10;149
11;paravance-55.rennes.grid5000.fr;thermos-root-devel-WordCountTopology-1-10a3d310-0d4b-4430-aaea-79174c180ed2;["container_1_Consume_and_count_1"];5.25;1533253932.6275;73.23;478.76;0.059403414;10;149
11;paravance-71.rennes.grid5000.fr;thermos-root-devel-WordCountTopology-0-b75fbfac-7d85-4f55-975f-9456c0c89f0f;["topology_master"];5.25;1533253932.72463;3.28;9.41;0.0;9;117
11;paravance-56.rennes.grid5000.fr;thermos-root-devel-WordCountTopology-2-688d6729-92c8-4e51-826a-d4ad8268e0f7;["container_2_Emit_random_words_2"];5.25;1533253932.61157;45.72;416.26;1.263583189;10;149
12;paravance-55.rennes.grid5000.fr;thermos-root-devel-WordCountTopology-1-10a3d310-0d4b-4430-aaea-79174c180ed2;["container_1_Consume_and_count_1"];5.25;1533253942.84452;76.01;499.43;0.059403414;10;149
12;paravance-56.rennes.grid5000.fr;thermos-root-devel-WordCountTopology-2-688d6729-92c8-4e51-826a-d4ad8268e0f7;["container_2_Emit_random_words_2"];5.25;1533253942.83312;47.39;431.88;1.263583189;10;149
12;paravance-71.rennes.grid5000.fr;thermos-root-devel-WordCountTopology-0-b75fbfac-7d85-4f55-975f-9456c0c89f0f;["topology_master"];5.25;1533253942.94155;3.3;9.43;0.0;9;117
13;paravance-56.rennes.grid5000.fr;thermos-root-devel-WordCountTopology-2-688d6729-92c8-4e51-826a-d4ad8268e0f7;["container_2_Emit_random_words_2"];5.25;1533253953.05438;49.18;448.23;1.263583189;10;149
13;paravance-71.rennes.grid5000.fr;thermos-root-devel-WordCountTopology-0-b75fbfac-7d85-4f55-975f-9456c0c89f0f;["topology_master"];5.25;1533253953.15834;3.39;9.56;0.0;9;117
13;paravance-55.rennes.grid5000.fr;thermos-root-devel-WordCountTopology-1-10a3d310-0d4b-4430-aaea-79174c180ed2;["container_1_Consume_and_count_1"];5.25;1533253953.06166;79.02;519.34;0.059403414;10;149
14;paravance-55.rennes.grid5000.fr;thermos-root-devel-WordCountTopology-1-10a3d310-0d4b-4430-aaea-79174c180ed2;["container_1_Consume_and_count_1"];5.25;1533253963.27629;82.04;539.28;0.059403414;10;149
14;paravance-71.rennes.grid5000.fr;thermos-root-devel-WordCountTopology-0-b75fbfac-7d85-4f55-975f-9456c0c89f0f;["topology_master"];5.25;1533253963.37367;3.44;9.63;0.0;9;117
14;paravance-56.rennes.grid5000.fr;thermos-root-devel-WordCountTopology-2-688d6729-92c8-4e51-826a-d4ad8268e0f7;["container_2_Emit_random_words_2"];5.25;1533253963.27566;50.97;464.64;1.263583189;10;149
15;paravance-55.rennes.grid5000.fr;thermos-root-devel-WordCountTopology-1-10a3d310-0d4b-4430-aaea-79174c180ed2;["container_1_Consume_and_count_1"];5.25;1533253973.49179;84.98;560.24;0.059403414;10;149
15;paravance-71.rennes.grid5000.fr;thermos-root-devel-WordCountTopology-0-b75fbfac-7d85-4f55-975f-9456c0c89f0f;["topology_master"];5.25;1533253973.59;3.5;9.71;0.0;9;117
15;paravance-56.rennes.grid5000.fr;thermos-root-devel-WordCountTopology-2-688d6729-92c8-4e51-826a-d4ad8268e0f7;["container_2_Emit_random_words_2"];5.25;1533253973.49824;52.71;480.79;1.263583189;10;149
16;paravance-56.rennes.grid5000.fr;thermos-root-devel-WordCountTopology-2-688d6729-92c8-4e51-826a-d4ad8268e0f7;["container_2_Emit_random_words_2"];5.25;1533253983.71707;54.54;497.33;1.263583189;10;149
16;paravance-71.rennes.grid5000.fr;thermos-root-devel-WordCountTopology-0-b75fbfac-7d85-4f55-975f-9456c0c89f0f;["topology_master"];5.25;1533253983.80556;3.56;9.79;0.0;9;117
16;paravance-55.rennes.grid5000.fr;thermos-root-devel-WordCountTopology-1-10a3d310-0d4b-4430-aaea-79174c180ed2;["container_1_Consume_and_count_1"];5.25;1533253983.70876;88.13;580.99;0.059403414;10;149
17;paravance-55.rennes.grid5000.fr;thermos-root-devel-WordCountTopology-1-10a3d310-0d4b-4430-aaea-79174c180ed2;["container_1_Consume_and_count_1"];5.25;1533253993.92306;91.13;601.98;0.059403414;10;149
17;paravance-71.rennes.grid5000.fr;thermos-root-devel-WordCountTopology-0-b75fbfac-7d85-4f55-975f-9456c0c89f0f;["topology_master"];5.25;1533253994.02165;3.68;10.02;0.0;9;117
17;paravance-56.rennes.grid5000.fr;thermos-root-devel-WordCountTopology-2-688d6729-92c8-4e51-826a-d4ad8268e0f7;["container_2_Emit_random_words_2"];5.25;1533253993.93965;56.33;512.93;1.263583189;10;149
18;paravance-56.rennes.grid5000.fr;thermos-root-devel-WordCountTopology-2-688d6729-92c8-4e51-826a-d4ad8268e0f7;["container_2_Emit_random_words_2"];5.25;1533254004.16019;58.08;528.97;1.263583189;10;149
18;paravance-71.rennes.grid5000.fr;thermos-root-devel-WordCountTopology-0-b75fbfac-7d85-4f55-975f-9456c0c89f0f;["topology_master"];5.25;1533254004.23823;3.71;10.04;0.0;9;117
18;paravance-55.rennes.grid5000.fr;thermos-root-devel-WordCountTopology-1-10a3d310-0d4b-4430-aaea-79174c180ed2;["container_1_Consume_and_count_1"];5.25;1533254004.1422;94.17;622.34;0.059403414;10;149
19;paravance-71.rennes.grid5000.fr;thermos-root-devel-WordCountTopology-0-b75fbfac-7d85-4f55-975f-9456c0c89f0f;["topology_master"];5.25;1533254014.45345;3.8;10.17;0.0;9;117
19;paravance-55.rennes.grid5000.fr;thermos-root-devel-WordCountTopology-1-10a3d310-0d4b-4430-aaea-79174c180ed2;["container_1_Consume_and_count_1"];5.25;1533254014.35625;97.31;643.01;0.059403414;10;149
19;paravance-56.rennes.grid5000.fr;thermos-root-devel-WordCountTopology-2-688d6729-92c8-4e51-826a-d4ad8268e0f7;["container_2_Emit_random_words_2"];5.25;1533254014.38178;59.86;544.71;1.263583189;10;149
20;paravance-55.rennes.grid5000.fr;thermos-root-devel-WordCountTopology-1-10a3d310-0d4b-4430-aaea-79174c180ed2;["container_1_Consume_and_count_1"];5.25;1533254024.5708;100.52;663.19;0.059403414;10;149
20;paravance-56.rennes.grid5000.fr;thermos-root-devel-WordCountTopology-2-688d6729-92c8-4e51-826a-d4ad8268e0f7;["container_2_Emit_random_words_2"];5.25;1533254024.60228;61.7;561.24;1.263583189;10;149
20;paravance-71.rennes.grid5000.fr;thermos-root-devel-WordCountTopology-0-b75fbfac-7d85-4f55-975f-9456c0c89f0f;["topology_master"];5.25;1533254024.66922;3.86;10.25;0.0;9;117
21;paravance-55.rennes.grid5000.fr;thermos-root-devel-WordCountTopology-1-10a3d310-0d4b-4430-aaea-79174c180ed2;["container_1_Consume_and_count_1"];5.25;1533254034.7861;103.78;683.35;0.059403414;10;149
21;paravance-56.rennes.grid5000.fr;thermos-root-devel-WordCountTopology-2-688d6729-92c8-4e51-826a-d4ad8268e0f7;["container_2_Emit_random_words_2"];5.25;1533254034.82158;63.55;579.2;1.263583189;10;149
21;paravance-71.rennes.grid5000.fr;thermos-root-devel-WordCountTopology-0-b75fbfac-7d85-4f55-975f-9456c0c89f0f;["topology_master"];5.25;1533254034.88493;3.91;10.32;0.0;9;117
22;paravance-71.rennes.grid5000.fr;thermos-root-devel-WordCountTopology-0-b75fbfac-7d85-4f55-975f-9456c0c89f0f;["topology_master"];5.25;1533254045.09886;3.97;10.39;0.0;9;117
22;paravance-56.rennes.grid5000.fr;thermos-root-devel-WordCountTopology-2-688d6729-92c8-4e51-826a-d4ad8268e0f7;["container_2_Emit_random_words_2"];5.25;1533254045.04225;65.29;595.05;1.263583189;10;149
22;paravance-55.rennes.grid5000.fr;thermos-root-devel-WordCountTopology-1-10a3d310-0d4b-4430-aaea-79174c180ed2;["container_1_Consume_and_count_1"];5.25;1533254045.00199;106.85;703.63;0.059403414;10;149
23;paravance-55.rennes.grid5000.fr;thermos-root-devel-WordCountTopology-1-10a3d310-0d4b-4430-aaea-79174c180ed2;["container_1_Consume_and_count_1"];5.25;1533254055.21626;110.0;723.72;0.059403414;10;149
23;paravance-56.rennes.grid5000.fr;thermos-root-devel-WordCountTopology-2-688d6729-92c8-4e51-826a-d4ad8268e0f7;["container_2_Emit_random_words_2"];5.25;1533254055.26221;67.11;611.42;1.263583189;10;149
23;paravance-71.rennes.grid5000.fr;thermos-root-devel-WordCountTopology-0-b75fbfac-7d85-4f55-975f-9456c0c89f0f;["topology_master"];5.25;1533254055.31422;4.07;10.58;0.0;9;117
24;paravance-71.rennes.grid5000.fr;thermos-root-devel-WordCountTopology-0-b75fbfac-7d85-4f55-975f-9456c0c89f0f;["topology_master"];5.25;1533254065.5293;4.1;10.6;0.0;9;117
24;paravance-55.rennes.grid5000.fr;thermos-root-devel-WordCountTopology-1-10a3d310-0d4b-4430-aaea-79174c180ed2;["container_1_Consume_and_count_1"];5.25;1533254065.43349;112.89;743.66;0.059403414;10;149
24;paravance-56.rennes.grid5000.fr;thermos-root-devel-WordCountTopology-2-688d6729-92c8-4e51-826a-d4ad8268e0f7;["container_2_Emit_random_words_2"];5.25;1533254065.48367;68.89;627.74;1.263583189;10;149
25;paravance-71.rennes.grid5000.fr;thermos-root-devel-WordCountTopology-0-b75fbfac-7d85-4f55-975f-9456c0c89f0f;["topology_master"];5.25;1533254075.74491;4.19;10.72;0.0;9;117
25;paravance-55.rennes.grid5000.fr;thermos-root-devel-WordCountTopology-1-10a3d310-0d4b-4430-aaea-79174c180ed2;["container_1_Consume_and_count_1"];5.25;1533254075.64839;115.96;764.34;0.059403414;10;149
25;paravance-56.rennes.grid5000.fr;thermos-root-devel-WordCountTopology-2-688d6729-92c8-4e51-826a-d4ad8268e0f7;["container_2_Emit_random_words_2"];5.25;1533254075.70429;70.68;643.7;1.263583189;10;149
26;paravance-55.rennes.grid5000.fr;thermos-root-devel-WordCountTopology-1-10a3d310-0d4b-4430-aaea-79174c180ed2;["container_1_Consume_and_count_1"];5.25;1533254085.7627;118.75;783.45;0.059403414;10;149
26;paravance-56.rennes.grid5000.fr;thermos-root-devel-WordCountTopology-2-688d6729-92c8-4e51-826a-d4ad8268e0f7;["container_2_Emit_random_words_2"];5.25;1533254085.92306;72.46;660.02;1.263583189;10;149
26;paravance-71.rennes.grid5000.fr;thermos-root-devel-WordCountTopology-0-b75fbfac-7d85-4f55-975f-9456c0c89f0f;["topology_master"];5.25;1533254085.96114;4.24;10.8;0.0;9;117
27;paravance-56.rennes.grid5000.fr;thermos-root-devel-WordCountTopology-2-688d6729-92c8-4e51-826a-d4ad8268e0f7;["container_2_Emit_random_words_2"];5.25;1533254096.14383;74.17;675.44;1.263583189;10;149
27;paravance-71.rennes.grid5000.fr;thermos-root-devel-WordCountTopology-0-b75fbfac-7d85-4f55-975f-9456c0c89f0f;["topology_master"];5.25;1533254096.17576;4.3;10.87;0.0;9;117
27;paravance-55.rennes.grid5000.fr;thermos-root-devel-WordCountTopology-1-10a3d310-0d4b-4430-aaea-79174c180ed2;["container_1_Consume_and_count_1"];5.25;1533254096.07897;121.67;804.32;0.059403414;10;149
28;paravance-56.rennes.grid5000.fr;thermos-root-devel-WordCountTopology-2-688d6729-92c8-4e51-826a-d4ad8268e0f7;["container_2_Emit_random_words_2"];5.25;1533254106.3653;76.02;692.2;1.263583189;10;149
28;paravance-55.rennes.grid5000.fr;thermos-root-devel-WordCountTopology-1-10a3d310-0d4b-4430-aaea-79174c180ed2;["container_1_Consume_and_count_1"];5.25;1533254106.29543;124.58;824.66;0.059403414;10;149
28;paravance-71.rennes.grid5000.fr;thermos-root-devel-WordCountTopology-0-b75fbfac-7d85-4f55-975f-9456c0c89f0f;["topology_master"];5.25;1533254106.3925;4.36;10.94;0.0;9;117
29;paravance-56.rennes.grid5000.fr;thermos-root-devel-WordCountTopology-2-688d6729-92c8-4e51-826a-d4ad8268e0f7;["container_2_Emit_random_words_2"];5.25;1533254116.58535;77.86;708.63;1.263583189;10;149
29;paravance-55.rennes.grid5000.fr;thermos-root-devel-WordCountTopology-1-10a3d310-0d4b-4430-aaea-79174c180ed2;["container_1_Consume_and_count_1"];5.25;1533254116.51064;127.55;844.98;0.059403414;10;149
29;paravance-71.rennes.grid5000.fr;thermos-root-devel-WordCountTopology-0-b75fbfac-7d85-4f55-975f-9456c0c89f0f;["topology_master"];5.25;1533254116.60811;4.46;11.13;0.0;9;117
30;paravance-55.rennes.grid5000.fr;thermos-root-devel-WordCountTopology-1-10a3d310-0d4b-4430-aaea-79174c180ed2;["container_1_Consume_and_count_1"];5.25;1533254126.72302;130.46;865.38;0.059403414;10;149
30;paravance-56.rennes.grid5000.fr;thermos-root-devel-WordCountTopology-2-688d6729-92c8-4e51-826a-d4ad8268e0f7;["container_2_Emit_random_words_2"];5.25;1533254126.80591;79.57;724.18;1.263583189;10;149
30;paravance-71.rennes.grid5000.fr;thermos-root-devel-WordCountTopology-0-b75fbfac-7d85-4f55-975f-9456c0c89f0f;["topology_master"];5.25;1533254126.82248;4.52;11.2;0.0;9;117
31;paravance-56.rennes.grid5000.fr;thermos-root-devel-WordCountTopology-2-688d6729-92c8-4e51-826a-d4ad8268e0f7;["container_2_Emit_random_words_2"];5.25;1533254136.92658;81.46;741.45;1.263583189;10;149
31;paravance-55.rennes.grid5000.fr;thermos-root-devel-WordCountTopology-1-10a3d310-0d4b-4430-aaea-79174c180ed2;["container_1_Consume_and_count_1"];5.25;1533254136.94001;133.69;886.93;0.059403414;10;149
31;paravance-71.rennes.grid5000.fr;thermos-root-devel-WordCountTopology-0-b75fbfac-7d85-4f55-975f-9456c0c89f0f;["topology_master"];5.25;1533254137.03834;4.58;11.28;0.0;9;117
32;paravance-55.rennes.grid5000.fr;thermos-root-devel-WordCountTopology-1-10a3d310-0d4b-4430-aaea-79174c180ed2;["container_1_Consume_and_count_1"];5.25;1533254147.155;136.77;908.23;0.059403414;10;149
32;paravance-56.rennes.grid5000.fr;thermos-root-devel-WordCountTopology-2-688d6729-92c8-4e51-826a-d4ad8268e0f7;["container_2_Emit_random_words_2"];5.25;1533254147.24677;83.35;758.26;1.263583189;10;149
32;paravance-71.rennes.grid5000.fr;thermos-root-devel-WordCountTopology-0-b75fbfac-7d85-4f55-975f-9456c0c89f0f;["topology_master"];5.25;1533254147.25335;4.66;11.4;0.0;9;117
33;paravance-56.rennes.grid5000.fr;thermos-root-devel-WordCountTopology-2-688d6729-92c8-4e51-826a-d4ad8268e0f7;["container_2_Emit_random_words_2"];5.25;1533254157.46674;85.37;776.91;1.263583189;10;149
33;paravance-55.rennes.grid5000.fr;thermos-root-devel-WordCountTopology-1-10a3d310-0d4b-4430-aaea-79174c180ed2;["container_1_Consume_and_count_1"];5.25;1533254157.37043;139.89;928.75;0.059403414;10;149
33;paravance-71.rennes.grid5000.fr;thermos-root-devel-WordCountTopology-0-b75fbfac-7d85-4f55-975f-9456c0c89f0f;["topology_master"];5.25;1533254157.46786;4.69;11.43;0.0;9;117
34;paravance-55.rennes.grid5000.fr;thermos-root-devel-WordCountTopology-1-10a3d310-0d4b-4430-aaea-79174c180ed2;["container_1_Consume_and_count_1"];5.25;1533254167.58426;142.87;950.07;0.059403414;10;149
34;paravance-56.rennes.grid5000.fr;thermos-root-devel-WordCountTopology-2-688d6729-92c8-4e51-826a-d4ad8268e0f7;["container_2_Emit_random_words_2"];5.25;1533254167.68618;87.22;793.46;1.263583189;10;149
34;paravance-71.rennes.grid5000.fr;thermos-root-devel-WordCountTopology-0-b75fbfac-7d85-4f55-975f-9456c0c89f0f;["topology_master"];5.25;1533254167.68357;4.79;11.57;0.0;9;117
35;paravance-56.rennes.grid5000.fr;thermos-root-devel-WordCountTopology-2-688d6729-92c8-4e51-826a-d4ad8268e0f7;["container_2_Emit_random_words_2"];5.25;1533254177.90669;89.17;811.72;1.263583189;10;149
35;paravance-55.rennes.grid5000.fr;thermos-root-devel-WordCountTopology-1-10a3d310-0d4b-4430-aaea-79174c180ed2;["container_1_Consume_and_count_1"];5.25;1533254177.80044;146.05;971.41;0.059403414;10;149
35;paravance-71.rennes.grid5000.fr;thermos-root-devel-WordCountTopology-0-b75fbfac-7d85-4f55-975f-9456c0c89f0f;["topology_master"];5.25;1533254177.89839;4.86;11.73;0.0;9;117
36;paravance-55.rennes.grid5000.fr;thermos-root-devel-WordCountTopology-1-10a3d310-0d4b-4430-aaea-79174c180ed2;["container_1_Consume_and_count_1"];5.25;1533254188.01619;149.18;991.94;0.059403414;10;149
36;paravance-56.rennes.grid5000.fr;thermos-root-devel-WordCountTopology-2-688d6729-92c8-4e51-826a-d4ad8268e0f7;["container_2_Emit_random_words_2"];5.25;1533254188.12843;91.24;830.41;1.263583189;10;149
36;paravance-71.rennes.grid5000.fr;thermos-root-devel-WordCountTopology-0-b75fbfac-7d85-4f55-975f-9456c0c89f0f;["topology_master"];5.25;1533254188.11291;4.92;11.81;0.0;9;117
37;paravance-55.rennes.grid5000.fr;thermos-root-devel-WordCountTopology-1-10a3d310-0d4b-4430-aaea-79174c180ed2;["container_1_Consume_and_count_1"];5.25;1533254198.23104;152.17;1012.99;0.059403414;10;149
37;paravance-56.rennes.grid5000.fr;thermos-root-devel-WordCountTopology-2-688d6729-92c8-4e51-826a-d4ad8268e0f7;["container_2_Emit_random_words_2"];5.25;1533254198.34422;93.09;847.29;1.263583189;10;149
37;paravance-71.rennes.grid5000.fr;thermos-root-devel-WordCountTopology-0-b75fbfac-7d85-4f55-975f-9456c0c89f0f;["topology_master"];5.25;1533254198.32861;4.97;11.88;0.0;9;117
38;paravance-55.rennes.grid5000.fr;thermos-root-devel-WordCountTopology-1-10a3d310-0d4b-4430-aaea-79174c180ed2;["container_1_Consume_and_count_1"];5.25;1533254208.4448;155.13;1033.49;0.059403414;10;149
38;paravance-56.rennes.grid5000.fr;thermos-root-devel-WordCountTopology-2-688d6729-92c8-4e51-826a-d4ad8268e0f7;["container_2_Emit_random_words_2"];5.25;1533254208.55799;94.88;863.27;1.263583189;10;149
38;paravance-71.rennes.grid5000.fr;thermos-root-devel-WordCountTopology-0-b75fbfac-7d85-4f55-975f-9456c0c89f0f;["topology_master"];5.25;1533254208.54148;5.06;12.0;0.0;9;117
39;paravance-55.rennes.grid5000.fr;thermos-root-devel-WordCountTopology-1-10a3d310-0d4b-4430-aaea-79174c180ed2;["container_1_Consume_and_count_1"];5.25;1533254218.65817;158.3;1054.44;0.059403414;10;149
39;paravance-71.rennes.grid5000.fr;thermos-root-devel-WordCountTopology-0-b75fbfac-7d85-4f55-975f-9456c0c89f0f;["topology_master"];5.25;1533254218.75613;5.12;12.08;0.0;9;117
39;paravance-56.rennes.grid5000.fr;thermos-root-devel-WordCountTopology-2-688d6729-92c8-4e51-826a-d4ad8268e0f7;["container_2_Emit_random_words_2"];5.25;1533254218.77083;96.88;881.62;1.263583189;10;149
40;paravance-71.rennes.grid5000.fr;thermos-root-devel-WordCountTopology-0-b75fbfac-7d85-4f55-975f-9456c0c89f0f;["topology_master"];5.25;1533254228.98141;5.19;12.17;0.0;9;117
40;paravance-55.rennes.grid5000.fr;thermos-root-devel-WordCountTopology-1-10a3d310-0d4b-4430-aaea-79174c180ed2;["container_1_Consume_and_count_1"];5.25;1533254228.88801;161.56;1075.9;0.059403414;10;149
40;paravance-56.rennes.grid5000.fr;thermos-root-devel-WordCountTopology-2-688d6729-92c8-4e51-826a-d4ad8268e0f7;["container_2_Emit_random_words_2"];5.25;1533254229.00218;98.96;900.43;1.263583189;10;149
41;paravance-55.rennes.grid5000.fr;thermos-root-devel-WordCountTopology-1-10a3d310-0d4b-4430-aaea-79174c180ed2;["container_1_Consume_and_count_1"];5.25;1533254239.1031;164.55;1097.19;0.059403414;10;149
41;paravance-56.rennes.grid5000.fr;thermos-root-devel-WordCountTopology-2-688d6729-92c8-4e51-826a-d4ad8268e0f7;["container_2_Emit_random_words_2"];5.25;1533254239.21694;100.8;917.67;1.263583189;10;149
41;paravance-71.rennes.grid5000.fr;thermos-root-devel-WordCountTopology-0-b75fbfac-7d85-4f55-975f-9456c0c89f0f;["topology_master"];5.25;1533254239.20127;5.26;12.28;0.0;9;117
42;paravance-55.rennes.grid5000.fr;thermos-root-devel-WordCountTopology-1-10a3d310-0d4b-4430-aaea-79174c180ed2;["container_1_Consume_and_count_1"];5.25;1533254249.3188;167.77;1118.03;0.059403414;10;149
42;paravance-71.rennes.grid5000.fr;thermos-root-devel-WordCountTopology-0-b75fbfac-7d85-4f55-975f-9456c0c89f0f;["topology_master"];5.25;1533254249.41596;5.35;12.41;0.0;9;117
42;paravance-56.rennes.grid5000.fr;thermos-root-devel-WordCountTopology-2-688d6729-92c8-4e51-826a-d4ad8268e0f7;["container_2_Emit_random_words_2"];5.25;1533254249.43313;102.73;935.85;1.263583189;10;149
43;paravance-56.rennes.grid5000.fr;thermos-root-devel-WordCountTopology-2-688d6729-92c8-4e51-826a-d4ad8268e0f7;["container_2_Emit_random_words_2"];5.25;1533254259.64718;104.57;953.27;1.263583189;10;149
43;paravance-55.rennes.grid5000.fr;thermos-root-devel-WordCountTopology-1-10a3d310-0d4b-4430-aaea-79174c180ed2;["container_1_Consume_and_count_1"];5.25;1533254259.53515;170.8;1139.17;0.059403414;10;149
43;paravance-71.rennes.grid5000.fr;thermos-root-devel-WordCountTopology-0-b75fbfac-7d85-4f55-975f-9456c0c89f0f;["topology_master"];5.25;1533254259.6325;5.38;12.44;0.0;9;117
44;paravance-71.rennes.grid5000.fr;thermos-root-devel-WordCountTopology-0-b75fbfac-7d85-4f55-975f-9456c0c89f0f;["topology_master"];5.25;1533254269.84706;5.47;12.56;0.0;9;117
44;paravance-56.rennes.grid5000.fr;thermos-root-devel-WordCountTopology-2-688d6729-92c8-4e51-826a-d4ad8268e0f7;["container_2_Emit_random_words_2"];5.25;1533254269.86364;106.42;969.75;1.263583189;10;149
44;paravance-55.rennes.grid5000.fr;thermos-root-devel-WordCountTopology-1-10a3d310-0d4b-4430-aaea-79174c180ed2;["container_1_Consume_and_count_1"];5.25;1533254269.751;173.76;1159.19;0.059403414;10;149
45;paravance-56.rennes.grid5000.fr;thermos-root-devel-WordCountTopology-2-688d6729-92c8-4e51-826a-d4ad8268e0f7;["container_2_Emit_random_words_2"];5.25;1533254280.0793;108.25;986.32;1.263583189;10;149
45;paravance-55.rennes.grid5000.fr;thermos-root-devel-WordCountTopology-1-10a3d310-0d4b-4430-aaea-79174c180ed2;["container_1_Consume_and_count_1"];5.25;1533254279.96727;176.75;1179.66;0.059403414;10;149
45;paravance-71.rennes.grid5000.fr;thermos-root-devel-WordCountTopology-0-b75fbfac-7d85-4f55-975f-9456c0c89f0f;["topology_master"];5.25;1533254280.06478;5.52;12.63;0.0;9;117
46;paravance-71.rennes.grid5000.fr;thermos-root-devel-WordCountTopology-0-b75fbfac-7d85-4f55-975f-9456c0c89f0f;["topology_master"];5.25;1533254290.27918;5.59;12.71;0.0;9;117
46;paravance-55.rennes.grid5000.fr;thermos-root-devel-WordCountTopology-1-10a3d310-0d4b-4430-aaea-79174c180ed2;["container_1_Consume_and_count_1"];5.25;1533254290.18205;180.04;1201.01;0.059403414;10;149
46;paravance-56.rennes.grid5000.fr;thermos-root-devel-WordCountTopology-2-688d6729-92c8-4e51-826a-d4ad8268e0f7;["container_2_Emit_random_words_2"];5.25;1533254290.29589;110.25;1004.69;1.263583189;10;149
47;paravance-55.rennes.grid5000.fr;thermos-root-devel-WordCountTopology-1-10a3d310-0d4b-4430-aaea-79174c180ed2;["container_1_Consume_and_count_1"];5.25;1533254300.39798;183.09;1221.66;0.059403414;10;149
47;paravance-71.rennes.grid5000.fr;thermos-root-devel-WordCountTopology-0-b75fbfac-7d85-4f55-975f-9456c0c89f0f;["topology_master"];5.25;1533254300.49556;5.65;12.85;0.0;9;117
47;paravance-56.rennes.grid5000.fr;thermos-root-devel-WordCountTopology-2-688d6729-92c8-4e51-826a-d4ad8268e0f7;["container_2_Emit_random_words_2"];5.25;1533254300.51266;112.09;1021.25;1.263583189;10;149
48;paravance-55.rennes.grid5000.fr;thermos-root-devel-WordCountTopology-1-10a3d310-0d4b-4430-aaea-79174c180ed2;["container_1_Consume_and_count_1"];5.25;1533254310.61502;186.25;1242.89;0.059403414;10;149
48;paravance-71.rennes.grid5000.fr;thermos-root-devel-WordCountTopology-0-b75fbfac-7d85-4f55-975f-9456c0c89f0f;["topology_master"];5.25;1533254310.71173;5.73;12.97;0.0;9;117
48;paravance-56.rennes.grid5000.fr;thermos-root-devel-WordCountTopology-2-688d6729-92c8-4e51-826a-d4ad8268e0f7;["container_2_Emit_random_words_2"];5.25;1533254310.72895;114.03;1038.69;1.263583189;10;149
49;paravance-55.rennes.grid5000.fr;thermos-root-devel-WordCountTopology-1-10a3d310-0d4b-4430-aaea-79174c180ed2;["container_1_Consume_and_count_1"];5.25;1533254320.82982;189.37;1264.23;0.059403414;10;149
49;paravance-71.rennes.grid5000.fr;thermos-root-devel-WordCountTopology-0-b75fbfac-7d85-4f55-975f-9456c0c89f0f;["topology_master"];5.25;1533254320.92766;5.76;13.0;0.0;9;117
49;paravance-56.rennes.grid5000.fr;thermos-root-devel-WordCountTopology-2-688d6729-92c8-4e51-826a-d4ad8268e0f7;["container_2_Emit_random_words_2"];5.25;1533254320.94543;115.88;1055.84;1.263583189;10;149
50;paravance-55.rennes.grid5000.fr;thermos-root-devel-WordCountTopology-1-10a3d310-0d4b-4430-aaea-79174c180ed2;["container_1_Consume_and_count_1"];5.25;1533254331.04608;192.45;1284.98;0.059403414;10;149
50;paravance-56.rennes.grid5000.fr;thermos-root-devel-WordCountTopology-2-688d6729-92c8-4e51-826a-d4ad8268e0f7;["container_2_Emit_random_words_2"];5.25;1533254331.16123;117.83;1073.54;1.263583189;10;149
50;paravance-71.rennes.grid5000.fr;thermos-root-devel-WordCountTopology-0-b75fbfac-7d85-4f55-975f-9456c0c89f0f;["topology_master"];5.25;1533254331.14527;5.85;13.13;0.0;9;117
51;paravance-55.rennes.grid5000.fr;thermos-root-devel-WordCountTopology-1-10a3d310-0d4b-4430-aaea-79174c180ed2;["container_1_Consume_and_count_1"];5.25;1533254341.26165;195.8;1306.96;0.059403414;10;149
51;paravance-56.rennes.grid5000.fr;thermos-root-devel-WordCountTopology-2-688d6729-92c8-4e51-826a-d4ad8268e0f7;["container_2_Emit_random_words_2"];5.25;1533254341.37732;119.86;1092.31;1.263583189;10;149
51;paravance-71.rennes.grid5000.fr;thermos-root-devel-WordCountTopology-0-b75fbfac-7d85-4f55-975f-9456c0c89f0f;["topology_master"];5.25;1533254341.36105;5.9;13.2;0.0;9;117
52;paravance-56.rennes.grid5000.fr;thermos-root-devel-WordCountTopology-2-688d6729-92c8-4e51-826a-d4ad8268e0f7;["container_2_Emit_random_words_2"];5.25;1533254351.59014;121.7;1109.76;1.263583189;10;149
52;paravance-55.rennes.grid5000.fr;thermos-root-devel-WordCountTopology-1-10a3d310-0d4b-4430-aaea-79174c180ed2;["container_1_Consume_and_count_1"];5.25;1533254351.47776;198.93;1327.61;0.059403414;10;149
52;paravance-71.rennes.grid5000.fr;thermos-root-devel-WordCountTopology-0-b75fbfac-7d85-4f55-975f-9456c0c89f0f;["topology_master"];5.25;1533254351.57682;5.97;13.29;0.0;9;117
53;paravance-55.rennes.grid5000.fr;thermos-root-devel-WordCountTopology-1-10a3d310-0d4b-4430-aaea-79174c180ed2;["container_1_Consume_and_count_1"];5.25;1533254361.6926;202.02;1348.8;0.059403414;10;149
53;paravance-56.rennes.grid5000.fr;thermos-root-devel-WordCountTopology-2-688d6729-92c8-4e51-826a-d4ad8268e0f7;["container_2_Emit_random_words_2"];5.25;1533254361.80821;123.62;1128.2;1.263583189;10;149
53;paravance-71.rennes.grid5000.fr;thermos-root-devel-WordCountTopology-0-b75fbfac-7d85-4f55-975f-9456c0c89f0f;["topology_master"];5.25;1533254361.79266;6.03;13.4;0.0;9;117
54;paravance-55.rennes.grid5000.fr;thermos-root-devel-WordCountTopology-1-10a3d310-0d4b-4430-aaea-79174c180ed2;["container_1_Consume_and_count_1"];5.25;1533254371.91017;205.23;1370.43;0.059403414;10;149
54;paravance-71.rennes.grid5000.fr;thermos-root-devel-WordCountTopology-0-b75fbfac-7d85-4f55-975f-9456c0c89f0f;["topology_master"];5.25;1533254372.00785;6.12;13.52;0.0;9;117
54;paravance-56.rennes.grid5000.fr;thermos-root-devel-WordCountTopology-2-688d6729-92c8-4e51-826a-d4ad8268e0f7;["container_2_Emit_random_words_2"];5.25;1533254372.02464;125.55;1145.91;1.263583189;10;149
55;paravance-55.rennes.grid5000.fr;thermos-root-devel-WordCountTopology-1-10a3d310-0d4b-4430-aaea-79174c180ed2;["container_1_Consume_and_count_1"];5.25;1533254382.1274;208.3;1391.86;0.059403414;10;149
55;paravance-71.rennes.grid5000.fr;thermos-root-devel-WordCountTopology-0-b75fbfac-7d85-4f55-975f-9456c0c89f0f;["topology_master"];5.25;1533254382.22376;6.14;13.54;0.0;9;117
55;paravance-56.rennes.grid5000.fr;thermos-root-devel-WordCountTopology-2-688d6729-92c8-4e51-826a-d4ad8268e0f7;["container_2_Emit_random_words_2"];5.25;1533254382.24132;127.41;1163.08;1.263583189;10;149
56;paravance-55.rennes.grid5000.fr;thermos-root-devel-WordCountTopology-1-10a3d310-0d4b-4430-aaea-79174c180ed2;["container_1_Consume_and_count_1"];5.25;1533254392.344;211.68;1413.81;0.059403414;10;149
56;paravance-56.rennes.grid5000.fr;thermos-root-devel-WordCountTopology-2-688d6729-92c8-4e51-826a-d4ad8268e0f7;["container_2_Emit_random_words_2"];5.25;1533254392.45743;129.45;1182.28;1.263583189;10;149
56;paravance-71.rennes.grid5000.fr;thermos-root-devel-WordCountTopology-0-b75fbfac-7d85-4f55-975f-9456c0c89f0f;["topology_master"];5.25;1533254392.44247;6.23;13.66;0.0;9;117
57;paravance-55.rennes.grid5000.fr;thermos-root-devel-WordCountTopology-1-10a3d310-0d4b-4430-aaea-79174c180ed2;["container_1_Consume_and_count_1"];5.25;1533254402.46194;214.71;1434.2;0.059403414;10;149
57;paravance-71.rennes.grid5000.fr;thermos-root-devel-WordCountTopology-0-b75fbfac-7d85-4f55-975f-9456c0c89f0f;["topology_master"];5.25;1533254402.65886;6.29;13.74;0.0;9;117
57;paravance-56.rennes.grid5000.fr;thermos-root-devel-WordCountTopology-2-688d6729-92c8-4e51-826a-d4ad8268e0f7;["container_2_Emit_random_words_2"];5.25;1533254402.67611;131.34;1199.54;1.263583189;10;149
58;paravance-55.rennes.grid5000.fr;thermos-root-devel-WordCountTopology-1-10a3d310-0d4b-4430-aaea-79174c180ed2;["container_1_Consume_and_count_1"];5.25;1533254412.77618;217.85;1456.01;0.059403414;10;149
58;paravance-71.rennes.grid5000.fr;thermos-root-devel-WordCountTopology-0-b75fbfac-7d85-4f55-975f-9456c0c89f0f;["topology_master"];5.25;1533254412.87447;6.37;13.86;0.0;9;117
58;paravance-56.rennes.grid5000.fr;thermos-root-devel-WordCountTopology-2-688d6729-92c8-4e51-826a-d4ad8268e0f7;["container_2_Emit_random_words_2"];5.25;1533254412.89102;133.26;1217.05;1.263583189;10;149
59;paravance-55.rennes.grid5000.fr;thermos-root-devel-WordCountTopology-1-10a3d310-0d4b-4430-aaea-79174c180ed2;["container_1_Consume_and_count_1"];5.25;1533254422.99249;220.9;1476.8;0.059403414;10;149
59;paravance-71.rennes.grid5000.fr;thermos-root-devel-WordCountTopology-0-b75fbfac-7d85-4f55-975f-9456c0c89f0f;["topology_master"];5.25;1533254423.08937;6.43;13.93;0.0;9;117
59;paravance-56.rennes.grid5000.fr;thermos-root-devel-WordCountTopology-2-688d6729-92c8-4e51-826a-d4ad8268e0f7;["container_2_Emit_random_words_2"];5.25;1533254423.1056;135.15;1234.17;1.263583189;10;149
60;paravance-55.rennes.grid5000.fr;thermos-root-devel-WordCountTopology-1-10a3d310-0d4b-4430-aaea-79174c180ed2;["container_1_Consume_and_count_1"];5.25;1533254433.2073;224.14;1497.98;0.059403414;10;149
60;paravance-71.rennes.grid5000.fr;thermos-root-devel-WordCountTopology-0-b75fbfac-7d85-4f55-975f-9456c0c89f0f;["topology_master"];5.25;1533254433.30444;6.51;14.05;0.0;9;117
60;paravance-56.rennes.grid5000.fr;thermos-root-devel-WordCountTopology-2-688d6729-92c8-4e51-826a-d4ad8268e0f7;["container_2_Emit_random_words_2"];5.25;1533254433.32091;137.15;1252.67;1.263583189;10;149
