mesure_id;slave_id;executor_id;heron_instances;cpus_limit;timestamp_B;cpus_system_time_secs_B;cpus_user_time_secs_B;cpus_throttled_time_secs_B;processes;threads
0;paravance-30.rennes.grid5000.fr;thermos-root-devel-WordCountTopology-2-3964b453-7026-46d9-9ceb-94826cb0a3ae;["container_2_Emit_random_words_2"];1.25;1533751022.16841;5.39;71.01;76.867626686;10;149
0;paravance-3.rennes.grid5000.fr;thermos-root-devel-WordCountTopology-0-4b4651ed-1302-4a0b-b13e-dd441af8f897;["topology_master"];1.25;1533751022.1854;2.57;8.69;7.018685042;9;117
0;paravance-28.rennes.grid5000.fr;thermos-root-devel-WordCountTopology-1-0790acf6-4a72-4202-a1d3-369cece2b5f8;["container_1_Consume_and_count_1"];1.25;1533751022.29977;14.33;141.16;433.32361407;10;152
1;paravance-3.rennes.grid5000.fr;thermos-root-devel-WordCountTopology-0-4b4651ed-1302-4a0b-b13e-dd441af8f897;["topology_master"];1.25;1533751032.4005;2.67;8.82;7.018685042;9;117
1;paravance-30.rennes.grid5000.fr;thermos-root-devel-WordCountTopology-2-3964b453-7026-46d9-9ceb-94826cb0a3ae;["container_2_Emit_random_words_2"];1.25;1533751032.38758;5.83;80.39;82.981629783;10;149
1;paravance-28.rennes.grid5000.fr;thermos-root-devel-WordCountTopology-1-0790acf6-4a72-4202-a1d3-369cece2b5f8;["container_1_Consume_and_count_1"];1.25;1533751032.51665;15.2;152.2;466.256828614;10;151
2;paravance-28.rennes.grid5000.fr;thermos-root-devel-WordCountTopology-1-0790acf6-4a72-4202-a1d3-369cece2b5f8;["container_1_Consume_and_count_1"];1.25;1533751042.73253;15.91;163.28;493.775689441;10;151
2;paravance-3.rennes.grid5000.fr;thermos-root-devel-WordCountTopology-0-4b4651ed-1302-4a0b-b13e-dd441af8f897;["topology_master"];1.25;1533751042.61758;2.69;8.85;7.018685042;9;117
2;paravance-30.rennes.grid5000.fr;thermos-root-devel-WordCountTopology-2-3964b453-7026-46d9-9ceb-94826cb0a3ae;["container_2_Emit_random_words_2"];1.25;1533751042.60366;5.92;80.53;82.981629783;10;149
3;paravance-3.rennes.grid5000.fr;thermos-root-devel-WordCountTopology-0-4b4651ed-1302-4a0b-b13e-dd441af8f897;["topology_master"];1.25;1533751052.83508;2.78;8.98;7.018685042;9;117
3;paravance-28.rennes.grid5000.fr;thermos-root-devel-WordCountTopology-1-0790acf6-4a72-4202-a1d3-369cece2b5f8;["container_1_Consume_and_count_1"];1.25;1533751052.95056;16.74;174.26;524.537237155;10;151
3;paravance-30.rennes.grid5000.fr;thermos-root-devel-WordCountTopology-2-3964b453-7026-46d9-9ceb-94826cb0a3ae;["container_2_Emit_random_words_2"];1.25;1533751052.82195;6.3;88.85;88.416381985;10;149
4;paravance-28.rennes.grid5000.fr;thermos-root-devel-WordCountTopology-1-0790acf6-4a72-4202-a1d3-369cece2b5f8;["container_1_Consume_and_count_1"];1.25;1533751063.16865;17.37;184.94;542.893609847;10;151
4;paravance-3.rennes.grid5000.fr;thermos-root-devel-WordCountTopology-0-4b4651ed-1302-4a0b-b13e-dd441af8f897;["topology_master"];1.25;1533751063.0532;2.84;9.06;7.018685042;9;117
4;paravance-30.rennes.grid5000.fr;thermos-root-devel-WordCountTopology-2-3964b453-7026-46d9-9ceb-94826cb0a3ae;["container_2_Emit_random_words_2"];1.25;1533751063.03967;6.42;89.04;88.416381985;10;149
5;paravance-3.rennes.grid5000.fr;thermos-root-devel-WordCountTopology-0-4b4651ed-1302-4a0b-b13e-dd441af8f897;["topology_master"];1.25;1533751073.27098;2.93;9.18;7.022687236;9;117
5;paravance-30.rennes.grid5000.fr;thermos-root-devel-WordCountTopology-2-3964b453-7026-46d9-9ceb-94826cb0a3ae;["container_2_Emit_random_words_2"];1.25;1533751073.2576;6.78;96.74;93.515728367;10;149
5;paravance-28.rennes.grid5000.fr;thermos-root-devel-WordCountTopology-1-0790acf6-4a72-4202-a1d3-369cece2b5f8;["container_1_Consume_and_count_1"];1.25;1533751073.38806;17.97;196.02;569.899957393;10;151
6;paravance-30.rennes.grid5000.fr;thermos-root-devel-WordCountTopology-2-3964b453-7026-46d9-9ceb-94826cb0a3ae;["container_2_Emit_random_words_2"];1.25;1533751083.47392;6.92;97.06;93.515728367;10;149
6;paravance-3.rennes.grid5000.fr;thermos-root-devel-WordCountTopology-0-4b4651ed-1302-4a0b-b13e-dd441af8f897;["topology_master"];1.25;1533751083.49029;2.99;9.32;7.022687236;9;117
6;paravance-28.rennes.grid5000.fr;thermos-root-devel-WordCountTopology-1-0790acf6-4a72-4202-a1d3-369cece2b5f8;["container_1_Consume_and_count_1"];1.25;1533751083.60553;18.61;207.04;596.944805469;10;151
7;paravance-30.rennes.grid5000.fr;thermos-root-devel-WordCountTopology-2-3964b453-7026-46d9-9ceb-94826cb0a3ae;["container_2_Emit_random_words_2"];1.25;1533751093.69182;7.2;101.56;95.801478943;10;149
7;paravance-3.rennes.grid5000.fr;thermos-root-devel-WordCountTopology-0-4b4651ed-1302-4a0b-b13e-dd441af8f897;["topology_master"];1.25;1533751093.70783;3.09;9.46;7.022687236;9;117
7;paravance-28.rennes.grid5000.fr;thermos-root-devel-WordCountTopology-1-0790acf6-4a72-4202-a1d3-369cece2b5f8;["container_1_Consume_and_count_1"];1.25;1533751093.82329;19.34;217.92;621.321525475;10;151
8;paravance-28.rennes.grid5000.fr;thermos-root-devel-WordCountTopology-1-0790acf6-4a72-4202-a1d3-369cece2b5f8;["container_1_Consume_and_count_1"];1.25;1533751104.03935;19.87;229.19;647.947787464;10;151
8;paravance-30.rennes.grid5000.fr;thermos-root-devel-WordCountTopology-2-3964b453-7026-46d9-9ceb-94826cb0a3ae;["container_2_Emit_random_words_2"];1.25;1533751103.90912;7.4;105.93;98.22090888;10;149
8;paravance-3.rennes.grid5000.fr;thermos-root-devel-WordCountTopology-0-4b4651ed-1302-4a0b-b13e-dd441af8f897;["topology_master"];1.25;1533751103.92478;3.11;9.49;7.022687236;9;117
9;paravance-28.rennes.grid5000.fr;thermos-root-devel-WordCountTopology-1-0790acf6-4a72-4202-a1d3-369cece2b5f8;["container_1_Consume_and_count_1"];1.25;1533751114.25712;20.84;239.81;673.988585903;10;151
9;paravance-30.rennes.grid5000.fr;thermos-root-devel-WordCountTopology-2-3964b453-7026-46d9-9ceb-94826cb0a3ae;["container_2_Emit_random_words_2"];1.25;1533751114.12771;7.56;106.55;98.442436213;10;149
9;paravance-3.rennes.grid5000.fr;thermos-root-devel-WordCountTopology-0-4b4651ed-1302-4a0b-b13e-dd441af8f897;["topology_master"];1.25;1533751114.14198;3.2;9.61;7.022687236;9;117
10;paravance-28.rennes.grid5000.fr;thermos-root-devel-WordCountTopology-1-0790acf6-4a72-4202-a1d3-369cece2b5f8;["container_1_Consume_and_count_1"];1.25;1533751124.47424;21.61;250.93;706.167905141;10;151
10;paravance-30.rennes.grid5000.fr;thermos-root-devel-WordCountTopology-2-3964b453-7026-46d9-9ceb-94826cb0a3ae;["container_2_Emit_random_words_2"];1.25;1533751124.34591;7.94;115.82;104.271303035;10;149
10;paravance-3.rennes.grid5000.fr;thermos-root-devel-WordCountTopology-0-4b4651ed-1302-4a0b-b13e-dd441af8f897;["topology_master"];1.25;1533751124.36152;3.26;9.69;7.022687236;9;117
11;paravance-28.rennes.grid5000.fr;thermos-root-devel-WordCountTopology-1-0790acf6-4a72-4202-a1d3-369cece2b5f8;["container_1_Consume_and_count_1"];1.25;1533751134.69276;22.48;261.81;734.060755412;10;151
11;paravance-3.rennes.grid5000.fr;thermos-root-devel-WordCountTopology-0-4b4651ed-1302-4a0b-b13e-dd441af8f897;["topology_master"];1.25;1533751134.5776;3.38;9.91;7.022706386;9;117
11;paravance-30.rennes.grid5000.fr;thermos-root-devel-WordCountTopology-2-3964b453-7026-46d9-9ceb-94826cb0a3ae;["container_2_Emit_random_words_2"];1.25;1533751134.56318;8.14;117.36;105.004978374;10;149
12;paravance-28.rennes.grid5000.fr;thermos-root-devel-WordCountTopology-1-0790acf6-4a72-4202-a1d3-369cece2b5f8;["container_1_Consume_and_count_1"];1.25;1533751144.91018;23.22;272.71;763.127099223;10;151
12;paravance-3.rennes.grid5000.fr;thermos-root-devel-WordCountTopology-0-4b4651ed-1302-4a0b-b13e-dd441af8f897;["topology_master"];1.25;1533751144.79567;3.42;9.95;7.022706386;9;117
12;paravance-30.rennes.grid5000.fr;thermos-root-devel-WordCountTopology-2-3964b453-7026-46d9-9ceb-94826cb0a3ae;["container_2_Emit_random_words_2"];1.25;1533751144.78048;8.42;123.44;109.044418032;10;149
13;paravance-28.rennes.grid5000.fr;thermos-root-devel-WordCountTopology-1-0790acf6-4a72-4202-a1d3-369cece2b5f8;["container_1_Consume_and_count_1"];1.25;1533751155.12769;23.76;283.68;785.446206017;10;151
13;paravance-3.rennes.grid5000.fr;thermos-root-devel-WordCountTopology-0-4b4651ed-1302-4a0b-b13e-dd441af8f897;["topology_master"];1.25;1533751155.01489;3.51;10.08;7.022706386;9;117
13;paravance-30.rennes.grid5000.fr;thermos-root-devel-WordCountTopology-2-3964b453-7026-46d9-9ceb-94826cb0a3ae;["container_2_Emit_random_words_2"];1.25;1533751154.99971;8.57;123.66;109.044418032;10;149
14;paravance-3.rennes.grid5000.fr;thermos-root-devel-WordCountTopology-0-4b4651ed-1302-4a0b-b13e-dd441af8f897;["topology_master"];1.25;1533751165.23164;3.57;10.17;7.022706386;9;117
14;paravance-30.rennes.grid5000.fr;thermos-root-devel-WordCountTopology-2-3964b453-7026-46d9-9ceb-94826cb0a3ae;["container_2_Emit_random_words_2"];1.25;1533751165.21675;8.93;132.59;114.722103354;10;149
14;paravance-28.rennes.grid5000.fr;thermos-root-devel-WordCountTopology-1-0790acf6-4a72-4202-a1d3-369cece2b5f8;["container_1_Consume_and_count_1"];1.25;1533751165.3468;24.61;294.35;808.291511178;10;151
15;paravance-28.rennes.grid5000.fr;thermos-root-devel-WordCountTopology-1-0790acf6-4a72-4202-a1d3-369cece2b5f8;["container_1_Consume_and_count_1"];1.25;1533751175.56219;25.05;305.82;838.701900355;10;151
15;paravance-3.rennes.grid5000.fr;thermos-root-devel-WordCountTopology-0-4b4651ed-1302-4a0b-b13e-dd441af8f897;["topology_master"];1.25;1533751175.4486;3.63;10.25;7.022706386;9;117
15;paravance-30.rennes.grid5000.fr;thermos-root-devel-WordCountTopology-2-3964b453-7026-46d9-9ceb-94826cb0a3ae;["container_2_Emit_random_words_2"];1.25;1533751175.43317;9.05;132.79;114.722103354;10;149
16;paravance-3.rennes.grid5000.fr;thermos-root-devel-WordCountTopology-0-4b4651ed-1302-4a0b-b13e-dd441af8f897;["topology_master"];1.25;1533751185.66592;3.68;10.32;7.022706386;9;117
16;paravance-30.rennes.grid5000.fr;thermos-root-devel-WordCountTopology-2-3964b453-7026-46d9-9ceb-94826cb0a3ae;["container_2_Emit_random_words_2"];1.25;1533751185.65101;9.17;132.96;114.722103354;10;149
16;paravance-28.rennes.grid5000.fr;thermos-root-devel-WordCountTopology-1-0790acf6-4a72-4202-a1d3-369cece2b5f8;["container_1_Consume_and_count_1"];1.25;1533751185.78082;25.77;316.76;862.177287396;10;151
17;paravance-3.rennes.grid5000.fr;thermos-root-devel-WordCountTopology-0-4b4651ed-1302-4a0b-b13e-dd441af8f897;["topology_master"];1.25;1533751195.88319;3.8;10.58;7.022706386;9;117
17;paravance-30.rennes.grid5000.fr;thermos-root-devel-WordCountTopology-2-3964b453-7026-46d9-9ceb-94826cb0a3ae;["container_2_Emit_random_words_2"];1.25;1533751195.86911;9.55;140.63;118.997130069;10;149
17;paravance-28.rennes.grid5000.fr;thermos-root-devel-WordCountTopology-1-0790acf6-4a72-4202-a1d3-369cece2b5f8;["container_1_Consume_and_count_1"];1.25;1533751196.00039;26.43;327.78;892.915493185;10;151
18;paravance-3.rennes.grid5000.fr;thermos-root-devel-WordCountTopology-0-4b4651ed-1302-4a0b-b13e-dd441af8f897;["topology_master"];1.25;1533751206.10008;3.83;10.61;7.022706386;9;117
18;paravance-28.rennes.grid5000.fr;thermos-root-devel-WordCountTopology-1-0790acf6-4a72-4202-a1d3-369cece2b5f8;["container_1_Consume_and_count_1"];1.25;1533751206.21636;26.98;338.81;916.396790295;10;151
18;paravance-30.rennes.grid5000.fr;thermos-root-devel-WordCountTopology-2-3964b453-7026-46d9-9ceb-94826cb0a3ae;["container_2_Emit_random_words_2"];1.25;1533751206.08675;9.64;140.76;118.997130069;10;149
19;paravance-28.rennes.grid5000.fr;thermos-root-devel-WordCountTopology-1-0790acf6-4a72-4202-a1d3-369cece2b5f8;["container_1_Consume_and_count_1"];1.25;1533751216.33258;27.83;349.57;942.012725469;10;151
19;paravance-3.rennes.grid5000.fr;thermos-root-devel-WordCountTopology-0-4b4651ed-1302-4a0b-b13e-dd441af8f897;["topology_master"];1.25;1533751216.3165;3.92;10.75;7.022706386;9;117
19;paravance-30.rennes.grid5000.fr;thermos-root-devel-WordCountTopology-2-3964b453-7026-46d9-9ceb-94826cb0a3ae;["container_2_Emit_random_words_2"];1.25;1533751216.30036;9.95;146.5;122.363797943;10;149
20;paravance-28.rennes.grid5000.fr;thermos-root-devel-WordCountTopology-1-0790acf6-4a72-4202-a1d3-369cece2b5f8;["container_1_Consume_and_count_1"];1.25;1533751226.64794;28.46;360.57;967.906649791;10;151
20;paravance-3.rennes.grid5000.fr;thermos-root-devel-WordCountTopology-0-4b4651ed-1302-4a0b-b13e-dd441af8f897;["topology_master"];1.25;1533751226.53408;3.97;10.82;7.022706386;9;117
20;paravance-30.rennes.grid5000.fr;thermos-root-devel-WordCountTopology-2-3964b453-7026-46d9-9ceb-94826cb0a3ae;["container_2_Emit_random_words_2"];1.25;1533751226.51837;10.11;147.8;123.179635388;10;149
21;paravance-3.rennes.grid5000.fr;thermos-root-devel-WordCountTopology-0-4b4651ed-1302-4a0b-b13e-dd441af8f897;["topology_master"];1.25;1533751236.75329;4.03;10.9;7.022706386;9;117
21;paravance-30.rennes.grid5000.fr;thermos-root-devel-WordCountTopology-2-3964b453-7026-46d9-9ceb-94826cb0a3ae;["container_2_Emit_random_words_2"];1.25;1533751236.74206;10.24;148.47;123.532043812;10;149
21;paravance-28.rennes.grid5000.fr;thermos-root-devel-WordCountTopology-1-0790acf6-4a72-4202-a1d3-369cece2b5f8;["container_1_Consume_and_count_1"];1.25;1533751236.87528;29.1;371.44;988.013261669;10;151
22;paravance-28.rennes.grid5000.fr;thermos-root-devel-WordCountTopology-1-0790acf6-4a72-4202-a1d3-369cece2b5f8;["container_1_Consume_and_count_1"];1.25;1533751247.08918;29.6;382.75;1012.944202744;10;151
22;paravance-3.rennes.grid5000.fr;thermos-root-devel-WordCountTopology-0-4b4651ed-1302-4a0b-b13e-dd441af8f897;["topology_master"];1.25;1533751246.9745;4.09;10.98;7.022706386;9;117
22;paravance-30.rennes.grid5000.fr;thermos-root-devel-WordCountTopology-2-3964b453-7026-46d9-9ceb-94826cb0a3ae;["container_2_Emit_random_words_2"];1.25;1533751246.95966;10.52;153.84;127.195466854;10;149
23;paravance-3.rennes.grid5000.fr;thermos-root-devel-WordCountTopology-0-4b4651ed-1302-4a0b-b13e-dd441af8f897;["topology_master"];1.25;1533751257.18927;4.21;11.19;7.022706386;9;117
23;paravance-28.rennes.grid5000.fr;thermos-root-devel-WordCountTopology-1-0790acf6-4a72-4202-a1d3-369cece2b5f8;["container_1_Consume_and_count_1"];1.25;1533751257.30408;30.16;393.78;1035.430426132;10;151
23;paravance-30.rennes.grid5000.fr;thermos-root-devel-WordCountTopology-2-3964b453-7026-46d9-9ceb-94826cb0a3ae;["container_2_Emit_random_words_2"];1.25;1533751257.17572;10.7;154.15;127.195466854;10;149
24;paravance-28.rennes.grid5000.fr;thermos-root-devel-WordCountTopology-1-0790acf6-4a72-4202-a1d3-369cece2b5f8;["container_1_Consume_and_count_1"];1.25;1533751267.52011;30.99;404.48;1059.496462188;10;151
24;paravance-3.rennes.grid5000.fr;thermos-root-devel-WordCountTopology-0-4b4651ed-1302-4a0b-b13e-dd441af8f897;["topology_master"];1.25;1533751267.40686;4.23;11.21;7.022706386;9;117
24;paravance-30.rennes.grid5000.fr;thermos-root-devel-WordCountTopology-2-3964b453-7026-46d9-9ceb-94826cb0a3ae;["container_2_Emit_random_words_2"];1.25;1533751267.39169;11.01;162.17;131.454905781;10;149
25;paravance-3.rennes.grid5000.fr;thermos-root-devel-WordCountTopology-0-4b4651ed-1302-4a0b-b13e-dd441af8f897;["topology_master"];1.25;1533751277.62222;4.32;11.33;7.022706386;9;117
25;paravance-28.rennes.grid5000.fr;thermos-root-devel-WordCountTopology-1-0790acf6-4a72-4202-a1d3-369cece2b5f8;["container_1_Consume_and_count_1"];1.25;1533751277.73824;31.72;415.25;1082.316535246;10;151
25;paravance-30.rennes.grid5000.fr;thermos-root-devel-WordCountTopology-2-3964b453-7026-46d9-9ceb-94826cb0a3ae;["container_2_Emit_random_words_2"];1.25;1533751277.60808;11.19;163.34;132.055994471;10;149
26;paravance-3.rennes.grid5000.fr;thermos-root-devel-WordCountTopology-0-4b4651ed-1302-4a0b-b13e-dd441af8f897;["topology_master"];1.25;1533751287.83873;4.38;11.41;7.022706386;9;117
26;paravance-28.rennes.grid5000.fr;thermos-root-devel-WordCountTopology-1-0790acf6-4a72-4202-a1d3-369cece2b5f8;["container_1_Consume_and_count_1"];1.25;1533751287.95419;32.51;426.13;1102.060471596;10;151
26;paravance-30.rennes.grid5000.fr;thermos-root-devel-WordCountTopology-2-3964b453-7026-46d9-9ceb-94826cb0a3ae;["container_2_Emit_random_words_2"];1.25;1533751287.82397;11.54;171.58;136.610121686;10;149
27;paravance-3.rennes.grid5000.fr;thermos-root-devel-WordCountTopology-0-4b4651ed-1302-4a0b-b13e-dd441af8f897;["topology_master"];1.25;1533751298.05504;4.44;11.48;7.022706386;9;117
27;paravance-30.rennes.grid5000.fr;thermos-root-devel-WordCountTopology-2-3964b453-7026-46d9-9ceb-94826cb0a3ae;["container_2_Emit_random_words_2"];1.25;1533751298.0402;11.66;171.75;136.610121686;10;149
27;paravance-28.rennes.grid5000.fr;thermos-root-devel-WordCountTopology-1-0790acf6-4a72-4202-a1d3-369cece2b5f8;["container_1_Consume_and_count_1"];1.25;1533751298.17096;33.03;437.1;1124.869095889;10;151
28;paravance-3.rennes.grid5000.fr;thermos-root-devel-WordCountTopology-0-4b4651ed-1302-4a0b-b13e-dd441af8f897;["topology_master"];1.25;1533751308.27503;4.49;11.56;7.022706386;9;117
28;paravance-28.rennes.grid5000.fr;thermos-root-devel-WordCountTopology-1-0790acf6-4a72-4202-a1d3-369cece2b5f8;["container_1_Consume_and_count_1"];1.25;1533751308.3898;33.84;447.75;1148.418277536;10;151
28;paravance-30.rennes.grid5000.fr;thermos-root-devel-WordCountTopology-2-3964b453-7026-46d9-9ceb-94826cb0a3ae;["container_2_Emit_random_words_2"];1.25;1533751308.25958;12.01;180.3;141.66343128;10;149
29;paravance-3.rennes.grid5000.fr;thermos-root-devel-WordCountTopology-0-4b4651ed-1302-4a0b-b13e-dd441af8f897;["topology_master"];1.25;1533751318.49158;4.6;11.73;7.022706386;9;117
29;paravance-28.rennes.grid5000.fr;thermos-root-devel-WordCountTopology-1-0790acf6-4a72-4202-a1d3-369cece2b5f8;["container_1_Consume_and_count_1"];1.25;1533751318.60754;34.48;458.69;1169.520700767;10;151
29;paravance-30.rennes.grid5000.fr;thermos-root-devel-WordCountTopology-2-3964b453-7026-46d9-9ceb-94826cb0a3ae;["container_2_Emit_random_words_2"];1.25;1533751318.47716;12.19;180.57;141.66343128;10;149
30;paravance-28.rennes.grid5000.fr;thermos-root-devel-WordCountTopology-1-0790acf6-4a72-4202-a1d3-369cece2b5f8;["container_1_Consume_and_count_1"];1.25;1533751328.82411;35.26;469.51;1194.977430805;10;151
30;paravance-3.rennes.grid5000.fr;thermos-root-devel-WordCountTopology-0-4b4651ed-1302-4a0b-b13e-dd441af8f897;["topology_master"];1.25;1533751328.71108;4.63;11.76;7.022706386;9;117
30;paravance-30.rennes.grid5000.fr;thermos-root-devel-WordCountTopology-2-3964b453-7026-46d9-9ceb-94826cb0a3ae;["container_2_Emit_random_words_2"];1.25;1533751328.69433;12.52;188.6;145.757575499;10;149
31;paravance-3.rennes.grid5000.fr;thermos-root-devel-WordCountTopology-0-4b4651ed-1302-4a0b-b13e-dd441af8f897;["topology_master"];1.25;1533751338.92781;4.72;11.89;7.022706386;9;117
31;paravance-28.rennes.grid5000.fr;thermos-root-devel-WordCountTopology-1-0790acf6-4a72-4202-a1d3-369cece2b5f8;["container_1_Consume_and_count_1"];1.25;1533751339.04293;35.94;480.35;1219.896395583;10;151
31;paravance-30.rennes.grid5000.fr;thermos-root-devel-WordCountTopology-2-3964b453-7026-46d9-9ceb-94826cb0a3ae;["container_2_Emit_random_words_2"];1.25;1533751338.91137;12.69;189.65;146.424163815;10;149
32;paravance-3.rennes.grid5000.fr;thermos-root-devel-WordCountTopology-0-4b4651ed-1302-4a0b-b13e-dd441af8f897;["topology_master"];1.25;1533751349.14401;4.81;12.01;7.022706386;9;117
32;paravance-30.rennes.grid5000.fr;thermos-root-devel-WordCountTopology-2-3964b453-7026-46d9-9ceb-94826cb0a3ae;["container_2_Emit_random_words_2"];1.25;1533751349.12934;12.85;189.87;146.424163815;10;149
32;paravance-28.rennes.grid5000.fr;thermos-root-devel-WordCountTopology-1-0790acf6-4a72-4202-a1d3-369cece2b5f8;["container_1_Consume_and_count_1"];1.25;1533751349.26254;37.0;490.76;1245.102512749;10;151
33;paravance-28.rennes.grid5000.fr;thermos-root-devel-WordCountTopology-1-0790acf6-4a72-4202-a1d3-369cece2b5f8;["container_1_Consume_and_count_1"];1.25;1533751359.48161;37.87;501.51;1267.364647068;10;151
33;paravance-3.rennes.grid5000.fr;thermos-root-devel-WordCountTopology-0-4b4651ed-1302-4a0b-b13e-dd441af8f897;["topology_master"];1.25;1533751359.36536;4.84;12.03;7.022706386;9;117
33;paravance-30.rennes.grid5000.fr;thermos-root-devel-WordCountTopology-2-3964b453-7026-46d9-9ceb-94826cb0a3ae;["container_2_Emit_random_words_2"];1.25;1533751359.35707;13.16;198.69;151.815308919;10;149
34;paravance-3.rennes.grid5000.fr;thermos-root-devel-WordCountTopology-0-4b4651ed-1302-4a0b-b13e-dd441af8f897;["topology_master"];1.25;1533751369.59516;4.94;12.18;7.022706386;9;117
34;paravance-28.rennes.grid5000.fr;thermos-root-devel-WordCountTopology-1-0790acf6-4a72-4202-a1d3-369cece2b5f8;["container_1_Consume_and_count_1"];1.25;1533751369.71061;38.32;512.59;1289.101141016;10;149
34;paravance-30.rennes.grid5000.fr;thermos-root-devel-WordCountTopology-2-3964b453-7026-46d9-9ceb-94826cb0a3ae;["container_2_Emit_random_words_2"];1.25;1533751369.58825;13.32;198.92;151.815308919;10;149
35;paravance-30.rennes.grid5000.fr;thermos-root-devel-WordCountTopology-2-3964b453-7026-46d9-9ceb-94826cb0a3ae;["container_2_Emit_random_words_2"];1.25;1533751379.80167;13.62;205.58;155.897506135;10;149
35;paravance-28.rennes.grid5000.fr;thermos-root-devel-WordCountTopology-1-0790acf6-4a72-4202-a1d3-369cece2b5f8;["container_1_Consume_and_count_1"];1.25;1533751379.93351;39.0;523.47;1314.506683142;10;151
35;paravance-3.rennes.grid5000.fr;thermos-root-devel-WordCountTopology-0-4b4651ed-1302-4a0b-b13e-dd441af8f897;["topology_master"];1.25;1533751379.82025;5.01;12.34;7.022706386;9;117
36;paravance-3.rennes.grid5000.fr;thermos-root-devel-WordCountTopology-0-4b4651ed-1302-4a0b-b13e-dd441af8f897;["topology_master"];1.25;1533751390.03343;5.06;12.41;7.022706386;9;117
36;paravance-28.rennes.grid5000.fr;thermos-root-devel-WordCountTopology-1-0790acf6-4a72-4202-a1d3-369cece2b5f8;["container_1_Consume_and_count_1"];1.25;1533751390.14991;39.75;534.42;1339.866326688;10;151
36;paravance-30.rennes.grid5000.fr;thermos-root-devel-WordCountTopology-2-3964b453-7026-46d9-9ceb-94826cb0a3ae;["container_2_Emit_random_words_2"];1.25;1533751390.01973;13.8;207.68;156.783455982;10;149
37;paravance-28.rennes.grid5000.fr;thermos-root-devel-WordCountTopology-1-0790acf6-4a72-4202-a1d3-369cece2b5f8;["container_1_Consume_and_count_1"];1.25;1533751400.36355;40.38;545.09;1359.187102836;10;151
37;paravance-30.rennes.grid5000.fr;thermos-root-devel-WordCountTopology-2-3964b453-7026-46d9-9ceb-94826cb0a3ae;["container_2_Emit_random_words_2"];1.25;1533751400.23479;13.99;210.69;158.527930722;10;149
37;paravance-3.rennes.grid5000.fr;thermos-root-devel-WordCountTopology-0-4b4651ed-1302-4a0b-b13e-dd441af8f897;["topology_master"];1.25;1533751400.2515;5.12;12.49;7.022706386;9;117
38;paravance-28.rennes.grid5000.fr;thermos-root-devel-WordCountTopology-1-0790acf6-4a72-4202-a1d3-369cece2b5f8;["container_1_Consume_and_count_1"];1.25;1533751410.57972;40.92;556.11;1386.542817964;10;151
38;paravance-3.rennes.grid5000.fr;thermos-root-devel-WordCountTopology-0-4b4651ed-1302-4a0b-b13e-dd441af8f897;["topology_master"];1.25;1533751410.46561;5.21;12.61;7.022706386;9;117
38;paravance-30.rennes.grid5000.fr;thermos-root-devel-WordCountTopology-2-3964b453-7026-46d9-9ceb-94826cb0a3ae;["container_2_Emit_random_words_2"];1.25;1533751410.45127;14.26;215.59;161.487195812;10;149
39;paravance-30.rennes.grid5000.fr;thermos-root-devel-WordCountTopology-2-3964b453-7026-46d9-9ceb-94826cb0a3ae;["container_2_Emit_random_words_2"];1.25;1533751420.66913;14.44;218.95;163.190831657;10;149
39;paravance-3.rennes.grid5000.fr;thermos-root-devel-WordCountTopology-0-4b4651ed-1302-4a0b-b13e-dd441af8f897;["topology_master"];1.25;1533751420.69149;5.23;12.63;7.022706386;9;117
39;paravance-28.rennes.grid5000.fr;thermos-root-devel-WordCountTopology-1-0790acf6-4a72-4202-a1d3-369cece2b5f8;["container_1_Consume_and_count_1"];1.25;1533751420.80844;41.64;566.88;1410.708063891;10;151
40;paravance-28.rennes.grid5000.fr;thermos-root-devel-WordCountTopology-1-0790acf6-4a72-4202-a1d3-369cece2b5f8;["container_1_Consume_and_count_1"];1.25;1533751431.02882;42.15;578.27;1440.151008085;10;151
40;paravance-30.rennes.grid5000.fr;thermos-root-devel-WordCountTopology-2-3964b453-7026-46d9-9ceb-94826cb0a3ae;["container_2_Emit_random_words_2"];1.25;1533751430.89711;14.72;223.19;165.3192237;10;149
40;paravance-3.rennes.grid5000.fr;thermos-root-devel-WordCountTopology-0-4b4651ed-1302-4a0b-b13e-dd441af8f897;["topology_master"];1.25;1533751430.91441;5.33;12.77;7.022706386;9;117
41;paravance-3.rennes.grid5000.fr;thermos-root-devel-WordCountTopology-0-4b4651ed-1302-4a0b-b13e-dd441af8f897;["topology_master"];1.25;1533751441.1351;5.4;12.89;7.022706386;9;117
41;paravance-30.rennes.grid5000.fr;thermos-root-devel-WordCountTopology-2-3964b453-7026-46d9-9ceb-94826cb0a3ae;["container_2_Emit_random_words_2"];1.25;1533751441.11933;14.86;223.92;165.679780313;10;149
41;paravance-28.rennes.grid5000.fr;thermos-root-devel-WordCountTopology-1-0790acf6-4a72-4202-a1d3-369cece2b5f8;["container_1_Consume_and_count_1"];1.25;1533751441.25391;42.92;588.93;1463.545180518;10;151
42;paravance-28.rennes.grid5000.fr;thermos-root-devel-WordCountTopology-1-0790acf6-4a72-4202-a1d3-369cece2b5f8;["container_1_Consume_and_count_1"];1.25;1533751451.47223;43.87;599.63;1487.407361601;10;151
42;paravance-30.rennes.grid5000.fr;thermos-root-devel-WordCountTopology-2-3964b453-7026-46d9-9ceb-94826cb0a3ae;["container_2_Emit_random_words_2"];1.25;1533751451.34582;15.18;231.78;170.816751127;10;149
42;paravance-3.rennes.grid5000.fr;thermos-root-devel-WordCountTopology-0-4b4651ed-1302-4a0b-b13e-dd441af8f897;["topology_master"];1.25;1533751451.36425;5.49;13.02;7.022706386;9;117
43;paravance-28.rennes.grid5000.fr;thermos-root-devel-WordCountTopology-1-0790acf6-4a72-4202-a1d3-369cece2b5f8;["container_1_Consume_and_count_1"];1.25;1533751461.69213;44.36;610.77;1511.319986764;10;151
43;paravance-30.rennes.grid5000.fr;thermos-root-devel-WordCountTopology-2-3964b453-7026-46d9-9ceb-94826cb0a3ae;["container_2_Emit_random_words_2"];1.25;1533751461.56363;15.29;231.94;170.816751127;10;149
43;paravance-3.rennes.grid5000.fr;thermos-root-devel-WordCountTopology-0-4b4651ed-1302-4a0b-b13e-dd441af8f897;["topology_master"];1.25;1533751461.58583;5.51;13.04;7.022706386;9;117
44;paravance-3.rennes.grid5000.fr;thermos-root-devel-WordCountTopology-0-4b4651ed-1302-4a0b-b13e-dd441af8f897;["topology_master"];1.25;1533751471.80077;5.6;13.17;7.022706386;9;117
44;paravance-30.rennes.grid5000.fr;thermos-root-devel-WordCountTopology-2-3964b453-7026-46d9-9ceb-94826cb0a3ae;["container_2_Emit_random_words_2"];1.25;1533751471.78507;15.69;241.4;176.370982696;10;149
44;paravance-28.rennes.grid5000.fr;thermos-root-devel-WordCountTopology-1-0790acf6-4a72-4202-a1d3-369cece2b5f8;["container_1_Consume_and_count_1"];1.25;1533751471.91683;45.25;621.43;1533.326496829;10;151
45;paravance-30.rennes.grid5000.fr;thermos-root-devel-WordCountTopology-2-3964b453-7026-46d9-9ceb-94826cb0a3ae;["container_2_Emit_random_words_2"];1.25;1533751482.00062;15.77;241.53;176.370982696;10;149
45;paravance-28.rennes.grid5000.fr;thermos-root-devel-WordCountTopology-1-0790acf6-4a72-4202-a1d3-369cece2b5f8;["container_1_Consume_and_count_1"];1.25;1533751482.13278;45.95;632.22;1553.392983934;10;151
45;paravance-3.rennes.grid5000.fr;thermos-root-devel-WordCountTopology-0-4b4651ed-1302-4a0b-b13e-dd441af8f897;["topology_master"];1.25;1533751482.01755;5.66;13.24;7.022706386;9;117
46;paravance-28.rennes.grid5000.fr;thermos-root-devel-WordCountTopology-1-0790acf6-4a72-4202-a1d3-369cece2b5f8;["container_1_Consume_and_count_1"];1.25;1533751492.34767;46.66;643.09;1573.980874288;10;151
46;paravance-3.rennes.grid5000.fr;thermos-root-devel-WordCountTopology-0-4b4651ed-1302-4a0b-b13e-dd441af8f897;["topology_master"];1.25;1533751492.2355;5.73;13.33;7.022706386;9;117
46;paravance-30.rennes.grid5000.fr;thermos-root-devel-WordCountTopology-2-3964b453-7026-46d9-9ceb-94826cb0a3ae;["container_2_Emit_random_words_2"];1.25;1533751492.2198;16.13;248.67;180.944943759;10;149
47;paravance-28.rennes.grid5000.fr;thermos-root-devel-WordCountTopology-1-0790acf6-4a72-4202-a1d3-369cece2b5f8;["container_1_Consume_and_count_1"];1.25;1533751502.57196;47.22;654.0;1593.499981877;10;151
47;paravance-3.rennes.grid5000.fr;thermos-root-devel-WordCountTopology-0-4b4651ed-1302-4a0b-b13e-dd441af8f897;["topology_master"];1.25;1533751502.45688;5.8;13.47;7.022706386;9;117
47;paravance-30.rennes.grid5000.fr;thermos-root-devel-WordCountTopology-2-3964b453-7026-46d9-9ceb-94826cb0a3ae;["container_2_Emit_random_words_2"];1.25;1533751502.44091;16.26;249.22;181.181403176;10;149
48;paravance-28.rennes.grid5000.fr;thermos-root-devel-WordCountTopology-1-0790acf6-4a72-4202-a1d3-369cece2b5f8;["container_1_Consume_and_count_1"];1.25;1533751512.79308;47.97;664.89;1617.275238507;10;151
48;paravance-30.rennes.grid5000.fr;thermos-root-devel-WordCountTopology-2-3964b453-7026-46d9-9ceb-94826cb0a3ae;["container_2_Emit_random_words_2"];1.25;1533751512.66272;16.65;259.15;186.84616087;10;149
48;paravance-3.rennes.grid5000.fr;thermos-root-devel-WordCountTopology-0-4b4651ed-1302-4a0b-b13e-dd441af8f897;["topology_master"];1.25;1533751512.68578;5.88;13.59;7.022706386;9;117
49;paravance-3.rennes.grid5000.fr;thermos-root-devel-WordCountTopology-0-4b4651ed-1302-4a0b-b13e-dd441af8f897;["topology_master"];1.25;1533751522.90252;5.91;13.62;7.022706386;9;117
49;paravance-30.rennes.grid5000.fr;thermos-root-devel-WordCountTopology-2-3964b453-7026-46d9-9ceb-94826cb0a3ae;["container_2_Emit_random_words_2"];1.25;1533751522.88697;16.76;259.3;186.84616087;10;149
49;paravance-28.rennes.grid5000.fr;thermos-root-devel-WordCountTopology-1-0790acf6-4a72-4202-a1d3-369cece2b5f8;["container_1_Consume_and_count_1"];1.25;1533751523.02125;48.6;675.72;1637.490916766;10;151
50;paravance-3.rennes.grid5000.fr;thermos-root-devel-WordCountTopology-0-4b4651ed-1302-4a0b-b13e-dd441af8f897;["topology_master"];1.25;1533751533.12669;6.0;13.75;7.022706386;9;117
50;paravance-28.rennes.grid5000.fr;thermos-root-devel-WordCountTopology-1-0790acf6-4a72-4202-a1d3-369cece2b5f8;["container_1_Consume_and_count_1"];1.25;1533751533.24144;49.7;686.07;1659.628567663;10;151
50;paravance-30.rennes.grid5000.fr;thermos-root-devel-WordCountTopology-2-3964b453-7026-46d9-9ceb-94826cb0a3ae;["container_2_Emit_random_words_2"];1.25;1533751533.11159;17.15;268.44;192.348789835;10;149
51;paravance-30.rennes.grid5000.fr;thermos-root-devel-WordCountTopology-2-3964b453-7026-46d9-9ceb-94826cb0a3ae;["container_2_Emit_random_words_2"];1.25;1533751543.32508;17.3;269.75;193.182579413;10;149
51;paravance-3.rennes.grid5000.fr;thermos-root-devel-WordCountTopology-0-4b4651ed-1302-4a0b-b13e-dd441af8f897;["topology_master"];1.25;1533751543.35224;6.06;13.84;7.022706386;9;117
51;paravance-28.rennes.grid5000.fr;thermos-root-devel-WordCountTopology-1-0790acf6-4a72-4202-a1d3-369cece2b5f8;["container_1_Consume_and_count_1"];1.25;1533751543.47038;50.09;697.36;1684.785375942;10;151
52;paravance-3.rennes.grid5000.fr;thermos-root-devel-WordCountTopology-0-4b4651ed-1302-4a0b-b13e-dd441af8f897;["topology_master"];1.25;1533751553.57421;6.12;13.92;7.022706386;9;117
52;paravance-30.rennes.grid5000.fr;thermos-root-devel-WordCountTopology-2-3964b453-7026-46d9-9ceb-94826cb0a3ae;["container_2_Emit_random_words_2"];1.25;1533751553.56079;17.45;270.79;193.662443227;10;150
52;paravance-28.rennes.grid5000.fr;thermos-root-devel-WordCountTopology-1-0790acf6-4a72-4202-a1d3-369cece2b5f8;["container_1_Consume_and_count_1"];1.25;1533751553.70652;50.76;708.25;1706.617366917;10;151
53;paravance-30.rennes.grid5000.fr;thermos-root-devel-WordCountTopology-2-3964b453-7026-46d9-9ceb-94826cb0a3ae;["container_2_Emit_random_words_2"];1.25;1533751563.79521;17.8;278.05;198.403741495;10;150
53;paravance-28.rennes.grid5000.fr;thermos-root-devel-WordCountTopology-1-0790acf6-4a72-4202-a1d3-369cece2b5f8;["container_1_Consume_and_count_1"];1.25;1533751563.92751;51.3;719.41;1731.345429794;10;151
53;paravance-3.rennes.grid5000.fr;thermos-root-devel-WordCountTopology-0-4b4651ed-1302-4a0b-b13e-dd441af8f897;["topology_master"];1.25;1533751563.81386;6.19;14.06;7.022706386;9;117
54;paravance-3.rennes.grid5000.fr;thermos-root-devel-WordCountTopology-0-4b4651ed-1302-4a0b-b13e-dd441af8f897;["topology_master"];1.25;1533751574.03647;6.27;14.19;7.022706386;9;117
54;paravance-30.rennes.grid5000.fr;thermos-root-devel-WordCountTopology-2-3964b453-7026-46d9-9ceb-94826cb0a3ae;["container_2_Emit_random_words_2"];1.25;1533751574.02141;18.04;281.46;200.355814439;10;149
54;paravance-28.rennes.grid5000.fr;thermos-root-devel-WordCountTopology-1-0790acf6-4a72-4202-a1d3-369cece2b5f8;["container_1_Consume_and_count_1"];1.25;1533751574.15851;52.11;729.96;1750.710635517;10;151
55;paravance-28.rennes.grid5000.fr;thermos-root-devel-WordCountTopology-1-0790acf6-4a72-4202-a1d3-369cece2b5f8;["container_1_Consume_and_count_1"];1.25;1533751584.39021;52.91;740.62;1772.79779961;10;151
55;paravance-3.rennes.grid5000.fr;thermos-root-devel-WordCountTopology-0-4b4651ed-1302-4a0b-b13e-dd441af8f897;["topology_master"];1.25;1533751584.28766;6.3;14.21;7.022706386;9;117
55;paravance-30.rennes.grid5000.fr;thermos-root-devel-WordCountTopology-2-3964b453-7026-46d9-9ceb-94826cb0a3ae;["container_2_Emit_random_words_2"];1.25;1533751584.27134;18.32;288.9;204.531844468;10;149
56;paravance-3.rennes.grid5000.fr;thermos-root-devel-WordCountTopology-0-4b4651ed-1302-4a0b-b13e-dd441af8f897;["topology_master"];1.25;1533751594.51109;6.39;14.34;7.022706386;9;117
56;paravance-28.rennes.grid5000.fr;thermos-root-devel-WordCountTopology-1-0790acf6-4a72-4202-a1d3-369cece2b5f8;["container_1_Consume_and_count_1"];1.25;1533751594.62626;53.46;751.84;1801.923862347;10;151
56;paravance-30.rennes.grid5000.fr;thermos-root-devel-WordCountTopology-2-3964b453-7026-46d9-9ceb-94826cb0a3ae;["container_2_Emit_random_words_2"];1.25;1533751594.50283;18.47;289.11;204.531844468;10;149
57;paravance-3.rennes.grid5000.fr;thermos-root-devel-WordCountTopology-0-4b4651ed-1302-4a0b-b13e-dd441af8f897;["topology_master"];1.25;1533751604.63428;6.45;14.42;7.022706386;9;117
57;paravance-28.rennes.grid5000.fr;thermos-root-devel-WordCountTopology-1-0790acf6-4a72-4202-a1d3-369cece2b5f8;["container_1_Consume_and_count_1"];1.25;1533751604.8489;53.96;762.91;1827.271879283;10;151
57;paravance-30.rennes.grid5000.fr;thermos-root-devel-WordCountTopology-2-3964b453-7026-46d9-9ceb-94826cb0a3ae;["container_2_Emit_random_words_2"];1.25;1533751604.7175;18.69;293.08;207.014916186;10;149
58;paravance-28.rennes.grid5000.fr;thermos-root-devel-WordCountTopology-1-0790acf6-4a72-4202-a1d3-369cece2b5f8;["container_1_Consume_and_count_1"];1.25;1533751615.06121;54.61;773.81;1847.303689382;10;151
58;paravance-30.rennes.grid5000.fr;thermos-root-devel-WordCountTopology-2-3964b453-7026-46d9-9ceb-94826cb0a3ae;["container_2_Emit_random_words_2"];1.25;1533751614.93126;19.01;299.68;211.785779321;10;149
58;paravance-3.rennes.grid5000.fr;thermos-root-devel-WordCountTopology-0-4b4651ed-1302-4a0b-b13e-dd441af8f897;["topology_master"];1.25;1533751614.94689;6.52;14.55;7.022706386;9;117
59;paravance-28.rennes.grid5000.fr;thermos-root-devel-WordCountTopology-1-0790acf6-4a72-4202-a1d3-369cece2b5f8;["container_1_Consume_and_count_1"];1.25;1533751625.27608;55.38;784.54;1871.952104823;10;151
59;paravance-3.rennes.grid5000.fr;thermos-root-devel-WordCountTopology-0-4b4651ed-1302-4a0b-b13e-dd441af8f897;["topology_master"];1.25;1533751625.16306;6.58;14.63;7.022706386;9;117
59;paravance-30.rennes.grid5000.fr;thermos-root-devel-WordCountTopology-2-3964b453-7026-46d9-9ceb-94826cb0a3ae;["container_2_Emit_random_words_2"];1.25;1533751625.14824;19.27;304.94;214.672621714;10;149
60;paravance-30.rennes.grid5000.fr;thermos-root-devel-WordCountTopology-2-3964b453-7026-46d9-9ceb-94826cb0a3ae;["container_2_Emit_random_words_2"];1.25;1533751635.36379;19.56;310.43;218.161226034;10;149
60;paravance-3.rennes.grid5000.fr;thermos-root-devel-WordCountTopology-0-4b4651ed-1302-4a0b-b13e-dd441af8f897;["topology_master"];1.25;1533751635.38005;6.67;14.75;7.022706386;9;117
60;paravance-28.rennes.grid5000.fr;thermos-root-devel-WordCountTopology-1-0790acf6-4a72-4202-a1d3-369cece2b5f8;["container_1_Consume_and_count_1"];1.25;1533751635.49547;56.13;795.41;1895.242166372;10;151
