mesure_id;slave_id;executor_id;heron_instances;cpus_limit;timestamp_A;cpus_system_time_secs_A;cpus_user_time_secs_A;cpus_throttled_time_secs_A;processes;threads
0;paravance-58.rennes.grid5000.fr;thermos-root-devel-WordCountTopology-1-f3399a7e-6dd6-4d0f-a255-9ce5ab3630d1;["container_1_Consume_and_count_1"];4.25;1533039990.96123;56.15;286.19;0.832565475;10;149
0;paravance-59.rennes.grid5000.fr;thermos-root-devel-WordCountTopology-2-5087e77d-b6e4-4519-8da4-7420fc7a5161;["container_2_Emit_random_words_2"];4.25;1533039991.00803;42.33;186.98;1.851067281;10;149
0;paravance-60.rennes.grid5000.fr;thermos-root-devel-WordCountTopology-0-7b5d2206-ff03-48f7-a527-4f5096dc2b82;["topology_master"];4.25;1533039990.99454;2.5;8.15;0.0;9;117
1;paravance-60.rennes.grid5000.fr;thermos-root-devel-WordCountTopology-0-7b5d2206-ff03-48f7-a527-4f5096dc2b82;["topology_master"];4.25;1533040001.20849;2.57;8.3;0.0;9;117
1;paravance-58.rennes.grid5000.fr;thermos-root-devel-WordCountTopology-1-f3399a7e-6dd6-4d0f-a255-9ce5ab3630d1;["container_1_Consume_and_count_1"];4.25;1533040001.1767;60.9;314.53;0.832565475;10;149
1;paravance-59.rennes.grid5000.fr;thermos-root-devel-WordCountTopology-2-5087e77d-b6e4-4519-8da4-7420fc7a5161;["container_2_Emit_random_words_2"];4.25;1533040001.22592;45.76;202.41;1.851067281;10;149
2;paravance-58.rennes.grid5000.fr;thermos-root-devel-WordCountTopology-1-f3399a7e-6dd6-4d0f-a255-9ce5ab3630d1;["container_1_Consume_and_count_1"];4.25;1533040011.38626;65.53;341.55;0.832565475;10;149
2;paravance-59.rennes.grid5000.fr;thermos-root-devel-WordCountTopology-2-5087e77d-b6e4-4519-8da4-7420fc7a5161;["container_2_Emit_random_words_2"];4.25;1533040011.43588;49.08;217.52;1.851067281;10;149
2;paravance-60.rennes.grid5000.fr;thermos-root-devel-WordCountTopology-0-7b5d2206-ff03-48f7-a527-4f5096dc2b82;["topology_master"];4.25;1533040011.41965;2.65;8.43;0.0;9;117
3;paravance-59.rennes.grid5000.fr;thermos-root-devel-WordCountTopology-2-5087e77d-b6e4-4519-8da4-7420fc7a5161;["container_2_Emit_random_words_2"];4.25;1533040021.64432;52.09;230.15;1.851067281;10;149
3;paravance-60.rennes.grid5000.fr;thermos-root-devel-WordCountTopology-0-7b5d2206-ff03-48f7-a527-4f5096dc2b82;["topology_master"];4.25;1533040021.62846;2.68;8.46;0.0;9;117
3;paravance-58.rennes.grid5000.fr;thermos-root-devel-WordCountTopology-1-f3399a7e-6dd6-4d0f-a255-9ce5ab3630d1;["container_1_Consume_and_count_1"];4.25;1533040021.59808;69.64;367.48;0.832565475;10;149
4;paravance-58.rennes.grid5000.fr;thermos-root-devel-WordCountTopology-1-f3399a7e-6dd6-4d0f-a255-9ce5ab3630d1;["container_1_Consume_and_count_1"];4.25;1533040031.80525;73.76;393.5;0.832565475;10;149
4;paravance-59.rennes.grid5000.fr;thermos-root-devel-WordCountTopology-2-5087e77d-b6e4-4519-8da4-7420fc7a5161;["container_2_Emit_random_words_2"];4.25;1533040031.85418;55.15;243.15;1.851067281;10;149
4;paravance-60.rennes.grid5000.fr;thermos-root-devel-WordCountTopology-0-7b5d2206-ff03-48f7-a527-4f5096dc2b82;["topology_master"];4.25;1533040031.83861;2.77;8.59;0.0;9;117
5;paravance-58.rennes.grid5000.fr;thermos-root-devel-WordCountTopology-1-f3399a7e-6dd6-4d0f-a255-9ce5ab3630d1;["container_1_Consume_and_count_1"];4.25;1533040042.01524;78.07;421.55;0.832565475;10;149
5;paravance-59.rennes.grid5000.fr;thermos-root-devel-WordCountTopology-2-5087e77d-b6e4-4519-8da4-7420fc7a5161;["container_2_Emit_random_words_2"];4.25;1533040042.06392;58.18;256.09;1.851067281;10;149
5;paravance-60.rennes.grid5000.fr;thermos-root-devel-WordCountTopology-0-7b5d2206-ff03-48f7-a527-4f5096dc2b82;["topology_master"];4.25;1533040042.04805;2.83;8.66;0.0;9;117
6;paravance-58.rennes.grid5000.fr;thermos-root-devel-WordCountTopology-1-f3399a7e-6dd6-4d0f-a255-9ce5ab3630d1;["container_1_Consume_and_count_1"];4.25;1533040052.22598;81.9;448.44;0.832565475;10;149
6;paravance-60.rennes.grid5000.fr;thermos-root-devel-WordCountTopology-0-7b5d2206-ff03-48f7-a527-4f5096dc2b82;["topology_master"];4.25;1533040052.25655;2.95;8.84;0.0;9;117
6;paravance-59.rennes.grid5000.fr;thermos-root-devel-WordCountTopology-2-5087e77d-b6e4-4519-8da4-7420fc7a5161;["container_2_Emit_random_words_2"];4.25;1533040052.27435;60.99;267.78;1.851067281;10;149
7;paravance-58.rennes.grid5000.fr;thermos-root-devel-WordCountTopology-1-f3399a7e-6dd6-4d0f-a255-9ce5ab3630d1;["container_1_Consume_and_count_1"];4.25;1533040062.43629;86.11;475.55;0.832565475;10;149
7;paravance-60.rennes.grid5000.fr;thermos-root-devel-WordCountTopology-0-7b5d2206-ff03-48f7-a527-4f5096dc2b82;["topology_master"];4.25;1533040062.4681;2.99;8.93;0.0;9;117
7;paravance-59.rennes.grid5000.fr;thermos-root-devel-WordCountTopology-2-5087e77d-b6e4-4519-8da4-7420fc7a5161;["container_2_Emit_random_words_2"];4.25;1533040062.48542;63.99;280.47;1.851067281;10;149
8;paravance-58.rennes.grid5000.fr;thermos-root-devel-WordCountTopology-1-f3399a7e-6dd6-4d0f-a255-9ce5ab3630d1;["container_1_Consume_and_count_1"];4.25;1533040072.64723;90.55;503.77;0.832565475;10;149
8;paravance-60.rennes.grid5000.fr;thermos-root-devel-WordCountTopology-0-7b5d2206-ff03-48f7-a527-4f5096dc2b82;["topology_master"];4.25;1533040072.67937;3.08;9.05;0.0;9;117
8;paravance-59.rennes.grid5000.fr;thermos-root-devel-WordCountTopology-2-5087e77d-b6e4-4519-8da4-7420fc7a5161;["container_2_Emit_random_words_2"];4.25;1533040072.69645;67.35;294.61;1.851067281;10;149
9;paravance-58.rennes.grid5000.fr;thermos-root-devel-WordCountTopology-1-f3399a7e-6dd6-4d0f-a255-9ce5ab3630d1;["container_1_Consume_and_count_1"];4.25;1533040082.85489;95.07;529.85;0.832565475;10;149
9;paravance-59.rennes.grid5000.fr;thermos-root-devel-WordCountTopology-2-5087e77d-b6e4-4519-8da4-7420fc7a5161;["container_2_Emit_random_words_2"];4.25;1533040082.90317;70.74;309.6;1.851067281;10;149
9;paravance-60.rennes.grid5000.fr;thermos-root-devel-WordCountTopology-0-7b5d2206-ff03-48f7-a527-4f5096dc2b82;["topology_master"];4.25;1533040082.88735;3.13;9.13;0.0;9;117
10;paravance-60.rennes.grid5000.fr;thermos-root-devel-WordCountTopology-0-7b5d2206-ff03-48f7-a527-4f5096dc2b82;["topology_master"];4.25;1533040093.09836;3.19;9.2;0.0;9;117
10;paravance-58.rennes.grid5000.fr;thermos-root-devel-WordCountTopology-1-f3399a7e-6dd6-4d0f-a255-9ce5ab3630d1;["container_1_Consume_and_count_1"];4.25;1533040093.06547;99.64;555.39;0.832565475;10;149
10;paravance-59.rennes.grid5000.fr;thermos-root-devel-WordCountTopology-2-5087e77d-b6e4-4519-8da4-7420fc7a5161;["container_2_Emit_random_words_2"];4.25;1533040093.11417;73.71;322.88;1.851067281;10;149
11;paravance-59.rennes.grid5000.fr;thermos-root-devel-WordCountTopology-2-5087e77d-b6e4-4519-8da4-7420fc7a5161;["container_2_Emit_random_words_2"];4.25;1533040103.33558;76.78;335.69;1.851067281;10;149
11;paravance-60.rennes.grid5000.fr;thermos-root-devel-WordCountTopology-0-7b5d2206-ff03-48f7-a527-4f5096dc2b82;["topology_master"];4.25;1533040103.31994;3.25;9.28;0.0;9;117
11;paravance-58.rennes.grid5000.fr;thermos-root-devel-WordCountTopology-1-f3399a7e-6dd6-4d0f-a255-9ce5ab3630d1;["container_1_Consume_and_count_1"];4.25;1533040103.29884;103.99;581.7;0.832565475;10;149
12;paravance-59.rennes.grid5000.fr;thermos-root-devel-WordCountTopology-2-5087e77d-b6e4-4519-8da4-7420fc7a5161;["container_2_Emit_random_words_2"];4.25;1533040113.55461;79.95;348.97;1.851067281;10;149
12;paravance-58.rennes.grid5000.fr;thermos-root-devel-WordCountTopology-1-f3399a7e-6dd6-4d0f-a255-9ce5ab3630d1;["container_1_Consume_and_count_1"];4.25;1533040113.50669;108.37;608.52;0.836560844;10;149
12;paravance-60.rennes.grid5000.fr;thermos-root-devel-WordCountTopology-0-7b5d2206-ff03-48f7-a527-4f5096dc2b82;["topology_master"];4.25;1533040113.53922;3.37;9.57;0.0;9;117
13;paravance-59.rennes.grid5000.fr;thermos-root-devel-WordCountTopology-2-5087e77d-b6e4-4519-8da4-7420fc7a5161;["container_2_Emit_random_words_2"];4.25;1533040123.76499;82.97;361.85;1.851067281;10;149
13;paravance-58.rennes.grid5000.fr;thermos-root-devel-WordCountTopology-1-f3399a7e-6dd6-4d0f-a255-9ce5ab3630d1;["container_1_Consume_and_count_1"];4.25;1533040123.71563;112.58;635.51;0.836560844;10;149
13;paravance-60.rennes.grid5000.fr;thermos-root-devel-WordCountTopology-0-7b5d2206-ff03-48f7-a527-4f5096dc2b82;["topology_master"];4.25;1533040123.7533;3.4;9.6;0.0;9;117
14;paravance-58.rennes.grid5000.fr;thermos-root-devel-WordCountTopology-1-f3399a7e-6dd6-4d0f-a255-9ce5ab3630d1;["container_1_Consume_and_count_1"];4.25;1533040133.93228;116.98;662.02;0.836560844;10;149
14;paravance-60.rennes.grid5000.fr;thermos-root-devel-WordCountTopology-0-7b5d2206-ff03-48f7-a527-4f5096dc2b82;["topology_master"];4.25;1533040133.96299;3.48;9.72;0.0;9;117
14;paravance-59.rennes.grid5000.fr;thermos-root-devel-WordCountTopology-2-5087e77d-b6e4-4519-8da4-7420fc7a5161;["container_2_Emit_random_words_2"];4.25;1533040133.98354;86.13;375.24;1.851067281;10;149
15;paravance-60.rennes.grid5000.fr;thermos-root-devel-WordCountTopology-0-7b5d2206-ff03-48f7-a527-4f5096dc2b82;["topology_master"];4.25;1533040144.19558;3.54;9.79;0.0;9;117
15;paravance-59.rennes.grid5000.fr;thermos-root-devel-WordCountTopology-2-5087e77d-b6e4-4519-8da4-7420fc7a5161;["container_2_Emit_random_words_2"];4.25;1533040144.21295;89.0;387.86;1.851067281;10;149
15;paravance-58.rennes.grid5000.fr;thermos-root-devel-WordCountTopology-1-f3399a7e-6dd6-4d0f-a255-9ce5ab3630d1;["container_1_Consume_and_count_1"];4.25;1533040144.16814;121.05;687.54;0.836560844;10;149
16;paravance-60.rennes.grid5000.fr;thermos-root-devel-WordCountTopology-0-7b5d2206-ff03-48f7-a527-4f5096dc2b82;["topology_master"];4.25;1533040154.40944;3.6;9.88;0.0;9;117
16;paravance-59.rennes.grid5000.fr;thermos-root-devel-WordCountTopology-2-5087e77d-b6e4-4519-8da4-7420fc7a5161;["container_2_Emit_random_words_2"];4.25;1533040154.42682;92.03;401.01;1.851067281;10;149
16;paravance-58.rennes.grid5000.fr;thermos-root-devel-WordCountTopology-1-f3399a7e-6dd6-4d0f-a255-9ce5ab3630d1;["container_1_Consume_and_count_1"];4.25;1533040154.38096;125.25;714.13;0.836560844;10;149
17;paravance-59.rennes.grid5000.fr;thermos-root-devel-WordCountTopology-2-5087e77d-b6e4-4519-8da4-7420fc7a5161;["container_2_Emit_random_words_2"];4.25;1533040164.63637;94.93;413.31;1.851067281;10;149
17;paravance-58.rennes.grid5000.fr;thermos-root-devel-WordCountTopology-1-f3399a7e-6dd6-4d0f-a255-9ce5ab3630d1;["container_1_Consume_and_count_1"];4.25;1533040164.58902;129.33;739.09;0.836560844;10;149
17;paravance-60.rennes.grid5000.fr;thermos-root-devel-WordCountTopology-0-7b5d2206-ff03-48f7-a527-4f5096dc2b82;["topology_master"];4.25;1533040164.62163;3.65;9.95;0.0;9;117
18;paravance-58.rennes.grid5000.fr;thermos-root-devel-WordCountTopology-1-f3399a7e-6dd6-4d0f-a255-9ce5ab3630d1;["container_1_Consume_and_count_1"];4.25;1533040174.79912;133.75;764.71;0.84454583;10;149
18;paravance-60.rennes.grid5000.fr;thermos-root-devel-WordCountTopology-0-7b5d2206-ff03-48f7-a527-4f5096dc2b82;["topology_master"];4.25;1533040174.83116;3.77;10.17;0.0;9;117
18;paravance-59.rennes.grid5000.fr;thermos-root-devel-WordCountTopology-2-5087e77d-b6e4-4519-8da4-7420fc7a5161;["container_2_Emit_random_words_2"];4.25;1533040174.84748;98.04;426.23;1.851067281;10;149
19;paravance-58.rennes.grid5000.fr;thermos-root-devel-WordCountTopology-1-f3399a7e-6dd6-4d0f-a255-9ce5ab3630d1;["container_1_Consume_and_count_1"];4.25;1533040185.009;138.48;791.1;0.84454583;10;149
19;paravance-59.rennes.grid5000.fr;thermos-root-devel-WordCountTopology-2-5087e77d-b6e4-4519-8da4-7420fc7a5161;["container_2_Emit_random_words_2"];4.25;1533040185.05724;101.22;440.49;1.851067281;10;149
19;paravance-60.rennes.grid5000.fr;thermos-root-devel-WordCountTopology-0-7b5d2206-ff03-48f7-a527-4f5096dc2b82;["topology_master"];4.25;1533040185.04222;3.79;10.19;0.0;9;117
20;paravance-58.rennes.grid5000.fr;thermos-root-devel-WordCountTopology-1-f3399a7e-6dd6-4d0f-a255-9ce5ab3630d1;["container_1_Consume_and_count_1"];4.25;1533040195.21757;143.08;817.96;0.84454583;10;149
20;paravance-60.rennes.grid5000.fr;thermos-root-devel-WordCountTopology-0-7b5d2206-ff03-48f7-a527-4f5096dc2b82;["topology_master"];4.25;1533040195.24985;3.88;10.32;0.0;9;117
20;paravance-59.rennes.grid5000.fr;thermos-root-devel-WordCountTopology-2-5087e77d-b6e4-4519-8da4-7420fc7a5161;["container_2_Emit_random_words_2"];4.25;1533040195.26636;104.35;454.65;1.851067281;10;149
21;paravance-58.rennes.grid5000.fr;thermos-root-devel-WordCountTopology-1-f3399a7e-6dd6-4d0f-a255-9ce5ab3630d1;["container_1_Consume_and_count_1"];4.25;1533040205.42793;147.66;843.74;0.84454583;10;149
21;paravance-60.rennes.grid5000.fr;thermos-root-devel-WordCountTopology-0-7b5d2206-ff03-48f7-a527-4f5096dc2b82;["topology_master"];4.25;1533040205.45859;3.94;10.39;0.0;9;117
21;paravance-59.rennes.grid5000.fr;thermos-root-devel-WordCountTopology-2-5087e77d-b6e4-4519-8da4-7420fc7a5161;["container_2_Emit_random_words_2"];4.25;1533040205.47642;107.31;467.51;1.851067281;10;149
22;paravance-58.rennes.grid5000.fr;thermos-root-devel-WordCountTopology-1-f3399a7e-6dd6-4d0f-a255-9ce5ab3630d1;["container_1_Consume_and_count_1"];4.25;1533040215.53636;151.88;869.99;0.84454583;10;149
22;paravance-59.rennes.grid5000.fr;thermos-root-devel-WordCountTopology-2-5087e77d-b6e4-4519-8da4-7420fc7a5161;["container_2_Emit_random_words_2"];4.25;1533040215.68451;110.31;480.38;1.851067281;10;149
22;paravance-60.rennes.grid5000.fr;thermos-root-devel-WordCountTopology-0-7b5d2206-ff03-48f7-a527-4f5096dc2b82;["topology_master"];4.25;1533040215.66841;3.99;10.47;0.0;9;117
23;paravance-58.rennes.grid5000.fr;thermos-root-devel-WordCountTopology-1-f3399a7e-6dd6-4d0f-a255-9ce5ab3630d1;["container_1_Consume_and_count_1"];4.25;1533040225.84533;156.41;897.26;0.84454583;10;149
23;paravance-60.rennes.grid5000.fr;thermos-root-devel-WordCountTopology-0-7b5d2206-ff03-48f7-a527-4f5096dc2b82;["topology_master"];4.25;1533040225.87725;4.05;10.54;0.0;9;117
23;paravance-59.rennes.grid5000.fr;thermos-root-devel-WordCountTopology-2-5087e77d-b6e4-4519-8da4-7420fc7a5161;["container_2_Emit_random_words_2"];4.25;1533040225.89468;113.39;493.86;1.851067281;10;149
24;paravance-60.rennes.grid5000.fr;thermos-root-devel-WordCountTopology-0-7b5d2206-ff03-48f7-a527-4f5096dc2b82;["topology_master"];4.25;1533040236.0864;4.16;10.73;0.0;9;117
24;paravance-58.rennes.grid5000.fr;thermos-root-devel-WordCountTopology-1-f3399a7e-6dd6-4d0f-a255-9ce5ab3630d1;["container_1_Consume_and_count_1"];4.25;1533040236.05432;161.1;924.61;0.871808073;10;149
24;paravance-59.rennes.grid5000.fr;thermos-root-devel-WordCountTopology-2-5087e77d-b6e4-4519-8da4-7420fc7a5161;["container_2_Emit_random_words_2"];4.25;1533040236.10341;116.69;507.84;1.851067281;10;149
25;paravance-58.rennes.grid5000.fr;thermos-root-devel-WordCountTopology-1-f3399a7e-6dd6-4d0f-a255-9ce5ab3630d1;["container_1_Consume_and_count_1"];4.25;1533040246.26195;165.31;950.99;0.871808073;10;149
25;paravance-59.rennes.grid5000.fr;thermos-root-devel-WordCountTopology-2-5087e77d-b6e4-4519-8da4-7420fc7a5161;["container_2_Emit_random_words_2"];4.25;1533040246.31125;119.71;520.72;1.851067281;10;149
25;paravance-60.rennes.grid5000.fr;thermos-root-devel-WordCountTopology-0-7b5d2206-ff03-48f7-a527-4f5096dc2b82;["topology_master"];4.25;1533040246.29494;4.19;10.75;0.0;9;117
26;paravance-58.rennes.grid5000.fr;thermos-root-devel-WordCountTopology-1-f3399a7e-6dd6-4d0f-a255-9ce5ab3630d1;["container_1_Consume_and_count_1"];4.25;1533040256.47106;169.74;976.81;0.871808073;10;149
26;paravance-59.rennes.grid5000.fr;thermos-root-devel-WordCountTopology-2-5087e77d-b6e4-4519-8da4-7420fc7a5161;["container_2_Emit_random_words_2"];4.25;1533040256.52033;122.83;533.97;1.851067281;10;149
26;paravance-60.rennes.grid5000.fr;thermos-root-devel-WordCountTopology-0-7b5d2206-ff03-48f7-a527-4f5096dc2b82;["topology_master"];4.25;1533040256.50388;4.28;10.88;0.0;9;117
27;paravance-58.rennes.grid5000.fr;thermos-root-devel-WordCountTopology-1-f3399a7e-6dd6-4d0f-a255-9ce5ab3630d1;["container_1_Consume_and_count_1"];4.25;1533040266.68007;173.85;1001.77;0.871808073;10;149
27;paravance-60.rennes.grid5000.fr;thermos-root-devel-WordCountTopology-0-7b5d2206-ff03-48f7-a527-4f5096dc2b82;["topology_master"];4.25;1533040266.71237;4.34;10.95;0.0;9;117
27;paravance-59.rennes.grid5000.fr;thermos-root-devel-WordCountTopology-2-5087e77d-b6e4-4519-8da4-7420fc7a5161;["container_2_Emit_random_words_2"];4.25;1533040266.72972;125.75;546.62;1.851067281;10;149
28;paravance-58.rennes.grid5000.fr;thermos-root-devel-WordCountTopology-1-f3399a7e-6dd6-4d0f-a255-9ce5ab3630d1;["container_1_Consume_and_count_1"];4.25;1533040276.88972;178.4;1029.39;0.871808073;10;149
28;paravance-59.rennes.grid5000.fr;thermos-root-devel-WordCountTopology-2-5087e77d-b6e4-4519-8da4-7420fc7a5161;["container_2_Emit_random_words_2"];4.25;1533040276.93861;128.94;560.64;1.851067281;10;149
28;paravance-60.rennes.grid5000.fr;thermos-root-devel-WordCountTopology-0-7b5d2206-ff03-48f7-a527-4f5096dc2b82;["topology_master"];4.25;1533040276.92188;4.4;11.02;0.0;9;117
29;paravance-58.rennes.grid5000.fr;thermos-root-devel-WordCountTopology-1-f3399a7e-6dd6-4d0f-a255-9ce5ab3630d1;["container_1_Consume_and_count_1"];4.25;1533040287.09891;182.81;1056.41;0.871808073;10;149
29;paravance-60.rennes.grid5000.fr;thermos-root-devel-WordCountTopology-0-7b5d2206-ff03-48f7-a527-4f5096dc2b82;["topology_master"];4.25;1533040287.13038;4.45;11.09;0.0;9;117
29;paravance-59.rennes.grid5000.fr;thermos-root-devel-WordCountTopology-2-5087e77d-b6e4-4519-8da4-7420fc7a5161;["container_2_Emit_random_words_2"];4.25;1533040287.14714;132.21;574.34;1.851067281;10;149
30;paravance-60.rennes.grid5000.fr;thermos-root-devel-WordCountTopology-0-7b5d2206-ff03-48f7-a527-4f5096dc2b82;["topology_master"];4.25;1533040297.3548;4.57;11.27;0.0;9;117
30;paravance-58.rennes.grid5000.fr;thermos-root-devel-WordCountTopology-1-f3399a7e-6dd6-4d0f-a255-9ce5ab3630d1;["container_1_Consume_and_count_1"];4.25;1533040297.32362;187.27;1083.1;0.871808073;10;149
30;paravance-59.rennes.grid5000.fr;thermos-root-devel-WordCountTopology-2-5087e77d-b6e4-4519-8da4-7420fc7a5161;["container_2_Emit_random_words_2"];4.25;1533040297.3723;135.32;587.88;1.851067281;10;149
31;paravance-58.rennes.grid5000.fr;thermos-root-devel-WordCountTopology-1-f3399a7e-6dd6-4d0f-a255-9ce5ab3630d1;["container_1_Consume_and_count_1"];4.25;1533040307.53752;191.64;1110.67;0.871808073;10;147
31;paravance-60.rennes.grid5000.fr;thermos-root-devel-WordCountTopology-0-7b5d2206-ff03-48f7-a527-4f5096dc2b82;["topology_master"];4.25;1533040307.56497;4.62;11.33;0.0;9;115
31;paravance-59.rennes.grid5000.fr;thermos-root-devel-WordCountTopology-2-5087e77d-b6e4-4519-8da4-7420fc7a5161;["container_2_Emit_random_words_2"];4.25;1533040307.58094;138.4;601.57;1.851067281;10;147
32;paravance-58.rennes.grid5000.fr;thermos-root-devel-WordCountTopology-1-f3399a7e-6dd6-4d0f-a255-9ce5ab3630d1;["container_1_Consume_and_count_1"];4.25;1533040317.75287;196.03;1137.18;0.965703048;10;149
32;paravance-59.rennes.grid5000.fr;thermos-root-devel-WordCountTopology-2-5087e77d-b6e4-4519-8da4-7420fc7a5161;["container_2_Emit_random_words_2"];4.25;1533040317.79102;141.47;614.96;1.851067281;10;149
32;paravance-60.rennes.grid5000.fr;thermos-root-devel-WordCountTopology-0-7b5d2206-ff03-48f7-a527-4f5096dc2b82;["topology_master"];4.25;1533040317.77553;4.69;11.42;0.0;9;117
33;paravance-58.rennes.grid5000.fr;thermos-root-devel-WordCountTopology-1-f3399a7e-6dd6-4d0f-a255-9ce5ab3630d1;["container_1_Consume_and_count_1"];4.25;1533040327.96817;200.4;1164.11;0.965703048;10;149
33;paravance-60.rennes.grid5000.fr;thermos-root-devel-WordCountTopology-0-7b5d2206-ff03-48f7-a527-4f5096dc2b82;["topology_master"];4.25;1533040327.98661;4.77;11.54;0.0;9;117
33;paravance-59.rennes.grid5000.fr;thermos-root-devel-WordCountTopology-2-5087e77d-b6e4-4519-8da4-7420fc7a5161;["container_2_Emit_random_words_2"];4.25;1533040328.00249;144.58;628.43;1.851067281;10;149
34;paravance-58.rennes.grid5000.fr;thermos-root-devel-WordCountTopology-1-f3399a7e-6dd6-4d0f-a255-9ce5ab3630d1;["container_1_Consume_and_count_1"];4.25;1533040338.18366;204.83;1190.67;0.965703048;10;149
34;paravance-59.rennes.grid5000.fr;thermos-root-devel-WordCountTopology-2-5087e77d-b6e4-4519-8da4-7420fc7a5161;["container_2_Emit_random_words_2"];4.25;1533040338.21217;147.85;642.07;1.851067281;10;149
34;paravance-60.rennes.grid5000.fr;thermos-root-devel-WordCountTopology-0-7b5d2206-ff03-48f7-a527-4f5096dc2b82;["topology_master"];4.25;1533040338.19496;4.79;11.56;0.0;9;117
35;paravance-58.rennes.grid5000.fr;thermos-root-devel-WordCountTopology-1-f3399a7e-6dd6-4d0f-a255-9ce5ab3630d1;["container_1_Consume_and_count_1"];4.25;1533040348.39776;209.26;1217.11;0.965703048;10;149
35;paravance-59.rennes.grid5000.fr;thermos-root-devel-WordCountTopology-2-5087e77d-b6e4-4519-8da4-7420fc7a5161;["container_2_Emit_random_words_2"];4.25;1533040348.42282;150.96;655.4;1.851067281;10;149
35;paravance-60.rennes.grid5000.fr;thermos-root-devel-WordCountTopology-0-7b5d2206-ff03-48f7-a527-4f5096dc2b82;["topology_master"];4.25;1533040348.40597;4.89;11.7;0.0;9;117
36;paravance-58.rennes.grid5000.fr;thermos-root-devel-WordCountTopology-1-f3399a7e-6dd6-4d0f-a255-9ce5ab3630d1;["container_1_Consume_and_count_1"];4.25;1533040358.61524;213.71;1243.56;0.965703048;10;149
36;paravance-60.rennes.grid5000.fr;thermos-root-devel-WordCountTopology-0-7b5d2206-ff03-48f7-a527-4f5096dc2b82;["topology_master"];4.25;1533040358.61609;4.96;11.86;0.0;9;117
36;paravance-59.rennes.grid5000.fr;thermos-root-devel-WordCountTopology-2-5087e77d-b6e4-4519-8da4-7420fc7a5161;["container_2_Emit_random_words_2"];4.25;1533040358.63324;154.04;668.35;1.851067281;10;149
37;paravance-58.rennes.grid5000.fr;thermos-root-devel-WordCountTopology-1-f3399a7e-6dd6-4d0f-a255-9ce5ab3630d1;["container_1_Consume_and_count_1"];4.25;1533040368.82931;217.81;1268.82;0.965703048;10;149
37;paravance-59.rennes.grid5000.fr;thermos-root-devel-WordCountTopology-2-5087e77d-b6e4-4519-8da4-7420fc7a5161;["container_2_Emit_random_words_2"];4.25;1533040368.84202;156.94;680.37;1.851067281;10;149
37;paravance-60.rennes.grid5000.fr;thermos-root-devel-WordCountTopology-0-7b5d2206-ff03-48f7-a527-4f5096dc2b82;["topology_master"];4.25;1533040368.8294;5.02;11.94;0.0;9;117
38;paravance-58.rennes.grid5000.fr;thermos-root-devel-WordCountTopology-1-f3399a7e-6dd6-4d0f-a255-9ce5ab3630d1;["container_1_Consume_and_count_1"];4.25;1533040379.04507;222.21;1294.16;0.965703048;10;149
38;paravance-60.rennes.grid5000.fr;thermos-root-devel-WordCountTopology-0-7b5d2206-ff03-48f7-a527-4f5096dc2b82;["topology_master"];4.25;1533040379.04486;5.08;12.01;0.0;9;117
38;paravance-59.rennes.grid5000.fr;thermos-root-devel-WordCountTopology-2-5087e77d-b6e4-4519-8da4-7420fc7a5161;["container_2_Emit_random_words_2"];4.25;1533040379.05214;160.11;694.36;1.851067281;10;149
39;paravance-58.rennes.grid5000.fr;thermos-root-devel-WordCountTopology-1-f3399a7e-6dd6-4d0f-a255-9ce5ab3630d1;["container_1_Consume_and_count_1"];4.25;1533040389.16237;226.38;1319.84;0.965703048;10;149
39;paravance-60.rennes.grid5000.fr;thermos-root-devel-WordCountTopology-0-7b5d2206-ff03-48f7-a527-4f5096dc2b82;["topology_master"];4.25;1533040389.26019;5.17;12.13;0.0;9;117
39;paravance-59.rennes.grid5000.fr;thermos-root-devel-WordCountTopology-2-5087e77d-b6e4-4519-8da4-7420fc7a5161;["container_2_Emit_random_words_2"];4.25;1533040389.2649;163.12;706.82;1.851067281;10;149
40;paravance-58.rennes.grid5000.fr;thermos-root-devel-WordCountTopology-1-f3399a7e-6dd6-4d0f-a255-9ce5ab3630d1;["container_1_Consume_and_count_1"];4.25;1533040399.37692;230.84;1346.29;0.965703048;10;149
40;paravance-59.rennes.grid5000.fr;thermos-root-devel-WordCountTopology-2-5087e77d-b6e4-4519-8da4-7420fc7a5161;["container_2_Emit_random_words_2"];4.25;1533040399.49316;166.23;720.25;1.851067281;10;149
40;paravance-60.rennes.grid5000.fr;thermos-root-devel-WordCountTopology-0-7b5d2206-ff03-48f7-a527-4f5096dc2b82;["topology_master"];4.25;1533040399.49361;5.22;12.2;0.0;9;117
41;paravance-58.rennes.grid5000.fr;thermos-root-devel-WordCountTopology-1-f3399a7e-6dd6-4d0f-a255-9ce5ab3630d1;["container_1_Consume_and_count_1"];4.25;1533040409.70968;234.77;1370.79;0.965703048;10;149
41;paravance-60.rennes.grid5000.fr;thermos-root-devel-WordCountTopology-0-7b5d2206-ff03-48f7-a527-4f5096dc2b82;["topology_master"];4.25;1533040409.70897;5.29;12.29;0.0;9;117
41;paravance-59.rennes.grid5000.fr;thermos-root-devel-WordCountTopology-2-5087e77d-b6e4-4519-8da4-7420fc7a5161;["container_2_Emit_random_words_2"];4.25;1533040409.70926;169.05;732.14;1.851067281;10;149
42;paravance-58.rennes.grid5000.fr;thermos-root-devel-WordCountTopology-1-f3399a7e-6dd6-4d0f-a255-9ce5ab3630d1;["container_1_Consume_and_count_1"];4.25;1533040419.92368;238.91;1395.91;0.965703048;10;149
42;paravance-59.rennes.grid5000.fr;thermos-root-devel-WordCountTopology-2-5087e77d-b6e4-4519-8da4-7420fc7a5161;["container_2_Emit_random_words_2"];4.25;1533040419.92418;171.96;744.86;1.851067281;10;149
42;paravance-60.rennes.grid5000.fr;thermos-root-devel-WordCountTopology-0-7b5d2206-ff03-48f7-a527-4f5096dc2b82;["topology_master"];4.25;1533040419.92396;5.35;12.4;0.0;9;117
43;paravance-58.rennes.grid5000.fr;thermos-root-devel-WordCountTopology-1-f3399a7e-6dd6-4d0f-a255-9ce5ab3630d1;["container_1_Consume_and_count_1"];4.25;1533040430.14007;243.37;1422.59;0.965703048;10;149
43;paravance-60.rennes.grid5000.fr;thermos-root-devel-WordCountTopology-0-7b5d2206-ff03-48f7-a527-4f5096dc2b82;["topology_master"];4.25;1533040430.13783;5.44;12.52;0.0;9;117
43;paravance-59.rennes.grid5000.fr;thermos-root-devel-WordCountTopology-2-5087e77d-b6e4-4519-8da4-7420fc7a5161;["container_2_Emit_random_words_2"];4.25;1533040430.13933;175.11;758.82;1.851067281;10;149
44;paravance-58.rennes.grid5000.fr;thermos-root-devel-WordCountTopology-1-f3399a7e-6dd6-4d0f-a255-9ce5ab3630d1;["container_1_Consume_and_count_1"];4.25;1533040440.35508;247.72;1449.54;0.965703048;10;149
44;paravance-59.rennes.grid5000.fr;thermos-root-devel-WordCountTopology-2-5087e77d-b6e4-4519-8da4-7420fc7a5161;["container_2_Emit_random_words_2"];4.25;1533040440.35363;178.2;772.78;1.851067281;10;149
44;paravance-60.rennes.grid5000.fr;thermos-root-devel-WordCountTopology-0-7b5d2206-ff03-48f7-a527-4f5096dc2b82;["topology_master"];4.25;1533040440.35446;5.47;12.55;0.0;9;117
45;paravance-59.rennes.grid5000.fr;thermos-root-devel-WordCountTopology-2-5087e77d-b6e4-4519-8da4-7420fc7a5161;["container_2_Emit_random_words_2"];4.25;1533040450.47063;181.26;786.1;1.851067281;10;149
45;paravance-58.rennes.grid5000.fr;thermos-root-devel-WordCountTopology-1-f3399a7e-6dd6-4d0f-a255-9ce5ab3630d1;["container_1_Consume_and_count_1"];4.25;1533040450.57192;252.1;1476.51;0.965703048;10;149
45;paravance-60.rennes.grid5000.fr;thermos-root-devel-WordCountTopology-0-7b5d2206-ff03-48f7-a527-4f5096dc2b82;["topology_master"];4.25;1533040450.57102;5.55;12.67;0.0;9;117
46;paravance-59.rennes.grid5000.fr;thermos-root-devel-WordCountTopology-2-5087e77d-b6e4-4519-8da4-7420fc7a5161;["container_2_Emit_random_words_2"];4.25;1533040460.78543;184.57;800.29;1.851067281;10;149
46;paravance-60.rennes.grid5000.fr;thermos-root-devel-WordCountTopology-0-7b5d2206-ff03-48f7-a527-4f5096dc2b82;["topology_master"];4.25;1533040460.78605;5.61;12.74;0.0;9;117
46;paravance-58.rennes.grid5000.fr;thermos-root-devel-WordCountTopology-1-f3399a7e-6dd6-4d0f-a255-9ce5ab3630d1;["container_1_Consume_and_count_1"];4.25;1533040460.78795;256.56;1503.76;0.965703048;10;149
47;paravance-58.rennes.grid5000.fr;thermos-root-devel-WordCountTopology-1-f3399a7e-6dd6-4d0f-a255-9ce5ab3630d1;["container_1_Consume_and_count_1"];4.25;1533040471.00278;261.04;1529.67;0.965703048;10;149
47;paravance-59.rennes.grid5000.fr;thermos-root-devel-WordCountTopology-2-5087e77d-b6e4-4519-8da4-7420fc7a5161;["container_2_Emit_random_words_2"];4.25;1533040471.00012;187.64;813.86;1.851067281;10;149
47;paravance-60.rennes.grid5000.fr;thermos-root-devel-WordCountTopology-0-7b5d2206-ff03-48f7-a527-4f5096dc2b82;["topology_master"];4.25;1533040471.00201;5.68;12.83;0.0;9;117
48;paravance-58.rennes.grid5000.fr;thermos-root-devel-WordCountTopology-1-f3399a7e-6dd6-4d0f-a255-9ce5ab3630d1;["container_1_Consume_and_count_1"];4.25;1533040481.21643;265.38;1556.22;0.965703048;10;149
48;paravance-59.rennes.grid5000.fr;thermos-root-devel-WordCountTopology-2-5087e77d-b6e4-4519-8da4-7420fc7a5161;["container_2_Emit_random_words_2"];4.25;1533040481.21611;190.75;827.57;1.851067281;10;149
48;paravance-60.rennes.grid5000.fr;thermos-root-devel-WordCountTopology-0-7b5d2206-ff03-48f7-a527-4f5096dc2b82;["topology_master"];4.25;1533040481.21617;5.74;12.96;0.0;9;117
49;paravance-60.rennes.grid5000.fr;thermos-root-devel-WordCountTopology-0-7b5d2206-ff03-48f7-a527-4f5096dc2b82;["topology_master"];4.25;1533040491.43015;5.83;13.08;0.0;9;117
49;paravance-58.rennes.grid5000.fr;thermos-root-devel-WordCountTopology-1-f3399a7e-6dd6-4d0f-a255-9ce5ab3630d1;["container_1_Consume_and_count_1"];4.25;1533040491.43194;269.34;1581.35;0.965703048;10;149
49;paravance-59.rennes.grid5000.fr;thermos-root-devel-WordCountTopology-2-5087e77d-b6e4-4519-8da4-7420fc7a5161;["container_2_Emit_random_words_2"];4.25;1533040491.43034;193.65;840.24;1.851067281;10;149
50;paravance-58.rennes.grid5000.fr;thermos-root-devel-WordCountTopology-1-f3399a7e-6dd6-4d0f-a255-9ce5ab3630d1;["container_1_Consume_and_count_1"];4.25;1533040501.64788;273.75;1607.98;0.965703048;10;149
50;paravance-60.rennes.grid5000.fr;thermos-root-devel-WordCountTopology-0-7b5d2206-ff03-48f7-a527-4f5096dc2b82;["topology_master"];4.25;1533040501.64648;5.85;13.11;0.0;9;117
50;paravance-59.rennes.grid5000.fr;thermos-root-devel-WordCountTopology-2-5087e77d-b6e4-4519-8da4-7420fc7a5161;["container_2_Emit_random_words_2"];4.25;1533040501.64706;196.85;854.1;1.851067281;10;149
51;paravance-60.rennes.grid5000.fr;thermos-root-devel-WordCountTopology-0-7b5d2206-ff03-48f7-a527-4f5096dc2b82;["topology_master"];4.25;1533040511.86143;5.94;13.23;0.0;9;117
51;paravance-58.rennes.grid5000.fr;thermos-root-devel-WordCountTopology-1-f3399a7e-6dd6-4d0f-a255-9ce5ab3630d1;["container_1_Consume_and_count_1"];4.25;1533040511.86425;278.37;1635.23;0.965703048;10;149
51;paravance-59.rennes.grid5000.fr;thermos-root-devel-WordCountTopology-2-5087e77d-b6e4-4519-8da4-7420fc7a5161;["container_2_Emit_random_words_2"];4.25;1533040511.8632;200.18;868.25;1.851067281;10;149
52;paravance-59.rennes.grid5000.fr;thermos-root-devel-WordCountTopology-2-5087e77d-b6e4-4519-8da4-7420fc7a5161;["container_2_Emit_random_words_2"];4.25;1533040522.07738;203.2;881.4;1.851067281;10;149
52;paravance-58.rennes.grid5000.fr;thermos-root-devel-WordCountTopology-1-f3399a7e-6dd6-4d0f-a255-9ce5ab3630d1;["container_1_Consume_and_count_1"];4.25;1533040522.07808;282.66;1660.95;0.965703048;10;149
52;paravance-60.rennes.grid5000.fr;thermos-root-devel-WordCountTopology-0-7b5d2206-ff03-48f7-a527-4f5096dc2b82;["topology_master"];4.25;1533040522.07679;5.99;13.31;0.0;9;117
53;paravance-58.rennes.grid5000.fr;thermos-root-devel-WordCountTopology-1-f3399a7e-6dd6-4d0f-a255-9ce5ab3630d1;["container_1_Consume_and_count_1"];4.25;1533040532.2919;286.69;1687.74;0.965703048;10;149
53;paravance-59.rennes.grid5000.fr;thermos-root-devel-WordCountTopology-2-5087e77d-b6e4-4519-8da4-7420fc7a5161;["container_2_Emit_random_words_2"];4.25;1533040532.29231;206.04;893.6;1.851067281;10;149
53;paravance-60.rennes.grid5000.fr;thermos-root-devel-WordCountTopology-0-7b5d2206-ff03-48f7-a527-4f5096dc2b82;["topology_master"];4.25;1533040532.29191;6.06;13.4;0.0;9;117
54;paravance-58.rennes.grid5000.fr;thermos-root-devel-WordCountTopology-1-f3399a7e-6dd6-4d0f-a255-9ce5ab3630d1;["container_1_Consume_and_count_1"];4.25;1533040542.50815;290.74;1714.15;0.965703048;10;149
54;paravance-60.rennes.grid5000.fr;thermos-root-devel-WordCountTopology-0-7b5d2206-ff03-48f7-a527-4f5096dc2b82;["topology_master"];4.25;1533040542.50641;6.12;13.5;0.0;9;117
54;paravance-59.rennes.grid5000.fr;thermos-root-devel-WordCountTopology-2-5087e77d-b6e4-4519-8da4-7420fc7a5161;["container_2_Emit_random_words_2"];4.25;1533040542.50712;208.84;905.7;1.851067281;10;149
55;paravance-58.rennes.grid5000.fr;thermos-root-devel-WordCountTopology-1-f3399a7e-6dd6-4d0f-a255-9ce5ab3630d1;["container_1_Consume_and_count_1"];4.25;1533040552.72365;295.04;1741.35;0.965703048;10;149
55;paravance-60.rennes.grid5000.fr;thermos-root-devel-WordCountTopology-0-7b5d2206-ff03-48f7-a527-4f5096dc2b82;["topology_master"];4.25;1533040552.72193;6.21;13.62;0.0;9;117
55;paravance-59.rennes.grid5000.fr;thermos-root-devel-WordCountTopology-2-5087e77d-b6e4-4519-8da4-7420fc7a5161;["container_2_Emit_random_words_2"];4.25;1533040552.72412;211.9;918.81;1.851067281;10;149
56;paravance-58.rennes.grid5000.fr;thermos-root-devel-WordCountTopology-1-f3399a7e-6dd6-4d0f-a255-9ce5ab3630d1;["container_1_Consume_and_count_1"];4.25;1533040562.93924;299.22;1768.99;0.965703048;10;149
56;paravance-60.rennes.grid5000.fr;thermos-root-devel-WordCountTopology-0-7b5d2206-ff03-48f7-a527-4f5096dc2b82;["topology_master"];4.25;1533040562.93812;6.24;13.65;0.0;9;117
56;paravance-59.rennes.grid5000.fr;thermos-root-devel-WordCountTopology-2-5087e77d-b6e4-4519-8da4-7420fc7a5161;["container_2_Emit_random_words_2"];4.25;1533040562.93884;214.94;931.68;1.851067281;10;149
57;paravance-58.rennes.grid5000.fr;thermos-root-devel-WordCountTopology-1-f3399a7e-6dd6-4d0f-a255-9ce5ab3630d1;["container_1_Consume_and_count_1"];4.25;1533040573.15443;303.52;1796.06;0.97501693;10;149
57;paravance-60.rennes.grid5000.fr;thermos-root-devel-WordCountTopology-0-7b5d2206-ff03-48f7-a527-4f5096dc2b82;["topology_master"];4.25;1533040573.15298;6.33;13.77;0.0;9;117
57;paravance-59.rennes.grid5000.fr;thermos-root-devel-WordCountTopology-2-5087e77d-b6e4-4519-8da4-7420fc7a5161;["container_2_Emit_random_words_2"];4.25;1533040573.1539;217.89;944.1;1.851067281;10;149
58;paravance-58.rennes.grid5000.fr;thermos-root-devel-WordCountTopology-1-f3399a7e-6dd6-4d0f-a255-9ce5ab3630d1;["container_1_Consume_and_count_1"];4.25;1533040583.27125;308.0;1822.69;0.97501693;10;149
58;paravance-60.rennes.grid5000.fr;thermos-root-devel-WordCountTopology-0-7b5d2206-ff03-48f7-a527-4f5096dc2b82;["topology_master"];4.25;1533040583.36928;6.38;13.84;0.0;9;117
58;paravance-59.rennes.grid5000.fr;thermos-root-devel-WordCountTopology-2-5087e77d-b6e4-4519-8da4-7420fc7a5161;["container_2_Emit_random_words_2"];4.25;1533040583.37084;221.12;957.93;1.851067281;10;149
59;paravance-58.rennes.grid5000.fr;thermos-root-devel-WordCountTopology-1-f3399a7e-6dd6-4d0f-a255-9ce5ab3630d1;["container_1_Consume_and_count_1"];4.25;1533040593.58494;312.43;1849.98;0.97501693;10;149
59;paravance-60.rennes.grid5000.fr;thermos-root-devel-WordCountTopology-0-7b5d2206-ff03-48f7-a527-4f5096dc2b82;["topology_master"];4.25;1533040593.5837;6.45;13.95;0.0;9;117
59;paravance-59.rennes.grid5000.fr;thermos-root-devel-WordCountTopology-2-5087e77d-b6e4-4519-8da4-7420fc7a5161;["container_2_Emit_random_words_2"];4.25;1533040593.58428;224.25;971.37;1.851067281;10;149
60;paravance-58.rennes.grid5000.fr;thermos-root-devel-WordCountTopology-1-f3399a7e-6dd6-4d0f-a255-9ce5ab3630d1;["container_1_Consume_and_count_1"];4.25;1533040603.80085;316.91;1876.9;0.979326086;10;149
60;paravance-59.rennes.grid5000.fr;thermos-root-devel-WordCountTopology-2-5087e77d-b6e4-4519-8da4-7420fc7a5161;["container_2_Emit_random_words_2"];4.25;1533040603.79942;227.36;985.28;1.851067281;10;149
60;paravance-60.rennes.grid5000.fr;thermos-root-devel-WordCountTopology-0-7b5d2206-ff03-48f7-a527-4f5096dc2b82;["topology_master"];4.25;1533040603.79943;6.51;14.02;0.0;9;117
