mesure_id;slave_id;executor_id;heron_instances;cpus_limit;timestamp_A;cpus_system_time_secs_A;cpus_user_time_secs_A;cpus_throttled_time_secs_A;processes;threads
0;paravance-22.rennes.grid5000.fr;thermos-root-devel-WordCountTopology-1-3e01bc1a-04c1-4c23-9663-6cea4a10b54c;["container_1_Consume_and_count_1"];3.25;1533765685.59777;37.96;201.12;2.473347547;10;149
0;paravance-13.rennes.grid5000.fr;thermos-root-devel-WordCountTopology-2-2bf3ad30-bcc5-45ec-b949-efc32354ce44;["container_2_Emit_random_words_2"];3.25;1533765685.73897;26.66;228.12;5.660912212;10;149
0;paravance-16.rennes.grid5000.fr;thermos-root-devel-WordCountTopology-0-e319f99d-6314-4b7d-9eb0-8b5a4e11f0a7;["topology_master"];3.25;1533765685.6161;2.45;8.07;0.0;9;117
1;paravance-16.rennes.grid5000.fr;thermos-root-devel-WordCountTopology-0-e319f99d-6314-4b7d-9eb0-8b5a4e11f0a7;["topology_master"];3.25;1533765695.8343;2.52;8.22;0.0;9;117
1;paravance-22.rennes.grid5000.fr;thermos-root-devel-WordCountTopology-1-3e01bc1a-04c1-4c23-9663-6cea4a10b54c;["container_1_Consume_and_count_1"];3.25;1533765695.81031;41.21;222.66;2.657361889;10;149
1;paravance-13.rennes.grid5000.fr;thermos-root-devel-WordCountTopology-2-2bf3ad30-bcc5-45ec-b949-efc32354ce44;["container_2_Emit_random_words_2"];3.25;1533765695.95236;28.64;245.64;5.663013417;10;149
2;paravance-13.rennes.grid5000.fr;thermos-root-devel-WordCountTopology-2-2bf3ad30-bcc5-45ec-b949-efc32354ce44;["container_2_Emit_random_words_2"];3.25;1533765706.15978;30.55;262.5;5.663013417;10;149
2;paravance-16.rennes.grid5000.fr;thermos-root-devel-WordCountTopology-0-e319f99d-6314-4b7d-9eb0-8b5a4e11f0a7;["topology_master"];3.25;1533765706.04784;2.6;8.35;0.0;9;117
2;paravance-22.rennes.grid5000.fr;thermos-root-devel-WordCountTopology-1-3e01bc1a-04c1-4c23-9663-6cea4a10b54c;["container_1_Consume_and_count_1"];3.25;1533765706.02322;44.35;244.38;2.813608927;10;149
3;paravance-13.rennes.grid5000.fr;thermos-root-devel-WordCountTopology-2-2bf3ad30-bcc5-45ec-b949-efc32354ce44;["container_2_Emit_random_words_2"];3.25;1533765716.37147;32.65;281.44;5.663013417;10;149
3;paravance-22.rennes.grid5000.fr;thermos-root-devel-WordCountTopology-1-3e01bc1a-04c1-4c23-9663-6cea4a10b54c;["container_1_Consume_and_count_1"];3.25;1533765716.23844;47.84;266.03;3.014936613;10;149
3;paravance-16.rennes.grid5000.fr;thermos-root-devel-WordCountTopology-0-e319f99d-6314-4b7d-9eb0-8b5a4e11f0a7;["topology_master"];3.25;1533765716.26567;2.63;8.38;0.0;9;117
4;paravance-16.rennes.grid5000.fr;thermos-root-devel-WordCountTopology-0-e319f99d-6314-4b7d-9eb0-8b5a4e11f0a7;["topology_master"];3.25;1533765726.48024;2.72;8.51;0.0;9;117
4;paravance-22.rennes.grid5000.fr;thermos-root-devel-WordCountTopology-1-3e01bc1a-04c1-4c23-9663-6cea4a10b54c;["container_1_Consume_and_count_1"];3.25;1533765726.45478;51.28;288.0;3.534631159;10;149
4;paravance-13.rennes.grid5000.fr;thermos-root-devel-WordCountTopology-2-2bf3ad30-bcc5-45ec-b949-efc32354ce44;["container_2_Emit_random_words_2"];3.25;1533765726.5829;34.74;299.78;5.663013417;10;149
5;paravance-22.rennes.grid5000.fr;thermos-root-devel-WordCountTopology-1-3e01bc1a-04c1-4c23-9663-6cea4a10b54c;["container_1_Consume_and_count_1"];3.25;1533765736.67177;54.5;309.38;3.747835002;10;149
5;paravance-13.rennes.grid5000.fr;thermos-root-devel-WordCountTopology-2-2bf3ad30-bcc5-45ec-b949-efc32354ce44;["container_2_Emit_random_words_2"];3.25;1533765736.79359;36.65;316.47;5.663013417;10;149
5;paravance-16.rennes.grid5000.fr;thermos-root-devel-WordCountTopology-0-e319f99d-6314-4b7d-9eb0-8b5a4e11f0a7;["topology_master"];3.25;1533765736.6973;2.77;8.58;0.0;9;117
6;paravance-22.rennes.grid5000.fr;thermos-root-devel-WordCountTopology-1-3e01bc1a-04c1-4c23-9663-6cea4a10b54c;["container_1_Consume_and_count_1"];3.25;1533765746.88314;57.85;331.03;3.981815575;10;149
6;paravance-13.rennes.grid5000.fr;thermos-root-devel-WordCountTopology-2-2bf3ad30-bcc5-45ec-b949-efc32354ce44;["container_2_Emit_random_words_2"];3.25;1533765747.00086;38.76;334.84;5.669035161;10;149
6;paravance-16.rennes.grid5000.fr;thermos-root-devel-WordCountTopology-0-e319f99d-6314-4b7d-9eb0-8b5a4e11f0a7;["topology_master"];3.25;1533765746.90938;2.89;8.74;0.0;9;117
7;paravance-22.rennes.grid5000.fr;thermos-root-devel-WordCountTopology-1-3e01bc1a-04c1-4c23-9663-6cea4a10b54c;["container_1_Consume_and_count_1"];3.25;1533765757.09684;60.81;352.32;4.10635496;10;149
7;paravance-13.rennes.grid5000.fr;thermos-root-devel-WordCountTopology-2-2bf3ad30-bcc5-45ec-b949-efc32354ce44;["container_2_Emit_random_words_2"];3.25;1533765757.21134;40.63;351.58;5.669035161;10;149
7;paravance-16.rennes.grid5000.fr;thermos-root-devel-WordCountTopology-0-e319f99d-6314-4b7d-9eb0-8b5a4e11f0a7;["topology_master"];3.25;1533765757.12444;2.93;8.85;0.0;9;117
8;paravance-22.rennes.grid5000.fr;thermos-root-devel-WordCountTopology-1-3e01bc1a-04c1-4c23-9663-6cea4a10b54c;["container_1_Consume_and_count_1"];3.25;1533765767.31346;63.96;373.13;4.152379148;10;149
8;paravance-13.rennes.grid5000.fr;thermos-root-devel-WordCountTopology-2-2bf3ad30-bcc5-45ec-b949-efc32354ce44;["container_2_Emit_random_words_2"];3.25;1533765767.42167;42.59;368.82;5.669035161;10;149
8;paravance-16.rennes.grid5000.fr;thermos-root-devel-WordCountTopology-0-e319f99d-6314-4b7d-9eb0-8b5a4e11f0a7;["topology_master"];3.25;1533765767.34012;3.02;8.98;0.0;9;117
9;paravance-16.rennes.grid5000.fr;thermos-root-devel-WordCountTopology-0-e319f99d-6314-4b7d-9eb0-8b5a4e11f0a7;["topology_master"];3.25;1533765777.55616;3.07;9.06;0.0;9;117
9;paravance-22.rennes.grid5000.fr;thermos-root-devel-WordCountTopology-1-3e01bc1a-04c1-4c23-9663-6cea4a10b54c;["container_1_Consume_and_count_1"];3.25;1533765777.53069;67.15;394.7;4.367884788;10;149
9;paravance-13.rennes.grid5000.fr;thermos-root-devel-WordCountTopology-2-2bf3ad30-bcc5-45ec-b949-efc32354ce44;["container_2_Emit_random_words_2"];3.25;1533765777.63235;44.55;386.08;5.669035161;10;149
10;paravance-22.rennes.grid5000.fr;thermos-root-devel-WordCountTopology-1-3e01bc1a-04c1-4c23-9663-6cea4a10b54c;["container_1_Consume_and_count_1"];3.25;1533765787.7474;70.37;416.62;4.677293452;10;149
10;paravance-13.rennes.grid5000.fr;thermos-root-devel-WordCountTopology-2-2bf3ad30-bcc5-45ec-b949-efc32354ce44;["container_2_Emit_random_words_2"];3.25;1533765787.8441;46.54;403.57;5.669035161;10;149
10;paravance-16.rennes.grid5000.fr;thermos-root-devel-WordCountTopology-0-e319f99d-6314-4b7d-9eb0-8b5a4e11f0a7;["topology_master"];3.25;1533765787.77314;3.13;9.13;0.0;9;117
11;paravance-16.rennes.grid5000.fr;thermos-root-devel-WordCountTopology-0-e319f99d-6314-4b7d-9eb0-8b5a4e11f0a7;["topology_master"];3.25;1533765797.98879;3.19;9.2;0.0;9;117
11;paravance-22.rennes.grid5000.fr;thermos-root-devel-WordCountTopology-1-3e01bc1a-04c1-4c23-9663-6cea4a10b54c;["container_1_Consume_and_count_1"];3.25;1533765797.96438;73.55;437.14;4.710174621;10;149
11;paravance-13.rennes.grid5000.fr;thermos-root-devel-WordCountTopology-2-2bf3ad30-bcc5-45ec-b949-efc32354ce44;["container_2_Emit_random_words_2"];3.25;1533765798.05554;48.4;419.81;5.669035161;10;149
12;paravance-13.rennes.grid5000.fr;thermos-root-devel-WordCountTopology-2-2bf3ad30-bcc5-45ec-b949-efc32354ce44;["container_2_Emit_random_words_2"];3.25;1533765808.16619;50.25;435.67;5.669035161;10;149
12;paravance-22.rennes.grid5000.fr;thermos-root-devel-WordCountTopology-1-3e01bc1a-04c1-4c23-9663-6cea4a10b54c;["container_1_Consume_and_count_1"];3.25;1533765808.1783;76.55;457.81;4.850016531;10;149
12;paravance-16.rennes.grid5000.fr;thermos-root-devel-WordCountTopology-0-e319f99d-6314-4b7d-9eb0-8b5a4e11f0a7;["topology_master"];3.25;1533765808.20483;3.3;9.41;0.0;9;117
13;paravance-22.rennes.grid5000.fr;thermos-root-devel-WordCountTopology-1-3e01bc1a-04c1-4c23-9663-6cea4a10b54c;["container_1_Consume_and_count_1"];3.25;1533765818.39137;79.64;478.62;5.030094111;10;149
13;paravance-16.rennes.grid5000.fr;thermos-root-devel-WordCountTopology-0-e319f99d-6314-4b7d-9eb0-8b5a4e11f0a7;["topology_master"];3.25;1533765818.41941;3.33;9.44;0.0;9;117
13;paravance-13.rennes.grid5000.fr;thermos-root-devel-WordCountTopology-2-2bf3ad30-bcc5-45ec-b949-efc32354ce44;["container_2_Emit_random_words_2"];3.25;1533765818.47596;52.19;453.08;5.669035161;10;149
14;paravance-16.rennes.grid5000.fr;thermos-root-devel-WordCountTopology-0-e319f99d-6314-4b7d-9eb0-8b5a4e11f0a7;["topology_master"];3.25;1533765828.63445;3.42;9.59;0.0;9;117
14;paravance-22.rennes.grid5000.fr;thermos-root-devel-WordCountTopology-1-3e01bc1a-04c1-4c23-9663-6cea4a10b54c;["container_1_Consume_and_count_1"];3.25;1533765828.60891;82.69;498.76;5.07065871;10;149
14;paravance-13.rennes.grid5000.fr;thermos-root-devel-WordCountTopology-2-2bf3ad30-bcc5-45ec-b949-efc32354ce44;["container_2_Emit_random_words_2"];3.25;1533765828.68543;54.17;470.4;5.669035161;10;149
15;paravance-16.rennes.grid5000.fr;thermos-root-devel-WordCountTopology-0-e319f99d-6314-4b7d-9eb0-8b5a4e11f0a7;["topology_master"];3.25;1533765838.85169;3.48;9.66;0.0;9;117
15;paravance-22.rennes.grid5000.fr;thermos-root-devel-WordCountTopology-1-3e01bc1a-04c1-4c23-9663-6cea4a10b54c;["container_1_Consume_and_count_1"];3.25;1533765838.82653;85.83;518.64;5.169624121;10;149
15;paravance-13.rennes.grid5000.fr;thermos-root-devel-WordCountTopology-2-2bf3ad30-bcc5-45ec-b949-efc32354ce44;["container_2_Emit_random_words_2"];3.25;1533765838.89787;56.02;487.01;5.669035161;10;149
16;paravance-16.rennes.grid5000.fr;thermos-root-devel-WordCountTopology-0-e319f99d-6314-4b7d-9eb0-8b5a4e11f0a7;["topology_master"];3.25;1533765849.0677;3.54;9.74;0.0;9;117
16;paravance-13.rennes.grid5000.fr;thermos-root-devel-WordCountTopology-2-2bf3ad30-bcc5-45ec-b949-efc32354ce44;["container_2_Emit_random_words_2"];3.25;1533765849.10882;58.0;504.38;5.669035161;10;149
16;paravance-22.rennes.grid5000.fr;thermos-root-devel-WordCountTopology-1-3e01bc1a-04c1-4c23-9663-6cea4a10b54c;["container_1_Consume_and_count_1"];3.25;1533765849.04291;88.85;539.45;5.203595643;10;149
17;paravance-22.rennes.grid5000.fr;thermos-root-devel-WordCountTopology-1-3e01bc1a-04c1-4c23-9663-6cea4a10b54c;["container_1_Consume_and_count_1"];3.25;1533765859.25796;91.99;559.95;5.49682742;10;149
17;paravance-13.rennes.grid5000.fr;thermos-root-devel-WordCountTopology-2-2bf3ad30-bcc5-45ec-b949-efc32354ce44;["container_2_Emit_random_words_2"];3.25;1533765859.3198;59.97;521.81;5.669035161;10;149
17;paravance-16.rennes.grid5000.fr;thermos-root-devel-WordCountTopology-0-e319f99d-6314-4b7d-9eb0-8b5a4e11f0a7;["topology_master"];3.25;1533765859.28508;3.59;9.81;0.0;9;117
18;paravance-22.rennes.grid5000.fr;thermos-root-devel-WordCountTopology-1-3e01bc1a-04c1-4c23-9663-6cea4a10b54c;["container_1_Consume_and_count_1"];3.25;1533765869.47298;95.15;580.15;5.52362824;10;149
18;paravance-13.rennes.grid5000.fr;thermos-root-devel-WordCountTopology-2-2bf3ad30-bcc5-45ec-b949-efc32354ce44;["container_2_Emit_random_words_2"];3.25;1533765869.52962;61.9;539.23;5.693606472;10;149
18;paravance-16.rennes.grid5000.fr;thermos-root-devel-WordCountTopology-0-e319f99d-6314-4b7d-9eb0-8b5a4e11f0a7;["topology_master"];3.25;1533765869.50057;3.72;10.07;0.0;9;117
19;paravance-13.rennes.grid5000.fr;thermos-root-devel-WordCountTopology-2-2bf3ad30-bcc5-45ec-b949-efc32354ce44;["container_2_Emit_random_words_2"];3.25;1533765879.73905;63.73;555.58;5.693606472;10;149
19;paravance-16.rennes.grid5000.fr;thermos-root-devel-WordCountTopology-0-e319f99d-6314-4b7d-9eb0-8b5a4e11f0a7;["topology_master"];3.25;1533765879.71515;3.75;10.1;0.0;9;117
19;paravance-22.rennes.grid5000.fr;thermos-root-devel-WordCountTopology-1-3e01bc1a-04c1-4c23-9663-6cea4a10b54c;["container_1_Consume_and_count_1"];3.25;1533765879.68803;98.01;600.56;5.554955811;10;149
20;paravance-22.rennes.grid5000.fr;thermos-root-devel-WordCountTopology-1-3e01bc1a-04c1-4c23-9663-6cea4a10b54c;["container_1_Consume_and_count_1"];3.25;1533765889.90499;101.16;621.23;5.639125289;10;149
20;paravance-16.rennes.grid5000.fr;thermos-root-devel-WordCountTopology-0-e319f99d-6314-4b7d-9eb0-8b5a4e11f0a7;["topology_master"];3.25;1533765889.92997;3.84;10.23;0.0;9;117
20;paravance-13.rennes.grid5000.fr;thermos-root-devel-WordCountTopology-2-2bf3ad30-bcc5-45ec-b949-efc32354ce44;["container_2_Emit_random_words_2"];3.25;1533765889.9508;65.74;572.95;5.693606472;10;149
21;paravance-13.rennes.grid5000.fr;thermos-root-devel-WordCountTopology-2-2bf3ad30-bcc5-45ec-b949-efc32354ce44;["container_2_Emit_random_words_2"];3.25;1533765900.16151;67.72;590.35;5.693606472;10;149
21;paravance-22.rennes.grid5000.fr;thermos-root-devel-WordCountTopology-1-3e01bc1a-04c1-4c23-9663-6cea4a10b54c;["container_1_Consume_and_count_1"];3.25;1533765900.12114;104.24;642.52;5.730127538;10;149
21;paravance-16.rennes.grid5000.fr;thermos-root-devel-WordCountTopology-0-e319f99d-6314-4b7d-9eb0-8b5a4e11f0a7;["topology_master"];3.25;1533765900.14678;3.89;10.3;0.0;9;117
22;paravance-22.rennes.grid5000.fr;thermos-root-devel-WordCountTopology-1-3e01bc1a-04c1-4c23-9663-6cea4a10b54c;["container_1_Consume_and_count_1"];3.25;1533765910.33671;107.32;662.86;5.805153705;10;149
22;paravance-16.rennes.grid5000.fr;thermos-root-devel-WordCountTopology-0-e319f99d-6314-4b7d-9eb0-8b5a4e11f0a7;["topology_master"];3.25;1533765910.36243;3.95;10.37;0.0;9;117
22;paravance-13.rennes.grid5000.fr;thermos-root-devel-WordCountTopology-2-2bf3ad30-bcc5-45ec-b949-efc32354ce44;["container_2_Emit_random_words_2"];3.25;1533765910.37193;69.64;607.12;5.693606472;10;149
23;paravance-22.rennes.grid5000.fr;thermos-root-devel-WordCountTopology-1-3e01bc1a-04c1-4c23-9663-6cea4a10b54c;["container_1_Consume_and_count_1"];3.25;1533765920.55575;110.47;684.44;5.921816545;10;149
23;paravance-16.rennes.grid5000.fr;thermos-root-devel-WordCountTopology-0-e319f99d-6314-4b7d-9eb0-8b5a4e11f0a7;["topology_master"];3.25;1533765920.58202;4.01;10.44;0.0;9;117
23;paravance-13.rennes.grid5000.fr;thermos-root-devel-WordCountTopology-2-2bf3ad30-bcc5-45ec-b949-efc32354ce44;["container_2_Emit_random_words_2"];3.25;1533765920.5869;71.62;624.59;5.693606472;10;149
24;paravance-22.rennes.grid5000.fr;thermos-root-devel-WordCountTopology-1-3e01bc1a-04c1-4c23-9663-6cea4a10b54c;["container_1_Consume_and_count_1"];3.25;1533765930.77092;113.82;706.69;6.298907732;10;149
24;paravance-16.rennes.grid5000.fr;thermos-root-devel-WordCountTopology-0-e319f99d-6314-4b7d-9eb0-8b5a4e11f0a7;["topology_master"];3.25;1533765930.79676;4.13;10.63;0.0;9;117
24;paravance-13.rennes.grid5000.fr;thermos-root-devel-WordCountTopology-2-2bf3ad30-bcc5-45ec-b949-efc32354ce44;["container_2_Emit_random_words_2"];3.25;1533765930.79696;73.74;643.21;5.693606472;10;149
25;paravance-22.rennes.grid5000.fr;thermos-root-devel-WordCountTopology-1-3e01bc1a-04c1-4c23-9663-6cea4a10b54c;["container_1_Consume_and_count_1"];3.25;1533765940.9852;116.92;727.78;6.390927713;10;149
25;paravance-13.rennes.grid5000.fr;thermos-root-devel-WordCountTopology-2-2bf3ad30-bcc5-45ec-b949-efc32354ce44;["container_2_Emit_random_words_2"];3.25;1533765941.00582;75.78;661.59;5.693606472;10;149
25;paravance-16.rennes.grid5000.fr;thermos-root-devel-WordCountTopology-0-e319f99d-6314-4b7d-9eb0-8b5a4e11f0a7;["topology_master"];3.25;1533765941.01263;4.15;10.66;0.0;9;117
26;paravance-22.rennes.grid5000.fr;thermos-root-devel-WordCountTopology-1-3e01bc1a-04c1-4c23-9663-6cea4a10b54c;["container_1_Consume_and_count_1"];3.25;1533765951.20078;120.06;748.65;6.545949782;10;149
26;paravance-13.rennes.grid5000.fr;thermos-root-devel-WordCountTopology-2-2bf3ad30-bcc5-45ec-b949-efc32354ce44;["container_2_Emit_random_words_2"];3.25;1533765951.21503;77.68;678.3;5.693606472;10;149
26;paravance-16.rennes.grid5000.fr;thermos-root-devel-WordCountTopology-0-e319f99d-6314-4b7d-9eb0-8b5a4e11f0a7;["topology_master"];3.25;1533765951.22617;4.24;10.78;0.0;9;117
27;paravance-13.rennes.grid5000.fr;thermos-root-devel-WordCountTopology-2-2bf3ad30-bcc5-45ec-b949-efc32354ce44;["container_2_Emit_random_words_2"];3.25;1533765961.42651;79.69;695.97;5.693606472;10;149
27;paravance-22.rennes.grid5000.fr;thermos-root-devel-WordCountTopology-1-3e01bc1a-04c1-4c23-9663-6cea4a10b54c;["container_1_Consume_and_count_1"];3.25;1533765961.41718;123.22;769.84;6.590479238;10;149
27;paravance-16.rennes.grid5000.fr;thermos-root-devel-WordCountTopology-0-e319f99d-6314-4b7d-9eb0-8b5a4e11f0a7;["topology_master"];3.25;1533765961.44273;4.3;10.85;0.0;9;117
28;paravance-22.rennes.grid5000.fr;thermos-root-devel-WordCountTopology-1-3e01bc1a-04c1-4c23-9663-6cea4a10b54c;["container_1_Consume_and_count_1"];3.25;1533765971.63357;126.58;791.88;6.80473937;10;149
28;paravance-16.rennes.grid5000.fr;thermos-root-devel-WordCountTopology-0-e319f99d-6314-4b7d-9eb0-8b5a4e11f0a7;["topology_master"];3.25;1533765971.65971;4.36;10.92;0.0;9;117
28;paravance-13.rennes.grid5000.fr;thermos-root-devel-WordCountTopology-2-2bf3ad30-bcc5-45ec-b949-efc32354ce44;["container_2_Emit_random_words_2"];3.25;1533765971.63897;81.72;713.99;5.693606472;10;149
29;paravance-22.rennes.grid5000.fr;thermos-root-devel-WordCountTopology-1-3e01bc1a-04c1-4c23-9663-6cea4a10b54c;["container_1_Consume_and_count_1"];3.25;1533765981.85091;129.55;811.76;6.870757261;10;149
29;paravance-16.rennes.grid5000.fr;thermos-root-devel-WordCountTopology-0-e319f99d-6314-4b7d-9eb0-8b5a4e11f0a7;["topology_master"];3.25;1533765981.87615;4.41;11.0;0.0;9;117
29;paravance-13.rennes.grid5000.fr;thermos-root-devel-WordCountTopology-2-2bf3ad30-bcc5-45ec-b949-efc32354ce44;["container_2_Emit_random_words_2"];3.25;1533765981.85027;83.62;730.7;5.693606472;10;149
30;paravance-22.rennes.grid5000.fr;thermos-root-devel-WordCountTopology-1-3e01bc1a-04c1-4c23-9663-6cea4a10b54c;["container_1_Consume_and_count_1"];3.25;1533765992.06456;132.83;833.22;7.0222733;10;149
30;paravance-16.rennes.grid5000.fr;thermos-root-devel-WordCountTopology-0-e319f99d-6314-4b7d-9eb0-8b5a4e11f0a7;["topology_master"];3.25;1533765992.0914;4.52;11.18;0.0;9;117
30;paravance-13.rennes.grid5000.fr;thermos-root-devel-WordCountTopology-2-2bf3ad30-bcc5-45ec-b949-efc32354ce44;["container_2_Emit_random_words_2"];3.25;1533765992.06182;85.72;749.05;5.693606472;10;149
31;paravance-22.rennes.grid5000.fr;thermos-root-devel-WordCountTopology-1-3e01bc1a-04c1-4c23-9663-6cea4a10b54c;["container_1_Consume_and_count_1"];3.25;1533766002.27903;135.88;854.25;7.158632197;10;149
31;paravance-13.rennes.grid5000.fr;thermos-root-devel-WordCountTopology-2-2bf3ad30-bcc5-45ec-b949-efc32354ce44;["container_2_Emit_random_words_2"];3.25;1533766002.26921;87.59;765.44;5.693606472;10;147
31;paravance-16.rennes.grid5000.fr;thermos-root-devel-WordCountTopology-0-e319f99d-6314-4b7d-9eb0-8b5a4e11f0a7;["topology_master"];3.25;1533766002.30622;4.58;11.26;0.0;9;117
32;paravance-22.rennes.grid5000.fr;thermos-root-devel-WordCountTopology-1-3e01bc1a-04c1-4c23-9663-6cea4a10b54c;["container_1_Consume_and_count_1"];3.25;1533766012.49504;139.21;875.16;7.253960574;10;149
32;paravance-13.rennes.grid5000.fr;thermos-root-devel-WordCountTopology-2-2bf3ad30-bcc5-45ec-b949-efc32354ce44;["container_2_Emit_random_words_2"];3.25;1533766012.48514;89.58;782.87;5.693606472;10;149
32;paravance-16.rennes.grid5000.fr;thermos-root-devel-WordCountTopology-0-e319f99d-6314-4b7d-9eb0-8b5a4e11f0a7;["topology_master"];3.25;1533766012.52019;4.64;11.33;0.0;9;117
33;paravance-16.rennes.grid5000.fr;thermos-root-devel-WordCountTopology-0-e319f99d-6314-4b7d-9eb0-8b5a4e11f0a7;["topology_master"];3.25;1533766022.63405;4.72;11.45;0.0;9;117
33;paravance-22.rennes.grid5000.fr;thermos-root-devel-WordCountTopology-1-3e01bc1a-04c1-4c23-9663-6cea4a10b54c;["container_1_Consume_and_count_1"];3.25;1533766022.7086;142.69;897.14;7.390678309;10;149
33;paravance-13.rennes.grid5000.fr;thermos-root-devel-WordCountTopology-2-2bf3ad30-bcc5-45ec-b949-efc32354ce44;["container_2_Emit_random_words_2"];3.25;1533766022.69779;91.65;800.84;5.693606472;10;149
34;paravance-13.rennes.grid5000.fr;thermos-root-devel-WordCountTopology-2-2bf3ad30-bcc5-45ec-b949-efc32354ce44;["container_2_Emit_random_words_2"];3.25;1533766032.91166;93.58;817.98;5.693606472;10;149
34;paravance-16.rennes.grid5000.fr;thermos-root-devel-WordCountTopology-0-e319f99d-6314-4b7d-9eb0-8b5a4e11f0a7;["topology_master"];3.25;1533766032.94745;4.75;11.47;0.0;9;117
34;paravance-22.rennes.grid5000.fr;thermos-root-devel-WordCountTopology-1-3e01bc1a-04c1-4c23-9663-6cea4a10b54c;["container_1_Consume_and_count_1"];3.25;1533766032.92269;145.94;918.22;7.590834487;10;149
35;paravance-16.rennes.grid5000.fr;thermos-root-devel-WordCountTopology-0-e319f99d-6314-4b7d-9eb0-8b5a4e11f0a7;["topology_master"];3.25;1533766043.16295;4.84;11.6;0.0;9;117
35;paravance-22.rennes.grid5000.fr;thermos-root-devel-WordCountTopology-1-3e01bc1a-04c1-4c23-9663-6cea4a10b54c;["container_1_Consume_and_count_1"];3.25;1533766043.13767;149.3;940.35;8.065700032;10;149
35;paravance-13.rennes.grid5000.fr;thermos-root-devel-WordCountTopology-2-2bf3ad30-bcc5-45ec-b949-efc32354ce44;["container_2_Emit_random_words_2"];3.25;1533766043.12764;95.61;835.61;5.693606472;10;149
36;paravance-22.rennes.grid5000.fr;thermos-root-devel-WordCountTopology-1-3e01bc1a-04c1-4c23-9663-6cea4a10b54c;["container_1_Consume_and_count_1"];3.25;1533766053.35101;152.69;962.44;8.238946509;10;149
36;paravance-13.rennes.grid5000.fr;thermos-root-devel-WordCountTopology-2-2bf3ad30-bcc5-45ec-b949-efc32354ce44;["container_2_Emit_random_words_2"];3.25;1533766053.34122;97.62;853.48;5.693606472;10;149
36;paravance-16.rennes.grid5000.fr;thermos-root-devel-WordCountTopology-0-e319f99d-6314-4b7d-9eb0-8b5a4e11f0a7;["topology_master"];3.25;1533766053.37772;4.91;11.77;0.0;9;117
37;paravance-16.rennes.grid5000.fr;thermos-root-devel-WordCountTopology-0-e319f99d-6314-4b7d-9eb0-8b5a4e11f0a7;["topology_master"];3.25;1533766063.59232;4.96;11.85;0.0;9;117
37;paravance-13.rennes.grid5000.fr;thermos-root-devel-WordCountTopology-2-2bf3ad30-bcc5-45ec-b949-efc32354ce44;["container_2_Emit_random_words_2"];3.25;1533766063.55746;99.48;869.83;5.693606472;10;149
37;paravance-22.rennes.grid5000.fr;thermos-root-devel-WordCountTopology-1-3e01bc1a-04c1-4c23-9663-6cea4a10b54c;["container_1_Consume_and_count_1"];3.25;1533766063.56677;155.84;983.36;8.416403303;10;149
38;paravance-16.rennes.grid5000.fr;thermos-root-devel-WordCountTopology-0-e319f99d-6314-4b7d-9eb0-8b5a4e11f0a7;["topology_master"];3.25;1533766073.80838;5.02;11.92;0.0;9;117
38;paravance-22.rennes.grid5000.fr;thermos-root-devel-WordCountTopology-1-3e01bc1a-04c1-4c23-9663-6cea4a10b54c;["container_1_Consume_and_count_1"];3.25;1533766073.78383;159.31;1005.31;8.562681916;10;149
38;paravance-13.rennes.grid5000.fr;thermos-root-devel-WordCountTopology-2-2bf3ad30-bcc5-45ec-b949-efc32354ce44;["container_2_Emit_random_words_2"];3.25;1533766073.77265;101.54;888.01;5.693606472;10;149
39;paravance-22.rennes.grid5000.fr;thermos-root-devel-WordCountTopology-1-3e01bc1a-04c1-4c23-9663-6cea4a10b54c;["container_1_Consume_and_count_1"];3.25;1533766083.99738;162.9;1027.48;8.861804628;10;149
39;paravance-13.rennes.grid5000.fr;thermos-root-devel-WordCountTopology-2-2bf3ad30-bcc5-45ec-b949-efc32354ce44;["container_2_Emit_random_words_2"];3.25;1533766083.98853;103.65;906.47;5.693606472;10;149
39;paravance-16.rennes.grid5000.fr;thermos-root-devel-WordCountTopology-0-e319f99d-6314-4b7d-9eb0-8b5a4e11f0a7;["topology_master"];3.25;1533766084.02501;5.11;12.03;0.0;9;117
40;paravance-22.rennes.grid5000.fr;thermos-root-devel-WordCountTopology-1-3e01bc1a-04c1-4c23-9663-6cea4a10b54c;["container_1_Consume_and_count_1"];3.25;1533766094.21389;166.4;1049.18;9.041466984;10;149
40;paravance-13.rennes.grid5000.fr;thermos-root-devel-WordCountTopology-2-2bf3ad30-bcc5-45ec-b949-efc32354ce44;["container_2_Emit_random_words_2"];3.25;1533766094.21689;105.75;924.9;5.693606472;10;149
40;paravance-16.rennes.grid5000.fr;thermos-root-devel-WordCountTopology-0-e319f99d-6314-4b7d-9eb0-8b5a4e11f0a7;["topology_master"];3.25;1533766094.25349;5.16;12.11;0.0;9;117
41;paravance-13.rennes.grid5000.fr;thermos-root-devel-WordCountTopology-2-2bf3ad30-bcc5-45ec-b949-efc32354ce44;["container_2_Emit_random_words_2"];3.25;1533766104.43133;107.89;944.12;5.693606472;10;149
41;paravance-16.rennes.grid5000.fr;thermos-root-devel-WordCountTopology-0-e319f99d-6314-4b7d-9eb0-8b5a4e11f0a7;["topology_master"];3.25;1533766104.46786;5.23;12.19;0.0;9;117
41;paravance-22.rennes.grid5000.fr;thermos-root-devel-WordCountTopology-1-3e01bc1a-04c1-4c23-9663-6cea4a10b54c;["container_1_Consume_and_count_1"];3.25;1533766104.44229;169.9;1066.27;9.041466984;10;149
42;paravance-16.rennes.grid5000.fr;thermos-root-devel-WordCountTopology-0-e319f99d-6314-4b7d-9eb0-8b5a4e11f0a7;["topology_master"];3.25;1533766114.68457;5.29;12.3;0.0;9;117
42;paravance-13.rennes.grid5000.fr;thermos-root-devel-WordCountTopology-2-2bf3ad30-bcc5-45ec-b949-efc32354ce44;["container_2_Emit_random_words_2"];3.25;1533766114.64886;109.98;963.68;5.693606472;10;149
42;paravance-22.rennes.grid5000.fr;thermos-root-devel-WordCountTopology-1-3e01bc1a-04c1-4c23-9663-6cea4a10b54c;["container_1_Consume_and_count_1"];3.25;1533766114.65929;173.44;1083.38;9.041466984;10;149
43;paravance-16.rennes.grid5000.fr;thermos-root-devel-WordCountTopology-0-e319f99d-6314-4b7d-9eb0-8b5a4e11f0a7;["topology_master"];3.25;1533766124.90058;5.37;12.42;0.0;9;117
43;paravance-22.rennes.grid5000.fr;thermos-root-devel-WordCountTopology-1-3e01bc1a-04c1-4c23-9663-6cea4a10b54c;["container_1_Consume_and_count_1"];3.25;1533766124.87592;176.97;1100.68;9.041466984;10;149
43;paravance-13.rennes.grid5000.fr;thermos-root-devel-WordCountTopology-2-2bf3ad30-bcc5-45ec-b949-efc32354ce44;["container_2_Emit_random_words_2"];3.25;1533766124.8654;112.1;982.91;5.693606472;10;149
44;paravance-22.rennes.grid5000.fr;thermos-root-devel-WordCountTopology-1-3e01bc1a-04c1-4c23-9663-6cea4a10b54c;["container_1_Consume_and_count_1"];3.25;1533766135.09035;180.41;1121.01;9.08494185;10;149
44;paravance-16.rennes.grid5000.fr;thermos-root-devel-WordCountTopology-0-e319f99d-6314-4b7d-9eb0-8b5a4e11f0a7;["topology_master"];3.25;1533766135.11679;5.4;12.44;0.0;9;117
44;paravance-13.rennes.grid5000.fr;thermos-root-devel-WordCountTopology-2-2bf3ad30-bcc5-45ec-b949-efc32354ce44;["container_2_Emit_random_words_2"];3.25;1533766135.08113;114.1;1000.9;5.693606472;10;149
45;paravance-16.rennes.grid5000.fr;thermos-root-devel-WordCountTopology-0-e319f99d-6314-4b7d-9eb0-8b5a4e11f0a7;["topology_master"];3.25;1533766145.33307;5.48;12.56;0.0;9;117
45;paravance-13.rennes.grid5000.fr;thermos-root-devel-WordCountTopology-2-2bf3ad30-bcc5-45ec-b949-efc32354ce44;["container_2_Emit_random_words_2"];3.25;1533766145.29784;116.2;1019.29;5.693606472;10;149
45;paravance-22.rennes.grid5000.fr;thermos-root-devel-WordCountTopology-1-3e01bc1a-04c1-4c23-9663-6cea4a10b54c;["container_1_Consume_and_count_1"];3.25;1533766145.30971;183.99;1143.83;9.517618294;10;149
46;paravance-13.rennes.grid5000.fr;thermos-root-devel-WordCountTopology-2-2bf3ad30-bcc5-45ec-b949-efc32354ce44;["container_2_Emit_random_words_2"];3.25;1533766155.51337;118.19;1037.32;5.693606472;10;149
46;paravance-22.rennes.grid5000.fr;thermos-root-devel-WordCountTopology-1-3e01bc1a-04c1-4c23-9663-6cea4a10b54c;["container_1_Consume_and_count_1"];3.25;1533766155.5238;187.36;1165.13;9.666257088;10;149
46;paravance-16.rennes.grid5000.fr;thermos-root-devel-WordCountTopology-0-e319f99d-6314-4b7d-9eb0-8b5a4e11f0a7;["topology_master"];3.25;1533766155.55023;5.54;12.63;0.0;9;117
47;paravance-16.rennes.grid5000.fr;thermos-root-devel-WordCountTopology-0-e319f99d-6314-4b7d-9eb0-8b5a4e11f0a7;["topology_master"];3.25;1533766165.76469;5.61;12.71;0.0;9;117
47;paravance-13.rennes.grid5000.fr;thermos-root-devel-WordCountTopology-2-2bf3ad30-bcc5-45ec-b949-efc32354ce44;["container_2_Emit_random_words_2"];3.25;1533766165.72904;120.35;1056.38;5.693606472;10;149
47;paravance-22.rennes.grid5000.fr;thermos-root-devel-WordCountTopology-1-3e01bc1a-04c1-4c23-9663-6cea4a10b54c;["container_1_Consume_and_count_1"];3.25;1533766165.73979;190.83;1183.53;9.796128585;10;149
48;paravance-22.rennes.grid5000.fr;thermos-root-devel-WordCountTopology-1-3e01bc1a-04c1-4c23-9663-6cea4a10b54c;["container_1_Consume_and_count_1"];3.25;1533766175.95574;194.15;1200.03;9.796128585;10;149
48;paravance-13.rennes.grid5000.fr;thermos-root-devel-WordCountTopology-2-2bf3ad30-bcc5-45ec-b949-efc32354ce44;["container_2_Emit_random_words_2"];3.25;1533766175.94447;122.47;1075.5;5.693606472;10;149
48;paravance-16.rennes.grid5000.fr;thermos-root-devel-WordCountTopology-0-e319f99d-6314-4b7d-9eb0-8b5a4e11f0a7;["topology_master"];3.25;1533766175.9812;5.67;12.86;0.0;9;117
49;paravance-22.rennes.grid5000.fr;thermos-root-devel-WordCountTopology-1-3e01bc1a-04c1-4c23-9663-6cea4a10b54c;["container_1_Consume_and_count_1"];3.25;1533766186.17197;197.36;1216.33;9.796128585;10;149
49;paravance-16.rennes.grid5000.fr;thermos-root-devel-WordCountTopology-0-e319f99d-6314-4b7d-9eb0-8b5a4e11f0a7;["topology_master"];3.25;1533766186.1969;5.76;12.98;0.0;9;117
49;paravance-13.rennes.grid5000.fr;thermos-root-devel-WordCountTopology-2-2bf3ad30-bcc5-45ec-b949-efc32354ce44;["container_2_Emit_random_words_2"];3.25;1533766186.16135;124.55;1094.35;5.693606472;10;149
50;paravance-16.rennes.grid5000.fr;thermos-root-devel-WordCountTopology-0-e319f99d-6314-4b7d-9eb0-8b5a4e11f0a7;["topology_master"];3.25;1533766196.41277;5.79;13.01;0.0;9;117
50;paravance-22.rennes.grid5000.fr;thermos-root-devel-WordCountTopology-1-3e01bc1a-04c1-4c23-9663-6cea4a10b54c;["container_1_Consume_and_count_1"];3.25;1533766196.3874;200.48;1232.76;9.796128585;10;149
50;paravance-13.rennes.grid5000.fr;thermos-root-devel-WordCountTopology-2-2bf3ad30-bcc5-45ec-b949-efc32354ce44;["container_2_Emit_random_words_2"];3.25;1533766196.37754;126.51;1113.23;5.693606472;10;149
51;paravance-16.rennes.grid5000.fr;thermos-root-devel-WordCountTopology-0-e319f99d-6314-4b7d-9eb0-8b5a4e11f0a7;["topology_master"];3.25;1533766206.62896;5.88;13.14;0.0;9;117
51;paravance-22.rennes.grid5000.fr;thermos-root-devel-WordCountTopology-1-3e01bc1a-04c1-4c23-9663-6cea4a10b54c;["container_1_Consume_and_count_1"];3.25;1533766206.60423;203.81;1249.79;9.796128585;10;149
51;paravance-13.rennes.grid5000.fr;thermos-root-devel-WordCountTopology-2-2bf3ad30-bcc5-45ec-b949-efc32354ce44;["container_2_Emit_random_words_2"];3.25;1533766206.59352;128.6;1132.54;5.693606472;10;149
52;paravance-16.rennes.grid5000.fr;thermos-root-devel-WordCountTopology-0-e319f99d-6314-4b7d-9eb0-8b5a4e11f0a7;["topology_master"];3.25;1533766216.84502;5.93;13.21;0.0;9;117
52;paravance-13.rennes.grid5000.fr;thermos-root-devel-WordCountTopology-2-2bf3ad30-bcc5-45ec-b949-efc32354ce44;["container_2_Emit_random_words_2"];3.25;1533766216.80955;130.6;1151.45;5.693606472;10;149
52;paravance-22.rennes.grid5000.fr;thermos-root-devel-WordCountTopology-1-3e01bc1a-04c1-4c23-9663-6cea4a10b54c;["container_1_Consume_and_count_1"];3.25;1533766216.81975;207.0;1266.1;9.796128585;10;149
53;paravance-22.rennes.grid5000.fr;thermos-root-devel-WordCountTopology-1-3e01bc1a-04c1-4c23-9663-6cea4a10b54c;["container_1_Consume_and_count_1"];3.25;1533766227.03417;210.21;1282.67;9.796128585;10;149
53;paravance-16.rennes.grid5000.fr;thermos-root-devel-WordCountTopology-0-e319f99d-6314-4b7d-9eb0-8b5a4e11f0a7;["topology_master"];3.25;1533766227.06069;6.0;13.31;0.0;9;117
53;paravance-13.rennes.grid5000.fr;thermos-root-devel-WordCountTopology-2-2bf3ad30-bcc5-45ec-b949-efc32354ce44;["container_2_Emit_random_words_2"];3.25;1533766227.0237;132.71;1170.41;5.693606472;10;149
54;paravance-13.rennes.grid5000.fr;thermos-root-devel-WordCountTopology-2-2bf3ad30-bcc5-45ec-b949-efc32354ce44;["container_2_Emit_random_words_2"];3.25;1533766237.23885;134.87;1189.7;5.693606472;10;149
54;paravance-22.rennes.grid5000.fr;thermos-root-devel-WordCountTopology-1-3e01bc1a-04c1-4c23-9663-6cea4a10b54c;["container_1_Consume_and_count_1"];3.25;1533766237.25007;213.29;1299.22;9.796128585;10;149
54;paravance-16.rennes.grid5000.fr;thermos-root-devel-WordCountTopology-0-e319f99d-6314-4b7d-9eb0-8b5a4e11f0a7;["topology_master"];3.25;1533766237.27515;6.06;13.42;0.0;9;117
55;paravance-22.rennes.grid5000.fr;thermos-root-devel-WordCountTopology-1-3e01bc1a-04c1-4c23-9663-6cea4a10b54c;["container_1_Consume_and_count_1"];3.25;1533766247.46509;216.56;1315.95;9.796128585;10;149
55;paravance-13.rennes.grid5000.fr;thermos-root-devel-WordCountTopology-2-2bf3ad30-bcc5-45ec-b949-efc32354ce44;["container_2_Emit_random_words_2"];3.25;1533766247.45526;137.06;1209.07;5.693606472;10;149
55;paravance-16.rennes.grid5000.fr;thermos-root-devel-WordCountTopology-0-e319f99d-6314-4b7d-9eb0-8b5a4e11f0a7;["topology_master"];3.25;1533766247.49121;6.16;13.54;0.0;9;117
56;paravance-16.rennes.grid5000.fr;thermos-root-devel-WordCountTopology-0-e319f99d-6314-4b7d-9eb0-8b5a4e11f0a7;["topology_master"];3.25;1533766257.70469;6.18;13.57;0.0;9;117
56;paravance-13.rennes.grid5000.fr;thermos-root-devel-WordCountTopology-2-2bf3ad30-bcc5-45ec-b949-efc32354ce44;["container_2_Emit_random_words_2"];3.25;1533766257.66948;139.18;1228.21;5.693606472;10;149
56;paravance-22.rennes.grid5000.fr;thermos-root-devel-WordCountTopology-1-3e01bc1a-04c1-4c23-9663-6cea4a10b54c;["container_1_Consume_and_count_1"];3.25;1533766257.67906;219.79;1332.59;9.796128585;10;149
57;paravance-22.rennes.grid5000.fr;thermos-root-devel-WordCountTopology-1-3e01bc1a-04c1-4c23-9663-6cea4a10b54c;["container_1_Consume_and_count_1"];3.25;1533766267.89277;222.99;1349.07;9.796128585;10;149
57;paravance-16.rennes.grid5000.fr;thermos-root-devel-WordCountTopology-0-e319f99d-6314-4b7d-9eb0-8b5a4e11f0a7;["topology_master"];3.25;1533766267.91874;6.27;13.69;0.0;9;117
57;paravance-13.rennes.grid5000.fr;thermos-root-devel-WordCountTopology-2-2bf3ad30-bcc5-45ec-b949-efc32354ce44;["container_2_Emit_random_words_2"];3.25;1533766267.88231;141.36;1247.49;5.693606472;10;149
58;paravance-13.rennes.grid5000.fr;thermos-root-devel-WordCountTopology-2-2bf3ad30-bcc5-45ec-b949-efc32354ce44;["container_2_Emit_random_words_2"];3.25;1533766278.09661;143.4;1265.63;5.693606472;10;149
58;paravance-16.rennes.grid5000.fr;thermos-root-devel-WordCountTopology-0-e319f99d-6314-4b7d-9eb0-8b5a4e11f0a7;["topology_master"];3.25;1533766278.13435;6.33;13.76;0.0;9;117
58;paravance-22.rennes.grid5000.fr;thermos-root-devel-WordCountTopology-1-3e01bc1a-04c1-4c23-9663-6cea4a10b54c;["container_1_Consume_and_count_1"];3.25;1533766278.10816;226.15;1369.23;9.940269523;10;149
59;paravance-22.rennes.grid5000.fr;thermos-root-devel-WordCountTopology-1-3e01bc1a-04c1-4c23-9663-6cea4a10b54c;["container_1_Consume_and_count_1"];3.25;1533766288.33335;229.37;1390.93;10.134280485;10;149
59;paravance-16.rennes.grid5000.fr;thermos-root-devel-WordCountTopology-0-e319f99d-6314-4b7d-9eb0-8b5a4e11f0a7;["topology_master"];3.25;1533766288.35823;6.4;13.88;0.0;9;117
59;paravance-13.rennes.grid5000.fr;thermos-root-devel-WordCountTopology-2-2bf3ad30-bcc5-45ec-b949-efc32354ce44;["container_2_Emit_random_words_2"];3.25;1533766288.3226;145.49;1283.91;5.693606472;10;149
60;paravance-16.rennes.grid5000.fr;thermos-root-devel-WordCountTopology-0-e319f99d-6314-4b7d-9eb0-8b5a4e11f0a7;["topology_master"];3.25;1533766298.57437;6.46;13.95;0.0;9;117
60;paravance-13.rennes.grid5000.fr;thermos-root-devel-WordCountTopology-2-2bf3ad30-bcc5-45ec-b949-efc32354ce44;["container_2_Emit_random_words_2"];3.25;1533766298.53767;147.55;1302.94;5.693606472;10;149
60;paravance-22.rennes.grid5000.fr;thermos-root-devel-WordCountTopology-1-3e01bc1a-04c1-4c23-9663-6cea4a10b54c;["container_1_Consume_and_count_1"];3.25;1533766298.54886;232.72;1412.54;10.311457244;10;149
