mesure_id;slave_id;executor_id;heron_instances;cpus_limit;timestamp_A;cpus_system_time_secs_A;cpus_user_time_secs_A;cpus_throttled_time_secs_A;processes;threads
0;paravance-54.rennes.grid5000.fr;thermos-root-devel-WordCountTopology-1-bf83c8a2-4236-451e-b582-217306c6dfc8;["container_1_Consume_and_count_1"];2.25;1533049612.50522;42.82;208.82;103.957527907;10;149
0;paravance-53.rennes.grid5000.fr;thermos-root-devel-WordCountTopology-0-45f6a29c-93a2-4d88-a3e6-72c534f48805;["topology_master"];2.25;1533049612.51989;2.52;8.17;0.118406847;9;117
0;paravance-56.rennes.grid5000.fr;thermos-root-devel-WordCountTopology-2-05d5b669-cb38-4456-8664-9c87fc819938;["container_2_Emit_random_words_2"];2.25;1533049612.20797;34.21;140.57;16.666060146;10;149
1;paravance-54.rennes.grid5000.fr;thermos-root-devel-WordCountTopology-1-bf83c8a2-4236-451e-b582-217306c6dfc8;["container_1_Consume_and_count_1"];2.25;1533049622.71675;45.99;227.67;117.81706577;10;149
1;paravance-53.rennes.grid5000.fr;thermos-root-devel-WordCountTopology-0-45f6a29c-93a2-4d88-a3e6-72c534f48805;["topology_master"];2.25;1533049622.73674;2.59;8.33;0.118406847;9;117
1;paravance-56.rennes.grid5000.fr;thermos-root-devel-WordCountTopology-2-05d5b669-cb38-4456-8664-9c87fc819938;["container_2_Emit_random_words_2"];2.25;1533049622.43068;36.58;149.72;16.927901872;10;149
2;paravance-54.rennes.grid5000.fr;thermos-root-devel-WordCountTopology-1-bf83c8a2-4236-451e-b582-217306c6dfc8;["container_1_Consume_and_count_1"];2.25;1533049632.9267;49.17;246.45;129.459648095;10;149
2;paravance-53.rennes.grid5000.fr;thermos-root-devel-WordCountTopology-0-45f6a29c-93a2-4d88-a3e6-72c534f48805;["topology_master"];2.25;1533049632.95221;2.67;8.46;0.118406847;9;117
2;paravance-56.rennes.grid5000.fr;thermos-root-devel-WordCountTopology-2-05d5b669-cb38-4456-8664-9c87fc819938;["container_2_Emit_random_words_2"];2.25;1533049632.64998;39.05;159.4;16.955948082;10;149
3;paravance-54.rennes.grid5000.fr;thermos-root-devel-WordCountTopology-1-bf83c8a2-4236-451e-b582-217306c6dfc8;["container_1_Consume_and_count_1"];2.25;1533049643.13815;52.38;265.36;140.94909759;10;149
3;paravance-56.rennes.grid5000.fr;thermos-root-devel-WordCountTopology-2-05d5b669-cb38-4456-8664-9c87fc819938;["container_2_Emit_random_words_2"];2.25;1533049642.86959;41.25;167.68;16.994410011;10;149
3;paravance-53.rennes.grid5000.fr;thermos-root-devel-WordCountTopology-0-45f6a29c-93a2-4d88-a3e6-72c534f48805;["topology_master"];2.25;1533049643.16703;2.71;8.49;0.118406847;9;117
4;paravance-54.rennes.grid5000.fr;thermos-root-devel-WordCountTopology-1-bf83c8a2-4236-451e-b582-217306c6dfc8;["container_1_Consume_and_count_1"];2.25;1533049653.34817;55.41;284.37;151.936142836;10;149
4;paravance-56.rennes.grid5000.fr;thermos-root-devel-WordCountTopology-2-05d5b669-cb38-4456-8664-9c87fc819938;["container_2_Emit_random_words_2"];2.25;1533049653.09;43.59;176.19;17.071372461;10;149
4;paravance-53.rennes.grid5000.fr;thermos-root-devel-WordCountTopology-0-45f6a29c-93a2-4d88-a3e6-72c534f48805;["topology_master"];2.25;1533049653.38263;2.8;8.62;0.118406847;9;117
5;paravance-54.rennes.grid5000.fr;thermos-root-devel-WordCountTopology-1-bf83c8a2-4236-451e-b582-217306c6dfc8;["container_1_Consume_and_count_1"];2.25;1533049663.55599;58.45;303.14;161.537603362;10;149
5;paravance-53.rennes.grid5000.fr;thermos-root-devel-WordCountTopology-0-45f6a29c-93a2-4d88-a3e6-72c534f48805;["topology_master"];2.25;1533049663.59424;2.85;8.69;0.118406847;9;117
5;paravance-56.rennes.grid5000.fr;thermos-root-devel-WordCountTopology-2-05d5b669-cb38-4456-8664-9c87fc819938;["container_2_Emit_random_words_2"];2.25;1533049663.30906;46.0;185.36;17.214387953;10;149
6;paravance-54.rennes.grid5000.fr;thermos-root-devel-WordCountTopology-1-bf83c8a2-4236-451e-b582-217306c6dfc8;["container_1_Consume_and_count_1"];2.25;1533049673.76603;61.61;321.73;172.362164014;10;149
6;paravance-56.rennes.grid5000.fr;thermos-root-devel-WordCountTopology-2-05d5b669-cb38-4456-8664-9c87fc819938;["container_2_Emit_random_words_2"];2.25;1533049673.52838;48.43;194.88;17.471229856;10;149
6;paravance-53.rennes.grid5000.fr;thermos-root-devel-WordCountTopology-0-45f6a29c-93a2-4d88-a3e6-72c534f48805;["topology_master"];2.25;1533049673.80965;2.94;8.81;0.118406847;9;117
7;paravance-56.rennes.grid5000.fr;thermos-root-devel-WordCountTopology-2-05d5b669-cb38-4456-8664-9c87fc819938;["container_2_Emit_random_words_2"];2.25;1533049683.74834;50.8;204.67;17.714398371;10;149
7;paravance-54.rennes.grid5000.fr;thermos-root-devel-WordCountTopology-1-bf83c8a2-4236-451e-b582-217306c6dfc8;["container_1_Consume_and_count_1"];2.25;1533049683.97734;64.83;340.6;183.30779087;10;149
7;paravance-53.rennes.grid5000.fr;thermos-root-devel-WordCountTopology-0-45f6a29c-93a2-4d88-a3e6-72c534f48805;["topology_master"];2.25;1533049684.0262;3.01;8.95;0.118406847;9;117
8;paravance-54.rennes.grid5000.fr;thermos-root-devel-WordCountTopology-1-bf83c8a2-4236-451e-b582-217306c6dfc8;["container_1_Consume_and_count_1"];2.25;1533049694.18564;67.96;359.56;194.629537079;10;149
8;paravance-56.rennes.grid5000.fr;thermos-root-devel-WordCountTopology-2-05d5b669-cb38-4456-8664-9c87fc819938;["container_2_Emit_random_words_2"];2.25;1533049693.96947;53.23;213.72;17.817430383;10;149
8;paravance-53.rennes.grid5000.fr;thermos-root-devel-WordCountTopology-0-45f6a29c-93a2-4d88-a3e6-72c534f48805;["topology_master"];2.25;1533049694.24025;3.09;9.08;0.118406847;9;117
9;paravance-54.rennes.grid5000.fr;thermos-root-devel-WordCountTopology-1-bf83c8a2-4236-451e-b582-217306c6dfc8;["container_1_Consume_and_count_1"];2.25;1533049704.39807;71.07;378.53;205.944479478;10;149
9;paravance-56.rennes.grid5000.fr;thermos-root-devel-WordCountTopology-2-05d5b669-cb38-4456-8664-9c87fc819938;["container_2_Emit_random_words_2"];2.25;1533049704.18924;55.43;222.61;17.938695807;10;149
9;paravance-53.rennes.grid5000.fr;thermos-root-devel-WordCountTopology-0-45f6a29c-93a2-4d88-a3e6-72c534f48805;["topology_master"];2.25;1533049704.4551;3.12;9.11;0.118406847;9;117
10;paravance-54.rennes.grid5000.fr;thermos-root-devel-WordCountTopology-1-bf83c8a2-4236-451e-b582-217306c6dfc8;["container_1_Consume_and_count_1"];2.25;1533049714.61433;74.25;397.32;216.764152865;10;149
10;paravance-53.rennes.grid5000.fr;thermos-root-devel-WordCountTopology-0-45f6a29c-93a2-4d88-a3e6-72c534f48805;["topology_master"];2.25;1533049714.67138;3.22;9.23;0.118406847;9;117
10;paravance-56.rennes.grid5000.fr;thermos-root-devel-WordCountTopology-2-05d5b669-cb38-4456-8664-9c87fc819938;["container_2_Emit_random_words_2"];2.25;1533049714.41178;57.94;232.03;18.072337872;10;149
11;paravance-54.rennes.grid5000.fr;thermos-root-devel-WordCountTopology-1-bf83c8a2-4236-451e-b582-217306c6dfc8;["container_1_Consume_and_count_1"];2.25;1533049724.82968;77.4;415.63;228.296197085;10;149
11;paravance-56.rennes.grid5000.fr;thermos-root-devel-WordCountTopology-2-05d5b669-cb38-4456-8664-9c87fc819938;["container_2_Emit_random_words_2"];2.25;1533049724.633;60.17;240.7;18.266446438;10;149
11;paravance-53.rennes.grid5000.fr;thermos-root-devel-WordCountTopology-0-45f6a29c-93a2-4d88-a3e6-72c534f48805;["topology_master"];2.25;1533049724.88695;3.27;9.31;0.118406847;9;117
12;paravance-53.rennes.grid5000.fr;thermos-root-devel-WordCountTopology-0-45f6a29c-93a2-4d88-a3e6-72c534f48805;["topology_master"];2.25;1533049735.10196;3.4;9.61;0.118406847;9;117
12;paravance-54.rennes.grid5000.fr;thermos-root-devel-WordCountTopology-1-bf83c8a2-4236-451e-b582-217306c6dfc8;["container_1_Consume_and_count_1"];2.25;1533049735.04649;80.7;434.3;239.550267578;10;150
12;paravance-56.rennes.grid5000.fr;thermos-root-devel-WordCountTopology-2-05d5b669-cb38-4456-8664-9c87fc819938;["container_2_Emit_random_words_2"];2.25;1533049734.85297;62.65;250.4;18.388961686;10;149
13;paravance-54.rennes.grid5000.fr;thermos-root-devel-WordCountTopology-1-bf83c8a2-4236-451e-b582-217306c6dfc8;["container_1_Consume_and_count_1"];2.25;1533049745.26065;84.12;453.0;250.796471409;10;150
13;paravance-53.rennes.grid5000.fr;thermos-root-devel-WordCountTopology-0-45f6a29c-93a2-4d88-a3e6-72c534f48805;["topology_master"];2.25;1533049745.31842;3.43;9.64;0.118406847;9;117
13;paravance-56.rennes.grid5000.fr;thermos-root-devel-WordCountTopology-2-05d5b669-cb38-4456-8664-9c87fc819938;["container_2_Emit_random_words_2"];2.25;1533049745.07322;65.03;259.62;18.506474154;10;149
14;paravance-56.rennes.grid5000.fr;thermos-root-devel-WordCountTopology-2-05d5b669-cb38-4456-8664-9c87fc819938;["container_2_Emit_random_words_2"];2.25;1533049755.29318;67.39;268.43;18.577260343;10;149
14;paravance-54.rennes.grid5000.fr;thermos-root-devel-WordCountTopology-1-bf83c8a2-4236-451e-b582-217306c6dfc8;["container_1_Consume_and_count_1"];2.25;1533049755.47706;87.31;471.88;262.610453266;10;149
14;paravance-53.rennes.grid5000.fr;thermos-root-devel-WordCountTopology-0-45f6a29c-93a2-4d88-a3e6-72c534f48805;["topology_master"];2.25;1533049755.5336;3.52;9.77;0.118406847;9;117
15;paravance-56.rennes.grid5000.fr;thermos-root-devel-WordCountTopology-2-05d5b669-cb38-4456-8664-9c87fc819938;["container_2_Emit_random_words_2"];2.25;1533049765.51362;69.81;277.78;18.662220826;10;149
15;paravance-54.rennes.grid5000.fr;thermos-root-devel-WordCountTopology-1-bf83c8a2-4236-451e-b582-217306c6dfc8;["container_1_Consume_and_count_1"];2.25;1533049765.69262;90.62;490.49;274.120076709;10;149
15;paravance-53.rennes.grid5000.fr;thermos-root-devel-WordCountTopology-0-45f6a29c-93a2-4d88-a3e6-72c534f48805;["topology_master"];2.25;1533049765.74878;3.58;9.84;0.118406847;9;117
16;paravance-54.rennes.grid5000.fr;thermos-root-devel-WordCountTopology-1-bf83c8a2-4236-451e-b582-217306c6dfc8;["container_1_Consume_and_count_1"];2.25;1533049775.90739;94.01;509.14;284.747986293;10;149
16;paravance-53.rennes.grid5000.fr;thermos-root-devel-WordCountTopology-0-45f6a29c-93a2-4d88-a3e6-72c534f48805;["topology_master"];2.25;1533049775.965;3.64;9.92;0.118406847;9;117
16;paravance-56.rennes.grid5000.fr;thermos-root-devel-WordCountTopology-2-05d5b669-cb38-4456-8664-9c87fc819938;["container_2_Emit_random_words_2"];2.25;1533049775.73552;72.32;287.39;18.925772648;10;149
17;paravance-53.rennes.grid5000.fr;thermos-root-devel-WordCountTopology-0-45f6a29c-93a2-4d88-a3e6-72c534f48805;["topology_master"];2.25;1533049786.17909;3.7;10.0;0.118406847;9;117
17;paravance-54.rennes.grid5000.fr;thermos-root-devel-WordCountTopology-1-bf83c8a2-4236-451e-b582-217306c6dfc8;["container_1_Consume_and_count_1"];2.25;1533049786.12311;97.21;527.67;295.075312669;10;149
17;paravance-56.rennes.grid5000.fr;thermos-root-devel-WordCountTopology-2-05d5b669-cb38-4456-8664-9c87fc819938;["container_2_Emit_random_words_2"];2.25;1533049785.95603;74.42;296.02;19.026348469;10;149
18;paravance-54.rennes.grid5000.fr;thermos-root-devel-WordCountTopology-1-bf83c8a2-4236-451e-b582-217306c6dfc8;["container_1_Consume_and_count_1"];2.25;1533049796.33706;100.4;546.32;304.764767259;10;149
18;paravance-53.rennes.grid5000.fr;thermos-root-devel-WordCountTopology-0-45f6a29c-93a2-4d88-a3e6-72c534f48805;["topology_master"];2.25;1533049796.3954;3.81;10.2;0.118406847;9;117
18;paravance-56.rennes.grid5000.fr;thermos-root-devel-WordCountTopology-2-05d5b669-cb38-4456-8664-9c87fc819938;["container_2_Emit_random_words_2"];2.25;1533049796.17626;76.92;305.36;19.365930875;10;149
19;paravance-54.rennes.grid5000.fr;thermos-root-devel-WordCountTopology-1-bf83c8a2-4236-451e-b582-217306c6dfc8;["container_1_Consume_and_count_1"];2.25;1533049806.55321;103.66;565.28;317.025357065;10;149
19;paravance-56.rennes.grid5000.fr;thermos-root-devel-WordCountTopology-2-05d5b669-cb38-4456-8664-9c87fc819938;["container_2_Emit_random_words_2"];2.25;1533049806.39551;79.42;315.6;19.402391734;10;149
19;paravance-53.rennes.grid5000.fr;thermos-root-devel-WordCountTopology-0-45f6a29c-93a2-4d88-a3e6-72c534f48805;["topology_master"];2.25;1533049806.61122;3.85;10.23;0.118406847;9;117
20;paravance-53.rennes.grid5000.fr;thermos-root-devel-WordCountTopology-0-45f6a29c-93a2-4d88-a3e6-72c534f48805;["topology_master"];2.25;1533049816.82474;3.94;10.36;0.118406847;9;117
20;paravance-56.rennes.grid5000.fr;thermos-root-devel-WordCountTopology-2-05d5b669-cb38-4456-8664-9c87fc819938;["container_2_Emit_random_words_2"];2.25;1533049816.6166;81.85;324.66;19.491163579;10;149
20;paravance-54.rennes.grid5000.fr;thermos-root-devel-WordCountTopology-1-bf83c8a2-4236-451e-b582-217306c6dfc8;["container_1_Consume_and_count_1"];2.25;1533049816.76908;106.73;584.19;329.206603199;10;149
21;paravance-53.rennes.grid5000.fr;thermos-root-devel-WordCountTopology-0-45f6a29c-93a2-4d88-a3e6-72c534f48805;["topology_master"];2.25;1533049827.04203;4.0;10.43;0.118406847;9;117
21;paravance-56.rennes.grid5000.fr;thermos-root-devel-WordCountTopology-2-05d5b669-cb38-4456-8664-9c87fc819938;["container_2_Emit_random_words_2"];2.25;1533049826.83723;84.27;334.21;19.535996887;10;149
21;paravance-54.rennes.grid5000.fr;thermos-root-devel-WordCountTopology-1-bf83c8a2-4236-451e-b582-217306c6dfc8;["container_1_Consume_and_count_1"];2.25;1533049826.98511;109.92;603.1;339.870624177;10;149
22;paravance-54.rennes.grid5000.fr;thermos-root-devel-WordCountTopology-1-bf83c8a2-4236-451e-b582-217306c6dfc8;["container_1_Consume_and_count_1"];2.25;1533049837.20006;113.27;621.94;350.996150071;10;149
22;paravance-53.rennes.grid5000.fr;thermos-root-devel-WordCountTopology-0-45f6a29c-93a2-4d88-a3e6-72c534f48805;["topology_master"];2.25;1533049837.25705;4.06;10.51;0.118406847;9;117
22;paravance-56.rennes.grid5000.fr;thermos-root-devel-WordCountTopology-2-05d5b669-cb38-4456-8664-9c87fc819938;["container_2_Emit_random_words_2"];2.25;1533049837.05887;86.95;344.45;19.658750702;10;149
23;paravance-56.rennes.grid5000.fr;thermos-root-devel-WordCountTopology-2-05d5b669-cb38-4456-8664-9c87fc819938;["container_2_Emit_random_words_2"];2.25;1533049847.27651;89.34;353.84;19.764665339;10;149
23;paravance-54.rennes.grid5000.fr;thermos-root-devel-WordCountTopology-1-bf83c8a2-4236-451e-b582-217306c6dfc8;["container_1_Consume_and_count_1"];2.25;1533049847.41463;116.48;640.61;361.082302172;10;149
23;paravance-53.rennes.grid5000.fr;thermos-root-devel-WordCountTopology-0-45f6a29c-93a2-4d88-a3e6-72c534f48805;["topology_master"];2.25;1533049847.47076;4.12;10.58;0.118406847;9;117
24;paravance-54.rennes.grid5000.fr;thermos-root-devel-WordCountTopology-1-bf83c8a2-4236-451e-b582-217306c6dfc8;["container_1_Consume_and_count_1"];2.25;1533049857.52804;119.83;658.93;372.347387595;10;149
24;paravance-53.rennes.grid5000.fr;thermos-root-devel-WordCountTopology-0-45f6a29c-93a2-4d88-a3e6-72c534f48805;["topology_master"];2.25;1533049857.68505;4.24;10.78;0.118406847;9;117
24;paravance-56.rennes.grid5000.fr;thermos-root-devel-WordCountTopology-2-05d5b669-cb38-4456-8664-9c87fc819938;["container_2_Emit_random_words_2"];2.25;1533049857.49752;92.1;364.22;19.986594335;10;149
25;paravance-54.rennes.grid5000.fr;thermos-root-devel-WordCountTopology-1-bf83c8a2-4236-451e-b582-217306c6dfc8;["container_1_Consume_and_count_1"];2.25;1533049867.84235;123.05;677.72;382.524759157;10;149
25;paravance-56.rennes.grid5000.fr;thermos-root-devel-WordCountTopology-2-05d5b669-cb38-4456-8664-9c87fc819938;["container_2_Emit_random_words_2"];2.25;1533049867.71659;94.51;372.38;20.014542813;10;149
25;paravance-53.rennes.grid5000.fr;thermos-root-devel-WordCountTopology-0-45f6a29c-93a2-4d88-a3e6-72c534f48805;["topology_master"];2.25;1533049867.90103;4.27;10.8;0.118406847;9;117
26;paravance-54.rennes.grid5000.fr;thermos-root-devel-WordCountTopology-1-bf83c8a2-4236-451e-b582-217306c6dfc8;["container_1_Consume_and_count_1"];2.25;1533049878.05716;126.24;696.5;392.982891192;10;149
26;paravance-56.rennes.grid5000.fr;thermos-root-devel-WordCountTopology-2-05d5b669-cb38-4456-8664-9c87fc819938;["container_2_Emit_random_words_2"];2.25;1533049877.93577;96.86;381.66;20.166347334;10;149
26;paravance-53.rennes.grid5000.fr;thermos-root-devel-WordCountTopology-0-45f6a29c-93a2-4d88-a3e6-72c534f48805;["topology_master"];2.25;1533049878.11521;4.36;10.93;0.118406847;9;117
27;paravance-54.rennes.grid5000.fr;thermos-root-devel-WordCountTopology-1-bf83c8a2-4236-451e-b582-217306c6dfc8;["container_1_Consume_and_count_1"];2.25;1533049888.27141;129.39;715.55;405.043192507;10;149
27;paravance-56.rennes.grid5000.fr;thermos-root-devel-WordCountTopology-2-05d5b669-cb38-4456-8664-9c87fc819938;["container_2_Emit_random_words_2"];2.25;1533049888.15531;99.34;390.91;20.302284592;10;149
27;paravance-53.rennes.grid5000.fr;thermos-root-devel-WordCountTopology-0-45f6a29c-93a2-4d88-a3e6-72c534f48805;["topology_master"];2.25;1533049888.32895;4.42;11.0;0.118406847;9;117
28;paravance-53.rennes.grid5000.fr;thermos-root-devel-WordCountTopology-0-45f6a29c-93a2-4d88-a3e6-72c534f48805;["topology_master"];2.25;1533049898.54313;4.48;11.08;0.118406847;9;117
28;paravance-56.rennes.grid5000.fr;thermos-root-devel-WordCountTopology-2-05d5b669-cb38-4456-8664-9c87fc819938;["container_2_Emit_random_words_2"];2.25;1533049898.37574;101.84;400.33;20.350642333;10;149
28;paravance-54.rennes.grid5000.fr;thermos-root-devel-WordCountTopology-1-bf83c8a2-4236-451e-b582-217306c6dfc8;["container_1_Consume_and_count_1"];2.25;1533049898.48736;132.66;734.39;416.602306795;10;149
29;paravance-54.rennes.grid5000.fr;thermos-root-devel-WordCountTopology-1-bf83c8a2-4236-451e-b582-217306c6dfc8;["container_1_Consume_and_count_1"];2.25;1533049908.70189;135.73;753.26;427.580998597;10;149
29;paravance-53.rennes.grid5000.fr;thermos-root-devel-WordCountTopology-0-45f6a29c-93a2-4d88-a3e6-72c534f48805;["topology_master"];2.25;1533049908.75864;4.53;11.15;0.118406847;9;117
29;paravance-56.rennes.grid5000.fr;thermos-root-devel-WordCountTopology-2-05d5b669-cb38-4456-8664-9c87fc819938;["container_2_Emit_random_words_2"];2.25;1533049908.59613;103.95;408.29;20.451662441;10;149
30;paravance-54.rennes.grid5000.fr;thermos-root-devel-WordCountTopology-1-bf83c8a2-4236-451e-b582-217306c6dfc8;["container_1_Consume_and_count_1"];2.25;1533049918.91826;139.05;771.82;437.942814114;10;149
30;paravance-53.rennes.grid5000.fr;thermos-root-devel-WordCountTopology-0-45f6a29c-93a2-4d88-a3e6-72c534f48805;["topology_master"];2.25;1533049918.97383;4.65;11.34;0.118406847;9;117
30;paravance-56.rennes.grid5000.fr;thermos-root-devel-WordCountTopology-2-05d5b669-cb38-4456-8664-9c87fc819938;["container_2_Emit_random_words_2"];2.25;1533049918.81628;106.42;417.3;20.696291441;10;149
31;paravance-54.rennes.grid5000.fr;thermos-root-devel-WordCountTopology-1-bf83c8a2-4236-451e-b582-217306c6dfc8;["container_1_Consume_and_count_1"];2.25;1533049929.13389;142.43;790.67;450.231593544;10;147
31;paravance-56.rennes.grid5000.fr;thermos-root-devel-WordCountTopology-2-05d5b669-cb38-4456-8664-9c87fc819938;["container_2_Emit_random_words_2"];2.25;1533049929.03803;108.85;425.98;20.763897927;10;149
31;paravance-53.rennes.grid5000.fr;thermos-root-devel-WordCountTopology-0-45f6a29c-93a2-4d88-a3e6-72c534f48805;["topology_master"];2.25;1533049929.1907;4.7;11.41;0.118406847;9;117
32;paravance-54.rennes.grid5000.fr;thermos-root-devel-WordCountTopology-1-bf83c8a2-4236-451e-b582-217306c6dfc8;["container_1_Consume_and_count_1"];2.25;1533049939.34926;145.73;809.35;461.904150561;10;149
32;paravance-53.rennes.grid5000.fr;thermos-root-devel-WordCountTopology-0-45f6a29c-93a2-4d88-a3e6-72c534f48805;["topology_master"];2.25;1533049939.40587;4.76;11.49;0.118406847;9;117
32;paravance-56.rennes.grid5000.fr;thermos-root-devel-WordCountTopology-2-05d5b669-cb38-4456-8664-9c87fc819938;["container_2_Emit_random_words_2"];2.25;1533049939.25908;111.31;435.15;20.786533535;10;149
33;paravance-54.rennes.grid5000.fr;thermos-root-devel-WordCountTopology-1-bf83c8a2-4236-451e-b582-217306c6dfc8;["container_1_Consume_and_count_1"];2.25;1533049949.56448;148.98;828.23;473.163637666;10;149
33;paravance-56.rennes.grid5000.fr;thermos-root-devel-WordCountTopology-2-05d5b669-cb38-4456-8664-9c87fc819938;["container_2_Emit_random_words_2"];2.25;1533049949.47947;113.64;444.77;20.905937791;10;149
33;paravance-53.rennes.grid5000.fr;thermos-root-devel-WordCountTopology-0-45f6a29c-93a2-4d88-a3e6-72c534f48805;["topology_master"];2.25;1533049949.6209;4.85;11.61;0.118406847;9;117
34;paravance-54.rennes.grid5000.fr;thermos-root-devel-WordCountTopology-1-bf83c8a2-4236-451e-b582-217306c6dfc8;["container_1_Consume_and_count_1"];2.25;1533049959.78039;152.32;847.0;485.3152025;10;149
34;paravance-56.rennes.grid5000.fr;thermos-root-devel-WordCountTopology-2-05d5b669-cb38-4456-8664-9c87fc819938;["container_2_Emit_random_words_2"];2.25;1533049959.69904;116.38;455.54;21.02334819;10;149
34;paravance-53.rennes.grid5000.fr;thermos-root-devel-WordCountTopology-0-45f6a29c-93a2-4d88-a3e6-72c534f48805;["topology_master"];2.25;1533049959.83596;4.88;11.64;0.118406847;9;117
35;paravance-56.rennes.grid5000.fr;thermos-root-devel-WordCountTopology-2-05d5b669-cb38-4456-8664-9c87fc819938;["container_2_Emit_random_words_2"];2.25;1533049969.91841;119.05;465.25;21.098922656;10;149
35;paravance-53.rennes.grid5000.fr;thermos-root-devel-WordCountTopology-0-45f6a29c-93a2-4d88-a3e6-72c534f48805;["topology_master"];2.25;1533049970.05229;4.98;11.77;0.118406847;9;117
35;paravance-54.rennes.grid5000.fr;thermos-root-devel-WordCountTopology-1-bf83c8a2-4236-451e-b582-217306c6dfc8;["container_1_Consume_and_count_1"];2.25;1533049969.99577;155.72;865.55;497.266942841;10;149
36;paravance-53.rennes.grid5000.fr;thermos-root-devel-WordCountTopology-0-45f6a29c-93a2-4d88-a3e6-72c534f48805;["topology_master"];2.25;1533049980.26719;5.04;11.94;0.118406847;9;117
36;paravance-56.rennes.grid5000.fr;thermos-root-devel-WordCountTopology-2-05d5b669-cb38-4456-8664-9c87fc819938;["container_2_Emit_random_words_2"];2.25;1533049980.14028;121.79;475.74;21.264689285;10;149
36;paravance-54.rennes.grid5000.fr;thermos-root-devel-WordCountTopology-1-bf83c8a2-4236-451e-b582-217306c6dfc8;["container_1_Consume_and_count_1"];2.25;1533049980.21126;159.09;884.03;508.540655714;10;149
37;paravance-54.rennes.grid5000.fr;thermos-root-devel-WordCountTopology-1-bf83c8a2-4236-451e-b582-217306c6dfc8;["container_1_Consume_and_count_1"];2.25;1533049990.4258;162.22;902.55;518.177222669;10;149
37;paravance-53.rennes.grid5000.fr;thermos-root-devel-WordCountTopology-0-45f6a29c-93a2-4d88-a3e6-72c534f48805;["topology_master"];2.25;1533049990.4833;5.1;12.01;0.118406847;9;117
37;paravance-56.rennes.grid5000.fr;thermos-root-devel-WordCountTopology-2-05d5b669-cb38-4456-8664-9c87fc819938;["container_2_Emit_random_words_2"];2.25;1533049990.36142;124.09;484.65;21.47999035;10;149
38;paravance-53.rennes.grid5000.fr;thermos-root-devel-WordCountTopology-0-45f6a29c-93a2-4d88-a3e6-72c534f48805;["topology_master"];2.25;1533050000.69858;5.16;12.08;0.118406847;9;117
38;paravance-54.rennes.grid5000.fr;thermos-root-devel-WordCountTopology-1-bf83c8a2-4236-451e-b582-217306c6dfc8;["container_1_Consume_and_count_1"];2.25;1533050000.64424;165.4;921.53;528.868525714;10;149
38;paravance-56.rennes.grid5000.fr;thermos-root-devel-WordCountTopology-2-05d5b669-cb38-4456-8664-9c87fc819938;["container_2_Emit_random_words_2"];2.25;1533050000.58286;126.32;492.75;21.5072611;10;149
39;paravance-53.rennes.grid5000.fr;thermos-root-devel-WordCountTopology-0-45f6a29c-93a2-4d88-a3e6-72c534f48805;["topology_master"];2.25;1533050010.91486;5.25;12.2;0.118406847;9;117
39;paravance-56.rennes.grid5000.fr;thermos-root-devel-WordCountTopology-2-05d5b669-cb38-4456-8664-9c87fc819938;["container_2_Emit_random_words_2"];2.25;1533050010.80369;128.7;501.9;21.716841253;10;149
39;paravance-54.rennes.grid5000.fr;thermos-root-devel-WordCountTopology-1-bf83c8a2-4236-451e-b582-217306c6dfc8;["container_1_Consume_and_count_1"];2.25;1533050010.85947;168.68;940.34;541.289060929;10;149
40;paravance-54.rennes.grid5000.fr;thermos-root-devel-WordCountTopology-1-bf83c8a2-4236-451e-b582-217306c6dfc8;["container_1_Consume_and_count_1"];2.25;1533050021.07572;171.96;959.22;553.593491277;10;149
40;paravance-53.rennes.grid5000.fr;thermos-root-devel-WordCountTopology-0-45f6a29c-93a2-4d88-a3e6-72c534f48805;["topology_master"];2.25;1533050021.12936;5.27;12.23;0.118406847;9;117
40;paravance-56.rennes.grid5000.fr;thermos-root-devel-WordCountTopology-2-05d5b669-cb38-4456-8664-9c87fc819938;["container_2_Emit_random_words_2"];2.25;1533050021.04251;131.33;511.84;21.733774252;10;149
41;paravance-54.rennes.grid5000.fr;thermos-root-devel-WordCountTopology-1-bf83c8a2-4236-451e-b582-217306c6dfc8;["container_1_Consume_and_count_1"];2.25;1533050031.30789;175.2;977.99;564.649820859;10;149
41;paravance-53.rennes.grid5000.fr;thermos-root-devel-WordCountTopology-0-45f6a29c-93a2-4d88-a3e6-72c534f48805;["topology_master"];2.25;1533050031.36384;5.37;12.36;0.118406847;9;117
41;paravance-56.rennes.grid5000.fr;thermos-root-devel-WordCountTopology-2-05d5b669-cb38-4456-8664-9c87fc819938;["container_2_Emit_random_words_2"];2.25;1533050031.26291;133.61;520.64;21.845676907;10;150
42;paravance-54.rennes.grid5000.fr;thermos-root-devel-WordCountTopology-1-bf83c8a2-4236-451e-b582-217306c6dfc8;["container_1_Consume_and_count_1"];2.25;1533050041.52397;178.47;996.53;575.149889564;10;149
42;paravance-56.rennes.grid5000.fr;thermos-root-devel-WordCountTopology-2-05d5b669-cb38-4456-8664-9c87fc819938;["container_2_Emit_random_words_2"];2.25;1533050041.48359;136.17;530.12;21.905202468;10;150
42;paravance-53.rennes.grid5000.fr;thermos-root-devel-WordCountTopology-0-45f6a29c-93a2-4d88-a3e6-72c534f48805;["topology_master"];2.25;1533050041.58055;5.43;12.48;0.118406847;9;117
43;paravance-53.rennes.grid5000.fr;thermos-root-devel-WordCountTopology-0-45f6a29c-93a2-4d88-a3e6-72c534f48805;["topology_master"];2.25;1533050051.79478;5.49;12.55;0.118406847;9;117
43;paravance-56.rennes.grid5000.fr;thermos-root-devel-WordCountTopology-2-05d5b669-cb38-4456-8664-9c87fc819938;["container_2_Emit_random_words_2"];2.25;1533050051.7039;138.64;539.23;22.024304355;10;149
43;paravance-54.rennes.grid5000.fr;thermos-root-devel-WordCountTopology-1-bf83c8a2-4236-451e-b582-217306c6dfc8;["container_1_Consume_and_count_1"];2.25;1533050051.73987;181.67;1014.98;585.707468917;10;149
44;paravance-53.rennes.grid5000.fr;thermos-root-devel-WordCountTopology-0-45f6a29c-93a2-4d88-a3e6-72c534f48805;["topology_master"];2.25;1533050062.01132;5.55;12.63;0.118406847;9;117
44;paravance-54.rennes.grid5000.fr;thermos-root-devel-WordCountTopology-1-bf83c8a2-4236-451e-b582-217306c6dfc8;["container_1_Consume_and_count_1"];2.25;1533050061.95625;184.97;1033.85;596.840980797;10;149
44;paravance-56.rennes.grid5000.fr;thermos-root-devel-WordCountTopology-2-05d5b669-cb38-4456-8664-9c87fc819938;["container_2_Emit_random_words_2"];2.25;1533050061.92561;141.1;547.98;22.152724586;10;149
45;paravance-54.rennes.grid5000.fr;thermos-root-devel-WordCountTopology-1-bf83c8a2-4236-451e-b582-217306c6dfc8;["container_1_Consume_and_count_1"];2.25;1533050072.17254;187.85;1052.68;609.323344482;10;149
45;paravance-53.rennes.grid5000.fr;thermos-root-devel-WordCountTopology-0-45f6a29c-93a2-4d88-a3e6-72c534f48805;["topology_master"];2.25;1533050072.2277;5.64;12.75;0.118406847;9;117
45;paravance-56.rennes.grid5000.fr;thermos-root-devel-WordCountTopology-2-05d5b669-cb38-4456-8664-9c87fc819938;["container_2_Emit_random_words_2"];2.25;1533050072.14934;143.49;556.8;22.321459833;10;149
46;paravance-54.rennes.grid5000.fr;thermos-root-devel-WordCountTopology-1-bf83c8a2-4236-451e-b582-217306c6dfc8;["container_1_Consume_and_count_1"];2.25;1533050082.38851;190.97;1071.27;619.887364928;10;149
46;paravance-53.rennes.grid5000.fr;thermos-root-devel-WordCountTopology-0-45f6a29c-93a2-4d88-a3e6-72c534f48805;["topology_master"];2.25;1533050082.44489;5.69;12.82;0.118406847;9;117
46;paravance-56.rennes.grid5000.fr;thermos-root-devel-WordCountTopology-2-05d5b669-cb38-4456-8664-9c87fc819938;["container_2_Emit_random_words_2"];2.25;1533050082.36855;145.92;565.71;22.409853188;10;149
47;paravance-54.rennes.grid5000.fr;thermos-root-devel-WordCountTopology-1-bf83c8a2-4236-451e-b582-217306c6dfc8;["container_1_Consume_and_count_1"];2.25;1533050092.60358;194.19;1089.51;629.734015403;10;149
47;paravance-53.rennes.grid5000.fr;thermos-root-devel-WordCountTopology-0-45f6a29c-93a2-4d88-a3e6-72c534f48805;["topology_master"];2.25;1533050092.66019;5.76;12.91;0.118406847;9;117
47;paravance-56.rennes.grid5000.fr;thermos-root-devel-WordCountTopology-2-05d5b669-cb38-4456-8664-9c87fc819938;["container_2_Emit_random_words_2"];2.25;1533050092.59008;148.18;574.25;22.496521536;10;149
48;paravance-54.rennes.grid5000.fr;thermos-root-devel-WordCountTopology-1-bf83c8a2-4236-451e-b582-217306c6dfc8;["container_1_Consume_and_count_1"];2.25;1533050102.8199;197.22;1108.55;641.717202871;10;149
48;paravance-53.rennes.grid5000.fr;thermos-root-devel-WordCountTopology-0-45f6a29c-93a2-4d88-a3e6-72c534f48805;["topology_master"];2.25;1533050102.87523;5.82;13.04;0.118406847;9;117
48;paravance-56.rennes.grid5000.fr;thermos-root-devel-WordCountTopology-2-05d5b669-cb38-4456-8664-9c87fc819938;["container_2_Emit_random_words_2"];2.25;1533050102.81084;150.74;583.57;22.690108828;10;149
49;paravance-54.rennes.grid5000.fr;thermos-root-devel-WordCountTopology-1-bf83c8a2-4236-451e-b582-217306c6dfc8;["container_1_Consume_and_count_1"];2.25;1533050113.03561;200.49;1127.42;652.589681444;10;149
49;paravance-53.rennes.grid5000.fr;thermos-root-devel-WordCountTopology-0-45f6a29c-93a2-4d88-a3e6-72c534f48805;["topology_master"];2.25;1533050113.09114;5.91;13.16;0.118406847;9;117
49;paravance-56.rennes.grid5000.fr;thermos-root-devel-WordCountTopology-2-05d5b669-cb38-4456-8664-9c87fc819938;["container_2_Emit_random_words_2"];2.25;1533050113.03012;153.25;593.0;22.807640052;10;149
50;paravance-54.rennes.grid5000.fr;thermos-root-devel-WordCountTopology-1-bf83c8a2-4236-451e-b582-217306c6dfc8;["container_1_Consume_and_count_1"];2.25;1533050123.25144;203.84;1146.08;663.324715119;10;149
50;paravance-53.rennes.grid5000.fr;thermos-root-devel-WordCountTopology-0-45f6a29c-93a2-4d88-a3e6-72c534f48805;["topology_master"];2.25;1533050123.30657;5.94;13.19;0.118406847;9;117
50;paravance-56.rennes.grid5000.fr;thermos-root-devel-WordCountTopology-2-05d5b669-cb38-4456-8664-9c87fc819938;["container_2_Emit_random_words_2"];2.25;1533050123.25117;155.75;602.76;22.888556009;10;149
51;paravance-54.rennes.grid5000.fr;thermos-root-devel-WordCountTopology-1-bf83c8a2-4236-451e-b582-217306c6dfc8;["container_1_Consume_and_count_1"];2.25;1533050133.46624;207.25;1164.38;674.565882124;10;149
51;paravance-53.rennes.grid5000.fr;thermos-root-devel-WordCountTopology-0-45f6a29c-93a2-4d88-a3e6-72c534f48805;["topology_master"];2.25;1533050133.52245;6.03;13.32;0.118406847;9;117
51;paravance-56.rennes.grid5000.fr;thermos-root-devel-WordCountTopology-2-05d5b669-cb38-4456-8664-9c87fc819938;["container_2_Emit_random_words_2"];2.25;1533050133.47179;158.19;611.52;23.051720075;10;149
52;paravance-54.rennes.grid5000.fr;thermos-root-devel-WordCountTopology-1-bf83c8a2-4236-451e-b582-217306c6dfc8;["container_1_Consume_and_count_1"];2.25;1533050143.68302;210.55;1183.35;685.530976261;10;149
52;paravance-53.rennes.grid5000.fr;thermos-root-devel-WordCountTopology-0-45f6a29c-93a2-4d88-a3e6-72c534f48805;["topology_master"];2.25;1533050143.73698;6.09;13.4;0.118406847;9;117
52;paravance-56.rennes.grid5000.fr;thermos-root-devel-WordCountTopology-2-05d5b669-cb38-4456-8664-9c87fc819938;["container_2_Emit_random_words_2"];2.25;1533050143.69238;160.62;620.59;23.203765345;10;149
53;paravance-54.rennes.grid5000.fr;thermos-root-devel-WordCountTopology-1-bf83c8a2-4236-451e-b582-217306c6dfc8;["container_1_Consume_and_count_1"];2.25;1533050153.89679;213.91;1202.17;697.231446986;10;149
53;paravance-53.rennes.grid5000.fr;thermos-root-devel-WordCountTopology-0-45f6a29c-93a2-4d88-a3e6-72c534f48805;["topology_master"];2.25;1533050153.95333;6.16;13.49;0.118406847;9;117
53;paravance-56.rennes.grid5000.fr;thermos-root-devel-WordCountTopology-2-05d5b669-cb38-4456-8664-9c87fc819938;["container_2_Emit_random_words_2"];2.25;1533050153.91318;163.0;630.02;23.540372028;10;149
54;paravance-54.rennes.grid5000.fr;thermos-root-devel-WordCountTopology-1-bf83c8a2-4236-451e-b582-217306c6dfc8;["container_1_Consume_and_count_1"];2.25;1533050164.11471;217.31;1220.78;708.445687788;10;149
54;paravance-53.rennes.grid5000.fr;thermos-root-devel-WordCountTopology-0-45f6a29c-93a2-4d88-a3e6-72c534f48805;["topology_master"];2.25;1533050164.16967;6.22;13.6;0.118406847;9;117
54;paravance-56.rennes.grid5000.fr;thermos-root-devel-WordCountTopology-2-05d5b669-cb38-4456-8664-9c87fc819938;["container_2_Emit_random_words_2"];2.25;1533050164.13559;165.53;639.76;23.621513998;10;149
55;paravance-56.rennes.grid5000.fr;thermos-root-devel-WordCountTopology-2-05d5b669-cb38-4456-8664-9c87fc819938;["container_2_Emit_random_words_2"];2.25;1533050174.35399;168.07;648.88;23.709364639;10;149
55;paravance-54.rennes.grid5000.fr;thermos-root-devel-WordCountTopology-1-bf83c8a2-4236-451e-b582-217306c6dfc8;["container_1_Consume_and_count_1"];2.25;1533050174.3303;220.68;1239.39;719.662396749;10;149
55;paravance-53.rennes.grid5000.fr;thermos-root-devel-WordCountTopology-0-45f6a29c-93a2-4d88-a3e6-72c534f48805;["topology_master"];2.25;1533050174.38544;6.3;13.72;0.118406847;9;117
56;paravance-53.rennes.grid5000.fr;thermos-root-devel-WordCountTopology-0-45f6a29c-93a2-4d88-a3e6-72c534f48805;["topology_master"];2.25;1533050184.60086;6.33;13.74;0.118406847;9;117
56;paravance-54.rennes.grid5000.fr;thermos-root-devel-WordCountTopology-1-bf83c8a2-4236-451e-b582-217306c6dfc8;["container_1_Consume_and_count_1"];2.25;1533050184.54508;223.94;1258.03;731.30697099;10;149
56;paravance-56.rennes.grid5000.fr;thermos-root-devel-WordCountTopology-2-05d5b669-cb38-4456-8664-9c87fc819938;["container_2_Emit_random_words_2"];2.25;1533050184.5767;170.39;657.76;23.814864871;10;149
57;paravance-56.rennes.grid5000.fr;thermos-root-devel-WordCountTopology-2-05d5b669-cb38-4456-8664-9c87fc819938;["container_2_Emit_random_words_2"];2.25;1533050194.79836;172.91;666.78;23.939040225;10;149
57;paravance-54.rennes.grid5000.fr;thermos-root-devel-WordCountTopology-1-bf83c8a2-4236-451e-b582-217306c6dfc8;["container_1_Consume_and_count_1"];2.25;1533050194.7627;227.19;1276.62;742.161633023;10;149
57;paravance-53.rennes.grid5000.fr;thermos-root-devel-WordCountTopology-0-45f6a29c-93a2-4d88-a3e6-72c534f48805;["topology_master"];2.25;1533050194.81657;6.42;13.87;0.118406847;9;117
58;paravance-54.rennes.grid5000.fr;thermos-root-devel-WordCountTopology-1-bf83c8a2-4236-451e-b582-217306c6dfc8;["container_1_Consume_and_count_1"];2.25;1533050204.97948;230.47;1295.09;753.129488221;10;149
58;paravance-56.rennes.grid5000.fr;thermos-root-devel-WordCountTopology-2-05d5b669-cb38-4456-8664-9c87fc819938;["container_2_Emit_random_words_2"];2.25;1533050205.02058;175.48;676.37;23.96246914;10;149
58;paravance-53.rennes.grid5000.fr;thermos-root-devel-WordCountTopology-0-45f6a29c-93a2-4d88-a3e6-72c534f48805;["topology_master"];2.25;1533050205.03435;6.48;13.94;0.118406847;9;117
59;paravance-54.rennes.grid5000.fr;thermos-root-devel-WordCountTopology-1-bf83c8a2-4236-451e-b582-217306c6dfc8;["container_1_Consume_and_count_1"];2.25;1533050215.19586;233.67;1313.57;763.332277302;10;149
59;paravance-53.rennes.grid5000.fr;thermos-root-devel-WordCountTopology-0-45f6a29c-93a2-4d88-a3e6-72c534f48805;["topology_master"];2.25;1533050215.24965;6.56;14.07;0.118406847;9;117
59;paravance-56.rennes.grid5000.fr;thermos-root-devel-WordCountTopology-2-05d5b669-cb38-4456-8664-9c87fc819938;["container_2_Emit_random_words_2"];2.25;1533050215.2412;177.81;684.97;24.210384474;10;149
60;paravance-54.rennes.grid5000.fr;thermos-root-devel-WordCountTopology-1-bf83c8a2-4236-451e-b582-217306c6dfc8;["container_1_Consume_and_count_1"];2.25;1533050225.40845;236.72;1332.12;774.567240204;10;149
60;paravance-56.rennes.grid5000.fr;thermos-root-devel-WordCountTopology-2-05d5b669-cb38-4456-8664-9c87fc819938;["container_2_Emit_random_words_2"];2.25;1533050225.46017;179.96;692.78;24.254283488;10;149
60;paravance-53.rennes.grid5000.fr;thermos-root-devel-WordCountTopology-0-45f6a29c-93a2-4d88-a3e6-72c534f48805;["topology_master"];2.25;1533050225.46469;6.61;14.15;0.118406847;9;117
