mesure_id;time;backpresure
0;1533760800;0.0
1;1533760740;0.0
2;1533760680;0.0
3;1533760860;0.0
4;1533760620;0.0
5;1533760560;0.0
6;1533760440;0.0
7;1533760500;0.0
8;1533760920;0.0
9;1533760380;5662.0
