mesure_id;slave_id;executor_id;heron_instances;cpus_limit;timestamp_B;cpus_system_time_secs_B;cpus_user_time_secs_B;cpus_throttled_time_secs_B;processes;threads
0;paravance-70.rennes.grid5000.fr;thermos-root-devel-WordCountTopology-1-eb6dbfc8-8cd1-403f-8047-726e945a5656;["container_1_Consume_and_count_1"];5.25;1533760393.77784;9.38;122.01;3.240479226;10;151
0;paravance-72.rennes.grid5000.fr;thermos-root-devel-WordCountTopology-2-d7089513-63a5-4c1a-a356-a8eb532a8c6b;["container_2_Emit_random_words_2"];5.25;1533760393.77632;7.33;49.38;1.733363522;10;149
0;paravance-69.rennes.grid5000.fr;thermos-root-devel-WordCountTopology-0-b99ea65f-cd51-4a4f-bb75-1c94072ecf43;["topology_master"];5.25;1533760393.77345;2.37;7.96;0.0;9;117
1;paravance-72.rennes.grid5000.fr;thermos-root-devel-WordCountTopology-2-d7089513-63a5-4c1a-a356-a8eb532a8c6b;["container_2_Emit_random_words_2"];5.25;1533760403.99366;8.17;56.7;1.733363522;10;149
1;paravance-70.rennes.grid5000.fr;thermos-root-devel-WordCountTopology-1-eb6dbfc8-8cd1-403f-8047-726e945a5656;["container_1_Consume_and_count_1"];5.25;1533760403.99716;10.44;128.9;3.240479226;9;117
1;paravance-69.rennes.grid5000.fr;thermos-root-devel-WordCountTopology-0-b99ea65f-cd51-4a4f-bb75-1c94072ecf43;["topology_master"];5.25;1533760403.98981;2.46;8.1;0.0;9;117
2;paravance-70.rennes.grid5000.fr;thermos-root-devel-WordCountTopology-1-eb6dbfc8-8cd1-403f-8047-726e945a5656;["container_1_Consume_and_count_1"];5.25;1533760414.11172;13.59;142.69;4.904800079;10;151
2;paravance-72.rennes.grid5000.fr;thermos-root-devel-WordCountTopology-2-d7089513-63a5-4c1a-a356-a8eb532a8c6b;["container_2_Emit_random_words_2"];5.25;1533760414.21009;10.2;76.31;1.733363522;10;149
2;paravance-69.rennes.grid5000.fr;thermos-root-devel-WordCountTopology-0-b99ea65f-cd51-4a4f-bb75-1c94072ecf43;["topology_master"];5.25;1533760414.20683;2.51;8.16;0.0;9;117
3;paravance-70.rennes.grid5000.fr;thermos-root-devel-WordCountTopology-1-eb6dbfc8-8cd1-403f-8047-726e945a5656;["container_1_Consume_and_count_1"];5.25;1533760424.42747;16.49;165.96;5.680774119;10;151
3;paravance-69.rennes.grid5000.fr;thermos-root-devel-WordCountTopology-0-b99ea65f-cd51-4a4f-bb75-1c94072ecf43;["topology_master"];5.25;1533760424.42125;2.58;8.27;0.0;9;117
3;paravance-72.rennes.grid5000.fr;thermos-root-devel-WordCountTopology-2-d7089513-63a5-4c1a-a356-a8eb532a8c6b;["container_2_Emit_random_words_2"];5.25;1533760424.42658;11.23;85.24;1.733363522;10;149
4;paravance-72.rennes.grid5000.fr;thermos-root-devel-WordCountTopology-2-d7089513-63a5-4c1a-a356-a8eb532a8c6b;["container_2_Emit_random_words_2"];5.25;1533760434.64095;13.32;104.97;1.733363522;10;149
4;paravance-70.rennes.grid5000.fr;thermos-root-devel-WordCountTopology-1-eb6dbfc8-8cd1-403f-8047-726e945a5656;["container_1_Consume_and_count_1"];5.25;1533760434.64287;22.01;195.68;5.680774119;10;151
4;paravance-69.rennes.grid5000.fr;thermos-root-devel-WordCountTopology-0-b99ea65f-cd51-4a4f-bb75-1c94072ecf43;["topology_master"];5.25;1533760434.63657;2.64;8.34;0.0;9;117
5;paravance-72.rennes.grid5000.fr;thermos-root-devel-WordCountTopology-2-d7089513-63a5-4c1a-a356-a8eb532a8c6b;["container_2_Emit_random_words_2"];5.25;1533760444.85539;15.45;125.28;1.733363522;10;149
5;paravance-69.rennes.grid5000.fr;thermos-root-devel-WordCountTopology-0-b99ea65f-cd51-4a4f-bb75-1c94072ecf43;["topology_master"];5.25;1533760444.85327;2.76;8.54;0.0;9;117
5;paravance-70.rennes.grid5000.fr;thermos-root-devel-WordCountTopology-1-eb6dbfc8-8cd1-403f-8047-726e945a5656;["container_1_Consume_and_count_1"];5.25;1533760444.85907;27.35;221.6;5.680774119;10;151
6;paravance-72.rennes.grid5000.fr;thermos-root-devel-WordCountTopology-2-d7089513-63a5-4c1a-a356-a8eb532a8c6b;["container_2_Emit_random_words_2"];5.25;1533760455.07112;17.56;144.85;1.733363522;10;149
6;paravance-70.rennes.grid5000.fr;thermos-root-devel-WordCountTopology-1-eb6dbfc8-8cd1-403f-8047-726e945a5656;["container_1_Consume_and_count_1"];5.25;1533760455.07571;32.49;248.52;5.680774119;10;151
6;paravance-69.rennes.grid5000.fr;thermos-root-devel-WordCountTopology-0-b99ea65f-cd51-4a4f-bb75-1c94072ecf43;["topology_master"];5.25;1533760455.07024;2.79;8.57;0.0;9;117
7;paravance-70.rennes.grid5000.fr;thermos-root-devel-WordCountTopology-1-eb6dbfc8-8cd1-403f-8047-726e945a5656;["container_1_Consume_and_count_1"];5.25;1533760465.29207;37.53;274.89;5.680774119;10;151
7;paravance-72.rennes.grid5000.fr;thermos-root-devel-WordCountTopology-2-d7089513-63a5-4c1a-a356-a8eb532a8c6b;["container_2_Emit_random_words_2"];5.25;1533760465.29095;19.74;164.48;1.733363522;10;149
7;paravance-69.rennes.grid5000.fr;thermos-root-devel-WordCountTopology-0-b99ea65f-cd51-4a4f-bb75-1c94072ecf43;["topology_master"];5.25;1533760465.28667;2.88;8.71;0.0;9;117
8;paravance-72.rennes.grid5000.fr;thermos-root-devel-WordCountTopology-2-d7089513-63a5-4c1a-a356-a8eb532a8c6b;["container_2_Emit_random_words_2"];5.25;1533760475.50718;21.86;183.87;1.733363522;10;149
8;paravance-70.rennes.grid5000.fr;thermos-root-devel-WordCountTopology-1-eb6dbfc8-8cd1-403f-8047-726e945a5656;["container_1_Consume_and_count_1"];5.25;1533760475.51067;42.95;303.1;5.680774119;10;151
8;paravance-69.rennes.grid5000.fr;thermos-root-devel-WordCountTopology-0-b99ea65f-cd51-4a4f-bb75-1c94072ecf43;["topology_master"];5.25;1533760475.50372;2.94;8.78;0.0;9;117
9;paravance-70.rennes.grid5000.fr;thermos-root-devel-WordCountTopology-1-eb6dbfc8-8cd1-403f-8047-726e945a5656;["container_1_Consume_and_count_1"];5.25;1533760485.72721;48.48;330.94;5.680774119;10;151
9;paravance-69.rennes.grid5000.fr;thermos-root-devel-WordCountTopology-0-b99ea65f-cd51-4a4f-bb75-1c94072ecf43;["topology_master"];5.25;1533760485.72098;3.0;8.86;0.0;9;117
9;paravance-72.rennes.grid5000.fr;thermos-root-devel-WordCountTopology-2-d7089513-63a5-4c1a-a356-a8eb532a8c6b;["container_2_Emit_random_words_2"];5.25;1533760485.7261;24.0;203.25;1.733363522;10;149
10;paravance-70.rennes.grid5000.fr;thermos-root-devel-WordCountTopology-1-eb6dbfc8-8cd1-403f-8047-726e945a5656;["container_1_Consume_and_count_1"];5.25;1533760495.94358;54.03;360.16;5.680774119;10;151
10;paravance-69.rennes.grid5000.fr;thermos-root-devel-WordCountTopology-0-b99ea65f-cd51-4a4f-bb75-1c94072ecf43;["topology_master"];5.25;1533760495.93848;3.06;8.93;0.0;9;117
10;paravance-72.rennes.grid5000.fr;thermos-root-devel-WordCountTopology-2-d7089513-63a5-4c1a-a356-a8eb532a8c6b;["container_2_Emit_random_words_2"];5.25;1533760495.94302;26.04;222.9;1.733363522;10;149
11;paravance-72.rennes.grid5000.fr;thermos-root-devel-WordCountTopology-2-d7089513-63a5-4c1a-a356-a8eb532a8c6b;["container_2_Emit_random_words_2"];5.25;1533760506.16154;28.13;242.63;1.733363522;10;149
11;paravance-70.rennes.grid5000.fr;thermos-root-devel-WordCountTopology-1-eb6dbfc8-8cd1-403f-8047-726e945a5656;["container_1_Consume_and_count_1"];5.25;1533760506.1644;59.57;387.42;5.680774119;10;151
11;paravance-69.rennes.grid5000.fr;thermos-root-devel-WordCountTopology-0-b99ea65f-cd51-4a4f-bb75-1c94072ecf43;["topology_master"];5.25;1533760506.15784;3.19;9.24;0.0;9;117
12;paravance-72.rennes.grid5000.fr;thermos-root-devel-WordCountTopology-2-d7089513-63a5-4c1a-a356-a8eb532a8c6b;["container_2_Emit_random_words_2"];5.25;1533760516.37903;30.15;262.2;1.733363522;10;149
12;paravance-69.rennes.grid5000.fr;thermos-root-devel-WordCountTopology-0-b99ea65f-cd51-4a4f-bb75-1c94072ecf43;["topology_master"];5.25;1533760516.3728;3.22;9.26;0.0;9;117
12;paravance-70.rennes.grid5000.fr;thermos-root-devel-WordCountTopology-1-eb6dbfc8-8cd1-403f-8047-726e945a5656;["container_1_Consume_and_count_1"];5.25;1533760516.38242;64.78;414.11;5.680774119;10;151
13;paravance-72.rennes.grid5000.fr;thermos-root-devel-WordCountTopology-2-d7089513-63a5-4c1a-a356-a8eb532a8c6b;["container_2_Emit_random_words_2"];5.25;1533760526.49636;32.25;282.08;1.733363522;10;149
13;paravance-70.rennes.grid5000.fr;thermos-root-devel-WordCountTopology-1-eb6dbfc8-8cd1-403f-8047-726e945a5656;["container_1_Consume_and_count_1"];5.25;1533760526.59535;69.8;441.09;5.680774119;10;151
13;paravance-69.rennes.grid5000.fr;thermos-root-devel-WordCountTopology-0-b99ea65f-cd51-4a4f-bb75-1c94072ecf43;["topology_master"];5.25;1533760526.58992;3.32;9.42;0.0;9;117
14;paravance-70.rennes.grid5000.fr;thermos-root-devel-WordCountTopology-1-eb6dbfc8-8cd1-403f-8047-726e945a5656;["container_1_Consume_and_count_1"];5.25;1533760536.80999;74.89;467.46;5.680774119;10;151
14;paravance-72.rennes.grid5000.fr;thermos-root-devel-WordCountTopology-2-d7089513-63a5-4c1a-a356-a8eb532a8c6b;["container_2_Emit_random_words_2"];5.25;1533760536.81063;34.29;301.89;1.733363522;10;149
14;paravance-69.rennes.grid5000.fr;thermos-root-devel-WordCountTopology-0-b99ea65f-cd51-4a4f-bb75-1c94072ecf43;["topology_master"];5.25;1533760536.80567;3.38;9.49;0.0;9;117
15;paravance-70.rennes.grid5000.fr;thermos-root-devel-WordCountTopology-1-eb6dbfc8-8cd1-403f-8047-726e945a5656;["container_1_Consume_and_count_1"];5.25;1533760547.02767;80.04;493.7;5.680774119;10;151
15;paravance-72.rennes.grid5000.fr;thermos-root-devel-WordCountTopology-2-d7089513-63a5-4c1a-a356-a8eb532a8c6b;["container_2_Emit_random_words_2"];5.25;1533760547.02756;36.37;322.74;1.733363522;10;149
15;paravance-69.rennes.grid5000.fr;thermos-root-devel-WordCountTopology-0-b99ea65f-cd51-4a4f-bb75-1c94072ecf43;["topology_master"];5.25;1533760547.02294;3.44;9.58;0.0;9;117
16;paravance-70.rennes.grid5000.fr;thermos-root-devel-WordCountTopology-1-eb6dbfc8-8cd1-403f-8047-726e945a5656;["container_1_Consume_and_count_1"];5.25;1533760557.24184;85.54;522.22;5.680774119;10;151
16;paravance-69.rennes.grid5000.fr;thermos-root-devel-WordCountTopology-0-b99ea65f-cd51-4a4f-bb75-1c94072ecf43;["topology_master"];5.25;1533760557.23697;3.5;9.65;0.0;9;117
16;paravance-72.rennes.grid5000.fr;thermos-root-devel-WordCountTopology-2-d7089513-63a5-4c1a-a356-a8eb532a8c6b;["container_2_Emit_random_words_2"];5.25;1533760557.24232;38.46;343.11;1.733363522;10;149
17;paravance-70.rennes.grid5000.fr;thermos-root-devel-WordCountTopology-1-eb6dbfc8-8cd1-403f-8047-726e945a5656;["container_1_Consume_and_count_1"];5.25;1533760567.45965;90.91;549.95;5.680774119;10;151
17;paravance-72.rennes.grid5000.fr;thermos-root-devel-WordCountTopology-2-d7089513-63a5-4c1a-a356-a8eb532a8c6b;["container_2_Emit_random_words_2"];5.25;1533760567.45824;40.66;362.73;1.733363522;10;149
17;paravance-69.rennes.grid5000.fr;thermos-root-devel-WordCountTopology-0-b99ea65f-cd51-4a4f-bb75-1c94072ecf43;["topology_master"];5.25;1533760567.45381;3.61;9.85;0.0;9;117
18;paravance-72.rennes.grid5000.fr;thermos-root-devel-WordCountTopology-2-d7089513-63a5-4c1a-a356-a8eb532a8c6b;["container_2_Emit_random_words_2"];5.25;1533760577.67267;42.77;382.18;1.733363522;10;149
18;paravance-70.rennes.grid5000.fr;thermos-root-devel-WordCountTopology-1-eb6dbfc8-8cd1-403f-8047-726e945a5656;["container_1_Consume_and_count_1"];5.25;1533760577.67607;96.21;576.63;5.680774119;10;151
18;paravance-69.rennes.grid5000.fr;thermos-root-devel-WordCountTopology-0-b99ea65f-cd51-4a4f-bb75-1c94072ecf43;["topology_master"];5.25;1533760577.66858;3.64;9.88;0.0;9;117
19;paravance-72.rennes.grid5000.fr;thermos-root-devel-WordCountTopology-2-d7089513-63a5-4c1a-a356-a8eb532a8c6b;["container_2_Emit_random_words_2"];5.25;1533760587.79295;44.9;401.57;1.733363522;10;149
19;paravance-70.rennes.grid5000.fr;thermos-root-devel-WordCountTopology-1-eb6dbfc8-8cd1-403f-8047-726e945a5656;["container_1_Consume_and_count_1"];5.25;1533760587.8935;101.82;604.56;5.680774119;10;151
19;paravance-69.rennes.grid5000.fr;thermos-root-devel-WordCountTopology-0-b99ea65f-cd51-4a4f-bb75-1c94072ecf43;["topology_master"];5.25;1533760587.88707;3.74;10.01;0.0;9;117
20;paravance-69.rennes.grid5000.fr;thermos-root-devel-WordCountTopology-0-b99ea65f-cd51-4a4f-bb75-1c94072ecf43;["topology_master"];5.25;1533760598.10247;3.8;10.09;0.0;9;117
20;paravance-72.rennes.grid5000.fr;thermos-root-devel-WordCountTopology-2-d7089513-63a5-4c1a-a356-a8eb532a8c6b;["container_2_Emit_random_words_2"];5.25;1533760598.10717;47.05;421.24;1.733363522;10;149
20;paravance-70.rennes.grid5000.fr;thermos-root-devel-WordCountTopology-1-eb6dbfc8-8cd1-403f-8047-726e945a5656;["container_1_Consume_and_count_1"];5.25;1533760598.11055;107.37;632.88;5.680774119;10;151
21;paravance-72.rennes.grid5000.fr;thermos-root-devel-WordCountTopology-2-d7089513-63a5-4c1a-a356-a8eb532a8c6b;["container_2_Emit_random_words_2"];5.25;1533760608.3254;49.18;440.57;1.733363522;10;149
21;paravance-69.rennes.grid5000.fr;thermos-root-devel-WordCountTopology-0-b99ea65f-cd51-4a4f-bb75-1c94072ecf43;["topology_master"];5.25;1533760608.32137;3.86;10.16;0.0;9;117
21;paravance-70.rennes.grid5000.fr;thermos-root-devel-WordCountTopology-1-eb6dbfc8-8cd1-403f-8047-726e945a5656;["container_1_Consume_and_count_1"];5.25;1533760608.32934;112.63;660.03;5.680774119;10;151
22;paravance-70.rennes.grid5000.fr;thermos-root-devel-WordCountTopology-1-eb6dbfc8-8cd1-403f-8047-726e945a5656;["container_1_Consume_and_count_1"];5.25;1533760618.54418;118.04;687.91;5.680774119;10;151
22;paravance-72.rennes.grid5000.fr;thermos-root-devel-WordCountTopology-2-d7089513-63a5-4c1a-a356-a8eb532a8c6b;["container_2_Emit_random_words_2"];5.25;1533760618.54191;51.35;459.79;1.733363522;10;149
22;paravance-69.rennes.grid5000.fr;thermos-root-devel-WordCountTopology-0-b99ea65f-cd51-4a4f-bb75-1c94072ecf43;["topology_master"];5.25;1533760618.54006;3.92;10.23;0.0;9;117
23;paravance-70.rennes.grid5000.fr;thermos-root-devel-WordCountTopology-1-eb6dbfc8-8cd1-403f-8047-726e945a5656;["container_1_Consume_and_count_1"];5.25;1533760628.76187;123.53;715.34;5.680774119;10;151
23;paravance-72.rennes.grid5000.fr;thermos-root-devel-WordCountTopology-2-d7089513-63a5-4c1a-a356-a8eb532a8c6b;["container_2_Emit_random_words_2"];5.25;1533760628.76104;53.49;479.46;1.733363522;10;149
23;paravance-69.rennes.grid5000.fr;thermos-root-devel-WordCountTopology-0-b99ea65f-cd51-4a4f-bb75-1c94072ecf43;["topology_master"];5.25;1533760628.75611;4.02;10.41;0.0;9;117
24;paravance-70.rennes.grid5000.fr;thermos-root-devel-WordCountTopology-1-eb6dbfc8-8cd1-403f-8047-726e945a5656;["container_1_Consume_and_count_1"];5.25;1533760638.97878;128.93;743.04;5.680774119;10;151
24;paravance-72.rennes.grid5000.fr;thermos-root-devel-WordCountTopology-2-d7089513-63a5-4c1a-a356-a8eb532a8c6b;["container_2_Emit_random_words_2"];5.25;1533760638.97799;55.57;498.96;1.733363522;10;149
24;paravance-69.rennes.grid5000.fr;thermos-root-devel-WordCountTopology-0-b99ea65f-cd51-4a4f-bb75-1c94072ecf43;["topology_master"];5.25;1533760638.97151;4.05;10.44;0.0;9;117
25;paravance-69.rennes.grid5000.fr;thermos-root-devel-WordCountTopology-0-b99ea65f-cd51-4a4f-bb75-1c94072ecf43;["topology_master"];5.25;1533760649.18756;4.14;10.56;0.0;9;117
25;paravance-70.rennes.grid5000.fr;thermos-root-devel-WordCountTopology-1-eb6dbfc8-8cd1-403f-8047-726e945a5656;["container_1_Consume_and_count_1"];5.25;1533760649.19573;134.36;770.49;5.680774119;10;151
25;paravance-72.rennes.grid5000.fr;thermos-root-devel-WordCountTopology-2-d7089513-63a5-4c1a-a356-a8eb532a8c6b;["container_2_Emit_random_words_2"];5.25;1533760649.19421;57.71;518.53;1.733363522;10;149
26;paravance-70.rennes.grid5000.fr;thermos-root-devel-WordCountTopology-1-eb6dbfc8-8cd1-403f-8047-726e945a5656;["container_1_Consume_and_count_1"];5.25;1533760659.41451;140.04;798.01;5.680774119;10;151
26;paravance-69.rennes.grid5000.fr;thermos-root-devel-WordCountTopology-0-b99ea65f-cd51-4a4f-bb75-1c94072ecf43;["topology_master"];5.25;1533760659.4066;4.19;10.63;0.0;9;117
26;paravance-72.rennes.grid5000.fr;thermos-root-devel-WordCountTopology-2-d7089513-63a5-4c1a-a356-a8eb532a8c6b;["container_2_Emit_random_words_2"];5.25;1533760659.41305;59.85;537.97;1.733363522;10;149
27;paravance-69.rennes.grid5000.fr;thermos-root-devel-WordCountTopology-0-b99ea65f-cd51-4a4f-bb75-1c94072ecf43;["topology_master"];5.25;1533760669.62297;4.25;10.71;0.0;9;117
27;paravance-70.rennes.grid5000.fr;thermos-root-devel-WordCountTopology-1-eb6dbfc8-8cd1-403f-8047-726e945a5656;["container_1_Consume_and_count_1"];5.25;1533760669.63317;145.47;825.82;5.680774119;10;151
27;paravance-72.rennes.grid5000.fr;thermos-root-devel-WordCountTopology-2-d7089513-63a5-4c1a-a356-a8eb532a8c6b;["container_2_Emit_random_words_2"];5.25;1533760669.63127;62.0;557.39;1.733363522;10;149
28;paravance-72.rennes.grid5000.fr;thermos-root-devel-WordCountTopology-2-d7089513-63a5-4c1a-a356-a8eb532a8c6b;["container_2_Emit_random_words_2"];5.25;1533760679.84442;64.18;576.94;1.733363522;10;149
28;paravance-70.rennes.grid5000.fr;thermos-root-devel-WordCountTopology-1-eb6dbfc8-8cd1-403f-8047-726e945a5656;["container_1_Consume_and_count_1"];5.25;1533760679.84861;150.97;853.74;5.680774119;10;151
28;paravance-69.rennes.grid5000.fr;thermos-root-devel-WordCountTopology-0-b99ea65f-cd51-4a4f-bb75-1c94072ecf43;["topology_master"];5.25;1533760679.84039;4.36;10.85;0.0;9;117
29;paravance-70.rennes.grid5000.fr;thermos-root-devel-WordCountTopology-1-eb6dbfc8-8cd1-403f-8047-726e945a5656;["container_1_Consume_and_count_1"];5.25;1533760690.06393;156.59;881.54;5.680774119;10;151
29;paravance-72.rennes.grid5000.fr;thermos-root-devel-WordCountTopology-2-d7089513-63a5-4c1a-a356-a8eb532a8c6b;["container_2_Emit_random_words_2"];5.25;1533760690.06215;66.31;596.61;1.733363522;10;149
29;paravance-69.rennes.grid5000.fr;thermos-root-devel-WordCountTopology-0-b99ea65f-cd51-4a4f-bb75-1c94072ecf43;["topology_master"];5.25;1533760690.0584;4.42;10.97;0.0;9;117
30;paravance-72.rennes.grid5000.fr;thermos-root-devel-WordCountTopology-2-d7089513-63a5-4c1a-a356-a8eb532a8c6b;["container_2_Emit_random_words_2"];5.25;1533760700.27926;68.47;615.99;1.733363522;10;149
30;paravance-69.rennes.grid5000.fr;thermos-root-devel-WordCountTopology-0-b99ea65f-cd51-4a4f-bb75-1c94072ecf43;["topology_master"];5.25;1533760700.27437;4.49;11.04;0.0;9;117
30;paravance-70.rennes.grid5000.fr;thermos-root-devel-WordCountTopology-1-eb6dbfc8-8cd1-403f-8047-726e945a5656;["container_1_Consume_and_count_1"];5.25;1533760700.28318;161.87;909.04;5.680774119;10;151
31;paravance-72.rennes.grid5000.fr;thermos-root-devel-WordCountTopology-2-d7089513-63a5-4c1a-a356-a8eb532a8c6b;["container_2_Emit_random_words_2"];5.25;1533760710.49789;70.6;635.46;1.733363522;10;149
31;paravance-69.rennes.grid5000.fr;thermos-root-devel-WordCountTopology-0-b99ea65f-cd51-4a4f-bb75-1c94072ecf43;["topology_master"];5.25;1533760710.49286;4.54;11.12;0.0;9;117
31;paravance-70.rennes.grid5000.fr;thermos-root-devel-WordCountTopology-1-eb6dbfc8-8cd1-403f-8047-726e945a5656;["container_1_Consume_and_count_1"];5.25;1533760710.49999;167.31;937.04;5.680774119;10;151
32;paravance-70.rennes.grid5000.fr;thermos-root-devel-WordCountTopology-1-eb6dbfc8-8cd1-403f-8047-726e945a5656;["container_1_Consume_and_count_1"];5.25;1533760720.61898;172.69;962.8;5.680774119;10;151
32;paravance-69.rennes.grid5000.fr;thermos-root-devel-WordCountTopology-0-b99ea65f-cd51-4a4f-bb75-1c94072ecf43;["topology_master"];5.25;1533760720.71023;4.63;11.24;0.0;9;117
32;paravance-72.rennes.grid5000.fr;thermos-root-devel-WordCountTopology-2-d7089513-63a5-4c1a-a356-a8eb532a8c6b;["container_2_Emit_random_words_2"];5.25;1533760720.71748;72.75;655.03;1.733363522;10;149
33;paravance-70.rennes.grid5000.fr;thermos-root-devel-WordCountTopology-1-eb6dbfc8-8cd1-403f-8047-726e945a5656;["container_1_Consume_and_count_1"];5.25;1533760730.83671;178.18;990.25;5.680774119;10;151
33;paravance-69.rennes.grid5000.fr;thermos-root-devel-WordCountTopology-0-b99ea65f-cd51-4a4f-bb75-1c94072ecf43;["topology_master"];5.25;1533760730.92801;4.66;11.27;0.0;9;117
33;paravance-72.rennes.grid5000.fr;thermos-root-devel-WordCountTopology-2-d7089513-63a5-4c1a-a356-a8eb532a8c6b;["container_2_Emit_random_words_2"];5.25;1533760730.9352;74.78;674.49;1.733363522;10;149
34;paravance-70.rennes.grid5000.fr;thermos-root-devel-WordCountTopology-1-eb6dbfc8-8cd1-403f-8047-726e945a5656;["container_1_Consume_and_count_1"];5.25;1533760741.15179;183.84;1018.61;5.680774119;10;151
34;paravance-72.rennes.grid5000.fr;thermos-root-devel-WordCountTopology-2-d7089513-63a5-4c1a-a356-a8eb532a8c6b;["container_2_Emit_random_words_2"];5.25;1533760741.14993;76.9;694.01;1.733363522;10;149
34;paravance-69.rennes.grid5000.fr;thermos-root-devel-WordCountTopology-0-b99ea65f-cd51-4a4f-bb75-1c94072ecf43;["topology_master"];5.25;1533760741.14499;4.77;11.41;0.0;9;117
35;paravance-72.rennes.grid5000.fr;thermos-root-devel-WordCountTopology-2-d7089513-63a5-4c1a-a356-a8eb532a8c6b;["container_2_Emit_random_words_2"];5.25;1533760751.36548;79.04;713.64;1.733363522;10;149
35;paravance-70.rennes.grid5000.fr;thermos-root-devel-WordCountTopology-1-eb6dbfc8-8cd1-403f-8047-726e945a5656;["container_1_Consume_and_count_1"];5.25;1533760751.36968;189.47;1047.28;5.680774119;10;151
35;paravance-69.rennes.grid5000.fr;thermos-root-devel-WordCountTopology-0-b99ea65f-cd51-4a4f-bb75-1c94072ecf43;["topology_master"];5.25;1533760751.36143;4.83;11.53;0.0;9;117
36;paravance-70.rennes.grid5000.fr;thermos-root-devel-WordCountTopology-1-eb6dbfc8-8cd1-403f-8047-726e945a5656;["container_1_Consume_and_count_1"];5.25;1533760761.58594;195.38;1075.92;5.680774119;10;151
36;paravance-69.rennes.grid5000.fr;thermos-root-devel-WordCountTopology-0-b99ea65f-cd51-4a4f-bb75-1c94072ecf43;["topology_master"];5.25;1533760761.57716;4.92;11.65;0.0;9;117
36;paravance-72.rennes.grid5000.fr;thermos-root-devel-WordCountTopology-2-d7089513-63a5-4c1a-a356-a8eb532a8c6b;["container_2_Emit_random_words_2"];5.25;1533760761.59193;81.21;733.16;1.733363522;10;149
37;paravance-70.rennes.grid5000.fr;thermos-root-devel-WordCountTopology-1-eb6dbfc8-8cd1-403f-8047-726e945a5656;["container_1_Consume_and_count_1"];5.25;1533760771.80975;200.53;1104.56;5.680774119;10;151
37;paravance-72.rennes.grid5000.fr;thermos-root-devel-WordCountTopology-2-d7089513-63a5-4c1a-a356-a8eb532a8c6b;["container_2_Emit_random_words_2"];5.25;1533760771.80817;83.34;752.66;1.733363522;10;149
37;paravance-69.rennes.grid5000.fr;thermos-root-devel-WordCountTopology-0-b99ea65f-cd51-4a4f-bb75-1c94072ecf43;["topology_master"];5.25;1533760771.80269;4.95;11.7;0.0;9;117
38;paravance-72.rennes.grid5000.fr;thermos-root-devel-WordCountTopology-2-d7089513-63a5-4c1a-a356-a8eb532a8c6b;["container_2_Emit_random_words_2"];5.25;1533760782.02371;85.49;772.19;1.733363522;10;149
38;paravance-70.rennes.grid5000.fr;thermos-root-devel-WordCountTopology-1-eb6dbfc8-8cd1-403f-8047-726e945a5656;["container_1_Consume_and_count_1"];5.25;1533760782.02647;206.22;1132.77;5.680774119;10;151
38;paravance-69.rennes.grid5000.fr;thermos-root-devel-WordCountTopology-0-b99ea65f-cd51-4a4f-bb75-1c94072ecf43;["topology_master"];5.25;1533760782.01862;5.04;11.83;0.0;9;117
39;paravance-70.rennes.grid5000.fr;thermos-root-devel-WordCountTopology-1-eb6dbfc8-8cd1-403f-8047-726e945a5656;["container_1_Consume_and_count_1"];5.25;1533760792.14215;211.44;1159.37;5.680774119;10;151
39;paravance-72.rennes.grid5000.fr;thermos-root-devel-WordCountTopology-2-d7089513-63a5-4c1a-a356-a8eb532a8c6b;["container_2_Emit_random_words_2"];5.25;1533760792.23882;87.54;791.34;1.733363522;10;149
39;paravance-69.rennes.grid5000.fr;thermos-root-devel-WordCountTopology-0-b99ea65f-cd51-4a4f-bb75-1c94072ecf43;["topology_master"];5.25;1533760792.23272;5.1;11.9;0.0;9;117
40;paravance-70.rennes.grid5000.fr;thermos-root-devel-WordCountTopology-1-eb6dbfc8-8cd1-403f-8047-726e945a5656;["container_1_Consume_and_count_1"];5.25;1533760802.45462;216.93;1187.34;5.680774119;10;151
40;paravance-72.rennes.grid5000.fr;thermos-root-devel-WordCountTopology-2-d7089513-63a5-4c1a-a356-a8eb532a8c6b;["container_2_Emit_random_words_2"];5.25;1533760802.45442;89.69;810.79;1.733363522;10;149
40;paravance-69.rennes.grid5000.fr;thermos-root-devel-WordCountTopology-0-b99ea65f-cd51-4a4f-bb75-1c94072ecf43;["topology_master"];5.25;1533760802.44989;5.17;11.98;0.0;9;117
41;paravance-72.rennes.grid5000.fr;thermos-root-devel-WordCountTopology-2-d7089513-63a5-4c1a-a356-a8eb532a8c6b;["container_2_Emit_random_words_2"];5.25;1533760812.67322;91.83;830.26;1.733363522;10;149
41;paravance-70.rennes.grid5000.fr;thermos-root-devel-WordCountTopology-1-eb6dbfc8-8cd1-403f-8047-726e945a5656;["container_1_Consume_and_count_1"];5.25;1533760812.67583;222.36;1215.55;5.680774119;10;151
41;paravance-69.rennes.grid5000.fr;thermos-root-devel-WordCountTopology-0-b99ea65f-cd51-4a4f-bb75-1c94072ecf43;["topology_master"];5.25;1533760812.66809;5.23;12.11;0.0;9;117
42;paravance-72.rennes.grid5000.fr;thermos-root-devel-WordCountTopology-2-d7089513-63a5-4c1a-a356-a8eb532a8c6b;["container_2_Emit_random_words_2"];5.25;1533760822.8896;94.01;849.74;1.733363522;10;149
42;paravance-69.rennes.grid5000.fr;thermos-root-devel-WordCountTopology-0-b99ea65f-cd51-4a4f-bb75-1c94072ecf43;["topology_master"];5.25;1533760822.88494;5.32;12.23;0.0;9;117
42;paravance-70.rennes.grid5000.fr;thermos-root-devel-WordCountTopology-1-eb6dbfc8-8cd1-403f-8047-726e945a5656;["container_1_Consume_and_count_1"];5.25;1533760822.89534;227.6;1243.94;5.680774119;10;151
43;paravance-70.rennes.grid5000.fr;thermos-root-devel-WordCountTopology-1-eb6dbfc8-8cd1-403f-8047-726e945a5656;["container_1_Consume_and_count_1"];5.25;1533760833.10957;233.36;1272.1;5.680774119;10;151
43;paravance-72.rennes.grid5000.fr;thermos-root-devel-WordCountTopology-2-d7089513-63a5-4c1a-a356-a8eb532a8c6b;["container_2_Emit_random_words_2"];5.25;1533760833.10794;96.07;869.25;1.733363522;10;149
43;paravance-69.rennes.grid5000.fr;thermos-root-devel-WordCountTopology-0-b99ea65f-cd51-4a4f-bb75-1c94072ecf43;["topology_master"];5.25;1533760833.10213;5.35;12.28;0.0;9;117
44;paravance-70.rennes.grid5000.fr;thermos-root-devel-WordCountTopology-1-eb6dbfc8-8cd1-403f-8047-726e945a5656;["container_1_Consume_and_count_1"];5.25;1533760843.32475;238.9;1300.34;5.680774119;10;151
44;paravance-72.rennes.grid5000.fr;thermos-root-devel-WordCountTopology-2-d7089513-63a5-4c1a-a356-a8eb532a8c6b;["container_2_Emit_random_words_2"];5.25;1533760843.32316;98.26;888.58;1.733363522;10;149
44;paravance-69.rennes.grid5000.fr;thermos-root-devel-WordCountTopology-0-b99ea65f-cd51-4a4f-bb75-1c94072ecf43;["topology_master"];5.25;1533760843.31775;5.44;12.4;0.0;9;117
45;paravance-70.rennes.grid5000.fr;thermos-root-devel-WordCountTopology-1-eb6dbfc8-8cd1-403f-8047-726e945a5656;["container_1_Consume_and_count_1"];5.25;1533760853.54216;244.34;1327.61;5.680774119;10;151
45;paravance-72.rennes.grid5000.fr;thermos-root-devel-WordCountTopology-2-d7089513-63a5-4c1a-a356-a8eb532a8c6b;["container_2_Emit_random_words_2"];5.25;1533760853.53999;100.41;907.97;1.733363522;10;149
45;paravance-69.rennes.grid5000.fr;thermos-root-devel-WordCountTopology-0-b99ea65f-cd51-4a4f-bb75-1c94072ecf43;["topology_master"];5.25;1533760853.53434;5.49;12.47;0.0;9;117
46;paravance-70.rennes.grid5000.fr;thermos-root-devel-WordCountTopology-1-eb6dbfc8-8cd1-403f-8047-726e945a5656;["container_1_Consume_and_count_1"];5.25;1533760863.75822;249.84;1355.61;5.680774119;10;151
46;paravance-72.rennes.grid5000.fr;thermos-root-devel-WordCountTopology-2-d7089513-63a5-4c1a-a356-a8eb532a8c6b;["container_2_Emit_random_words_2"];5.25;1533760863.7556;102.55;927.33;1.733363522;10;149
46;paravance-69.rennes.grid5000.fr;thermos-root-devel-WordCountTopology-0-b99ea65f-cd51-4a4f-bb75-1c94072ecf43;["topology_master"];5.25;1533760863.75036;5.56;12.56;0.0;9;117
47;paravance-69.rennes.grid5000.fr;thermos-root-devel-WordCountTopology-0-b99ea65f-cd51-4a4f-bb75-1c94072ecf43;["topology_master"];5.25;1533760873.96407;5.63;12.68;0.0;9;117
47;paravance-72.rennes.grid5000.fr;thermos-root-devel-WordCountTopology-2-d7089513-63a5-4c1a-a356-a8eb532a8c6b;["container_2_Emit_random_words_2"];5.25;1533760873.97055;104.71;946.93;1.733363522;10;149
47;paravance-70.rennes.grid5000.fr;thermos-root-devel-WordCountTopology-1-eb6dbfc8-8cd1-403f-8047-726e945a5656;["container_1_Consume_and_count_1"];5.25;1533760873.97541;255.57;1383.29;5.680774119;10;151
48;paravance-70.rennes.grid5000.fr;thermos-root-devel-WordCountTopology-1-eb6dbfc8-8cd1-403f-8047-726e945a5656;["container_1_Consume_and_count_1"];5.25;1533760884.18987;261.02;1410.7;5.680774119;10;151
48;paravance-69.rennes.grid5000.fr;thermos-root-devel-WordCountTopology-0-b99ea65f-cd51-4a4f-bb75-1c94072ecf43;["topology_master"];5.25;1533760884.17993;5.72;12.81;0.0;9;117
48;paravance-72.rennes.grid5000.fr;thermos-root-devel-WordCountTopology-2-d7089513-63a5-4c1a-a356-a8eb532a8c6b;["container_2_Emit_random_words_2"];5.25;1533760884.18613;106.91;966.5;1.733363522;10;149
49;paravance-72.rennes.grid5000.fr;thermos-root-devel-WordCountTopology-2-d7089513-63a5-4c1a-a356-a8eb532a8c6b;["container_2_Emit_random_words_2"];5.25;1533760894.40392;108.91;985.98;1.733363522;10;149
49;paravance-70.rennes.grid5000.fr;thermos-root-devel-WordCountTopology-1-eb6dbfc8-8cd1-403f-8047-726e945a5656;["container_1_Consume_and_count_1"];5.25;1533760894.4079;266.79;1437.56;5.680774119;10;151
49;paravance-69.rennes.grid5000.fr;thermos-root-devel-WordCountTopology-0-b99ea65f-cd51-4a4f-bb75-1c94072ecf43;["topology_master"];5.25;1533760894.39955;5.75;12.84;0.0;9;117
50;paravance-70.rennes.grid5000.fr;thermos-root-devel-WordCountTopology-1-eb6dbfc8-8cd1-403f-8047-726e945a5656;["container_1_Consume_and_count_1"];5.25;1533760904.62441;272.64;1464.93;5.680774119;10;151
50;paravance-72.rennes.grid5000.fr;thermos-root-devel-WordCountTopology-2-d7089513-63a5-4c1a-a356-a8eb532a8c6b;["container_2_Emit_random_words_2"];5.25;1533760904.62153;110.88;1005.13;1.733363522;10;149
50;paravance-69.rennes.grid5000.fr;thermos-root-devel-WordCountTopology-0-b99ea65f-cd51-4a4f-bb75-1c94072ecf43;["topology_master"];5.25;1533760904.61665;5.85;12.99;0.0;9;117
51;paravance-70.rennes.grid5000.fr;thermos-root-devel-WordCountTopology-1-eb6dbfc8-8cd1-403f-8047-726e945a5656;["container_1_Consume_and_count_1"];5.25;1533760914.83981;278.24;1493.97;5.680774119;10;151
51;paravance-69.rennes.grid5000.fr;thermos-root-devel-WordCountTopology-0-b99ea65f-cd51-4a4f-bb75-1c94072ecf43;["topology_master"];5.25;1533760914.83295;5.91;13.06;0.0;9;117
51;paravance-72.rennes.grid5000.fr;thermos-root-devel-WordCountTopology-2-d7089513-63a5-4c1a-a356-a8eb532a8c6b;["container_2_Emit_random_words_2"];5.25;1533760914.84055;112.93;1024.83;1.733363522;10;149
52;paravance-70.rennes.grid5000.fr;thermos-root-devel-WordCountTopology-1-eb6dbfc8-8cd1-403f-8047-726e945a5656;["container_1_Consume_and_count_1"];5.25;1533760925.05898;284.07;1521.49;5.680774119;10;151
52;paravance-69.rennes.grid5000.fr;thermos-root-devel-WordCountTopology-0-b99ea65f-cd51-4a4f-bb75-1c94072ecf43;["topology_master"];5.25;1533760925.05039;5.98;13.18;0.0;9;117
52;paravance-72.rennes.grid5000.fr;thermos-root-devel-WordCountTopology-2-d7089513-63a5-4c1a-a356-a8eb532a8c6b;["container_2_Emit_random_words_2"];5.25;1533760925.05756;115.05;1043.99;1.733363522;10;149
53;paravance-70.rennes.grid5000.fr;thermos-root-devel-WordCountTopology-1-eb6dbfc8-8cd1-403f-8047-726e945a5656;["container_1_Consume_and_count_1"];5.25;1533760935.27556;289.63;1549.1;5.680774119;10;151
53;paravance-72.rennes.grid5000.fr;thermos-root-devel-WordCountTopology-2-d7089513-63a5-4c1a-a356-a8eb532a8c6b;["container_2_Emit_random_words_2"];5.25;1533760935.27329;117.2;1063.46;1.733363522;10;149
53;paravance-69.rennes.grid5000.fr;thermos-root-devel-WordCountTopology-0-b99ea65f-cd51-4a4f-bb75-1c94072ecf43;["topology_master"];5.25;1533760935.26776;6.04;13.25;0.0;9;117
54;paravance-69.rennes.grid5000.fr;thermos-root-devel-WordCountTopology-0-b99ea65f-cd51-4a4f-bb75-1c94072ecf43;["topology_master"];5.25;1533760945.38538;6.13;13.38;0.0;9;117
54;paravance-70.rennes.grid5000.fr;thermos-root-devel-WordCountTopology-1-eb6dbfc8-8cd1-403f-8047-726e945a5656;["container_1_Consume_and_count_1"];5.25;1533760945.49248;295.51;1577.54;5.680774119;10;151
54;paravance-72.rennes.grid5000.fr;thermos-root-devel-WordCountTopology-2-d7089513-63a5-4c1a-a356-a8eb532a8c6b;["container_2_Emit_random_words_2"];5.25;1533760945.48979;119.38;1083.01;1.733363522;10;149
55;paravance-70.rennes.grid5000.fr;thermos-root-devel-WordCountTopology-1-eb6dbfc8-8cd1-403f-8047-726e945a5656;["container_1_Consume_and_count_1"];5.25;1533760955.70825;301.33;1604.96;5.680774119;10;151
55;paravance-69.rennes.grid5000.fr;thermos-root-devel-WordCountTopology-0-b99ea65f-cd51-4a4f-bb75-1c94072ecf43;["topology_master"];5.25;1533760955.69992;6.16;13.4;0.0;9;117
55;paravance-72.rennes.grid5000.fr;thermos-root-devel-WordCountTopology-2-d7089513-63a5-4c1a-a356-a8eb532a8c6b;["container_2_Emit_random_words_2"];5.25;1533760955.70612;121.51;1102.43;1.733363522;10;149
56;paravance-72.rennes.grid5000.fr;thermos-root-devel-WordCountTopology-2-d7089513-63a5-4c1a-a356-a8eb532a8c6b;["container_2_Emit_random_words_2"];5.25;1533760965.72454;123.64;1121.45;1.733363522;10;149
56;paravance-70.rennes.grid5000.fr;thermos-root-devel-WordCountTopology-1-eb6dbfc8-8cd1-403f-8047-726e945a5656;["container_1_Consume_and_count_1"];5.25;1533760965.92656;307.29;1633.68;5.680774119;10;151
56;paravance-69.rennes.grid5000.fr;thermos-root-devel-WordCountTopology-0-b99ea65f-cd51-4a4f-bb75-1c94072ecf43;["topology_master"];5.25;1533760965.91807;6.25;13.52;0.0;9;117
57;paravance-70.rennes.grid5000.fr;thermos-root-devel-WordCountTopology-1-eb6dbfc8-8cd1-403f-8047-726e945a5656;["container_1_Consume_and_count_1"];5.25;1533760976.14315;312.83;1660.66;5.680774119;10;151
57;paravance-72.rennes.grid5000.fr;thermos-root-devel-WordCountTopology-2-d7089513-63a5-4c1a-a356-a8eb532a8c6b;["container_2_Emit_random_words_2"];5.25;1533760976.1403;125.82;1141.32;1.733363522;10;149
57;paravance-69.rennes.grid5000.fr;thermos-root-devel-WordCountTopology-0-b99ea65f-cd51-4a4f-bb75-1c94072ecf43;["topology_master"];5.25;1533760976.13507;6.31;13.6;0.0;9;117
58;paravance-70.rennes.grid5000.fr;thermos-root-devel-WordCountTopology-1-eb6dbfc8-8cd1-403f-8047-726e945a5656;["container_1_Consume_and_count_1"];5.25;1533760986.35853;318.25;1688.91;5.680774119;10;151
58;paravance-72.rennes.grid5000.fr;thermos-root-devel-WordCountTopology-2-d7089513-63a5-4c1a-a356-a8eb532a8c6b;["container_2_Emit_random_words_2"];5.25;1533760986.35669;127.87;1160.65;1.733363522;10;149
58;paravance-69.rennes.grid5000.fr;thermos-root-devel-WordCountTopology-0-b99ea65f-cd51-4a4f-bb75-1c94072ecf43;["topology_master"];5.25;1533760986.34984;6.38;13.71;0.0;9;117
59;paravance-70.rennes.grid5000.fr;thermos-root-devel-WordCountTopology-1-eb6dbfc8-8cd1-403f-8047-726e945a5656;["container_1_Consume_and_count_1"];5.25;1533760996.57353;324.2;1716.7;5.680774119;10;151
59;paravance-72.rennes.grid5000.fr;thermos-root-devel-WordCountTopology-2-d7089513-63a5-4c1a-a356-a8eb532a8c6b;["container_2_Emit_random_words_2"];5.25;1533760996.57041;129.88;1180.12;1.733363522;10;149
59;paravance-69.rennes.grid5000.fr;thermos-root-devel-WordCountTopology-0-b99ea65f-cd51-4a4f-bb75-1c94072ecf43;["topology_master"];5.25;1533760996.56489;6.43;13.79;0.0;9;117
60;paravance-72.rennes.grid5000.fr;thermos-root-devel-WordCountTopology-2-d7089513-63a5-4c1a-a356-a8eb532a8c6b;["container_2_Emit_random_words_2"];5.25;1533761006.78653;131.95;1199.83;1.733363522;10;149
60;paravance-70.rennes.grid5000.fr;thermos-root-devel-WordCountTopology-1-eb6dbfc8-8cd1-403f-8047-726e945a5656;["container_1_Consume_and_count_1"];5.25;1533761006.79078;330.18;1745.31;5.680774119;10;151
60;paravance-69.rennes.grid5000.fr;thermos-root-devel-WordCountTopology-0-b99ea65f-cd51-4a4f-bb75-1c94072ecf43;["topology_master"];5.25;1533761006.78108;6.52;13.92;0.0;9;117
