mesure_id;slave_id;executor_id;heron_instances;cpus_limit;timestamp_A;cpus_system_time_secs_A;cpus_user_time_secs_A;cpus_throttled_time_secs_A;processes;threads
0;paravance-70.rennes.grid5000.fr;thermos-root-devel-WordCountTopology-1-eb6dbfc8-8cd1-403f-8047-726e945a5656;["container_1_Consume_and_count_1"];5.25;1533760383.67105;8.98;112.03;3.240479226;10;151
0;paravance-72.rennes.grid5000.fr;thermos-root-devel-WordCountTopology-2-d7089513-63a5-4c1a-a356-a8eb532a8c6b;["container_2_Emit_random_words_2"];5.25;1533760383.66922;7.2;49.07;1.733363522;10;149
0;paravance-69.rennes.grid5000.fr;thermos-root-devel-WordCountTopology-0-b99ea65f-cd51-4a4f-bb75-1c94072ecf43;["topology_master"];5.25;1533760383.66667;2.3;7.82;0.0;9;117
1;paravance-72.rennes.grid5000.fr;thermos-root-devel-WordCountTopology-2-d7089513-63a5-4c1a-a356-a8eb532a8c6b;["container_2_Emit_random_words_2"];5.25;1533760393.88646;7.33;49.39;1.733363522;10;149
1;paravance-70.rennes.grid5000.fr;thermos-root-devel-WordCountTopology-1-eb6dbfc8-8cd1-403f-8047-726e945a5656;["container_1_Consume_and_count_1"];5.25;1533760393.889;9.4;122.1;3.240479226;10;151
1;paravance-69.rennes.grid5000.fr;thermos-root-devel-WordCountTopology-0-b99ea65f-cd51-4a4f-bb75-1c94072ecf43;["topology_master"];5.25;1533760393.88291;2.37;7.96;0.0;9;117
2;paravance-70.rennes.grid5000.fr;thermos-root-devel-WordCountTopology-1-eb6dbfc8-8cd1-403f-8047-726e945a5656;["container_1_Consume_and_count_1"];5.25;1533760404.00577;10.44;128.91;3.240479226;9;117
2;paravance-72.rennes.grid5000.fr;thermos-root-devel-WordCountTopology-2-d7089513-63a5-4c1a-a356-a8eb532a8c6b;["container_2_Emit_random_words_2"];5.25;1533760404.10374;8.19;56.91;1.733363522;10;149
2;paravance-69.rennes.grid5000.fr;thermos-root-devel-WordCountTopology-0-b99ea65f-cd51-4a4f-bb75-1c94072ecf43;["topology_master"];5.25;1533760404.09972;2.46;8.1;0.0;9;117
3;paravance-70.rennes.grid5000.fr;thermos-root-devel-WordCountTopology-1-eb6dbfc8-8cd1-403f-8047-726e945a5656;["container_1_Consume_and_count_1"];5.25;1533760414.32109;13.7;143.46;4.904800079;10;151
3;paravance-69.rennes.grid5000.fr;thermos-root-devel-WordCountTopology-0-b99ea65f-cd51-4a4f-bb75-1c94072ecf43;["topology_master"];5.25;1533760414.3136;2.52;8.19;0.0;9;117
3;paravance-72.rennes.grid5000.fr;thermos-root-devel-WordCountTopology-2-d7089513-63a5-4c1a-a356-a8eb532a8c6b;["container_2_Emit_random_words_2"];5.25;1533760414.3201;10.22;76.52;1.733363522;10;149
4;paravance-72.rennes.grid5000.fr;thermos-root-devel-WordCountTopology-2-d7089513-63a5-4c1a-a356-a8eb532a8c6b;["container_2_Emit_random_words_2"];5.25;1533760424.5353;11.25;85.44;1.733363522;10;149
4;paravance-70.rennes.grid5000.fr;thermos-root-devel-WordCountTopology-1-eb6dbfc8-8cd1-403f-8047-726e945a5656;["container_1_Consume_and_count_1"];5.25;1533760424.53618;16.56;166.38;5.680774119;10;151
4;paravance-69.rennes.grid5000.fr;thermos-root-devel-WordCountTopology-0-b99ea65f-cd51-4a4f-bb75-1c94072ecf43;["topology_master"];5.25;1533760424.53027;2.58;8.27;0.0;9;117
5;paravance-72.rennes.grid5000.fr;thermos-root-devel-WordCountTopology-2-d7089513-63a5-4c1a-a356-a8eb532a8c6b;["container_2_Emit_random_words_2"];5.25;1533760434.74905;13.34;105.17;1.733363522;10;149
5;paravance-69.rennes.grid5000.fr;thermos-root-devel-WordCountTopology-0-b99ea65f-cd51-4a4f-bb75-1c94072ecf43;["topology_master"];5.25;1533760434.74545;2.64;8.34;0.0;9;117
5;paravance-70.rennes.grid5000.fr;thermos-root-devel-WordCountTopology-1-eb6dbfc8-8cd1-403f-8047-726e945a5656;["container_1_Consume_and_count_1"];5.25;1533760434.75092;22.06;195.96;5.680774119;10;151
6;paravance-72.rennes.grid5000.fr;thermos-root-devel-WordCountTopology-2-d7089513-63a5-4c1a-a356-a8eb532a8c6b;["container_2_Emit_random_words_2"];5.25;1533760444.96586;15.47;125.48;1.733363522;10;149
6;paravance-70.rennes.grid5000.fr;thermos-root-devel-WordCountTopology-1-eb6dbfc8-8cd1-403f-8047-726e945a5656;["container_1_Consume_and_count_1"];5.25;1533760444.9688;27.41;221.89;5.680774119;10;151
6;paravance-69.rennes.grid5000.fr;thermos-root-devel-WordCountTopology-0-b99ea65f-cd51-4a4f-bb75-1c94072ecf43;["topology_master"];5.25;1533760444.96234;2.76;8.54;0.0;9;117
7;paravance-70.rennes.grid5000.fr;thermos-root-devel-WordCountTopology-1-eb6dbfc8-8cd1-403f-8047-726e945a5656;["container_1_Consume_and_count_1"];5.25;1533760455.18615;32.55;248.81;5.680774119;10;151
7;paravance-72.rennes.grid5000.fr;thermos-root-devel-WordCountTopology-2-d7089513-63a5-4c1a-a356-a8eb532a8c6b;["container_2_Emit_random_words_2"];5.25;1533760455.18309;17.58;145.07;1.733363522;10;149
7;paravance-69.rennes.grid5000.fr;thermos-root-devel-WordCountTopology-0-b99ea65f-cd51-4a4f-bb75-1c94072ecf43;["topology_master"];5.25;1533760455.17874;2.79;8.57;0.0;9;117
8;paravance-72.rennes.grid5000.fr;thermos-root-devel-WordCountTopology-2-d7089513-63a5-4c1a-a356-a8eb532a8c6b;["container_2_Emit_random_words_2"];5.25;1533760465.40028;19.76;164.68;1.733363522;10;149
8;paravance-70.rennes.grid5000.fr;thermos-root-devel-WordCountTopology-1-eb6dbfc8-8cd1-403f-8047-726e945a5656;["container_1_Consume_and_count_1"];5.25;1533760465.4029;37.59;275.26;5.680774119;10;151
8;paravance-69.rennes.grid5000.fr;thermos-root-devel-WordCountTopology-0-b99ea65f-cd51-4a4f-bb75-1c94072ecf43;["topology_master"];5.25;1533760465.39674;2.88;8.71;0.0;9;117
9;paravance-70.rennes.grid5000.fr;thermos-root-devel-WordCountTopology-1-eb6dbfc8-8cd1-403f-8047-726e945a5656;["container_1_Consume_and_count_1"];5.25;1533760475.62109;43.0;303.3;5.680774119;10;151
9;paravance-69.rennes.grid5000.fr;thermos-root-devel-WordCountTopology-0-b99ea65f-cd51-4a4f-bb75-1c94072ecf43;["topology_master"];5.25;1533760475.61427;2.94;8.78;0.0;9;117
9;paravance-72.rennes.grid5000.fr;thermos-root-devel-WordCountTopology-2-d7089513-63a5-4c1a-a356-a8eb532a8c6b;["container_2_Emit_random_words_2"];5.25;1533760475.61768;21.88;184.07;1.733363522;10;149
10;paravance-70.rennes.grid5000.fr;thermos-root-devel-WordCountTopology-1-eb6dbfc8-8cd1-403f-8047-726e945a5656;["container_1_Consume_and_count_1"];5.25;1533760485.83626;48.53;331.27;5.680774119;10;151
10;paravance-69.rennes.grid5000.fr;thermos-root-devel-WordCountTopology-0-b99ea65f-cd51-4a4f-bb75-1c94072ecf43;["topology_master"];5.25;1533760485.83135;3.0;8.86;0.0;9;117
10;paravance-72.rennes.grid5000.fr;thermos-root-devel-WordCountTopology-2-d7089513-63a5-4c1a-a356-a8eb532a8c6b;["container_2_Emit_random_words_2"];5.25;1533760485.8355;24.02;203.44;1.733363522;10;149
11;paravance-72.rennes.grid5000.fr;thermos-root-devel-WordCountTopology-2-d7089513-63a5-4c1a-a356-a8eb532a8c6b;["container_2_Emit_random_words_2"];5.25;1533760496.05318;26.06;223.12;1.733363522;10;149
11;paravance-70.rennes.grid5000.fr;thermos-root-devel-WordCountTopology-1-eb6dbfc8-8cd1-403f-8047-726e945a5656;["container_1_Consume_and_count_1"];5.25;1533760496.05627;54.08;360.48;5.680774119;10;151
11;paravance-69.rennes.grid5000.fr;thermos-root-devel-WordCountTopology-0-b99ea65f-cd51-4a4f-bb75-1c94072ecf43;["topology_master"];5.25;1533760496.04804;3.06;8.93;0.0;9;117
12;paravance-69.rennes.grid5000.fr;thermos-root-devel-WordCountTopology-0-b99ea65f-cd51-4a4f-bb75-1c94072ecf43;["topology_master"];5.25;1533760506.26643;3.19;9.24;0.0;9;117
12;paravance-72.rennes.grid5000.fr;thermos-root-devel-WordCountTopology-2-d7089513-63a5-4c1a-a356-a8eb532a8c6b;["container_2_Emit_random_words_2"];5.25;1533760506.27215;28.15;242.84;1.733363522;10;149
12;paravance-70.rennes.grid5000.fr;thermos-root-devel-WordCountTopology-1-eb6dbfc8-8cd1-403f-8047-726e945a5656;["container_1_Consume_and_count_1"];5.25;1533760506.2751;59.63;387.65;5.680774119;10;151
13;paravance-72.rennes.grid5000.fr;thermos-root-devel-WordCountTopology-2-d7089513-63a5-4c1a-a356-a8eb532a8c6b;["container_2_Emit_random_words_2"];5.25;1533760516.48923;30.17;262.4;1.733363522;10;149
13;paravance-70.rennes.grid5000.fr;thermos-root-devel-WordCountTopology-1-eb6dbfc8-8cd1-403f-8047-726e945a5656;["container_1_Consume_and_count_1"];5.25;1533760516.48957;64.83;414.36;5.680774119;10;151
13;paravance-69.rennes.grid5000.fr;thermos-root-devel-WordCountTopology-0-b99ea65f-cd51-4a4f-bb75-1c94072ecf43;["topology_master"];5.25;1533760516.48281;3.22;9.26;0.0;9;117
14;paravance-70.rennes.grid5000.fr;thermos-root-devel-WordCountTopology-1-eb6dbfc8-8cd1-403f-8047-726e945a5656;["container_1_Consume_and_count_1"];5.25;1533760526.7036;69.85;441.39;5.680774119;10;151
14;paravance-72.rennes.grid5000.fr;thermos-root-devel-WordCountTopology-2-d7089513-63a5-4c1a-a356-a8eb532a8c6b;["container_2_Emit_random_words_2"];5.25;1533760526.70256;32.3;282.49;1.733363522;10;149
14;paravance-69.rennes.grid5000.fr;thermos-root-devel-WordCountTopology-0-b99ea65f-cd51-4a4f-bb75-1c94072ecf43;["topology_master"];5.25;1533760526.69784;3.32;9.42;0.0;9;117
15;paravance-70.rennes.grid5000.fr;thermos-root-devel-WordCountTopology-1-eb6dbfc8-8cd1-403f-8047-726e945a5656;["container_1_Consume_and_count_1"];5.25;1533760536.92186;74.94;467.71;5.680774119;10;151
15;paravance-72.rennes.grid5000.fr;thermos-root-devel-WordCountTopology-2-d7089513-63a5-4c1a-a356-a8eb532a8c6b;["container_2_Emit_random_words_2"];5.25;1533760536.9197;34.31;302.09;1.733363522;10;149
15;paravance-69.rennes.grid5000.fr;thermos-root-devel-WordCountTopology-0-b99ea65f-cd51-4a4f-bb75-1c94072ecf43;["topology_master"];5.25;1533760536.91487;3.38;9.49;0.0;9;117
16;paravance-70.rennes.grid5000.fr;thermos-root-devel-WordCountTopology-1-eb6dbfc8-8cd1-403f-8047-726e945a5656;["container_1_Consume_and_count_1"];5.25;1533760547.13682;80.12;494.01;5.680774119;10;151
16;paravance-69.rennes.grid5000.fr;thermos-root-devel-WordCountTopology-0-b99ea65f-cd51-4a4f-bb75-1c94072ecf43;["topology_master"];5.25;1533760547.12956;3.44;9.58;0.0;9;117
16;paravance-72.rennes.grid5000.fr;thermos-root-devel-WordCountTopology-2-d7089513-63a5-4c1a-a356-a8eb532a8c6b;["container_2_Emit_random_words_2"];5.25;1533760547.13458;36.39;322.96;1.733363522;10;149
17;paravance-70.rennes.grid5000.fr;thermos-root-devel-WordCountTopology-1-eb6dbfc8-8cd1-403f-8047-726e945a5656;["container_1_Consume_and_count_1"];5.25;1533760557.35263;85.6;522.48;5.680774119;10;151
17;paravance-72.rennes.grid5000.fr;thermos-root-devel-WordCountTopology-2-d7089513-63a5-4c1a-a356-a8eb532a8c6b;["container_2_Emit_random_words_2"];5.25;1533760557.35103;38.48;343.3;1.733363522;10;149
17;paravance-69.rennes.grid5000.fr;thermos-root-devel-WordCountTopology-0-b99ea65f-cd51-4a4f-bb75-1c94072ecf43;["topology_master"];5.25;1533760557.3464;3.5;9.65;0.0;9;117
18;paravance-72.rennes.grid5000.fr;thermos-root-devel-WordCountTopology-2-d7089513-63a5-4c1a-a356-a8eb532a8c6b;["container_2_Emit_random_words_2"];5.25;1533760567.5662;40.68;362.93;1.733363522;10;149
18;paravance-70.rennes.grid5000.fr;thermos-root-devel-WordCountTopology-1-eb6dbfc8-8cd1-403f-8047-726e945a5656;["container_1_Consume_and_count_1"];5.25;1533760567.56958;90.96;550.22;5.680774119;10;151
18;paravance-69.rennes.grid5000.fr;thermos-root-devel-WordCountTopology-0-b99ea65f-cd51-4a4f-bb75-1c94072ecf43;["topology_master"];5.25;1533760567.5618;3.61;9.85;0.0;9;117
19;paravance-72.rennes.grid5000.fr;thermos-root-devel-WordCountTopology-2-d7089513-63a5-4c1a-a356-a8eb532a8c6b;["container_2_Emit_random_words_2"];5.25;1533760577.6856;42.77;382.2;1.733363522;10;149
19;paravance-70.rennes.grid5000.fr;thermos-root-devel-WordCountTopology-1-eb6dbfc8-8cd1-403f-8047-726e945a5656;["container_1_Consume_and_count_1"];5.25;1533760577.78802;96.26;576.94;5.680774119;10;151
19;paravance-69.rennes.grid5000.fr;thermos-root-devel-WordCountTopology-0-b99ea65f-cd51-4a4f-bb75-1c94072ecf43;["topology_master"];5.25;1533760577.78116;3.64;9.88;0.0;9;117
20;paravance-69.rennes.grid5000.fr;thermos-root-devel-WordCountTopology-0-b99ea65f-cd51-4a4f-bb75-1c94072ecf43;["topology_master"];5.25;1533760587.99507;3.74;10.01;0.0;9;117
20;paravance-72.rennes.grid5000.fr;thermos-root-devel-WordCountTopology-2-d7089513-63a5-4c1a-a356-a8eb532a8c6b;["container_2_Emit_random_words_2"];5.25;1533760588.00025;44.95;401.96;1.733363522;10;149
20;paravance-70.rennes.grid5000.fr;thermos-root-devel-WordCountTopology-1-eb6dbfc8-8cd1-403f-8047-726e945a5656;["container_1_Consume_and_count_1"];5.25;1533760588.0037;101.88;604.85;5.680774119;10;151
21;paravance-72.rennes.grid5000.fr;thermos-root-devel-WordCountTopology-2-d7089513-63a5-4c1a-a356-a8eb532a8c6b;["container_2_Emit_random_words_2"];5.25;1533760598.21771;47.07;421.45;1.733363522;10;149
21;paravance-69.rennes.grid5000.fr;thermos-root-devel-WordCountTopology-0-b99ea65f-cd51-4a4f-bb75-1c94072ecf43;["topology_master"];5.25;1533760598.21315;3.8;10.09;0.0;9;117
21;paravance-70.rennes.grid5000.fr;thermos-root-devel-WordCountTopology-1-eb6dbfc8-8cd1-403f-8047-726e945a5656;["container_1_Consume_and_count_1"];5.25;1533760598.22083;107.42;633.17;5.680774119;10;151
22;paravance-70.rennes.grid5000.fr;thermos-root-devel-WordCountTopology-1-eb6dbfc8-8cd1-403f-8047-726e945a5656;["container_1_Consume_and_count_1"];5.25;1533760608.43884;112.69;660.35;5.680774119;10;151
22;paravance-72.rennes.grid5000.fr;thermos-root-devel-WordCountTopology-2-d7089513-63a5-4c1a-a356-a8eb532a8c6b;["container_2_Emit_random_words_2"];5.25;1533760608.43497;49.2;440.78;1.733363522;10;149
22;paravance-69.rennes.grid5000.fr;thermos-root-devel-WordCountTopology-0-b99ea65f-cd51-4a4f-bb75-1c94072ecf43;["topology_master"];5.25;1533760608.43286;3.86;10.16;0.0;9;117
23;paravance-70.rennes.grid5000.fr;thermos-root-devel-WordCountTopology-1-eb6dbfc8-8cd1-403f-8047-726e945a5656;["container_1_Consume_and_count_1"];5.25;1533760618.65491;118.1;688.2;5.680774119;10;151
23;paravance-72.rennes.grid5000.fr;thermos-root-devel-WordCountTopology-2-d7089513-63a5-4c1a-a356-a8eb532a8c6b;["container_2_Emit_random_words_2"];5.25;1533760618.65251;51.37;459.99;1.733363522;10;149
23;paravance-69.rennes.grid5000.fr;thermos-root-devel-WordCountTopology-0-b99ea65f-cd51-4a4f-bb75-1c94072ecf43;["topology_master"];5.25;1533760618.64834;3.92;10.24;0.0;9;117
24;paravance-70.rennes.grid5000.fr;thermos-root-devel-WordCountTopology-1-eb6dbfc8-8cd1-403f-8047-726e945a5656;["container_1_Consume_and_count_1"];5.25;1533760628.87257;123.58;715.66;5.680774119;10;151
24;paravance-72.rennes.grid5000.fr;thermos-root-devel-WordCountTopology-2-d7089513-63a5-4c1a-a356-a8eb532a8c6b;["container_2_Emit_random_words_2"];5.25;1533760628.86879;53.51;479.66;1.733363522;10;149
24;paravance-69.rennes.grid5000.fr;thermos-root-devel-WordCountTopology-0-b99ea65f-cd51-4a4f-bb75-1c94072ecf43;["topology_master"];5.25;1533760628.86354;4.02;10.41;0.0;9;117
25;paravance-69.rennes.grid5000.fr;thermos-root-devel-WordCountTopology-0-b99ea65f-cd51-4a4f-bb75-1c94072ecf43;["topology_master"];5.25;1533760639.08023;4.05;10.44;0.0;9;117
25;paravance-70.rennes.grid5000.fr;thermos-root-devel-WordCountTopology-1-eb6dbfc8-8cd1-403f-8047-726e945a5656;["container_1_Consume_and_count_1"];5.25;1533760639.08898;128.99;743.3;5.680774119;10;151
25;paravance-72.rennes.grid5000.fr;thermos-root-devel-WordCountTopology-2-d7089513-63a5-4c1a-a356-a8eb532a8c6b;["container_2_Emit_random_words_2"];5.25;1533760639.08743;55.59;499.16;1.733363522;10;149
26;paravance-70.rennes.grid5000.fr;thermos-root-devel-WordCountTopology-1-eb6dbfc8-8cd1-403f-8047-726e945a5656;["container_1_Consume_and_count_1"];5.25;1533760649.30729;134.42;770.78;5.680774119;10;151
26;paravance-69.rennes.grid5000.fr;thermos-root-devel-WordCountTopology-0-b99ea65f-cd51-4a4f-bb75-1c94072ecf43;["topology_master"];5.25;1533760649.29981;4.14;10.56;0.0;9;117
26;paravance-72.rennes.grid5000.fr;thermos-root-devel-WordCountTopology-2-d7089513-63a5-4c1a-a356-a8eb532a8c6b;["container_2_Emit_random_words_2"];5.25;1533760649.30634;57.73;518.75;1.733363522;10;149
27;paravance-69.rennes.grid5000.fr;thermos-root-devel-WordCountTopology-0-b99ea65f-cd51-4a4f-bb75-1c94072ecf43;["topology_master"];5.25;1533760659.51599;4.19;10.63;0.0;9;117
27;paravance-70.rennes.grid5000.fr;thermos-root-devel-WordCountTopology-1-eb6dbfc8-8cd1-403f-8047-726e945a5656;["container_1_Consume_and_count_1"];5.25;1533760659.52679;140.09;798.34;5.680774119;10;151
27;paravance-72.rennes.grid5000.fr;thermos-root-devel-WordCountTopology-2-d7089513-63a5-4c1a-a356-a8eb532a8c6b;["container_2_Emit_random_words_2"];5.25;1533760659.52491;59.88;538.17;1.733363522;10;149
28;paravance-72.rennes.grid5000.fr;thermos-root-devel-WordCountTopology-2-d7089513-63a5-4c1a-a356-a8eb532a8c6b;["container_2_Emit_random_words_2"];5.25;1533760669.73805;62.02;557.59;1.733363522;10;149
28;paravance-70.rennes.grid5000.fr;thermos-root-devel-WordCountTopology-1-eb6dbfc8-8cd1-403f-8047-726e945a5656;["container_1_Consume_and_count_1"];5.25;1533760669.74337;145.52;826.09;5.680774119;10;151
28;paravance-69.rennes.grid5000.fr;thermos-root-devel-WordCountTopology-0-b99ea65f-cd51-4a4f-bb75-1c94072ecf43;["topology_master"];5.25;1533760669.73469;4.25;10.71;0.0;9;117
29;paravance-70.rennes.grid5000.fr;thermos-root-devel-WordCountTopology-1-eb6dbfc8-8cd1-403f-8047-726e945a5656;["container_1_Consume_and_count_1"];5.25;1533760679.95723;151.04;854.07;5.680774119;10;151
29;paravance-72.rennes.grid5000.fr;thermos-root-devel-WordCountTopology-2-d7089513-63a5-4c1a-a356-a8eb532a8c6b;["container_2_Emit_random_words_2"];5.25;1533760679.95463;64.21;577.16;1.733363522;10;149
29;paravance-69.rennes.grid5000.fr;thermos-root-devel-WordCountTopology-0-b99ea65f-cd51-4a4f-bb75-1c94072ecf43;["topology_master"];5.25;1533760679.94971;4.36;10.85;0.0;9;117
30;paravance-72.rennes.grid5000.fr;thermos-root-devel-WordCountTopology-2-d7089513-63a5-4c1a-a356-a8eb532a8c6b;["container_2_Emit_random_words_2"];5.25;1533760690.17252;66.33;596.81;1.733363522;10;149
30;paravance-69.rennes.grid5000.fr;thermos-root-devel-WordCountTopology-0-b99ea65f-cd51-4a4f-bb75-1c94072ecf43;["topology_master"];5.25;1533760690.16747;4.42;10.97;0.0;9;117
30;paravance-70.rennes.grid5000.fr;thermos-root-devel-WordCountTopology-1-eb6dbfc8-8cd1-403f-8047-726e945a5656;["container_1_Consume_and_count_1"];5.25;1533760690.17562;156.65;881.82;5.680774119;10;151
31;paravance-72.rennes.grid5000.fr;thermos-root-devel-WordCountTopology-2-d7089513-63a5-4c1a-a356-a8eb532a8c6b;["container_2_Emit_random_words_2"];5.25;1533760700.39091;68.49;616.2;1.733363522;10;149
31;paravance-69.rennes.grid5000.fr;thermos-root-devel-WordCountTopology-0-b99ea65f-cd51-4a4f-bb75-1c94072ecf43;["topology_master"];5.25;1533760700.38542;4.49;11.04;0.0;9;117
31;paravance-70.rennes.grid5000.fr;thermos-root-devel-WordCountTopology-1-eb6dbfc8-8cd1-403f-8047-726e945a5656;["container_1_Consume_and_count_1"];5.25;1533760700.393;161.93;909.37;5.680774119;10;151
32;paravance-70.rennes.grid5000.fr;thermos-root-devel-WordCountTopology-1-eb6dbfc8-8cd1-403f-8047-726e945a5656;["container_1_Consume_and_count_1"];5.25;1533760710.51203;167.32;937.07;5.680774119;10;151
32;paravance-69.rennes.grid5000.fr;thermos-root-devel-WordCountTopology-0-b99ea65f-cd51-4a4f-bb75-1c94072ecf43;["topology_master"];5.25;1533760710.60287;4.54;11.12;0.0;9;117
32;paravance-72.rennes.grid5000.fr;thermos-root-devel-WordCountTopology-2-d7089513-63a5-4c1a-a356-a8eb532a8c6b;["container_2_Emit_random_words_2"];5.25;1533760710.60992;70.62;635.68;1.733363522;10;149
33;paravance-70.rennes.grid5000.fr;thermos-root-devel-WordCountTopology-1-eb6dbfc8-8cd1-403f-8047-726e945a5656;["container_1_Consume_and_count_1"];5.25;1533760720.72884;172.75;963.08;5.680774119;10;151
33;paravance-69.rennes.grid5000.fr;thermos-root-devel-WordCountTopology-0-b99ea65f-cd51-4a4f-bb75-1c94072ecf43;["topology_master"];5.25;1533760720.81993;4.63;11.24;0.0;9;117
33;paravance-72.rennes.grid5000.fr;thermos-root-devel-WordCountTopology-2-d7089513-63a5-4c1a-a356-a8eb532a8c6b;["container_2_Emit_random_words_2"];5.25;1533760720.82493;72.77;655.23;1.733363522;10;149
34;paravance-70.rennes.grid5000.fr;thermos-root-devel-WordCountTopology-1-eb6dbfc8-8cd1-403f-8047-726e945a5656;["container_1_Consume_and_count_1"];5.25;1533760731.0464;178.32;990.87;5.680774119;10;151
34;paravance-72.rennes.grid5000.fr;thermos-root-devel-WordCountTopology-2-d7089513-63a5-4c1a-a356-a8eb532a8c6b;["container_2_Emit_random_words_2"];5.25;1533760731.04202;74.8;674.69;1.733363522;10;149
34;paravance-69.rennes.grid5000.fr;thermos-root-devel-WordCountTopology-0-b99ea65f-cd51-4a4f-bb75-1c94072ecf43;["topology_master"];5.25;1533760731.03816;4.66;11.27;0.0;9;117
35;paravance-72.rennes.grid5000.fr;thermos-root-devel-WordCountTopology-2-d7089513-63a5-4c1a-a356-a8eb532a8c6b;["container_2_Emit_random_words_2"];5.25;1533760741.25781;76.92;694.21;1.733363522;10;149
35;paravance-70.rennes.grid5000.fr;thermos-root-devel-WordCountTopology-1-eb6dbfc8-8cd1-403f-8047-726e945a5656;["container_1_Consume_and_count_1"];5.25;1533760741.2615;183.91;1018.95;5.680774119;10;151
35;paravance-69.rennes.grid5000.fr;thermos-root-devel-WordCountTopology-0-b99ea65f-cd51-4a4f-bb75-1c94072ecf43;["topology_master"];5.25;1533760741.25352;4.77;11.41;0.0;9;117
36;paravance-70.rennes.grid5000.fr;thermos-root-devel-WordCountTopology-1-eb6dbfc8-8cd1-403f-8047-726e945a5656;["container_1_Consume_and_count_1"];5.25;1533760751.47927;189.54;1047.56;5.680774119;10;151
36;paravance-69.rennes.grid5000.fr;thermos-root-devel-WordCountTopology-0-b99ea65f-cd51-4a4f-bb75-1c94072ecf43;["topology_master"];5.25;1533760751.47006;4.83;11.53;0.0;9;117
36;paravance-72.rennes.grid5000.fr;thermos-root-devel-WordCountTopology-2-d7089513-63a5-4c1a-a356-a8eb532a8c6b;["container_2_Emit_random_words_2"];5.25;1533760751.47678;79.06;713.85;1.733363522;10;149
37;paravance-70.rennes.grid5000.fr;thermos-root-devel-WordCountTopology-1-eb6dbfc8-8cd1-403f-8047-726e945a5656;["container_1_Consume_and_count_1"];5.25;1533760761.70184;195.46;1076.27;5.680774119;10;151
37;paravance-72.rennes.grid5000.fr;thermos-root-devel-WordCountTopology-2-d7089513-63a5-4c1a-a356-a8eb532a8c6b;["container_2_Emit_random_words_2"];5.25;1533760761.70064;81.23;733.36;1.733363522;10;149
37;paravance-69.rennes.grid5000.fr;thermos-root-devel-WordCountTopology-0-b99ea65f-cd51-4a4f-bb75-1c94072ecf43;["topology_master"];5.25;1533760761.69493;4.92;11.65;0.0;9;117
38;paravance-72.rennes.grid5000.fr;thermos-root-devel-WordCountTopology-2-d7089513-63a5-4c1a-a356-a8eb532a8c6b;["container_2_Emit_random_words_2"];5.25;1533760771.917;83.36;752.86;1.733363522;10;149
38;paravance-70.rennes.grid5000.fr;thermos-root-devel-WordCountTopology-1-eb6dbfc8-8cd1-403f-8047-726e945a5656;["container_1_Consume_and_count_1"];5.25;1533760771.91972;200.59;1104.84;5.680774119;10;151
38;paravance-69.rennes.grid5000.fr;thermos-root-devel-WordCountTopology-0-b99ea65f-cd51-4a4f-bb75-1c94072ecf43;["topology_master"];5.25;1533760771.91128;4.95;11.7;0.0;9;117
39;paravance-70.rennes.grid5000.fr;thermos-root-devel-WordCountTopology-1-eb6dbfc8-8cd1-403f-8047-726e945a5656;["container_1_Consume_and_count_1"];5.25;1533760782.03599;206.22;1132.79;5.680774119;10;151
39;paravance-72.rennes.grid5000.fr;thermos-root-devel-WordCountTopology-2-d7089513-63a5-4c1a-a356-a8eb532a8c6b;["container_2_Emit_random_words_2"];5.25;1533760782.13263;85.51;772.4;1.733363522;10;149
39;paravance-69.rennes.grid5000.fr;thermos-root-devel-WordCountTopology-0-b99ea65f-cd51-4a4f-bb75-1c94072ecf43;["topology_master"];5.25;1533760782.12704;5.04;11.83;0.0;9;117
40;paravance-70.rennes.grid5000.fr;thermos-root-devel-WordCountTopology-1-eb6dbfc8-8cd1-403f-8047-726e945a5656;["container_1_Consume_and_count_1"];5.25;1533760792.34953;211.54;1159.88;5.680774119;10;151
40;paravance-72.rennes.grid5000.fr;thermos-root-devel-WordCountTopology-2-d7089513-63a5-4c1a-a356-a8eb532a8c6b;["container_2_Emit_random_words_2"];5.25;1533760792.34744;87.56;791.54;1.733363522;10;149
40;paravance-69.rennes.grid5000.fr;thermos-root-devel-WordCountTopology-0-b99ea65f-cd51-4a4f-bb75-1c94072ecf43;["topology_master"];5.25;1533760792.34255;5.1;11.9;0.0;9;117
41;paravance-72.rennes.grid5000.fr;thermos-root-devel-WordCountTopology-2-d7089513-63a5-4c1a-a356-a8eb532a8c6b;["container_2_Emit_random_words_2"];5.25;1533760802.56597;89.71;811.0;1.733363522;10;149
41;paravance-70.rennes.grid5000.fr;thermos-root-devel-WordCountTopology-1-eb6dbfc8-8cd1-403f-8047-726e945a5656;["container_1_Consume_and_count_1"];5.25;1533760802.56824;217.0;1187.69;5.680774119;10;151
41;paravance-69.rennes.grid5000.fr;thermos-root-devel-WordCountTopology-0-b99ea65f-cd51-4a4f-bb75-1c94072ecf43;["topology_master"];5.25;1533760802.56096;5.17;11.98;0.0;9;117
42;paravance-72.rennes.grid5000.fr;thermos-root-devel-WordCountTopology-2-d7089513-63a5-4c1a-a356-a8eb532a8c6b;["container_2_Emit_random_words_2"];5.25;1533760812.78324;91.86;830.47;1.733363522;10;149
42;paravance-69.rennes.grid5000.fr;thermos-root-devel-WordCountTopology-0-b99ea65f-cd51-4a4f-bb75-1c94072ecf43;["topology_master"];5.25;1533760812.77873;5.23;12.11;0.0;9;117
42;paravance-70.rennes.grid5000.fr;thermos-root-devel-WordCountTopology-1-eb6dbfc8-8cd1-403f-8047-726e945a5656;["container_1_Consume_and_count_1"];5.25;1533760812.78842;222.42;1215.84;5.680774119;10;151
43;paravance-70.rennes.grid5000.fr;thermos-root-devel-WordCountTopology-1-eb6dbfc8-8cd1-403f-8047-726e945a5656;["container_1_Consume_and_count_1"];5.25;1533760823.00368;227.65;1244.18;5.680774119;10;151
43;paravance-72.rennes.grid5000.fr;thermos-root-devel-WordCountTopology-2-d7089513-63a5-4c1a-a356-a8eb532a8c6b;["container_2_Emit_random_words_2"];5.25;1533760823.00078;94.03;849.96;1.733363522;10;149
43;paravance-69.rennes.grid5000.fr;thermos-root-devel-WordCountTopology-0-b99ea65f-cd51-4a4f-bb75-1c94072ecf43;["topology_master"];5.25;1533760822.99559;5.32;12.23;0.0;9;117
44;paravance-70.rennes.grid5000.fr;thermos-root-devel-WordCountTopology-1-eb6dbfc8-8cd1-403f-8047-726e945a5656;["container_1_Consume_and_count_1"];5.25;1533760833.21902;233.44;1272.39;5.680774119;10;151
44;paravance-72.rennes.grid5000.fr;thermos-root-devel-WordCountTopology-2-d7089513-63a5-4c1a-a356-a8eb532a8c6b;["container_2_Emit_random_words_2"];5.25;1533760833.21615;96.09;869.45;1.733363522;10;149
44;paravance-69.rennes.grid5000.fr;thermos-root-devel-WordCountTopology-0-b99ea65f-cd51-4a4f-bb75-1c94072ecf43;["topology_master"];5.25;1533760833.21108;5.35;12.28;0.0;9;117
45;paravance-70.rennes.grid5000.fr;thermos-root-devel-WordCountTopology-1-eb6dbfc8-8cd1-403f-8047-726e945a5656;["container_1_Consume_and_count_1"];5.25;1533760843.43507;238.95;1300.68;5.680774119;10;151
45;paravance-72.rennes.grid5000.fr;thermos-root-devel-WordCountTopology-2-d7089513-63a5-4c1a-a356-a8eb532a8c6b;["container_2_Emit_random_words_2"];5.25;1533760843.43265;98.28;888.79;1.733363522;10;149
45;paravance-69.rennes.grid5000.fr;thermos-root-devel-WordCountTopology-0-b99ea65f-cd51-4a4f-bb75-1c94072ecf43;["topology_master"];5.25;1533760843.42766;5.44;12.4;0.0;9;117
46;paravance-70.rennes.grid5000.fr;thermos-root-devel-WordCountTopology-1-eb6dbfc8-8cd1-403f-8047-726e945a5656;["container_1_Consume_and_count_1"];5.25;1533760853.65154;244.39;1327.9;5.680774119;10;151
46;paravance-72.rennes.grid5000.fr;thermos-root-devel-WordCountTopology-2-d7089513-63a5-4c1a-a356-a8eb532a8c6b;["container_2_Emit_random_words_2"];5.25;1533760853.64948;100.43;908.17;1.733363522;10;149
46;paravance-69.rennes.grid5000.fr;thermos-root-devel-WordCountTopology-0-b99ea65f-cd51-4a4f-bb75-1c94072ecf43;["topology_master"];5.25;1533760853.64387;5.49;12.47;0.0;9;117
47;paravance-69.rennes.grid5000.fr;thermos-root-devel-WordCountTopology-0-b99ea65f-cd51-4a4f-bb75-1c94072ecf43;["topology_master"];5.25;1533760863.85734;5.56;12.56;0.0;9;117
47;paravance-72.rennes.grid5000.fr;thermos-root-devel-WordCountTopology-2-d7089513-63a5-4c1a-a356-a8eb532a8c6b;["container_2_Emit_random_words_2"];5.25;1533760863.86453;102.57;927.54;1.733363522;10;149
47;paravance-70.rennes.grid5000.fr;thermos-root-devel-WordCountTopology-1-eb6dbfc8-8cd1-403f-8047-726e945a5656;["container_1_Consume_and_count_1"];5.25;1533760863.86889;249.89;1355.97;5.680774119;10;151
48;paravance-70.rennes.grid5000.fr;thermos-root-devel-WordCountTopology-1-eb6dbfc8-8cd1-403f-8047-726e945a5656;["container_1_Consume_and_count_1"];5.25;1533760874.08383;255.63;1383.56;5.680774119;10;151
48;paravance-69.rennes.grid5000.fr;thermos-root-devel-WordCountTopology-0-b99ea65f-cd51-4a4f-bb75-1c94072ecf43;["topology_master"];5.25;1533760874.07226;5.63;12.68;0.0;9;117
48;paravance-72.rennes.grid5000.fr;thermos-root-devel-WordCountTopology-2-d7089513-63a5-4c1a-a356-a8eb532a8c6b;["container_2_Emit_random_words_2"];5.25;1533760874.07979;104.74;947.13;1.733363522;10;149
49;paravance-72.rennes.grid5000.fr;thermos-root-devel-WordCountTopology-2-d7089513-63a5-4c1a-a356-a8eb532a8c6b;["container_2_Emit_random_words_2"];5.25;1533760884.29674;106.93;966.69;1.733363522;10;149
49;paravance-70.rennes.grid5000.fr;thermos-root-devel-WordCountTopology-1-eb6dbfc8-8cd1-403f-8047-726e945a5656;["container_1_Consume_and_count_1"];5.25;1533760884.30023;261.07;1411.01;5.680774119;10;151
49;paravance-69.rennes.grid5000.fr;thermos-root-devel-WordCountTopology-0-b99ea65f-cd51-4a4f-bb75-1c94072ecf43;["topology_master"];5.25;1533760884.2908;5.72;12.81;0.0;9;117
50;paravance-70.rennes.grid5000.fr;thermos-root-devel-WordCountTopology-1-eb6dbfc8-8cd1-403f-8047-726e945a5656;["container_1_Consume_and_count_1"];5.25;1533760894.51835;266.85;1437.83;5.680774119;10;151
50;paravance-72.rennes.grid5000.fr;thermos-root-devel-WordCountTopology-2-d7089513-63a5-4c1a-a356-a8eb532a8c6b;["container_2_Emit_random_words_2"];5.25;1533760894.51476;108.93;986.17;1.733363522;10;149
50;paravance-69.rennes.grid5000.fr;thermos-root-devel-WordCountTopology-0-b99ea65f-cd51-4a4f-bb75-1c94072ecf43;["topology_master"];5.25;1533760894.50925;5.75;12.84;0.0;9;117
51;paravance-70.rennes.grid5000.fr;thermos-root-devel-WordCountTopology-1-eb6dbfc8-8cd1-403f-8047-726e945a5656;["container_1_Consume_and_count_1"];5.25;1533760904.73435;272.71;1465.23;5.680774119;10;151
51;paravance-69.rennes.grid5000.fr;thermos-root-devel-WordCountTopology-0-b99ea65f-cd51-4a4f-bb75-1c94072ecf43;["topology_master"];5.25;1533760904.726;5.85;12.99;0.0;9;117
51;paravance-72.rennes.grid5000.fr;thermos-root-devel-WordCountTopology-2-d7089513-63a5-4c1a-a356-a8eb532a8c6b;["container_2_Emit_random_words_2"];5.25;1533760904.73197;110.9;1005.34;1.733363522;10;149
52;paravance-70.rennes.grid5000.fr;thermos-root-devel-WordCountTopology-1-eb6dbfc8-8cd1-403f-8047-726e945a5656;["container_1_Consume_and_count_1"];5.25;1533760914.9529;278.29;1494.29;5.680774119;10;151
52;paravance-69.rennes.grid5000.fr;thermos-root-devel-WordCountTopology-0-b99ea65f-cd51-4a4f-bb75-1c94072ecf43;["topology_master"];5.25;1533760914.94325;5.91;13.06;0.0;9;117
52;paravance-72.rennes.grid5000.fr;thermos-root-devel-WordCountTopology-2-d7089513-63a5-4c1a-a356-a8eb532a8c6b;["container_2_Emit_random_words_2"];5.25;1533760914.95146;112.95;1025.04;1.733363522;10;149
53;paravance-70.rennes.grid5000.fr;thermos-root-devel-WordCountTopology-1-eb6dbfc8-8cd1-403f-8047-726e945a5656;["container_1_Consume_and_count_1"];5.25;1533760925.16947;284.13;1521.82;5.680774119;10;151
53;paravance-72.rennes.grid5000.fr;thermos-root-devel-WordCountTopology-2-d7089513-63a5-4c1a-a356-a8eb532a8c6b;["container_2_Emit_random_words_2"];5.25;1533760925.16675;115.07;1044.2;1.733363522;10;149
53;paravance-69.rennes.grid5000.fr;thermos-root-devel-WordCountTopology-0-b99ea65f-cd51-4a4f-bb75-1c94072ecf43;["topology_master"];5.25;1533760925.16066;5.98;13.18;0.0;9;117
54;paravance-69.rennes.grid5000.fr;thermos-root-devel-WordCountTopology-0-b99ea65f-cd51-4a4f-bb75-1c94072ecf43;["topology_master"];5.25;1533760935.27773;6.04;13.25;0.0;9;117
54;paravance-70.rennes.grid5000.fr;thermos-root-devel-WordCountTopology-1-eb6dbfc8-8cd1-403f-8047-726e945a5656;["container_1_Consume_and_count_1"];5.25;1533760935.38681;289.69;1549.41;5.680774119;10;151
54;paravance-72.rennes.grid5000.fr;thermos-root-devel-WordCountTopology-2-d7089513-63a5-4c1a-a356-a8eb532a8c6b;["container_2_Emit_random_words_2"];5.25;1533760935.38297;117.22;1063.66;1.733363522;10;149
55;paravance-70.rennes.grid5000.fr;thermos-root-devel-WordCountTopology-1-eb6dbfc8-8cd1-403f-8047-726e945a5656;["container_1_Consume_and_count_1"];5.25;1533760945.6015;295.57;1577.84;5.680774119;10;151
55;paravance-69.rennes.grid5000.fr;thermos-root-devel-WordCountTopology-0-b99ea65f-cd51-4a4f-bb75-1c94072ecf43;["topology_master"];5.25;1533760945.59271;6.13;13.38;0.0;9;117
55;paravance-72.rennes.grid5000.fr;thermos-root-devel-WordCountTopology-2-d7089513-63a5-4c1a-a356-a8eb532a8c6b;["container_2_Emit_random_words_2"];5.25;1533760945.59901;119.41;1083.22;1.733363522;10;149
56;paravance-72.rennes.grid5000.fr;thermos-root-devel-WordCountTopology-2-d7089513-63a5-4c1a-a356-a8eb532a8c6b;["container_2_Emit_random_words_2"];5.25;1533760955.71768;121.52;1102.46;1.733363522;10;149
56;paravance-70.rennes.grid5000.fr;thermos-root-devel-WordCountTopology-1-eb6dbfc8-8cd1-403f-8047-726e945a5656;["container_1_Consume_and_count_1"];5.25;1533760955.82036;301.4;1605.22;5.680774119;10;151
56;paravance-69.rennes.grid5000.fr;thermos-root-devel-WordCountTopology-0-b99ea65f-cd51-4a4f-bb75-1c94072ecf43;["topology_master"];5.25;1533760955.81109;6.16;13.4;0.0;9;117
57;paravance-70.rennes.grid5000.fr;thermos-root-devel-WordCountTopology-1-eb6dbfc8-8cd1-403f-8047-726e945a5656;["container_1_Consume_and_count_1"];5.25;1533760966.03786;307.34;1634.09;5.680774119;10;151
57;paravance-72.rennes.grid5000.fr;thermos-root-devel-WordCountTopology-2-d7089513-63a5-4c1a-a356-a8eb532a8c6b;["container_2_Emit_random_words_2"];5.25;1533760966.03381;123.7;1122.03;1.733363522;10;149
57;paravance-69.rennes.grid5000.fr;thermos-root-devel-WordCountTopology-0-b99ea65f-cd51-4a4f-bb75-1c94072ecf43;["topology_master"];5.25;1533760966.02819;6.25;13.52;0.0;9;117
58;paravance-70.rennes.grid5000.fr;thermos-root-devel-WordCountTopology-1-eb6dbfc8-8cd1-403f-8047-726e945a5656;["container_1_Consume_and_count_1"];5.25;1533760976.25195;312.89;1660.9;5.680774119;10;151
58;paravance-72.rennes.grid5000.fr;thermos-root-devel-WordCountTopology-2-d7089513-63a5-4c1a-a356-a8eb532a8c6b;["container_2_Emit_random_words_2"];5.25;1533760976.2501;125.85;1141.53;1.733363522;10;149
58;paravance-69.rennes.grid5000.fr;thermos-root-devel-WordCountTopology-0-b99ea65f-cd51-4a4f-bb75-1c94072ecf43;["topology_master"];5.25;1533760976.24339;6.31;13.6;0.0;9;117
59;paravance-70.rennes.grid5000.fr;thermos-root-devel-WordCountTopology-1-eb6dbfc8-8cd1-403f-8047-726e945a5656;["container_1_Consume_and_count_1"];5.25;1533760986.46672;318.31;1689.22;5.680774119;10;151
59;paravance-72.rennes.grid5000.fr;thermos-root-devel-WordCountTopology-2-d7089513-63a5-4c1a-a356-a8eb532a8c6b;["container_2_Emit_random_words_2"];5.25;1533760986.46429;127.89;1160.86;1.733363522;10;149
59;paravance-69.rennes.grid5000.fr;thermos-root-devel-WordCountTopology-0-b99ea65f-cd51-4a4f-bb75-1c94072ecf43;["topology_master"];5.25;1533760986.4581;6.38;13.71;0.0;9;117
60;paravance-72.rennes.grid5000.fr;thermos-root-devel-WordCountTopology-2-d7089513-63a5-4c1a-a356-a8eb532a8c6b;["container_2_Emit_random_words_2"];5.25;1533760996.68008;129.9;1180.31;1.733363522;10;149
60;paravance-70.rennes.grid5000.fr;thermos-root-devel-WordCountTopology-1-eb6dbfc8-8cd1-403f-8047-726e945a5656;["container_1_Consume_and_count_1"];5.25;1533760996.68495;324.27;1716.99;5.680774119;10;151
60;paravance-69.rennes.grid5000.fr;thermos-root-devel-WordCountTopology-0-b99ea65f-cd51-4a4f-bb75-1c94072ecf43;["topology_master"];5.25;1533760996.67459;6.43;13.79;0.0;9;117
