{
  "status": "success",
  "executiontime": 0.0001819133758544922,
  "message": "",
  "result": {
    "bolts": {
      "Consume_and_count": [
        "container_1_Consume_and_count_1"
      ]
    },
    "instances": {
      "container_2_Emit_random_words_2": {
        "stmgrId": "stmgr-2",
        "logfile": "http://paravance-7.rennes.grid5000.fr:31565/file/log-files/container_2_Emit_random_words_2.log.0",
        "id": "container_2_Emit_random_words_2",
        "name": "Emit_random_words"
      },
      "container_1_Consume_and_count_1": {
        "stmgrId": "stmgr-1",
        "logfile": "http://paravance-8.rennes.grid5000.fr:31524/file/log-files/container_1_Consume_and_count_1.log.0",
        "id": "container_1_Consume_and_count_1",
        "name": "Consume_and_count"
      }
    },
    "instance_groups": {
      "container_1_Consume_and": [
        "container_1_Consume_and_count_1"
      ],
      "container_2_Emit_random": [
        "container_2_Emit_random_words_2"
      ]
    },
    "spouts": {
      "Emit_random_words": [
        "container_2_Emit_random_words_2"
      ]
    },
    "config": {
      "topology.message.timeout.secs": "30",
      "topology.team.environment": "devel",
      "topology.serializer.classname": "org.apache.heron.streamlet.impl.KryoSerializer",
      "topology.team.name": "root",
      "topology.debug": "false",
      "topology.max.spout.pending": "100",
      "topology.container.padding.percentage": "100",
      "topology.enable.message.timeouts": "true",
      "topology.component.parallelism": "1",
      "topology.name": "WordCountTopology",
      "topology.stmgrs": "2",
      "topology.reliability.mode": "ATMOST_ONCE"
    },
    "stmgrs": {
      "stmgr-1": {
        "cwd": "/var/lib/mesos/slaves/f7c779a3-499c-4ae6-83cd-2f9022037704-S2/frameworks/75deb08a-eb1b-415c-8b2c-e922be5f7d98-0000/executors/thermos-root-devel-WordCountTopology-1-6a1aa1f4-90bc-4f2e-8297-f7c56819abf3/runs/7e4490cd-031a-432f-a52e-8cb2e1233633/sandbox",
        "host": "paravance-8.rennes.grid5000.fr",
        "joburl": "http://paravance-8.rennes.grid5000.fr:31524/browse/",
        "shell_port": 31524,
        "logfiles": "http://paravance-8.rennes.grid5000.fr:31524/browse/log-files",
        "pid": 2103,
        "id": "stmgr-1",
        "instance_ids": [
          "container_1_Consume_and_count_1"
        ],
        "port": 31346
      },
      "stmgr-2": {
        "cwd": "/var/lib/mesos/slaves/f7c779a3-499c-4ae6-83cd-2f9022037704-S0/frameworks/75deb08a-eb1b-415c-8b2c-e922be5f7d98-0000/executors/thermos-root-devel-WordCountTopology-2-a578a372-f308-41cd-b5c9-736d3e23208d/runs/4aa38239-6186-4721-b37a-5d7dea3ac815/sandbox",
        "host": "paravance-7.rennes.grid5000.fr",
        "joburl": "http://paravance-7.rennes.grid5000.fr:31565/browse/",
        "shell_port": 31565,
        "logfiles": "http://paravance-7.rennes.grid5000.fr:31565/browse/log-files",
        "pid": 2140,
        "id": "stmgr-2",
        "instance_ids": [
          "container_2_Emit_random_words_2"
        ],
        "port": 31166
      }
    }
  },
  "tracker_version": "0.17.8-61-gd7c8c62"
}