mesure_id;slave_id;executor_id;heron_instances;cpus_limit;timestamp_B;cpus_system_time_secs_B;cpus_user_time_secs_B;cpus_throttled_time_secs_B;processes;threads
0;paravance-22.rennes.grid5000.fr;thermos-root-devel-WordCountTopology-1-2d3f3772-060f-457f-8be0-5c4263a6d384;["container_1_Consume_and_count_1"];4.25;1533114493.89202;32.38;317.6;7.380556297;10;151
0;paravance-21.rennes.grid5000.fr;thermos-root-devel-WordCountTopology-0-006cbb0e-9e95-4958-8c78-686c52212975;["topology_master"];4.25;1533114493.88965;2.46;8.09;0.003124708;9;117
0;paravance-2.rennes.grid5000.fr;thermos-root-devel-WordCountTopology-2-f0da56d4-2a9d-4a75-9f3e-4e10ab53d814;["container_2_Emit_random_words_2"];4.25;1533114493.89256;8.62;178.07;2.748684678;10;149
1;paravance-2.rennes.grid5000.fr;thermos-root-devel-WordCountTopology-2-f0da56d4-2a9d-4a75-9f3e-4e10ab53d814;["container_2_Emit_random_words_2"];4.25;1533114504.01105;9.01;186.01;2.748684678;10;149
1;paravance-22.rennes.grid5000.fr;thermos-root-devel-WordCountTopology-1-2d3f3772-060f-457f-8be0-5c4263a6d384;["container_1_Consume_and_count_1"];4.25;1533114504.10873;33.9;338.69;7.661617997;10;151
1;paravance-21.rennes.grid5000.fr;thermos-root-devel-WordCountTopology-0-006cbb0e-9e95-4958-8c78-686c52212975;["topology_master"];4.25;1533114504.1085;2.56;8.25;0.003124708;9;117
2;paravance-22.rennes.grid5000.fr;thermos-root-devel-WordCountTopology-1-2d3f3772-060f-457f-8be0-5c4263a6d384;["container_1_Consume_and_count_1"];4.25;1533114514.32719;35.06;358.48;7.794738053;10;151
2;paravance-2.rennes.grid5000.fr;thermos-root-devel-WordCountTopology-2-f0da56d4-2a9d-4a75-9f3e-4e10ab53d814;["container_2_Emit_random_words_2"];4.25;1533114514.32717;9.34;193.5;2.748684678;10;149
2;paravance-21.rennes.grid5000.fr;thermos-root-devel-WordCountTopology-0-006cbb0e-9e95-4958-8c78-686c52212975;["topology_master"];4.25;1533114514.32464;2.59;8.28;0.003124708;9;117
3;paravance-2.rennes.grid5000.fr;thermos-root-devel-WordCountTopology-2-f0da56d4-2a9d-4a75-9f3e-4e10ab53d814;["container_2_Emit_random_words_2"];4.25;1533114524.54227;9.71;201.41;2.748684678;10;149
3;paravance-21.rennes.grid5000.fr;thermos-root-devel-WordCountTopology-0-006cbb0e-9e95-4958-8c78-686c52212975;["topology_master"];4.25;1533114524.54062;2.68;8.42;0.003124708;9;117
3;paravance-22.rennes.grid5000.fr;thermos-root-devel-WordCountTopology-1-2d3f3772-060f-457f-8be0-5c4263a6d384;["container_1_Consume_and_count_1"];4.25;1533114524.54759;36.43;378.63;8.023389034;10;151
4;paravance-22.rennes.grid5000.fr;thermos-root-devel-WordCountTopology-1-2d3f3772-060f-457f-8be0-5c4263a6d384;["container_1_Consume_and_count_1"];4.25;1533114534.76267;37.78;402.07;8.418872582;10;151
4;paravance-2.rennes.grid5000.fr;thermos-root-devel-WordCountTopology-2-f0da56d4-2a9d-4a75-9f3e-4e10ab53d814;["container_2_Emit_random_words_2"];4.25;1533114534.75976;10.1;209.95;2.748684678;10;149
4;paravance-21.rennes.grid5000.fr;thermos-root-devel-WordCountTopology-0-006cbb0e-9e95-4958-8c78-686c52212975;["topology_master"];4.25;1533114534.75632;2.74;8.49;0.003124708;9;117
5;paravance-2.rennes.grid5000.fr;thermos-root-devel-WordCountTopology-2-f0da56d4-2a9d-4a75-9f3e-4e10ab53d814;["container_2_Emit_random_words_2"];4.25;1533114544.97566;10.6;221.28;2.748684678;10;149
5;paravance-22.rennes.grid5000.fr;thermos-root-devel-WordCountTopology-1-2d3f3772-060f-457f-8be0-5c4263a6d384;["container_1_Consume_and_count_1"];4.25;1533114544.97994;40.32;436.93;9.266586538;10;151
5;paravance-21.rennes.grid5000.fr;thermos-root-devel-WordCountTopology-0-006cbb0e-9e95-4958-8c78-686c52212975;["topology_master"];4.25;1533114544.97452;2.84;8.67;0.003124708;9;117
6;paravance-22.rennes.grid5000.fr;thermos-root-devel-WordCountTopology-1-2d3f3772-060f-457f-8be0-5c4263a6d384;["container_1_Consume_and_count_1"];4.25;1533114555.19675;42.95;470.38;9.543554214;10;151
6;paravance-21.rennes.grid5000.fr;thermos-root-devel-WordCountTopology-0-006cbb0e-9e95-4958-8c78-686c52212975;["topology_master"];4.25;1533114555.18976;2.9;8.75;0.003124708;9;117
6;paravance-2.rennes.grid5000.fr;thermos-root-devel-WordCountTopology-2-f0da56d4-2a9d-4a75-9f3e-4e10ab53d814;["container_2_Emit_random_words_2"];4.25;1533114555.195;11.04;231.37;2.748684678;10;149
7;paravance-2.rennes.grid5000.fr;thermos-root-devel-WordCountTopology-2-f0da56d4-2a9d-4a75-9f3e-4e10ab53d814;["container_2_Emit_random_words_2"];4.25;1533114565.40965;11.76;249.7;2.748684678;10;149
7;paravance-22.rennes.grid5000.fr;thermos-root-devel-WordCountTopology-1-2d3f3772-060f-457f-8be0-5c4263a6d384;["container_1_Consume_and_count_1"];4.25;1533114565.41354;45.35;505.38;10.483110729;10;151
7;paravance-21.rennes.grid5000.fr;thermos-root-devel-WordCountTopology-0-006cbb0e-9e95-4958-8c78-686c52212975;["topology_master"];4.25;1533114565.40819;2.99;8.89;0.003124708;9;117
8;paravance-2.rennes.grid5000.fr;thermos-root-devel-WordCountTopology-2-f0da56d4-2a9d-4a75-9f3e-4e10ab53d814;["container_2_Emit_random_words_2"];4.25;1533114575.62739;12.37;267.66;2.748684678;10;149
8;paravance-22.rennes.grid5000.fr;thermos-root-devel-WordCountTopology-1-2d3f3772-060f-457f-8be0-5c4263a6d384;["container_1_Consume_and_count_1"];4.25;1533114575.63103;48.93;530.35;10.486097823;10;151
8;paravance-21.rennes.grid5000.fr;thermos-root-devel-WordCountTopology-0-006cbb0e-9e95-4958-8c78-686c52212975;["topology_master"];4.25;1533114575.62533;3.02;8.91;0.003124708;9;117
9;paravance-2.rennes.grid5000.fr;thermos-root-devel-WordCountTopology-2-f0da56d4-2a9d-4a75-9f3e-4e10ab53d814;["container_2_Emit_random_words_2"];4.25;1533114585.844;13.05;285.82;2.748684678;10;149
9;paravance-21.rennes.grid5000.fr;thermos-root-devel-WordCountTopology-0-006cbb0e-9e95-4958-8c78-686c52212975;["topology_master"];4.25;1533114585.84159;3.11;9.05;0.003124708;9;117
9;paravance-22.rennes.grid5000.fr;thermos-root-devel-WordCountTopology-1-2d3f3772-060f-457f-8be0-5c4263a6d384;["container_1_Consume_and_count_1"];4.25;1533114585.84895;52.22;554.42;10.486097823;10;151
10;paravance-22.rennes.grid5000.fr;thermos-root-devel-WordCountTopology-1-2d3f3772-060f-457f-8be0-5c4263a6d384;["container_1_Consume_and_count_1"];4.25;1533114596.06469;56.0;584.3;10.612667869;10;151
10;paravance-2.rennes.grid5000.fr;thermos-root-devel-WordCountTopology-2-f0da56d4-2a9d-4a75-9f3e-4e10ab53d814;["container_2_Emit_random_words_2"];4.25;1533114596.06185;13.71;304.03;2.748684678;10;149
10;paravance-21.rennes.grid5000.fr;thermos-root-devel-WordCountTopology-0-006cbb0e-9e95-4958-8c78-686c52212975;["topology_master"];4.25;1533114596.05848;3.17;9.12;0.003124708;9;117
11;paravance-22.rennes.grid5000.fr;thermos-root-devel-WordCountTopology-1-2d3f3772-060f-457f-8be0-5c4263a6d384;["container_1_Consume_and_count_1"];4.25;1533114606.28014;58.81;618.71;11.436288557;10;151
11;paravance-2.rennes.grid5000.fr;thermos-root-devel-WordCountTopology-2-f0da56d4-2a9d-4a75-9f3e-4e10ab53d814;["container_2_Emit_random_words_2"];4.25;1533114606.27837;14.39;322.09;2.748684678;10;149
11;paravance-21.rennes.grid5000.fr;thermos-root-devel-WordCountTopology-0-006cbb0e-9e95-4958-8c78-686c52212975;["topology_master"];4.25;1533114606.27458;3.29;9.39;0.003124708;9;117
12;paravance-22.rennes.grid5000.fr;thermos-root-devel-WordCountTopology-1-2d3f3772-060f-457f-8be0-5c4263a6d384;["container_1_Consume_and_count_1"];4.25;1533114616.50339;62.09;641.68;11.436288557;10;151
12;paravance-2.rennes.grid5000.fr;thermos-root-devel-WordCountTopology-2-f0da56d4-2a9d-4a75-9f3e-4e10ab53d814;["container_2_Emit_random_words_2"];4.25;1533114616.5;15.0;340.23;2.748684678;10;149
12;paravance-21.rennes.grid5000.fr;thermos-root-devel-WordCountTopology-0-006cbb0e-9e95-4958-8c78-686c52212975;["topology_master"];4.25;1533114616.49765;3.32;9.41;0.003124708;9;117
13;paravance-22.rennes.grid5000.fr;thermos-root-devel-WordCountTopology-1-2d3f3772-060f-457f-8be0-5c4263a6d384;["container_1_Consume_and_count_1"];4.25;1533114626.72082;65.6;668.38;11.518250396;10;151
13;paravance-2.rennes.grid5000.fr;thermos-root-devel-WordCountTopology-2-f0da56d4-2a9d-4a75-9f3e-4e10ab53d814;["container_2_Emit_random_words_2"];4.25;1533114626.71794;15.69;358.67;2.748684678;10;149
13;paravance-21.rennes.grid5000.fr;thermos-root-devel-WordCountTopology-0-006cbb0e-9e95-4958-8c78-686c52212975;["topology_master"];4.25;1533114626.71538;3.41;9.56;0.003124708;9;117
14;paravance-21.rennes.grid5000.fr;thermos-root-devel-WordCountTopology-0-006cbb0e-9e95-4958-8c78-686c52212975;["topology_master"];4.25;1533114636.93251;3.47;9.63;0.003124708;9;117
14;paravance-2.rennes.grid5000.fr;thermos-root-devel-WordCountTopology-2-f0da56d4-2a9d-4a75-9f3e-4e10ab53d814;["container_2_Emit_random_words_2"];4.25;1533114636.94085;16.34;376.82;2.748684678;10;149
14;paravance-22.rennes.grid5000.fr;thermos-root-devel-WordCountTopology-1-2d3f3772-060f-457f-8be0-5c4263a6d384;["container_1_Consume_and_count_1"];4.25;1533114636.94894;67.93;703.36;12.447027816;10;151
15;paravance-22.rennes.grid5000.fr;thermos-root-devel-WordCountTopology-1-2d3f3772-060f-457f-8be0-5c4263a6d384;["container_1_Consume_and_count_1"];4.25;1533114647.16308;71.22;736.97;13.103737868;10;151
15;paravance-21.rennes.grid5000.fr;thermos-root-devel-WordCountTopology-0-006cbb0e-9e95-4958-8c78-686c52212975;["topology_master"];4.25;1533114647.15771;3.54;9.72;0.003124708;9;117
15;paravance-2.rennes.grid5000.fr;thermos-root-devel-WordCountTopology-2-f0da56d4-2a9d-4a75-9f3e-4e10ab53d814;["container_2_Emit_random_words_2"];4.25;1533114647.16112;16.99;394.81;2.748684678;10;149
16;paravance-22.rennes.grid5000.fr;thermos-root-devel-WordCountTopology-1-2d3f3772-060f-457f-8be0-5c4263a6d384;["container_1_Consume_and_count_1"];4.25;1533114657.37917;74.19;773.19;14.001325182;10;151
16;paravance-2.rennes.grid5000.fr;thermos-root-devel-WordCountTopology-2-f0da56d4-2a9d-4a75-9f3e-4e10ab53d814;["container_2_Emit_random_words_2"];4.25;1533114657.37684;17.66;412.98;2.748684678;10;149
16;paravance-21.rennes.grid5000.fr;thermos-root-devel-WordCountTopology-0-006cbb0e-9e95-4958-8c78-686c52212975;["topology_master"];4.25;1533114657.37458;3.59;9.8;0.003124708;9;117
17;paravance-22.rennes.grid5000.fr;thermos-root-devel-WordCountTopology-1-2d3f3772-060f-457f-8be0-5c4263a6d384;["container_1_Consume_and_count_1"];4.25;1533114667.59528;76.61;806.71;14.666040446;10;151
17;paravance-2.rennes.grid5000.fr;thermos-root-devel-WordCountTopology-2-f0da56d4-2a9d-4a75-9f3e-4e10ab53d814;["container_2_Emit_random_words_2"];4.25;1533114667.59409;18.23;426.9;2.748684678;10;149
17;paravance-21.rennes.grid5000.fr;thermos-root-devel-WordCountTopology-0-006cbb0e-9e95-4958-8c78-686c52212975;["topology_master"];4.25;1533114667.59099;3.71;10.01;0.003124708;9;117
18;paravance-21.rennes.grid5000.fr;thermos-root-devel-WordCountTopology-0-006cbb0e-9e95-4958-8c78-686c52212975;["topology_master"];4.25;1533114677.80593;3.74;10.03;0.003124708;9;117
18;paravance-22.rennes.grid5000.fr;thermos-root-devel-WordCountTopology-1-2d3f3772-060f-457f-8be0-5c4263a6d384;["container_1_Consume_and_count_1"];4.25;1533114677.81346;79.49;843.2;15.590466837;10;151
18;paravance-2.rennes.grid5000.fr;thermos-root-devel-WordCountTopology-2-f0da56d4-2a9d-4a75-9f3e-4e10ab53d814;["container_2_Emit_random_words_2"];4.25;1533114677.81062;18.79;442.4;2.748684678;10;149
19;paravance-22.rennes.grid5000.fr;thermos-root-devel-WordCountTopology-1-2d3f3772-060f-457f-8be0-5c4263a6d384;["container_1_Consume_and_count_1"];4.25;1533114688.0301;82.55;879.77;16.604230336;10;151
19;paravance-2.rennes.grid5000.fr;thermos-root-devel-WordCountTopology-2-f0da56d4-2a9d-4a75-9f3e-4e10ab53d814;["container_2_Emit_random_words_2"];4.25;1533114688.02906;19.52;460.74;2.748684678;10;149
19;paravance-21.rennes.grid5000.fr;thermos-root-devel-WordCountTopology-0-006cbb0e-9e95-4958-8c78-686c52212975;["topology_master"];4.25;1533114688.02526;3.83;10.16;0.003124708;9;117
20;paravance-2.rennes.grid5000.fr;thermos-root-devel-WordCountTopology-2-f0da56d4-2a9d-4a75-9f3e-4e10ab53d814;["container_2_Emit_random_words_2"];4.25;1533114698.24422;20.19;479.12;2.748684678;10;149
20;paravance-22.rennes.grid5000.fr;thermos-root-devel-WordCountTopology-1-2d3f3772-060f-457f-8be0-5c4263a6d384;["container_1_Consume_and_count_1"];4.25;1533114698.24854;85.64;915.75;17.516232548;10;151
20;paravance-21.rennes.grid5000.fr;thermos-root-devel-WordCountTopology-0-006cbb0e-9e95-4958-8c78-686c52212975;["topology_master"];4.25;1533114698.24119;3.88;10.24;0.003124708;9;117
21;paravance-21.rennes.grid5000.fr;thermos-root-devel-WordCountTopology-0-006cbb0e-9e95-4958-8c78-686c52212975;["topology_master"];4.25;1533114708.45678;3.94;10.31;0.003124708;9;117
21;paravance-2.rennes.grid5000.fr;thermos-root-devel-WordCountTopology-2-f0da56d4-2a9d-4a75-9f3e-4e10ab53d814;["container_2_Emit_random_words_2"];4.25;1533114708.46067;20.87;497.42;2.748684678;10;149
21;paravance-22.rennes.grid5000.fr;thermos-root-devel-WordCountTopology-1-2d3f3772-060f-457f-8be0-5c4263a6d384;["container_1_Consume_and_count_1"];4.25;1533114708.46518;88.95;951.48;18.400954427;10;151
22;paravance-22.rennes.grid5000.fr;thermos-root-devel-WordCountTopology-1-2d3f3772-060f-457f-8be0-5c4263a6d384;["container_1_Consume_and_count_1"];4.25;1533114718.67837;92.09;982.44;18.856165392;10;151
22;paravance-2.rennes.grid5000.fr;thermos-root-devel-WordCountTopology-2-f0da56d4-2a9d-4a75-9f3e-4e10ab53d814;["container_2_Emit_random_words_2"];4.25;1533114718.67672;21.5;515.5;2.748684678;10;149
22;paravance-21.rennes.grid5000.fr;thermos-root-devel-WordCountTopology-0-006cbb0e-9e95-4958-8c78-686c52212975;["topology_master"];4.25;1533114718.67262;3.99;10.38;0.003124708;9;117
23;paravance-22.rennes.grid5000.fr;thermos-root-devel-WordCountTopology-1-2d3f3772-060f-457f-8be0-5c4263a6d384;["container_1_Consume_and_count_1"];4.25;1533114728.89554;96.05;1008.44;18.874139346;10;151
23;paravance-2.rennes.grid5000.fr;thermos-root-devel-WordCountTopology-2-f0da56d4-2a9d-4a75-9f3e-4e10ab53d814;["container_2_Emit_random_words_2"];4.25;1533114728.89342;22.19;533.8;2.748684678;10;149
23;paravance-21.rennes.grid5000.fr;thermos-root-devel-WordCountTopology-0-006cbb0e-9e95-4958-8c78-686c52212975;["topology_master"];4.25;1533114728.88931;4.11;10.55;0.003124708;9;117
24;paravance-21.rennes.grid5000.fr;thermos-root-devel-WordCountTopology-0-006cbb0e-9e95-4958-8c78-686c52212975;["topology_master"];4.25;1533114739.10419;4.14;10.58;0.003124708;9;117
24;paravance-22.rennes.grid5000.fr;thermos-root-devel-WordCountTopology-1-2d3f3772-060f-457f-8be0-5c4263a6d384;["container_1_Consume_and_count_1"];4.25;1533114739.11367;99.83;1033.97;18.874139346;10;151
24;paravance-2.rennes.grid5000.fr;thermos-root-devel-WordCountTopology-2-f0da56d4-2a9d-4a75-9f3e-4e10ab53d814;["container_2_Emit_random_words_2"];4.25;1533114739.10983;22.82;551.97;2.748684678;10;149
25;paravance-22.rennes.grid5000.fr;thermos-root-devel-WordCountTopology-1-2d3f3772-060f-457f-8be0-5c4263a6d384;["container_1_Consume_and_count_1"];4.25;1533114749.32802;103.52;1059.73;18.874139346;10;151
25;paravance-2.rennes.grid5000.fr;thermos-root-devel-WordCountTopology-2-f0da56d4-2a9d-4a75-9f3e-4e10ab53d814;["container_2_Emit_random_words_2"];4.25;1533114749.32536;23.52;570.17;2.748684678;10;149
25;paravance-21.rennes.grid5000.fr;thermos-root-devel-WordCountTopology-0-006cbb0e-9e95-4958-8c78-686c52212975;["topology_master"];4.25;1533114749.32206;4.22;10.7;0.003124708;9;117
26;paravance-21.rennes.grid5000.fr;thermos-root-devel-WordCountTopology-0-006cbb0e-9e95-4958-8c78-686c52212975;["topology_master"];4.25;1533114759.53676;4.28;10.77;0.003124708;9;117
26;paravance-2.rennes.grid5000.fr;thermos-root-devel-WordCountTopology-2-f0da56d4-2a9d-4a75-9f3e-4e10ab53d814;["container_2_Emit_random_words_2"];4.25;1533114759.54084;24.17;588.35;2.748684678;10;149
26;paravance-22.rennes.grid5000.fr;thermos-root-devel-WordCountTopology-1-2d3f3772-060f-457f-8be0-5c4263a6d384;["container_1_Consume_and_count_1"];4.25;1533114759.54531;106.76;1083.88;18.874139346;10;151
27;paravance-21.rennes.grid5000.fr;thermos-root-devel-WordCountTopology-0-006cbb0e-9e95-4958-8c78-686c52212975;["topology_master"];4.25;1533114769.75296;4.34;10.85;0.003124708;9;117
27;paravance-2.rennes.grid5000.fr;thermos-root-devel-WordCountTopology-2-f0da56d4-2a9d-4a75-9f3e-4e10ab53d814;["container_2_Emit_random_words_2"];4.25;1533114769.75718;24.83;606.47;2.748684678;10;149
27;paravance-22.rennes.grid5000.fr;thermos-root-devel-WordCountTopology-1-2d3f3772-060f-457f-8be0-5c4263a6d384;["container_1_Consume_and_count_1"];4.25;1533114769.76295;110.07;1108.26;18.874139346;10;151
28;paravance-21.rennes.grid5000.fr;thermos-root-devel-WordCountTopology-0-006cbb0e-9e95-4958-8c78-686c52212975;["topology_master"];4.25;1533114779.96986;4.43;10.98;0.003124708;9;117
28;paravance-22.rennes.grid5000.fr;thermos-root-devel-WordCountTopology-1-2d3f3772-060f-457f-8be0-5c4263a6d384;["container_1_Consume_and_count_1"];4.25;1533114779.97999;113.67;1133.52;18.874139346;10;151
28;paravance-2.rennes.grid5000.fr;thermos-root-devel-WordCountTopology-2-f0da56d4-2a9d-4a75-9f3e-4e10ab53d814;["container_2_Emit_random_words_2"];4.25;1533114779.97582;25.52;624.62;2.748684678;10;149
29;paravance-21.rennes.grid5000.fr;thermos-root-devel-WordCountTopology-0-006cbb0e-9e95-4958-8c78-686c52212975;["topology_master"];4.25;1533114790.18848;4.5;11.12;0.003124708;9;117
29;paravance-22.rennes.grid5000.fr;thermos-root-devel-WordCountTopology-1-2d3f3772-060f-457f-8be0-5c4263a6d384;["container_1_Consume_and_count_1"];4.25;1533114790.19636;117.0;1158.45;18.874139346;10;151
29;paravance-2.rennes.grid5000.fr;thermos-root-devel-WordCountTopology-2-f0da56d4-2a9d-4a75-9f3e-4e10ab53d814;["container_2_Emit_random_words_2"];4.25;1533114790.19278;26.18;642.94;2.748684678;10;149
30;paravance-22.rennes.grid5000.fr;thermos-root-devel-WordCountTopology-1-2d3f3772-060f-457f-8be0-5c4263a6d384;["container_1_Consume_and_count_1"];4.25;1533114800.41481;120.59;1184.57;18.874139346;10;151
30;paravance-2.rennes.grid5000.fr;thermos-root-devel-WordCountTopology-2-f0da56d4-2a9d-4a75-9f3e-4e10ab53d814;["container_2_Emit_random_words_2"];4.25;1533114800.41231;26.84;661.1;2.748684678;10;149
30;paravance-21.rennes.grid5000.fr;thermos-root-devel-WordCountTopology-0-006cbb0e-9e95-4958-8c78-686c52212975;["topology_master"];4.25;1533114800.4088;4.56;11.2;0.003124708;9;117
31;paravance-2.rennes.grid5000.fr;thermos-root-devel-WordCountTopology-2-f0da56d4-2a9d-4a75-9f3e-4e10ab53d814;["container_2_Emit_random_words_2"];4.25;1533114810.62797;27.48;679.15;2.748684678;10;149
31;paravance-21.rennes.grid5000.fr;thermos-root-devel-WordCountTopology-0-006cbb0e-9e95-4958-8c78-686c52212975;["topology_master"];4.25;1533114810.62489;4.61;11.27;0.003124708;9;117
31;paravance-22.rennes.grid5000.fr;thermos-root-devel-WordCountTopology-1-2d3f3772-060f-457f-8be0-5c4263a6d384;["container_1_Consume_and_count_1"];4.25;1533114810.63382;123.99;1209.18;18.874139346;10;151
32;paravance-2.rennes.grid5000.fr;thermos-root-devel-WordCountTopology-2-f0da56d4-2a9d-4a75-9f3e-4e10ab53d814;["container_2_Emit_random_words_2"];4.25;1533114820.84605;28.16;697.48;2.748684678;10;149
32;paravance-21.rennes.grid5000.fr;thermos-root-devel-WordCountTopology-0-006cbb0e-9e95-4958-8c78-686c52212975;["topology_master"];4.25;1533114820.84194;4.7;11.39;0.003124708;9;117
32;paravance-22.rennes.grid5000.fr;thermos-root-devel-WordCountTopology-1-2d3f3772-060f-457f-8be0-5c4263a6d384;["container_1_Consume_and_count_1"];4.25;1533114820.85083;127.22;1233.37;18.874139346;10;151
33;paravance-22.rennes.grid5000.fr;thermos-root-devel-WordCountTopology-1-2d3f3772-060f-457f-8be0-5c4263a6d384;["container_1_Consume_and_count_1"];4.25;1533114831.06738;130.45;1257.97;18.874139346;10;151
33;paravance-21.rennes.grid5000.fr;thermos-root-devel-WordCountTopology-0-006cbb0e-9e95-4958-8c78-686c52212975;["topology_master"];4.25;1533114831.05958;4.73;11.42;0.003124708;9;117
33;paravance-2.rennes.grid5000.fr;thermos-root-devel-WordCountTopology-2-f0da56d4-2a9d-4a75-9f3e-4e10ab53d814;["container_2_Emit_random_words_2"];4.25;1533114831.06323;28.8;715.78;2.748684678;10;149
34;paravance-2.rennes.grid5000.fr;thermos-root-devel-WordCountTopology-2-f0da56d4-2a9d-4a75-9f3e-4e10ab53d814;["container_2_Emit_random_words_2"];4.25;1533114841.28124;29.42;733.58;2.748684678;10;149
34;paravance-22.rennes.grid5000.fr;thermos-root-devel-WordCountTopology-1-2d3f3772-060f-457f-8be0-5c4263a6d384;["container_1_Consume_and_count_1"];4.25;1533114841.286;133.61;1281.27;18.874139346;10;151
34;paravance-21.rennes.grid5000.fr;thermos-root-devel-WordCountTopology-0-006cbb0e-9e95-4958-8c78-686c52212975;["topology_master"];4.25;1533114841.27789;4.83;11.55;0.003124708;9;117
35;paravance-22.rennes.grid5000.fr;thermos-root-devel-WordCountTopology-1-2d3f3772-060f-457f-8be0-5c4263a6d384;["container_1_Consume_and_count_1"];4.25;1533114851.50135;137.07;1306.51;18.874139346;10;151
35;paravance-21.rennes.grid5000.fr;thermos-root-devel-WordCountTopology-0-006cbb0e-9e95-4958-8c78-686c52212975;["topology_master"];4.25;1533114851.49391;4.89;11.67;0.003124708;9;117
35;paravance-2.rennes.grid5000.fr;thermos-root-devel-WordCountTopology-2-f0da56d4-2a9d-4a75-9f3e-4e10ab53d814;["container_2_Emit_random_words_2"];4.25;1533114851.49939;30.09;751.85;2.748684678;10;149
36;paravance-2.rennes.grid5000.fr;thermos-root-devel-WordCountTopology-2-f0da56d4-2a9d-4a75-9f3e-4e10ab53d814;["container_2_Emit_random_words_2"];4.25;1533114861.71533;30.75;770.07;2.748684678;10;149
36;paravance-22.rennes.grid5000.fr;thermos-root-devel-WordCountTopology-1-2d3f3772-060f-457f-8be0-5c4263a6d384;["container_1_Consume_and_count_1"];4.25;1533114861.72;140.6;1329.65;18.874139346;10;151
36;paravance-21.rennes.grid5000.fr;thermos-root-devel-WordCountTopology-0-006cbb0e-9e95-4958-8c78-686c52212975;["topology_master"];4.25;1533114861.71251;4.94;11.74;0.003124708;9;117
37;paravance-2.rennes.grid5000.fr;thermos-root-devel-WordCountTopology-2-f0da56d4-2a9d-4a75-9f3e-4e10ab53d814;["container_2_Emit_random_words_2"];4.25;1533114871.93187;31.39;788.16;2.748684678;10;149
37;paravance-22.rennes.grid5000.fr;thermos-root-devel-WordCountTopology-1-2d3f3772-060f-457f-8be0-5c4263a6d384;["container_1_Consume_and_count_1"];4.25;1533114871.93605;143.77;1357.23;19.054880635;10;151
37;paravance-21.rennes.grid5000.fr;thermos-root-devel-WordCountTopology-0-006cbb0e-9e95-4958-8c78-686c52212975;["topology_master"];4.25;1533114871.92798;5.0;11.81;0.003124708;9;117
38;paravance-2.rennes.grid5000.fr;thermos-root-devel-WordCountTopology-2-f0da56d4-2a9d-4a75-9f3e-4e10ab53d814;["container_2_Emit_random_words_2"];4.25;1533114882.14653;32.08;806.51;2.748684678;10;149
38;paravance-22.rennes.grid5000.fr;thermos-root-devel-WordCountTopology-1-2d3f3772-060f-457f-8be0-5c4263a6d384;["container_1_Consume_and_count_1"];4.25;1533114882.14994;147.29;1388.19;19.440960909;10;151
38;paravance-21.rennes.grid5000.fr;thermos-root-devel-WordCountTopology-0-006cbb0e-9e95-4958-8c78-686c52212975;["topology_master"];4.25;1533114882.14284;5.09;11.93;0.003124708;9;117
39;paravance-21.rennes.grid5000.fr;thermos-root-devel-WordCountTopology-0-006cbb0e-9e95-4958-8c78-686c52212975;["topology_master"];4.25;1533114892.35915;5.12;11.96;0.003124708;9;117
39;paravance-22.rennes.grid5000.fr;thermos-root-devel-WordCountTopology-1-2d3f3772-060f-457f-8be0-5c4263a6d384;["container_1_Consume_and_count_1"];4.25;1533114892.368;150.0;1422.81;20.134405827;10;151
39;paravance-2.rennes.grid5000.fr;thermos-root-devel-WordCountTopology-2-f0da56d4-2a9d-4a75-9f3e-4e10ab53d814;["container_2_Emit_random_words_2"];4.25;1533114892.36401;32.68;824.44;2.748684678;10;149
40;paravance-21.rennes.grid5000.fr;thermos-root-devel-WordCountTopology-0-006cbb0e-9e95-4958-8c78-686c52212975;["topology_master"];4.25;1533114902.57662;5.21;12.09;0.003124708;9;117
40;paravance-2.rennes.grid5000.fr;thermos-root-devel-WordCountTopology-2-f0da56d4-2a9d-4a75-9f3e-4e10ab53d814;["container_2_Emit_random_words_2"];4.25;1533114902.5814;33.38;842.72;2.748684678;10;149
40;paravance-22.rennes.grid5000.fr;thermos-root-devel-WordCountTopology-1-2d3f3772-060f-457f-8be0-5c4263a6d384;["container_1_Consume_and_count_1"];4.25;1533114902.58582;153.33;1457.61;20.768459031;10;151
41;paravance-22.rennes.grid5000.fr;thermos-root-devel-WordCountTopology-1-2d3f3772-060f-457f-8be0-5c4263a6d384;["container_1_Consume_and_count_1"];4.25;1533114912.80449;156.11;1493.06;21.662544516;10;151
41;paravance-21.rennes.grid5000.fr;thermos-root-devel-WordCountTopology-0-006cbb0e-9e95-4958-8c78-686c52212975;["topology_master"];4.25;1533114912.79794;5.27;12.22;0.003124708;9;117
41;paravance-2.rennes.grid5000.fr;thermos-root-devel-WordCountTopology-2-f0da56d4-2a9d-4a75-9f3e-4e10ab53d814;["container_2_Emit_random_words_2"];4.25;1533114912.80144;34.05;860.89;2.748684678;10;149
42;paravance-21.rennes.grid5000.fr;thermos-root-devel-WordCountTopology-0-006cbb0e-9e95-4958-8c78-686c52212975;["topology_master"];4.25;1533114923.01423;5.36;12.35;0.003124708;9;117
42;paravance-22.rennes.grid5000.fr;thermos-root-devel-WordCountTopology-1-2d3f3772-060f-457f-8be0-5c4263a6d384;["container_1_Consume_and_count_1"];4.25;1533114923.02315;158.56;1527.98;22.417761663;10;151
42;paravance-2.rennes.grid5000.fr;thermos-root-devel-WordCountTopology-2-f0da56d4-2a9d-4a75-9f3e-4e10ab53d814;["container_2_Emit_random_words_2"];4.25;1533114923.01961;34.55;872.83;2.748684678;10;149
43;paravance-22.rennes.grid5000.fr;thermos-root-devel-WordCountTopology-1-2d3f3772-060f-457f-8be0-5c4263a6d384;["container_1_Consume_and_count_1"];4.25;1533114933.13818;161.72;1560.92;22.810778757;10;151
43;paravance-2.rennes.grid5000.fr;thermos-root-devel-WordCountTopology-2-f0da56d4-2a9d-4a75-9f3e-4e10ab53d814;["container_2_Emit_random_words_2"];4.25;1533114933.23553;35.18;890.96;2.748684678;10;149
43;paravance-21.rennes.grid5000.fr;thermos-root-devel-WordCountTopology-0-006cbb0e-9e95-4958-8c78-686c52212975;["topology_master"];4.25;1533114933.24416;5.38;12.38;0.003124708;9;117
44;paravance-22.rennes.grid5000.fr;thermos-root-devel-WordCountTopology-1-2d3f3772-060f-457f-8be0-5c4263a6d384;["container_1_Consume_and_count_1"];4.25;1533114943.46512;164.55;1595.07;23.4879089;10;151
44;paravance-2.rennes.grid5000.fr;thermos-root-devel-WordCountTopology-2-f0da56d4-2a9d-4a75-9f3e-4e10ab53d814;["container_2_Emit_random_words_2"];4.25;1533114943.46298;35.86;909.22;2.748684678;10;149
44;paravance-21.rennes.grid5000.fr;thermos-root-devel-WordCountTopology-0-006cbb0e-9e95-4958-8c78-686c52212975;["topology_master"];4.25;1533114943.46041;5.47;12.5;0.003124708;9;117
45;paravance-22.rennes.grid5000.fr;thermos-root-devel-WordCountTopology-1-2d3f3772-060f-457f-8be0-5c4263a6d384;["container_1_Consume_and_count_1"];4.25;1533114953.68096;166.96;1628.33;24.188513877;10;151
45;paravance-2.rennes.grid5000.fr;thermos-root-devel-WordCountTopology-2-f0da56d4-2a9d-4a75-9f3e-4e10ab53d814;["container_2_Emit_random_words_2"];4.25;1533114953.67771;36.3;920.58;2.748684678;10;149
45;paravance-21.rennes.grid5000.fr;thermos-root-devel-WordCountTopology-0-006cbb0e-9e95-4958-8c78-686c52212975;["topology_master"];4.25;1533114953.67437;5.53;12.57;0.003124708;9;117
46;paravance-2.rennes.grid5000.fr;thermos-root-devel-WordCountTopology-2-f0da56d4-2a9d-4a75-9f3e-4e10ab53d814;["container_2_Emit_random_words_2"];4.25;1533114963.79467;36.91;937.19;2.748684678;10;149
46;paravance-22.rennes.grid5000.fr;thermos-root-devel-WordCountTopology-1-2d3f3772-060f-457f-8be0-5c4263a6d384;["container_1_Consume_and_count_1"];4.25;1533114963.89709;170.06;1661.84;24.610229258;10;151
46;paravance-21.rennes.grid5000.fr;thermos-root-devel-WordCountTopology-0-006cbb0e-9e95-4958-8c78-686c52212975;["topology_master"];4.25;1533114963.88928;5.59;12.66;0.003124708;9;117
47;paravance-22.rennes.grid5000.fr;thermos-root-devel-WordCountTopology-1-2d3f3772-060f-457f-8be0-5c4263a6d384;["container_1_Consume_and_count_1"];4.25;1533114974.11187;172.51;1697.69;25.558567356;10;151
47;paravance-21.rennes.grid5000.fr;thermos-root-devel-WordCountTopology-0-006cbb0e-9e95-4958-8c78-686c52212975;["topology_master"];4.25;1533114974.10362;5.66;12.77;0.003124708;9;117
47;paravance-2.rennes.grid5000.fr;thermos-root-devel-WordCountTopology-2-f0da56d4-2a9d-4a75-9f3e-4e10ab53d814;["container_2_Emit_random_words_2"];4.25;1533114974.10802;37.48;951.29;2.748684678;10;149
48;paravance-22.rennes.grid5000.fr;thermos-root-devel-WordCountTopology-1-2d3f3772-060f-457f-8be0-5c4263a6d384;["container_1_Consume_and_count_1"];4.25;1533114984.32753;175.25;1734.24;26.545578751;10;151
48;paravance-2.rennes.grid5000.fr;thermos-root-devel-WordCountTopology-2-f0da56d4-2a9d-4a75-9f3e-4e10ab53d814;["container_2_Emit_random_words_2"];4.25;1533114984.32513;38.04;964.39;2.748684678;10;149
48;paravance-21.rennes.grid5000.fr;thermos-root-devel-WordCountTopology-0-006cbb0e-9e95-4958-8c78-686c52212975;["topology_master"];4.25;1533114984.32215;5.75;12.9;0.003124708;9;117
49;paravance-22.rennes.grid5000.fr;thermos-root-devel-WordCountTopology-1-2d3f3772-060f-457f-8be0-5c4263a6d384;["container_1_Consume_and_count_1"];4.25;1533114994.54329;178.07;1766.0;26.823220887;10;151
49;paravance-2.rennes.grid5000.fr;thermos-root-devel-WordCountTopology-2-f0da56d4-2a9d-4a75-9f3e-4e10ab53d814;["container_2_Emit_random_words_2"];4.25;1533114994.53996;38.36;972.15;2.748684678;10;149
49;paravance-21.rennes.grid5000.fr;thermos-root-devel-WordCountTopology-0-006cbb0e-9e95-4958-8c78-686c52212975;["topology_master"];4.25;1533114994.53574;5.77;12.93;0.003124708;9;117
50;paravance-22.rennes.grid5000.fr;thermos-root-devel-WordCountTopology-1-2d3f3772-060f-457f-8be0-5c4263a6d384;["container_1_Consume_and_count_1"];4.25;1533115004.75948;180.72;1800.19;27.804540795;10;151
50;paravance-2.rennes.grid5000.fr;thermos-root-devel-WordCountTopology-2-f0da56d4-2a9d-4a75-9f3e-4e10ab53d814;["container_2_Emit_random_words_2"];4.25;1533115004.75717;39.05;990.33;2.748684678;10;149
50;paravance-21.rennes.grid5000.fr;thermos-root-devel-WordCountTopology-0-006cbb0e-9e95-4958-8c78-686c52212975;["topology_master"];4.25;1533115004.75295;5.87;13.07;0.003124708;9;117
51;paravance-21.rennes.grid5000.fr;thermos-root-devel-WordCountTopology-0-006cbb0e-9e95-4958-8c78-686c52212975;["topology_master"];4.25;1533115014.97154;5.92;13.13;0.003124708;9;117
51;paravance-22.rennes.grid5000.fr;thermos-root-devel-WordCountTopology-1-2d3f3772-060f-457f-8be0-5c4263a6d384;["container_1_Consume_and_count_1"];4.25;1533115014.98141;183.33;1833.69;28.482172897;10;151
51;paravance-2.rennes.grid5000.fr;thermos-root-devel-WordCountTopology-2-f0da56d4-2a9d-4a75-9f3e-4e10ab53d814;["container_2_Emit_random_words_2"];4.25;1533115014.97577;39.64;1005.94;2.748684678;10;149
52;paravance-22.rennes.grid5000.fr;thermos-root-devel-WordCountTopology-1-2d3f3772-060f-457f-8be0-5c4263a6d384;["container_1_Consume_and_count_1"];4.25;1533115025.19842;186.71;1865.55;28.746952988;10;151
52;paravance-2.rennes.grid5000.fr;thermos-root-devel-WordCountTopology-2-f0da56d4-2a9d-4a75-9f3e-4e10ab53d814;["container_2_Emit_random_words_2"];4.25;1533115025.19464;40.21;1020.5;2.748684678;10;149
52;paravance-21.rennes.grid5000.fr;thermos-root-devel-WordCountTopology-0-006cbb0e-9e95-4958-8c78-686c52212975;["topology_master"];4.25;1533115025.18926;6.0;13.25;0.003124708;9;117
53;paravance-22.rennes.grid5000.fr;thermos-root-devel-WordCountTopology-1-2d3f3772-060f-457f-8be0-5c4263a6d384;["container_1_Consume_and_count_1"];4.25;1533115035.41497;190.48;1890.6;28.746952988;10;151
53;paravance-2.rennes.grid5000.fr;thermos-root-devel-WordCountTopology-2-f0da56d4-2a9d-4a75-9f3e-4e10ab53d814;["container_2_Emit_random_words_2"];4.25;1533115035.41164;40.86;1038.54;2.748684678;10;149
53;paravance-21.rennes.grid5000.fr;thermos-root-devel-WordCountTopology-0-006cbb0e-9e95-4958-8c78-686c52212975;["topology_master"];4.25;1533115035.40608;6.05;13.32;0.003124708;9;117
54;paravance-21.rennes.grid5000.fr;thermos-root-devel-WordCountTopology-0-006cbb0e-9e95-4958-8c78-686c52212975;["topology_master"];4.25;1533115045.62363;6.14;13.44;0.003124708;9;117
54;paravance-22.rennes.grid5000.fr;thermos-root-devel-WordCountTopology-1-2d3f3772-060f-457f-8be0-5c4263a6d384;["container_1_Consume_and_count_1"];4.25;1533115045.63346;194.23;1915.83;28.746952988;10;151
54;paravance-2.rennes.grid5000.fr;thermos-root-devel-WordCountTopology-2-f0da56d4-2a9d-4a75-9f3e-4e10ab53d814;["container_2_Emit_random_words_2"];4.25;1533115045.62884;41.55;1056.91;2.748684678;10;149
55;paravance-22.rennes.grid5000.fr;thermos-root-devel-WordCountTopology-1-2d3f3772-060f-457f-8be0-5c4263a6d384;["container_1_Consume_and_count_1"];4.25;1533115055.84957;197.84;1940.24;28.746952988;10;151
55;paravance-2.rennes.grid5000.fr;thermos-root-devel-WordCountTopology-2-f0da56d4-2a9d-4a75-9f3e-4e10ab53d814;["container_2_Emit_random_words_2"];4.25;1533115055.84588;42.17;1075.14;2.748684678;10;149
55;paravance-21.rennes.grid5000.fr;thermos-root-devel-WordCountTopology-0-006cbb0e-9e95-4958-8c78-686c52212975;["topology_master"];4.25;1533115055.84073;6.16;13.46;0.003124708;9;117
56;paravance-2.rennes.grid5000.fr;thermos-root-devel-WordCountTopology-2-f0da56d4-2a9d-4a75-9f3e-4e10ab53d814;["container_2_Emit_random_words_2"];4.25;1533115066.06197;42.85;1093.39;2.748684678;10;149
56;paravance-21.rennes.grid5000.fr;thermos-root-devel-WordCountTopology-0-006cbb0e-9e95-4958-8c78-686c52212975;["topology_master"];4.25;1533115066.05754;6.25;13.58;0.003124708;9;117
56;paravance-22.rennes.grid5000.fr;thermos-root-devel-WordCountTopology-1-2d3f3772-060f-457f-8be0-5c4263a6d384;["container_1_Consume_and_count_1"];4.25;1533115066.06781;201.26;1965.1;28.746952988;10;151
57;paravance-22.rennes.grid5000.fr;thermos-root-devel-WordCountTopology-1-2d3f3772-060f-457f-8be0-5c4263a6d384;["container_1_Consume_and_count_1"];4.25;1533115076.28309;204.68;1989.88;28.746952988;10;151
57;paravance-2.rennes.grid5000.fr;thermos-root-devel-WordCountTopology-2-f0da56d4-2a9d-4a75-9f3e-4e10ab53d814;["container_2_Emit_random_words_2"];4.25;1533115076.27898;43.51;1111.66;2.748684678;10;149
57;paravance-21.rennes.grid5000.fr;thermos-root-devel-WordCountTopology-0-006cbb0e-9e95-4958-8c78-686c52212975;["topology_master"];4.25;1533115076.2751;6.31;13.65;0.003124708;9;117
58;paravance-2.rennes.grid5000.fr;thermos-root-devel-WordCountTopology-2-f0da56d4-2a9d-4a75-9f3e-4e10ab53d814;["container_2_Emit_random_words_2"];4.25;1533115086.49427;44.19;1130.08;2.748684678;10;149
58;paravance-22.rennes.grid5000.fr;thermos-root-devel-WordCountTopology-1-2d3f3772-060f-457f-8be0-5c4263a6d384;["container_1_Consume_and_count_1"];4.25;1533115086.49975;208.31;2014.15;28.746952988;10;151
58;paravance-21.rennes.grid5000.fr;thermos-root-devel-WordCountTopology-0-006cbb0e-9e95-4958-8c78-686c52212975;["topology_master"];4.25;1533115086.4901;6.37;13.75;0.003124708;9;117
59;paravance-21.rennes.grid5000.fr;thermos-root-devel-WordCountTopology-0-006cbb0e-9e95-4958-8c78-686c52212975;["topology_master"];4.25;1533115096.71214;6.43;13.83;0.003124708;9;117
59;paravance-2.rennes.grid5000.fr;thermos-root-devel-WordCountTopology-2-f0da56d4-2a9d-4a75-9f3e-4e10ab53d814;["container_2_Emit_random_words_2"];4.25;1533115096.71691;44.84;1148.32;2.748684678;10;149
59;paravance-22.rennes.grid5000.fr;thermos-root-devel-WordCountTopology-1-2d3f3772-060f-457f-8be0-5c4263a6d384;["container_1_Consume_and_count_1"];4.25;1533115096.72393;212.11;2039.6;28.746952988;10;151
60;paravance-2.rennes.grid5000.fr;thermos-root-devel-WordCountTopology-2-f0da56d4-2a9d-4a75-9f3e-4e10ab53d814;["container_2_Emit_random_words_2"];4.25;1533115106.93264;45.52;1166.63;2.748684678;10;149
60;paravance-22.rennes.grid5000.fr;thermos-root-devel-WordCountTopology-1-2d3f3772-060f-457f-8be0-5c4263a6d384;["container_1_Consume_and_count_1"];4.25;1533115106.93835;215.52;2067.16;28.861509995;10;151
60;paravance-21.rennes.grid5000.fr;thermos-root-devel-WordCountTopology-0-006cbb0e-9e95-4958-8c78-686c52212975;["topology_master"];4.25;1533115106.92859;6.52;13.96;0.003124708;9;117
