mesure_id;slave_id;executor_id;heron_instances;cpus_limit;timestamp_B;cpus_system_time_secs_B;cpus_user_time_secs_B;cpus_throttled_time_secs_B;processes;threads
0;paravance-9.rennes.grid5000.fr;thermos-root-devel-WordCountTopology-2-5213057e-13fc-4300-b9b6-e0522bd15c7b;["container_2_Emit_random_words_2"];5.25;1533114616.61409;9.09;190.05;1.469421054;10;149
0;paravance-18.rennes.grid5000.fr;thermos-root-devel-WordCountTopology-1-0cc8c3d1-f4b4-4c13-b170-33729b79922a;["container_1_Consume_and_count_1"];5.25;1533114616.61301;25.54;280.03;2.682301729;10;151
0;paravance-16.rennes.grid5000.fr;thermos-root-devel-WordCountTopology-0-fa3b43f5-39ad-453b-b288-acf0c0a7b79a;["topology_master"];5.25;1533114616.73759;2.33;7.97;0.0;9;117
1;paravance-18.rennes.grid5000.fr;thermos-root-devel-WordCountTopology-1-0cc8c3d1-f4b4-4c13-b170-33729b79922a;["container_1_Consume_and_count_1"];5.25;1533114626.73008;28.0;307.09;2.682301729;10;151
1;paravance-9.rennes.grid5000.fr;thermos-root-devel-WordCountTopology-2-5213057e-13fc-4300-b9b6-e0522bd15c7b;["container_2_Emit_random_words_2"];5.25;1533114626.8336;9.78;208.35;1.469421054;10;149
1;paravance-16.rennes.grid5000.fr;thermos-root-devel-WordCountTopology-0-fa3b43f5-39ad-453b-b288-acf0c0a7b79a;["topology_master"];5.25;1533114626.95398;2.41;8.1;0.0;9;117
2;paravance-18.rennes.grid5000.fr;thermos-root-devel-WordCountTopology-1-0cc8c3d1-f4b4-4c13-b170-33729b79922a;["container_1_Consume_and_count_1"];5.25;1533114637.04438;30.17;336.36;2.682301729;10;151
2;paravance-16.rennes.grid5000.fr;thermos-root-devel-WordCountTopology-0-fa3b43f5-39ad-453b-b288-acf0c0a7b79a;["topology_master"];5.25;1533114637.16925;2.48;8.19;0.0;9;117
2;paravance-9.rennes.grid5000.fr;thermos-root-devel-WordCountTopology-2-5213057e-13fc-4300-b9b6-e0522bd15c7b;["container_2_Emit_random_words_2"];5.25;1533114637.04914;10.43;226.42;1.469421054;10;149
3;paravance-9.rennes.grid5000.fr;thermos-root-devel-WordCountTopology-2-5213057e-13fc-4300-b9b6-e0522bd15c7b;["container_2_Emit_random_words_2"];5.25;1533114647.2655;11.12;244.86;1.469421054;10;149
3;paravance-18.rennes.grid5000.fr;thermos-root-devel-WordCountTopology-1-0cc8c3d1-f4b4-4c13-b170-33729b79922a;["container_1_Consume_and_count_1"];5.25;1533114647.26291;32.54;364.15;2.682301729;10;151
3;paravance-16.rennes.grid5000.fr;thermos-root-devel-WordCountTopology-0-fa3b43f5-39ad-453b-b288-acf0c0a7b79a;["topology_master"];5.25;1533114647.38567;2.53;8.26;0.0;9;117
4;paravance-9.rennes.grid5000.fr;thermos-root-devel-WordCountTopology-2-5213057e-13fc-4300-b9b6-e0522bd15c7b;["container_2_Emit_random_words_2"];5.25;1533114657.38164;11.76;262.98;1.469421054;10;149
4;paravance-18.rennes.grid5000.fr;thermos-root-devel-WordCountTopology-1-0cc8c3d1-f4b4-4c13-b170-33729b79922a;["container_1_Consume_and_count_1"];5.25;1533114657.47693;35.06;391.49;2.682301729;10;151
4;paravance-16.rennes.grid5000.fr;thermos-root-devel-WordCountTopology-0-fa3b43f5-39ad-453b-b288-acf0c0a7b79a;["topology_master"];5.25;1533114657.60106;2.59;8.33;0.0;9;117
5;paravance-16.rennes.grid5000.fr;thermos-root-devel-WordCountTopology-0-fa3b43f5-39ad-453b-b288-acf0c0a7b79a;["topology_master"];5.25;1533114667.71703;2.71;8.52;0.0;9;117
5;paravance-18.rennes.grid5000.fr;thermos-root-devel-WordCountTopology-1-0cc8c3d1-f4b4-4c13-b170-33729b79922a;["container_1_Consume_and_count_1"];5.25;1533114667.69218;37.34;419.86;2.682301729;10;151
5;paravance-9.rennes.grid5000.fr;thermos-root-devel-WordCountTopology-2-5213057e-13fc-4300-b9b6-e0522bd15c7b;["container_2_Emit_random_words_2"];5.25;1533114667.69655;12.47;281.57;1.469421054;10;149
6;paravance-9.rennes.grid5000.fr;thermos-root-devel-WordCountTopology-2-5213057e-13fc-4300-b9b6-e0522bd15c7b;["container_2_Emit_random_words_2"];5.25;1533114677.90993;13.11;299.83;1.469421054;10;149
6;paravance-16.rennes.grid5000.fr;thermos-root-devel-WordCountTopology-0-fa3b43f5-39ad-453b-b288-acf0c0a7b79a;["topology_master"];5.25;1533114678.03072;2.73;8.56;0.0;9;117
6;paravance-18.rennes.grid5000.fr;thermos-root-devel-WordCountTopology-1-0cc8c3d1-f4b4-4c13-b170-33729b79922a;["container_1_Consume_and_count_1"];5.25;1533114677.90798;39.24;447.49;2.682301729;10;151
7;paravance-18.rennes.grid5000.fr;thermos-root-devel-WordCountTopology-1-0cc8c3d1-f4b4-4c13-b170-33729b79922a;["container_1_Consume_and_count_1"];5.25;1533114688.12179;41.67;475.99;2.682301729;10;151
7;paravance-9.rennes.grid5000.fr;thermos-root-devel-WordCountTopology-2-5213057e-13fc-4300-b9b6-e0522bd15c7b;["container_2_Emit_random_words_2"];5.25;1533114688.12734;13.81;318.17;1.469421054;10;149
7;paravance-16.rennes.grid5000.fr;thermos-root-devel-WordCountTopology-0-fa3b43f5-39ad-453b-b288-acf0c0a7b79a;["topology_master"];5.25;1533114688.24826;2.82;8.69;0.0;9;117
8;paravance-18.rennes.grid5000.fr;thermos-root-devel-WordCountTopology-1-0cc8c3d1-f4b4-4c13-b170-33729b79922a;["container_1_Consume_and_count_1"];5.25;1533114698.33878;43.4;503.62;2.682301729;10;151
8;paravance-9.rennes.grid5000.fr;thermos-root-devel-WordCountTopology-2-5213057e-13fc-4300-b9b6-e0522bd15c7b;["container_2_Emit_random_words_2"];5.25;1533114698.34315;14.47;336.53;1.469421054;10;149
8;paravance-16.rennes.grid5000.fr;thermos-root-devel-WordCountTopology-0-fa3b43f5-39ad-453b-b288-acf0c0a7b79a;["topology_master"];5.25;1533114698.4639;2.88;8.77;0.0;9;117
9;paravance-18.rennes.grid5000.fr;thermos-root-devel-WordCountTopology-1-0cc8c3d1-f4b4-4c13-b170-33729b79922a;["container_1_Consume_and_count_1"];5.25;1533114708.55502;45.43;532.14;2.682301729;10;151
9;paravance-9.rennes.grid5000.fr;thermos-root-devel-WordCountTopology-2-5213057e-13fc-4300-b9b6-e0522bd15c7b;["container_2_Emit_random_words_2"];5.25;1533114708.55941;15.14;354.8;1.469421054;10;149
9;paravance-16.rennes.grid5000.fr;thermos-root-devel-WordCountTopology-0-fa3b43f5-39ad-453b-b288-acf0c0a7b79a;["topology_master"];5.25;1533114708.68055;2.95;8.85;0.0;9;117
10;paravance-18.rennes.grid5000.fr;thermos-root-devel-WordCountTopology-1-0cc8c3d1-f4b4-4c13-b170-33729b79922a;["container_1_Consume_and_count_1"];5.25;1533114718.76986;47.37;560.68;2.682301729;10;151
10;paravance-16.rennes.grid5000.fr;thermos-root-devel-WordCountTopology-0-fa3b43f5-39ad-453b-b288-acf0c0a7b79a;["topology_master"];5.25;1533114718.89479;3.0;8.93;0.0;9;117
10;paravance-9.rennes.grid5000.fr;thermos-root-devel-WordCountTopology-2-5213057e-13fc-4300-b9b6-e0522bd15c7b;["container_2_Emit_random_words_2"];5.25;1533114718.77583;15.8;372.91;1.469421054;10;149
11;paravance-18.rennes.grid5000.fr;thermos-root-devel-WordCountTopology-1-0cc8c3d1-f4b4-4c13-b170-33729b79922a;["container_1_Consume_and_count_1"];5.25;1533114728.98557;49.73;588.63;2.682301729;10;151
11;paravance-16.rennes.grid5000.fr;thermos-root-devel-WordCountTopology-0-fa3b43f5-39ad-453b-b288-acf0c0a7b79a;["topology_master"];5.25;1533114729.1099;3.13;9.19;0.0;9;117
11;paravance-9.rennes.grid5000.fr;thermos-root-devel-WordCountTopology-2-5213057e-13fc-4300-b9b6-e0522bd15c7b;["container_2_Emit_random_words_2"];5.25;1533114728.99065;16.53;391.28;1.469421054;10;149
12;paravance-9.rennes.grid5000.fr;thermos-root-devel-WordCountTopology-2-5213057e-13fc-4300-b9b6-e0522bd15c7b;["container_2_Emit_random_words_2"];5.25;1533114739.20712;17.16;409.52;1.469421054;10;149
12;paravance-18.rennes.grid5000.fr;thermos-root-devel-WordCountTopology-1-0cc8c3d1-f4b4-4c13-b170-33729b79922a;["container_1_Consume_and_count_1"];5.25;1533114739.20339;51.88;616.5;2.682301729;10;151
12;paravance-16.rennes.grid5000.fr;thermos-root-devel-WordCountTopology-0-fa3b43f5-39ad-453b-b288-acf0c0a7b79a;["topology_master"];5.25;1533114739.32846;3.16;9.22;0.0;9;117
13;paravance-18.rennes.grid5000.fr;thermos-root-devel-WordCountTopology-1-0cc8c3d1-f4b4-4c13-b170-33729b79922a;["container_1_Consume_and_count_1"];5.25;1533114749.4174;54.39;644.41;2.682301729;10;151
13;paravance-9.rennes.grid5000.fr;thermos-root-devel-WordCountTopology-2-5213057e-13fc-4300-b9b6-e0522bd15c7b;["container_2_Emit_random_words_2"];5.25;1533114749.4231;17.87;427.78;1.469421054;10;149
13;paravance-16.rennes.grid5000.fr;thermos-root-devel-WordCountTopology-0-fa3b43f5-39ad-453b-b288-acf0c0a7b79a;["topology_master"];5.25;1533114749.54451;3.25;9.36;0.0;9;117
14;paravance-18.rennes.grid5000.fr;thermos-root-devel-WordCountTopology-1-0cc8c3d1-f4b4-4c13-b170-33729b79922a;["container_1_Consume_and_count_1"];5.25;1533114759.63381;56.93;672.03;2.682301729;10;151
14;paravance-9.rennes.grid5000.fr;thermos-root-devel-WordCountTopology-2-5213057e-13fc-4300-b9b6-e0522bd15c7b;["container_2_Emit_random_words_2"];5.25;1533114759.63913;18.54;446.0;1.469421054;10;149
14;paravance-16.rennes.grid5000.fr;thermos-root-devel-WordCountTopology-0-fa3b43f5-39ad-453b-b288-acf0c0a7b79a;["topology_master"];5.25;1533114759.75977;3.31;9.43;0.0;9;117
15;paravance-9.rennes.grid5000.fr;thermos-root-devel-WordCountTopology-2-5213057e-13fc-4300-b9b6-e0522bd15c7b;["container_2_Emit_random_words_2"];5.25;1533114769.8549;19.23;464.24;1.469421054;10;149
15;paravance-16.rennes.grid5000.fr;thermos-root-devel-WordCountTopology-0-fa3b43f5-39ad-453b-b288-acf0c0a7b79a;["topology_master"];5.25;1533114769.97587;3.37;9.52;0.0;9;117
15;paravance-18.rennes.grid5000.fr;thermos-root-devel-WordCountTopology-1-0cc8c3d1-f4b4-4c13-b170-33729b79922a;["container_1_Consume_and_count_1"];5.25;1533114769.85181;59.1;701.05;2.682301729;10;151
16;paravance-9.rennes.grid5000.fr;thermos-root-devel-WordCountTopology-2-5213057e-13fc-4300-b9b6-e0522bd15c7b;["container_2_Emit_random_words_2"];5.25;1533114780.0719;19.91;482.46;1.469421054;10;149
16;paravance-18.rennes.grid5000.fr;thermos-root-devel-WordCountTopology-1-0cc8c3d1-f4b4-4c13-b170-33729b79922a;["container_1_Consume_and_count_1"];5.25;1533114780.06642;61.29;728.83;2.682301729;10;151
16;paravance-16.rennes.grid5000.fr;thermos-root-devel-WordCountTopology-0-fa3b43f5-39ad-453b-b288-acf0c0a7b79a;["topology_master"];5.25;1533114780.19414;3.42;9.6;0.0;9;117
17;paravance-18.rennes.grid5000.fr;thermos-root-devel-WordCountTopology-1-0cc8c3d1-f4b4-4c13-b170-33729b79922a;["container_1_Consume_and_count_1"];5.25;1533114790.28246;62.86;756.79;2.682301729;10;151
17;paravance-9.rennes.grid5000.fr;thermos-root-devel-WordCountTopology-2-5213057e-13fc-4300-b9b6-e0522bd15c7b;["container_2_Emit_random_words_2"];5.25;1533114790.28764;20.65;500.82;1.469421054;10;149
17;paravance-16.rennes.grid5000.fr;thermos-root-devel-WordCountTopology-0-fa3b43f5-39ad-453b-b288-acf0c0a7b79a;["topology_master"];5.25;1533114790.40846;3.54;9.88;0.0;9;117
18;paravance-16.rennes.grid5000.fr;thermos-root-devel-WordCountTopology-0-fa3b43f5-39ad-453b-b288-acf0c0a7b79a;["topology_master"];5.25;1533114800.62261;3.57;9.91;0.0;9;117
18;paravance-18.rennes.grid5000.fr;thermos-root-devel-WordCountTopology-1-0cc8c3d1-f4b4-4c13-b170-33729b79922a;["container_1_Consume_and_count_1"];5.25;1533114800.49946;65.14;785.48;2.682301729;10;151
18;paravance-9.rennes.grid5000.fr;thermos-root-devel-WordCountTopology-2-5213057e-13fc-4300-b9b6-e0522bd15c7b;["container_2_Emit_random_words_2"];5.25;1533114800.50414;21.3;519.0;1.469421054;10;149
19;paravance-9.rennes.grid5000.fr;thermos-root-devel-WordCountTopology-2-5213057e-13fc-4300-b9b6-e0522bd15c7b;["container_2_Emit_random_words_2"];5.25;1533114810.6195;22.0;536.99;1.469421054;10;149
19;paravance-18.rennes.grid5000.fr;thermos-root-devel-WordCountTopology-1-0cc8c3d1-f4b4-4c13-b170-33729b79922a;["container_1_Consume_and_count_1"];5.25;1533114810.71289;67.22;813.45;2.682301729;10;151
19;paravance-16.rennes.grid5000.fr;thermos-root-devel-WordCountTopology-0-fa3b43f5-39ad-453b-b288-acf0c0a7b79a;["topology_master"];5.25;1533114810.84008;3.66;10.04;0.0;9;117
20;paravance-9.rennes.grid5000.fr;thermos-root-devel-WordCountTopology-2-5213057e-13fc-4300-b9b6-e0522bd15c7b;["container_2_Emit_random_words_2"];5.25;1533114820.9345;22.67;555.31;1.469421054;10;149
20;paravance-18.rennes.grid5000.fr;thermos-root-devel-WordCountTopology-1-0cc8c3d1-f4b4-4c13-b170-33729b79922a;["container_1_Consume_and_count_1"];5.25;1533114820.92965;69.67;840.9;2.682301729;10;151
20;paravance-16.rennes.grid5000.fr;thermos-root-devel-WordCountTopology-0-fa3b43f5-39ad-453b-b288-acf0c0a7b79a;["topology_master"];5.25;1533114821.05602;3.71;10.11;0.0;9;117
21;paravance-18.rennes.grid5000.fr;thermos-root-devel-WordCountTopology-1-0cc8c3d1-f4b4-4c13-b170-33729b79922a;["container_1_Consume_and_count_1"];5.25;1533114831.14645;71.86;868.12;2.682301729;10;151
21;paravance-9.rennes.grid5000.fr;thermos-root-devel-WordCountTopology-2-5213057e-13fc-4300-b9b6-e0522bd15c7b;["container_2_Emit_random_words_2"];5.25;1533114831.15194;23.33;573.53;1.469421054;10;149
21;paravance-16.rennes.grid5000.fr;thermos-root-devel-WordCountTopology-0-fa3b43f5-39ad-453b-b288-acf0c0a7b79a;["topology_master"];5.25;1533114831.27275;3.77;10.19;0.0;9;117
22;paravance-16.rennes.grid5000.fr;thermos-root-devel-WordCountTopology-0-fa3b43f5-39ad-453b-b288-acf0c0a7b79a;["topology_master"];5.25;1533114841.4881;3.83;10.26;0.0;9;117
22;paravance-9.rennes.grid5000.fr;thermos-root-devel-WordCountTopology-2-5213057e-13fc-4300-b9b6-e0522bd15c7b;["container_2_Emit_random_words_2"];5.25;1533114841.36907;24.0;591.75;1.469421054;10;149
22;paravance-18.rennes.grid5000.fr;thermos-root-devel-WordCountTopology-1-0cc8c3d1-f4b4-4c13-b170-33729b79922a;["container_1_Consume_and_count_1"];5.25;1533114841.36489;74.14;896.44;2.682301729;10;151
23;paravance-18.rennes.grid5000.fr;thermos-root-devel-WordCountTopology-1-0cc8c3d1-f4b4-4c13-b170-33729b79922a;["container_1_Consume_and_count_1"];5.25;1533114851.58162;75.78;924.62;2.682301729;10;151
23;paravance-9.rennes.grid5000.fr;thermos-root-devel-WordCountTopology-2-5213057e-13fc-4300-b9b6-e0522bd15c7b;["container_2_Emit_random_words_2"];5.25;1533114851.58649;24.69;610.02;1.469421054;10;149
23;paravance-16.rennes.grid5000.fr;thermos-root-devel-WordCountTopology-0-fa3b43f5-39ad-453b-b288-acf0c0a7b79a;["topology_master"];5.25;1533114851.70742;3.94;10.43;0.0;9;117
24;paravance-9.rennes.grid5000.fr;thermos-root-devel-WordCountTopology-2-5213057e-13fc-4300-b9b6-e0522bd15c7b;["container_2_Emit_random_words_2"];5.25;1533114861.8027;25.34;628.28;1.469421054;10;149
24;paravance-18.rennes.grid5000.fr;thermos-root-devel-WordCountTopology-1-0cc8c3d1-f4b4-4c13-b170-33729b79922a;["container_1_Consume_and_count_1"];5.25;1533114861.79914;77.62;953.51;2.682301729;10;151
24;paravance-16.rennes.grid5000.fr;thermos-root-devel-WordCountTopology-0-fa3b43f5-39ad-453b-b288-acf0c0a7b79a;["topology_master"];5.25;1533114861.92424;3.97;10.45;0.0;9;117
25;paravance-9.rennes.grid5000.fr;thermos-root-devel-WordCountTopology-2-5213057e-13fc-4300-b9b6-e0522bd15c7b;["container_2_Emit_random_words_2"];5.25;1533114872.01994;26.03;646.61;1.469421054;10;149
25;paravance-18.rennes.grid5000.fr;thermos-root-devel-WordCountTopology-1-0cc8c3d1-f4b4-4c13-b170-33729b79922a;["container_1_Consume_and_count_1"];5.25;1533114872.01564;79.31;981.1;2.682301729;10;151
25;paravance-16.rennes.grid5000.fr;thermos-root-devel-WordCountTopology-0-fa3b43f5-39ad-453b-b288-acf0c0a7b79a;["topology_master"];5.25;1533114872.14033;4.05;10.57;0.0;9;117
26;paravance-18.rennes.grid5000.fr;thermos-root-devel-WordCountTopology-1-0cc8c3d1-f4b4-4c13-b170-33729b79922a;["container_1_Consume_and_count_1"];5.25;1533114882.22982;81.02;1009.62;2.682301729;10;151
26;paravance-9.rennes.grid5000.fr;thermos-root-devel-WordCountTopology-2-5213057e-13fc-4300-b9b6-e0522bd15c7b;["container_2_Emit_random_words_2"];5.25;1533114882.23445;26.71;664.87;1.469421054;10;149
26;paravance-16.rennes.grid5000.fr;thermos-root-devel-WordCountTopology-0-fa3b43f5-39ad-453b-b288-acf0c0a7b79a;["topology_master"];5.25;1533114882.35599;4.11;10.64;0.0;9;117
27;paravance-16.rennes.grid5000.fr;thermos-root-devel-WordCountTopology-0-fa3b43f5-39ad-453b-b288-acf0c0a7b79a;["topology_master"];5.25;1533114892.57145;4.16;10.72;0.0;9;117
27;paravance-18.rennes.grid5000.fr;thermos-root-devel-WordCountTopology-1-0cc8c3d1-f4b4-4c13-b170-33729b79922a;["container_1_Consume_and_count_1"];5.25;1533114892.44582;82.43;1037.16;2.682301729;10;151
27;paravance-9.rennes.grid5000.fr;thermos-root-devel-WordCountTopology-2-5213057e-13fc-4300-b9b6-e0522bd15c7b;["container_2_Emit_random_words_2"];5.25;1533114892.45166;27.38;683.1;1.469421054;10;149
28;paravance-18.rennes.grid5000.fr;thermos-root-devel-WordCountTopology-1-0cc8c3d1-f4b4-4c13-b170-33729b79922a;["container_1_Consume_and_count_1"];5.25;1533114902.6632;83.96;1064.93;2.682301729;10;151
28;paravance-16.rennes.grid5000.fr;thermos-root-devel-WordCountTopology-0-fa3b43f5-39ad-453b-b288-acf0c0a7b79a;["topology_master"];5.25;1533114902.78892;4.26;10.85;0.0;9;117
28;paravance-9.rennes.grid5000.fr;thermos-root-devel-WordCountTopology-2-5213057e-13fc-4300-b9b6-e0522bd15c7b;["container_2_Emit_random_words_2"];5.25;1533114902.66947;28.08;701.43;1.469421054;10;149
29;paravance-18.rennes.grid5000.fr;thermos-root-devel-WordCountTopology-1-0cc8c3d1-f4b4-4c13-b170-33729b79922a;["container_1_Consume_and_count_1"];5.25;1533114912.88255;85.34;1092.04;2.682301729;10;151
29;paravance-9.rennes.grid5000.fr;thermos-root-devel-WordCountTopology-2-5213057e-13fc-4300-b9b6-e0522bd15c7b;["container_2_Emit_random_words_2"];5.25;1533114912.88682;28.74;719.66;1.469421054;10;149
29;paravance-16.rennes.grid5000.fr;thermos-root-devel-WordCountTopology-0-fa3b43f5-39ad-453b-b288-acf0c0a7b79a;["topology_master"];5.25;1533114913.00686;4.33;10.97;0.0;9;117
30;paravance-16.rennes.grid5000.fr;thermos-root-devel-WordCountTopology-0-fa3b43f5-39ad-453b-b288-acf0c0a7b79a;["topology_master"];5.25;1533114923.22616;4.39;11.05;0.0;9;117
30;paravance-9.rennes.grid5000.fr;thermos-root-devel-WordCountTopology-2-5213057e-13fc-4300-b9b6-e0522bd15c7b;["container_2_Emit_random_words_2"];5.25;1533114923.10568;29.41;738.0;1.469421054;10;149
30;paravance-18.rennes.grid5000.fr;thermos-root-devel-WordCountTopology-1-0cc8c3d1-f4b4-4c13-b170-33729b79922a;["container_1_Consume_and_count_1"];5.25;1533114923.10289;86.99;1120.16;2.682301729;10;151
31;paravance-18.rennes.grid5000.fr;thermos-root-devel-WordCountTopology-1-0cc8c3d1-f4b4-4c13-b170-33729b79922a;["container_1_Consume_and_count_1"];5.25;1533114933.31998;88.93;1148.73;2.682301729;10;151
31;paravance-16.rennes.grid5000.fr;thermos-root-devel-WordCountTopology-0-fa3b43f5-39ad-453b-b288-acf0c0a7b79a;["topology_master"];5.25;1533114933.44577;4.44;11.13;0.0;9;117
31;paravance-9.rennes.grid5000.fr;thermos-root-devel-WordCountTopology-2-5213057e-13fc-4300-b9b6-e0522bd15c7b;["container_2_Emit_random_words_2"];5.25;1533114933.32432;30.07;756.15;1.469421054;10;149
32;paravance-9.rennes.grid5000.fr;thermos-root-devel-WordCountTopology-2-5213057e-13fc-4300-b9b6-e0522bd15c7b;["container_2_Emit_random_words_2"];5.25;1533114943.54178;30.75;774.26;1.469421054;10;149
32;paravance-18.rennes.grid5000.fr;thermos-root-devel-WordCountTopology-1-0cc8c3d1-f4b4-4c13-b170-33729b79922a;["container_1_Consume_and_count_1"];5.25;1533114943.53771;90.49;1176.38;2.682301729;10;151
32;paravance-16.rennes.grid5000.fr;thermos-root-devel-WordCountTopology-0-fa3b43f5-39ad-453b-b288-acf0c0a7b79a;["topology_master"];5.25;1533114943.66378;4.53;11.25;0.0;9;117
33;paravance-9.rennes.grid5000.fr;thermos-root-devel-WordCountTopology-2-5213057e-13fc-4300-b9b6-e0522bd15c7b;["container_2_Emit_random_words_2"];5.25;1533114953.75835;31.4;792.25;1.469421054;10;149
33;paravance-16.rennes.grid5000.fr;thermos-root-devel-WordCountTopology-0-fa3b43f5-39ad-453b-b288-acf0c0a7b79a;["topology_master"];5.25;1533114953.8787;4.56;11.27;0.0;9;117
33;paravance-18.rennes.grid5000.fr;thermos-root-devel-WordCountTopology-1-0cc8c3d1-f4b4-4c13-b170-33729b79922a;["container_1_Consume_and_count_1"];5.25;1533114953.75641;92.02;1203.26;2.682301729;10;151
34;paravance-18.rennes.grid5000.fr;thermos-root-devel-WordCountTopology-1-0cc8c3d1-f4b4-4c13-b170-33729b79922a;["container_1_Consume_and_count_1"];5.25;1533114963.96888;93.87;1231.63;2.682301729;10;151
34;paravance-9.rennes.grid5000.fr;thermos-root-devel-WordCountTopology-2-5213057e-13fc-4300-b9b6-e0522bd15c7b;["container_2_Emit_random_words_2"];5.25;1533114963.98798;32.08;810.44;1.469421054;10;149
34;paravance-16.rennes.grid5000.fr;thermos-root-devel-WordCountTopology-0-fa3b43f5-39ad-453b-b288-acf0c0a7b79a;["topology_master"];5.25;1533114964.10886;4.66;11.41;0.0;9;117
35;paravance-9.rennes.grid5000.fr;thermos-root-devel-WordCountTopology-2-5213057e-13fc-4300-b9b6-e0522bd15c7b;["container_2_Emit_random_words_2"];5.25;1533114974.20174;32.76;828.73;1.469421054;10;149
35;paravance-16.rennes.grid5000.fr;thermos-root-devel-WordCountTopology-0-fa3b43f5-39ad-453b-b288-acf0c0a7b79a;["topology_master"];5.25;1533114974.32286;4.72;11.53;0.0;9;117
35;paravance-18.rennes.grid5000.fr;thermos-root-devel-WordCountTopology-1-0cc8c3d1-f4b4-4c13-b170-33729b79922a;["container_1_Consume_and_count_1"];5.25;1533114974.19618;95.7;1260.63;2.682301729;10;151
36;paravance-18.rennes.grid5000.fr;thermos-root-devel-WordCountTopology-1-0cc8c3d1-f4b4-4c13-b170-33729b79922a;["container_1_Consume_and_count_1"];5.25;1533114984.41168;97.59;1289.8;2.682301729;10;151
36;paravance-9.rennes.grid5000.fr;thermos-root-devel-WordCountTopology-2-5213057e-13fc-4300-b9b6-e0522bd15c7b;["container_2_Emit_random_words_2"];5.25;1533114984.41831;33.45;847.2;1.469421054;10;149
36;paravance-16.rennes.grid5000.fr;thermos-root-devel-WordCountTopology-0-fa3b43f5-39ad-453b-b288-acf0c0a7b79a;["topology_master"];5.25;1533114984.5404;4.8;11.65;0.0;9;117
37;paravance-18.rennes.grid5000.fr;thermos-root-devel-WordCountTopology-1-0cc8c3d1-f4b4-4c13-b170-33729b79922a;["container_1_Consume_and_count_1"];5.25;1533114994.62853;99.55;1318.14;2.682301729;10;151
37;paravance-16.rennes.grid5000.fr;thermos-root-devel-WordCountTopology-0-fa3b43f5-39ad-453b-b288-acf0c0a7b79a;["topology_master"];5.25;1533114994.75471;4.83;11.68;0.0;9;117
37;paravance-9.rennes.grid5000.fr;thermos-root-devel-WordCountTopology-2-5213057e-13fc-4300-b9b6-e0522bd15c7b;["container_2_Emit_random_words_2"];5.25;1533114994.63467;34.08;865.37;1.469421054;10;149
38;paravance-18.rennes.grid5000.fr;thermos-root-devel-WordCountTopology-1-0cc8c3d1-f4b4-4c13-b170-33729b79922a;["container_1_Consume_and_count_1"];5.25;1533115004.84647;101.59;1345.62;2.682301729;10;151
38;paravance-9.rennes.grid5000.fr;thermos-root-devel-WordCountTopology-2-5213057e-13fc-4300-b9b6-e0522bd15c7b;["container_2_Emit_random_words_2"];5.25;1533115004.85197;34.75;883.7;1.469421054;10;149
38;paravance-16.rennes.grid5000.fr;thermos-root-devel-WordCountTopology-0-fa3b43f5-39ad-453b-b288-acf0c0a7b79a;["topology_master"];5.25;1533115004.97209;4.92;11.8;0.0;9;117
39;paravance-9.rennes.grid5000.fr;thermos-root-devel-WordCountTopology-2-5213057e-13fc-4300-b9b6-e0522bd15c7b;["container_2_Emit_random_words_2"];5.25;1533115015.06783;35.41;901.68;1.469421054;10;149
39;paravance-18.rennes.grid5000.fr;thermos-root-devel-WordCountTopology-1-0cc8c3d1-f4b4-4c13-b170-33729b79922a;["container_1_Consume_and_count_1"];5.25;1533115015.0627;104.26;1373.64;2.682301729;10;151
39;paravance-16.rennes.grid5000.fr;thermos-root-devel-WordCountTopology-0-fa3b43f5-39ad-453b-b288-acf0c0a7b79a;["topology_master"];5.25;1533115015.19042;4.97;11.87;0.0;9;117
40;paravance-18.rennes.grid5000.fr;thermos-root-devel-WordCountTopology-1-0cc8c3d1-f4b4-4c13-b170-33729b79922a;["container_1_Consume_and_count_1"];5.25;1533115025.27837;106.88;1401.96;2.682301729;10;151
40;paravance-16.rennes.grid5000.fr;thermos-root-devel-WordCountTopology-0-fa3b43f5-39ad-453b-b288-acf0c0a7b79a;["topology_master"];5.25;1533115025.40542;5.03;11.95;0.0;9;117
40;paravance-9.rennes.grid5000.fr;thermos-root-devel-WordCountTopology-2-5213057e-13fc-4300-b9b6-e0522bd15c7b;["container_2_Emit_random_words_2"];5.25;1533115025.28482;36.12;919.85;1.469421054;10;149
41;paravance-9.rennes.grid5000.fr;thermos-root-devel-WordCountTopology-2-5213057e-13fc-4300-b9b6-e0522bd15c7b;["container_2_Emit_random_words_2"];5.25;1533115035.50072;36.79;937.97;1.469421054;10;149
41;paravance-18.rennes.grid5000.fr;thermos-root-devel-WordCountTopology-1-0cc8c3d1-f4b4-4c13-b170-33729b79922a;["container_1_Consume_and_count_1"];5.25;1533115035.49447;109.61;1430.34;2.682301729;10;151
41;paravance-16.rennes.grid5000.fr;thermos-root-devel-WordCountTopology-0-fa3b43f5-39ad-453b-b288-acf0c0a7b79a;["topology_master"];5.25;1533115035.62256;5.09;12.07;0.0;9;117
42;paravance-9.rennes.grid5000.fr;thermos-root-devel-WordCountTopology-2-5213057e-13fc-4300-b9b6-e0522bd15c7b;["container_2_Emit_random_words_2"];5.25;1533115045.71624;37.46;955.98;1.469421054;10;149
42;paravance-16.rennes.grid5000.fr;thermos-root-devel-WordCountTopology-0-fa3b43f5-39ad-453b-b288-acf0c0a7b79a;["topology_master"];5.25;1533115045.83763;5.18;12.19;0.0;9;117
42;paravance-18.rennes.grid5000.fr;thermos-root-devel-WordCountTopology-1-0cc8c3d1-f4b4-4c13-b170-33729b79922a;["container_1_Consume_and_count_1"];5.25;1533115045.71106;111.57;1458.56;2.682301729;10;151
43;paravance-18.rennes.grid5000.fr;thermos-root-devel-WordCountTopology-1-0cc8c3d1-f4b4-4c13-b170-33729b79922a;["container_1_Consume_and_count_1"];5.25;1533115055.92733;114.17;1487.45;2.682301729;10;151
43;paravance-9.rennes.grid5000.fr;thermos-root-devel-WordCountTopology-2-5213057e-13fc-4300-b9b6-e0522bd15c7b;["container_2_Emit_random_words_2"];5.25;1533115055.9336;38.11;974.17;1.469421054;10;149
43;paravance-16.rennes.grid5000.fr;thermos-root-devel-WordCountTopology-0-fa3b43f5-39ad-453b-b288-acf0c0a7b79a;["topology_master"];5.25;1533115056.05495;5.21;12.23;0.0;9;117
44;paravance-18.rennes.grid5000.fr;thermos-root-devel-WordCountTopology-1-0cc8c3d1-f4b4-4c13-b170-33729b79922a;["container_1_Consume_and_count_1"];5.25;1533115066.14263;116.83;1516.44;2.682301729;10;151
44;paravance-16.rennes.grid5000.fr;thermos-root-devel-WordCountTopology-0-fa3b43f5-39ad-453b-b288-acf0c0a7b79a;["topology_master"];5.25;1533115066.27005;5.29;12.35;0.0;9;117
44;paravance-9.rennes.grid5000.fr;thermos-root-devel-WordCountTopology-2-5213057e-13fc-4300-b9b6-e0522bd15c7b;["container_2_Emit_random_words_2"];5.25;1533115066.14872;38.79;992.38;1.469421054;10;149
45;paravance-9.rennes.grid5000.fr;thermos-root-devel-WordCountTopology-2-5213057e-13fc-4300-b9b6-e0522bd15c7b;["container_2_Emit_random_words_2"];5.25;1533115076.36498;39.45;1010.43;1.469421054;10;149
45;paravance-18.rennes.grid5000.fr;thermos-root-devel-WordCountTopology-1-0cc8c3d1-f4b4-4c13-b170-33729b79922a;["container_1_Consume_and_count_1"];5.25;1533115076.36101;119.64;1544.74;2.682301729;10;151
45;paravance-16.rennes.grid5000.fr;thermos-root-devel-WordCountTopology-0-fa3b43f5-39ad-453b-b288-acf0c0a7b79a;["topology_master"];5.25;1533115076.48675;5.35;12.42;0.0;9;117
46;paravance-9.rennes.grid5000.fr;thermos-root-devel-WordCountTopology-2-5213057e-13fc-4300-b9b6-e0522bd15c7b;["container_2_Emit_random_words_2"];5.25;1533115086.58302;40.12;1028.68;1.469421054;10;149
46;paravance-16.rennes.grid5000.fr;thermos-root-devel-WordCountTopology-0-fa3b43f5-39ad-453b-b288-acf0c0a7b79a;["topology_master"];5.25;1533115086.70249;5.42;12.51;0.0;9;117
46;paravance-18.rennes.grid5000.fr;thermos-root-devel-WordCountTopology-1-0cc8c3d1-f4b4-4c13-b170-33729b79922a;["container_1_Consume_and_count_1"];5.25;1533115086.57834;122.14;1573.14;2.682301729;10;151
47;paravance-9.rennes.grid5000.fr;thermos-root-devel-WordCountTopology-2-5213057e-13fc-4300-b9b6-e0522bd15c7b;["container_2_Emit_random_words_2"];5.25;1533115096.82687;40.81;1046.9;1.469421054;10;149
47;paravance-18.rennes.grid5000.fr;thermos-root-devel-WordCountTopology-1-0cc8c3d1-f4b4-4c13-b170-33729b79922a;["container_1_Consume_and_count_1"];5.25;1533115096.82234;124.7;1601.83;2.682301729;10;151
47;paravance-16.rennes.grid5000.fr;thermos-root-devel-WordCountTopology-0-fa3b43f5-39ad-453b-b288-acf0c0a7b79a;["topology_master"];5.25;1533115096.94875;5.48;12.62;0.0;9;117
48;paravance-9.rennes.grid5000.fr;thermos-root-devel-WordCountTopology-2-5213057e-13fc-4300-b9b6-e0522bd15c7b;["container_2_Emit_random_words_2"];5.25;1533115107.04412;41.48;1065.16;1.469421054;10;149
48;paravance-18.rennes.grid5000.fr;thermos-root-devel-WordCountTopology-1-0cc8c3d1-f4b4-4c13-b170-33729b79922a;["container_1_Consume_and_count_1"];5.25;1533115107.04039;126.84;1631.24;2.682301729;10;151
48;paravance-16.rennes.grid5000.fr;thermos-root-devel-WordCountTopology-0-fa3b43f5-39ad-453b-b288-acf0c0a7b79a;["topology_master"];5.25;1533115107.16667;5.56;12.74;0.0;9;117
49;paravance-16.rennes.grid5000.fr;thermos-root-devel-WordCountTopology-0-fa3b43f5-39ad-453b-b288-acf0c0a7b79a;["topology_master"];5.25;1533115117.38103;5.59;12.77;0.0;9;117
49;paravance-18.rennes.grid5000.fr;thermos-root-devel-WordCountTopology-1-0cc8c3d1-f4b4-4c13-b170-33729b79922a;["container_1_Consume_and_count_1"];5.25;1533115117.25475;129.54;1660.08;2.682301729;10;151
49;paravance-9.rennes.grid5000.fr;thermos-root-devel-WordCountTopology-2-5213057e-13fc-4300-b9b6-e0522bd15c7b;["container_2_Emit_random_words_2"];5.25;1533115117.26361;42.12;1083.26;1.469421054;10;149
50;paravance-18.rennes.grid5000.fr;thermos-root-devel-WordCountTopology-1-0cc8c3d1-f4b4-4c13-b170-33729b79922a;["container_1_Consume_and_count_1"];5.25;1533115127.47187;132.09;1689.42;2.682301729;10;151
50;paravance-16.rennes.grid5000.fr;thermos-root-devel-WordCountTopology-0-fa3b43f5-39ad-453b-b288-acf0c0a7b79a;["topology_master"];5.25;1533115127.59944;5.68;12.9;0.0;9;117
50;paravance-9.rennes.grid5000.fr;thermos-root-devel-WordCountTopology-2-5213057e-13fc-4300-b9b6-e0522bd15c7b;["container_2_Emit_random_words_2"];5.25;1533115127.47748;42.82;1101.52;1.469421054;10;149
51;paravance-18.rennes.grid5000.fr;thermos-root-devel-WordCountTopology-1-0cc8c3d1-f4b4-4c13-b170-33729b79922a;["container_1_Consume_and_count_1"];5.25;1533115137.68982;134.62;1717.87;2.682301729;10;151
51;paravance-9.rennes.grid5000.fr;thermos-root-devel-WordCountTopology-2-5213057e-13fc-4300-b9b6-e0522bd15c7b;["container_2_Emit_random_words_2"];5.25;1533115137.69502;43.5;1119.77;1.469421054;10;149
51;paravance-16.rennes.grid5000.fr;thermos-root-devel-WordCountTopology-0-fa3b43f5-39ad-453b-b288-acf0c0a7b79a;["topology_master"];5.25;1533115137.81694;5.74;12.97;0.0;9;117
52;paravance-18.rennes.grid5000.fr;thermos-root-devel-WordCountTopology-1-0cc8c3d1-f4b4-4c13-b170-33729b79922a;["container_1_Consume_and_count_1"];5.25;1533115147.90638;137.01;1746.46;2.682301729;10;151
52;paravance-9.rennes.grid5000.fr;thermos-root-devel-WordCountTopology-2-5213057e-13fc-4300-b9b6-e0522bd15c7b;["container_2_Emit_random_words_2"];5.25;1533115147.9132;44.19;1137.84;1.469421054;10;149
52;paravance-16.rennes.grid5000.fr;thermos-root-devel-WordCountTopology-0-fa3b43f5-39ad-453b-b288-acf0c0a7b79a;["topology_master"];5.25;1533115148.0355;5.81;13.1;0.0;9;117
53;paravance-16.rennes.grid5000.fr;thermos-root-devel-WordCountTopology-0-fa3b43f5-39ad-453b-b288-acf0c0a7b79a;["topology_master"];5.25;1533115158.24973;5.86;13.17;0.0;9;117
53;paravance-18.rennes.grid5000.fr;thermos-root-devel-WordCountTopology-1-0cc8c3d1-f4b4-4c13-b170-33729b79922a;["container_1_Consume_and_count_1"];5.25;1533115158.12354;139.11;1774.8;2.682301729;10;151
53;paravance-9.rennes.grid5000.fr;thermos-root-devel-WordCountTopology-2-5213057e-13fc-4300-b9b6-e0522bd15c7b;["container_2_Emit_random_words_2"];5.25;1533115158.12841;44.87;1156.15;1.469421054;10;149
54;paravance-9.rennes.grid5000.fr;thermos-root-devel-WordCountTopology-2-5213057e-13fc-4300-b9b6-e0522bd15c7b;["container_2_Emit_random_words_2"];5.25;1533115168.34286;45.55;1174.29;1.469421054;10;149
54;paravance-18.rennes.grid5000.fr;thermos-root-devel-WordCountTopology-1-0cc8c3d1-f4b4-4c13-b170-33729b79922a;["container_1_Consume_and_count_1"];5.25;1533115168.33814;141.71;1803.62;2.682301729;10;151
54;paravance-16.rennes.grid5000.fr;thermos-root-devel-WordCountTopology-0-fa3b43f5-39ad-453b-b288-acf0c0a7b79a;["topology_master"];5.25;1533115168.46555;5.95;13.29;0.0;9;117
55;paravance-16.rennes.grid5000.fr;thermos-root-devel-WordCountTopology-0-fa3b43f5-39ad-453b-b288-acf0c0a7b79a;["topology_master"];5.25;1533115178.68156;5.98;13.32;0.0;9;117
55;paravance-18.rennes.grid5000.fr;thermos-root-devel-WordCountTopology-1-0cc8c3d1-f4b4-4c13-b170-33729b79922a;["container_1_Consume_and_count_1"];5.25;1533115178.55511;144.4;1832.07;2.682301729;10;151
55;paravance-9.rennes.grid5000.fr;thermos-root-devel-WordCountTopology-2-5213057e-13fc-4300-b9b6-e0522bd15c7b;["container_2_Emit_random_words_2"];5.25;1533115178.55876;46.17;1192.36;1.469421054;10;149
56;paravance-18.rennes.grid5000.fr;thermos-root-devel-WordCountTopology-1-0cc8c3d1-f4b4-4c13-b170-33729b79922a;["container_1_Consume_and_count_1"];5.25;1533115188.77004;146.98;1861.39;2.682301729;10;151
56;paravance-9.rennes.grid5000.fr;thermos-root-devel-WordCountTopology-2-5213057e-13fc-4300-b9b6-e0522bd15c7b;["container_2_Emit_random_words_2"];5.25;1533115188.77792;46.87;1210.48;1.469421054;10;149
56;paravance-16.rennes.grid5000.fr;thermos-root-devel-WordCountTopology-0-fa3b43f5-39ad-453b-b288-acf0c0a7b79a;["topology_master"];5.25;1533115188.89968;6.06;13.44;0.0;9;117
57;paravance-18.rennes.grid5000.fr;thermos-root-devel-WordCountTopology-1-0cc8c3d1-f4b4-4c13-b170-33729b79922a;["container_1_Consume_and_count_1"];5.25;1533115198.88744;149.43;1889.59;2.682301729;10;151
57;paravance-16.rennes.grid5000.fr;thermos-root-devel-WordCountTopology-0-fa3b43f5-39ad-453b-b288-acf0c0a7b79a;["topology_master"];5.25;1533115199.0147;6.12;13.51;0.0;9;117
57;paravance-9.rennes.grid5000.fr;thermos-root-devel-WordCountTopology-2-5213057e-13fc-4300-b9b6-e0522bd15c7b;["container_2_Emit_random_words_2"];5.25;1533115198.9909;47.5;1228.58;1.469421054;10;149
58;paravance-18.rennes.grid5000.fr;thermos-root-devel-WordCountTopology-1-0cc8c3d1-f4b4-4c13-b170-33729b79922a;["container_1_Consume_and_count_1"];5.25;1533115209.19997;151.93;1917.84;2.682301729;10;151
58;paravance-9.rennes.grid5000.fr;thermos-root-devel-WordCountTopology-2-5213057e-13fc-4300-b9b6-e0522bd15c7b;["container_2_Emit_random_words_2"];5.25;1533115209.20615;48.18;1246.78;1.469421054;10;149
58;paravance-16.rennes.grid5000.fr;thermos-root-devel-WordCountTopology-0-fa3b43f5-39ad-453b-b288-acf0c0a7b79a;["topology_master"];5.25;1533115209.32719;6.18;13.61;0.0;9;117
59;paravance-18.rennes.grid5000.fr;thermos-root-devel-WordCountTopology-1-0cc8c3d1-f4b4-4c13-b170-33729b79922a;["container_1_Consume_and_count_1"];5.25;1533115219.41588;154.37;1945.92;2.682301729;10;151
59;paravance-9.rennes.grid5000.fr;thermos-root-devel-WordCountTopology-2-5213057e-13fc-4300-b9b6-e0522bd15c7b;["container_2_Emit_random_words_2"];5.25;1533115219.42181;48.86;1264.78;1.469421054;10;149
59;paravance-16.rennes.grid5000.fr;thermos-root-devel-WordCountTopology-0-fa3b43f5-39ad-453b-b288-acf0c0a7b79a;["topology_master"];5.25;1533115219.54297;6.24;13.69;0.0;9;117
60;paravance-18.rennes.grid5000.fr;thermos-root-devel-WordCountTopology-1-0cc8c3d1-f4b4-4c13-b170-33729b79922a;["container_1_Consume_and_count_1"];5.25;1533115229.53513;156.77;1974.16;2.682301729;10;151
60;paravance-9.rennes.grid5000.fr;thermos-root-devel-WordCountTopology-2-5213057e-13fc-4300-b9b6-e0522bd15c7b;["container_2_Emit_random_words_2"];5.25;1533115229.63843;49.6;1283.09;1.469421054;10;149
60;paravance-16.rennes.grid5000.fr;thermos-root-devel-WordCountTopology-0-fa3b43f5-39ad-453b-b288-acf0c0a7b79a;["topology_master"];5.25;1533115229.75979;6.33;13.81;0.0;9;117
