mesure_id;slave_id;executor_id;heron_instances;cpus_limit;timestamp_A;cpus_system_time_secs_A;cpus_user_time_secs_A;cpus_throttled_time_secs_A;processes;threads
0;paravance-48.rennes.grid5000.fr;thermos-root-devel-WordCountTopology-2-1ca2c0e3-3a9f-44aa-945a-d9f1aa9c2b1e;["container_2_Emit_random_words_2"];3.25;1533112338.60663;8.46;164.77;5.668252713;10;149
0;paravance-46.rennes.grid5000.fr;thermos-root-devel-WordCountTopology-1-9349f43f-c60f-4d5b-b05d-953cb9facce4;["container_1_Consume_and_count_1"];3.25;1533112338.47704;32.33;244.19;39.192770804;10;151
0;paravance-47.rennes.grid5000.fr;thermos-root-devel-WordCountTopology-0-9091c9ef-a1a6-4120-8543-79548b5fbcfd;["topology_master"];3.25;1533112338.5913;2.4;7.97;0.204352391;9;117
1;paravance-47.rennes.grid5000.fr;thermos-root-devel-WordCountTopology-0-9091c9ef-a1a6-4120-8543-79548b5fbcfd;["topology_master"];3.25;1533112348.70386;2.47;8.09;0.204352391;9;117
1;paravance-46.rennes.grid5000.fr;thermos-root-devel-WordCountTopology-1-9349f43f-c60f-4d5b-b05d-953cb9facce4;["container_1_Consume_and_count_1"];3.25;1533112348.69134;35.4;272.88;45.244960458;10;151
1;paravance-48.rennes.grid5000.fr;thermos-root-devel-WordCountTopology-2-1ca2c0e3-3a9f-44aa-945a-d9f1aa9c2b1e;["container_2_Emit_random_words_2"];3.25;1533112348.82021;9.17;183.13;5.668252713;10;149
2;paravance-47.rennes.grid5000.fr;thermos-root-devel-WordCountTopology-0-9091c9ef-a1a6-4120-8543-79548b5fbcfd;["topology_master"];3.25;1533112358.92019;2.56;8.23;0.204352391;9;117
2;paravance-46.rennes.grid5000.fr;thermos-root-devel-WordCountTopology-1-9349f43f-c60f-4d5b-b05d-953cb9facce4;["container_1_Consume_and_count_1"];3.25;1533112358.90713;38.7;301.4;50.369376379;10;151
2;paravance-48.rennes.grid5000.fr;thermos-root-devel-WordCountTopology-2-1ca2c0e3-3a9f-44aa-945a-d9f1aa9c2b1e;["container_2_Emit_random_words_2"];3.25;1533112359.0351;9.89;201.43;5.668252713;10;149
3;paravance-48.rennes.grid5000.fr;thermos-root-devel-WordCountTopology-2-1ca2c0e3-3a9f-44aa-945a-d9f1aa9c2b1e;["container_2_Emit_random_words_2"];3.25;1533112369.25107;10.43;214.55;5.668252713;10;149
3;paravance-47.rennes.grid5000.fr;thermos-root-devel-WordCountTopology-0-9091c9ef-a1a6-4120-8543-79548b5fbcfd;["topology_master"];3.25;1533112369.23498;2.62;8.32;0.204352391;9;117
3;paravance-46.rennes.grid5000.fr;thermos-root-devel-WordCountTopology-1-9349f43f-c60f-4d5b-b05d-953cb9facce4;["container_1_Consume_and_count_1"];3.25;1533112369.12457;41.5;330.46;56.976192208;10;151
4;paravance-48.rennes.grid5000.fr;thermos-root-devel-WordCountTopology-2-1ca2c0e3-3a9f-44aa-945a-d9f1aa9c2b1e;["container_2_Emit_random_words_2"];3.25;1533112379.36829;11.12;232.52;5.668252713;10;149
4;paravance-46.rennes.grid5000.fr;thermos-root-devel-WordCountTopology-1-9349f43f-c60f-4d5b-b05d-953cb9facce4;["container_1_Consume_and_count_1"];3.25;1533112379.34115;44.9;358.26;59.945565891;10;151
4;paravance-47.rennes.grid5000.fr;thermos-root-devel-WordCountTopology-0-9091c9ef-a1a6-4120-8543-79548b5fbcfd;["topology_master"];3.25;1533112379.45325;2.68;8.39;0.204352391;9;117
5;paravance-47.rennes.grid5000.fr;thermos-root-devel-WordCountTopology-0-9091c9ef-a1a6-4120-8543-79548b5fbcfd;["topology_master"];3.25;1533112389.66811;2.74;8.47;0.204352391;9;117
5;paravance-48.rennes.grid5000.fr;thermos-root-devel-WordCountTopology-2-1ca2c0e3-3a9f-44aa-945a-d9f1aa9c2b1e;["container_2_Emit_random_words_2"];3.25;1533112389.68542;11.79;250.93;5.668252713;10;149
5;paravance-46.rennes.grid5000.fr;thermos-root-devel-WordCountTopology-1-9349f43f-c60f-4d5b-b05d-953cb9facce4;["container_1_Consume_and_count_1"];3.25;1533112389.5555;48.37;386.23;65.324442701;10;151
6;paravance-46.rennes.grid5000.fr;thermos-root-devel-WordCountTopology-1-9349f43f-c60f-4d5b-b05d-953cb9facce4;["container_1_Consume_and_count_1"];3.25;1533112399.77439;50.38;413.57;74.056015374;10;151
6;paravance-47.rennes.grid5000.fr;thermos-root-devel-WordCountTopology-0-9091c9ef-a1a6-4120-8543-79548b5fbcfd;["topology_master"];3.25;1533112399.88566;2.87;8.68;0.204352391;9;117
6;paravance-48.rennes.grid5000.fr;thermos-root-devel-WordCountTopology-2-1ca2c0e3-3a9f-44aa-945a-d9f1aa9c2b1e;["container_2_Emit_random_words_2"];3.25;1533112399.90141;12.3;261.62;5.668252713;10;149
7;paravance-48.rennes.grid5000.fr;thermos-root-devel-WordCountTopology-2-1ca2c0e3-3a9f-44aa-945a-d9f1aa9c2b1e;["container_2_Emit_random_words_2"];3.25;1533112410.11887;12.95;279.77;5.668252713;10;149
7;paravance-46.rennes.grid5000.fr;thermos-root-devel-WordCountTopology-1-9349f43f-c60f-4d5b-b05d-953cb9facce4;["container_1_Consume_and_count_1"];3.25;1533112409.99082;53.55;442.18;79.80085521;10;151
7;paravance-47.rennes.grid5000.fr;thermos-root-devel-WordCountTopology-0-9091c9ef-a1a6-4120-8543-79548b5fbcfd;["topology_master"];3.25;1533112410.10175;2.89;8.72;0.204352391;9;117
8;paravance-48.rennes.grid5000.fr;thermos-root-devel-WordCountTopology-2-1ca2c0e3-3a9f-44aa-945a-d9f1aa9c2b1e;["container_2_Emit_random_words_2"];3.25;1533112420.33701;13.46;291.01;5.668252713;10;149
8;paravance-46.rennes.grid5000.fr;thermos-root-devel-WordCountTopology-1-9349f43f-c60f-4d5b-b05d-953cb9facce4;["container_1_Consume_and_count_1"];3.25;1533112420.20925;55.98;471.66;89.974673213;10;151
8;paravance-47.rennes.grid5000.fr;thermos-root-devel-WordCountTopology-0-9091c9ef-a1a6-4120-8543-79548b5fbcfd;["topology_master"];3.25;1533112420.31976;2.99;8.85;0.204352391;9;117
9;paravance-46.rennes.grid5000.fr;thermos-root-devel-WordCountTopology-1-9349f43f-c60f-4d5b-b05d-953cb9facce4;["container_1_Consume_and_count_1"];3.25;1533112430.42597;58.94;500.59;96.164307418;10;151
9;paravance-48.rennes.grid5000.fr;thermos-root-devel-WordCountTopology-2-1ca2c0e3-3a9f-44aa-945a-d9f1aa9c2b1e;["container_2_Emit_random_words_2"];3.25;1533112430.55418;14.15;309.38;5.668252713;10;149
9;paravance-47.rennes.grid5000.fr;thermos-root-devel-WordCountTopology-0-9091c9ef-a1a6-4120-8543-79548b5fbcfd;["topology_master"];3.25;1533112430.53719;3.04;8.92;0.204352391;9;117
10;paravance-48.rennes.grid5000.fr;thermos-root-devel-WordCountTopology-2-1ca2c0e3-3a9f-44aa-945a-d9f1aa9c2b1e;["container_2_Emit_random_words_2"];3.25;1533112440.76987;14.66;321.37;5.668252713;10;149
10;paravance-46.rennes.grid5000.fr;thermos-root-devel-WordCountTopology-1-9349f43f-c60f-4d5b-b05d-953cb9facce4;["container_1_Consume_and_count_1"];3.25;1533112440.64145;61.63;529.68;105.138153325;10;151
10;paravance-47.rennes.grid5000.fr;thermos-root-devel-WordCountTopology-0-9091c9ef-a1a6-4120-8543-79548b5fbcfd;["topology_master"];3.25;1533112440.75316;3.1;9.0;0.204352391;9;117
11;paravance-46.rennes.grid5000.fr;thermos-root-devel-WordCountTopology-1-9349f43f-c60f-4d5b-b05d-953cb9facce4;["container_1_Consume_and_count_1"];3.25;1533112450.85792;64.35;558.8;113.785750707;10;151
11;paravance-47.rennes.grid5000.fr;thermos-root-devel-WordCountTopology-0-9091c9ef-a1a6-4120-8543-79548b5fbcfd;["topology_master"];3.25;1533112450.96878;3.17;9.08;0.204352391;9;117
11;paravance-48.rennes.grid5000.fr;thermos-root-devel-WordCountTopology-2-1ca2c0e3-3a9f-44aa-945a-d9f1aa9c2b1e;["container_2_Emit_random_words_2"];3.25;1533112450.98674;15.12;332.17;5.668252713;10;149
12;paravance-47.rennes.grid5000.fr;thermos-root-devel-WordCountTopology-0-9091c9ef-a1a6-4120-8543-79548b5fbcfd;["topology_master"];3.25;1533112461.18544;3.3;9.39;0.204352391;9;117
12;paravance-46.rennes.grid5000.fr;thermos-root-devel-WordCountTopology-1-9349f43f-c60f-4d5b-b05d-953cb9facce4;["container_1_Consume_and_count_1"];3.25;1533112461.07426;67.42;587.4;122.058710555;10;151
12;paravance-48.rennes.grid5000.fr;thermos-root-devel-WordCountTopology-2-1ca2c0e3-3a9f-44aa-945a-d9f1aa9c2b1e;["container_2_Emit_random_words_2"];3.25;1533112461.20461;15.7;344.94;5.668252713;10;149
13;paravance-47.rennes.grid5000.fr;thermos-root-devel-WordCountTopology-0-9091c9ef-a1a6-4120-8543-79548b5fbcfd;["topology_master"];3.25;1533112471.4032;3.32;9.41;0.204352391;9;117
13;paravance-46.rennes.grid5000.fr;thermos-root-devel-WordCountTopology-1-9349f43f-c60f-4d5b-b05d-953cb9facce4;["container_1_Consume_and_count_1"];3.25;1533112471.29305;70.31;616.1;130.036040353;10;151
13;paravance-48.rennes.grid5000.fr;thermos-root-devel-WordCountTopology-2-1ca2c0e3-3a9f-44aa-945a-d9f1aa9c2b1e;["container_2_Emit_random_words_2"];3.25;1533112471.42076;16.2;359.16;5.668252713;10;149
14;paravance-48.rennes.grid5000.fr;thermos-root-devel-WordCountTopology-2-1ca2c0e3-3a9f-44aa-945a-d9f1aa9c2b1e;["container_2_Emit_random_words_2"];3.25;1533112481.64013;16.85;375.27;5.668252713;10;149
14;paravance-46.rennes.grid5000.fr;thermos-root-devel-WordCountTopology-1-9349f43f-c60f-4d5b-b05d-953cb9facce4;["container_1_Consume_and_count_1"];3.25;1533112481.51137;73.08;645.13;138.306192129;10;151
14;paravance-47.rennes.grid5000.fr;thermos-root-devel-WordCountTopology-0-9091c9ef-a1a6-4120-8543-79548b5fbcfd;["topology_master"];3.25;1533112481.62308;3.43;9.57;0.204352391;9;117
15;paravance-48.rennes.grid5000.fr;thermos-root-devel-WordCountTopology-2-1ca2c0e3-3a9f-44aa-945a-d9f1aa9c2b1e;["container_2_Emit_random_words_2"];3.25;1533112491.75543;17.51;393.22;5.668252713;10;149
15;paravance-47.rennes.grid5000.fr;thermos-root-devel-WordCountTopology-0-9091c9ef-a1a6-4120-8543-79548b5fbcfd;["topology_master"];3.25;1533112491.73793;3.48;9.64;0.204352391;9;117
15;paravance-46.rennes.grid5000.fr;thermos-root-devel-WordCountTopology-1-9349f43f-c60f-4d5b-b05d-953cb9facce4;["container_1_Consume_and_count_1"];3.25;1533112491.7257;76.46;673.59;141.904883718;10;151
16;paravance-47.rennes.grid5000.fr;thermos-root-devel-WordCountTopology-0-9091c9ef-a1a6-4120-8543-79548b5fbcfd;["topology_master"];3.25;1533112501.95023;3.54;9.72;0.204352391;9;117
16;paravance-46.rennes.grid5000.fr;thermos-root-devel-WordCountTopology-1-9349f43f-c60f-4d5b-b05d-953cb9facce4;["container_1_Consume_and_count_1"];3.25;1533112501.93945;79.62;701.35;146.536774209;10;151
16;paravance-48.rennes.grid5000.fr;thermos-root-devel-WordCountTopology-2-1ca2c0e3-3a9f-44aa-945a-d9f1aa9c2b1e;["container_2_Emit_random_words_2"];3.25;1533112502.06835;18.18;411.48;5.668252713;10;149
17;paravance-48.rennes.grid5000.fr;thermos-root-devel-WordCountTopology-2-1ca2c0e3-3a9f-44aa-945a-d9f1aa9c2b1e;["container_2_Emit_random_words_2"];3.25;1533112512.28511;18.86;429.64;5.668252713;10;149
17;paravance-46.rennes.grid5000.fr;thermos-root-devel-WordCountTopology-1-9349f43f-c60f-4d5b-b05d-953cb9facce4;["container_1_Consume_and_count_1"];3.25;1533112512.15695;82.64;730.0;154.20174007;10;151
17;paravance-47.rennes.grid5000.fr;thermos-root-devel-WordCountTopology-0-9091c9ef-a1a6-4120-8543-79548b5fbcfd;["topology_master"];3.25;1533112512.2677;3.6;9.8;0.204352391;9;117
18;paravance-48.rennes.grid5000.fr;thermos-root-devel-WordCountTopology-2-1ca2c0e3-3a9f-44aa-945a-d9f1aa9c2b1e;["container_2_Emit_random_words_2"];3.25;1533112522.50006;19.56;447.88;5.668252713;10;149
18;paravance-47.rennes.grid5000.fr;thermos-root-devel-WordCountTopology-0-9091c9ef-a1a6-4120-8543-79548b5fbcfd;["topology_master"];3.25;1533112522.48172;3.71;10.0;0.204352391;9;117
18;paravance-46.rennes.grid5000.fr;thermos-root-devel-WordCountTopology-1-9349f43f-c60f-4d5b-b05d-953cb9facce4;["container_1_Consume_and_count_1"];3.25;1533112522.37224;86.39;757.69;157.045001145;10;151
19;paravance-46.rennes.grid5000.fr;thermos-root-devel-WordCountTopology-1-9349f43f-c60f-4d5b-b05d-953cb9facce4;["container_1_Consume_and_count_1"];3.25;1533112532.58874;89.5;786.38;162.687298612;10;151
19;paravance-47.rennes.grid5000.fr;thermos-root-devel-WordCountTopology-0-9091c9ef-a1a6-4120-8543-79548b5fbcfd;["topology_master"];3.25;1533112532.6995;3.74;10.03;0.204352391;9;117
19;paravance-48.rennes.grid5000.fr;thermos-root-devel-WordCountTopology-2-1ca2c0e3-3a9f-44aa-945a-d9f1aa9c2b1e;["container_2_Emit_random_words_2"];3.25;1533112532.71837;20.19;465.91;5.668252713;10;149
20;paravance-46.rennes.grid5000.fr;thermos-root-devel-WordCountTopology-1-9349f43f-c60f-4d5b-b05d-953cb9facce4;["container_1_Consume_and_count_1"];3.25;1533112542.80219;92.66;815.09;169.442169164;10;151
20;paravance-48.rennes.grid5000.fr;thermos-root-devel-WordCountTopology-2-1ca2c0e3-3a9f-44aa-945a-d9f1aa9c2b1e;["container_2_Emit_random_words_2"];3.25;1533112542.9326;20.89;484.01;5.668252713;10;149
20;paravance-47.rennes.grid5000.fr;thermos-root-devel-WordCountTopology-0-9091c9ef-a1a6-4120-8543-79548b5fbcfd;["topology_master"];3.25;1533112542.91393;3.83;10.16;0.204352391;9;117
21;paravance-48.rennes.grid5000.fr;thermos-root-devel-WordCountTopology-2-1ca2c0e3-3a9f-44aa-945a-d9f1aa9c2b1e;["container_2_Emit_random_words_2"];3.25;1533112553.14829;21.33;494.79;5.668252713;10;149
21;paravance-47.rennes.grid5000.fr;thermos-root-devel-WordCountTopology-0-9091c9ef-a1a6-4120-8543-79548b5fbcfd;["topology_master"];3.25;1533112553.12841;3.89;10.24;0.204352391;9;117
21;paravance-46.rennes.grid5000.fr;thermos-root-devel-WordCountTopology-1-9349f43f-c60f-4d5b-b05d-953cb9facce4;["container_1_Consume_and_count_1"];3.25;1533112553.0199;95.25;843.13;176.207716899;10;151
22;paravance-46.rennes.grid5000.fr;thermos-root-devel-WordCountTopology-1-9349f43f-c60f-4d5b-b05d-953cb9facce4;["container_1_Consume_and_count_1"];3.25;1533112563.23745;98.29;871.9;183.976051711;10;151
22;paravance-48.rennes.grid5000.fr;thermos-root-devel-WordCountTopology-2-1ca2c0e3-3a9f-44aa-945a-d9f1aa9c2b1e;["container_2_Emit_random_words_2"];3.25;1533112563.36525;22.03;512.96;5.668252713;10;149
22;paravance-47.rennes.grid5000.fr;thermos-root-devel-WordCountTopology-0-9091c9ef-a1a6-4120-8543-79548b5fbcfd;["topology_master"];3.25;1533112563.34706;3.95;10.31;0.204352391;9;117
23;paravance-46.rennes.grid5000.fr;thermos-root-devel-WordCountTopology-1-9349f43f-c60f-4d5b-b05d-953cb9facce4;["container_1_Consume_and_count_1"];3.25;1533112573.45142;100.85;901.1;192.643900951;10;151
23;paravance-48.rennes.grid5000.fr;thermos-root-devel-WordCountTopology-2-1ca2c0e3-3a9f-44aa-945a-d9f1aa9c2b1e;["container_2_Emit_random_words_2"];3.25;1533112573.58211;22.46;522.77;5.668252713;10;149
23;paravance-47.rennes.grid5000.fr;thermos-root-devel-WordCountTopology-0-9091c9ef-a1a6-4120-8543-79548b5fbcfd;["topology_master"];3.25;1533112573.56149;4.0;10.38;0.204352391;9;117
24;paravance-46.rennes.grid5000.fr;thermos-root-devel-WordCountTopology-1-9349f43f-c60f-4d5b-b05d-953cb9facce4;["container_1_Consume_and_count_1"];3.25;1533112583.66708;103.6;929.17;199.722071559;10;151
24;paravance-48.rennes.grid5000.fr;thermos-root-devel-WordCountTopology-2-1ca2c0e3-3a9f-44aa-945a-d9f1aa9c2b1e;["container_2_Emit_random_words_2"];3.25;1533112583.81672;22.97;534.19;5.668252713;10;149
24;paravance-47.rennes.grid5000.fr;thermos-root-devel-WordCountTopology-0-9091c9ef-a1a6-4120-8543-79548b5fbcfd;["topology_master"];3.25;1533112583.79751;4.12;10.57;0.204352391;9;117
25;paravance-48.rennes.grid5000.fr;thermos-root-devel-WordCountTopology-2-1ca2c0e3-3a9f-44aa-945a-d9f1aa9c2b1e;["container_2_Emit_random_words_2"];3.25;1533112594.03341;23.62;552.29;5.668252713;10;149
25;paravance-46.rennes.grid5000.fr;thermos-root-devel-WordCountTopology-1-9349f43f-c60f-4d5b-b05d-953cb9facce4;["container_1_Consume_and_count_1"];3.25;1533112593.90443;106.29;958.49;208.243766222;10;151
25;paravance-47.rennes.grid5000.fr;thermos-root-devel-WordCountTopology-0-9091c9ef-a1a6-4120-8543-79548b5fbcfd;["topology_master"];3.25;1533112594.01444;4.15;10.59;0.204352391;9;117
26;paravance-46.rennes.grid5000.fr;thermos-root-devel-WordCountTopology-1-9349f43f-c60f-4d5b-b05d-953cb9facce4;["container_1_Consume_and_count_1"];3.25;1533112604.12137;109.16;987.42;215.794423402;10;151
26;paravance-47.rennes.grid5000.fr;thermos-root-devel-WordCountTopology-0-9091c9ef-a1a6-4120-8543-79548b5fbcfd;["topology_master"];3.25;1533112604.23127;4.24;10.72;0.204352391;9;117
26;paravance-48.rennes.grid5000.fr;thermos-root-devel-WordCountTopology-2-1ca2c0e3-3a9f-44aa-945a-d9f1aa9c2b1e;["container_2_Emit_random_words_2"];3.25;1533112604.25089;24.34;570.31;5.668252713;10;149
27;paravance-48.rennes.grid5000.fr;thermos-root-devel-WordCountTopology-2-1ca2c0e3-3a9f-44aa-945a-d9f1aa9c2b1e;["container_2_Emit_random_words_2"];3.25;1533112614.36652;24.87;582.81;5.668252713;10;149
27;paravance-46.rennes.grid5000.fr;thermos-root-devel-WordCountTopology-1-9349f43f-c60f-4d5b-b05d-953cb9facce4;["container_1_Consume_and_count_1"];3.25;1533112614.33782;111.59;1016.83;224.612609273;10;151
27;paravance-47.rennes.grid5000.fr;thermos-root-devel-WordCountTopology-0-9091c9ef-a1a6-4120-8543-79548b5fbcfd;["topology_master"];3.25;1533112614.44668;4.3;10.79;0.204352391;9;117
28;paravance-46.rennes.grid5000.fr;thermos-root-devel-WordCountTopology-1-9349f43f-c60f-4d5b-b05d-953cb9facce4;["container_1_Consume_and_count_1"];3.25;1533112624.55421;114.08;1045.94;233.013629679;10;151
28;paravance-48.rennes.grid5000.fr;thermos-root-devel-WordCountTopology-2-1ca2c0e3-3a9f-44aa-945a-d9f1aa9c2b1e;["container_2_Emit_random_words_2"];3.25;1533112624.68362;25.27;591.79;5.668252713;10;149
28;paravance-47.rennes.grid5000.fr;thermos-root-devel-WordCountTopology-0-9091c9ef-a1a6-4120-8543-79548b5fbcfd;["topology_master"];3.25;1533112624.66479;4.36;10.87;0.204352391;9;117
29;paravance-46.rennes.grid5000.fr;thermos-root-devel-WordCountTopology-1-9349f43f-c60f-4d5b-b05d-953cb9facce4;["container_1_Consume_and_count_1"];3.25;1533112634.77114;116.49;1075.4;242.541473845;10;151
29;paravance-47.rennes.grid5000.fr;thermos-root-devel-WordCountTopology-0-9091c9ef-a1a6-4120-8543-79548b5fbcfd;["topology_master"];3.25;1533112634.87988;4.47;11.01;0.204352391;9;117
29;paravance-48.rennes.grid5000.fr;thermos-root-devel-WordCountTopology-2-1ca2c0e3-3a9f-44aa-945a-d9f1aa9c2b1e;["container_2_Emit_random_words_2"];3.25;1533112634.90138;25.79;603.76;5.668252713;10;149
30;paravance-47.rennes.grid5000.fr;thermos-root-devel-WordCountTopology-0-9091c9ef-a1a6-4120-8543-79548b5fbcfd;["topology_master"];3.25;1533112645.09641;4.53;11.15;0.204352391;9;117
30;paravance-46.rennes.grid5000.fr;thermos-root-devel-WordCountTopology-1-9349f43f-c60f-4d5b-b05d-953cb9facce4;["container_1_Consume_and_count_1"];3.25;1533112644.98827;119.64;1103.39;248.771950771;10;151
30;paravance-48.rennes.grid5000.fr;thermos-root-devel-WordCountTopology-2-1ca2c0e3-3a9f-44aa-945a-d9f1aa9c2b1e;["container_2_Emit_random_words_2"];3.25;1533112645.11696;26.39;619.5;5.668252713;10;149
31;paravance-46.rennes.grid5000.fr;thermos-root-devel-WordCountTopology-1-9349f43f-c60f-4d5b-b05d-953cb9facce4;["container_1_Consume_and_count_1"];3.25;1533112655.20562;122.66;1132.25;255.77915727;10;151
31;paravance-48.rennes.grid5000.fr;thermos-root-devel-WordCountTopology-2-1ca2c0e3-3a9f-44aa-945a-d9f1aa9c2b1e;["container_2_Emit_random_words_2"];3.25;1533112655.33479;26.81;629.5;5.668252713;10;149
31;paravance-47.rennes.grid5000.fr;thermos-root-devel-WordCountTopology-0-9091c9ef-a1a6-4120-8543-79548b5fbcfd;["topology_master"];3.25;1533112655.31341;4.6;11.23;0.204352391;9;117
32;paravance-46.rennes.grid5000.fr;thermos-root-devel-WordCountTopology-1-9349f43f-c60f-4d5b-b05d-953cb9facce4;["container_1_Consume_and_count_1"];3.25;1533112665.42166;125.51;1161.24;263.914673921;10;151
32;paravance-47.rennes.grid5000.fr;thermos-root-devel-WordCountTopology-0-9091c9ef-a1a6-4120-8543-79548b5fbcfd;["topology_master"];3.25;1533112665.53046;4.66;11.31;0.204352391;9;117
32;paravance-48.rennes.grid5000.fr;thermos-root-devel-WordCountTopology-2-1ca2c0e3-3a9f-44aa-945a-d9f1aa9c2b1e;["container_2_Emit_random_words_2"];3.25;1533112665.55294;27.35;642.92;5.668252713;10;149
33;paravance-48.rennes.grid5000.fr;thermos-root-devel-WordCountTopology-2-1ca2c0e3-3a9f-44aa-945a-d9f1aa9c2b1e;["container_2_Emit_random_words_2"];3.25;1533112675.76937;28.02;660.13;5.668252713;10;149
33;paravance-47.rennes.grid5000.fr;thermos-root-devel-WordCountTopology-0-9091c9ef-a1a6-4120-8543-79548b5fbcfd;["topology_master"];3.25;1533112675.74796;4.75;11.43;0.204352391;9;117
33;paravance-46.rennes.grid5000.fr;thermos-root-devel-WordCountTopology-1-9349f43f-c60f-4d5b-b05d-953cb9facce4;["container_1_Consume_and_count_1"];3.25;1533112675.63898;128.54;1190.01;273.043362908;10;151
34;paravance-46.rennes.grid5000.fr;thermos-root-devel-WordCountTopology-1-9349f43f-c60f-4d5b-b05d-953cb9facce4;["container_1_Consume_and_count_1"];3.25;1533112685.75961;131.08;1217.84;278.760436654;10;151
34;paravance-48.rennes.grid5000.fr;thermos-root-devel-WordCountTopology-2-1ca2c0e3-3a9f-44aa-945a-d9f1aa9c2b1e;["container_2_Emit_random_words_2"];3.25;1533112685.98908;28.43;669.85;5.668252713;10;149
34;paravance-47.rennes.grid5000.fr;thermos-root-devel-WordCountTopology-0-9091c9ef-a1a6-4120-8543-79548b5fbcfd;["topology_master"];3.25;1533112685.96849;4.77;11.46;0.204352391;9;117
35;paravance-46.rennes.grid5000.fr;thermos-root-devel-WordCountTopology-1-9349f43f-c60f-4d5b-b05d-953cb9facce4;["container_1_Consume_and_count_1"];3.25;1533112696.07569;133.63;1247.75;288.681509764;10;151
35;paravance-47.rennes.grid5000.fr;thermos-root-devel-WordCountTopology-0-9091c9ef-a1a6-4120-8543-79548b5fbcfd;["topology_master"];3.25;1533112696.18413;4.87;11.59;0.204352391;9;117
35;paravance-48.rennes.grid5000.fr;thermos-root-devel-WordCountTopology-2-1ca2c0e3-3a9f-44aa-945a-d9f1aa9c2b1e;["container_2_Emit_random_words_2"];3.25;1533112696.20587;28.95;682.23;5.668252713;10;149
36;paravance-47.rennes.grid5000.fr;thermos-root-devel-WordCountTopology-0-9091c9ef-a1a6-4120-8543-79548b5fbcfd;["topology_master"];3.25;1533112706.4;4.94;11.73;0.204352391;9;117
36;paravance-46.rennes.grid5000.fr;thermos-root-devel-WordCountTopology-1-9349f43f-c60f-4d5b-b05d-953cb9facce4;["container_1_Consume_and_count_1"];3.25;1533112706.29266;136.88;1276.26;295.429181821;10;151
36;paravance-48.rennes.grid5000.fr;thermos-root-devel-WordCountTopology-2-1ca2c0e3-3a9f-44aa-945a-d9f1aa9c2b1e;["container_2_Emit_random_words_2"];3.25;1533112706.42252;29.62;700.43;5.668252713;10;149
37;paravance-48.rennes.grid5000.fr;thermos-root-devel-WordCountTopology-2-1ca2c0e3-3a9f-44aa-945a-d9f1aa9c2b1e;["container_2_Emit_random_words_2"];3.25;1533112716.63831;30.16;712.95;5.668252713;10;149
37;paravance-46.rennes.grid5000.fr;thermos-root-devel-WordCountTopology-1-9349f43f-c60f-4d5b-b05d-953cb9facce4;["container_1_Consume_and_count_1"];3.25;1533112716.51006;139.45;1305.66;303.694268982;10;151
37;paravance-47.rennes.grid5000.fr;thermos-root-devel-WordCountTopology-0-9091c9ef-a1a6-4120-8543-79548b5fbcfd;["topology_master"];3.25;1533112716.61666;5.03;11.86;0.204352391;9;117
38;paravance-46.rennes.grid5000.fr;thermos-root-devel-WordCountTopology-1-9349f43f-c60f-4d5b-b05d-953cb9facce4;["container_1_Consume_and_count_1"];3.25;1533112726.72687;142.33;1334.69;310.792012039;10;151
38;paravance-48.rennes.grid5000.fr;thermos-root-devel-WordCountTopology-2-1ca2c0e3-3a9f-44aa-945a-d9f1aa9c2b1e;["container_2_Emit_random_words_2"];3.25;1533112726.85606;30.81;731.12;5.668252713;10;149
38;paravance-47.rennes.grid5000.fr;thermos-root-devel-WordCountTopology-0-9091c9ef-a1a6-4120-8543-79548b5fbcfd;["topology_master"];3.25;1533112726.83392;5.06;11.89;0.204352391;9;117
39;paravance-46.rennes.grid5000.fr;thermos-root-devel-WordCountTopology-1-9349f43f-c60f-4d5b-b05d-953cb9facce4;["container_1_Consume_and_count_1"];3.25;1533112736.94376;144.61;1363.22;319.366088051;10;151
39;paravance-48.rennes.grid5000.fr;thermos-root-devel-WordCountTopology-2-1ca2c0e3-3a9f-44aa-945a-d9f1aa9c2b1e;["container_2_Emit_random_words_2"];3.25;1533112737.07291;31.31;742.1;5.668252713;10;149
39;paravance-47.rennes.grid5000.fr;thermos-root-devel-WordCountTopology-0-9091c9ef-a1a6-4120-8543-79548b5fbcfd;["topology_master"];3.25;1533112737.05029;5.16;12.01;0.204352391;9;117
40;paravance-48.rennes.grid5000.fr;thermos-root-devel-WordCountTopology-2-1ca2c0e3-3a9f-44aa-945a-d9f1aa9c2b1e;["container_2_Emit_random_words_2"];3.25;1533112747.28875;32.0;759.85;5.668252713;10;149
40;paravance-47.rennes.grid5000.fr;thermos-root-devel-WordCountTopology-0-9091c9ef-a1a6-4120-8543-79548b5fbcfd;["topology_master"];3.25;1533112747.26577;5.21;12.08;0.204352391;9;117
40;paravance-46.rennes.grid5000.fr;thermos-root-devel-WordCountTopology-1-9349f43f-c60f-4d5b-b05d-953cb9facce4;["container_1_Consume_and_count_1"];3.25;1533112747.15927;147.42;1392.36;325.978564395;10;151
41;paravance-48.rennes.grid5000.fr;thermos-root-devel-WordCountTopology-2-1ca2c0e3-3a9f-44aa-945a-d9f1aa9c2b1e;["container_2_Emit_random_words_2"];3.25;1533112757.50556;32.71;778.03;5.668252713;10;149
41;paravance-47.rennes.grid5000.fr;thermos-root-devel-WordCountTopology-0-9091c9ef-a1a6-4120-8543-79548b5fbcfd;["topology_master"];3.25;1533112757.48341;5.28;12.17;0.204352391;9;117
41;paravance-46.rennes.grid5000.fr;thermos-root-devel-WordCountTopology-1-9349f43f-c60f-4d5b-b05d-953cb9facce4;["container_1_Consume_and_count_1"];3.25;1533112757.3773;150.74;1420.89;330.894198076;10;151
42;paravance-46.rennes.grid5000.fr;thermos-root-devel-WordCountTopology-1-9349f43f-c60f-4d5b-b05d-953cb9facce4;["container_1_Consume_and_count_1"];3.25;1533112767.59213;153.1;1449.16;339.871487607;10;151
42;paravance-48.rennes.grid5000.fr;thermos-root-devel-WordCountTopology-2-1ca2c0e3-3a9f-44aa-945a-d9f1aa9c2b1e;["container_2_Emit_random_words_2"];3.25;1533112767.72267;33.23;790.68;5.668252713;10;149
42;paravance-47.rennes.grid5000.fr;thermos-root-devel-WordCountTopology-0-9091c9ef-a1a6-4120-8543-79548b5fbcfd;["topology_master"];3.25;1533112767.69977;5.35;12.29;0.204352391;9;117
43;paravance-48.rennes.grid5000.fr;thermos-root-devel-WordCountTopology-2-1ca2c0e3-3a9f-44aa-945a-d9f1aa9c2b1e;["container_2_Emit_random_words_2"];3.25;1533112777.93839;33.87;806.56;5.668252713;10;149
43;paravance-46.rennes.grid5000.fr;thermos-root-devel-WordCountTopology-1-9349f43f-c60f-4d5b-b05d-953cb9facce4;["container_1_Consume_and_count_1"];3.25;1533112777.80965;156.34;1477.75;344.134647327;10;151
43;paravance-47.rennes.grid5000.fr;thermos-root-devel-WordCountTopology-0-9091c9ef-a1a6-4120-8543-79548b5fbcfd;["topology_master"];3.25;1533112777.91655;5.44;12.42;0.204352391;9;117
44;paravance-48.rennes.grid5000.fr;thermos-root-devel-WordCountTopology-2-1ca2c0e3-3a9f-44aa-945a-d9f1aa9c2b1e;["container_2_Emit_random_words_2"];3.25;1533112788.1559;34.51;824.63;5.668252713;10;149
44;paravance-46.rennes.grid5000.fr;thermos-root-devel-WordCountTopology-1-9349f43f-c60f-4d5b-b05d-953cb9facce4;["container_1_Consume_and_count_1"];3.25;1533112788.02632;159.91;1504.89;346.001020918;10;151
44;paravance-47.rennes.grid5000.fr;thermos-root-devel-WordCountTopology-0-9091c9ef-a1a6-4120-8543-79548b5fbcfd;["topology_master"];3.25;1533112788.13345;5.47;12.47;0.204352391;9;117
45;paravance-46.rennes.grid5000.fr;thermos-root-devel-WordCountTopology-1-9349f43f-c60f-4d5b-b05d-953cb9facce4;["container_1_Consume_and_count_1"];3.25;1533112798.24459;163.39;1530.46;347.163800606;10;151
45;paravance-47.rennes.grid5000.fr;thermos-root-devel-WordCountTopology-0-9091c9ef-a1a6-4120-8543-79548b5fbcfd;["topology_master"];3.25;1533112798.34978;5.56;12.59;0.204352391;9;117
45;paravance-48.rennes.grid5000.fr;thermos-root-devel-WordCountTopology-2-1ca2c0e3-3a9f-44aa-945a-d9f1aa9c2b1e;["container_2_Emit_random_words_2"];3.25;1533112798.37337;35.09;842.29;5.668252713;10;149
46;paravance-48.rennes.grid5000.fr;thermos-root-devel-WordCountTopology-2-1ca2c0e3-3a9f-44aa-945a-d9f1aa9c2b1e;["container_2_Emit_random_words_2"];3.25;1533112808.5905;35.76;860.49;5.668252713;10;149
46;paravance-46.rennes.grid5000.fr;thermos-root-devel-WordCountTopology-1-9349f43f-c60f-4d5b-b05d-953cb9facce4;["container_1_Consume_and_count_1"];3.25;1533112808.46148;166.4;1559.29;354.228374116;10;151
46;paravance-47.rennes.grid5000.fr;thermos-root-devel-WordCountTopology-0-9091c9ef-a1a6-4120-8543-79548b5fbcfd;["topology_master"];3.25;1533112808.56806;5.62;12.66;0.204352391;9;117
47;paravance-48.rennes.grid5000.fr;thermos-root-devel-WordCountTopology-2-1ca2c0e3-3a9f-44aa-945a-d9f1aa9c2b1e;["container_2_Emit_random_words_2"];3.25;1533112818.81087;36.22;871.11;5.668252713;10;149
47;paravance-47.rennes.grid5000.fr;thermos-root-devel-WordCountTopology-0-9091c9ef-a1a6-4120-8543-79548b5fbcfd;["topology_master"];3.25;1533112818.78628;5.68;12.75;0.204352391;9;117
47;paravance-46.rennes.grid5000.fr;thermos-root-devel-WordCountTopology-1-9349f43f-c60f-4d5b-b05d-953cb9facce4;["container_1_Consume_and_count_1"];3.25;1533112818.68061;168.85;1588.77;363.043554519;10;151
48;paravance-46.rennes.grid5000.fr;thermos-root-devel-WordCountTopology-1-9349f43f-c60f-4d5b-b05d-953cb9facce4;["container_1_Consume_and_count_1"];3.25;1533112828.89709;171.76;1617.78;369.353222684;10;151
48;paravance-48.rennes.grid5000.fr;thermos-root-devel-WordCountTopology-2-1ca2c0e3-3a9f-44aa-945a-d9f1aa9c2b1e;["container_2_Emit_random_words_2"];3.25;1533112829.02602;36.9;889.15;5.668252713;10;149
48;paravance-47.rennes.grid5000.fr;thermos-root-devel-WordCountTopology-0-9091c9ef-a1a6-4120-8543-79548b5fbcfd;["topology_master"];3.25;1533112829.00184;5.75;12.86;0.204352391;9;117
49;paravance-48.rennes.grid5000.fr;thermos-root-devel-WordCountTopology-2-1ca2c0e3-3a9f-44aa-945a-d9f1aa9c2b1e;["container_2_Emit_random_words_2"];3.25;1533112839.24267;37.48;903.34;5.668252713;10;149
49;paravance-46.rennes.grid5000.fr;thermos-root-devel-WordCountTopology-1-9349f43f-c60f-4d5b-b05d-953cb9facce4;["container_1_Consume_and_count_1"];3.25;1533112839.11075;174.4;1646.03;374.985728021;10;151
49;paravance-47.rennes.grid5000.fr;thermos-root-devel-WordCountTopology-0-9091c9ef-a1a6-4120-8543-79548b5fbcfd;["topology_master"];3.25;1533112839.21944;5.84;12.99;0.204352391;9;117
50;paravance-47.rennes.grid5000.fr;thermos-root-devel-WordCountTopology-0-9091c9ef-a1a6-4120-8543-79548b5fbcfd;["topology_master"];3.25;1533112849.43471;5.86;13.02;0.204352391;9;117
50;paravance-46.rennes.grid5000.fr;thermos-root-devel-WordCountTopology-1-9349f43f-c60f-4d5b-b05d-953cb9facce4;["container_1_Consume_and_count_1"];3.25;1533112849.32946;177.15;1675.23;383.066541801;10;151
50;paravance-48.rennes.grid5000.fr;thermos-root-devel-WordCountTopology-2-1ca2c0e3-3a9f-44aa-945a-d9f1aa9c2b1e;["container_2_Emit_random_words_2"];3.25;1533112849.4581;38.04;918.06;5.668252713;10;149
51;paravance-46.rennes.grid5000.fr;thermos-root-devel-WordCountTopology-1-9349f43f-c60f-4d5b-b05d-953cb9facce4;["container_1_Consume_and_count_1"];3.25;1533112859.5435;180.65;1703.56;386.11903817;10;151
51;paravance-47.rennes.grid5000.fr;thermos-root-devel-WordCountTopology-0-9091c9ef-a1a6-4120-8543-79548b5fbcfd;["topology_master"];3.25;1533112859.64992;5.95;13.15;0.204352391;9;117
51;paravance-48.rennes.grid5000.fr;thermos-root-devel-WordCountTopology-2-1ca2c0e3-3a9f-44aa-945a-d9f1aa9c2b1e;["container_2_Emit_random_words_2"];3.25;1533112859.67404;38.73;936.2;5.668252713;10;149
52;paravance-48.rennes.grid5000.fr;thermos-root-devel-WordCountTopology-2-1ca2c0e3-3a9f-44aa-945a-d9f1aa9c2b1e;["container_2_Emit_random_words_2"];3.25;1533112869.89062;39.25;949.57;5.668252713;10;149
52;paravance-46.rennes.grid5000.fr;thermos-root-devel-WordCountTopology-1-9349f43f-c60f-4d5b-b05d-953cb9facce4;["container_1_Consume_and_count_1"];3.25;1533112869.75993;183.21;1731.37;392.221013172;10;151
52;paravance-47.rennes.grid5000.fr;thermos-root-devel-WordCountTopology-0-9091c9ef-a1a6-4120-8543-79548b5fbcfd;["topology_master"];3.25;1533112869.86526;6.01;13.22;0.204352391;9;117
53;paravance-47.rennes.grid5000.fr;thermos-root-devel-WordCountTopology-0-9091c9ef-a1a6-4120-8543-79548b5fbcfd;["topology_master"];3.25;1533112880.07976;6.08;13.35;0.204352391;9;117
53;paravance-48.rennes.grid5000.fr;thermos-root-devel-WordCountTopology-2-1ca2c0e3-3a9f-44aa-945a-d9f1aa9c2b1e;["container_2_Emit_random_words_2"];3.25;1533112880.10432;39.85;964.68;5.668252713;10;149
53;paravance-46.rennes.grid5000.fr;thermos-root-devel-WordCountTopology-1-9349f43f-c60f-4d5b-b05d-953cb9facce4;["container_1_Consume_and_count_1"];3.25;1533112879.97442;186.49;1759.87;398.083088243;10;151
54;paravance-47.rennes.grid5000.fr;thermos-root-devel-WordCountTopology-0-9091c9ef-a1a6-4120-8543-79548b5fbcfd;["topology_master"];3.25;1533112890.29658;6.14;13.42;0.204352391;9;117
54;paravance-48.rennes.grid5000.fr;thermos-root-devel-WordCountTopology-2-1ca2c0e3-3a9f-44aa-945a-d9f1aa9c2b1e;["container_2_Emit_random_words_2"];3.25;1533112890.32115;40.49;982.19;5.668252713;10;149
54;paravance-46.rennes.grid5000.fr;thermos-root-devel-WordCountTopology-1-9349f43f-c60f-4d5b-b05d-953cb9facce4;["container_1_Consume_and_count_1"];3.25;1533112890.19172;189.72;1788.54;402.535758126;10;151
55;paravance-46.rennes.grid5000.fr;thermos-root-devel-WordCountTopology-1-9349f43f-c60f-4d5b-b05d-953cb9facce4;["container_1_Consume_and_count_1"];3.25;1533112900.40923;192.37;1816.38;409.172648426;10;151
55;paravance-47.rennes.grid5000.fr;thermos-root-devel-WordCountTopology-0-9091c9ef-a1a6-4120-8543-79548b5fbcfd;["topology_master"];3.25;1533112900.51422;6.23;13.55;0.204352391;9;117
55;paravance-48.rennes.grid5000.fr;thermos-root-devel-WordCountTopology-2-1ca2c0e3-3a9f-44aa-945a-d9f1aa9c2b1e;["container_2_Emit_random_words_2"];3.25;1533112900.53846;41.17;1000.2;5.668252713;10;149
56;paravance-46.rennes.grid5000.fr;thermos-root-devel-WordCountTopology-1-9349f43f-c60f-4d5b-b05d-953cb9facce4;["container_1_Consume_and_count_1"];3.25;1533112910.62665;195.92;1844.4;413.840738124;10;151
56;paravance-47.rennes.grid5000.fr;thermos-root-devel-WordCountTopology-0-9091c9ef-a1a6-4120-8543-79548b5fbcfd;["topology_master"];3.25;1533112910.73201;6.26;13.57;0.204352391;9;117
56;paravance-48.rennes.grid5000.fr;thermos-root-devel-WordCountTopology-2-1ca2c0e3-3a9f-44aa-945a-d9f1aa9c2b1e;["container_2_Emit_random_words_2"];3.25;1533112910.75622;41.79;1017.34;5.668252713;10;149
57;paravance-46.rennes.grid5000.fr;thermos-root-devel-WordCountTopology-1-9349f43f-c60f-4d5b-b05d-953cb9facce4;["container_1_Consume_and_count_1"];3.25;1533112920.84177;198.8;1873.34;422.704151486;10;151
57;paravance-47.rennes.grid5000.fr;thermos-root-devel-WordCountTopology-0-9091c9ef-a1a6-4120-8543-79548b5fbcfd;["topology_master"];3.25;1533112920.94792;6.35;13.7;0.204352391;9;117
57;paravance-48.rennes.grid5000.fr;thermos-root-devel-WordCountTopology-2-1ca2c0e3-3a9f-44aa-945a-d9f1aa9c2b1e;["container_2_Emit_random_words_2"];3.25;1533112920.97317;42.33;1029.8;5.668252713;10;149
58;paravance-46.rennes.grid5000.fr;thermos-root-devel-WordCountTopology-1-9349f43f-c60f-4d5b-b05d-953cb9facce4;["container_1_Consume_and_count_1"];3.25;1533112931.05705;201.37;1902.58;430.386465;10;151
58;paravance-48.rennes.grid5000.fr;thermos-root-devel-WordCountTopology-2-1ca2c0e3-3a9f-44aa-945a-d9f1aa9c2b1e;["container_2_Emit_random_words_2"];3.25;1533112931.18795;42.81;1041.47;5.668252713;10;149
58;paravance-47.rennes.grid5000.fr;thermos-root-devel-WordCountTopology-0-9091c9ef-a1a6-4120-8543-79548b5fbcfd;["topology_master"];3.25;1533112931.16257;6.41;13.78;0.204352391;9;117
59;paravance-47.rennes.grid5000.fr;thermos-root-devel-WordCountTopology-0-9091c9ef-a1a6-4120-8543-79548b5fbcfd;["topology_master"];3.25;1533112941.37759;6.49;13.87;0.204352391;9;117
59;paravance-46.rennes.grid5000.fr;thermos-root-devel-WordCountTopology-1-9349f43f-c60f-4d5b-b05d-953cb9facce4;["container_1_Consume_and_count_1"];3.25;1533112941.27237;204.77;1930.13;432.994940989;10;151
59;paravance-48.rennes.grid5000.fr;thermos-root-devel-WordCountTopology-2-1ca2c0e3-3a9f-44aa-945a-d9f1aa9c2b1e;["container_2_Emit_random_words_2"];3.25;1533112941.40349;43.49;1059.62;5.668252713;10;149
60;paravance-48.rennes.grid5000.fr;thermos-root-devel-WordCountTopology-2-1ca2c0e3-3a9f-44aa-945a-d9f1aa9c2b1e;["container_2_Emit_random_words_2"];3.25;1533112951.61743;44.2;1077.69;5.668252713;10;149
60;paravance-47.rennes.grid5000.fr;thermos-root-devel-WordCountTopology-0-9091c9ef-a1a6-4120-8543-79548b5fbcfd;["topology_master"];3.25;1533112951.59212;6.54;13.95;0.204352391;9;117
60;paravance-46.rennes.grid5000.fr;thermos-root-devel-WordCountTopology-1-9349f43f-c60f-4d5b-b05d-953cb9facce4;["container_1_Consume_and_count_1"];3.25;1533112951.48686;207.9;1958.87;439.354490385;10;151
