{
  "status": "success",
  "executiontime": 0.0001800060272216797,
  "message": "",
  "result": {
    "bolts": {
      "Consume_and_count": [
        "container_1_Consume_and_count_1"
      ]
    },
    "instances": {
      "container_2_Emit_random_words_2": {
        "stmgrId": "stmgr-2",
        "logfile": "http://paravance-55.rennes.grid5000.fr:31501/file/log-files/container_2_Emit_random_words_2.log.0",
        "id": "container_2_Emit_random_words_2",
        "name": "Emit_random_words"
      },
      "container_1_Consume_and_count_1": {
        "stmgrId": "stmgr-1",
        "logfile": "http://paravance-43.rennes.grid5000.fr:31429/file/log-files/container_1_Consume_and_count_1.log.0",
        "id": "container_1_Consume_and_count_1",
        "name": "Consume_and_count"
      }
    },
    "instance_groups": {
      "container_1_Consume_and": [
        "container_1_Consume_and_count_1"
      ],
      "container_2_Emit_random": [
        "container_2_Emit_random_words_2"
      ]
    },
    "spouts": {
      "Emit_random_words": [
        "container_2_Emit_random_words_2"
      ]
    },
    "config": {
      "topology.message.timeout.secs": "30",
      "topology.team.environment": "devel",
      "topology.serializer.classname": "org.apache.heron.streamlet.impl.KryoSerializer",
      "topology.team.name": "root",
      "topology.debug": "false",
      "topology.max.spout.pending": "100",
      "topology.container.padding.percentage": "600",
      "topology.enable.message.timeouts": "true",
      "topology.component.parallelism": "1",
      "topology.name": "WordCountTopology",
      "topology.stmgrs": "2",
      "topology.reliability.mode": "ATMOST_ONCE"
    },
    "stmgrs": {
      "stmgr-1": {
        "cwd": "/var/lib/mesos/slaves/a349cce3-a92f-4031-a411-b9959b9ac413-S0/frameworks/75deb08a-eb1b-415c-8b2c-e922be5f7d98-0000/executors/thermos-root-devel-WordCountTopology-1-a8d62031-55aa-4df1-be38-b1b4e46fa461/runs/4fe48a0c-973d-4340-a6dd-96e8fa8cf700/sandbox",
        "host": "paravance-43.rennes.grid5000.fr",
        "joburl": "http://paravance-43.rennes.grid5000.fr:31429/browse/",
        "shell_port": 31429,
        "logfiles": "http://paravance-43.rennes.grid5000.fr:31429/browse/log-files",
        "pid": 2142,
        "id": "stmgr-1",
        "instance_ids": [
          "container_1_Consume_and_count_1"
        ],
        "port": 31250
      },
      "stmgr-2": {
        "cwd": "/var/lib/mesos/slaves/a349cce3-a92f-4031-a411-b9959b9ac413-S1/frameworks/75deb08a-eb1b-415c-8b2c-e922be5f7d98-0000/executors/thermos-root-devel-WordCountTopology-2-b8c750d0-c586-4c0c-82f1-31b08b61b271/runs/c0cb996a-c83a-4ebe-9df9-02e660124142/sandbox",
        "host": "paravance-55.rennes.grid5000.fr",
        "joburl": "http://paravance-55.rennes.grid5000.fr:31501/browse/",
        "shell_port": 31501,
        "logfiles": "http://paravance-55.rennes.grid5000.fr:31501/browse/log-files",
        "pid": 2197,
        "id": "stmgr-2",
        "instance_ids": [
          "container_2_Emit_random_words_2"
        ],
        "port": 31445
      }
    }
  },
  "tracker_version": "0.17.8-61-gd7c8c62"
}