mesure_id;slave_id;executor_id;heron_instances;cpus_limit;timestamp_A;cpus_system_time_secs_A;cpus_user_time_secs_A;cpus_throttled_time_secs_A;processes;threads
0;paravance-58.rennes.grid5000.fr;thermos-root-devel-WordCountTopology-1-eef171cb-ad2a-437d-9bf9-f6ca1095ff9f;["container_1_Consume_and_count_1"];5.25;1533116128.36976;37.86;234.59;1.301730206;10;151
0;paravance-59.rennes.grid5000.fr;thermos-root-devel-WordCountTopology-2-905407eb-5422-452d-8dbc-9856a5959466;["container_2_Emit_random_words_2"];5.25;1533116128.43068;14.85;177.32;1.697290705;10;149
0;paravance-57.rennes.grid5000.fr;thermos-root-devel-WordCountTopology-0-1dbb7545-8335-4c3d-83a5-6ee31f3f1823;["topology_master"];5.25;1533116128.39376;2.41;8.12;0.0;9;117
1;paravance-58.rennes.grid5000.fr;thermos-root-devel-WordCountTopology-1-eef171cb-ad2a-437d-9bf9-f6ca1095ff9f;["container_1_Consume_and_count_1"];5.25;1533116138.58768;42.06;259.73;1.301730206;10;151
1;paravance-59.rennes.grid5000.fr;thermos-root-devel-WordCountTopology-2-905407eb-5422-452d-8dbc-9856a5959466;["container_2_Emit_random_words_2"];5.25;1533116138.64782;16.28;196.37;1.697290705;10;149
1;paravance-57.rennes.grid5000.fr;thermos-root-devel-WordCountTopology-0-1dbb7545-8335-4c3d-83a5-6ee31f3f1823;["topology_master"];5.25;1533116138.61078;2.47;8.24;0.0;9;117
2;paravance-58.rennes.grid5000.fr;thermos-root-devel-WordCountTopology-1-eef171cb-ad2a-437d-9bf9-f6ca1095ff9f;["container_1_Consume_and_count_1"];5.25;1533116148.80176;46.29;287.26;1.301730206;10;151
2;paravance-57.rennes.grid5000.fr;thermos-root-devel-WordCountTopology-0-1dbb7545-8335-4c3d-83a5-6ee31f3f1823;["topology_master"];5.25;1533116148.82589;2.56;8.37;0.0;9;117
2;paravance-59.rennes.grid5000.fr;thermos-root-devel-WordCountTopology-2-905407eb-5422-452d-8dbc-9856a5959466;["container_2_Emit_random_words_2"];5.25;1533116148.86374;17.74;215.53;1.697290705;10;149
3;paravance-57.rennes.grid5000.fr;thermos-root-devel-WordCountTopology-0-1dbb7545-8335-4c3d-83a5-6ee31f3f1823;["topology_master"];5.25;1533116158.94295;2.62;8.46;0.0;9;117
3;paravance-58.rennes.grid5000.fr;thermos-root-devel-WordCountTopology-1-eef171cb-ad2a-437d-9bf9-f6ca1095ff9f;["container_1_Consume_and_count_1"];5.25;1533116159.02064;50.53;314.12;1.301730206;10;151
3;paravance-59.rennes.grid5000.fr;thermos-root-devel-WordCountTopology-2-905407eb-5422-452d-8dbc-9856a5959466;["container_2_Emit_random_words_2"];5.25;1533116159.07896;19.19;234.76;1.697290705;10;149
4;paravance-59.rennes.grid5000.fr;thermos-root-devel-WordCountTopology-2-905407eb-5422-452d-8dbc-9856a5959466;["container_2_Emit_random_words_2"];5.25;1533116169.29468;20.59;254.01;1.697290705;10;149
4;paravance-57.rennes.grid5000.fr;thermos-root-devel-WordCountTopology-0-1dbb7545-8335-4c3d-83a5-6ee31f3f1823;["topology_master"];5.25;1533116169.25848;2.68;8.54;0.0;9;117
4;paravance-58.rennes.grid5000.fr;thermos-root-devel-WordCountTopology-1-eef171cb-ad2a-437d-9bf9-f6ca1095ff9f;["container_1_Consume_and_count_1"];5.25;1533116169.23541;54.51;340.16;1.360978173;10;151
5;paravance-59.rennes.grid5000.fr;thermos-root-devel-WordCountTopology-2-905407eb-5422-452d-8dbc-9856a5959466;["container_2_Emit_random_words_2"];5.25;1533116179.50854;22.0;273.11;1.697290705;10;149
5;paravance-58.rennes.grid5000.fr;thermos-root-devel-WordCountTopology-1-eef171cb-ad2a-437d-9bf9-f6ca1095ff9f;["container_1_Consume_and_count_1"];5.25;1533116179.44901;58.7;367.15;1.360978173;10;151
5;paravance-57.rennes.grid5000.fr;thermos-root-devel-WordCountTopology-0-1dbb7545-8335-4c3d-83a5-6ee31f3f1823;["topology_master"];5.25;1533116179.47247;2.74;8.61;0.0;9;117
6;paravance-57.rennes.grid5000.fr;thermos-root-devel-WordCountTopology-0-1dbb7545-8335-4c3d-83a5-6ee31f3f1823;["topology_master"];5.25;1533116189.58627;2.87;8.81;0.0;9;117
6;paravance-58.rennes.grid5000.fr;thermos-root-devel-WordCountTopology-1-eef171cb-ad2a-437d-9bf9-f6ca1095ff9f;["container_1_Consume_and_count_1"];5.25;1533116189.66382;62.83;393.82;1.360978173;10;151
6;paravance-59.rennes.grid5000.fr;thermos-root-devel-WordCountTopology-2-905407eb-5422-452d-8dbc-9856a5959466;["container_2_Emit_random_words_2"];5.25;1533116189.72302;23.48;292.72;1.697290705;10;149
7;paravance-58.rennes.grid5000.fr;thermos-root-devel-WordCountTopology-1-eef171cb-ad2a-437d-9bf9-f6ca1095ff9f;["container_1_Consume_and_count_1"];5.25;1533116199.87789;66.86;420.55;1.360978173;10;151
7;paravance-57.rennes.grid5000.fr;thermos-root-devel-WordCountTopology-0-1dbb7545-8335-4c3d-83a5-6ee31f3f1823;["topology_master"];5.25;1533116199.9005;2.89;8.85;0.0;9;117
7;paravance-59.rennes.grid5000.fr;thermos-root-devel-WordCountTopology-2-905407eb-5422-452d-8dbc-9856a5959466;["container_2_Emit_random_words_2"];5.25;1533116199.93691;24.89;311.39;1.697290705;10;149
8;paravance-58.rennes.grid5000.fr;thermos-root-devel-WordCountTopology-1-eef171cb-ad2a-437d-9bf9-f6ca1095ff9f;["container_1_Consume_and_count_1"];5.25;1533116210.0956;71.07;447.98;1.360978173;10;151
8;paravance-57.rennes.grid5000.fr;thermos-root-devel-WordCountTopology-0-1dbb7545-8335-4c3d-83a5-6ee31f3f1823;["topology_master"];5.25;1533116210.11819;2.98;8.97;0.0;9;117
8;paravance-59.rennes.grid5000.fr;thermos-root-devel-WordCountTopology-2-905407eb-5422-452d-8dbc-9856a5959466;["container_2_Emit_random_words_2"];5.25;1533116210.15459;26.33;330.25;1.697290705;10;149
9;paravance-58.rennes.grid5000.fr;thermos-root-devel-WordCountTopology-1-eef171cb-ad2a-437d-9bf9-f6ca1095ff9f;["container_1_Consume_and_count_1"];5.25;1533116220.31413;75.43;475.69;1.360978173;10;151
9;paravance-59.rennes.grid5000.fr;thermos-root-devel-WordCountTopology-2-905407eb-5422-452d-8dbc-9856a5959466;["container_2_Emit_random_words_2"];5.25;1533116220.37168;27.76;349.23;1.697290705;10;149
9;paravance-57.rennes.grid5000.fr;thermos-root-devel-WordCountTopology-0-1dbb7545-8335-4c3d-83a5-6ee31f3f1823;["topology_master"];5.25;1533116220.33723;3.04;9.05;0.0;9;117
10;paravance-59.rennes.grid5000.fr;thermos-root-devel-WordCountTopology-2-905407eb-5422-452d-8dbc-9856a5959466;["container_2_Emit_random_words_2"];5.25;1533116230.58868;29.17;368.35;1.697290705;10;149
10;paravance-57.rennes.grid5000.fr;thermos-root-devel-WordCountTopology-0-1dbb7545-8335-4c3d-83a5-6ee31f3f1823;["topology_master"];5.25;1533116230.55304;3.1;9.14;0.0;9;117
10;paravance-58.rennes.grid5000.fr;thermos-root-devel-WordCountTopology-1-eef171cb-ad2a-437d-9bf9-f6ca1095ff9f;["container_1_Consume_and_count_1"];5.25;1533116230.53087;79.57;503.24;1.360978173;10;151
11;paravance-58.rennes.grid5000.fr;thermos-root-devel-WordCountTopology-1-eef171cb-ad2a-437d-9bf9-f6ca1095ff9f;["container_1_Consume_and_count_1"];5.25;1533116240.74706;83.6;530.59;1.360978173;10;151
11;paravance-59.rennes.grid5000.fr;thermos-root-devel-WordCountTopology-2-905407eb-5422-452d-8dbc-9856a5959466;["container_2_Emit_random_words_2"];5.25;1533116240.80514;30.59;387.21;1.697290705;10;149
11;paravance-57.rennes.grid5000.fr;thermos-root-devel-WordCountTopology-0-1dbb7545-8335-4c3d-83a5-6ee31f3f1823;["topology_master"];5.25;1533116240.76988;3.16;9.21;0.0;9;117
12;paravance-58.rennes.grid5000.fr;thermos-root-devel-WordCountTopology-1-eef171cb-ad2a-437d-9bf9-f6ca1095ff9f;["container_1_Consume_and_count_1"];5.25;1533116250.96259;87.79;557.96;1.360978173;10;151
12;paravance-59.rennes.grid5000.fr;thermos-root-devel-WordCountTopology-2-905407eb-5422-452d-8dbc-9856a5959466;["container_2_Emit_random_words_2"];5.25;1533116251.02353;32.09;406.55;1.697290705;10;149
12;paravance-57.rennes.grid5000.fr;thermos-root-devel-WordCountTopology-0-1dbb7545-8335-4c3d-83a5-6ee31f3f1823;["topology_master"];5.25;1533116250.98678;3.28;9.52;0.0;9;117
13;paravance-58.rennes.grid5000.fr;thermos-root-devel-WordCountTopology-1-eef171cb-ad2a-437d-9bf9-f6ca1095ff9f;["container_1_Consume_and_count_1"];5.25;1533116261.17907;92.08;586.34;1.360978173;10;151
13;paravance-59.rennes.grid5000.fr;thermos-root-devel-WordCountTopology-2-905407eb-5422-452d-8dbc-9856a5959466;["container_2_Emit_random_words_2"];5.25;1533116261.23927;33.5;425.64;1.697290705;10;149
13;paravance-57.rennes.grid5000.fr;thermos-root-devel-WordCountTopology-0-1dbb7545-8335-4c3d-83a5-6ee31f3f1823;["topology_master"];5.25;1533116261.20232;3.31;9.55;0.0;9;117
14;paravance-58.rennes.grid5000.fr;thermos-root-devel-WordCountTopology-1-eef171cb-ad2a-437d-9bf9-f6ca1095ff9f;["container_1_Consume_and_count_1"];5.25;1533116271.39499;96.35;614.33;1.360978173;10;151
14;paravance-59.rennes.grid5000.fr;thermos-root-devel-WordCountTopology-2-905407eb-5422-452d-8dbc-9856a5959466;["container_2_Emit_random_words_2"];5.25;1533116271.4559;34.97;444.92;1.697290705;10;149
14;paravance-57.rennes.grid5000.fr;thermos-root-devel-WordCountTopology-0-1dbb7545-8335-4c3d-83a5-6ee31f3f1823;["topology_master"];5.25;1533116271.41842;3.4;9.71;0.0;9;117
15;paravance-57.rennes.grid5000.fr;thermos-root-devel-WordCountTopology-0-1dbb7545-8335-4c3d-83a5-6ee31f3f1823;["topology_master"];5.25;1533116281.63461;3.45;9.78;0.0;9;117
15;paravance-59.rennes.grid5000.fr;thermos-root-devel-WordCountTopology-2-905407eb-5422-452d-8dbc-9856a5959466;["container_2_Emit_random_words_2"];5.25;1533116281.67255;36.41;464.19;1.697290705;10;149
15;paravance-58.rennes.grid5000.fr;thermos-root-devel-WordCountTopology-1-eef171cb-ad2a-437d-9bf9-f6ca1095ff9f;["container_1_Consume_and_count_1"];5.25;1533116281.61373;100.71;642.65;1.360978173;10;151
16;paravance-59.rennes.grid5000.fr;thermos-root-devel-WordCountTopology-2-905407eb-5422-452d-8dbc-9856a5959466;["container_2_Emit_random_words_2"];5.25;1533116291.88768;37.85;483.28;1.697290705;10;149
16;paravance-57.rennes.grid5000.fr;thermos-root-devel-WordCountTopology-0-1dbb7545-8335-4c3d-83a5-6ee31f3f1823;["topology_master"];5.25;1533116291.85265;3.51;9.86;0.0;9;117
16;paravance-58.rennes.grid5000.fr;thermos-root-devel-WordCountTopology-1-eef171cb-ad2a-437d-9bf9-f6ca1095ff9f;["container_1_Consume_and_count_1"];5.25;1533116291.82926;104.73;669.94;1.360978173;10;151
17;paravance-58.rennes.grid5000.fr;thermos-root-devel-WordCountTopology-1-eef171cb-ad2a-437d-9bf9-f6ca1095ff9f;["container_1_Consume_and_count_1"];5.25;1533116302.04478;108.8;698.66;1.360978173;10;151
17;paravance-59.rennes.grid5000.fr;thermos-root-devel-WordCountTopology-2-905407eb-5422-452d-8dbc-9856a5959466;["container_2_Emit_random_words_2"];5.25;1533116302.10427;39.31;502.56;1.697290705;10;149
17;paravance-57.rennes.grid5000.fr;thermos-root-devel-WordCountTopology-0-1dbb7545-8335-4c3d-83a5-6ee31f3f1823;["topology_master"];5.25;1533116302.06915;3.57;9.94;0.0;9;117
18;paravance-58.rennes.grid5000.fr;thermos-root-devel-WordCountTopology-1-eef171cb-ad2a-437d-9bf9-f6ca1095ff9f;["container_1_Consume_and_count_1"];5.25;1533116312.26115;112.93;725.88;1.360978173;10;151
18;paravance-59.rennes.grid5000.fr;thermos-root-devel-WordCountTopology-2-905407eb-5422-452d-8dbc-9856a5959466;["container_2_Emit_random_words_2"];5.25;1533116312.31973;40.83;521.86;1.697290705;10;149
18;paravance-57.rennes.grid5000.fr;thermos-root-devel-WordCountTopology-0-1dbb7545-8335-4c3d-83a5-6ee31f3f1823;["topology_master"];5.25;1533116312.28398;3.69;10.13;0.0;9;117
19;paravance-58.rennes.grid5000.fr;thermos-root-devel-WordCountTopology-1-eef171cb-ad2a-437d-9bf9-f6ca1095ff9f;["container_1_Consume_and_count_1"];5.25;1533116322.47631;117.31;754.22;1.360978173;10;151
19;paravance-59.rennes.grid5000.fr;thermos-root-devel-WordCountTopology-2-905407eb-5422-452d-8dbc-9856a5959466;["container_2_Emit_random_words_2"];5.25;1533116322.53597;42.22;541.15;1.697290705;10;149
19;paravance-57.rennes.grid5000.fr;thermos-root-devel-WordCountTopology-0-1dbb7545-8335-4c3d-83a5-6ee31f3f1823;["topology_master"];5.25;1533116322.50034;3.71;10.16;0.0;9;117
20;paravance-58.rennes.grid5000.fr;thermos-root-devel-WordCountTopology-1-eef171cb-ad2a-437d-9bf9-f6ca1095ff9f;["container_1_Consume_and_count_1"];5.25;1533116332.69256;121.58;782.31;1.360978173;10;151
20;paravance-59.rennes.grid5000.fr;thermos-root-devel-WordCountTopology-2-905407eb-5422-452d-8dbc-9856a5959466;["container_2_Emit_random_words_2"];5.25;1533116332.75099;43.71;560.53;1.697290705;10;149
20;paravance-57.rennes.grid5000.fr;thermos-root-devel-WordCountTopology-0-1dbb7545-8335-4c3d-83a5-6ee31f3f1823;["topology_master"];5.25;1533116332.71559;3.81;10.29;0.0;9;117
21;paravance-58.rennes.grid5000.fr;thermos-root-devel-WordCountTopology-1-eef171cb-ad2a-437d-9bf9-f6ca1095ff9f;["container_1_Consume_and_count_1"];5.25;1533116342.90826;125.91;811.03;1.360978173;10;151
21;paravance-57.rennes.grid5000.fr;thermos-root-devel-WordCountTopology-0-1dbb7545-8335-4c3d-83a5-6ee31f3f1823;["topology_master"];5.25;1533116342.93183;3.86;10.36;0.0;9;117
21;paravance-59.rennes.grid5000.fr;thermos-root-devel-WordCountTopology-2-905407eb-5422-452d-8dbc-9856a5959466;["container_2_Emit_random_words_2"];5.25;1533116342.96788;45.17;579.76;1.697290705;10;149
22;paravance-57.rennes.grid5000.fr;thermos-root-devel-WordCountTopology-0-1dbb7545-8335-4c3d-83a5-6ee31f3f1823;["topology_master"];5.25;1533116353.04686;3.92;10.44;0.0;9;117
22;paravance-58.rennes.grid5000.fr;thermos-root-devel-WordCountTopology-1-eef171cb-ad2a-437d-9bf9-f6ca1095ff9f;["container_1_Consume_and_count_1"];5.25;1533116353.12355;130.11;839.56;1.360978173;10;151
22;paravance-59.rennes.grid5000.fr;thermos-root-devel-WordCountTopology-2-905407eb-5422-452d-8dbc-9856a5959466;["container_2_Emit_random_words_2"];5.25;1533116353.18219;46.6;599.04;1.697290705;10;149
23;paravance-58.rennes.grid5000.fr;thermos-root-devel-WordCountTopology-1-eef171cb-ad2a-437d-9bf9-f6ca1095ff9f;["container_1_Consume_and_count_1"];5.25;1533116363.35371;134.44;866.7;1.360978173;10;151
23;paravance-57.rennes.grid5000.fr;thermos-root-devel-WordCountTopology-0-1dbb7545-8335-4c3d-83a5-6ee31f3f1823;["topology_master"];5.25;1533116363.37578;3.98;10.51;0.0;9;117
23;paravance-59.rennes.grid5000.fr;thermos-root-devel-WordCountTopology-2-905407eb-5422-452d-8dbc-9856a5959466;["container_2_Emit_random_words_2"];5.25;1533116363.41655;48.03;618.21;1.697290705;10;149
24;paravance-58.rennes.grid5000.fr;thermos-root-devel-WordCountTopology-1-eef171cb-ad2a-437d-9bf9-f6ca1095ff9f;["container_1_Consume_and_count_1"];5.25;1533116373.57256;138.79;892.93;1.360978173;10;151
24;paravance-57.rennes.grid5000.fr;thermos-root-devel-WordCountTopology-0-1dbb7545-8335-4c3d-83a5-6ee31f3f1823;["topology_master"];5.25;1533116373.595;4.1;10.7;0.0;9;117
24;paravance-59.rennes.grid5000.fr;thermos-root-devel-WordCountTopology-2-905407eb-5422-452d-8dbc-9856a5959466;["container_2_Emit_random_words_2"];5.25;1533116373.63268;49.48;637.74;1.697290705;10;149
25;paravance-58.rennes.grid5000.fr;thermos-root-devel-WordCountTopology-1-eef171cb-ad2a-437d-9bf9-f6ca1095ff9f;["container_1_Consume_and_count_1"];5.25;1533116383.79071;142.89;919.32;1.360978173;10;151
25;paravance-57.rennes.grid5000.fr;thermos-root-devel-WordCountTopology-0-1dbb7545-8335-4c3d-83a5-6ee31f3f1823;["topology_master"];5.25;1533116383.8134;4.13;10.72;0.0;9;117
25;paravance-59.rennes.grid5000.fr;thermos-root-devel-WordCountTopology-2-905407eb-5422-452d-8dbc-9856a5959466;["container_2_Emit_random_words_2"];5.25;1533116383.84913;50.9;656.99;1.697290705;10;149
26;paravance-58.rennes.grid5000.fr;thermos-root-devel-WordCountTopology-1-eef171cb-ad2a-437d-9bf9-f6ca1095ff9f;["container_1_Consume_and_count_1"];5.25;1533116394.00623;147.36;947.28;1.360978173;10;151
26;paravance-59.rennes.grid5000.fr;thermos-root-devel-WordCountTopology-2-905407eb-5422-452d-8dbc-9856a5959466;["container_2_Emit_random_words_2"];5.25;1533116394.06701;52.33;676.5;1.697290705;10;149
26;paravance-57.rennes.grid5000.fr;thermos-root-devel-WordCountTopology-0-1dbb7545-8335-4c3d-83a5-6ee31f3f1823;["topology_master"];5.25;1533116394.03082;4.21;10.85;0.0;9;117
27;paravance-59.rennes.grid5000.fr;thermos-root-devel-WordCountTopology-2-905407eb-5422-452d-8dbc-9856a5959466;["container_2_Emit_random_words_2"];5.25;1533116404.28185;53.76;695.81;1.697290705;10;149
27;paravance-58.rennes.grid5000.fr;thermos-root-devel-WordCountTopology-1-eef171cb-ad2a-437d-9bf9-f6ca1095ff9f;["container_1_Consume_and_count_1"];5.25;1533116404.22374;151.73;975.71;1.360978173;10;151
27;paravance-57.rennes.grid5000.fr;thermos-root-devel-WordCountTopology-0-1dbb7545-8335-4c3d-83a5-6ee31f3f1823;["topology_master"];5.25;1533116404.2462;4.27;10.92;0.0;9;117
28;paravance-59.rennes.grid5000.fr;thermos-root-devel-WordCountTopology-2-905407eb-5422-452d-8dbc-9856a5959466;["container_2_Emit_random_words_2"];5.25;1533116414.49712;55.16;715.46;1.697290705;10;149
28;paravance-58.rennes.grid5000.fr;thermos-root-devel-WordCountTopology-1-eef171cb-ad2a-437d-9bf9-f6ca1095ff9f;["container_1_Consume_and_count_1"];5.25;1533116414.43891;156.15;1003.11;1.360978173;10;151
28;paravance-57.rennes.grid5000.fr;thermos-root-devel-WordCountTopology-0-1dbb7545-8335-4c3d-83a5-6ee31f3f1823;["topology_master"];5.25;1533116414.46139;4.33;11.0;0.0;9;117
29;paravance-58.rennes.grid5000.fr;thermos-root-devel-WordCountTopology-1-eef171cb-ad2a-437d-9bf9-f6ca1095ff9f;["container_1_Consume_and_count_1"];5.25;1533116424.65683;160.71;1031.0;1.360978173;10;151
29;paravance-59.rennes.grid5000.fr;thermos-root-devel-WordCountTopology-2-905407eb-5422-452d-8dbc-9856a5959466;["container_2_Emit_random_words_2"];5.25;1533116424.7147;56.65;734.88;1.697290705;10;149
29;paravance-57.rennes.grid5000.fr;thermos-root-devel-WordCountTopology-0-1dbb7545-8335-4c3d-83a5-6ee31f3f1823;["topology_master"];5.25;1533116424.67956;4.44;11.14;0.0;9;117
30;paravance-57.rennes.grid5000.fr;thermos-root-devel-WordCountTopology-0-1dbb7545-8335-4c3d-83a5-6ee31f3f1823;["topology_master"];5.25;1533116434.89453;4.5;11.27;0.0;9;117
30;paravance-59.rennes.grid5000.fr;thermos-root-devel-WordCountTopology-2-905407eb-5422-452d-8dbc-9856a5959466;["container_2_Emit_random_words_2"];5.25;1533116434.932;58.09;754.55;1.697290705;10;149
30;paravance-58.rennes.grid5000.fr;thermos-root-devel-WordCountTopology-1-eef171cb-ad2a-437d-9bf9-f6ca1095ff9f;["container_1_Consume_and_count_1"];5.25;1533116434.87018;164.58;1055.67;1.360978173;10;151
31;paravance-57.rennes.grid5000.fr;thermos-root-devel-WordCountTopology-0-1dbb7545-8335-4c3d-83a5-6ee31f3f1823;["topology_master"];5.25;1533116445.01124;4.56;11.34;0.0;9;117
31;paravance-58.rennes.grid5000.fr;thermos-root-devel-WordCountTopology-1-eef171cb-ad2a-437d-9bf9-f6ca1095ff9f;["container_1_Consume_and_count_1"];5.25;1533116445.08901;168.9;1083.37;1.360978173;10;151
31;paravance-59.rennes.grid5000.fr;thermos-root-devel-WordCountTopology-2-905407eb-5422-452d-8dbc-9856a5959466;["container_2_Emit_random_words_2"];5.25;1533116445.14844;59.54;774.17;1.697290705;10;149
32;paravance-58.rennes.grid5000.fr;thermos-root-devel-WordCountTopology-1-eef171cb-ad2a-437d-9bf9-f6ca1095ff9f;["container_1_Consume_and_count_1"];5.25;1533116455.30429;173.35;1111.05;1.360978173;10;151
32;paravance-59.rennes.grid5000.fr;thermos-root-devel-WordCountTopology-2-905407eb-5422-452d-8dbc-9856a5959466;["container_2_Emit_random_words_2"];5.25;1533116455.36328;60.97;793.79;1.697290705;10;149
32;paravance-57.rennes.grid5000.fr;thermos-root-devel-WordCountTopology-0-1dbb7545-8335-4c3d-83a5-6ee31f3f1823;["topology_master"];5.25;1533116455.32783;4.61;11.42;0.0;9;117
33;paravance-58.rennes.grid5000.fr;thermos-root-devel-WordCountTopology-1-eef171cb-ad2a-437d-9bf9-f6ca1095ff9f;["container_1_Consume_and_count_1"];5.25;1533116465.52084;177.87;1138.84;1.360978173;10;151
33;paravance-57.rennes.grid5000.fr;thermos-root-devel-WordCountTopology-0-1dbb7545-8335-4c3d-83a5-6ee31f3f1823;["topology_master"];5.25;1533116465.54434;4.7;11.53;0.0;9;117
33;paravance-59.rennes.grid5000.fr;thermos-root-devel-WordCountTopology-2-905407eb-5422-452d-8dbc-9856a5959466;["container_2_Emit_random_words_2"];5.25;1533116465.57933;62.44;813.29;1.697290705;10;149
34;paravance-59.rennes.grid5000.fr;thermos-root-devel-WordCountTopology-2-905407eb-5422-452d-8dbc-9856a5959466;["container_2_Emit_random_words_2"];5.25;1533116475.79744;63.85;833.0;1.697290705;10;149
34;paravance-57.rennes.grid5000.fr;thermos-root-devel-WordCountTopology-0-1dbb7545-8335-4c3d-83a5-6ee31f3f1823;["topology_master"];5.25;1533116475.76068;4.73;11.56;0.0;9;117
34;paravance-58.rennes.grid5000.fr;thermos-root-devel-WordCountTopology-1-eef171cb-ad2a-437d-9bf9-f6ca1095ff9f;["container_1_Consume_and_count_1"];5.25;1533116475.7378;182.25;1167.1;1.360978173;10;151
35;paravance-59.rennes.grid5000.fr;thermos-root-devel-WordCountTopology-2-905407eb-5422-452d-8dbc-9856a5959466;["container_2_Emit_random_words_2"];5.25;1533116486.01292;65.33;852.45;1.697290705;10;149
35;paravance-57.rennes.grid5000.fr;thermos-root-devel-WordCountTopology-0-1dbb7545-8335-4c3d-83a5-6ee31f3f1823;["topology_master"];5.25;1533116485.97703;4.83;11.7;0.0;9;117
35;paravance-58.rennes.grid5000.fr;thermos-root-devel-WordCountTopology-1-eef171cb-ad2a-437d-9bf9-f6ca1095ff9f;["container_1_Consume_and_count_1"];5.25;1533116485.95466;186.53;1193.47;1.360978173;10;151
36;paravance-58.rennes.grid5000.fr;thermos-root-devel-WordCountTopology-1-eef171cb-ad2a-437d-9bf9-f6ca1095ff9f;["container_1_Consume_and_count_1"];5.25;1533116496.1698;190.85;1219.77;1.360978173;10;151
36;paravance-59.rennes.grid5000.fr;thermos-root-devel-WordCountTopology-2-905407eb-5422-452d-8dbc-9856a5959466;["container_2_Emit_random_words_2"];5.25;1533116496.22938;66.72;871.93;1.697290705;10;149
36;paravance-57.rennes.grid5000.fr;thermos-root-devel-WordCountTopology-0-1dbb7545-8335-4c3d-83a5-6ee31f3f1823;["topology_master"];5.25;1533116496.19346;4.89;11.82;0.0;9;117
37;paravance-59.rennes.grid5000.fr;thermos-root-devel-WordCountTopology-2-905407eb-5422-452d-8dbc-9856a5959466;["container_2_Emit_random_words_2"];5.25;1533116506.44288;68.17;891.59;1.697290705;10;149
37;paravance-58.rennes.grid5000.fr;thermos-root-devel-WordCountTopology-1-eef171cb-ad2a-437d-9bf9-f6ca1095ff9f;["container_1_Consume_and_count_1"];5.25;1533116506.38388;195.26;1247.68;1.360978173;10;151
37;paravance-57.rennes.grid5000.fr;thermos-root-devel-WordCountTopology-0-1dbb7545-8335-4c3d-83a5-6ee31f3f1823;["topology_master"];5.25;1533116506.40688;4.98;11.94;0.0;9;117
38;paravance-58.rennes.grid5000.fr;thermos-root-devel-WordCountTopology-1-eef171cb-ad2a-437d-9bf9-f6ca1095ff9f;["container_1_Consume_and_count_1"];5.25;1533116516.59879;199.69;1275.6;1.360978173;10;151
38;paravance-57.rennes.grid5000.fr;thermos-root-devel-WordCountTopology-0-1dbb7545-8335-4c3d-83a5-6ee31f3f1823;["topology_master"];5.25;1533116516.62146;5.01;11.98;0.0;9;117
38;paravance-59.rennes.grid5000.fr;thermos-root-devel-WordCountTopology-2-905407eb-5422-452d-8dbc-9856a5959466;["container_2_Emit_random_words_2"];5.25;1533116516.65727;69.57;911.18;1.697290705;10;149
39;paravance-59.rennes.grid5000.fr;thermos-root-devel-WordCountTopology-2-905407eb-5422-452d-8dbc-9856a5959466;["container_2_Emit_random_words_2"];5.25;1533116526.87348;71.04;930.95;1.697290705;10;149
39;paravance-58.rennes.grid5000.fr;thermos-root-devel-WordCountTopology-1-eef171cb-ad2a-437d-9bf9-f6ca1095ff9f;["container_1_Consume_and_count_1"];5.25;1533116526.81351;203.97;1303.75;1.360978173;10;151
39;paravance-57.rennes.grid5000.fr;thermos-root-devel-WordCountTopology-0-1dbb7545-8335-4c3d-83a5-6ee31f3f1823;["topology_master"];5.25;1533116526.83729;5.09;12.09;0.0;9;117
40;paravance-59.rennes.grid5000.fr;thermos-root-devel-WordCountTopology-2-905407eb-5422-452d-8dbc-9856a5959466;["container_2_Emit_random_words_2"];5.25;1533116537.08733;72.48;950.5;1.697290705;10;149
40;paravance-58.rennes.grid5000.fr;thermos-root-devel-WordCountTopology-1-eef171cb-ad2a-437d-9bf9-f6ca1095ff9f;["container_1_Consume_and_count_1"];5.25;1533116537.03006;208.35;1331.17;1.360978173;10;151
40;paravance-57.rennes.grid5000.fr;thermos-root-devel-WordCountTopology-0-1dbb7545-8335-4c3d-83a5-6ee31f3f1823;["topology_master"];5.25;1533116537.05292;5.15;12.17;0.0;9;117
41;paravance-58.rennes.grid5000.fr;thermos-root-devel-WordCountTopology-1-eef171cb-ad2a-437d-9bf9-f6ca1095ff9f;["container_1_Consume_and_count_1"];5.25;1533116547.24466;212.75;1359.37;1.360978173;10;151
41;paravance-59.rennes.grid5000.fr;thermos-root-devel-WordCountTopology-2-905407eb-5422-452d-8dbc-9856a5959466;["container_2_Emit_random_words_2"];5.25;1533116547.30333;73.9;970.07;1.697290705;10;149
41;paravance-57.rennes.grid5000.fr;thermos-root-devel-WordCountTopology-0-1dbb7545-8335-4c3d-83a5-6ee31f3f1823;["topology_master"];5.25;1533116547.26793;5.22;12.26;0.0;9;117
42;paravance-59.rennes.grid5000.fr;thermos-root-devel-WordCountTopology-2-905407eb-5422-452d-8dbc-9856a5959466;["container_2_Emit_random_words_2"];5.25;1533116557.51939;75.33;989.44;1.697290705;10;149
42;paravance-58.rennes.grid5000.fr;thermos-root-devel-WordCountTopology-1-eef171cb-ad2a-437d-9bf9-f6ca1095ff9f;["container_1_Consume_and_count_1"];5.25;1533116557.46148;217.19;1387.17;1.360978173;10;151
42;paravance-57.rennes.grid5000.fr;thermos-root-devel-WordCountTopology-0-1dbb7545-8335-4c3d-83a5-6ee31f3f1823;["topology_master"];5.25;1533116557.4818;5.27;12.4;0.0;9;117
43;paravance-58.rennes.grid5000.fr;thermos-root-devel-WordCountTopology-1-eef171cb-ad2a-437d-9bf9-f6ca1095ff9f;["container_1_Consume_and_count_1"];5.25;1533116567.67671;221.49;1414.61;1.360978173;10;151
43;paravance-57.rennes.grid5000.fr;thermos-root-devel-WordCountTopology-0-1dbb7545-8335-4c3d-83a5-6ee31f3f1823;["topology_master"];5.25;1533116567.70024;5.36;12.52;0.0;9;117
43;paravance-59.rennes.grid5000.fr;thermos-root-devel-WordCountTopology-2-905407eb-5422-452d-8dbc-9856a5959466;["container_2_Emit_random_words_2"];5.25;1533116567.73587;76.79;1008.93;1.697290705;10;149
44;paravance-58.rennes.grid5000.fr;thermos-root-devel-WordCountTopology-1-eef171cb-ad2a-437d-9bf9-f6ca1095ff9f;["container_1_Consume_and_count_1"];5.25;1533116577.8927;226.0;1441.92;1.360978173;10;151
44;paravance-59.rennes.grid5000.fr;thermos-root-devel-WordCountTopology-2-905407eb-5422-452d-8dbc-9856a5959466;["container_2_Emit_random_words_2"];5.25;1533116577.95191;78.21;1028.38;1.697290705;10;149
44;paravance-57.rennes.grid5000.fr;thermos-root-devel-WordCountTopology-0-1dbb7545-8335-4c3d-83a5-6ee31f3f1823;["topology_master"];5.25;1533116577.91623;5.39;12.55;0.0;9;117
45;paravance-58.rennes.grid5000.fr;thermos-root-devel-WordCountTopology-1-eef171cb-ad2a-437d-9bf9-f6ca1095ff9f;["container_1_Consume_and_count_1"];5.25;1533116588.10895;230.47;1469.44;1.360978173;10;151
45;paravance-59.rennes.grid5000.fr;thermos-root-devel-WordCountTopology-2-905407eb-5422-452d-8dbc-9856a5959466;["container_2_Emit_random_words_2"];5.25;1533116588.16721;79.66;1047.7;1.697290705;10;149
45;paravance-57.rennes.grid5000.fr;thermos-root-devel-WordCountTopology-0-1dbb7545-8335-4c3d-83a5-6ee31f3f1823;["topology_master"];5.25;1533116588.13209;5.48;12.68;0.0;9;117
46;paravance-58.rennes.grid5000.fr;thermos-root-devel-WordCountTopology-1-eef171cb-ad2a-437d-9bf9-f6ca1095ff9f;["container_1_Consume_and_count_1"];5.25;1533116598.32342;234.67;1497.14;1.360978173;10;151
46;paravance-59.rennes.grid5000.fr;thermos-root-devel-WordCountTopology-2-905407eb-5422-452d-8dbc-9856a5959466;["container_2_Emit_random_words_2"];5.25;1533116598.38347;81.07;1067.22;1.697290705;10;149
46;paravance-57.rennes.grid5000.fr;thermos-root-devel-WordCountTopology-0-1dbb7545-8335-4c3d-83a5-6ee31f3f1823;["topology_master"];5.25;1533116598.34639;5.54;12.75;0.0;9;117
47;paravance-58.rennes.grid5000.fr;thermos-root-devel-WordCountTopology-1-eef171cb-ad2a-437d-9bf9-f6ca1095ff9f;["container_1_Consume_and_count_1"];5.25;1533116608.54067;239.07;1525.63;1.360978173;10;151
47;paravance-59.rennes.grid5000.fr;thermos-root-devel-WordCountTopology-2-905407eb-5422-452d-8dbc-9856a5959466;["container_2_Emit_random_words_2"];5.25;1533116608.59885;82.47;1086.36;1.697290705;10;149
47;paravance-57.rennes.grid5000.fr;thermos-root-devel-WordCountTopology-0-1dbb7545-8335-4c3d-83a5-6ee31f3f1823;["topology_master"];5.25;1533116608.56311;5.61;12.83;0.0;9;117
48;paravance-58.rennes.grid5000.fr;thermos-root-devel-WordCountTopology-1-eef171cb-ad2a-437d-9bf9-f6ca1095ff9f;["container_1_Consume_and_count_1"];5.25;1533116618.75673;243.38;1554.95;1.360978173;10;151
48;paravance-59.rennes.grid5000.fr;thermos-root-devel-WordCountTopology-2-905407eb-5422-452d-8dbc-9856a5959466;["container_2_Emit_random_words_2"];5.25;1533116618.81475;83.97;1105.76;1.697290705;10;149
48;paravance-57.rennes.grid5000.fr;thermos-root-devel-WordCountTopology-0-1dbb7545-8335-4c3d-83a5-6ee31f3f1823;["topology_master"];5.25;1533116618.779;5.66;12.96;0.0;9;117
49;paravance-59.rennes.grid5000.fr;thermos-root-devel-WordCountTopology-2-905407eb-5422-452d-8dbc-9856a5959466;["container_2_Emit_random_words_2"];5.25;1533116629.03171;85.45;1125.16;1.697290705;10;149
49;paravance-58.rennes.grid5000.fr;thermos-root-devel-WordCountTopology-1-eef171cb-ad2a-437d-9bf9-f6ca1095ff9f;["container_1_Consume_and_count_1"];5.25;1533116628.97383;247.81;1584.03;1.360978173;10;151
49;paravance-57.rennes.grid5000.fr;thermos-root-devel-WordCountTopology-0-1dbb7545-8335-4c3d-83a5-6ee31f3f1823;["topology_master"];5.25;1533116628.99651;5.75;13.08;0.0;9;117
50;paravance-58.rennes.grid5000.fr;thermos-root-devel-WordCountTopology-1-eef171cb-ad2a-437d-9bf9-f6ca1095ff9f;["container_1_Consume_and_count_1"];5.25;1533116639.1911;251.95;1611.93;1.360978173;10;151
50;paravance-57.rennes.grid5000.fr;thermos-root-devel-WordCountTopology-0-1dbb7545-8335-4c3d-83a5-6ee31f3f1823;["topology_master"];5.25;1533116639.21344;5.78;13.12;0.0;9;117
50;paravance-59.rennes.grid5000.fr;thermos-root-devel-WordCountTopology-2-905407eb-5422-452d-8dbc-9856a5959466;["container_2_Emit_random_words_2"];5.25;1533116639.24891;86.89;1144.57;1.697290705;10;149
51;paravance-59.rennes.grid5000.fr;thermos-root-devel-WordCountTopology-2-905407eb-5422-452d-8dbc-9856a5959466;["container_2_Emit_random_words_2"];5.25;1533116649.46563;88.36;1164.05;1.697290705;10;149
51;paravance-58.rennes.grid5000.fr;thermos-root-devel-WordCountTopology-1-eef171cb-ad2a-437d-9bf9-f6ca1095ff9f;["container_1_Consume_and_count_1"];5.25;1533116649.40676;256.19;1639.41;1.360978173;10;151
51;paravance-57.rennes.grid5000.fr;thermos-root-devel-WordCountTopology-0-1dbb7545-8335-4c3d-83a5-6ee31f3f1823;["topology_master"];5.25;1533116649.4308;5.88;13.26;0.0;9;117
52;paravance-58.rennes.grid5000.fr;thermos-root-devel-WordCountTopology-1-eef171cb-ad2a-437d-9bf9-f6ca1095ff9f;["container_1_Consume_and_count_1"];5.25;1533116659.62136;260.83;1668.41;1.360978173;10;151
52;paravance-59.rennes.grid5000.fr;thermos-root-devel-WordCountTopology-2-905407eb-5422-452d-8dbc-9856a5959466;["container_2_Emit_random_words_2"];5.25;1533116659.68087;89.81;1183.53;1.697290705;10;149
52;paravance-57.rennes.grid5000.fr;thermos-root-devel-WordCountTopology-0-1dbb7545-8335-4c3d-83a5-6ee31f3f1823;["topology_master"];5.25;1533116659.64453;5.94;13.33;0.0;9;117
53;paravance-58.rennes.grid5000.fr;thermos-root-devel-WordCountTopology-1-eef171cb-ad2a-437d-9bf9-f6ca1095ff9f;["container_1_Consume_and_count_1"];5.25;1533116669.83824;265.03;1695.68;1.360978173;10;151
53;paravance-57.rennes.grid5000.fr;thermos-root-devel-WordCountTopology-0-1dbb7545-8335-4c3d-83a5-6ee31f3f1823;["topology_master"];5.25;1533116669.86234;6.02;13.45;0.0;9;117
53;paravance-59.rennes.grid5000.fr;thermos-root-devel-WordCountTopology-2-905407eb-5422-452d-8dbc-9856a5959466;["container_2_Emit_random_words_2"];5.25;1533116669.89819;91.29;1202.86;1.697290705;10;149
54;paravance-58.rennes.grid5000.fr;thermos-root-devel-WordCountTopology-1-eef171cb-ad2a-437d-9bf9-f6ca1095ff9f;["container_1_Consume_and_count_1"];5.25;1533116680.05848;269.45;1722.96;1.360978173;10;151
54;paravance-57.rennes.grid5000.fr;thermos-root-devel-WordCountTopology-0-1dbb7545-8335-4c3d-83a5-6ee31f3f1823;["topology_master"];5.25;1533116680.07912;6.07;13.52;0.0;9;117
54;paravance-59.rennes.grid5000.fr;thermos-root-devel-WordCountTopology-2-905407eb-5422-452d-8dbc-9856a5959466;["container_2_Emit_random_words_2"];5.25;1533116680.11683;92.74;1222.31;1.697290705;10;149
55;paravance-58.rennes.grid5000.fr;thermos-root-devel-WordCountTopology-1-eef171cb-ad2a-437d-9bf9-f6ca1095ff9f;["container_1_Consume_and_count_1"];5.25;1533116690.27468;273.59;1750.61;1.360978173;10;151
55;paravance-59.rennes.grid5000.fr;thermos-root-devel-WordCountTopology-2-905407eb-5422-452d-8dbc-9856a5959466;["container_2_Emit_random_words_2"];5.25;1533116690.33174;94.2;1241.92;1.697290705;10;149
55;paravance-57.rennes.grid5000.fr;thermos-root-devel-WordCountTopology-0-1dbb7545-8335-4c3d-83a5-6ee31f3f1823;["topology_master"];5.25;1533116690.29561;6.16;13.65;0.0;9;117
56;paravance-59.rennes.grid5000.fr;thermos-root-devel-WordCountTopology-2-905407eb-5422-452d-8dbc-9856a5959466;["container_2_Emit_random_words_2"];5.25;1533116700.54999;95.62;1261.19;1.697290705;10;149
56;paravance-58.rennes.grid5000.fr;thermos-root-devel-WordCountTopology-1-eef171cb-ad2a-437d-9bf9-f6ca1095ff9f;["container_1_Consume_and_count_1"];5.25;1533116700.49067;277.88;1778.73;1.360978173;10;151
56;paravance-57.rennes.grid5000.fr;thermos-root-devel-WordCountTopology-0-1dbb7545-8335-4c3d-83a5-6ee31f3f1823;["topology_master"];5.25;1533116700.51261;6.19;13.67;0.0;9;117
57;paravance-58.rennes.grid5000.fr;thermos-root-devel-WordCountTopology-1-eef171cb-ad2a-437d-9bf9-f6ca1095ff9f;["container_1_Consume_and_count_1"];5.25;1533116710.70976;282.03;1805.56;1.360978173;10;151
57;paravance-57.rennes.grid5000.fr;thermos-root-devel-WordCountTopology-0-1dbb7545-8335-4c3d-83a5-6ee31f3f1823;["topology_master"];5.25;1533116710.7323;6.28;13.79;0.0;9;117
57;paravance-59.rennes.grid5000.fr;thermos-root-devel-WordCountTopology-2-905407eb-5422-452d-8dbc-9856a5959466;["container_2_Emit_random_words_2"];5.25;1533116710.77021;97.11;1280.75;1.697290705;10;149
58;paravance-59.rennes.grid5000.fr;thermos-root-devel-WordCountTopology-2-905407eb-5422-452d-8dbc-9856a5959466;["container_2_Emit_random_words_2"];5.25;1533116720.98471;98.54;1300.35;1.697290705;10;149
58;paravance-58.rennes.grid5000.fr;thermos-root-devel-WordCountTopology-1-eef171cb-ad2a-437d-9bf9-f6ca1095ff9f;["container_1_Consume_and_count_1"];5.25;1533116720.92739;286.44;1833.42;1.360978173;10;151
58;paravance-57.rennes.grid5000.fr;thermos-root-devel-WordCountTopology-0-1dbb7545-8335-4c3d-83a5-6ee31f3f1823;["topology_master"];5.25;1533116720.94903;6.33;13.87;0.0;9;117
59;paravance-58.rennes.grid5000.fr;thermos-root-devel-WordCountTopology-1-eef171cb-ad2a-437d-9bf9-f6ca1095ff9f;["container_1_Consume_and_count_1"];5.25;1533116731.14188;290.8;1860.86;1.360978173;10;151
59;paravance-59.rennes.grid5000.fr;thermos-root-devel-WordCountTopology-2-905407eb-5422-452d-8dbc-9856a5959466;["container_2_Emit_random_words_2"];5.25;1533116731.2002;99.98;1320.24;1.697290705;10;149
59;paravance-57.rennes.grid5000.fr;thermos-root-devel-WordCountTopology-0-1dbb7545-8335-4c3d-83a5-6ee31f3f1823;["topology_master"];5.25;1533116731.16413;6.4;13.97;0.0;9;117
60;paravance-59.rennes.grid5000.fr;thermos-root-devel-WordCountTopology-2-905407eb-5422-452d-8dbc-9856a5959466;["container_2_Emit_random_words_2"];5.25;1533116741.31478;101.43;1339.72;1.697290705;10;149
60;paravance-58.rennes.grid5000.fr;thermos-root-devel-WordCountTopology-1-eef171cb-ad2a-437d-9bf9-f6ca1095ff9f;["container_1_Consume_and_count_1"];5.25;1533116741.3561;295.13;1889.32;1.360978173;10;151
60;paravance-57.rennes.grid5000.fr;thermos-root-devel-WordCountTopology-0-1dbb7545-8335-4c3d-83a5-6ee31f3f1823;["topology_master"];5.25;1533116741.37946;6.46;14.04;0.0;9;117
