mesure_id;slave_id;executor_id;heron_instances;cpus_limit;timestamp_A;cpus_system_time_secs_A;cpus_user_time_secs_A;cpus_throttled_time_secs_A;processes;threads
0;paravance-51.rennes.grid5000.fr;thermos-root-devel-WordCountTopology-0-782da3ef-64e8-44de-a847-4f1bb27c2805;["topology_master"];1.25;1533739401.32248;2.46;8.25;6.769612961;9;117
0;paravance-18.rennes.grid5000.fr;thermos-root-devel-WordCountTopology-2-557b324e-3b43-403e-8f3d-8ba5a10f21ff;["container_2_Emit_random_words_2"];1.25;1533739401.32513;19.79;78.01;116.086577213;10;150
0;paravance-61.rennes.grid5000.fr;thermos-root-devel-WordCountTopology-1-47a41e3b-1fd0-4321-aa60-e51d4a2f5f97;["container_1_Consume_and_count_1"];1.25;1533739401.20063;28.69;100.18;261.142530491;10;151
1;paravance-61.rennes.grid5000.fr;thermos-root-devel-WordCountTopology-1-47a41e3b-1fd0-4321-aa60-e51d4a2f5f97;["container_1_Consume_and_count_1"];1.25;1533739411.41743;31.29;109.33;283.945255527;10;151
1;paravance-51.rennes.grid5000.fr;thermos-root-devel-WordCountTopology-0-782da3ef-64e8-44de-a847-4f1bb27c2805;["topology_master"];1.25;1533739411.54559;2.53;8.42;6.769612961;9;117
1;paravance-18.rennes.grid5000.fr;thermos-root-devel-WordCountTopology-2-557b324e-3b43-403e-8f3d-8ba5a10f21ff;["container_2_Emit_random_words_2"];1.25;1533739411.54216;21.36;83.67;122.396339326;10;150
2;paravance-61.rennes.grid5000.fr;thermos-root-devel-WordCountTopology-1-47a41e3b-1fd0-4321-aa60-e51d4a2f5f97;["container_1_Consume_and_count_1"];1.25;1533739421.63548;33.84;118.47;305.228369158;10;151
2;paravance-18.rennes.grid5000.fr;thermos-root-devel-WordCountTopology-2-557b324e-3b43-403e-8f3d-8ba5a10f21ff;["container_2_Emit_random_words_2"];1.25;1533739421.75995;23.09;89.98;129.057408315;10;149
2;paravance-51.rennes.grid5000.fr;thermos-root-devel-WordCountTopology-0-782da3ef-64e8-44de-a847-4f1bb27c2805;["topology_master"];1.25;1533739421.76495;2.62;8.55;6.769612961;9;117
3;paravance-61.rennes.grid5000.fr;thermos-root-devel-WordCountTopology-1-47a41e3b-1fd0-4321-aa60-e51d4a2f5f97;["container_1_Consume_and_count_1"];1.25;1533739431.85336;36.47;127.44;324.525503903;10;151
3;paravance-18.rennes.grid5000.fr;thermos-root-devel-WordCountTopology-2-557b324e-3b43-403e-8f3d-8ba5a10f21ff;["container_2_Emit_random_words_2"];1.25;1533739431.9786;24.96;96.31;135.977339482;10;149
3;paravance-51.rennes.grid5000.fr;thermos-root-devel-WordCountTopology-0-782da3ef-64e8-44de-a847-4f1bb27c2805;["topology_master"];1.25;1533739431.98306;2.65;8.58;6.769612961;9;117
4;paravance-18.rennes.grid5000.fr;thermos-root-devel-WordCountTopology-2-557b324e-3b43-403e-8f3d-8ba5a10f21ff;["container_2_Emit_random_words_2"];1.25;1533739442.19441;26.61;101.84;142.087731279;10;149
4;paravance-61.rennes.grid5000.fr;thermos-root-devel-WordCountTopology-1-47a41e3b-1fd0-4321-aa60-e51d4a2f5f97;["container_1_Consume_and_count_1"];1.25;1533739442.07074;39.1;136.56;345.485552894;10;151
4;paravance-51.rennes.grid5000.fr;thermos-root-devel-WordCountTopology-0-782da3ef-64e8-44de-a847-4f1bb27c2805;["topology_master"];1.25;1533739442.20077;2.74;8.7;6.769612961;9;117
5;paravance-51.rennes.grid5000.fr;thermos-root-devel-WordCountTopology-0-782da3ef-64e8-44de-a847-4f1bb27c2805;["topology_master"];1.25;1533739452.41862;2.8;8.78;6.769612961;9;117
5;paravance-18.rennes.grid5000.fr;thermos-root-devel-WordCountTopology-2-557b324e-3b43-403e-8f3d-8ba5a10f21ff;["container_2_Emit_random_words_2"];1.25;1533739452.41538;28.1;107.09;147.673666299;10;149
5;paravance-61.rennes.grid5000.fr;thermos-root-devel-WordCountTopology-1-47a41e3b-1fd0-4321-aa60-e51d4a2f5f97;["container_1_Consume_and_count_1"];1.25;1533739452.29164;41.62;145.84;370.43129196;10;151
6;paravance-51.rennes.grid5000.fr;thermos-root-devel-WordCountTopology-0-782da3ef-64e8-44de-a847-4f1bb27c2805;["topology_master"];1.25;1533739462.63696;2.89;8.91;6.773640132;9;117
6;paravance-18.rennes.grid5000.fr;thermos-root-devel-WordCountTopology-2-557b324e-3b43-403e-8f3d-8ba5a10f21ff;["container_2_Emit_random_words_2"];1.25;1533739462.6318;29.74;112.87;153.364053324;10;149
6;paravance-61.rennes.grid5000.fr;thermos-root-devel-WordCountTopology-1-47a41e3b-1fd0-4321-aa60-e51d4a2f5f97;["container_1_Consume_and_count_1"];1.25;1533739462.50812;44.3;154.92;391.689630508;10;151
7;paravance-61.rennes.grid5000.fr;thermos-root-devel-WordCountTopology-1-47a41e3b-1fd0-4321-aa60-e51d4a2f5f97;["container_1_Consume_and_count_1"];1.25;1533739472.72518;46.93;164.06;414.868022402;10;151
7;paravance-51.rennes.grid5000.fr;thermos-root-devel-WordCountTopology-0-782da3ef-64e8-44de-a847-4f1bb27c2805;["topology_master"];1.25;1533739472.85653;2.96;9.05;6.773640132;9;117
7;paravance-18.rennes.grid5000.fr;thermos-root-devel-WordCountTopology-2-557b324e-3b43-403e-8f3d-8ba5a10f21ff;["container_2_Emit_random_words_2"];1.25;1533739472.84977;31.24;118.39;159.726306078;10;149
8;paravance-61.rennes.grid5000.fr;thermos-root-devel-WordCountTopology-1-47a41e3b-1fd0-4321-aa60-e51d4a2f5f97;["container_1_Consume_and_count_1"];1.25;1533739482.94273;49.52;173.26;436.567309279;10;151
8;paravance-51.rennes.grid5000.fr;thermos-root-devel-WordCountTopology-0-782da3ef-64e8-44de-a847-4f1bb27c2805;["topology_master"];1.25;1533739483.07307;3.06;9.2;6.801659945;9;117
8;paravance-18.rennes.grid5000.fr;thermos-root-devel-WordCountTopology-2-557b324e-3b43-403e-8f3d-8ba5a10f21ff;["container_2_Emit_random_words_2"];1.25;1533739483.06799;32.74;123.56;164.936243044;10;149
9;paravance-61.rennes.grid5000.fr;thermos-root-devel-WordCountTopology-1-47a41e3b-1fd0-4321-aa60-e51d4a2f5f97;["container_1_Consume_and_count_1"];1.25;1533739493.1609;51.98;182.56;462.124267525;10;151
9;paravance-18.rennes.grid5000.fr;thermos-root-devel-WordCountTopology-2-557b324e-3b43-403e-8f3d-8ba5a10f21ff;["container_2_Emit_random_words_2"];1.25;1533739493.2855;34.24;129.04;170.358517028;10;149
9;paravance-51.rennes.grid5000.fr;thermos-root-devel-WordCountTopology-0-782da3ef-64e8-44de-a847-4f1bb27c2805;["topology_master"];1.25;1533739493.29137;3.11;9.27;6.801659945;9;117
10;paravance-18.rennes.grid5000.fr;thermos-root-devel-WordCountTopology-2-557b324e-3b43-403e-8f3d-8ba5a10f21ff;["container_2_Emit_random_words_2"];1.25;1533739503.50399;35.85;134.74;176.850081014;10;149
10;paravance-61.rennes.grid5000.fr;thermos-root-devel-WordCountTopology-1-47a41e3b-1fd0-4321-aa60-e51d4a2f5f97;["container_1_Consume_and_count_1"];1.25;1533739503.37981;54.57;191.81;486.00002294;10;151
10;paravance-51.rennes.grid5000.fr;thermos-root-devel-WordCountTopology-0-782da3ef-64e8-44de-a847-4f1bb27c2805;["topology_master"];1.25;1533739503.50889;3.18;9.35;6.801659945;9;117
11;paravance-51.rennes.grid5000.fr;thermos-root-devel-WordCountTopology-0-782da3ef-64e8-44de-a847-4f1bb27c2805;["topology_master"];1.25;1533739513.72612;3.24;9.43;6.801659945;9;117
11;paravance-18.rennes.grid5000.fr;thermos-root-devel-WordCountTopology-2-557b324e-3b43-403e-8f3d-8ba5a10f21ff;["container_2_Emit_random_words_2"];1.25;1533739513.72119;37.32;140.13;182.650812252;10;149
11;paravance-61.rennes.grid5000.fr;thermos-root-devel-WordCountTopology-1-47a41e3b-1fd0-4321-aa60-e51d4a2f5f97;["container_1_Consume_and_count_1"];1.25;1533739513.59605;57.16;201.02;510.009208672;10;151
12;paravance-51.rennes.grid5000.fr;thermos-root-devel-WordCountTopology-0-782da3ef-64e8-44de-a847-4f1bb27c2805;["topology_master"];1.25;1533739523.94131;3.36;9.7;6.801659945;9;117
12;paravance-18.rennes.grid5000.fr;thermos-root-devel-WordCountTopology-2-557b324e-3b43-403e-8f3d-8ba5a10f21ff;["container_2_Emit_random_words_2"];1.25;1533739523.93597;38.88;145.74;188.991788191;10;149
12;paravance-61.rennes.grid5000.fr;thermos-root-devel-WordCountTopology-1-47a41e3b-1fd0-4321-aa60-e51d4a2f5f97;["container_1_Consume_and_count_1"];1.25;1533739523.81299;59.74;210.2;534.586343581;10;151
13;paravance-18.rennes.grid5000.fr;thermos-root-devel-WordCountTopology-2-557b324e-3b43-403e-8f3d-8ba5a10f21ff;["container_2_Emit_random_words_2"];1.25;1533739534.1532;40.14;150.3;193.521248876;10;149
13;paravance-61.rennes.grid5000.fr;thermos-root-devel-WordCountTopology-1-47a41e3b-1fd0-4321-aa60-e51d4a2f5f97;["container_1_Consume_and_count_1"];1.25;1533739534.02966;62.19;219.49;563.958344186;10;151
13;paravance-51.rennes.grid5000.fr;thermos-root-devel-WordCountTopology-0-782da3ef-64e8-44de-a847-4f1bb27c2805;["topology_master"];1.25;1533739534.15982;3.39;9.73;6.801659945;9;117
14;paravance-18.rennes.grid5000.fr;thermos-root-devel-WordCountTopology-2-557b324e-3b43-403e-8f3d-8ba5a10f21ff;["container_2_Emit_random_words_2"];1.25;1533739544.3707;41.78;156.2;199.931506378;10;149
14;paravance-61.rennes.grid5000.fr;thermos-root-devel-WordCountTopology-1-47a41e3b-1fd0-4321-aa60-e51d4a2f5f97;["container_1_Consume_and_count_1"];1.25;1533739544.2476;64.89;228.52;586.431355089;10;151
14;paravance-51.rennes.grid5000.fr;thermos-root-devel-WordCountTopology-0-782da3ef-64e8-44de-a847-4f1bb27c2805;["topology_master"];1.25;1533739544.37708;3.48;9.86;6.801659945;9;117
15;paravance-18.rennes.grid5000.fr;thermos-root-devel-WordCountTopology-2-557b324e-3b43-403e-8f3d-8ba5a10f21ff;["container_2_Emit_random_words_2"];1.25;1533739554.58942;43.27;161.58;205.459026471;10;149
15;paravance-51.rennes.grid5000.fr;thermos-root-devel-WordCountTopology-0-782da3ef-64e8-44de-a847-4f1bb27c2805;["topology_master"];1.25;1533739554.5943;3.54;9.94;6.801659945;9;117
15;paravance-61.rennes.grid5000.fr;thermos-root-devel-WordCountTopology-1-47a41e3b-1fd0-4321-aa60-e51d4a2f5f97;["container_1_Consume_and_count_1"];1.25;1533739554.46333;67.39;237.73;611.770543235;10;151
16;paravance-51.rennes.grid5000.fr;thermos-root-devel-WordCountTopology-0-782da3ef-64e8-44de-a847-4f1bb27c2805;["topology_master"];1.25;1533739564.71203;3.6;10.02;6.801659945;9;117
16;paravance-61.rennes.grid5000.fr;thermos-root-devel-WordCountTopology-1-47a41e3b-1fd0-4321-aa60-e51d4a2f5f97;["container_1_Consume_and_count_1"];1.25;1533739564.68241;70.07;246.81;633.140942531;10;151
16;paravance-18.rennes.grid5000.fr;thermos-root-devel-WordCountTopology-2-557b324e-3b43-403e-8f3d-8ba5a10f21ff;["container_2_Emit_random_words_2"];1.25;1533739564.80587;44.9;167.5;212.559945424;10;149
17;paravance-61.rennes.grid5000.fr;thermos-root-devel-WordCountTopology-1-47a41e3b-1fd0-4321-aa60-e51d4a2f5f97;["container_1_Consume_and_count_1"];1.25;1533739574.89754;72.77;255.84;653.37018925;10;151
17;paravance-51.rennes.grid5000.fr;thermos-root-devel-WordCountTopology-0-782da3ef-64e8-44de-a847-4f1bb27c2805;["topology_master"];1.25;1533739575.02761;3.66;10.1;6.801659945;9;117
17;paravance-18.rennes.grid5000.fr;thermos-root-devel-WordCountTopology-2-557b324e-3b43-403e-8f3d-8ba5a10f21ff;["container_2_Emit_random_words_2"];1.25;1533739575.02342;46.55;173.49;218.784967796;10;149
18;paravance-51.rennes.grid5000.fr;thermos-root-devel-WordCountTopology-0-782da3ef-64e8-44de-a847-4f1bb27c2805;["topology_master"];1.25;1533739585.24327;3.79;10.33;6.801659945;9;117
18;paravance-61.rennes.grid5000.fr;thermos-root-devel-WordCountTopology-1-47a41e3b-1fd0-4321-aa60-e51d4a2f5f97;["container_1_Consume_and_count_1"];1.25;1533739585.1137;75.4;264.83;675.943694902;10;151
18;paravance-18.rennes.grid5000.fr;thermos-root-devel-WordCountTopology-2-557b324e-3b43-403e-8f3d-8ba5a10f21ff;["container_2_Emit_random_words_2"];1.25;1533739585.23846;48.11;178.98;224.84733538;10;149
19;paravance-18.rennes.grid5000.fr;thermos-root-devel-WordCountTopology-2-557b324e-3b43-403e-8f3d-8ba5a10f21ff;["container_2_Emit_random_words_2"];1.25;1533739595.45529;49.7;184.85;231.050719434;10;149
19;paravance-61.rennes.grid5000.fr;thermos-root-devel-WordCountTopology-1-47a41e3b-1fd0-4321-aa60-e51d4a2f5f97;["container_1_Consume_and_count_1"];1.25;1533739595.33217;78.07;273.9;697.314462432;10;151
19;paravance-51.rennes.grid5000.fr;thermos-root-devel-WordCountTopology-0-782da3ef-64e8-44de-a847-4f1bb27c2805;["topology_master"];1.25;1533739595.46143;3.81;10.36;6.801659945;9;117
20;paravance-61.rennes.grid5000.fr;thermos-root-devel-WordCountTopology-1-47a41e3b-1fd0-4321-aa60-e51d4a2f5f97;["container_1_Consume_and_count_1"];1.25;1533739605.54883;80.74;282.88;718.853871122;10;151
20;paravance-51.rennes.grid5000.fr;thermos-root-devel-WordCountTopology-0-782da3ef-64e8-44de-a847-4f1bb27c2805;["topology_master"];1.25;1533739605.67879;3.91;10.49;6.801659945;9;117
20;paravance-18.rennes.grid5000.fr;thermos-root-devel-WordCountTopology-2-557b324e-3b43-403e-8f3d-8ba5a10f21ff;["container_2_Emit_random_words_2"];1.25;1533739605.67274;51.32;190.66;237.591699416;10;149
21;paravance-51.rennes.grid5000.fr;thermos-root-devel-WordCountTopology-0-782da3ef-64e8-44de-a847-4f1bb27c2805;["topology_master"];1.25;1533739615.89621;3.97;10.56;6.801659945;9;117
21;paravance-18.rennes.grid5000.fr;thermos-root-devel-WordCountTopology-2-557b324e-3b43-403e-8f3d-8ba5a10f21ff;["container_2_Emit_random_words_2"];1.25;1533739615.89091;52.97;196.46;243.814968474;10;149
21;paravance-61.rennes.grid5000.fr;thermos-root-devel-WordCountTopology-1-47a41e3b-1fd0-4321-aa60-e51d4a2f5f97;["container_1_Consume_and_count_1"];1.25;1533739615.76498;83.43;291.94;738.138150554;10;151
22;paravance-61.rennes.grid5000.fr;thermos-root-devel-WordCountTopology-1-47a41e3b-1fd0-4321-aa60-e51d4a2f5f97;["container_1_Consume_and_count_1"];1.25;1533739625.98506;86.04;301.12;760.863197095;10;151
22;paravance-51.rennes.grid5000.fr;thermos-root-devel-WordCountTopology-0-782da3ef-64e8-44de-a847-4f1bb27c2805;["topology_master"];1.25;1533739626.11534;4.03;10.65;6.801659945;9;117
22;paravance-18.rennes.grid5000.fr;thermos-root-devel-WordCountTopology-2-557b324e-3b43-403e-8f3d-8ba5a10f21ff;["container_2_Emit_random_words_2"];1.25;1533739626.10859;54.54;202.01;249.777117554;10;149
23;paravance-51.rennes.grid5000.fr;thermos-root-devel-WordCountTopology-0-782da3ef-64e8-44de-a847-4f1bb27c2805;["topology_master"];1.25;1533739636.33402;4.09;10.72;6.801659945;9;117
23;paravance-18.rennes.grid5000.fr;thermos-root-devel-WordCountTopology-2-557b324e-3b43-403e-8f3d-8ba5a10f21ff;["container_2_Emit_random_words_2"];1.25;1533739636.32838;56.11;207.56;255.375412666;10;149
23;paravance-61.rennes.grid5000.fr;thermos-root-devel-WordCountTopology-1-47a41e3b-1fd0-4321-aa60-e51d4a2f5f97;["container_1_Consume_and_count_1"];1.25;1533739636.20318;88.75;310.19;781.690559185;10;151
24;paravance-51.rennes.grid5000.fr;thermos-root-devel-WordCountTopology-0-782da3ef-64e8-44de-a847-4f1bb27c2805;["topology_master"];1.25;1533739646.55162;4.2;10.92;6.801659945;9;117
24;paravance-61.rennes.grid5000.fr;thermos-root-devel-WordCountTopology-1-47a41e3b-1fd0-4321-aa60-e51d4a2f5f97;["container_1_Consume_and_count_1"];1.25;1533739646.42144;91.44;319.15;804.254295106;10;151
24;paravance-18.rennes.grid5000.fr;thermos-root-devel-WordCountTopology-2-557b324e-3b43-403e-8f3d-8ba5a10f21ff;["container_2_Emit_random_words_2"];1.25;1533739646.5456;57.75;213.3;261.638893882;10;149
25;paravance-61.rennes.grid5000.fr;thermos-root-devel-WordCountTopology-1-47a41e3b-1fd0-4321-aa60-e51d4a2f5f97;["container_1_Consume_and_count_1"];1.25;1533739656.63948;94.17;328.18;827.314771766;10;151
25;paravance-51.rennes.grid5000.fr;thermos-root-devel-WordCountTopology-0-782da3ef-64e8-44de-a847-4f1bb27c2805;["topology_master"];1.25;1533739656.7699;4.23;10.95;6.801659945;9;117
25;paravance-18.rennes.grid5000.fr;thermos-root-devel-WordCountTopology-2-557b324e-3b43-403e-8f3d-8ba5a10f21ff;["container_2_Emit_random_words_2"];1.25;1533739656.76381;59.25;218.89;267.513935624;10;149
26;paravance-61.rennes.grid5000.fr;thermos-root-devel-WordCountTopology-1-47a41e3b-1fd0-4321-aa60-e51d4a2f5f97;["container_1_Consume_and_count_1"];1.25;1533739666.85556;96.88;337.12;851.232161781;10;151
26;paravance-51.rennes.grid5000.fr;thermos-root-devel-WordCountTopology-0-782da3ef-64e8-44de-a847-4f1bb27c2805;["topology_master"];1.25;1533739666.98646;4.33;11.08;6.801659945;9;117
26;paravance-18.rennes.grid5000.fr;thermos-root-devel-WordCountTopology-2-557b324e-3b43-403e-8f3d-8ba5a10f21ff;["container_2_Emit_random_words_2"];1.25;1533739666.98137;60.8;224.26;272.855393072;10;149
27;paravance-18.rennes.grid5000.fr;thermos-root-devel-WordCountTopology-2-557b324e-3b43-403e-8f3d-8ba5a10f21ff;["container_2_Emit_random_words_2"];1.25;1533739677.19695;62.44;230.07;279.628950202;10;149
27;paravance-61.rennes.grid5000.fr;thermos-root-devel-WordCountTopology-1-47a41e3b-1fd0-4321-aa60-e51d4a2f5f97;["container_1_Consume_and_count_1"];1.25;1533739677.07071;99.58;346.14;871.735784787;10;151
27;paravance-51.rennes.grid5000.fr;thermos-root-devel-WordCountTopology-0-782da3ef-64e8-44de-a847-4f1bb27c2805;["topology_master"];1.25;1533739677.20299;4.38;11.16;6.801659945;9;117
28;paravance-18.rennes.grid5000.fr;thermos-root-devel-WordCountTopology-2-557b324e-3b43-403e-8f3d-8ba5a10f21ff;["container_2_Emit_random_words_2"];1.25;1533739687.41343;64.08;235.95;286.242614392;10;149
28;paravance-61.rennes.grid5000.fr;thermos-root-devel-WordCountTopology-1-47a41e3b-1fd0-4321-aa60-e51d4a2f5f97;["container_1_Consume_and_count_1"];1.25;1533739687.28928;102.24;355.36;894.252040192;10;151
28;paravance-51.rennes.grid5000.fr;thermos-root-devel-WordCountTopology-0-782da3ef-64e8-44de-a847-4f1bb27c2805;["topology_master"];1.25;1533739687.42011;4.44;11.24;6.801659945;9;117
29;paravance-61.rennes.grid5000.fr;thermos-root-devel-WordCountTopology-1-47a41e3b-1fd0-4321-aa60-e51d4a2f5f97;["container_1_Consume_and_count_1"];1.25;1533739697.50703;104.83;364.45;915.995685985;10;151
29;paravance-51.rennes.grid5000.fr;thermos-root-devel-WordCountTopology-0-782da3ef-64e8-44de-a847-4f1bb27c2805;["topology_master"];1.25;1533739697.63723;4.5;11.31;6.801659945;9;117
29;paravance-18.rennes.grid5000.fr;thermos-root-devel-WordCountTopology-2-557b324e-3b43-403e-8f3d-8ba5a10f21ff;["container_2_Emit_random_words_2"];1.25;1533739697.63179;65.61;241.41;292.022578557;10;149
30;paravance-61.rennes.grid5000.fr;thermos-root-devel-WordCountTopology-1-47a41e3b-1fd0-4321-aa60-e51d4a2f5f97;["container_1_Consume_and_count_1"];1.25;1533739707.72203;107.43;373.67;936.802470453;10;151
30;paravance-18.rennes.grid5000.fr;thermos-root-devel-WordCountTopology-2-557b324e-3b43-403e-8f3d-8ba5a10f21ff;["container_2_Emit_random_words_2"];1.25;1533739707.84679;67.33;247.37;298.233400134;10;149
30;paravance-51.rennes.grid5000.fr;thermos-root-devel-WordCountTopology-0-782da3ef-64e8-44de-a847-4f1bb27c2805;["topology_master"];1.25;1533739707.8544;4.6;11.48;6.801659945;9;117
31;paravance-61.rennes.grid5000.fr;thermos-root-devel-WordCountTopology-1-47a41e3b-1fd0-4321-aa60-e51d4a2f5f97;["container_1_Consume_and_count_1"];1.25;1533739717.94087;109.9;382.99;961.076514287;10;151
31;paravance-51.rennes.grid5000.fr;thermos-root-devel-WordCountTopology-0-782da3ef-64e8-44de-a847-4f1bb27c2805;["topology_master"];1.25;1533739718.07068;4.67;11.56;6.801659945;9;117
31;paravance-18.rennes.grid5000.fr;thermos-root-devel-WordCountTopology-2-557b324e-3b43-403e-8f3d-8ba5a10f21ff;["container_2_Emit_random_words_2"];1.25;1533739718.06413;68.84;252.46;302.559461647;10;149
32;paravance-61.rennes.grid5000.fr;thermos-root-devel-WordCountTopology-1-47a41e3b-1fd0-4321-aa60-e51d4a2f5f97;["container_1_Consume_and_count_1"];1.25;1533739728.15577;112.32;392.31;989.851353795;10;151
32;paravance-18.rennes.grid5000.fr;thermos-root-devel-WordCountTopology-2-557b324e-3b43-403e-8f3d-8ba5a10f21ff;["container_2_Emit_random_words_2"];1.25;1533739728.27904;70.29;257.3;307.213712921;10;149
32;paravance-51.rennes.grid5000.fr;thermos-root-devel-WordCountTopology-0-782da3ef-64e8-44de-a847-4f1bb27c2805;["topology_master"];1.25;1533739728.2863;4.72;11.64;6.801659945;9;117
33;paravance-18.rennes.grid5000.fr;thermos-root-devel-WordCountTopology-2-557b324e-3b43-403e-8f3d-8ba5a10f21ff;["container_2_Emit_random_words_2"];1.25;1533739738.498;71.66;261.64;310.787444379;10;149
33;paravance-51.rennes.grid5000.fr;thermos-root-devel-WordCountTopology-0-782da3ef-64e8-44de-a847-4f1bb27c2805;["topology_master"];1.25;1533739738.5052;4.82;11.76;6.801659945;9;117
33;paravance-61.rennes.grid5000.fr;thermos-root-devel-WordCountTopology-1-47a41e3b-1fd0-4321-aa60-e51d4a2f5f97;["container_1_Consume_and_count_1"];1.25;1533739738.37514;114.83;401.63;1016.395866268;10;151
34;paravance-51.rennes.grid5000.fr;thermos-root-devel-WordCountTopology-0-782da3ef-64e8-44de-a847-4f1bb27c2805;["topology_master"];1.25;1533739748.72192;4.84;11.79;6.801659945;9;117
34;paravance-18.rennes.grid5000.fr;thermos-root-devel-WordCountTopology-2-557b324e-3b43-403e-8f3d-8ba5a10f21ff;["container_2_Emit_random_words_2"];1.25;1533739748.71514;73.2;266.89;315.140646338;10;149
34;paravance-61.rennes.grid5000.fr;thermos-root-devel-WordCountTopology-1-47a41e3b-1fd0-4321-aa60-e51d4a2f5f97;["container_1_Consume_and_count_1"];1.25;1533739748.59153;117.41;410.92;1038.532813233;10;151
35;paravance-18.rennes.grid5000.fr;thermos-root-devel-WordCountTopology-2-557b324e-3b43-403e-8f3d-8ba5a10f21ff;["container_2_Emit_random_words_2"];1.25;1533739758.93211;74.64;271.53;319.22901205;10;149
35;paravance-61.rennes.grid5000.fr;thermos-root-devel-WordCountTopology-1-47a41e3b-1fd0-4321-aa60-e51d4a2f5f97;["container_1_Consume_and_count_1"];1.25;1533739758.80891;119.88;420.35;1064.542166958;10;151
35;paravance-51.rennes.grid5000.fr;thermos-root-devel-WordCountTopology-0-782da3ef-64e8-44de-a847-4f1bb27c2805;["topology_master"];1.25;1533739758.93957;4.95;11.93;6.801659945;9;117
36;paravance-18.rennes.grid5000.fr;thermos-root-devel-WordCountTopology-2-557b324e-3b43-403e-8f3d-8ba5a10f21ff;["container_2_Emit_random_words_2"];1.25;1533739769.14994;76.09;276.54;323.585197263;10;149
36;paravance-61.rennes.grid5000.fr;thermos-root-devel-WordCountTopology-1-47a41e3b-1fd0-4321-aa60-e51d4a2f5f97;["container_1_Consume_and_count_1"];1.25;1533739769.02483;122.45;429.55;1091.510508128;10;151
36;paravance-51.rennes.grid5000.fr;thermos-root-devel-WordCountTopology-0-782da3ef-64e8-44de-a847-4f1bb27c2805;["topology_master"];1.25;1533739769.15677;5.02;12.11;6.801659945;9;117
37;paravance-18.rennes.grid5000.fr;thermos-root-devel-WordCountTopology-2-557b324e-3b43-403e-8f3d-8ba5a10f21ff;["container_2_Emit_random_words_2"];1.25;1533739779.36707;77.49;281.09;327.652483138;10;149
37;paravance-61.rennes.grid5000.fr;thermos-root-devel-WordCountTopology-1-47a41e3b-1fd0-4321-aa60-e51d4a2f5f97;["container_1_Consume_and_count_1"];1.25;1533739779.24418;124.95;438.99;1116.094882707;10;151
37;paravance-51.rennes.grid5000.fr;thermos-root-devel-WordCountTopology-0-782da3ef-64e8-44de-a847-4f1bb27c2805;["topology_master"];1.25;1533739779.37405;5.08;12.18;6.801659945;9;117
38;paravance-18.rennes.grid5000.fr;thermos-root-devel-WordCountTopology-2-557b324e-3b43-403e-8f3d-8ba5a10f21ff;["container_2_Emit_random_words_2"];1.25;1533739789.58608;79.1;286.43;332.65919847;10;149
38;paravance-61.rennes.grid5000.fr;thermos-root-devel-WordCountTopology-1-47a41e3b-1fd0-4321-aa60-e51d4a2f5f97;["container_1_Consume_and_count_1"];1.25;1533739789.46202;127.37;448.32;1138.845209482;10;151
38;paravance-51.rennes.grid5000.fr;thermos-root-devel-WordCountTopology-0-782da3ef-64e8-44de-a847-4f1bb27c2805;["topology_master"];1.25;1533739789.59314;5.15;12.25;6.801659945;9;117
39;paravance-61.rennes.grid5000.fr;thermos-root-devel-WordCountTopology-1-47a41e3b-1fd0-4321-aa60-e51d4a2f5f97;["container_1_Consume_and_count_1"];1.25;1533739799.68027;129.9;457.58;1166.431283758;10;151
39;paravance-18.rennes.grid5000.fr;thermos-root-devel-WordCountTopology-2-557b324e-3b43-403e-8f3d-8ba5a10f21ff;["container_2_Emit_random_words_2"];1.25;1533739799.80367;80.53;291.16;336.779694763;10;149
39;paravance-51.rennes.grid5000.fr;thermos-root-devel-WordCountTopology-0-782da3ef-64e8-44de-a847-4f1bb27c2805;["topology_master"];1.25;1533739799.81173;5.25;12.38;6.801659945;9;117
40;paravance-51.rennes.grid5000.fr;thermos-root-devel-WordCountTopology-0-782da3ef-64e8-44de-a847-4f1bb27c2805;["topology_master"];1.25;1533739810.03138;5.31;12.46;6.801659945;9;117
40;paravance-18.rennes.grid5000.fr;thermos-root-devel-WordCountTopology-2-557b324e-3b43-403e-8f3d-8ba5a10f21ff;["container_2_Emit_random_words_2"];1.25;1533739810.02369;81.8;295.36;340.887536839;10;149
40;paravance-61.rennes.grid5000.fr;thermos-root-devel-WordCountTopology-1-47a41e3b-1fd0-4321-aa60-e51d4a2f5f97;["container_1_Consume_and_count_1"];1.25;1533739809.90115;132.26;467.1;1196.642299477;10;151
41;paravance-61.rennes.grid5000.fr;thermos-root-devel-WordCountTopology-1-47a41e3b-1fd0-4321-aa60-e51d4a2f5f97;["container_1_Consume_and_count_1"];1.25;1533739820.11656;134.63;476.57;1221.957402527;10;151
41;paravance-18.rennes.grid5000.fr;thermos-root-devel-WordCountTopology-2-557b324e-3b43-403e-8f3d-8ba5a10f21ff;["container_2_Emit_random_words_2"];1.25;1533739820.24132;83.31;300.38;346.325174697;10;149
41;paravance-51.rennes.grid5000.fr;thermos-root-devel-WordCountTopology-0-782da3ef-64e8-44de-a847-4f1bb27c2805;["topology_master"];1.25;1533739820.24839;5.38;12.55;6.801659945;9;117
42;paravance-18.rennes.grid5000.fr;thermos-root-devel-WordCountTopology-2-557b324e-3b43-403e-8f3d-8ba5a10f21ff;["container_2_Emit_random_words_2"];1.25;1533739830.45815;84.69;304.94;350.050092563;10;149
42;paravance-51.rennes.grid5000.fr;thermos-root-devel-WordCountTopology-0-782da3ef-64e8-44de-a847-4f1bb27c2805;["topology_master"];1.25;1533739830.46635;5.44;12.67;6.801659945;9;117
42;paravance-61.rennes.grid5000.fr;thermos-root-devel-WordCountTopology-1-47a41e3b-1fd0-4321-aa60-e51d4a2f5f97;["container_1_Consume_and_count_1"];1.25;1533739830.33597;136.95;486.02;1248.907929467;10;151
43;paravance-61.rennes.grid5000.fr;thermos-root-devel-WordCountTopology-1-47a41e3b-1fd0-4321-aa60-e51d4a2f5f97;["container_1_Consume_and_count_1"];1.25;1533739840.55102;139.4;495.36;1275.994138667;10;151
43;paravance-51.rennes.grid5000.fr;thermos-root-devel-WordCountTopology-0-782da3ef-64e8-44de-a847-4f1bb27c2805;["topology_master"];1.25;1533739840.68262;5.54;12.79;6.801659945;9;117
43;paravance-18.rennes.grid5000.fr;thermos-root-devel-WordCountTopology-2-557b324e-3b43-403e-8f3d-8ba5a10f21ff;["container_2_Emit_random_words_2"];1.25;1533739840.67536;86.09;309.8;354.218628026;10;149
44;paravance-61.rennes.grid5000.fr;thermos-root-devel-WordCountTopology-1-47a41e3b-1fd0-4321-aa60-e51d4a2f5f97;["container_1_Consume_and_count_1"];1.25;1533739850.76645;141.85;504.66;1303.33488558;10;151
44;paravance-51.rennes.grid5000.fr;thermos-root-devel-WordCountTopology-0-782da3ef-64e8-44de-a847-4f1bb27c2805;["topology_master"];1.25;1533739850.89802;5.56;12.82;6.801659945;9;117
44;paravance-18.rennes.grid5000.fr;thermos-root-devel-WordCountTopology-2-557b324e-3b43-403e-8f3d-8ba5a10f21ff;["container_2_Emit_random_words_2"];1.25;1533739850.89046;87.41;313.95;358.160677931;10;149
45;paravance-61.rennes.grid5000.fr;thermos-root-devel-WordCountTopology-1-47a41e3b-1fd0-4321-aa60-e51d4a2f5f97;["container_1_Consume_and_count_1"];1.25;1533739860.9834;144.24;514.12;1330.18966473;10;151
45;paravance-51.rennes.grid5000.fr;thermos-root-devel-WordCountTopology-0-782da3ef-64e8-44de-a847-4f1bb27c2805;["topology_master"];1.25;1533739861.11448;5.65;12.95;6.801659945;9;117
45;paravance-18.rennes.grid5000.fr;thermos-root-devel-WordCountTopology-2-557b324e-3b43-403e-8f3d-8ba5a10f21ff;["container_2_Emit_random_words_2"];1.25;1533739861.10832;88.85;318.74;362.582138337;10;149
46;paravance-18.rennes.grid5000.fr;thermos-root-devel-WordCountTopology-2-557b324e-3b43-403e-8f3d-8ba5a10f21ff;["container_2_Emit_random_words_2"];1.25;1533739871.32436;90.2;323.31;366.614330337;10;149
46;paravance-61.rennes.grid5000.fr;thermos-root-devel-WordCountTopology-1-47a41e3b-1fd0-4321-aa60-e51d4a2f5f97;["container_1_Consume_and_count_1"];1.25;1533739871.20086;146.67;523.51;1356.383308935;10;151
46;paravance-51.rennes.grid5000.fr;thermos-root-devel-WordCountTopology-0-782da3ef-64e8-44de-a847-4f1bb27c2805;["topology_master"];1.25;1533739871.33316;5.71;13.02;6.801659945;9;117
47;paravance-61.rennes.grid5000.fr;thermos-root-devel-WordCountTopology-1-47a41e3b-1fd0-4321-aa60-e51d4a2f5f97;["container_1_Consume_and_count_1"];1.25;1533739881.4179;149.13;533.0;1382.338838638;10;151
47;paravance-51.rennes.grid5000.fr;thermos-root-devel-WordCountTopology-0-782da3ef-64e8-44de-a847-4f1bb27c2805;["topology_master"];1.25;1533739881.55059;5.78;13.1;6.801659945;9;117
47;paravance-18.rennes.grid5000.fr;thermos-root-devel-WordCountTopology-2-557b324e-3b43-403e-8f3d-8ba5a10f21ff;["container_2_Emit_random_words_2"];1.25;1533739881.54365;91.65;328.08;371.03748161;10;149
48;paravance-61.rennes.grid5000.fr;thermos-root-devel-WordCountTopology-1-47a41e3b-1fd0-4321-aa60-e51d4a2f5f97;["container_1_Consume_and_count_1"];1.25;1533739891.63545;151.47;542.35;1412.209080887;10;151
48;paravance-51.rennes.grid5000.fr;thermos-root-devel-WordCountTopology-0-782da3ef-64e8-44de-a847-4f1bb27c2805;["topology_master"];1.25;1533739891.76832;5.84;13.24;6.801659945;9;117
48;paravance-18.rennes.grid5000.fr;thermos-root-devel-WordCountTopology-2-557b324e-3b43-403e-8f3d-8ba5a10f21ff;["container_2_Emit_random_words_2"];1.25;1533739891.76213;93.01;332.68;375.359492938;10;149
49;paravance-18.rennes.grid5000.fr;thermos-root-devel-WordCountTopology-2-557b324e-3b43-403e-8f3d-8ba5a10f21ff;["container_2_Emit_random_words_2"];1.25;1533739901.97686;94.56;337.72;380.007862212;10;149
49;paravance-51.rennes.grid5000.fr;thermos-root-devel-WordCountTopology-0-782da3ef-64e8-44de-a847-4f1bb27c2805;["topology_master"];1.25;1533739901.98473;5.93;13.36;6.801659945;9;117
49;paravance-61.rennes.grid5000.fr;thermos-root-devel-WordCountTopology-1-47a41e3b-1fd0-4321-aa60-e51d4a2f5f97;["container_1_Consume_and_count_1"];1.25;1533739901.8532;153.94;551.77;1438.825026455;10;151
50;paravance-61.rennes.grid5000.fr;thermos-root-devel-WordCountTopology-1-47a41e3b-1fd0-4321-aa60-e51d4a2f5f97;["container_1_Consume_and_count_1"];1.25;1533739912.06942;156.3;561.17;1467.398300566;10;151
50;paravance-51.rennes.grid5000.fr;thermos-root-devel-WordCountTopology-0-782da3ef-64e8-44de-a847-4f1bb27c2805;["topology_master"];1.25;1533739912.20144;5.96;13.39;6.801659945;9;117
50;paravance-18.rennes.grid5000.fr;thermos-root-devel-WordCountTopology-2-557b324e-3b43-403e-8f3d-8ba5a10f21ff;["container_2_Emit_random_words_2"];1.25;1533739912.19493;95.94;342.13;383.911511453;10;149
51;paravance-51.rennes.grid5000.fr;thermos-root-devel-WordCountTopology-0-782da3ef-64e8-44de-a847-4f1bb27c2805;["topology_master"];1.25;1533739922.4187;6.04;13.52;6.801659945;9;117
51;paravance-61.rennes.grid5000.fr;thermos-root-devel-WordCountTopology-1-47a41e3b-1fd0-4321-aa60-e51d4a2f5f97;["container_1_Consume_and_count_1"];1.25;1533739922.28871;158.72;570.68;1494.719541245;10;151
51;paravance-18.rennes.grid5000.fr;thermos-root-devel-WordCountTopology-2-557b324e-3b43-403e-8f3d-8ba5a10f21ff;["container_2_Emit_random_words_2"];1.25;1533739922.41188;97.41;346.99;388.121318453;10;149
52;paravance-18.rennes.grid5000.fr;thermos-root-devel-WordCountTopology-2-557b324e-3b43-403e-8f3d-8ba5a10f21ff;["container_2_Emit_random_words_2"];1.25;1533739932.62822;98.75;351.42;391.542525555;10;149
52;paravance-61.rennes.grid5000.fr;thermos-root-devel-WordCountTopology-1-47a41e3b-1fd0-4321-aa60-e51d4a2f5f97;["container_1_Consume_and_count_1"];1.25;1533739932.50499;161.14;580.07;1522.178691002;10;151
52;paravance-51.rennes.grid5000.fr;thermos-root-devel-WordCountTopology-0-782da3ef-64e8-44de-a847-4f1bb27c2805;["topology_master"];1.25;1533739932.63636;6.1;13.6;6.801659945;9;117
53;paravance-61.rennes.grid5000.fr;thermos-root-devel-WordCountTopology-1-47a41e3b-1fd0-4321-aa60-e51d4a2f5f97;["container_1_Consume_and_count_1"];1.25;1533739942.72627;163.59;589.38;1549.866212975;10;151
53;paravance-51.rennes.grid5000.fr;thermos-root-devel-WordCountTopology-0-782da3ef-64e8-44de-a847-4f1bb27c2805;["topology_master"];1.25;1533739942.85675;6.17;13.69;6.801659945;9;117
53;paravance-18.rennes.grid5000.fr;thermos-root-devel-WordCountTopology-2-557b324e-3b43-403e-8f3d-8ba5a10f21ff;["container_2_Emit_random_words_2"];1.25;1533739942.85042;100.17;356.18;395.772923285;10;149
54;paravance-61.rennes.grid5000.fr;thermos-root-devel-WordCountTopology-1-47a41e3b-1fd0-4321-aa60-e51d4a2f5f97;["container_1_Consume_and_count_1"];1.25;1533739952.94332;165.98;598.78;1576.568716943;10;151
54;paravance-51.rennes.grid5000.fr;thermos-root-devel-WordCountTopology-0-782da3ef-64e8-44de-a847-4f1bb27c2805;["topology_master"];1.25;1533739953.07565;6.23;13.8;6.801659945;9;117
54;paravance-18.rennes.grid5000.fr;thermos-root-devel-WordCountTopology-2-557b324e-3b43-403e-8f3d-8ba5a10f21ff;["container_2_Emit_random_words_2"];1.25;1533739953.06808;101.63;360.77;400.240686391;10;149
55;paravance-18.rennes.grid5000.fr;thermos-root-devel-WordCountTopology-2-557b324e-3b43-403e-8f3d-8ba5a10f21ff;["container_2_Emit_random_words_2"];1.25;1533739963.28501;103.07;365.48;405.051591033;10;149
55;paravance-51.rennes.grid5000.fr;thermos-root-devel-WordCountTopology-0-782da3ef-64e8-44de-a847-4f1bb27c2805;["topology_master"];1.25;1533739963.2931;6.32;13.92;6.801659945;9;117
55;paravance-61.rennes.grid5000.fr;thermos-root-devel-WordCountTopology-1-47a41e3b-1fd0-4321-aa60-e51d4a2f5f97;["container_1_Consume_and_count_1"];1.25;1533739963.1621;168.47;608.07;1603.425563888;10;151
56;paravance-61.rennes.grid5000.fr;thermos-root-devel-WordCountTopology-1-47a41e3b-1fd0-4321-aa60-e51d4a2f5f97;["container_1_Consume_and_count_1"];1.25;1533739973.37927;170.79;617.57;1626.395411604;10;151
56;paravance-51.rennes.grid5000.fr;thermos-root-devel-WordCountTopology-0-782da3ef-64e8-44de-a847-4f1bb27c2805;["topology_master"];1.25;1533739973.51164;6.35;13.95;6.801659945;9;117
56;paravance-18.rennes.grid5000.fr;thermos-root-devel-WordCountTopology-2-557b324e-3b43-403e-8f3d-8ba5a10f21ff;["container_2_Emit_random_words_2"];1.25;1533739973.50369;104.55;370.42;409.868769552;10;149
57;paravance-51.rennes.grid5000.fr;thermos-root-devel-WordCountTopology-0-782da3ef-64e8-44de-a847-4f1bb27c2805;["topology_master"];1.25;1533739983.72979;6.45;14.07;6.801659945;9;117
57;paravance-61.rennes.grid5000.fr;thermos-root-devel-WordCountTopology-1-47a41e3b-1fd0-4321-aa60-e51d4a2f5f97;["container_1_Consume_and_count_1"];1.25;1533739983.59724;173.18;627.13;1652.661139449;10;151
57;paravance-18.rennes.grid5000.fr;thermos-root-devel-WordCountTopology-2-557b324e-3b43-403e-8f3d-8ba5a10f21ff;["container_2_Emit_random_words_2"];1.25;1533739983.7213;106.02;375.24;414.239345775;10;149
58;paravance-61.rennes.grid5000.fr;thermos-root-devel-WordCountTopology-1-47a41e3b-1fd0-4321-aa60-e51d4a2f5f97;["container_1_Consume_and_count_1"];1.25;1533739993.81328;175.69;636.51;1675.715136739;10;151
58;paravance-18.rennes.grid5000.fr;thermos-root-devel-WordCountTopology-2-557b324e-3b43-403e-8f3d-8ba5a10f21ff;["container_2_Emit_random_words_2"];1.25;1533739993.93753;107.6;380.41;418.70416372;10;149
58;paravance-51.rennes.grid5000.fr;thermos-root-devel-WordCountTopology-0-782da3ef-64e8-44de-a847-4f1bb27c2805;["topology_master"];1.25;1533739993.94491;6.51;14.15;6.801659945;9;117
59;paravance-61.rennes.grid5000.fr;thermos-root-devel-WordCountTopology-1-47a41e3b-1fd0-4321-aa60-e51d4a2f5f97;["container_1_Consume_and_count_1"];1.25;1533740004.03178;178.11;645.86;1702.950541466;10;151
59;paravance-51.rennes.grid5000.fr;thermos-root-devel-WordCountTopology-0-782da3ef-64e8-44de-a847-4f1bb27c2805;["topology_master"];1.25;1533740004.16172;6.58;14.28;6.801659945;9;117
59;paravance-18.rennes.grid5000.fr;thermos-root-devel-WordCountTopology-2-557b324e-3b43-403e-8f3d-8ba5a10f21ff;["container_2_Emit_random_words_2"];1.25;1533740004.15588;109.12;385.11;422.793386235;10;149
60;paravance-61.rennes.grid5000.fr;thermos-root-devel-WordCountTopology-1-47a41e3b-1fd0-4321-aa60-e51d4a2f5f97;["container_1_Consume_and_count_1"];1.25;1533740014.24766;180.53;655.22;1730.935897435;10;151
60;paravance-18.rennes.grid5000.fr;thermos-root-devel-WordCountTopology-2-557b324e-3b43-403e-8f3d-8ba5a10f21ff;["container_2_Emit_random_words_2"];1.25;1533740014.37221;110.46;389.6;426.562188181;10;149
60;paravance-51.rennes.grid5000.fr;thermos-root-devel-WordCountTopology-0-782da3ef-64e8-44de-a847-4f1bb27c2805;["topology_master"];1.25;1533740014.38024;6.64;14.35;6.801659945;9;117
