mesure_id;slave_id;executor_id;heron_instances;cpus_limit;timestamp_A;cpus_system_time_secs_A;cpus_user_time_secs_A;cpus_throttled_time_secs_A;processes;threads
0;paravance-33.rennes.grid5000.fr;thermos-root-devel-WordCountTopology-1-4dcbc2d1-a104-4fad-8b0e-b89b631861ae;["container_1_Consume_and_count_1"];3.25;1533341483.94097;37.13;248.14;101.210055312;10;151
0;paravance-31.rennes.grid5000.fr;thermos-root-devel-WordCountTopology-2-7c585612-f7dd-497a-8c26-155f6a904614;["container_2_Emit_random_words_2"];3.25;1533341483.93624;18.0;150.2;5.44298699;10;149
0;paravance-34.rennes.grid5000.fr;thermos-root-devel-WordCountTopology-0-dbffacf0-23ad-4e59-b122-a8dff0943fb1;["topology_master"];3.25;1533341483.93443;2.34;7.84;0.307743199;9;117
1;paravance-31.rennes.grid5000.fr;thermos-root-devel-WordCountTopology-2-7c585612-f7dd-497a-8c26-155f6a904614;["container_2_Emit_random_words_2"];3.25;1533341494.153;19.75;165.01;5.44298699;10;149
1;paravance-33.rennes.grid5000.fr;thermos-root-devel-WordCountTopology-1-4dcbc2d1-a104-4fad-8b0e-b89b631861ae;["container_1_Consume_and_count_1"];3.25;1533341494.15983;40.82;275.55;114.604027116;10;151
1;paravance-34.rennes.grid5000.fr;thermos-root-devel-WordCountTopology-0-dbffacf0-23ad-4e59-b122-a8dff0943fb1;["topology_master"];3.25;1533341494.15068;2.41;7.99;0.307743199;9;117
2;paravance-34.rennes.grid5000.fr;thermos-root-devel-WordCountTopology-0-dbffacf0-23ad-4e59-b122-a8dff0943fb1;["topology_master"];3.25;1533341504.26518;2.51;8.13;0.307743199;9;117
2;paravance-33.rennes.grid5000.fr;thermos-root-devel-WordCountTopology-1-4dcbc2d1-a104-4fad-8b0e-b89b631861ae;["container_1_Consume_and_count_1"];3.25;1533341504.37278;44.27;303.67;127.267112351;10;151
2;paravance-31.rennes.grid5000.fr;thermos-root-devel-WordCountTopology-2-7c585612-f7dd-497a-8c26-155f6a904614;["container_2_Emit_random_words_2"];3.25;1533341504.36797;21.37;178.69;5.44298699;10;149
3;paravance-33.rennes.grid5000.fr;thermos-root-devel-WordCountTopology-1-4dcbc2d1-a104-4fad-8b0e-b89b631861ae;["container_1_Consume_and_count_1"];3.25;1533341514.59138;47.88;332.36;140.425960771;10;151
3;paravance-34.rennes.grid5000.fr;thermos-root-devel-WordCountTopology-0-dbffacf0-23ad-4e59-b122-a8dff0943fb1;["topology_master"];3.25;1533341514.58099;2.57;8.22;0.307743199;9;117
3;paravance-31.rennes.grid5000.fr;thermos-root-devel-WordCountTopology-2-7c585612-f7dd-497a-8c26-155f6a904614;["container_2_Emit_random_words_2"];3.25;1533341514.58514;23.07;193.73;5.44298699;10;149
4;paravance-33.rennes.grid5000.fr;thermos-root-devel-WordCountTopology-1-4dcbc2d1-a104-4fad-8b0e-b89b631861ae;["container_1_Consume_and_count_1"];3.25;1533341524.80886;52.09;360.25;152.15831353;10;151
4;paravance-31.rennes.grid5000.fr;thermos-root-devel-WordCountTopology-2-7c585612-f7dd-497a-8c26-155f6a904614;["container_2_Emit_random_words_2"];3.25;1533341524.80203;24.82;209.86;5.44298699;10;149
4;paravance-34.rennes.grid5000.fr;thermos-root-devel-WordCountTopology-0-dbffacf0-23ad-4e59-b122-a8dff0943fb1;["topology_master"];3.25;1533341524.80081;2.62;8.3;0.307743199;9;117
5;paravance-33.rennes.grid5000.fr;thermos-root-devel-WordCountTopology-1-4dcbc2d1-a104-4fad-8b0e-b89b631861ae;["container_1_Consume_and_count_1"];3.25;1533341535.02462;55.89;388.54;165.044709475;10;151
5;paravance-34.rennes.grid5000.fr;thermos-root-devel-WordCountTopology-0-dbffacf0-23ad-4e59-b122-a8dff0943fb1;["topology_master"];3.25;1533341535.01659;2.68;8.37;0.307743199;9;117
5;paravance-31.rennes.grid5000.fr;thermos-root-devel-WordCountTopology-2-7c585612-f7dd-497a-8c26-155f6a904614;["container_2_Emit_random_words_2"];3.25;1533341535.01921;26.61;226.08;5.44298699;10;149
6;paravance-33.rennes.grid5000.fr;thermos-root-devel-WordCountTopology-1-4dcbc2d1-a104-4fad-8b0e-b89b631861ae;["container_1_Consume_and_count_1"];3.25;1533341545.24152;59.58;416.44;177.040668852;10;151
6;paravance-31.rennes.grid5000.fr;thermos-root-devel-WordCountTopology-2-7c585612-f7dd-497a-8c26-155f6a904614;["container_2_Emit_random_words_2"];3.25;1533341545.23578;28.35;241.44;5.44298699;10;149
6;paravance-34.rennes.grid5000.fr;thermos-root-devel-WordCountTopology-0-dbffacf0-23ad-4e59-b122-a8dff0943fb1;["topology_master"];3.25;1533341545.23281;2.8;8.58;0.307743199;9;117
7;paravance-33.rennes.grid5000.fr;thermos-root-devel-WordCountTopology-1-4dcbc2d1-a104-4fad-8b0e-b89b631861ae;["container_1_Consume_and_count_1"];3.25;1533341555.45791;63.32;444.73;190.185874179;10;151
7;paravance-31.rennes.grid5000.fr;thermos-root-devel-WordCountTopology-2-7c585612-f7dd-497a-8c26-155f6a904614;["container_2_Emit_random_words_2"];3.25;1533341555.45235;30.07;257.49;5.44298699;10;149
7;paravance-34.rennes.grid5000.fr;thermos-root-devel-WordCountTopology-0-dbffacf0-23ad-4e59-b122-a8dff0943fb1;["topology_master"];3.25;1533341555.45044;2.83;8.62;0.307743199;9;117
8;paravance-33.rennes.grid5000.fr;thermos-root-devel-WordCountTopology-1-4dcbc2d1-a104-4fad-8b0e-b89b631861ae;["container_1_Consume_and_count_1"];3.25;1533341565.67379;67.28;472.77;202.697006129;10;151
8;paravance-34.rennes.grid5000.fr;thermos-root-devel-WordCountTopology-0-dbffacf0-23ad-4e59-b122-a8dff0943fb1;["topology_master"];3.25;1533341565.6663;2.93;8.75;0.307743199;9;117
8;paravance-31.rennes.grid5000.fr;thermos-root-devel-WordCountTopology-2-7c585612-f7dd-497a-8c26-155f6a904614;["container_2_Emit_random_words_2"];3.25;1533341565.66759;31.92;273.5;5.44298699;10;149
9;paravance-31.rennes.grid5000.fr;thermos-root-devel-WordCountTopology-2-7c585612-f7dd-497a-8c26-155f6a904614;["container_2_Emit_random_words_2"];3.25;1533341575.88493;33.72;289.81;5.44298699;10;149
9;paravance-33.rennes.grid5000.fr;thermos-root-devel-WordCountTopology-1-4dcbc2d1-a104-4fad-8b0e-b89b631861ae;["container_1_Consume_and_count_1"];3.25;1533341575.89204;71.24;500.87;215.219769833;10;151
9;paravance-34.rennes.grid5000.fr;thermos-root-devel-WordCountTopology-0-dbffacf0-23ad-4e59-b122-a8dff0943fb1;["topology_master"];3.25;1533341575.88323;2.98;8.83;0.307743199;9;117
10;paravance-33.rennes.grid5000.fr;thermos-root-devel-WordCountTopology-1-4dcbc2d1-a104-4fad-8b0e-b89b631861ae;["container_1_Consume_and_count_1"];3.25;1533341586.10863;75.38;528.64;226.978611679;10;151
10;paravance-34.rennes.grid5000.fr;thermos-root-devel-WordCountTopology-0-dbffacf0-23ad-4e59-b122-a8dff0943fb1;["topology_master"];3.25;1533341586.10065;3.04;8.91;0.307743199;9;117
10;paravance-31.rennes.grid5000.fr;thermos-root-devel-WordCountTopology-2-7c585612-f7dd-497a-8c26-155f6a904614;["container_2_Emit_random_words_2"];3.25;1533341586.1023;35.49;305.79;5.44298699;10;149
11;paravance-33.rennes.grid5000.fr;thermos-root-devel-WordCountTopology-1-4dcbc2d1-a104-4fad-8b0e-b89b631861ae;["container_1_Consume_and_count_1"];3.25;1533341596.32467;79.28;556.71;239.87467197;10;151
11;paravance-31.rennes.grid5000.fr;thermos-root-devel-WordCountTopology-2-7c585612-f7dd-497a-8c26-155f6a904614;["container_2_Emit_random_words_2"];3.25;1533341596.31839;37.24;321.29;5.44298699;10;149
11;paravance-34.rennes.grid5000.fr;thermos-root-devel-WordCountTopology-0-dbffacf0-23ad-4e59-b122-a8dff0943fb1;["topology_master"];3.25;1533341596.31646;3.1;8.99;0.307743199;9;117
12;paravance-33.rennes.grid5000.fr;thermos-root-devel-WordCountTopology-1-4dcbc2d1-a104-4fad-8b0e-b89b631861ae;["container_1_Consume_and_count_1"];3.25;1533341606.54294;82.39;584.18;250.85027373;10;151
12;paravance-34.rennes.grid5000.fr;thermos-root-devel-WordCountTopology-0-dbffacf0-23ad-4e59-b122-a8dff0943fb1;["topology_master"];3.25;1533341606.53277;3.23;9.23;0.307743199;9;117
12;paravance-31.rennes.grid5000.fr;thermos-root-devel-WordCountTopology-2-7c585612-f7dd-497a-8c26-155f6a904614;["container_2_Emit_random_words_2"];3.25;1533341606.53449;38.65;332.87;5.534850838;10;149
13;paravance-33.rennes.grid5000.fr;thermos-root-devel-WordCountTopology-1-4dcbc2d1-a104-4fad-8b0e-b89b631861ae;["container_1_Consume_and_count_1"];3.25;1533341616.75821;86.3;611.34;262.517331898;10;151
13;paravance-31.rennes.grid5000.fr;thermos-root-devel-WordCountTopology-2-7c585612-f7dd-497a-8c26-155f6a904614;["container_2_Emit_random_words_2"];3.25;1533341616.75175;40.32;347.74;5.534850838;10;149
13;paravance-34.rennes.grid5000.fr;thermos-root-devel-WordCountTopology-0-dbffacf0-23ad-4e59-b122-a8dff0943fb1;["topology_master"];3.25;1533341616.74874;3.25;9.26;0.307743199;9;117
14;paravance-33.rennes.grid5000.fr;thermos-root-devel-WordCountTopology-1-4dcbc2d1-a104-4fad-8b0e-b89b631861ae;["container_1_Consume_and_count_1"];3.25;1533341626.97409;90.07;639.67;275.924863335;10;151
14;paravance-34.rennes.grid5000.fr;thermos-root-devel-WordCountTopology-0-dbffacf0-23ad-4e59-b122-a8dff0943fb1;["topology_master"];3.25;1533341626.96548;3.35;9.41;0.307743199;9;117
14;paravance-31.rennes.grid5000.fr;thermos-root-devel-WordCountTopology-2-7c585612-f7dd-497a-8c26-155f6a904614;["container_2_Emit_random_words_2"];3.25;1533341626.96927;42.03;362.91;5.534850838;10;149
15;paravance-33.rennes.grid5000.fr;thermos-root-devel-WordCountTopology-1-4dcbc2d1-a104-4fad-8b0e-b89b631861ae;["container_1_Consume_and_count_1"];3.25;1533341637.19057;94.25;667.43;287.828976625;10;151
15;paravance-31.rennes.grid5000.fr;thermos-root-devel-WordCountTopology-2-7c585612-f7dd-497a-8c26-155f6a904614;["container_2_Emit_random_words_2"];3.25;1533341637.18517;43.87;380.08;5.534850838;10;149
15;paravance-34.rennes.grid5000.fr;thermos-root-devel-WordCountTopology-0-dbffacf0-23ad-4e59-b122-a8dff0943fb1;["topology_master"];3.25;1533341637.18301;3.41;9.49;0.307743199;9;117
16;paravance-33.rennes.grid5000.fr;thermos-root-devel-WordCountTopology-1-4dcbc2d1-a104-4fad-8b0e-b89b631861ae;["container_1_Consume_and_count_1"];3.25;1533341647.40741;98.54;695.12;299.066513583;10;151
16;paravance-31.rennes.grid5000.fr;thermos-root-devel-WordCountTopology-2-7c585612-f7dd-497a-8c26-155f6a904614;["container_2_Emit_random_words_2"];3.25;1533341647.40063;45.69;396.26;5.534850838;10;149
16;paravance-34.rennes.grid5000.fr;thermos-root-devel-WordCountTopology-0-dbffacf0-23ad-4e59-b122-a8dff0943fb1;["topology_master"];3.25;1533341647.399;3.47;9.58;0.307743199;9;117
17;paravance-33.rennes.grid5000.fr;thermos-root-devel-WordCountTopology-1-4dcbc2d1-a104-4fad-8b0e-b89b631861ae;["container_1_Consume_and_count_1"];3.25;1533341657.62342;102.35;723.36;311.643281361;10;151
17;paravance-31.rennes.grid5000.fr;thermos-root-devel-WordCountTopology-2-7c585612-f7dd-497a-8c26-155f6a904614;["container_2_Emit_random_words_2"];3.25;1533341657.61704;47.42;410.81;5.534850838;10;149
17;paravance-34.rennes.grid5000.fr;thermos-root-devel-WordCountTopology-0-dbffacf0-23ad-4e59-b122-a8dff0943fb1;["topology_master"];3.25;1533341657.61404;3.52;9.66;0.307743199;9;117
18;paravance-33.rennes.grid5000.fr;thermos-root-devel-WordCountTopology-1-4dcbc2d1-a104-4fad-8b0e-b89b631861ae;["container_1_Consume_and_count_1"];3.25;1533341667.83933;106.63;751.03;323.902576711;10;151
18;paravance-31.rennes.grid5000.fr;thermos-root-devel-WordCountTopology-2-7c585612-f7dd-497a-8c26-155f6a904614;["container_2_Emit_random_words_2"];3.25;1533341667.83344;49.39;427.71;5.534850838;10;149
18;paravance-34.rennes.grid5000.fr;thermos-root-devel-WordCountTopology-0-dbffacf0-23ad-4e59-b122-a8dff0943fb1;["topology_master"];3.25;1533341667.8315;3.65;9.89;0.307743199;9;117
19;paravance-33.rennes.grid5000.fr;thermos-root-devel-WordCountTopology-1-4dcbc2d1-a104-4fad-8b0e-b89b631861ae;["container_1_Consume_and_count_1"];3.25;1533341678.05577;110.49;779.29;335.670947183;10;151
19;paravance-31.rennes.grid5000.fr;thermos-root-devel-WordCountTopology-2-7c585612-f7dd-497a-8c26-155f6a904614;["container_2_Emit_random_words_2"];3.25;1533341678.04931;51.06;442.92;5.534850838;10;149
19;paravance-34.rennes.grid5000.fr;thermos-root-devel-WordCountTopology-0-dbffacf0-23ad-4e59-b122-a8dff0943fb1;["topology_master"];3.25;1533341678.0465;3.67;9.91;0.307743199;9;117
20;paravance-33.rennes.grid5000.fr;thermos-root-devel-WordCountTopology-1-4dcbc2d1-a104-4fad-8b0e-b89b631861ae;["container_1_Consume_and_count_1"];3.25;1533341688.27282;114.29;807.64;349.800127757;10;151
20;paravance-31.rennes.grid5000.fr;thermos-root-devel-WordCountTopology-2-7c585612-f7dd-497a-8c26-155f6a904614;["container_2_Emit_random_words_2"];3.25;1533341688.26652;52.79;458.47;5.534850838;10;149
20;paravance-34.rennes.grid5000.fr;thermos-root-devel-WordCountTopology-0-dbffacf0-23ad-4e59-b122-a8dff0943fb1;["topology_master"];3.25;1533341688.2643;3.77;10.05;0.307743199;9;117
21;paravance-31.rennes.grid5000.fr;thermos-root-devel-WordCountTopology-2-7c585612-f7dd-497a-8c26-155f6a904614;["container_2_Emit_random_words_2"];3.25;1533341698.4821;54.5;473.98;5.534850838;10;149
21;paravance-33.rennes.grid5000.fr;thermos-root-devel-WordCountTopology-1-4dcbc2d1-a104-4fad-8b0e-b89b631861ae;["container_1_Consume_and_count_1"];3.25;1533341698.48823;118.0;836.07;362.632976374;10;151
21;paravance-34.rennes.grid5000.fr;thermos-root-devel-WordCountTopology-0-dbffacf0-23ad-4e59-b122-a8dff0943fb1;["topology_master"];3.25;1533341698.47999;3.83;10.13;0.307743199;9;117
22;paravance-33.rennes.grid5000.fr;thermos-root-devel-WordCountTopology-1-4dcbc2d1-a104-4fad-8b0e-b89b631861ae;["container_1_Consume_and_count_1"];3.25;1533341708.70363;121.89;864.25;375.632373541;10;151
22;paravance-31.rennes.grid5000.fr;thermos-root-devel-WordCountTopology-2-7c585612-f7dd-497a-8c26-155f6a904614;["container_2_Emit_random_words_2"];3.25;1533341708.69772;56.17;489.06;5.534850838;10;149
22;paravance-34.rennes.grid5000.fr;thermos-root-devel-WordCountTopology-0-dbffacf0-23ad-4e59-b122-a8dff0943fb1;["topology_master"];3.25;1533341708.6955;3.88;10.2;0.307743199;9;117
23;paravance-33.rennes.grid5000.fr;thermos-root-devel-WordCountTopology-1-4dcbc2d1-a104-4fad-8b0e-b89b631861ae;["container_1_Consume_and_count_1"];3.25;1533341718.92336;126.15;891.82;386.651259228;10;151
23;paravance-31.rennes.grid5000.fr;thermos-root-devel-WordCountTopology-2-7c585612-f7dd-497a-8c26-155f6a904614;["container_2_Emit_random_words_2"];3.25;1533341718.91679;57.94;505.54;5.534850838;10;149
23;paravance-34.rennes.grid5000.fr;thermos-root-devel-WordCountTopology-0-dbffacf0-23ad-4e59-b122-a8dff0943fb1;["topology_master"];3.25;1533341718.91436;3.94;10.28;0.307743199;9;117
24;paravance-33.rennes.grid5000.fr;thermos-root-devel-WordCountTopology-1-4dcbc2d1-a104-4fad-8b0e-b89b631861ae;["container_1_Consume_and_count_1"];3.25;1533341729.14059;129.97;918.91;398.436166144;10;151
24;paravance-31.rennes.grid5000.fr;thermos-root-devel-WordCountTopology-2-7c585612-f7dd-497a-8c26-155f6a904614;["container_2_Emit_random_words_2"];3.25;1533341729.1337;59.66;520.7;5.534850838;10;149
24;paravance-34.rennes.grid5000.fr;thermos-root-devel-WordCountTopology-0-dbffacf0-23ad-4e59-b122-a8dff0943fb1;["topology_master"];3.25;1533341729.13127;4.05;10.49;0.307743199;9;117
25;paravance-33.rennes.grid5000.fr;thermos-root-devel-WordCountTopology-1-4dcbc2d1-a104-4fad-8b0e-b89b631861ae;["container_1_Consume_and_count_1"];3.25;1533341739.35615;134.01;946.93;409.910248907;10;151
25;paravance-31.rennes.grid5000.fr;thermos-root-devel-WordCountTopology-2-7c585612-f7dd-497a-8c26-155f6a904614;["container_2_Emit_random_words_2"];3.25;1533341739.35025;61.38;535.69;5.534850838;10;149
25;paravance-34.rennes.grid5000.fr;thermos-root-devel-WordCountTopology-0-dbffacf0-23ad-4e59-b122-a8dff0943fb1;["topology_master"];3.25;1533341739.34743;4.07;10.51;0.307743199;9;117
26;paravance-34.rennes.grid5000.fr;thermos-root-devel-WordCountTopology-0-dbffacf0-23ad-4e59-b122-a8dff0943fb1;["topology_master"];3.25;1533341749.56273;4.17;10.64;0.307743199;9;117
26;paravance-33.rennes.grid5000.fr;thermos-root-devel-WordCountTopology-1-4dcbc2d1-a104-4fad-8b0e-b89b631861ae;["container_1_Consume_and_count_1"];3.25;1533341749.57263;138.28;974.67;422.008859316;10;151
26;paravance-31.rennes.grid5000.fr;thermos-root-devel-WordCountTopology-2-7c585612-f7dd-497a-8c26-155f6a904614;["container_2_Emit_random_words_2"];3.25;1533341749.56545;63.19;552.12;5.534850838;10;149
27;paravance-33.rennes.grid5000.fr;thermos-root-devel-WordCountTopology-1-4dcbc2d1-a104-4fad-8b0e-b89b631861ae;["container_1_Consume_and_count_1"];3.25;1533341759.78946;142.27;1002.66;433.600830783;10;151
27;paravance-31.rennes.grid5000.fr;thermos-root-devel-WordCountTopology-2-7c585612-f7dd-497a-8c26-155f6a904614;["container_2_Emit_random_words_2"];3.25;1533341759.7837;64.83;566.4;5.534850838;10;149
27;paravance-34.rennes.grid5000.fr;thermos-root-devel-WordCountTopology-0-dbffacf0-23ad-4e59-b122-a8dff0943fb1;["topology_master"];3.25;1533341759.78112;4.23;10.72;0.307743199;9;117
28;paravance-34.rennes.grid5000.fr;thermos-root-devel-WordCountTopology-0-dbffacf0-23ad-4e59-b122-a8dff0943fb1;["topology_master"];3.25;1533341769.99621;4.29;10.8;0.307743199;9;117
28;paravance-31.rennes.grid5000.fr;thermos-root-devel-WordCountTopology-2-7c585612-f7dd-497a-8c26-155f6a904614;["container_2_Emit_random_words_2"];3.25;1533341769.99923;66.55;581.64;5.534850838;10;149
28;paravance-33.rennes.grid5000.fr;thermos-root-devel-WordCountTopology-1-4dcbc2d1-a104-4fad-8b0e-b89b631861ae;["container_1_Consume_and_count_1"];3.25;1533341770.00496;146.46;1030.6;445.192096447;10;151
29;paravance-31.rennes.grid5000.fr;thermos-root-devel-WordCountTopology-2-7c585612-f7dd-497a-8c26-155f6a904614;["container_2_Emit_random_words_2"];3.25;1533341780.11703;68.12;595.09;5.534850838;10;149
29;paravance-33.rennes.grid5000.fr;thermos-root-devel-WordCountTopology-1-4dcbc2d1-a104-4fad-8b0e-b89b631861ae;["container_1_Consume_and_count_1"];3.25;1533341780.22502;149.9;1056.48;455.984441518;10;149
29;paravance-34.rennes.grid5000.fr;thermos-root-devel-WordCountTopology-0-dbffacf0-23ad-4e59-b122-a8dff0943fb1;["topology_master"];3.25;1533341780.21498;4.39;10.94;0.307743199;9;117
30;paravance-31.rennes.grid5000.fr;thermos-root-devel-WordCountTopology-2-7c585612-f7dd-497a-8c26-155f6a904614;["container_2_Emit_random_words_2"];3.25;1533341790.433;69.84;609.96;5.534850838;10;149
30;paravance-34.rennes.grid5000.fr;thermos-root-devel-WordCountTopology-0-dbffacf0-23ad-4e59-b122-a8dff0943fb1;["topology_master"];3.25;1533341790.43095;4.46;11.08;0.307743199;9;117
31;paravance-33.rennes.grid5000.fr;thermos-root-devel-WordCountTopology-1-4dcbc2d1-a104-4fad-8b0e-b89b631861ae;["container_1_Consume_and_count_1"];3.25;1533341800.6585;158.39;1110.96;479.730603208;10;151
31;paravance-34.rennes.grid5000.fr;thermos-root-devel-WordCountTopology-0-dbffacf0-23ad-4e59-b122-a8dff0943fb1;["topology_master"];3.25;1533341800.6473;4.52;11.16;0.307743199;9;117
31;paravance-31.rennes.grid5000.fr;thermos-root-devel-WordCountTopology-2-7c585612-f7dd-497a-8c26-155f6a904614;["container_2_Emit_random_words_2"];3.25;1533341800.65086;71.73;626.59;5.534850838;10;149
32;paravance-33.rennes.grid5000.fr;thermos-root-devel-WordCountTopology-1-4dcbc2d1-a104-4fad-8b0e-b89b631861ae;["container_1_Consume_and_count_1"];3.25;1533341810.87527;162.27;1138.45;491.596018109;10;151
32;paravance-31.rennes.grid5000.fr;thermos-root-devel-WordCountTopology-2-7c585612-f7dd-497a-8c26-155f6a904614;["container_2_Emit_random_words_2"];3.25;1533341810.86811;73.48;641.66;5.534850838;10;149
32;paravance-34.rennes.grid5000.fr;thermos-root-devel-WordCountTopology-0-dbffacf0-23ad-4e59-b122-a8dff0943fb1;["topology_master"];3.25;1533341810.86574;4.58;11.24;0.307743199;9;117
33;paravance-33.rennes.grid5000.fr;thermos-root-devel-WordCountTopology-1-4dcbc2d1-a104-4fad-8b0e-b89b631861ae;["container_1_Consume_and_count_1"];3.25;1533341821.09143;165.77;1166.98;505.47220481;10;151
33;paravance-31.rennes.grid5000.fr;thermos-root-devel-WordCountTopology-2-7c585612-f7dd-497a-8c26-155f6a904614;["container_2_Emit_random_words_2"];3.25;1533341821.08448;75.0;654.81;5.534850838;10;149
33;paravance-34.rennes.grid5000.fr;thermos-root-devel-WordCountTopology-0-dbffacf0-23ad-4e59-b122-a8dff0943fb1;["topology_master"];3.25;1533341821.08226;4.67;11.37;0.307743199;9;117
34;paravance-33.rennes.grid5000.fr;thermos-root-devel-WordCountTopology-1-4dcbc2d1-a104-4fad-8b0e-b89b631861ae;["container_1_Consume_and_count_1"];3.25;1533341831.30919;170.17;1194.46;517.871315935;10;151
34;paravance-31.rennes.grid5000.fr;thermos-root-devel-WordCountTopology-2-7c585612-f7dd-497a-8c26-155f6a904614;["container_2_Emit_random_words_2"];3.25;1533341831.3008;77.0;672.27;5.534850838;10;149
34;paravance-34.rennes.grid5000.fr;thermos-root-devel-WordCountTopology-0-dbffacf0-23ad-4e59-b122-a8dff0943fb1;["topology_master"];3.25;1533341831.29783;4.7;11.39;0.307743199;9;117
35;paravance-33.rennes.grid5000.fr;thermos-root-devel-WordCountTopology-1-4dcbc2d1-a104-4fad-8b0e-b89b631861ae;["container_1_Consume_and_count_1"];3.25;1533341841.52666;174.93;1221.61;530.279491433;10;151
35;paravance-34.rennes.grid5000.fr;thermos-root-devel-WordCountTopology-0-dbffacf0-23ad-4e59-b122-a8dff0943fb1;["topology_master"];3.25;1533341841.51665;4.8;11.53;0.307743199;9;117
35;paravance-31.rennes.grid5000.fr;thermos-root-devel-WordCountTopology-2-7c585612-f7dd-497a-8c26-155f6a904614;["container_2_Emit_random_words_2"];3.25;1533341841.51889;79.01;689.66;5.534850838;10;149
36;paravance-33.rennes.grid5000.fr;thermos-root-devel-WordCountTopology-1-4dcbc2d1-a104-4fad-8b0e-b89b631861ae;["container_1_Consume_and_count_1"];3.25;1533341851.74202;178.54;1247.83;540.725016593;10;151
36;paravance-34.rennes.grid5000.fr;thermos-root-devel-WordCountTopology-0-dbffacf0-23ad-4e59-b122-a8dff0943fb1;["topology_master"];3.25;1533341851.73028;4.86;11.66;0.307743199;9;117
36;paravance-31.rennes.grid5000.fr;thermos-root-devel-WordCountTopology-2-7c585612-f7dd-497a-8c26-155f6a904614;["container_2_Emit_random_words_2"];3.25;1533341851.73402;80.55;702.92;5.534850838;10;149
37;paravance-33.rennes.grid5000.fr;thermos-root-devel-WordCountTopology-1-4dcbc2d1-a104-4fad-8b0e-b89b631861ae;["container_1_Consume_and_count_1"];3.25;1533341861.96034;182.38;1276.18;554.428511316;10;151
37;paravance-31.rennes.grid5000.fr;thermos-root-devel-WordCountTopology-2-7c585612-f7dd-497a-8c26-155f6a904614;["container_2_Emit_random_words_2"];3.25;1533341861.95149;82.12;716.62;5.534850838;10;149
37;paravance-34.rennes.grid5000.fr;thermos-root-devel-WordCountTopology-0-dbffacf0-23ad-4e59-b122-a8dff0943fb1;["topology_master"];3.25;1533341861.94787;4.95;11.79;0.307743199;9;117
38;paravance-31.rennes.grid5000.fr;thermos-root-devel-WordCountTopology-2-7c585612-f7dd-497a-8c26-155f6a904614;["container_2_Emit_random_words_2"];3.25;1533341872.16873;83.92;732.44;5.534850838;10;149
38;paravance-34.rennes.grid5000.fr;thermos-root-devel-WordCountTopology-0-dbffacf0-23ad-4e59-b122-a8dff0943fb1;["topology_master"];3.25;1533341872.16598;4.98;11.82;0.307743199;9;117
38;paravance-33.rennes.grid5000.fr;thermos-root-devel-WordCountTopology-1-4dcbc2d1-a104-4fad-8b0e-b89b631861ae;["container_1_Consume_and_count_1"];3.25;1533341872.17692;186.76;1303.87;565.588294161;10;151
39;paravance-31.rennes.grid5000.fr;thermos-root-devel-WordCountTopology-2-7c585612-f7dd-497a-8c26-155f6a904614;["container_2_Emit_random_words_2"];3.25;1533341882.38706;85.8;747.84;5.534850838;10;149
39;paravance-34.rennes.grid5000.fr;thermos-root-devel-WordCountTopology-0-dbffacf0-23ad-4e59-b122-a8dff0943fb1;["topology_master"];3.25;1533341882.38392;5.06;11.94;0.307743199;9;117
39;paravance-33.rennes.grid5000.fr;thermos-root-devel-WordCountTopology-1-4dcbc2d1-a104-4fad-8b0e-b89b631861ae;["container_1_Consume_and_count_1"];3.25;1533341882.3975;190.91;1331.63;578.346371618;10;151
40;paravance-33.rennes.grid5000.fr;thermos-root-devel-WordCountTopology-1-4dcbc2d1-a104-4fad-8b0e-b89b631861ae;["container_1_Consume_and_count_1"];3.25;1533341892.61272;194.66;1359.58;590.66816581;10;151
40;paravance-34.rennes.grid5000.fr;thermos-root-devel-WordCountTopology-0-dbffacf0-23ad-4e59-b122-a8dff0943fb1;["topology_master"];3.25;1533341892.60127;5.12;12.01;0.307743199;9;117
40;paravance-31.rennes.grid5000.fr;thermos-root-devel-WordCountTopology-2-7c585612-f7dd-497a-8c26-155f6a904614;["container_2_Emit_random_words_2"];3.25;1533341892.60392;87.43;762.19;5.534850838;10;149
41;paravance-33.rennes.grid5000.fr;thermos-root-devel-WordCountTopology-1-4dcbc2d1-a104-4fad-8b0e-b89b631861ae;["container_1_Consume_and_count_1"];3.25;1533341902.82811;198.27;1387.46;603.999127187;10;151
41;paravance-31.rennes.grid5000.fr;thermos-root-devel-WordCountTopology-2-7c585612-f7dd-497a-8c26-155f6a904614;["container_2_Emit_random_words_2"];3.25;1533341902.82197;89.02;775.83;5.534850838;10;149
41;paravance-34.rennes.grid5000.fr;thermos-root-devel-WordCountTopology-0-dbffacf0-23ad-4e59-b122-a8dff0943fb1;["topology_master"];3.25;1533341902.81956;5.19;12.11;0.307743199;9;117
42;paravance-31.rennes.grid5000.fr;thermos-root-devel-WordCountTopology-2-7c585612-f7dd-497a-8c26-155f6a904614;["container_2_Emit_random_words_2"];3.25;1533341913.03815;90.65;790.65;5.534850838;10;149
42;paravance-33.rennes.grid5000.fr;thermos-root-devel-WordCountTopology-1-4dcbc2d1-a104-4fad-8b0e-b89b631861ae;["container_1_Consume_and_count_1"];3.25;1533341913.04732;201.85;1414.79;616.049098937;10;151
42;paravance-34.rennes.grid5000.fr;thermos-root-devel-WordCountTopology-0-dbffacf0-23ad-4e59-b122-a8dff0943fb1;["topology_master"];3.25;1533341913.03522;5.25;12.21;0.307743199;9;117
43;paravance-33.rennes.grid5000.fr;thermos-root-devel-WordCountTopology-1-4dcbc2d1-a104-4fad-8b0e-b89b631861ae;["container_1_Consume_and_count_1"];3.25;1533341923.26296;205.18;1441.76;626.602958374;10;151
43;paravance-31.rennes.grid5000.fr;thermos-root-devel-WordCountTopology-2-7c585612-f7dd-497a-8c26-155f6a904614;["container_2_Emit_random_words_2"];3.25;1533341923.2558;92.07;802.77;5.534850838;10;149
43;paravance-34.rennes.grid5000.fr;thermos-root-devel-WordCountTopology-0-dbffacf0-23ad-4e59-b122-a8dff0943fb1;["topology_master"];3.25;1533341923.25316;5.35;12.34;0.307743199;9;117
44;paravance-33.rennes.grid5000.fr;thermos-root-devel-WordCountTopology-1-4dcbc2d1-a104-4fad-8b0e-b89b631861ae;["container_1_Consume_and_count_1"];3.25;1533341933.48351;208.93;1469.33;638.804853708;10;151
44;paravance-34.rennes.grid5000.fr;thermos-root-devel-WordCountTopology-0-dbffacf0-23ad-4e59-b122-a8dff0943fb1;["topology_master"];3.25;1533341933.47278;5.37;12.37;0.307743199;9;117
44;paravance-31.rennes.grid5000.fr;thermos-root-devel-WordCountTopology-2-7c585612-f7dd-497a-8c26-155f6a904614;["container_2_Emit_random_words_2"];3.25;1533341933.47575;93.63;816.68;5.534850838;10;149
45;paravance-33.rennes.grid5000.fr;thermos-root-devel-WordCountTopology-1-4dcbc2d1-a104-4fad-8b0e-b89b631861ae;["container_1_Consume_and_count_1"];3.25;1533341943.69837;212.46;1497.61;651.370666494;10;151
45;paravance-31.rennes.grid5000.fr;thermos-root-devel-WordCountTopology-2-7c585612-f7dd-497a-8c26-155f6a904614;["container_2_Emit_random_words_2"];3.25;1533341943.69137;95.24;830.81;5.534850838;10;149
45;paravance-34.rennes.grid5000.fr;thermos-root-devel-WordCountTopology-0-dbffacf0-23ad-4e59-b122-a8dff0943fb1;["topology_master"];3.25;1533341943.68863;5.47;12.5;0.307743199;9;117
46;paravance-33.rennes.grid5000.fr;thermos-root-devel-WordCountTopology-1-4dcbc2d1-a104-4fad-8b0e-b89b631861ae;["container_1_Consume_and_count_1"];3.25;1533341953.91587;216.4;1525.65;663.405608558;10;151
46;paravance-31.rennes.grid5000.fr;thermos-root-devel-WordCountTopology-2-7c585612-f7dd-497a-8c26-155f6a904614;["container_2_Emit_random_words_2"];3.25;1533341953.9069;97.02;846.81;5.534850838;10;149
46;paravance-34.rennes.grid5000.fr;thermos-root-devel-WordCountTopology-0-dbffacf0-23ad-4e59-b122-a8dff0943fb1;["topology_master"];3.25;1533341953.9043;5.52;12.57;0.307743199;9;117
47;paravance-33.rennes.grid5000.fr;thermos-root-devel-WordCountTopology-1-4dcbc2d1-a104-4fad-8b0e-b89b631861ae;["container_1_Consume_and_count_1"];3.25;1533341964.13332;220.18;1553.83;678.083954713;10;151
47;paravance-31.rennes.grid5000.fr;thermos-root-devel-WordCountTopology-2-7c585612-f7dd-497a-8c26-155f6a904614;["container_2_Emit_random_words_2"];3.25;1533341964.12603;98.76;862.0;5.534850838;10;149
47;paravance-34.rennes.grid5000.fr;thermos-root-devel-WordCountTopology-0-dbffacf0-23ad-4e59-b122-a8dff0943fb1;["topology_master"];3.25;1533341964.1233;5.59;12.66;0.307743199;9;117
48;paravance-33.rennes.grid5000.fr;thermos-root-devel-WordCountTopology-1-4dcbc2d1-a104-4fad-8b0e-b89b631861ae;["container_1_Consume_and_count_1"];3.25;1533341974.34976;224.13;1580.88;688.505248229;10;151
48;paravance-34.rennes.grid5000.fr;thermos-root-devel-WordCountTopology-0-dbffacf0-23ad-4e59-b122-a8dff0943fb1;["topology_master"];3.25;1533341974.33659;5.65;12.81;0.307743199;9;117
48;paravance-31.rennes.grid5000.fr;thermos-root-devel-WordCountTopology-2-7c585612-f7dd-497a-8c26-155f6a904614;["container_2_Emit_random_words_2"];3.25;1533341974.3405;100.33;875.69;5.534850838;10;149
49;paravance-31.rennes.grid5000.fr;thermos-root-devel-WordCountTopology-2-7c585612-f7dd-497a-8c26-155f6a904614;["container_2_Emit_random_words_2"];3.25;1533341984.45607;102.05;890.99;5.534850838;10;149
49;paravance-33.rennes.grid5000.fr;thermos-root-devel-WordCountTopology-1-4dcbc2d1-a104-4fad-8b0e-b89b631861ae;["container_1_Consume_and_count_1"];3.25;1533341984.56364;227.67;1608.58;701.518542761;10;151
49;paravance-34.rennes.grid5000.fr;thermos-root-devel-WordCountTopology-0-dbffacf0-23ad-4e59-b122-a8dff0943fb1;["topology_master"];3.25;1533341984.55312;5.74;12.94;0.307743199;9;117
50;paravance-33.rennes.grid5000.fr;thermos-root-devel-WordCountTopology-1-4dcbc2d1-a104-4fad-8b0e-b89b631861ae;["container_1_Consume_and_count_1"];3.25;1533341994.78175;231.98;1636.32;714.435301916;10;151
50;paravance-31.rennes.grid5000.fr;thermos-root-devel-WordCountTopology-2-7c585612-f7dd-497a-8c26-155f6a904614;["container_2_Emit_random_words_2"];3.25;1533341994.77337;104.08;909.71;5.534850838;10;149
50;paravance-34.rennes.grid5000.fr;thermos-root-devel-WordCountTopology-0-dbffacf0-23ad-4e59-b122-a8dff0943fb1;["topology_master"];3.25;1533341994.77038;5.77;12.97;0.307743199;9;117
51;paravance-33.rennes.grid5000.fr;thermos-root-devel-WordCountTopology-1-4dcbc2d1-a104-4fad-8b0e-b89b631861ae;["container_1_Consume_and_count_1"];3.25;1533342004.89854;236.0;1663.89;726.29205113;10;151
51;paravance-34.rennes.grid5000.fr;thermos-root-devel-WordCountTopology-0-dbffacf0-23ad-4e59-b122-a8dff0943fb1;["topology_master"];3.25;1533342004.98709;5.86;13.1;0.307743199;9;117
51;paravance-31.rennes.grid5000.fr;thermos-root-devel-WordCountTopology-2-7c585612-f7dd-497a-8c26-155f6a904614;["container_2_Emit_random_words_2"];3.25;1533342004.9913;105.8;924.83;5.534850838;10;149
52;paravance-33.rennes.grid5000.fr;thermos-root-devel-WordCountTopology-1-4dcbc2d1-a104-4fad-8b0e-b89b631861ae;["container_1_Consume_and_count_1"];3.25;1533342015.2153;239.43;1690.68;737.267765699;10;151
52;paravance-31.rennes.grid5000.fr;thermos-root-devel-WordCountTopology-2-7c585612-f7dd-497a-8c26-155f6a904614;["container_2_Emit_random_words_2"];3.25;1533342015.20649;107.3;938.53;5.534850838;10;149
52;paravance-34.rennes.grid5000.fr;thermos-root-devel-WordCountTopology-0-dbffacf0-23ad-4e59-b122-a8dff0943fb1;["topology_master"];3.25;1533342015.20439;5.92;13.18;0.307743199;9;117
53;paravance-31.rennes.grid5000.fr;thermos-root-devel-WordCountTopology-2-7c585612-f7dd-497a-8c26-155f6a904614;["container_2_Emit_random_words_2"];3.25;1533342025.42343;109.04;953.33;5.534850838;10;149
53;paravance-33.rennes.grid5000.fr;thermos-root-devel-WordCountTopology-1-4dcbc2d1-a104-4fad-8b0e-b89b631861ae;["container_1_Consume_and_count_1"];3.25;1533342025.43283;243.36;1717.49;749.819281298;10;151
53;paravance-34.rennes.grid5000.fr;thermos-root-devel-WordCountTopology-0-dbffacf0-23ad-4e59-b122-a8dff0943fb1;["topology_master"];3.25;1533342025.42084;5.99;13.31;0.307743199;9;117
54;paravance-34.rennes.grid5000.fr;thermos-root-devel-WordCountTopology-0-dbffacf0-23ad-4e59-b122-a8dff0943fb1;["topology_master"];3.25;1533342035.63864;6.05;13.38;0.307743199;9;117
54;paravance-33.rennes.grid5000.fr;thermos-root-devel-WordCountTopology-1-4dcbc2d1-a104-4fad-8b0e-b89b631861ae;["container_1_Consume_and_count_1"];3.25;1533342035.65126;247.37;1745.62;763.592325774;10;151
54;paravance-31.rennes.grid5000.fr;thermos-root-devel-WordCountTopology-2-7c585612-f7dd-497a-8c26-155f6a904614;["container_2_Emit_random_words_2"];3.25;1533342035.64192;110.8;969.09;5.534850838;10;149
55;paravance-31.rennes.grid5000.fr;thermos-root-devel-WordCountTopology-2-7c585612-f7dd-497a-8c26-155f6a904614;["container_2_Emit_random_words_2"];3.25;1533342045.85903;112.66;986.19;5.534850838;10;149
55;paravance-33.rennes.grid5000.fr;thermos-root-devel-WordCountTopology-1-4dcbc2d1-a104-4fad-8b0e-b89b631861ae;["container_1_Consume_and_count_1"];3.25;1533342045.86883;251.28;1773.84;778.14646527;10;151
55;paravance-34.rennes.grid5000.fr;thermos-root-devel-WordCountTopology-0-dbffacf0-23ad-4e59-b122-a8dff0943fb1;["topology_master"];3.25;1533342045.85639;6.14;13.51;0.307743199;9;117
56;paravance-33.rennes.grid5000.fr;thermos-root-devel-WordCountTopology-1-4dcbc2d1-a104-4fad-8b0e-b89b631861ae;["container_1_Consume_and_count_1"];3.25;1533342056.08581;254.73;1802.69;791.813834519;10;151
56;paravance-34.rennes.grid5000.fr;thermos-root-devel-WordCountTopology-0-dbffacf0-23ad-4e59-b122-a8dff0943fb1;["topology_master"];3.25;1533342056.07199;6.17;13.54;0.307743199;9;117
56;paravance-31.rennes.grid5000.fr;thermos-root-devel-WordCountTopology-2-7c585612-f7dd-497a-8c26-155f6a904614;["container_2_Emit_random_words_2"];3.25;1533342056.07615;114.23;1000.15;5.534850838;10;149
57;paravance-34.rennes.grid5000.fr;thermos-root-devel-WordCountTopology-0-dbffacf0-23ad-4e59-b122-a8dff0943fb1;["topology_master"];3.25;1533342066.28956;6.26;13.66;0.307743199;9;117
57;paravance-31.rennes.grid5000.fr;thermos-root-devel-WordCountTopology-2-7c585612-f7dd-497a-8c26-155f6a904614;["container_2_Emit_random_words_2"];3.25;1533342066.29352;115.77;1012.94;5.534850838;10;149
57;paravance-33.rennes.grid5000.fr;thermos-root-devel-WordCountTopology-1-4dcbc2d1-a104-4fad-8b0e-b89b631861ae;["container_1_Consume_and_count_1"];3.25;1533342066.30236;258.07;1830.05;803.351533026;10;151
58;paravance-33.rennes.grid5000.fr;thermos-root-devel-WordCountTopology-1-4dcbc2d1-a104-4fad-8b0e-b89b631861ae;["container_1_Consume_and_count_1"];3.25;1533342076.51597;261.41;1857.94;815.874485067;10;151
58;paravance-34.rennes.grid5000.fr;thermos-root-devel-WordCountTopology-0-dbffacf0-23ad-4e59-b122-a8dff0943fb1;["topology_master"];3.25;1533342076.50288;6.31;13.74;0.307743199;9;117
58;paravance-31.rennes.grid5000.fr;thermos-root-devel-WordCountTopology-2-7c585612-f7dd-497a-8c26-155f6a904614;["container_2_Emit_random_words_2"];3.25;1533342076.50635;117.38;1026.85;5.534850838;10;149
59;paravance-31.rennes.grid5000.fr;thermos-root-devel-WordCountTopology-2-7c585612-f7dd-497a-8c26-155f6a904614;["container_2_Emit_random_words_2"];3.25;1533342086.72241;118.98;1040.7;5.534850838;10;149
59;paravance-33.rennes.grid5000.fr;thermos-root-devel-WordCountTopology-1-4dcbc2d1-a104-4fad-8b0e-b89b631861ae;["container_1_Consume_and_count_1"];3.25;1533342086.73225;265.01;1885.68;827.822386715;10;151
59;paravance-34.rennes.grid5000.fr;thermos-root-devel-WordCountTopology-0-dbffacf0-23ad-4e59-b122-a8dff0943fb1;["topology_master"];3.25;1533342086.7191;6.38;13.85;0.307743199;9;117
60;paravance-31.rennes.grid5000.fr;thermos-root-devel-WordCountTopology-2-7c585612-f7dd-497a-8c26-155f6a904614;["container_2_Emit_random_words_2"];3.25;1533342096.93775;120.66;1055.79;5.534850838;10;149
60;paravance-33.rennes.grid5000.fr;thermos-root-devel-WordCountTopology-1-4dcbc2d1-a104-4fad-8b0e-b89b631861ae;["container_1_Consume_and_count_1"];3.25;1533342096.94875;268.83;1913.99;840.999299373;10;151
60;paravance-34.rennes.grid5000.fr;thermos-root-devel-WordCountTopology-0-dbffacf0-23ad-4e59-b122-a8dff0943fb1;["topology_master"];3.25;1533342096.93421;6.44;13.92;0.307743199;9;117
