mesure_id;slave_id;executor_id;heron_instances;cpus_limit;timestamp_A;cpus_system_time_secs_A;cpus_user_time_secs_A;cpus_throttled_time_secs_A;processes;threads
0;paravance-50.rennes.grid5000.fr;thermos-root-devel-WordCountTopology-0-2f6aced6-fe73-40e6-abd2-eefdf676f9c8;["topology_master"];4.25;1533115666.01566;2.47;8.05;0.0;9;117
0;paravance-51.rennes.grid5000.fr;thermos-root-devel-WordCountTopology-2-1cc07610-edef-48f1-af95-a93d7a4f7880;["container_2_Emit_random_words_2"];4.25;1533115666.02813;9.91;221.55;1.188330372;10;149
0;paravance-49.rennes.grid5000.fr;thermos-root-devel-WordCountTopology-1-3e2e98e0-4c29-4e90-97f8-b9a685f6d568;["container_1_Consume_and_count_1"];4.25;1533115666.10232;11.18;164.4;0.45538519;10;149
1;paravance-49.rennes.grid5000.fr;thermos-root-devel-WordCountTopology-1-3e2e98e0-4c29-4e90-97f8-b9a685f6d568;["container_1_Consume_and_count_1"];4.25;1533115676.32535;11.97;178.27;0.45538519;10;149
1;paravance-50.rennes.grid5000.fr;thermos-root-devel-WordCountTopology-0-2f6aced6-fe73-40e6-abd2-eefdf676f9c8;["topology_master"];4.25;1533115676.23974;2.54;8.23;0.0;9;117
1;paravance-51.rennes.grid5000.fr;thermos-root-devel-WordCountTopology-2-1cc07610-edef-48f1-af95-a93d7a4f7880;["container_2_Emit_random_words_2"];4.25;1533115676.25289;10.6;239.85;1.188330372;10;149
2;paravance-49.rennes.grid5000.fr;thermos-root-devel-WordCountTopology-1-3e2e98e0-4c29-4e90-97f8-b9a685f6d568;["container_1_Consume_and_count_1"];4.25;1533115686.54507;12.78;191.55;0.45538519;10;149
2;paravance-50.rennes.grid5000.fr;thermos-root-devel-WordCountTopology-0-2f6aced6-fe73-40e6-abd2-eefdf676f9c8;["topology_master"];4.25;1533115686.45985;2.63;8.36;0.0;9;117
2;paravance-51.rennes.grid5000.fr;thermos-root-devel-WordCountTopology-2-1cc07610-edef-48f1-af95-a93d7a4f7880;["container_2_Emit_random_words_2"];4.25;1533115686.47349;11.29;258.19;1.188330372;10;149
3;paravance-49.rennes.grid5000.fr;thermos-root-devel-WordCountTopology-1-3e2e98e0-4c29-4e90-97f8-b9a685f6d568;["container_1_Consume_and_count_1"];4.25;1533115696.76561;13.56;205.13;0.45538519;10;149
3;paravance-51.rennes.grid5000.fr;thermos-root-devel-WordCountTopology-2-1cc07610-edef-48f1-af95-a93d7a4f7880;["container_2_Emit_random_words_2"];4.25;1533115696.69285;11.97;276.49;1.188330372;10;149
3;paravance-50.rennes.grid5000.fr;thermos-root-devel-WordCountTopology-0-2f6aced6-fe73-40e6-abd2-eefdf676f9c8;["topology_master"];4.25;1533115696.68069;2.68;8.44;0.0;9;117
4;paravance-49.rennes.grid5000.fr;thermos-root-devel-WordCountTopology-1-3e2e98e0-4c29-4e90-97f8-b9a685f6d568;["container_1_Consume_and_count_1"];4.25;1533115706.98618;14.34;218.8;0.45538519;10;149
4;paravance-50.rennes.grid5000.fr;thermos-root-devel-WordCountTopology-0-2f6aced6-fe73-40e6-abd2-eefdf676f9c8;["topology_master"];4.25;1533115706.90035;2.74;8.52;0.0;9;117
4;paravance-51.rennes.grid5000.fr;thermos-root-devel-WordCountTopology-2-1cc07610-edef-48f1-af95-a93d7a4f7880;["container_2_Emit_random_words_2"];4.25;1533115706.91289;12.64;294.72;1.188330372;10;149
5;paravance-51.rennes.grid5000.fr;thermos-root-devel-WordCountTopology-2-1cc07610-edef-48f1-af95-a93d7a4f7880;["container_2_Emit_random_words_2"];4.25;1533115717.13433;13.33;313.16;1.188330372;10;149
5;paravance-49.rennes.grid5000.fr;thermos-root-devel-WordCountTopology-1-3e2e98e0-4c29-4e90-97f8-b9a685f6d568;["container_1_Consume_and_count_1"];4.25;1533115717.20716;15.12;231.96;0.45538519;10;149
5;paravance-50.rennes.grid5000.fr;thermos-root-devel-WordCountTopology-0-2f6aced6-fe73-40e6-abd2-eefdf676f9c8;["topology_master"];4.25;1533115717.12246;2.8;8.59;0.0;9;117
6;paravance-51.rennes.grid5000.fr;thermos-root-devel-WordCountTopology-2-1cc07610-edef-48f1-af95-a93d7a4f7880;["container_2_Emit_random_words_2"];4.25;1533115727.35515;14.05;331.68;1.188330372;10;149
6;paravance-49.rennes.grid5000.fr;thermos-root-devel-WordCountTopology-1-3e2e98e0-4c29-4e90-97f8-b9a685f6d568;["container_1_Consume_and_count_1"];4.25;1533115727.42855;15.96;245.85;0.45538519;10;149
6;paravance-50.rennes.grid5000.fr;thermos-root-devel-WordCountTopology-0-2f6aced6-fe73-40e6-abd2-eefdf676f9c8;["topology_master"];4.25;1533115727.34338;2.93;8.82;0.0;9;117
7;paravance-49.rennes.grid5000.fr;thermos-root-devel-WordCountTopology-1-3e2e98e0-4c29-4e90-97f8-b9a685f6d568;["container_1_Consume_and_count_1"];4.25;1533115737.64946;16.69;258.86;0.45538519;10;149
7;paravance-51.rennes.grid5000.fr;thermos-root-devel-WordCountTopology-2-1cc07610-edef-48f1-af95-a93d7a4f7880;["container_2_Emit_random_words_2"];4.25;1533115737.57662;14.69;349.9;1.188330372;10;149
7;paravance-50.rennes.grid5000.fr;thermos-root-devel-WordCountTopology-0-2f6aced6-fe73-40e6-abd2-eefdf676f9c8;["topology_master"];4.25;1533115737.56378;2.96;8.86;0.0;9;117
8;paravance-51.rennes.grid5000.fr;thermos-root-devel-WordCountTopology-2-1cc07610-edef-48f1-af95-a93d7a4f7880;["container_2_Emit_random_words_2"];4.25;1533115747.79612;15.39;368.19;1.188330372;10;149
8;paravance-50.rennes.grid5000.fr;thermos-root-devel-WordCountTopology-0-2f6aced6-fe73-40e6-abd2-eefdf676f9c8;["topology_master"];4.25;1533115747.78474;3.05;8.99;0.0;9;117
8;paravance-49.rennes.grid5000.fr;thermos-root-devel-WordCountTopology-1-3e2e98e0-4c29-4e90-97f8-b9a685f6d568;["container_1_Consume_and_count_1"];4.25;1533115747.86989;17.49;272.73;0.45538519;10;149
9;paravance-51.rennes.grid5000.fr;thermos-root-devel-WordCountTopology-2-1cc07610-edef-48f1-af95-a93d7a4f7880;["container_2_Emit_random_words_2"];4.25;1533115758.01699;16.05;386.49;1.188330372;10;149
9;paravance-49.rennes.grid5000.fr;thermos-root-devel-WordCountTopology-1-3e2e98e0-4c29-4e90-97f8-b9a685f6d568;["container_1_Consume_and_count_1"];4.25;1533115758.09093;18.25;285.83;0.45538519;10;149
9;paravance-50.rennes.grid5000.fr;thermos-root-devel-WordCountTopology-0-2f6aced6-fe73-40e6-abd2-eefdf676f9c8;["topology_master"];4.25;1533115758.0054;3.1;9.06;0.0;9;117
10;paravance-51.rennes.grid5000.fr;thermos-root-devel-WordCountTopology-2-1cc07610-edef-48f1-af95-a93d7a4f7880;["container_2_Emit_random_words_2"];4.25;1533115768.23777;16.72;404.67;1.188330372;10;149
10;paravance-49.rennes.grid5000.fr;thermos-root-devel-WordCountTopology-1-3e2e98e0-4c29-4e90-97f8-b9a685f6d568;["container_1_Consume_and_count_1"];4.25;1533115768.31144;18.99;298.93;0.45538519;10;149
10;paravance-50.rennes.grid5000.fr;thermos-root-devel-WordCountTopology-0-2f6aced6-fe73-40e6-abd2-eefdf676f9c8;["topology_master"];4.25;1533115768.2263;3.16;9.13;0.0;9;117
11;paravance-49.rennes.grid5000.fr;thermos-root-devel-WordCountTopology-1-3e2e98e0-4c29-4e90-97f8-b9a685f6d568;["container_1_Consume_and_count_1"];4.25;1533115778.43206;19.75;312.43;0.45538519;10;149
11;paravance-51.rennes.grid5000.fr;thermos-root-devel-WordCountTopology-2-1cc07610-edef-48f1-af95-a93d7a4f7880;["container_2_Emit_random_words_2"];4.25;1533115778.45868;17.38;422.97;1.188330372;10;149
11;paravance-50.rennes.grid5000.fr;thermos-root-devel-WordCountTopology-0-2f6aced6-fe73-40e6-abd2-eefdf676f9c8;["topology_master"];4.25;1533115778.4471;3.22;9.21;0.0;9;117
12;paravance-51.rennes.grid5000.fr;thermos-root-devel-WordCountTopology-2-1cc07610-edef-48f1-af95-a93d7a4f7880;["container_2_Emit_random_words_2"];4.25;1533115788.67745;18.09;441.44;1.188330372;10;149
12;paravance-49.rennes.grid5000.fr;thermos-root-devel-WordCountTopology-1-3e2e98e0-4c29-4e90-97f8-b9a685f6d568;["container_1_Consume_and_count_1"];4.25;1533115788.75118;20.57;325.81;0.45538519;10;149
12;paravance-50.rennes.grid5000.fr;thermos-root-devel-WordCountTopology-0-2f6aced6-fe73-40e6-abd2-eefdf676f9c8;["topology_master"];4.25;1533115788.6657;3.35;9.48;0.0;9;117
13;paravance-49.rennes.grid5000.fr;thermos-root-devel-WordCountTopology-1-3e2e98e0-4c29-4e90-97f8-b9a685f6d568;["container_1_Consume_and_count_1"];4.25;1533115798.8714;21.3;339.49;0.45538519;10;149
13;paravance-51.rennes.grid5000.fr;thermos-root-devel-WordCountTopology-2-1cc07610-edef-48f1-af95-a93d7a4f7880;["container_2_Emit_random_words_2"];4.25;1533115798.89846;18.71;459.54;1.188330372;10;149
13;paravance-50.rennes.grid5000.fr;thermos-root-devel-WordCountTopology-0-2f6aced6-fe73-40e6-abd2-eefdf676f9c8;["topology_master"];4.25;1533115798.88668;3.37;9.5;0.0;9;117
14;paravance-51.rennes.grid5000.fr;thermos-root-devel-WordCountTopology-2-1cc07610-edef-48f1-af95-a93d7a4f7880;["container_2_Emit_random_words_2"];4.25;1533115809.11817;19.4;477.79;1.188330372;10;149
14;paravance-49.rennes.grid5000.fr;thermos-root-devel-WordCountTopology-1-3e2e98e0-4c29-4e90-97f8-b9a685f6d568;["container_1_Consume_and_count_1"];4.25;1533115809.19115;22.07;352.84;0.45538519;10;149
14;paravance-50.rennes.grid5000.fr;thermos-root-devel-WordCountTopology-0-2f6aced6-fe73-40e6-abd2-eefdf676f9c8;["topology_master"];4.25;1533115809.10658;3.46;9.64;0.0;9;117
15;paravance-50.rennes.grid5000.fr;thermos-root-devel-WordCountTopology-0-2f6aced6-fe73-40e6-abd2-eefdf676f9c8;["topology_master"];4.25;1533115819.32777;3.52;9.71;0.0;9;117
15;paravance-51.rennes.grid5000.fr;thermos-root-devel-WordCountTopology-2-1cc07610-edef-48f1-af95-a93d7a4f7880;["container_2_Emit_random_words_2"];4.25;1533115819.34079;20.07;496.08;1.188330372;10;149
15;paravance-49.rennes.grid5000.fr;thermos-root-devel-WordCountTopology-1-3e2e98e0-4c29-4e90-97f8-b9a685f6d568;["container_1_Consume_and_count_1"];4.25;1533115819.41308;22.81;366.73;0.45538519;10;149
16;paravance-49.rennes.grid5000.fr;thermos-root-devel-WordCountTopology-1-3e2e98e0-4c29-4e90-97f8-b9a685f6d568;["container_1_Consume_and_count_1"];4.25;1533115829.53469;23.55;380.14;0.45538519;10;149
16;paravance-51.rennes.grid5000.fr;thermos-root-devel-WordCountTopology-2-1cc07610-edef-48f1-af95-a93d7a4f7880;["container_2_Emit_random_words_2"];4.25;1533115829.56146;20.71;514.2;1.188330372;10;149
16;paravance-50.rennes.grid5000.fr;thermos-root-devel-WordCountTopology-0-2f6aced6-fe73-40e6-abd2-eefdf676f9c8;["topology_master"];4.25;1533115829.55003;3.58;9.79;0.0;9;117
17;paravance-51.rennes.grid5000.fr;thermos-root-devel-WordCountTopology-2-1cc07610-edef-48f1-af95-a93d7a4f7880;["container_2_Emit_random_words_2"];4.25;1533115839.78088;21.37;532.52;1.188330372;10;149
17;paravance-50.rennes.grid5000.fr;thermos-root-devel-WordCountTopology-0-2f6aced6-fe73-40e6-abd2-eefdf676f9c8;["topology_master"];4.25;1533115839.76835;3.64;9.86;0.0;9;117
17;paravance-49.rennes.grid5000.fr;thermos-root-devel-WordCountTopology-1-3e2e98e0-4c29-4e90-97f8-b9a685f6d568;["container_1_Consume_and_count_1"];4.25;1533115839.85448;24.31;393.83;0.45538519;10;149
18;paravance-51.rennes.grid5000.fr;thermos-root-devel-WordCountTopology-2-1cc07610-edef-48f1-af95-a93d7a4f7880;["container_2_Emit_random_words_2"];4.25;1533115850.00167;22.11;551.09;1.188330372;10;149
18;paravance-49.rennes.grid5000.fr;thermos-root-devel-WordCountTopology-1-3e2e98e0-4c29-4e90-97f8-b9a685f6d568;["container_1_Consume_and_count_1"];4.25;1533115850.07437;25.12;407.71;0.45538519;10;149
18;paravance-50.rennes.grid5000.fr;thermos-root-devel-WordCountTopology-0-2f6aced6-fe73-40e6-abd2-eefdf676f9c8;["topology_master"];4.25;1533115849.98946;3.75;10.11;0.0;9;117
19;paravance-51.rennes.grid5000.fr;thermos-root-devel-WordCountTopology-2-1cc07610-edef-48f1-af95-a93d7a4f7880;["container_2_Emit_random_words_2"];4.25;1533115860.22223;22.75;569.37;1.188330372;10;149
19;paravance-49.rennes.grid5000.fr;thermos-root-devel-WordCountTopology-1-3e2e98e0-4c29-4e90-97f8-b9a685f6d568;["container_1_Consume_and_count_1"];4.25;1533115860.29585;25.83;420.6;0.45538519;10;149
19;paravance-50.rennes.grid5000.fr;thermos-root-devel-WordCountTopology-0-2f6aced6-fe73-40e6-abd2-eefdf676f9c8;["topology_master"];4.25;1533115860.21088;3.78;10.13;0.0;9;117
20;paravance-51.rennes.grid5000.fr;thermos-root-devel-WordCountTopology-2-1cc07610-edef-48f1-af95-a93d7a4f7880;["container_2_Emit_random_words_2"];4.25;1533115870.34143;23.44;587.64;1.188330372;10;149
20;paravance-49.rennes.grid5000.fr;thermos-root-devel-WordCountTopology-1-3e2e98e0-4c29-4e90-97f8-b9a685f6d568;["container_1_Consume_and_count_1"];4.25;1533115870.51508;26.64;434.34;0.45538519;10;149
20;paravance-50.rennes.grid5000.fr;thermos-root-devel-WordCountTopology-0-2f6aced6-fe73-40e6-abd2-eefdf676f9c8;["topology_master"];4.25;1533115870.42917;3.87;10.26;0.0;9;117
21;paravance-51.rennes.grid5000.fr;thermos-root-devel-WordCountTopology-2-1cc07610-edef-48f1-af95-a93d7a4f7880;["container_2_Emit_random_words_2"];4.25;1533115880.66036;24.12;606.35;1.188330372;10;149
21;paravance-50.rennes.grid5000.fr;thermos-root-devel-WordCountTopology-0-2f6aced6-fe73-40e6-abd2-eefdf676f9c8;["topology_master"];4.25;1533115880.64836;3.93;10.34;0.0;9;117
21;paravance-49.rennes.grid5000.fr;thermos-root-devel-WordCountTopology-1-3e2e98e0-4c29-4e90-97f8-b9a685f6d568;["container_1_Consume_and_count_1"];4.25;1533115880.73308;27.4;447.22;0.45538519;10;149
22;paravance-49.rennes.grid5000.fr;thermos-root-devel-WordCountTopology-1-3e2e98e0-4c29-4e90-97f8-b9a685f6d568;["container_1_Consume_and_count_1"];4.25;1533115890.95529;28.17;460.87;0.45538519;10;149
22;paravance-51.rennes.grid5000.fr;thermos-root-devel-WordCountTopology-2-1cc07610-edef-48f1-af95-a93d7a4f7880;["container_2_Emit_random_words_2"];4.25;1533115890.88239;24.78;624.67;1.188330372;10;149
22;paravance-50.rennes.grid5000.fr;thermos-root-devel-WordCountTopology-0-2f6aced6-fe73-40e6-abd2-eefdf676f9c8;["topology_master"];4.25;1533115890.86958;3.98;10.41;0.0;9;117
23;paravance-51.rennes.grid5000.fr;thermos-root-devel-WordCountTopology-2-1cc07610-edef-48f1-af95-a93d7a4f7880;["container_2_Emit_random_words_2"];4.25;1533115901.10086;25.44;642.98;1.188330372;10;149
23;paravance-49.rennes.grid5000.fr;thermos-root-devel-WordCountTopology-1-3e2e98e0-4c29-4e90-97f8-b9a685f6d568;["container_1_Consume_and_count_1"];4.25;1533115901.17345;28.92;474.37;0.45538519;10;149
23;paravance-50.rennes.grid5000.fr;thermos-root-devel-WordCountTopology-0-2f6aced6-fe73-40e6-abd2-eefdf676f9c8;["topology_master"];4.25;1533115901.08817;4.04;10.48;0.0;9;117
24;paravance-49.rennes.grid5000.fr;thermos-root-devel-WordCountTopology-1-3e2e98e0-4c29-4e90-97f8-b9a685f6d568;["container_1_Consume_and_count_1"];4.25;1533115911.39343;29.74;487.61;0.45538519;10;149
24;paravance-51.rennes.grid5000.fr;thermos-root-devel-WordCountTopology-2-1cc07610-edef-48f1-af95-a93d7a4f7880;["container_2_Emit_random_words_2"];4.25;1533115911.32026;26.16;661.34;1.188330372;10;149
24;paravance-50.rennes.grid5000.fr;thermos-root-devel-WordCountTopology-0-2f6aced6-fe73-40e6-abd2-eefdf676f9c8;["topology_master"];4.25;1533115911.30872;4.15;10.67;0.0;9;117
25;paravance-51.rennes.grid5000.fr;thermos-root-devel-WordCountTopology-2-1cc07610-edef-48f1-af95-a93d7a4f7880;["container_2_Emit_random_words_2"];4.25;1533115921.5408;26.79;679.45;1.188330372;10;149
25;paravance-49.rennes.grid5000.fr;thermos-root-devel-WordCountTopology-1-3e2e98e0-4c29-4e90-97f8-b9a685f6d568;["container_1_Consume_and_count_1"];4.25;1533115921.61377;30.48;501.17;0.45538519;10;149
25;paravance-50.rennes.grid5000.fr;thermos-root-devel-WordCountTopology-0-2f6aced6-fe73-40e6-abd2-eefdf676f9c8;["topology_master"];4.25;1533115921.52934;4.17;10.69;0.0;9;117
26;paravance-51.rennes.grid5000.fr;thermos-root-devel-WordCountTopology-2-1cc07610-edef-48f1-af95-a93d7a4f7880;["container_2_Emit_random_words_2"];4.25;1533115931.76092;27.49;697.84;1.188330372;10;149
26;paravance-50.rennes.grid5000.fr;thermos-root-devel-WordCountTopology-0-2f6aced6-fe73-40e6-abd2-eefdf676f9c8;["topology_master"];4.25;1533115931.74882;4.26;10.81;0.0;9;117
26;paravance-49.rennes.grid5000.fr;thermos-root-devel-WordCountTopology-1-3e2e98e0-4c29-4e90-97f8-b9a685f6d568;["container_1_Consume_and_count_1"];4.25;1533115931.83517;31.27;514.24;0.45538519;10;149
27;paravance-49.rennes.grid5000.fr;thermos-root-devel-WordCountTopology-1-3e2e98e0-4c29-4e90-97f8-b9a685f6d568;["container_1_Consume_and_count_1"];4.25;1533115942.05551;32.05;528.05;0.45538519;10;149
27;paravance-50.rennes.grid5000.fr;thermos-root-devel-WordCountTopology-0-2f6aced6-fe73-40e6-abd2-eefdf676f9c8;["topology_master"];4.25;1533115941.97086;4.32;10.88;0.0;9;117
27;paravance-51.rennes.grid5000.fr;thermos-root-devel-WordCountTopology-2-1cc07610-edef-48f1-af95-a93d7a4f7880;["container_2_Emit_random_words_2"];4.25;1533115941.98213;28.15;716.18;1.188330372;10;149
28;paravance-51.rennes.grid5000.fr;thermos-root-devel-WordCountTopology-2-1cc07610-edef-48f1-af95-a93d7a4f7880;["container_2_Emit_random_words_2"];4.25;1533115952.10214;28.81;734.28;1.188330372;10;149
28;paravance-49.rennes.grid5000.fr;thermos-root-devel-WordCountTopology-1-3e2e98e0-4c29-4e90-97f8-b9a685f6d568;["container_1_Consume_and_count_1"];4.25;1533115952.27456;32.79;541.43;0.45538519;10;149
28;paravance-50.rennes.grid5000.fr;thermos-root-devel-WordCountTopology-0-2f6aced6-fe73-40e6-abd2-eefdf676f9c8;["topology_master"];4.25;1533115952.19048;4.38;10.96;0.0;9;117
29;paravance-51.rennes.grid5000.fr;thermos-root-devel-WordCountTopology-2-1cc07610-edef-48f1-af95-a93d7a4f7880;["container_2_Emit_random_words_2"];4.25;1533115962.42195;29.51;752.76;1.188330372;10;149
29;paravance-49.rennes.grid5000.fr;thermos-root-devel-WordCountTopology-1-3e2e98e0-4c29-4e90-97f8-b9a685f6d568;["container_1_Consume_and_count_1"];4.25;1533115962.49521;33.61;555.08;0.45538519;10;149
29;paravance-50.rennes.grid5000.fr;thermos-root-devel-WordCountTopology-0-2f6aced6-fe73-40e6-abd2-eefdf676f9c8;["topology_master"];4.25;1533115962.41105;4.49;11.1;0.0;9;117
30;paravance-50.rennes.grid5000.fr;thermos-root-devel-WordCountTopology-0-2f6aced6-fe73-40e6-abd2-eefdf676f9c8;["topology_master"];4.25;1533115972.53086;4.55;11.21;0.0;9;117
30;paravance-51.rennes.grid5000.fr;thermos-root-devel-WordCountTopology-2-1cc07610-edef-48f1-af95-a93d7a4f7880;["container_2_Emit_random_words_2"];4.25;1533115972.64309;30.17;771.11;1.188330372;10;149
30;paravance-49.rennes.grid5000.fr;thermos-root-devel-WordCountTopology-1-3e2e98e0-4c29-4e90-97f8-b9a685f6d568;["container_1_Consume_and_count_1"];4.25;1533115972.71718;34.36;568.94;0.45538519;10;149
31;paravance-51.rennes.grid5000.fr;thermos-root-devel-WordCountTopology-2-1cc07610-edef-48f1-af95-a93d7a4f7880;["container_2_Emit_random_words_2"];4.25;1533115982.86278;30.83;789.2;1.188330372;10;149
31;paravance-49.rennes.grid5000.fr;thermos-root-devel-WordCountTopology-1-3e2e98e0-4c29-4e90-97f8-b9a685f6d568;["container_1_Consume_and_count_1"];4.25;1533115982.93595;35.11;581.9;0.45538519;10;149
31;paravance-50.rennes.grid5000.fr;thermos-root-devel-WordCountTopology-0-2f6aced6-fe73-40e6-abd2-eefdf676f9c8;["topology_master"];4.25;1533115982.85087;4.6;11.29;0.0;9;117
32;paravance-49.rennes.grid5000.fr;thermos-root-devel-WordCountTopology-1-3e2e98e0-4c29-4e90-97f8-b9a685f6d568;["container_1_Consume_and_count_1"];4.25;1533115993.1567;35.87;595.59;0.45538519;10;149
32;paravance-51.rennes.grid5000.fr;thermos-root-devel-WordCountTopology-2-1cc07610-edef-48f1-af95-a93d7a4f7880;["container_2_Emit_random_words_2"];4.25;1533115993.0844;31.48;807.41;1.188330372;10;149
32;paravance-50.rennes.grid5000.fr;thermos-root-devel-WordCountTopology-0-2f6aced6-fe73-40e6-abd2-eefdf676f9c8;["topology_master"];4.25;1533115993.07223;4.66;11.36;0.0;9;117
33;paravance-51.rennes.grid5000.fr;thermos-root-devel-WordCountTopology-2-1cc07610-edef-48f1-af95-a93d7a4f7880;["container_2_Emit_random_words_2"];4.25;1533116003.30965;32.18;825.79;1.188330372;10;149
33;paravance-49.rennes.grid5000.fr;thermos-root-devel-WordCountTopology-1-3e2e98e0-4c29-4e90-97f8-b9a685f6d568;["container_1_Consume_and_count_1"];4.25;1533116003.38346;36.67;608.81;0.45538519;10;149
33;paravance-50.rennes.grid5000.fr;thermos-root-devel-WordCountTopology-0-2f6aced6-fe73-40e6-abd2-eefdf676f9c8;["topology_master"];4.25;1533116003.29878;4.74;11.48;0.0;9;117
34;paravance-49.rennes.grid5000.fr;thermos-root-devel-WordCountTopology-1-3e2e98e0-4c29-4e90-97f8-b9a685f6d568;["container_1_Consume_and_count_1"];4.25;1533116013.60284;37.44;622.25;0.45538519;10;149
34;paravance-51.rennes.grid5000.fr;thermos-root-devel-WordCountTopology-2-1cc07610-edef-48f1-af95-a93d7a4f7880;["container_2_Emit_random_words_2"];4.25;1533116013.53056;32.84;843.87;1.188330372;10;149
34;paravance-50.rennes.grid5000.fr;thermos-root-devel-WordCountTopology-0-2f6aced6-fe73-40e6-abd2-eefdf676f9c8;["topology_master"];4.25;1533116013.51799;4.79;11.54;0.0;9;117
35;paravance-49.rennes.grid5000.fr;thermos-root-devel-WordCountTopology-1-3e2e98e0-4c29-4e90-97f8-b9a685f6d568;["container_1_Consume_and_count_1"];4.25;1533116023.82328;38.23;635.47;0.45538519;10;149
35;paravance-51.rennes.grid5000.fr;thermos-root-devel-WordCountTopology-2-1cc07610-edef-48f1-af95-a93d7a4f7880;["container_2_Emit_random_words_2"];4.25;1533116023.75122;33.5;862.13;1.188330372;10;149
35;paravance-50.rennes.grid5000.fr;thermos-root-devel-WordCountTopology-0-2f6aced6-fe73-40e6-abd2-eefdf676f9c8;["topology_master"];4.25;1533116023.74049;4.87;11.64;0.0;9;117
36;paravance-50.rennes.grid5000.fr;thermos-root-devel-WordCountTopology-0-2f6aced6-fe73-40e6-abd2-eefdf676f9c8;["topology_master"];4.25;1533116033.95947;4.94;11.8;0.0;9;117
36;paravance-49.rennes.grid5000.fr;thermos-root-devel-WordCountTopology-1-3e2e98e0-4c29-4e90-97f8-b9a685f6d568;["container_1_Consume_and_count_1"];4.25;1533116034.04527;39.02;649.24;0.45538519;10;149
36;paravance-51.rennes.grid5000.fr;thermos-root-devel-WordCountTopology-2-1cc07610-edef-48f1-af95-a93d7a4f7880;["container_2_Emit_random_words_2"];4.25;1533116033.97288;34.17;880.54;1.188330372;10;149
37;paravance-49.rennes.grid5000.fr;thermos-root-devel-WordCountTopology-1-3e2e98e0-4c29-4e90-97f8-b9a685f6d568;["container_1_Consume_and_count_1"];4.25;1533116044.26548;39.82;662.81;0.45538519;10;149
37;paravance-51.rennes.grid5000.fr;thermos-root-devel-WordCountTopology-2-1cc07610-edef-48f1-af95-a93d7a4f7880;["container_2_Emit_random_words_2"];4.25;1533116044.19334;34.86;898.88;1.188330372;10;149
37;paravance-50.rennes.grid5000.fr;thermos-root-devel-WordCountTopology-0-2f6aced6-fe73-40e6-abd2-eefdf676f9c8;["topology_master"];4.25;1533116044.18177;5.02;11.92;0.0;9;117
38;paravance-51.rennes.grid5000.fr;thermos-root-devel-WordCountTopology-2-1cc07610-edef-48f1-af95-a93d7a4f7880;["container_2_Emit_random_words_2"];4.25;1533116054.41324;35.47;917.01;1.188330372;10;149
38;paravance-49.rennes.grid5000.fr;thermos-root-devel-WordCountTopology-1-3e2e98e0-4c29-4e90-97f8-b9a685f6d568;["container_1_Consume_and_count_1"];4.25;1533116054.48605;40.55;675.7;0.45538519;10;149
38;paravance-50.rennes.grid5000.fr;thermos-root-devel-WordCountTopology-0-2f6aced6-fe73-40e6-abd2-eefdf676f9c8;["topology_master"];4.25;1533116054.40251;5.05;11.95;0.0;9;117
39;paravance-51.rennes.grid5000.fr;thermos-root-devel-WordCountTopology-2-1cc07610-edef-48f1-af95-a93d7a4f7880;["container_2_Emit_random_words_2"];4.25;1533116064.63371;36.11;935.17;1.188330372;10;149
39;paravance-49.rennes.grid5000.fr;thermos-root-devel-WordCountTopology-1-3e2e98e0-4c29-4e90-97f8-b9a685f6d568;["container_1_Consume_and_count_1"];4.25;1533116064.70717;41.35;689.49;0.45538519;10;149
39;paravance-50.rennes.grid5000.fr;thermos-root-devel-WordCountTopology-0-2f6aced6-fe73-40e6-abd2-eefdf676f9c8;["topology_master"];4.25;1533116064.62328;5.14;12.07;0.0;9;117
40;paravance-50.rennes.grid5000.fr;thermos-root-devel-WordCountTopology-0-2f6aced6-fe73-40e6-abd2-eefdf676f9c8;["topology_master"];4.25;1533116074.7434;5.2;12.14;0.0;9;117
40;paravance-51.rennes.grid5000.fr;thermos-root-devel-WordCountTopology-2-1cc07610-edef-48f1-af95-a93d7a4f7880;["container_2_Emit_random_words_2"];4.25;1533116074.86908;36.77;953.41;1.188330372;10;149
40;paravance-49.rennes.grid5000.fr;thermos-root-devel-WordCountTopology-1-3e2e98e0-4c29-4e90-97f8-b9a685f6d568;["container_1_Consume_and_count_1"];4.25;1533116074.94187;42.09;702.62;0.45538519;10;149
41;paravance-51.rennes.grid5000.fr;thermos-root-devel-WordCountTopology-2-1cc07610-edef-48f1-af95-a93d7a4f7880;["container_2_Emit_random_words_2"];4.25;1533116085.08836;37.43;971.63;1.188330372;10;149
41;paravance-50.rennes.grid5000.fr;thermos-root-devel-WordCountTopology-0-2f6aced6-fe73-40e6-abd2-eefdf676f9c8;["topology_master"];4.25;1533116085.07692;5.26;12.23;0.0;9;117
41;paravance-49.rennes.grid5000.fr;thermos-root-devel-WordCountTopology-1-3e2e98e0-4c29-4e90-97f8-b9a685f6d568;["container_1_Consume_and_count_1"];4.25;1533116085.16242;42.86;716.4;0.45538519;10;149
42;paravance-51.rennes.grid5000.fr;thermos-root-devel-WordCountTopology-2-1cc07610-edef-48f1-af95-a93d7a4f7880;["container_2_Emit_random_words_2"];4.25;1533116095.30896;38.09;989.91;1.188330372;10;149
42;paravance-50.rennes.grid5000.fr;thermos-root-devel-WordCountTopology-0-2f6aced6-fe73-40e6-abd2-eefdf676f9c8;["topology_master"];4.25;1533116095.29777;5.33;12.35;0.0;9;117
42;paravance-49.rennes.grid5000.fr;thermos-root-devel-WordCountTopology-1-3e2e98e0-4c29-4e90-97f8-b9a685f6d568;["container_1_Consume_and_count_1"];4.25;1533116095.38168;43.65;729.68;0.45538519;10;149
43;paravance-50.rennes.grid5000.fr;thermos-root-devel-WordCountTopology-0-2f6aced6-fe73-40e6-abd2-eefdf676f9c8;["topology_master"];4.25;1533116105.51908;5.41;12.47;0.0;9;117
43;paravance-51.rennes.grid5000.fr;thermos-root-devel-WordCountTopology-2-1cc07610-edef-48f1-af95-a93d7a4f7880;["container_2_Emit_random_words_2"];4.25;1533116105.53079;38.74;1008.21;1.188330372;10;149
43;paravance-49.rennes.grid5000.fr;thermos-root-devel-WordCountTopology-1-3e2e98e0-4c29-4e90-97f8-b9a685f6d568;["container_1_Consume_and_count_1"];4.25;1533116105.60446;44.46;743.29;0.45538519;10;149
44;paravance-49.rennes.grid5000.fr;thermos-root-devel-WordCountTopology-1-3e2e98e0-4c29-4e90-97f8-b9a685f6d568;["container_1_Consume_and_count_1"];4.25;1533116115.82316;45.21;756.99;0.45538519;10;149
44;paravance-51.rennes.grid5000.fr;thermos-root-devel-WordCountTopology-2-1cc07610-edef-48f1-af95-a93d7a4f7880;["container_2_Emit_random_words_2"];4.25;1533116115.75064;39.39;1026.41;1.188330372;10;149
44;paravance-50.rennes.grid5000.fr;thermos-root-devel-WordCountTopology-0-2f6aced6-fe73-40e6-abd2-eefdf676f9c8;["topology_master"];4.25;1533116115.73909;5.44;12.49;0.0;9;117
45;paravance-49.rennes.grid5000.fr;thermos-root-devel-WordCountTopology-1-3e2e98e0-4c29-4e90-97f8-b9a685f6d568;["container_1_Consume_and_count_1"];4.25;1533116126.04464;46.01;770.72;0.45538519;10;149
45;paravance-50.rennes.grid5000.fr;thermos-root-devel-WordCountTopology-0-2f6aced6-fe73-40e6-abd2-eefdf676f9c8;["topology_master"];4.25;1533116125.96152;5.53;12.62;0.0;9;117
45;paravance-51.rennes.grid5000.fr;thermos-root-devel-WordCountTopology-2-1cc07610-edef-48f1-af95-a93d7a4f7880;["container_2_Emit_random_words_2"];4.25;1533116125.9725;40.06;1044.51;1.188330372;10;149
46;paravance-51.rennes.grid5000.fr;thermos-root-devel-WordCountTopology-2-1cc07610-edef-48f1-af95-a93d7a4f7880;["container_2_Emit_random_words_2"];4.25;1533116136.1927;40.71;1062.63;1.188330372;10;149
46;paravance-50.rennes.grid5000.fr;thermos-root-devel-WordCountTopology-0-2f6aced6-fe73-40e6-abd2-eefdf676f9c8;["topology_master"];4.25;1533116136.18124;5.58;12.69;0.0;9;117
46;paravance-49.rennes.grid5000.fr;thermos-root-devel-WordCountTopology-1-3e2e98e0-4c29-4e90-97f8-b9a685f6d568;["container_1_Consume_and_count_1"];4.25;1533116136.26673;46.78;783.9;0.45538519;10;149
47;paravance-51.rennes.grid5000.fr;thermos-root-devel-WordCountTopology-2-1cc07610-edef-48f1-af95-a93d7a4f7880;["container_2_Emit_random_words_2"];4.25;1533116146.41159;41.38;1080.87;1.188330372;10;149
47;paravance-50.rennes.grid5000.fr;thermos-root-devel-WordCountTopology-0-2f6aced6-fe73-40e6-abd2-eefdf676f9c8;["topology_master"];4.25;1533116146.4001;5.65;12.79;0.0;9;117
47;paravance-49.rennes.grid5000.fr;thermos-root-devel-WordCountTopology-1-3e2e98e0-4c29-4e90-97f8-b9a685f6d568;["container_1_Consume_and_count_1"];4.25;1533116146.48511;47.56;797.57;0.45538519;10;149
48;paravance-51.rennes.grid5000.fr;thermos-root-devel-WordCountTopology-2-1cc07610-edef-48f1-af95-a93d7a4f7880;["container_2_Emit_random_words_2"];4.25;1533116156.63317;42.04;1099.23;1.188330372;10;149
48;paravance-50.rennes.grid5000.fr;thermos-root-devel-WordCountTopology-0-2f6aced6-fe73-40e6-abd2-eefdf676f9c8;["topology_master"];4.25;1533116156.62187;5.72;12.92;0.0;9;117
48;paravance-49.rennes.grid5000.fr;thermos-root-devel-WordCountTopology-1-3e2e98e0-4c29-4e90-97f8-b9a685f6d568;["container_1_Consume_and_count_1"];4.25;1533116156.70718;48.34;811.25;0.45538519;10;149
49;paravance-51.rennes.grid5000.fr;thermos-root-devel-WordCountTopology-2-1cc07610-edef-48f1-af95-a93d7a4f7880;["container_2_Emit_random_words_2"];4.25;1533116166.8551;42.73;1117.59;1.188330372;10;149
49;paravance-49.rennes.grid5000.fr;thermos-root-devel-WordCountTopology-1-3e2e98e0-4c29-4e90-97f8-b9a685f6d568;["container_1_Consume_and_count_1"];4.25;1533116166.92715;49.13;824.59;0.45538519;10;149
49;paravance-50.rennes.grid5000.fr;thermos-root-devel-WordCountTopology-0-2f6aced6-fe73-40e6-abd2-eefdf676f9c8;["topology_master"];4.25;1533116166.84356;5.8;13.04;0.0;9;117
50;paravance-51.rennes.grid5000.fr;thermos-root-devel-WordCountTopology-2-1cc07610-edef-48f1-af95-a93d7a4f7880;["container_2_Emit_random_words_2"];4.25;1533116177.07405;43.36;1135.6;1.188330372;10;149
50;paravance-49.rennes.grid5000.fr;thermos-root-devel-WordCountTopology-1-3e2e98e0-4c29-4e90-97f8-b9a685f6d568;["container_1_Consume_and_count_1"];4.25;1533116177.14792;49.87;838.14;0.45538519;10;149
50;paravance-50.rennes.grid5000.fr;thermos-root-devel-WordCountTopology-0-2f6aced6-fe73-40e6-abd2-eefdf676f9c8;["topology_master"];4.25;1533116177.06346;5.83;13.07;0.0;9;117
51;paravance-51.rennes.grid5000.fr;thermos-root-devel-WordCountTopology-2-1cc07610-edef-48f1-af95-a93d7a4f7880;["container_2_Emit_random_words_2"];4.25;1533116187.29618;44.04;1153.89;1.188330372;10;149
51;paravance-49.rennes.grid5000.fr;thermos-root-devel-WordCountTopology-1-3e2e98e0-4c29-4e90-97f8-b9a685f6d568;["container_1_Consume_and_count_1"];4.25;1533116187.36991;50.65;851.21;0.45538519;10;149
51;paravance-50.rennes.grid5000.fr;thermos-root-devel-WordCountTopology-0-2f6aced6-fe73-40e6-abd2-eefdf676f9c8;["topology_master"];4.25;1533116187.28645;5.92;13.19;0.0;9;117
52;paravance-51.rennes.grid5000.fr;thermos-root-devel-WordCountTopology-2-1cc07610-edef-48f1-af95-a93d7a4f7880;["container_2_Emit_random_words_2"];4.25;1533116197.51861;44.72;1172.09;1.188330372;10;149
52;paravance-50.rennes.grid5000.fr;thermos-root-devel-WordCountTopology-0-2f6aced6-fe73-40e6-abd2-eefdf676f9c8;["topology_master"];4.25;1533116197.50689;5.98;13.27;0.0;9;117
52;paravance-49.rennes.grid5000.fr;thermos-root-devel-WordCountTopology-1-3e2e98e0-4c29-4e90-97f8-b9a685f6d568;["container_1_Consume_and_count_1"];4.25;1533116197.59178;51.4;865.04;0.45538519;10;149
53;paravance-49.rennes.grid5000.fr;thermos-root-devel-WordCountTopology-1-3e2e98e0-4c29-4e90-97f8-b9a685f6d568;["container_1_Consume_and_count_1"];4.25;1533116207.71202;52.15;877.81;0.45538519;10;149
53;paravance-51.rennes.grid5000.fr;thermos-root-devel-WordCountTopology-2-1cc07610-edef-48f1-af95-a93d7a4f7880;["container_2_Emit_random_words_2"];4.25;1533116207.73882;45.39;1190.4;1.188330372;10;149
53;paravance-50.rennes.grid5000.fr;thermos-root-devel-WordCountTopology-0-2f6aced6-fe73-40e6-abd2-eefdf676f9c8;["topology_master"];4.25;1533116207.72825;6.05;13.41;0.0;9;117
54;paravance-49.rennes.grid5000.fr;thermos-root-devel-WordCountTopology-1-3e2e98e0-4c29-4e90-97f8-b9a685f6d568;["container_1_Consume_and_count_1"];4.25;1533116218.03284;52.92;891.32;0.45538519;10;149
54;paravance-51.rennes.grid5000.fr;thermos-root-devel-WordCountTopology-2-1cc07610-edef-48f1-af95-a93d7a4f7880;["container_2_Emit_random_words_2"];4.25;1533116217.95977;46.04;1208.59;1.188330372;10;149
54;paravance-50.rennes.grid5000.fr;thermos-root-devel-WordCountTopology-0-2f6aced6-fe73-40e6-abd2-eefdf676f9c8;["topology_master"];4.25;1533116217.94777;6.11;13.49;0.0;9;117
55;paravance-49.rennes.grid5000.fr;thermos-root-devel-WordCountTopology-1-3e2e98e0-4c29-4e90-97f8-b9a685f6d568;["container_1_Consume_and_count_1"];4.25;1533116228.25547;53.73;905.09;0.45538519;10;149
55;paravance-51.rennes.grid5000.fr;thermos-root-devel-WordCountTopology-2-1cc07610-edef-48f1-af95-a93d7a4f7880;["container_2_Emit_random_words_2"];4.25;1533116228.18278;46.74;1226.95;1.188330372;10;149
55;paravance-50.rennes.grid5000.fr;thermos-root-devel-WordCountTopology-0-2f6aced6-fe73-40e6-abd2-eefdf676f9c8;["topology_master"];4.25;1533116228.17189;6.19;13.61;0.0;9;117
56;paravance-49.rennes.grid5000.fr;thermos-root-devel-WordCountTopology-1-3e2e98e0-4c29-4e90-97f8-b9a685f6d568;["container_1_Consume_and_count_1"];4.25;1533116238.47483;54.46;918.23;0.45538519;10;149
56;paravance-51.rennes.grid5000.fr;thermos-root-devel-WordCountTopology-2-1cc07610-edef-48f1-af95-a93d7a4f7880;["container_2_Emit_random_words_2"];4.25;1533116238.40263;47.37;1245.09;1.188330372;10;149
56;paravance-50.rennes.grid5000.fr;thermos-root-devel-WordCountTopology-0-2f6aced6-fe73-40e6-abd2-eefdf676f9c8;["topology_master"];4.25;1533116238.39226;6.22;13.63;0.0;9;117
57;paravance-51.rennes.grid5000.fr;thermos-root-devel-WordCountTopology-2-1cc07610-edef-48f1-af95-a93d7a4f7880;["container_2_Emit_random_words_2"];4.25;1533116248.6236;48.05;1263.31;1.188330372;10;149
57;paravance-49.rennes.grid5000.fr;thermos-root-devel-WordCountTopology-1-3e2e98e0-4c29-4e90-97f8-b9a685f6d568;["container_1_Consume_and_count_1"];4.25;1533116248.69539;55.27;932.13;0.45538519;10;149
57;paravance-50.rennes.grid5000.fr;thermos-root-devel-WordCountTopology-0-2f6aced6-fe73-40e6-abd2-eefdf676f9c8;["topology_master"];4.25;1533116248.61292;6.31;13.75;0.0;9;117
58;paravance-49.rennes.grid5000.fr;thermos-root-devel-WordCountTopology-1-3e2e98e0-4c29-4e90-97f8-b9a685f6d568;["container_1_Consume_and_count_1"];4.25;1533116258.91621;56.02;945.22;0.45538519;10;149
58;paravance-50.rennes.grid5000.fr;thermos-root-devel-WordCountTopology-0-2f6aced6-fe73-40e6-abd2-eefdf676f9c8;["topology_master"];4.25;1533116258.83277;6.37;13.83;0.0;9;117
58;paravance-51.rennes.grid5000.fr;thermos-root-devel-WordCountTopology-2-1cc07610-edef-48f1-af95-a93d7a4f7880;["container_2_Emit_random_words_2"];4.25;1533116258.84405;48.71;1281.62;1.188330372;10;149
59;paravance-49.rennes.grid5000.fr;thermos-root-devel-WordCountTopology-1-3e2e98e0-4c29-4e90-97f8-b9a685f6d568;["container_1_Consume_and_count_1"];4.25;1533116269.13728;56.8;958.79;0.45538519;10;149
59;paravance-51.rennes.grid5000.fr;thermos-root-devel-WordCountTopology-2-1cc07610-edef-48f1-af95-a93d7a4f7880;["container_2_Emit_random_words_2"];4.25;1533116269.06572;49.37;1299.93;1.188330372;10;149
59;paravance-50.rennes.grid5000.fr;thermos-root-devel-WordCountTopology-0-2f6aced6-fe73-40e6-abd2-eefdf676f9c8;["topology_master"];4.25;1533116269.05481;6.44;13.94;0.0;9;117
60;paravance-51.rennes.grid5000.fr;thermos-root-devel-WordCountTopology-2-1cc07610-edef-48f1-af95-a93d7a4f7880;["container_2_Emit_random_words_2"];4.25;1533116279.28636;50.03;1318.23;1.188330372;10;149
60;paravance-49.rennes.grid5000.fr;thermos-root-devel-WordCountTopology-1-3e2e98e0-4c29-4e90-97f8-b9a685f6d568;["container_1_Consume_and_count_1"];4.25;1533116279.35839;57.57;972.3;0.45538519;10;149
60;paravance-50.rennes.grid5000.fr;thermos-root-devel-WordCountTopology-0-2f6aced6-fe73-40e6-abd2-eefdf676f9c8;["topology_master"];4.25;1533116279.27601;6.5;14.02;0.0;9;117
