mesure_id;slave_id;executor_id;heron_instances;cpus_limit;timestamp_B;cpus_system_time_secs_B;cpus_user_time_secs_B;cpus_throttled_time_secs_B;processes;threads
0;paravance-39.rennes.grid5000.fr;thermos-root-devel-WordCountTopology-0-821dbba9-3aa9-4722-a38e-9aa5e213f56c;["topology_master"];4.25;1533252341.73671;2.34;7.97;0.010403709;9;117
0;paravance-43.rennes.grid5000.fr;thermos-root-devel-WordCountTopology-2-3f073cc2-2e66-4948-802e-34efc1a2dad8;["container_2_Emit_random_words_2"];4.25;1533252341.75208;11.24;90.77;3.406053727;10;149
0;paravance-50.rennes.grid5000.fr;thermos-root-devel-WordCountTopology-1-28ba0840-bdb2-439c-8ec3-5395010dc7e9;["container_1_Consume_and_count_1"];4.25;1533252341.84148;13.8;106.2;12.087482321;10;151
1;paravance-50.rennes.grid5000.fr;thermos-root-devel-WordCountTopology-1-28ba0840-bdb2-439c-8ec3-5395010dc7e9;["container_1_Consume_and_count_1"];4.25;1533252351.95645;14.13;119.47;12.163661511;10;151
1;paravance-39.rennes.grid5000.fr;thermos-root-devel-WordCountTopology-0-821dbba9-3aa9-4722-a38e-9aa5e213f56c;["topology_master"];4.25;1533252352.0021;2.44;8.1;0.010403709;9;117
1;paravance-43.rennes.grid5000.fr;thermos-root-devel-WordCountTopology-2-3f073cc2-2e66-4948-802e-34efc1a2dad8;["container_2_Emit_random_words_2"];4.25;1533252352.01803;11.51;92.16;3.406053727;10;149
2;paravance-50.rennes.grid5000.fr;thermos-root-devel-WordCountTopology-1-28ba0840-bdb2-439c-8ec3-5395010dc7e9;["container_1_Consume_and_count_1"];4.25;1533252362.27191;14.25;130.52;12.163661511;10;151
2;paravance-43.rennes.grid5000.fr;thermos-root-devel-WordCountTopology-2-3f073cc2-2e66-4948-802e-34efc1a2dad8;["container_2_Emit_random_words_2"];4.25;1533252362.23425;11.6;92.3;3.406053727;10;149
2;paravance-39.rennes.grid5000.fr;thermos-root-devel-WordCountTopology-0-821dbba9-3aa9-4722-a38e-9aa5e213f56c;["topology_master"];4.25;1533252362.2197;2.5;8.19;0.010403709;9;117
3;paravance-50.rennes.grid5000.fr;thermos-root-devel-WordCountTopology-1-28ba0840-bdb2-439c-8ec3-5395010dc7e9;["container_1_Consume_and_count_1"];4.25;1533252372.48761;14.37;140.93;12.163661511;10;151
3;paravance-39.rennes.grid5000.fr;thermos-root-devel-WordCountTopology-0-821dbba9-3aa9-4722-a38e-9aa5e213f56c;["topology_master"];4.25;1533252372.43427;2.56;8.27;0.010403709;9;117
3;paravance-43.rennes.grid5000.fr;thermos-root-devel-WordCountTopology-2-3f073cc2-2e66-4948-802e-34efc1a2dad8;["container_2_Emit_random_words_2"];4.25;1533252372.45216;11.75;92.54;3.406053727;10;149
4;paravance-50.rennes.grid5000.fr;thermos-root-devel-WordCountTopology-1-28ba0840-bdb2-439c-8ec3-5395010dc7e9;["container_1_Consume_and_count_1"];4.25;1533252382.70712;14.99;150.78;12.163661511;10;151
4;paravance-39.rennes.grid5000.fr;thermos-root-devel-WordCountTopology-0-821dbba9-3aa9-4722-a38e-9aa5e213f56c;["topology_master"];4.25;1533252382.65378;2.62;8.34;0.010403709;9;117
4;paravance-43.rennes.grid5000.fr;thermos-root-devel-WordCountTopology-2-3f073cc2-2e66-4948-802e-34efc1a2dad8;["container_2_Emit_random_words_2"];4.25;1533252382.66958;11.87;92.71;3.406053727;10;149
5;paravance-50.rennes.grid5000.fr;thermos-root-devel-WordCountTopology-1-28ba0840-bdb2-439c-8ec3-5395010dc7e9;["container_1_Consume_and_count_1"];4.25;1533252392.92428;16.7;154.63;12.163661511;9;117
5;paravance-43.rennes.grid5000.fr;thermos-root-devel-WordCountTopology-2-3f073cc2-2e66-4948-802e-34efc1a2dad8;["container_2_Emit_random_words_2"];4.25;1533252392.88563;13.72;109.09;3.406053727;10;149
5;paravance-39.rennes.grid5000.fr;thermos-root-devel-WordCountTopology-0-821dbba9-3aa9-4722-a38e-9aa5e213f56c;["topology_master"];4.25;1533252392.87186;2.75;8.62;0.010403709;9;117
6;paravance-50.rennes.grid5000.fr;thermos-root-devel-WordCountTopology-1-28ba0840-bdb2-439c-8ec3-5395010dc7e9;["container_1_Consume_and_count_1"];4.25;1533252403.1449;20.03;174.65;16.540413791;10;151
6;paravance-39.rennes.grid5000.fr;thermos-root-devel-WordCountTopology-0-821dbba9-3aa9-4722-a38e-9aa5e213f56c;["topology_master"];4.25;1533252403.08946;2.78;8.66;0.010403709;9;117
6;paravance-43.rennes.grid5000.fr;thermos-root-devel-WordCountTopology-2-3f073cc2-2e66-4948-802e-34efc1a2dad8;["container_2_Emit_random_words_2"];4.25;1533252403.10481;15.22;122.82;3.406053727;10;149
7;paravance-50.rennes.grid5000.fr;thermos-root-devel-WordCountTopology-1-28ba0840-bdb2-439c-8ec3-5395010dc7e9;["container_1_Consume_and_count_1"];4.25;1533252413.36261;24.12;204.93;20.348996377;10;151
7;paravance-43.rennes.grid5000.fr;thermos-root-devel-WordCountTopology-2-3f073cc2-2e66-4948-802e-34efc1a2dad8;["container_2_Emit_random_words_2"];4.25;1533252413.32283;16.77;136.52;3.406053727;10;149
7;paravance-39.rennes.grid5000.fr;thermos-root-devel-WordCountTopology-0-821dbba9-3aa9-4722-a38e-9aa5e213f56c;["topology_master"];4.25;1533252413.30777;2.87;8.79;0.010403709;9;117
8;paravance-50.rennes.grid5000.fr;thermos-root-devel-WordCountTopology-1-28ba0840-bdb2-439c-8ec3-5395010dc7e9;["container_1_Consume_and_count_1"];4.25;1533252423.57717;28.59;240.11;23.971770382;10;151
8;paravance-43.rennes.grid5000.fr;thermos-root-devel-WordCountTopology-2-3f073cc2-2e66-4948-802e-34efc1a2dad8;["container_2_Emit_random_words_2"];4.25;1533252423.53871;18.68;154.32;3.406053727;10;149
8;paravance-39.rennes.grid5000.fr;thermos-root-devel-WordCountTopology-0-821dbba9-3aa9-4722-a38e-9aa5e213f56c;["topology_master"];4.25;1533252423.52504;2.94;8.88;0.010403709;9;117
9;paravance-43.rennes.grid5000.fr;thermos-root-devel-WordCountTopology-2-3f073cc2-2e66-4948-802e-34efc1a2dad8;["container_2_Emit_random_words_2"];4.25;1533252433.75416;20.82;174.38;3.406053727;10;149
9;paravance-50.rennes.grid5000.fr;thermos-root-devel-WordCountTopology-1-28ba0840-bdb2-439c-8ec3-5395010dc7e9;["container_1_Consume_and_count_1"];4.25;1533252433.79629;34.19;270.32;25.218512254;10;151
9;paravance-39.rennes.grid5000.fr;thermos-root-devel-WordCountTopology-0-821dbba9-3aa9-4722-a38e-9aa5e213f56c;["topology_master"];4.25;1533252433.74067;3.0;8.96;0.010403709;9;117
10;paravance-43.rennes.grid5000.fr;thermos-root-devel-WordCountTopology-2-3f073cc2-2e66-4948-802e-34efc1a2dad8;["container_2_Emit_random_words_2"];4.25;1533252443.97209;22.92;194.35;3.406053727;10;149
10;paravance-50.rennes.grid5000.fr;thermos-root-devel-WordCountTopology-1-28ba0840-bdb2-439c-8ec3-5395010dc7e9;["container_1_Consume_and_count_1"];4.25;1533252444.01231;39.8;296.51;25.218512254;10;151
10;paravance-39.rennes.grid5000.fr;thermos-root-devel-WordCountTopology-0-821dbba9-3aa9-4722-a38e-9aa5e213f56c;["topology_master"];4.25;1533252443.95905;3.06;9.03;0.010403709;9;117
11;paravance-50.rennes.grid5000.fr;thermos-root-devel-WordCountTopology-1-28ba0840-bdb2-439c-8ec3-5395010dc7e9;["container_1_Consume_and_count_1"];4.25;1533252454.22901;45.42;322.18;25.218512254;10;151
11;paravance-39.rennes.grid5000.fr;thermos-root-devel-WordCountTopology-0-821dbba9-3aa9-4722-a38e-9aa5e213f56c;["topology_master"];4.25;1533252454.17542;3.18;9.27;0.010403709;9;117
11;paravance-43.rennes.grid5000.fr;thermos-root-devel-WordCountTopology-2-3f073cc2-2e66-4948-802e-34efc1a2dad8;["container_2_Emit_random_words_2"];4.25;1533252454.19114;25.1;214.4;3.406053727;10;149
12;paravance-50.rennes.grid5000.fr;thermos-root-devel-WordCountTopology-1-28ba0840-bdb2-439c-8ec3-5395010dc7e9;["container_1_Consume_and_count_1"];4.25;1533252464.44578;50.85;348.08;25.218628033;10;151
12;paravance-39.rennes.grid5000.fr;thermos-root-devel-WordCountTopology-0-821dbba9-3aa9-4722-a38e-9aa5e213f56c;["topology_master"];4.25;1533252464.39214;3.21;9.3;0.010403709;9;117
12;paravance-43.rennes.grid5000.fr;thermos-root-devel-WordCountTopology-2-3f073cc2-2e66-4948-802e-34efc1a2dad8;["container_2_Emit_random_words_2"];4.25;1533252464.40683;27.2;234.64;3.406053727;10;149
13;paravance-43.rennes.grid5000.fr;thermos-root-devel-WordCountTopology-2-3f073cc2-2e66-4948-802e-34efc1a2dad8;["container_2_Emit_random_words_2"];4.25;1533252474.62336;29.37;254.57;3.406053727;10;149
13;paravance-50.rennes.grid5000.fr;thermos-root-devel-WordCountTopology-1-28ba0840-bdb2-439c-8ec3-5395010dc7e9;["container_1_Consume_and_count_1"];4.25;1533252474.66519;56.42;373.15;25.218628033;10;151
13;paravance-39.rennes.grid5000.fr;thermos-root-devel-WordCountTopology-0-821dbba9-3aa9-4722-a38e-9aa5e213f56c;["topology_master"];4.25;1533252474.60893;3.31;9.47;0.010403709;9;117
14;paravance-39.rennes.grid5000.fr;thermos-root-devel-WordCountTopology-0-821dbba9-3aa9-4722-a38e-9aa5e213f56c;["topology_master"];4.25;1533252484.72537;3.36;9.54;0.010403709;9;117
14;paravance-50.rennes.grid5000.fr;thermos-root-devel-WordCountTopology-1-28ba0840-bdb2-439c-8ec3-5395010dc7e9;["container_1_Consume_and_count_1"];4.25;1533252484.88019;61.46;397.01;25.218628033;10;151
14;paravance-43.rennes.grid5000.fr;thermos-root-devel-WordCountTopology-2-3f073cc2-2e66-4948-802e-34efc1a2dad8;["container_2_Emit_random_words_2"];4.25;1533252484.83908;31.45;274.97;3.406053727;10;149
15;paravance-50.rennes.grid5000.fr;thermos-root-devel-WordCountTopology-1-28ba0840-bdb2-439c-8ec3-5395010dc7e9;["container_1_Consume_and_count_1"];4.25;1533252495.09477;66.76;421.78;25.218628033;10;151
15;paravance-43.rennes.grid5000.fr;thermos-root-devel-WordCountTopology-2-3f073cc2-2e66-4948-802e-34efc1a2dad8;["container_2_Emit_random_words_2"];4.25;1533252495.0549;33.51;295.13;3.406053727;10;149
15;paravance-39.rennes.grid5000.fr;thermos-root-devel-WordCountTopology-0-821dbba9-3aa9-4722-a38e-9aa5e213f56c;["topology_master"];4.25;1533252495.04017;3.43;9.63;0.010403709;9;117
16;paravance-50.rennes.grid5000.fr;thermos-root-devel-WordCountTopology-1-28ba0840-bdb2-439c-8ec3-5395010dc7e9;["container_1_Consume_and_count_1"];4.25;1533252505.31441;72.22;447.05;25.218628033;10;151
16;paravance-39.rennes.grid5000.fr;thermos-root-devel-WordCountTopology-0-821dbba9-3aa9-4722-a38e-9aa5e213f56c;["topology_master"];4.25;1533252505.25962;3.48;9.7;0.010403709;9;117
16;paravance-43.rennes.grid5000.fr;thermos-root-devel-WordCountTopology-2-3f073cc2-2e66-4948-802e-34efc1a2dad8;["container_2_Emit_random_words_2"];4.25;1533252505.27427;35.63;315.46;3.406053727;10;149
17;paravance-50.rennes.grid5000.fr;thermos-root-devel-WordCountTopology-1-28ba0840-bdb2-439c-8ec3-5395010dc7e9;["container_1_Consume_and_count_1"];4.25;1533252515.53144;77.57;472.32;25.22126337;10;151
17;paravance-43.rennes.grid5000.fr;thermos-root-devel-WordCountTopology-2-3f073cc2-2e66-4948-802e-34efc1a2dad8;["container_2_Emit_random_words_2"];4.25;1533252515.49188;37.75;335.7;3.406053727;10;149
17;paravance-39.rennes.grid5000.fr;thermos-root-devel-WordCountTopology-0-821dbba9-3aa9-4722-a38e-9aa5e213f56c;["topology_master"];4.25;1533252515.47692;3.61;9.92;0.010403709;9;117
18;paravance-50.rennes.grid5000.fr;thermos-root-devel-WordCountTopology-1-28ba0840-bdb2-439c-8ec3-5395010dc7e9;["container_1_Consume_and_count_1"];4.25;1533252525.747;82.93;497.28;25.22126337;10;151
18;paravance-39.rennes.grid5000.fr;thermos-root-devel-WordCountTopology-0-821dbba9-3aa9-4722-a38e-9aa5e213f56c;["topology_master"];4.25;1533252525.69263;3.64;9.95;0.010403709;9;117
18;paravance-43.rennes.grid5000.fr;thermos-root-devel-WordCountTopology-2-3f073cc2-2e66-4948-802e-34efc1a2dad8;["container_2_Emit_random_words_2"];4.25;1533252525.7094;39.83;355.88;3.406053727;10;149
19;paravance-50.rennes.grid5000.fr;thermos-root-devel-WordCountTopology-1-28ba0840-bdb2-439c-8ec3-5395010dc7e9;["container_1_Consume_and_count_1"];4.25;1533252535.96475;88.09;522.4;25.22126337;10;151
19;paravance-43.rennes.grid5000.fr;thermos-root-devel-WordCountTopology-2-3f073cc2-2e66-4948-802e-34efc1a2dad8;["container_2_Emit_random_words_2"];4.25;1533252535.92463;41.95;376.4;3.406053727;10;149
19;paravance-39.rennes.grid5000.fr;thermos-root-devel-WordCountTopology-0-821dbba9-3aa9-4722-a38e-9aa5e213f56c;["topology_master"];4.25;1533252535.90844;3.73;10.08;0.010403709;9;117
20;paravance-43.rennes.grid5000.fr;thermos-root-devel-WordCountTopology-2-3f073cc2-2e66-4948-802e-34efc1a2dad8;["container_2_Emit_random_words_2"];4.25;1533252546.14159;44.07;396.94;3.406053727;10;149
20;paravance-50.rennes.grid5000.fr;thermos-root-devel-WordCountTopology-1-28ba0840-bdb2-439c-8ec3-5395010dc7e9;["container_1_Consume_and_count_1"];4.25;1533252546.18131;93.57;548.44;25.22126337;10;151
20;paravance-39.rennes.grid5000.fr;thermos-root-devel-WordCountTopology-0-821dbba9-3aa9-4722-a38e-9aa5e213f56c;["topology_master"];4.25;1533252546.12691;3.79;10.15;0.010403709;9;117
21;paravance-50.rennes.grid5000.fr;thermos-root-devel-WordCountTopology-1-28ba0840-bdb2-439c-8ec3-5395010dc7e9;["container_1_Consume_and_count_1"];4.25;1533252556.39916;99.26;575.62;25.22126337;10;151
21;paravance-39.rennes.grid5000.fr;thermos-root-devel-WordCountTopology-0-821dbba9-3aa9-4722-a38e-9aa5e213f56c;["topology_master"];4.25;1533252556.34287;3.85;10.23;0.010403709;9;117
21;paravance-43.rennes.grid5000.fr;thermos-root-devel-WordCountTopology-2-3f073cc2-2e66-4948-802e-34efc1a2dad8;["container_2_Emit_random_words_2"];4.25;1533252556.35852;46.1;416.81;3.406053727;10;149
22;paravance-50.rennes.grid5000.fr;thermos-root-devel-WordCountTopology-1-28ba0840-bdb2-439c-8ec3-5395010dc7e9;["container_1_Consume_and_count_1"];4.25;1533252566.61722;105.09;602.97;25.22126337;10;151
22;paravance-43.rennes.grid5000.fr;thermos-root-devel-WordCountTopology-2-3f073cc2-2e66-4948-802e-34efc1a2dad8;["container_2_Emit_random_words_2"];;;;;;;
22;paravance-39.rennes.grid5000.fr;thermos-root-devel-WordCountTopology-0-821dbba9-3aa9-4722-a38e-9aa5e213f56c;["topology_master"];4.25;1533252566.56139;3.91;10.3;0.010403709;9;117
23;paravance-50.rennes.grid5000.fr;thermos-root-devel-WordCountTopology-1-28ba0840-bdb2-439c-8ec3-5395010dc7e9;["container_1_Consume_and_count_1"];4.25;1533252576.83425;111.09;631.09;25.240518243;10;151
23;paravance-43.rennes.grid5000.fr;thermos-root-devel-WordCountTopology-2-3f073cc2-2e66-4948-802e-34efc1a2dad8;["container_2_Emit_random_words_2"];4.25;1533252576.79558;50.16;458.17;3.406053727;10;149
23;paravance-39.rennes.grid5000.fr;thermos-root-devel-WordCountTopology-0-821dbba9-3aa9-4722-a38e-9aa5e213f56c;["topology_master"];4.25;1533252576.78003;4.02;10.47;0.010403709;9;117
24;paravance-43.rennes.grid5000.fr;thermos-root-devel-WordCountTopology-2-3f073cc2-2e66-4948-802e-34efc1a2dad8;["container_2_Emit_random_words_2"];4.25;1533252587.01124;52.13;478.86;3.406053727;10;149
24;paravance-39.rennes.grid5000.fr;thermos-root-devel-WordCountTopology-0-821dbba9-3aa9-4722-a38e-9aa5e213f56c;["topology_master"];4.25;1533252586.99739;4.05;10.5;0.010403709;9;117
24;paravance-50.rennes.grid5000.fr;thermos-root-devel-WordCountTopology-1-28ba0840-bdb2-439c-8ec3-5395010dc7e9;["container_1_Consume_and_count_1"];4.25;1533252587.05384;117.36;659.81;25.240518243;10;151
25;paravance-50.rennes.grid5000.fr;thermos-root-devel-WordCountTopology-1-28ba0840-bdb2-439c-8ec3-5395010dc7e9;["container_1_Consume_and_count_1"];4.25;1533252597.27026;123.45;687.86;25.240518243;10;151
25;paravance-39.rennes.grid5000.fr;thermos-root-devel-WordCountTopology-0-821dbba9-3aa9-4722-a38e-9aa5e213f56c;["topology_master"];4.25;1533252597.21283;4.15;10.63;0.010403709;9;117
25;paravance-43.rennes.grid5000.fr;thermos-root-devel-WordCountTopology-2-3f073cc2-2e66-4948-802e-34efc1a2dad8;["container_2_Emit_random_words_2"];4.25;1533252597.23058;54.26;499.12;3.406053727;10;149
26;paravance-50.rennes.grid5000.fr;thermos-root-devel-WordCountTopology-1-28ba0840-bdb2-439c-8ec3-5395010dc7e9;["container_1_Consume_and_count_1"];4.25;1533252607.48696;129.66;716.32;25.240560945;10;151
26;paravance-39.rennes.grid5000.fr;thermos-root-devel-WordCountTopology-0-821dbba9-3aa9-4722-a38e-9aa5e213f56c;["topology_master"];4.25;1533252607.42992;4.2;10.7;0.010403709;9;117
26;paravance-43.rennes.grid5000.fr;thermos-root-devel-WordCountTopology-2-3f073cc2-2e66-4948-802e-34efc1a2dad8;["container_2_Emit_random_words_2"];4.25;1533252607.44679;56.31;519.51;3.406053727;10;149
27;paravance-43.rennes.grid5000.fr;thermos-root-devel-WordCountTopology-2-3f073cc2-2e66-4948-802e-34efc1a2dad8;["container_2_Emit_random_words_2"];4.25;1533252617.66105;58.51;539.48;3.406053727;10;149
27;paravance-39.rennes.grid5000.fr;thermos-root-devel-WordCountTopology-0-821dbba9-3aa9-4722-a38e-9aa5e213f56c;["topology_master"];4.25;1533252617.6455;4.26;10.78;0.010403709;9;117
27;paravance-50.rennes.grid5000.fr;thermos-root-devel-WordCountTopology-1-28ba0840-bdb2-439c-8ec3-5395010dc7e9;["container_1_Consume_and_count_1"];4.25;1533252617.7017;135.79;744.84;25.274118189;10;151
28;paravance-50.rennes.grid5000.fr;thermos-root-devel-WordCountTopology-1-28ba0840-bdb2-439c-8ec3-5395010dc7e9;["container_1_Consume_and_count_1"];4.25;1533252627.91986;141.87;773.45;25.281167118;10;151
28;paravance-43.rennes.grid5000.fr;thermos-root-devel-WordCountTopology-2-3f073cc2-2e66-4948-802e-34efc1a2dad8;["container_2_Emit_random_words_2"];4.25;1533252627.87906;60.7;559.22;3.406053727;10;149
28;paravance-39.rennes.grid5000.fr;thermos-root-devel-WordCountTopology-0-821dbba9-3aa9-4722-a38e-9aa5e213f56c;["topology_master"];4.25;1533252627.86264;4.37;10.92;0.010403709;9;117
29;paravance-50.rennes.grid5000.fr;thermos-root-devel-WordCountTopology-1-28ba0840-bdb2-439c-8ec3-5395010dc7e9;["container_1_Consume_and_count_1"];4.25;1533252638.1354;147.88;801.38;25.281167118;10;151
29;paravance-39.rennes.grid5000.fr;thermos-root-devel-WordCountTopology-0-821dbba9-3aa9-4722-a38e-9aa5e213f56c;["topology_master"];4.25;1533252638.07856;4.44;11.05;0.010403709;9;117
29;paravance-43.rennes.grid5000.fr;thermos-root-devel-WordCountTopology-2-3f073cc2-2e66-4948-802e-34efc1a2dad8;["container_2_Emit_random_words_2"];4.25;1533252638.09483;62.73;579.38;3.406053727;10;149
30;paravance-43.rennes.grid5000.fr;thermos-root-devel-WordCountTopology-2-3f073cc2-2e66-4948-802e-34efc1a2dad8;["container_2_Emit_random_words_2"];4.25;1533252648.31212;64.84;599.3;3.406053727;10;149
30;paravance-50.rennes.grid5000.fr;thermos-root-devel-WordCountTopology-1-28ba0840-bdb2-439c-8ec3-5395010dc7e9;["container_1_Consume_and_count_1"];4.25;1533252648.3538;154.22;830.54;25.319378154;10;151
30;paravance-39.rennes.grid5000.fr;thermos-root-devel-WordCountTopology-0-821dbba9-3aa9-4722-a38e-9aa5e213f56c;["topology_master"];4.25;1533252648.29697;4.5;11.12;0.010403709;9;117
31;paravance-50.rennes.grid5000.fr;thermos-root-devel-WordCountTopology-1-28ba0840-bdb2-439c-8ec3-5395010dc7e9;["container_1_Consume_and_count_1"];4.25;1533252658.57031;160.1;859.97;25.323249335;10;151
31;paravance-39.rennes.grid5000.fr;thermos-root-devel-WordCountTopology-0-821dbba9-3aa9-4722-a38e-9aa5e213f56c;["topology_master"];4.25;1533252658.51325;4.56;11.2;0.010403709;9;117
31;paravance-43.rennes.grid5000.fr;thermos-root-devel-WordCountTopology-2-3f073cc2-2e66-4948-802e-34efc1a2dad8;["container_2_Emit_random_words_2"];4.25;1533252658.52811;66.96;619.22;3.406053727;10;149
32;paravance-50.rennes.grid5000.fr;thermos-root-devel-WordCountTopology-1-28ba0840-bdb2-439c-8ec3-5395010dc7e9;["container_1_Consume_and_count_1"];4.25;1533252668.78699;166.2;887.84;25.357411801;10;151
32;paravance-43.rennes.grid5000.fr;thermos-root-devel-WordCountTopology-2-3f073cc2-2e66-4948-802e-34efc1a2dad8;["container_2_Emit_random_words_2"];4.25;1533252668.7457;69.07;639.0;3.406053727;10;149
32;paravance-39.rennes.grid5000.fr;thermos-root-devel-WordCountTopology-0-821dbba9-3aa9-4722-a38e-9aa5e213f56c;["topology_master"];4.25;1533252668.73203;4.65;11.33;0.010403709;9;117
33;paravance-50.rennes.grid5000.fr;thermos-root-devel-WordCountTopology-1-28ba0840-bdb2-439c-8ec3-5395010dc7e9;["container_1_Consume_and_count_1"];4.25;1533252679.00173;172.09;916.23;25.357411801;10;151
33;paravance-43.rennes.grid5000.fr;thermos-root-devel-WordCountTopology-2-3f073cc2-2e66-4948-802e-34efc1a2dad8;["container_2_Emit_random_words_2"];4.25;1533252678.9621;71.13;658.69;3.406053727;10;149
33;paravance-39.rennes.grid5000.fr;thermos-root-devel-WordCountTopology-0-821dbba9-3aa9-4722-a38e-9aa5e213f56c;["topology_master"];4.25;1533252678.94649;4.68;11.37;0.010403709;9;117
34;paravance-50.rennes.grid5000.fr;thermos-root-devel-WordCountTopology-1-28ba0840-bdb2-439c-8ec3-5395010dc7e9;["container_1_Consume_and_count_1"];4.25;1533252689.21669;178.06;945.06;25.357411801;10;151
34;paravance-39.rennes.grid5000.fr;thermos-root-devel-WordCountTopology-0-821dbba9-3aa9-4722-a38e-9aa5e213f56c;["topology_master"];4.25;1533252689.16077;4.78;11.49;0.010403709;9;117
34;paravance-43.rennes.grid5000.fr;thermos-root-devel-WordCountTopology-2-3f073cc2-2e66-4948-802e-34efc1a2dad8;["container_2_Emit_random_words_2"];4.25;1533252689.17851;73.33;678.25;3.406053727;10;149
35;paravance-43.rennes.grid5000.fr;thermos-root-devel-WordCountTopology-2-3f073cc2-2e66-4948-802e-34efc1a2dad8;["container_2_Emit_random_words_2"];4.25;1533252699.39282;75.48;697.91;3.406053727;10;149
35;paravance-39.rennes.grid5000.fr;thermos-root-devel-WordCountTopology-0-821dbba9-3aa9-4722-a38e-9aa5e213f56c;["topology_master"];4.25;1533252699.37639;4.84;11.62;0.010403709;9;117
35;paravance-50.rennes.grid5000.fr;thermos-root-devel-WordCountTopology-1-28ba0840-bdb2-439c-8ec3-5395010dc7e9;["container_1_Consume_and_count_1"];4.25;1533252699.43543;184.27;973.76;25.357411801;10;151
36;paravance-50.rennes.grid5000.fr;thermos-root-devel-WordCountTopology-1-28ba0840-bdb2-439c-8ec3-5395010dc7e9;["container_1_Consume_and_count_1"];4.25;1533252709.64662;190.51;1002.38;25.36116736;10;151
36;paravance-43.rennes.grid5000.fr;thermos-root-devel-WordCountTopology-2-3f073cc2-2e66-4948-802e-34efc1a2dad8;["container_2_Emit_random_words_2"];4.25;1533252709.60806;77.62;717.8;3.406053727;10;149
36;paravance-39.rennes.grid5000.fr;thermos-root-devel-WordCountTopology-0-821dbba9-3aa9-4722-a38e-9aa5e213f56c;["topology_master"];4.25;1533252709.59293;4.93;11.74;0.010403709;9;117
37;paravance-50.rennes.grid5000.fr;thermos-root-devel-WordCountTopology-1-28ba0840-bdb2-439c-8ec3-5395010dc7e9;["container_1_Consume_and_count_1"];4.25;1533252719.86409;196.62;1030.27;25.36116736;10;151
37;paravance-39.rennes.grid5000.fr;thermos-root-devel-WordCountTopology-0-821dbba9-3aa9-4722-a38e-9aa5e213f56c;["topology_master"];4.25;1533252719.80791;4.96;11.77;0.010403709;9;117
37;paravance-43.rennes.grid5000.fr;thermos-root-devel-WordCountTopology-2-3f073cc2-2e66-4948-802e-34efc1a2dad8;["container_2_Emit_random_words_2"];4.25;1533252719.8247;79.62;737.67;3.406053727;10;149
38;paravance-43.rennes.grid5000.fr;thermos-root-devel-WordCountTopology-2-3f073cc2-2e66-4948-802e-34efc1a2dad8;["container_2_Emit_random_words_2"];4.25;1533252730.03885;81.69;757.51;3.406053727;10;149
38;paravance-50.rennes.grid5000.fr;thermos-root-devel-WordCountTopology-1-28ba0840-bdb2-439c-8ec3-5395010dc7e9;["container_1_Consume_and_count_1"];4.25;1533252730.08097;202.9;1058.27;25.401656535;10;151
38;paravance-39.rennes.grid5000.fr;thermos-root-devel-WordCountTopology-0-821dbba9-3aa9-4722-a38e-9aa5e213f56c;["topology_master"];4.25;1533252730.02374;5.05;11.89;0.010403709;9;117
39;paravance-50.rennes.grid5000.fr;thermos-root-devel-WordCountTopology-1-28ba0840-bdb2-439c-8ec3-5395010dc7e9;["container_1_Consume_and_count_1"];4.25;1533252740.29848;209.06;1085.8;25.401656535;10;151
39;paravance-39.rennes.grid5000.fr;thermos-root-devel-WordCountTopology-0-821dbba9-3aa9-4722-a38e-9aa5e213f56c;["topology_master"];4.25;1533252740.24024;5.11;11.97;0.010403709;9;117
39;paravance-43.rennes.grid5000.fr;thermos-root-devel-WordCountTopology-2-3f073cc2-2e66-4948-802e-34efc1a2dad8;["container_2_Emit_random_words_2"];4.25;1533252740.25783;83.66;777.16;3.406053727;10;149
40;paravance-43.rennes.grid5000.fr;thermos-root-devel-WordCountTopology-2-3f073cc2-2e66-4948-802e-34efc1a2dad8;["container_2_Emit_random_words_2"];4.25;1533252750.47176;85.74;797.14;3.406053727;10;149
40;paravance-50.rennes.grid5000.fr;thermos-root-devel-WordCountTopology-1-28ba0840-bdb2-439c-8ec3-5395010dc7e9;["container_1_Consume_and_count_1"];4.25;1533252750.51389;215.05;1112.57;25.401661892;10;151
40;paravance-39.rennes.grid5000.fr;thermos-root-devel-WordCountTopology-0-821dbba9-3aa9-4722-a38e-9aa5e213f56c;["topology_master"];4.25;1533252750.45757;5.18;12.06;0.010403709;9;117
41;paravance-39.rennes.grid5000.fr;thermos-root-devel-WordCountTopology-0-821dbba9-3aa9-4722-a38e-9aa5e213f56c;["topology_master"];4.25;1533252760.67169;5.24;12.16;0.010403709;9;117
41;paravance-50.rennes.grid5000.fr;thermos-root-devel-WordCountTopology-1-28ba0840-bdb2-439c-8ec3-5395010dc7e9;["container_1_Consume_and_count_1"];4.25;1533252760.73086;221.13;1140.0;25.401661892;10;151
41;paravance-43.rennes.grid5000.fr;thermos-root-devel-WordCountTopology-2-3f073cc2-2e66-4948-802e-34efc1a2dad8;["container_2_Emit_random_words_2"];4.25;1533252760.69032;87.81;816.96;3.406053727;10;149
42;paravance-43.rennes.grid5000.fr;thermos-root-devel-WordCountTopology-2-3f073cc2-2e66-4948-802e-34efc1a2dad8;["container_2_Emit_random_words_2"];4.25;1533252770.90556;89.99;836.7;3.406053727;10;149
42;paravance-39.rennes.grid5000.fr;thermos-root-devel-WordCountTopology-0-821dbba9-3aa9-4722-a38e-9aa5e213f56c;["topology_master"];4.25;1533252770.89073;5.33;12.29;0.010403709;9;117
42;paravance-50.rennes.grid5000.fr;thermos-root-devel-WordCountTopology-1-28ba0840-bdb2-439c-8ec3-5395010dc7e9;["container_1_Consume_and_count_1"];4.25;1533252770.94951;227.13;1167.0;25.401661892;10;151
43;paravance-50.rennes.grid5000.fr;thermos-root-devel-WordCountTopology-1-28ba0840-bdb2-439c-8ec3-5395010dc7e9;["container_1_Consume_and_count_1"];4.25;1533252781.16478;232.62;1193.95;25.401661892;10;151
43;paravance-39.rennes.grid5000.fr;thermos-root-devel-WordCountTopology-0-821dbba9-3aa9-4722-a38e-9aa5e213f56c;["topology_master"];4.25;1533252781.10713;5.36;12.33;0.010403709;9;117
43;paravance-43.rennes.grid5000.fr;thermos-root-devel-WordCountTopology-2-3f073cc2-2e66-4948-802e-34efc1a2dad8;["container_2_Emit_random_words_2"];4.25;1533252781.12418;92.1;856.92;3.406053727;10;149
44;paravance-43.rennes.grid5000.fr;thermos-root-devel-WordCountTopology-2-3f073cc2-2e66-4948-802e-34efc1a2dad8;["container_2_Emit_random_words_2"];4.25;1533252791.34065;94.23;876.5;3.406053727;10;149
44;paravance-50.rennes.grid5000.fr;thermos-root-devel-WordCountTopology-1-28ba0840-bdb2-439c-8ec3-5395010dc7e9;["container_1_Consume_and_count_1"];4.25;1533252791.38253;238.34;1221.16;25.401683149;10;151
44;paravance-39.rennes.grid5000.fr;thermos-root-devel-WordCountTopology-0-821dbba9-3aa9-4722-a38e-9aa5e213f56c;["topology_master"];4.25;1533252791.32486;5.45;12.46;0.010403709;9;117
45;paravance-39.rennes.grid5000.fr;thermos-root-devel-WordCountTopology-0-821dbba9-3aa9-4722-a38e-9aa5e213f56c;["topology_master"];4.25;1533252801.54114;5.51;12.53;0.010403709;9;117
45;paravance-43.rennes.grid5000.fr;thermos-root-devel-WordCountTopology-2-3f073cc2-2e66-4948-802e-34efc1a2dad8;["container_2_Emit_random_words_2"];4.25;1533252801.5578;96.36;896.54;3.406053727;10;149
45;paravance-50.rennes.grid5000.fr;thermos-root-devel-WordCountTopology-1-28ba0840-bdb2-439c-8ec3-5395010dc7e9;["container_1_Consume_and_count_1"];4.25;1533252801.60069;244.37;1248.71;25.401683149;10;151
46;paravance-50.rennes.grid5000.fr;thermos-root-devel-WordCountTopology-1-28ba0840-bdb2-439c-8ec3-5395010dc7e9;["container_1_Consume_and_count_1"];4.25;1533252811.81802;250.41;1275.94;25.401683149;10;151
46;paravance-43.rennes.grid5000.fr;thermos-root-devel-WordCountTopology-2-3f073cc2-2e66-4948-802e-34efc1a2dad8;["container_2_Emit_random_words_2"];4.25;1533252811.77647;98.46;916.92;3.406053727;10;149
46;paravance-39.rennes.grid5000.fr;thermos-root-devel-WordCountTopology-0-821dbba9-3aa9-4722-a38e-9aa5e213f56c;["topology_master"];4.25;1533252811.75931;5.58;12.62;0.010403709;9;117
47;paravance-50.rennes.grid5000.fr;thermos-root-devel-WordCountTopology-1-28ba0840-bdb2-439c-8ec3-5395010dc7e9;["container_1_Consume_and_count_1"];4.25;1533252822.03458;256.38;1302.4;25.401683149;10;151
47;paravance-43.rennes.grid5000.fr;thermos-root-devel-WordCountTopology-2-3f073cc2-2e66-4948-802e-34efc1a2dad8;["container_2_Emit_random_words_2"];4.25;1533252821.99449;100.58;937.23;3.406053727;10;149
47;paravance-39.rennes.grid5000.fr;thermos-root-devel-WordCountTopology-0-821dbba9-3aa9-4722-a38e-9aa5e213f56c;["topology_master"];4.25;1533252821.97795;5.65;12.76;0.010403709;9;117
48;paravance-39.rennes.grid5000.fr;thermos-root-devel-WordCountTopology-0-821dbba9-3aa9-4722-a38e-9aa5e213f56c;["topology_master"];4.25;1533252832.09565;5.74;12.88;0.010403709;9;117
48;paravance-43.rennes.grid5000.fr;thermos-root-devel-WordCountTopology-2-3f073cc2-2e66-4948-802e-34efc1a2dad8;["container_2_Emit_random_words_2"];4.25;1533252832.20863;102.71;957.49;3.406053727;10;149
48;paravance-50.rennes.grid5000.fr;thermos-root-devel-WordCountTopology-1-28ba0840-bdb2-439c-8ec3-5395010dc7e9;["container_1_Consume_and_count_1"];4.25;1533252832.25255;262.0;1329.21;25.409688867;10;151
49;paravance-43.rennes.grid5000.fr;thermos-root-devel-WordCountTopology-2-3f073cc2-2e66-4948-802e-34efc1a2dad8;["container_2_Emit_random_words_2"];4.25;1533252842.42403;104.84;978.09;3.406053727;10;149
49;paravance-39.rennes.grid5000.fr;thermos-root-devel-WordCountTopology-0-821dbba9-3aa9-4722-a38e-9aa5e213f56c;["topology_master"];4.25;1533252842.40788;5.77;12.93;0.010403709;9;117
49;paravance-50.rennes.grid5000.fr;thermos-root-devel-WordCountTopology-1-28ba0840-bdb2-439c-8ec3-5395010dc7e9;["container_1_Consume_and_count_1"];4.25;1533252842.46794;268.26;1356.9;25.409688867;10;151
50;paravance-50.rennes.grid5000.fr;thermos-root-devel-WordCountTopology-1-28ba0840-bdb2-439c-8ec3-5395010dc7e9;["container_1_Consume_and_count_1"];4.25;1533252852.68231;274.34;1384.6;25.409688867;10;151
50;paravance-43.rennes.grid5000.fr;thermos-root-devel-WordCountTopology-2-3f073cc2-2e66-4948-802e-34efc1a2dad8;["container_2_Emit_random_words_2"];4.25;1533252852.64165;107.01;998.55;3.406053727;10;149
50;paravance-39.rennes.grid5000.fr;thermos-root-devel-WordCountTopology-0-821dbba9-3aa9-4722-a38e-9aa5e213f56c;["topology_master"];4.25;1533252852.62466;5.87;13.07;0.010403709;9;117
51;paravance-50.rennes.grid5000.fr;thermos-root-devel-WordCountTopology-1-28ba0840-bdb2-439c-8ec3-5395010dc7e9;["container_1_Consume_and_count_1"];4.25;1533252862.9002;280.66;1412.51;25.409688867;10;151
51;paravance-43.rennes.grid5000.fr;thermos-root-devel-WordCountTopology-2-3f073cc2-2e66-4948-802e-34efc1a2dad8;["container_2_Emit_random_words_2"];4.25;1533252862.85817;109.22;1018.05;3.406053727;10;149
51;paravance-39.rennes.grid5000.fr;thermos-root-devel-WordCountTopology-0-821dbba9-3aa9-4722-a38e-9aa5e213f56c;["topology_master"];4.25;1533252862.84241;5.93;13.15;0.010403709;9;117
52;paravance-50.rennes.grid5000.fr;thermos-root-devel-WordCountTopology-1-28ba0840-bdb2-439c-8ec3-5395010dc7e9;["container_1_Consume_and_count_1"];4.25;1533252873.11748;286.7;1440.38;25.409688867;10;151
52;paravance-39.rennes.grid5000.fr;thermos-root-devel-WordCountTopology-0-821dbba9-3aa9-4722-a38e-9aa5e213f56c;["topology_master"];4.25;1533252873.05924;6.0;13.27;0.010403709;9;117
52;paravance-43.rennes.grid5000.fr;thermos-root-devel-WordCountTopology-2-3f073cc2-2e66-4948-802e-34efc1a2dad8;["container_2_Emit_random_words_2"];4.25;1533252873.07621;111.41;1037.53;3.406053727;10;149
53;paravance-50.rennes.grid5000.fr;thermos-root-devel-WordCountTopology-1-28ba0840-bdb2-439c-8ec3-5395010dc7e9;["container_1_Consume_and_count_1"];4.25;1533252883.33191;292.25;1469.11;25.412772949;10;151
53;paravance-39.rennes.grid5000.fr;thermos-root-devel-WordCountTopology-0-821dbba9-3aa9-4722-a38e-9aa5e213f56c;["topology_master"];4.25;1533252883.27594;6.06;13.35;0.010403709;9;117
53;paravance-43.rennes.grid5000.fr;thermos-root-devel-WordCountTopology-2-3f073cc2-2e66-4948-802e-34efc1a2dad8;["container_2_Emit_random_words_2"];4.25;1533252883.2936;113.58;1057.13;3.406053727;10;149
54;paravance-50.rennes.grid5000.fr;thermos-root-devel-WordCountTopology-1-28ba0840-bdb2-439c-8ec3-5395010dc7e9;["container_1_Consume_and_count_1"];4.25;1533252893.55223;297.84;1496.09;25.420764757;10;151
54;paravance-43.rennes.grid5000.fr;thermos-root-devel-WordCountTopology-2-3f073cc2-2e66-4948-802e-34efc1a2dad8;["container_2_Emit_random_words_2"];4.25;1533252893.51083;115.75;1076.84;3.406053727;10;149
54;paravance-39.rennes.grid5000.fr;thermos-root-devel-WordCountTopology-0-821dbba9-3aa9-4722-a38e-9aa5e213f56c;["topology_master"];4.25;1533252893.49358;6.16;13.48;0.010403709;9;117
55;paravance-50.rennes.grid5000.fr;thermos-root-devel-WordCountTopology-1-28ba0840-bdb2-439c-8ec3-5395010dc7e9;["container_1_Consume_and_count_1"];4.25;1533252903.76741;303.56;1523.87;25.420764757;10;151
55;paravance-39.rennes.grid5000.fr;thermos-root-devel-WordCountTopology-0-821dbba9-3aa9-4722-a38e-9aa5e213f56c;["topology_master"];4.25;1533252903.70873;6.18;13.51;0.010403709;9;117
55;paravance-43.rennes.grid5000.fr;thermos-root-devel-WordCountTopology-2-3f073cc2-2e66-4948-802e-34efc1a2dad8;["container_2_Emit_random_words_2"];4.25;1533252903.72613;117.74;1096.56;3.406053727;10;149
56;paravance-43.rennes.grid5000.fr;thermos-root-devel-WordCountTopology-2-3f073cc2-2e66-4948-802e-34efc1a2dad8;["container_2_Emit_random_words_2"];4.25;1533252913.84586;119.74;1116.57;3.406053727;10;149
56;paravance-39.rennes.grid5000.fr;thermos-root-devel-WordCountTopology-0-821dbba9-3aa9-4722-a38e-9aa5e213f56c;["topology_master"];4.25;1533252913.92709;6.29;13.65;0.010403709;9;117
56;paravance-50.rennes.grid5000.fr;thermos-root-devel-WordCountTopology-1-28ba0840-bdb2-439c-8ec3-5395010dc7e9;["container_1_Consume_and_count_1"];4.25;1533252913.98703;309.4;1551.35;25.420777813;10;151
57;paravance-50.rennes.grid5000.fr;thermos-root-devel-WordCountTopology-1-28ba0840-bdb2-439c-8ec3-5395010dc7e9;["container_1_Consume_and_count_1"];4.25;1533252924.20618;314.97;1578.83;25.420777813;10;151
57;paravance-39.rennes.grid5000.fr;thermos-root-devel-WordCountTopology-0-821dbba9-3aa9-4722-a38e-9aa5e213f56c;["topology_master"];4.25;1533252924.14705;6.34;13.73;0.010403709;9;117
57;paravance-43.rennes.grid5000.fr;thermos-root-devel-WordCountTopology-2-3f073cc2-2e66-4948-802e-34efc1a2dad8;["container_2_Emit_random_words_2"];4.25;1533252924.16483;121.81;1136.61;3.406053727;10;149
58;paravance-39.rennes.grid5000.fr;thermos-root-devel-WordCountTopology-0-821dbba9-3aa9-4722-a38e-9aa5e213f56c;["topology_master"];4.25;1533252934.36042;6.41;13.83;0.010403709;9;117
58;paravance-43.rennes.grid5000.fr;thermos-root-devel-WordCountTopology-2-3f073cc2-2e66-4948-802e-34efc1a2dad8;["container_2_Emit_random_words_2"];4.25;1533252934.37802;123.83;1156.63;3.406053727;10;149
58;paravance-50.rennes.grid5000.fr;thermos-root-devel-WordCountTopology-1-28ba0840-bdb2-439c-8ec3-5395010dc7e9;["container_1_Consume_and_count_1"];4.25;1533252934.42127;320.11;1603.91;25.420777813;10;151
59;paravance-39.rennes.grid5000.fr;thermos-root-devel-WordCountTopology-0-821dbba9-3aa9-4722-a38e-9aa5e213f56c;["topology_master"];4.25;1533252944.57652;6.47;13.9;0.010403709;9;117
59;paravance-50.rennes.grid5000.fr;thermos-root-devel-WordCountTopology-1-28ba0840-bdb2-439c-8ec3-5395010dc7e9;["container_1_Consume_and_count_1"];4.25;1533252944.6373;325.78;1631.32;25.424365551;10;151
59;paravance-43.rennes.grid5000.fr;thermos-root-devel-WordCountTopology-2-3f073cc2-2e66-4948-802e-34efc1a2dad8;["container_2_Emit_random_words_2"];4.25;1533252944.59521;125.87;1176.48;3.406053727;10;149
60;paravance-43.rennes.grid5000.fr;thermos-root-devel-WordCountTopology-2-3f073cc2-2e66-4948-802e-34efc1a2dad8;["container_2_Emit_random_words_2"];4.25;1533252954.81069;127.95;1196.26;3.406053727;10;149
60;paravance-50.rennes.grid5000.fr;thermos-root-devel-WordCountTopology-1-28ba0840-bdb2-439c-8ec3-5395010dc7e9;["container_1_Consume_and_count_1"];4.25;1533252954.85518;331.19;1657.16;25.449875907;10;151
60;paravance-39.rennes.grid5000.fr;thermos-root-devel-WordCountTopology-0-821dbba9-3aa9-4722-a38e-9aa5e213f56c;["topology_master"];4.25;1533252954.79492;6.57;14.04;0.010403709;9;117
