mesure_id;slave_id;executor_id;heron_instances;cpus_limit;timestamp_A;cpus_system_time_secs_A;cpus_user_time_secs_A;cpus_throttled_time_secs_A;processes;threads
0;paravance-65.rennes.grid5000.fr;thermos-root-devel-WordCountTopology-1-335f0741-3db1-48e8-98e8-8c82d164fbc7;["container_1_Consume_and_count_1"];3.25;1533125575.44386;45.07;267.09;154.069270244;10;151
0;paravance-66.rennes.grid5000.fr;thermos-root-devel-WordCountTopology-0-a1a5abdc-4e03-4421-a319-c7eee2fa8d5c;["topology_master"];3.25;1533125575.43805;2.43;8.05;0.356598659;9;117
0;paravance-67.rennes.grid5000.fr;thermos-root-devel-WordCountTopology-2-d1e01ddf-0b70-4167-94c2-a5f44051dcf0;["container_2_Emit_random_words_2"];3.25;1533125575.44084;27.5;140.79;6.54629431;10;149
1;paravance-67.rennes.grid5000.fr;thermos-root-devel-WordCountTopology-2-d1e01ddf-0b70-4167-94c2-a5f44051dcf0;["container_2_Emit_random_words_2"];3.25;1533125585.55789;30.24;154.94;6.54629431;10;149
1;paravance-65.rennes.grid5000.fr;thermos-root-devel-WordCountTopology-1-335f0741-3db1-48e8-98e8-8c82d164fbc7;["container_1_Consume_and_count_1"];3.25;1533125585.66049;50.01;293.99;169.518025862;10;151
1;paravance-66.rennes.grid5000.fr;thermos-root-devel-WordCountTopology-0-a1a5abdc-4e03-4421-a319-c7eee2fa8d5c;["topology_master"];3.25;1533125585.65577;2.49;8.18;0.356598659;9;117
2;paravance-65.rennes.grid5000.fr;thermos-root-devel-WordCountTopology-1-335f0741-3db1-48e8-98e8-8c82d164fbc7;["container_1_Consume_and_count_1"];3.25;1533125595.87805;54.08;320.56;183.603472693;10;151
2;paravance-66.rennes.grid5000.fr;thermos-root-devel-WordCountTopology-0-a1a5abdc-4e03-4421-a319-c7eee2fa8d5c;["topology_master"];3.25;1533125595.8726;2.58;8.31;0.356598659;9;117
2;paravance-67.rennes.grid5000.fr;thermos-root-devel-WordCountTopology-2-d1e01ddf-0b70-4167-94c2-a5f44051dcf0;["container_2_Emit_random_words_2"];3.25;1533125595.87492;32.63;166.78;6.54629431;10;149
3;paravance-67.rennes.grid5000.fr;thermos-root-devel-WordCountTopology-2-d1e01ddf-0b70-4167-94c2-a5f44051dcf0;["container_2_Emit_random_words_2"];3.25;1533125606.09288;35.26;179.99;6.54629431;10;149
3;paravance-66.rennes.grid5000.fr;thermos-root-devel-WordCountTopology-0-a1a5abdc-4e03-4421-a319-c7eee2fa8d5c;["topology_master"];3.25;1533125606.09016;2.61;8.36;0.356598659;9;117
3;paravance-65.rennes.grid5000.fr;thermos-root-devel-WordCountTopology-1-335f0741-3db1-48e8-98e8-8c82d164fbc7;["container_1_Consume_and_count_1"];3.25;1533125606.10046;58.24;348.54;199.151054901;10;151
4;paravance-65.rennes.grid5000.fr;thermos-root-devel-WordCountTopology-1-335f0741-3db1-48e8-98e8-8c82d164fbc7;["container_1_Consume_and_count_1"];3.25;1533125616.31368;61.83;375.03;212.113830181;10;151
4;paravance-66.rennes.grid5000.fr;thermos-root-devel-WordCountTopology-0-a1a5abdc-4e03-4421-a319-c7eee2fa8d5c;["topology_master"];3.25;1533125616.30737;2.7;8.49;0.356598659;9;117
4;paravance-67.rennes.grid5000.fr;thermos-root-devel-WordCountTopology-2-d1e01ddf-0b70-4167-94c2-a5f44051dcf0;["container_2_Emit_random_words_2"];3.25;1533125616.30939;37.29;190.23;6.54629431;10;149
5;paravance-66.rennes.grid5000.fr;thermos-root-devel-WordCountTopology-0-a1a5abdc-4e03-4421-a319-c7eee2fa8d5c;["topology_master"];3.25;1533125626.52607;2.76;8.56;0.356598659;9;117
5;paravance-67.rennes.grid5000.fr;thermos-root-devel-WordCountTopology-2-d1e01ddf-0b70-4167-94c2-a5f44051dcf0;["container_2_Emit_random_words_2"];3.25;1533125626.52716;39.64;202.51;6.54629431;10;149
5;paravance-65.rennes.grid5000.fr;thermos-root-devel-WordCountTopology-1-335f0741-3db1-48e8-98e8-8c82d164fbc7;["container_1_Consume_and_count_1"];3.25;1533125626.53361;65.8;401.81;226.092119738;10;151
6;paravance-65.rennes.grid5000.fr;thermos-root-devel-WordCountTopology-1-335f0741-3db1-48e8-98e8-8c82d164fbc7;["container_1_Consume_and_count_1"];3.25;1533125636.75031;70.16;429.47;242.860088091;10;151
6;paravance-67.rennes.grid5000.fr;thermos-root-devel-WordCountTopology-2-d1e01ddf-0b70-4167-94c2-a5f44051dcf0;["container_2_Emit_random_words_2"];3.25;1533125636.74594;42.51;217.49;6.54629431;10;149
6;paravance-66.rennes.grid5000.fr;thermos-root-devel-WordCountTopology-0-a1a5abdc-4e03-4421-a319-c7eee2fa8d5c;["topology_master"];3.25;1533125636.74315;2.86;8.77;0.356598659;9;117
7;paravance-65.rennes.grid5000.fr;thermos-root-devel-WordCountTopology-1-335f0741-3db1-48e8-98e8-8c82d164fbc7;["container_1_Consume_and_count_1"];3.25;1533125646.96901;74.42;457.27;259.159258154;10;151
7;paravance-66.rennes.grid5000.fr;thermos-root-devel-WordCountTopology-0-a1a5abdc-4e03-4421-a319-c7eee2fa8d5c;["topology_master"];3.25;1533125646.96169;2.92;8.86;0.356598659;9;117
7;paravance-67.rennes.grid5000.fr;thermos-root-devel-WordCountTopology-2-d1e01ddf-0b70-4167-94c2-a5f44051dcf0;["container_2_Emit_random_words_2"];3.25;1533125646.9632;45.08;230.96;6.54629431;10;149
8;paravance-65.rennes.grid5000.fr;thermos-root-devel-WordCountTopology-1-335f0741-3db1-48e8-98e8-8c82d164fbc7;["container_1_Consume_and_count_1"];3.25;1533125657.18702;77.94;484.25;273.018986919;10;151
8;paravance-67.rennes.grid5000.fr;thermos-root-devel-WordCountTopology-2-d1e01ddf-0b70-4167-94c2-a5f44051dcf0;["container_2_Emit_random_words_2"];3.25;1533125657.18041;47.22;242.29;6.54629431;10;149
8;paravance-66.rennes.grid5000.fr;thermos-root-devel-WordCountTopology-0-a1a5abdc-4e03-4421-a319-c7eee2fa8d5c;["topology_master"];3.25;1533125657.179;3.01;8.99;0.356598659;9;117
9;paravance-65.rennes.grid5000.fr;thermos-root-devel-WordCountTopology-1-335f0741-3db1-48e8-98e8-8c82d164fbc7;["container_1_Consume_and_count_1"];3.25;1533125667.40381;81.47;511.02;286.931546756;10;151
9;paravance-66.rennes.grid5000.fr;thermos-root-devel-WordCountTopology-0-a1a5abdc-4e03-4421-a319-c7eee2fa8d5c;["topology_master"];3.25;1533125667.39661;3.04;9.01;0.356598659;9;117
9;paravance-67.rennes.grid5000.fr;thermos-root-devel-WordCountTopology-2-d1e01ddf-0b70-4167-94c2-a5f44051dcf0;["container_2_Emit_random_words_2"];3.25;1533125667.39846;49.52;254.13;6.54629431;10;149
10;paravance-65.rennes.grid5000.fr;thermos-root-devel-WordCountTopology-1-335f0741-3db1-48e8-98e8-8c82d164fbc7;["container_1_Consume_and_count_1"];3.25;1533125677.52264;85.56;537.6;301.234796468;10;151
10;paravance-67.rennes.grid5000.fr;thermos-root-devel-WordCountTopology-2-d1e01ddf-0b70-4167-94c2-a5f44051dcf0;["container_2_Emit_random_words_2"];3.25;1533125677.61581;51.92;266.29;6.54629431;10;149
10;paravance-66.rennes.grid5000.fr;thermos-root-devel-WordCountTopology-0-a1a5abdc-4e03-4421-a319-c7eee2fa8d5c;["topology_master"];3.25;1533125677.61527;3.12;9.13;0.356598659;9;117
11;paravance-67.rennes.grid5000.fr;thermos-root-devel-WordCountTopology-2-d1e01ddf-0b70-4167-94c2-a5f44051dcf0;["container_2_Emit_random_words_2"];3.25;1533125687.8325;54.05;277.13;6.54629431;10;149
11;paravance-66.rennes.grid5000.fr;thermos-root-devel-WordCountTopology-0-a1a5abdc-4e03-4421-a319-c7eee2fa8d5c;["topology_master"];3.25;1533125687.83007;3.18;9.21;0.356598659;9;117
11;paravance-65.rennes.grid5000.fr;thermos-root-devel-WordCountTopology-1-335f0741-3db1-48e8-98e8-8c82d164fbc7;["container_1_Consume_and_count_1"];3.25;1533125687.83841;89.33;563.34;313.285674174;10;151
12;paravance-65.rennes.grid5000.fr;thermos-root-devel-WordCountTopology-1-335f0741-3db1-48e8-98e8-8c82d164fbc7;["container_1_Consume_and_count_1"];3.25;1533125698.05584;93.4;590.09;327.243335253;10;151
12;paravance-67.rennes.grid5000.fr;thermos-root-devel-WordCountTopology-2-d1e01ddf-0b70-4167-94c2-a5f44051dcf0;["container_2_Emit_random_words_2"];3.25;1533125698.04924;56.54;290.67;6.54629431;10;149
12;paravance-66.rennes.grid5000.fr;thermos-root-devel-WordCountTopology-0-a1a5abdc-4e03-4421-a319-c7eee2fa8d5c;["topology_master"];3.25;1533125698.04789;3.29;9.45;0.356598659;9;117
13;paravance-65.rennes.grid5000.fr;thermos-root-devel-WordCountTopology-1-335f0741-3db1-48e8-98e8-8c82d164fbc7;["container_1_Consume_and_count_1"];3.25;1533125708.27173;97.38;617.1;343.178326127;10;151
13;paravance-66.rennes.grid5000.fr;thermos-root-devel-WordCountTopology-0-a1a5abdc-4e03-4421-a319-c7eee2fa8d5c;["topology_master"];3.25;1533125708.26513;3.32;9.47;0.356598659;9;117
13;paravance-67.rennes.grid5000.fr;thermos-root-devel-WordCountTopology-2-d1e01ddf-0b70-4167-94c2-a5f44051dcf0;["container_2_Emit_random_words_2"];3.25;1533125708.26672;59.04;303.57;6.54629431;10;149
14;paravance-65.rennes.grid5000.fr;thermos-root-devel-WordCountTopology-1-335f0741-3db1-48e8-98e8-8c82d164fbc7;["container_1_Consume_and_count_1"];3.25;1533125718.491;101.77;644.68;360.136965247;10;151
14;paravance-66.rennes.grid5000.fr;thermos-root-devel-WordCountTopology-0-a1a5abdc-4e03-4421-a319-c7eee2fa8d5c;["topology_master"];3.25;1533125718.48267;3.41;9.63;0.356598659;9;117
14;paravance-67.rennes.grid5000.fr;thermos-root-devel-WordCountTopology-2-d1e01ddf-0b70-4167-94c2-a5f44051dcf0;["container_2_Emit_random_words_2"];3.25;1533125718.4837;61.48;315.68;6.550321084;10;149
15;paravance-65.rennes.grid5000.fr;thermos-root-devel-WordCountTopology-1-335f0741-3db1-48e8-98e8-8c82d164fbc7;["container_1_Consume_and_count_1"];3.25;1533125728.70574;106.11;671.48;373.798525517;10;151
15;paravance-67.rennes.grid5000.fr;thermos-root-devel-WordCountTopology-2-d1e01ddf-0b70-4167-94c2-a5f44051dcf0;["container_2_Emit_random_words_2"];3.25;1533125728.70034;63.96;328.31;6.550321084;10;149
15;paravance-66.rennes.grid5000.fr;thermos-root-devel-WordCountTopology-0-a1a5abdc-4e03-4421-a319-c7eee2fa8d5c;["topology_master"];3.25;1533125728.69887;3.47;9.7;0.356598659;9;117
16;paravance-65.rennes.grid5000.fr;thermos-root-devel-WordCountTopology-1-335f0741-3db1-48e8-98e8-8c82d164fbc7;["container_1_Consume_and_count_1"];3.25;1533125738.92131;110.42;698.85;389.446163084;10;151
16;paravance-66.rennes.grid5000.fr;thermos-root-devel-WordCountTopology-0-a1a5abdc-4e03-4421-a319-c7eee2fa8d5c;["topology_master"];3.25;1533125738.91469;3.53;9.79;0.356598659;9;117
16;paravance-67.rennes.grid5000.fr;thermos-root-devel-WordCountTopology-2-d1e01ddf-0b70-4167-94c2-a5f44051dcf0;["container_2_Emit_random_words_2"];3.25;1533125738.91599;66.38;340.65;6.550321084;10;149
17;paravance-66.rennes.grid5000.fr;thermos-root-devel-WordCountTopology-0-a1a5abdc-4e03-4421-a319-c7eee2fa8d5c;["topology_master"];3.25;1533125749.13117;3.58;9.87;0.356598659;9;117
17;paravance-65.rennes.grid5000.fr;thermos-root-devel-WordCountTopology-1-335f0741-3db1-48e8-98e8-8c82d164fbc7;["container_1_Consume_and_count_1"];3.25;1533125749.13979;114.56;726.27;404.424554491;10;151
17;paravance-67.rennes.grid5000.fr;thermos-root-devel-WordCountTopology-2-d1e01ddf-0b70-4167-94c2-a5f44051dcf0;["container_2_Emit_random_words_2"];3.25;1533125749.13242;68.81;353.25;6.550321084;10;149
18;paravance-65.rennes.grid5000.fr;thermos-root-devel-WordCountTopology-1-335f0741-3db1-48e8-98e8-8c82d164fbc7;["container_1_Consume_and_count_1"];3.25;1533125759.35663;118.78;753.41;420.908767556;10;151
18;paravance-66.rennes.grid5000.fr;thermos-root-devel-WordCountTopology-0-a1a5abdc-4e03-4421-a319-c7eee2fa8d5c;["topology_master"];3.25;1533125759.34797;3.69;10.05;0.356598659;9;117
18;paravance-67.rennes.grid5000.fr;thermos-root-devel-WordCountTopology-2-d1e01ddf-0b70-4167-94c2-a5f44051dcf0;["container_2_Emit_random_words_2"];3.25;1533125759.35007;71.4;366.55;6.550321084;10;149
19;paravance-65.rennes.grid5000.fr;thermos-root-devel-WordCountTopology-1-335f0741-3db1-48e8-98e8-8c82d164fbc7;["container_1_Consume_and_count_1"];3.25;1533125769.57102;122.93;779.59;433.683286582;10;151
19;paravance-66.rennes.grid5000.fr;thermos-root-devel-WordCountTopology-0-a1a5abdc-4e03-4421-a319-c7eee2fa8d5c;["topology_master"];3.25;1533125769.56246;3.72;10.07;0.356598659;9;117
19;paravance-67.rennes.grid5000.fr;thermos-root-devel-WordCountTopology-2-d1e01ddf-0b70-4167-94c2-a5f44051dcf0;["container_2_Emit_random_words_2"];3.25;1533125769.56466;73.84;379.88;6.550321084;10;149
20;paravance-65.rennes.grid5000.fr;thermos-root-devel-WordCountTopology-1-335f0741-3db1-48e8-98e8-8c82d164fbc7;["container_1_Consume_and_count_1"];3.25;1533125779.78768;127.7;806.83;449.677135203;10;151
20;paravance-67.rennes.grid5000.fr;thermos-root-devel-WordCountTopology-2-d1e01ddf-0b70-4167-94c2-a5f44051dcf0;["container_2_Emit_random_words_2"];3.25;1533125779.78207;76.5;393.66;6.550321084;10;149
20;paravance-66.rennes.grid5000.fr;thermos-root-devel-WordCountTopology-0-a1a5abdc-4e03-4421-a319-c7eee2fa8d5c;["topology_master"];3.25;1533125779.7811;3.81;10.21;0.356598659;9;117
21;paravance-65.rennes.grid5000.fr;thermos-root-devel-WordCountTopology-1-335f0741-3db1-48e8-98e8-8c82d164fbc7;["container_1_Consume_and_count_1"];3.25;1533125790.00473;131.82;834.08;465.425317537;10;151
21;paravance-67.rennes.grid5000.fr;thermos-root-devel-WordCountTopology-2-d1e01ddf-0b70-4167-94c2-a5f44051dcf0;["container_2_Emit_random_words_2"];3.25;1533125789.99854;79.04;406.93;6.550321084;10;149
21;paravance-66.rennes.grid5000.fr;thermos-root-devel-WordCountTopology-0-a1a5abdc-4e03-4421-a319-c7eee2fa8d5c;["topology_master"];3.25;1533125789.99776;3.87;10.28;0.356598659;9;117
22;paravance-65.rennes.grid5000.fr;thermos-root-devel-WordCountTopology-1-335f0741-3db1-48e8-98e8-8c82d164fbc7;["container_1_Consume_and_count_1"];3.25;1533125800.22228;135.59;860.82;478.839753043;10;151
22;paravance-66.rennes.grid5000.fr;thermos-root-devel-WordCountTopology-0-a1a5abdc-4e03-4421-a319-c7eee2fa8d5c;["topology_master"];3.25;1533125800.21598;3.93;10.36;0.356598659;9;117
22;paravance-67.rennes.grid5000.fr;thermos-root-devel-WordCountTopology-2-d1e01ddf-0b70-4167-94c2-a5f44051dcf0;["container_2_Emit_random_words_2"];3.25;1533125800.21933;81.3;418.24;6.550321084;10;149
23;paravance-67.rennes.grid5000.fr;thermos-root-devel-WordCountTopology-2-d1e01ddf-0b70-4167-94c2-a5f44051dcf0;["container_2_Emit_random_words_2"];3.25;1533125810.43372;83.63;430.22;6.550321084;10;149
23;paravance-65.rennes.grid5000.fr;thermos-root-devel-WordCountTopology-1-335f0741-3db1-48e8-98e8-8c82d164fbc7;["container_1_Consume_and_count_1"];3.25;1533125810.44018;139.63;888.35;492.513502182;10;151
23;paravance-66.rennes.grid5000.fr;thermos-root-devel-WordCountTopology-0-a1a5abdc-4e03-4421-a319-c7eee2fa8d5c;["topology_master"];3.25;1533125810.43204;3.99;10.43;0.356598659;9;117
24;paravance-67.rennes.grid5000.fr;thermos-root-devel-WordCountTopology-2-d1e01ddf-0b70-4167-94c2-a5f44051dcf0;["container_2_Emit_random_words_2"];3.25;1533125820.65206;86.29;443.96;6.550321084;10;149
24;paravance-65.rennes.grid5000.fr;thermos-root-devel-WordCountTopology-1-335f0741-3db1-48e8-98e8-8c82d164fbc7;["container_1_Consume_and_count_1"];3.25;1533125820.65812;144.25;915.14;506.046121483;10;151
24;paravance-66.rennes.grid5000.fr;thermos-root-devel-WordCountTopology-0-a1a5abdc-4e03-4421-a319-c7eee2fa8d5c;["topology_master"];3.25;1533125820.65049;4.09;10.59;0.356598659;9;117
25;paravance-65.rennes.grid5000.fr;thermos-root-devel-WordCountTopology-1-335f0741-3db1-48e8-98e8-8c82d164fbc7;["container_1_Consume_and_count_1"];3.25;1533125830.87371;148.61;943.02;522.050029472;10;151
25;paravance-67.rennes.grid5000.fr;thermos-root-devel-WordCountTopology-2-d1e01ddf-0b70-4167-94c2-a5f44051dcf0;["container_2_Emit_random_words_2"];3.25;1533125830.86632;88.76;456.81;6.550321084;10;149
25;paravance-66.rennes.grid5000.fr;thermos-root-devel-WordCountTopology-0-a1a5abdc-4e03-4421-a319-c7eee2fa8d5c;["topology_master"];3.25;1533125830.86617;4.11;10.61;0.356598659;9;117
26;paravance-65.rennes.grid5000.fr;thermos-root-devel-WordCountTopology-1-335f0741-3db1-48e8-98e8-8c82d164fbc7;["container_1_Consume_and_count_1"];3.25;1533125841.08938;153.01;969.86;536.314349631;10;151
26;paravance-67.rennes.grid5000.fr;thermos-root-devel-WordCountTopology-2-d1e01ddf-0b70-4167-94c2-a5f44051dcf0;["container_2_Emit_random_words_2"];3.25;1533125841.08333;91.27;469.85;6.550321084;10;149
26;paravance-66.rennes.grid5000.fr;thermos-root-devel-WordCountTopology-0-a1a5abdc-4e03-4421-a319-c7eee2fa8d5c;["topology_master"];3.25;1533125841.08186;4.2;10.74;0.356598659;9;117
27;paravance-65.rennes.grid5000.fr;thermos-root-devel-WordCountTopology-1-335f0741-3db1-48e8-98e8-8c82d164fbc7;["container_1_Consume_and_count_1"];3.25;1533125851.30597;156.92;996.73;549.840230118;10;151
27;paravance-66.rennes.grid5000.fr;thermos-root-devel-WordCountTopology-0-a1a5abdc-4e03-4421-a319-c7eee2fa8d5c;["topology_master"];3.25;1533125851.29857;4.26;10.81;0.356598659;9;117
27;paravance-67.rennes.grid5000.fr;thermos-root-devel-WordCountTopology-2-d1e01ddf-0b70-4167-94c2-a5f44051dcf0;["container_2_Emit_random_words_2"];3.25;1533125851.30026;93.46;480.6;6.550321084;10;149
28;paravance-65.rennes.grid5000.fr;thermos-root-devel-WordCountTopology-1-335f0741-3db1-48e8-98e8-8c82d164fbc7;["container_1_Consume_and_count_1"];3.25;1533125861.52401;160.97;1022.72;562.305716795;10;151
28;paravance-67.rennes.grid5000.fr;thermos-root-devel-WordCountTopology-2-d1e01ddf-0b70-4167-94c2-a5f44051dcf0;["container_2_Emit_random_words_2"];3.25;1533125861.51725;95.92;493.98;6.550321084;10;149
28;paravance-66.rennes.grid5000.fr;thermos-root-devel-WordCountTopology-0-a1a5abdc-4e03-4421-a319-c7eee2fa8d5c;["topology_master"];3.25;1533125861.51612;4.32;10.89;0.356598659;9;117
29;paravance-67.rennes.grid5000.fr;thermos-root-devel-WordCountTopology-2-d1e01ddf-0b70-4167-94c2-a5f44051dcf0;["container_2_Emit_random_words_2"];3.25;1533125871.73363;98.37;506.89;6.550321084;10;149
29;paravance-65.rennes.grid5000.fr;thermos-root-devel-WordCountTopology-1-335f0741-3db1-48e8-98e8-8c82d164fbc7;["container_1_Consume_and_count_1"];3.25;1533125871.74207;165.2;1049.75;577.246969175;10;151
29;paravance-66.rennes.grid5000.fr;thermos-root-devel-WordCountTopology-0-a1a5abdc-4e03-4421-a319-c7eee2fa8d5c;["topology_master"];3.25;1533125871.73282;4.42;11.03;0.356598659;9;117
30;paravance-67.rennes.grid5000.fr;thermos-root-devel-WordCountTopology-2-d1e01ddf-0b70-4167-94c2-a5f44051dcf0;["container_2_Emit_random_words_2"];3.25;1533125881.95072;101.02;520.38;6.550321084;10;149
30;paravance-65.rennes.grid5000.fr;thermos-root-devel-WordCountTopology-1-335f0741-3db1-48e8-98e8-8c82d164fbc7;["container_1_Consume_and_count_1"];3.25;1533125881.95717;169.6;1077.42;592.930908709;10;151
30;paravance-66.rennes.grid5000.fr;thermos-root-devel-WordCountTopology-0-a1a5abdc-4e03-4421-a319-c7eee2fa8d5c;["topology_master"];3.25;1533125881.94914;4.48;11.16;0.356598659;9;117
31;paravance-65.rennes.grid5000.fr;thermos-root-devel-WordCountTopology-1-335f0741-3db1-48e8-98e8-8c82d164fbc7;["container_1_Consume_and_count_1"];3.25;1533125892.17573;173.5;1104.48;607.719322563;10;151
31;paravance-67.rennes.grid5000.fr;thermos-root-devel-WordCountTopology-2-d1e01ddf-0b70-4167-94c2-a5f44051dcf0;["container_2_Emit_random_words_2"];3.25;1533125892.16851;103.42;532.74;6.550321084;10;149
31;paravance-66.rennes.grid5000.fr;thermos-root-devel-WordCountTopology-0-a1a5abdc-4e03-4421-a319-c7eee2fa8d5c;["topology_master"];3.25;1533125892.16683;4.54;11.23;0.356598659;9;117
32;paravance-65.rennes.grid5000.fr;thermos-root-devel-WordCountTopology-1-335f0741-3db1-48e8-98e8-8c82d164fbc7;["container_1_Consume_and_count_1"];3.25;1533125902.39268;177.45;1131.67;622.860907685;10;151
32;paravance-66.rennes.grid5000.fr;thermos-root-devel-WordCountTopology-0-a1a5abdc-4e03-4421-a319-c7eee2fa8d5c;["topology_master"];3.25;1533125902.384;4.6;11.31;0.356598659;9;117
32;paravance-67.rennes.grid5000.fr;thermos-root-devel-WordCountTopology-2-d1e01ddf-0b70-4167-94c2-a5f44051dcf0;["container_2_Emit_random_words_2"];3.25;1533125902.38718;105.83;545.05;6.550321084;10;149
33;paravance-67.rennes.grid5000.fr;thermos-root-devel-WordCountTopology-2-d1e01ddf-0b70-4167-94c2-a5f44051dcf0;["container_2_Emit_random_words_2"];3.25;1533125912.60352;108.16;556.49;6.550321084;10;149
33;paravance-66.rennes.grid5000.fr;thermos-root-devel-WordCountTopology-0-a1a5abdc-4e03-4421-a319-c7eee2fa8d5c;["topology_master"];3.25;1533125912.6021;4.7;11.44;0.356598659;9;117
33;paravance-65.rennes.grid5000.fr;thermos-root-devel-WordCountTopology-1-335f0741-3db1-48e8-98e8-8c82d164fbc7;["container_1_Consume_and_count_1"];3.25;1533125912.61106;181.16;1159.22;640.524172987;10;151
34;paravance-65.rennes.grid5000.fr;thermos-root-devel-WordCountTopology-1-335f0741-3db1-48e8-98e8-8c82d164fbc7;["container_1_Consume_and_count_1"];3.25;1533125922.82789;185.35;1186.22;654.683192242;10;151
34;paravance-66.rennes.grid5000.fr;thermos-root-devel-WordCountTopology-0-a1a5abdc-4e03-4421-a319-c7eee2fa8d5c;["topology_master"];3.25;1533125922.82041;4.72;11.46;0.356598659;9;117
34;paravance-67.rennes.grid5000.fr;thermos-root-devel-WordCountTopology-2-d1e01ddf-0b70-4167-94c2-a5f44051dcf0;["container_2_Emit_random_words_2"];3.25;1533125922.8225;110.84;570.9;6.550321084;10;149
35;paravance-67.rennes.grid5000.fr;thermos-root-devel-WordCountTopology-2-d1e01ddf-0b70-4167-94c2-a5f44051dcf0;["container_2_Emit_random_words_2"];3.25;1533125933.0381;113.16;581.87;6.550321084;10;149
35;paravance-66.rennes.grid5000.fr;thermos-root-devel-WordCountTopology-0-a1a5abdc-4e03-4421-a319-c7eee2fa8d5c;["topology_master"];3.25;1533125933.03634;4.83;11.6;0.356598659;9;117
35;paravance-65.rennes.grid5000.fr;thermos-root-devel-WordCountTopology-1-335f0741-3db1-48e8-98e8-8c82d164fbc7;["container_1_Consume_and_count_1"];3.25;1533125933.04505;189.39;1213.73;670.607948652;10;151
36;paravance-65.rennes.grid5000.fr;thermos-root-devel-WordCountTopology-1-335f0741-3db1-48e8-98e8-8c82d164fbc7;["container_1_Consume_and_count_1"];3.25;1533125943.26215;193.4;1240.89;685.541803856;10;151
36;paravance-67.rennes.grid5000.fr;thermos-root-devel-WordCountTopology-2-d1e01ddf-0b70-4167-94c2-a5f44051dcf0;["container_2_Emit_random_words_2"];3.25;1533125943.25639;115.78;595.21;6.550321084;10;149
36;paravance-66.rennes.grid5000.fr;thermos-root-devel-WordCountTopology-0-a1a5abdc-4e03-4421-a319-c7eee2fa8d5c;["topology_master"];3.25;1533125943.25431;4.89;11.73;0.356598659;9;117
37;paravance-65.rennes.grid5000.fr;thermos-root-devel-WordCountTopology-1-335f0741-3db1-48e8-98e8-8c82d164fbc7;["container_1_Consume_and_count_1"];3.25;1533125953.38025;197.91;1267.53;699.525291038;10;151
37;paravance-66.rennes.grid5000.fr;thermos-root-devel-WordCountTopology-0-a1a5abdc-4e03-4421-a319-c7eee2fa8d5c;["topology_master"];3.25;1533125953.47144;4.95;11.8;0.356598659;9;117
37;paravance-67.rennes.grid5000.fr;thermos-root-devel-WordCountTopology-2-d1e01ddf-0b70-4167-94c2-a5f44051dcf0;["container_2_Emit_random_words_2"];3.25;1533125953.47372;118.27;608.05;6.550321084;10;149
38;paravance-67.rennes.grid5000.fr;thermos-root-devel-WordCountTopology-2-d1e01ddf-0b70-4167-94c2-a5f44051dcf0;["container_2_Emit_random_words_2"];3.25;1533125963.59017;120.92;621.73;6.550321084;10;149
38;paravance-65.rennes.grid5000.fr;thermos-root-devel-WordCountTopology-1-335f0741-3db1-48e8-98e8-8c82d164fbc7;["container_1_Consume_and_count_1"];3.25;1533125963.69706;202.47;1295.32;715.691506177;10;151
38;paravance-66.rennes.grid5000.fr;thermos-root-devel-WordCountTopology-0-a1a5abdc-4e03-4421-a319-c7eee2fa8d5c;["topology_master"];3.25;1533125963.68828;5.01;11.88;0.356598659;9;117
39;paravance-67.rennes.grid5000.fr;thermos-root-devel-WordCountTopology-2-d1e01ddf-0b70-4167-94c2-a5f44051dcf0;["container_2_Emit_random_words_2"];3.25;1533125973.80622;123.02;631.88;6.550321084;10;149
39;paravance-65.rennes.grid5000.fr;thermos-root-devel-WordCountTopology-1-335f0741-3db1-48e8-98e8-8c82d164fbc7;["container_1_Consume_and_count_1"];3.25;1533125973.91287;206.0;1321.83;728.331244057;10;151
39;paravance-66.rennes.grid5000.fr;thermos-root-devel-WordCountTopology-0-a1a5abdc-4e03-4421-a319-c7eee2fa8d5c;["topology_master"];3.25;1533125973.90365;5.11;12.01;0.356598659;9;117
40;paravance-67.rennes.grid5000.fr;thermos-root-devel-WordCountTopology-2-d1e01ddf-0b70-4167-94c2-a5f44051dcf0;["container_2_Emit_random_words_2"];3.25;1533125984.02033;125.44;644.34;6.550321084;10;149
40;paravance-65.rennes.grid5000.fr;thermos-root-devel-WordCountTopology-1-335f0741-3db1-48e8-98e8-8c82d164fbc7;["container_1_Consume_and_count_1"];3.25;1533125984.1284;210.29;1348.88;742.846894517;10;151
40;paravance-66.rennes.grid5000.fr;thermos-root-devel-WordCountTopology-0-a1a5abdc-4e03-4421-a319-c7eee2fa8d5c;["topology_master"];3.25;1533125984.11834;5.14;12.04;0.356598659;9;117
41;paravance-65.rennes.grid5000.fr;thermos-root-devel-WordCountTopology-1-335f0741-3db1-48e8-98e8-8c82d164fbc7;["container_1_Consume_and_count_1"];3.25;1533125994.34325;214.9;1376.29;758.575069706;10;151
41;paravance-67.rennes.grid5000.fr;thermos-root-devel-WordCountTopology-2-d1e01ddf-0b70-4167-94c2-a5f44051dcf0;["container_2_Emit_random_words_2"];3.25;1533125994.33675;128.04;657.91;6.550321084;10;149
41;paravance-66.rennes.grid5000.fr;thermos-root-devel-WordCountTopology-0-a1a5abdc-4e03-4421-a319-c7eee2fa8d5c;["topology_master"];3.25;1533125994.33411;5.23;12.17;0.356598659;9;117
42;paravance-66.rennes.grid5000.fr;thermos-root-devel-WordCountTopology-0-a1a5abdc-4e03-4421-a319-c7eee2fa8d5c;["topology_master"];3.25;1533126004.45278;5.29;12.27;0.356598659;9;117
42;paravance-65.rennes.grid5000.fr;thermos-root-devel-WordCountTopology-1-335f0741-3db1-48e8-98e8-8c82d164fbc7;["container_1_Consume_and_count_1"];3.25;1533126004.56114;219.27;1402.95;771.962513731;10;151
42;paravance-67.rennes.grid5000.fr;thermos-root-devel-WordCountTopology-2-d1e01ddf-0b70-4167-94c2-a5f44051dcf0;["container_2_Emit_random_words_2"];3.25;1533126004.55549;130.4;671.04;6.550321084;10;149
43;paravance-65.rennes.grid5000.fr;thermos-root-devel-WordCountTopology-1-335f0741-3db1-48e8-98e8-8c82d164fbc7;["container_1_Consume_and_count_1"];3.25;1533126014.77689;223.89;1430.36;786.932975686;10;151
43;paravance-67.rennes.grid5000.fr;thermos-root-devel-WordCountTopology-2-d1e01ddf-0b70-4167-94c2-a5f44051dcf0;["container_2_Emit_random_words_2"];3.25;1533126014.77009;133.08;685.07;6.550321084;10;149
43;paravance-66.rennes.grid5000.fr;thermos-root-devel-WordCountTopology-0-a1a5abdc-4e03-4421-a319-c7eee2fa8d5c;["topology_master"];3.25;1533126014.77152;5.35;12.35;0.356598659;9;117
44;paravance-65.rennes.grid5000.fr;thermos-root-devel-WordCountTopology-1-335f0741-3db1-48e8-98e8-8c82d164fbc7;["container_1_Consume_and_count_1"];3.25;1533126024.99753;228.1;1457.33;802.520224173;10;151
44;paravance-66.rennes.grid5000.fr;thermos-root-devel-WordCountTopology-0-a1a5abdc-4e03-4421-a319-c7eee2fa8d5c;["topology_master"];3.25;1533126024.98866;5.41;12.43;0.356598659;9;117
44;paravance-67.rennes.grid5000.fr;thermos-root-devel-WordCountTopology-2-d1e01ddf-0b70-4167-94c2-a5f44051dcf0;["container_2_Emit_random_words_2"];3.25;1533126024.99119;135.47;698.08;6.550321084;10;149
45;paravance-65.rennes.grid5000.fr;thermos-root-devel-WordCountTopology-1-335f0741-3db1-48e8-98e8-8c82d164fbc7;["container_1_Consume_and_count_1"];3.25;1533126035.21352;232.47;1485.15;818.960139614;10;151
45;paravance-66.rennes.grid5000.fr;thermos-root-devel-WordCountTopology-0-a1a5abdc-4e03-4421-a319-c7eee2fa8d5c;["topology_master"];3.25;1533126035.20372;5.5;12.55;0.356598659;9;117
45;paravance-67.rennes.grid5000.fr;thermos-root-devel-WordCountTopology-2-d1e01ddf-0b70-4167-94c2-a5f44051dcf0;["container_2_Emit_random_words_2"];3.25;1533126035.2067;138.27;713.05;6.550321084;10;149
46;paravance-65.rennes.grid5000.fr;thermos-root-devel-WordCountTopology-1-335f0741-3db1-48e8-98e8-8c82d164fbc7;["container_1_Consume_and_count_1"];3.25;1533126045.42791;236.61;1512.34;833.580360136;10;151
46;paravance-67.rennes.grid5000.fr;thermos-root-devel-WordCountTopology-2-d1e01ddf-0b70-4167-94c2-a5f44051dcf0;["container_2_Emit_random_words_2"];3.25;1533126045.42104;140.61;725.56;6.550321084;10;149
46;paravance-66.rennes.grid5000.fr;thermos-root-devel-WordCountTopology-0-a1a5abdc-4e03-4421-a319-c7eee2fa8d5c;["topology_master"];3.25;1533126045.41811;5.56;12.62;0.356598659;9;117
47;paravance-65.rennes.grid5000.fr;thermos-root-devel-WordCountTopology-1-335f0741-3db1-48e8-98e8-8c82d164fbc7;["container_1_Consume_and_count_1"];3.25;1533126055.64483;240.59;1538.49;846.616738001;10;151
47;paravance-66.rennes.grid5000.fr;thermos-root-devel-WordCountTopology-0-a1a5abdc-4e03-4421-a319-c7eee2fa8d5c;["topology_master"];3.25;1533126055.63385;5.63;12.71;0.356598659;9;117
47;paravance-67.rennes.grid5000.fr;thermos-root-devel-WordCountTopology-2-d1e01ddf-0b70-4167-94c2-a5f44051dcf0;["container_2_Emit_random_words_2"];3.25;1533126055.63625;143.02;738.71;6.550321084;10;149
48;paravance-66.rennes.grid5000.fr;thermos-root-devel-WordCountTopology-0-a1a5abdc-4e03-4421-a319-c7eee2fa8d5c;["topology_master"];3.25;1533126065.85158;5.7;12.86;0.356598659;9;117
48;paravance-67.rennes.grid5000.fr;thermos-root-devel-WordCountTopology-2-d1e01ddf-0b70-4167-94c2-a5f44051dcf0;["container_2_Emit_random_words_2"];3.25;1533126065.85444;145.33;751.58;6.550321084;10;149
48;paravance-65.rennes.grid5000.fr;thermos-root-devel-WordCountTopology-1-335f0741-3db1-48e8-98e8-8c82d164fbc7;["container_1_Consume_and_count_1"];3.25;1533126065.86114;244.65;1564.72;859.159267987;10;151
49;paravance-65.rennes.grid5000.fr;thermos-root-devel-WordCountTopology-1-335f0741-3db1-48e8-98e8-8c82d164fbc7;["container_1_Consume_and_count_1"];3.25;1533126076.079;249.23;1591.76;873.697677686;10;151
49;paravance-67.rennes.grid5000.fr;thermos-root-devel-WordCountTopology-2-d1e01ddf-0b70-4167-94c2-a5f44051dcf0;["container_2_Emit_random_words_2"];3.25;1533126076.07024;147.94;765.05;6.550321084;10;149
49;paravance-66.rennes.grid5000.fr;thermos-root-devel-WordCountTopology-0-a1a5abdc-4e03-4421-a319-c7eee2fa8d5c;["topology_master"];3.25;1533126076.06846;5.79;13.0;0.356598659;9;117
50;paravance-65.rennes.grid5000.fr;thermos-root-devel-WordCountTopology-1-335f0741-3db1-48e8-98e8-8c82d164fbc7;["container_1_Consume_and_count_1"];3.25;1533126086.29533;253.37;1618.27;886.713844261;10;151
50;paravance-67.rennes.grid5000.fr;thermos-root-devel-WordCountTopology-2-d1e01ddf-0b70-4167-94c2-a5f44051dcf0;["container_2_Emit_random_words_2"];3.25;1533126086.2871;150.28;778.02;6.550321084;10;149
50;paravance-66.rennes.grid5000.fr;thermos-root-devel-WordCountTopology-0-a1a5abdc-4e03-4421-a319-c7eee2fa8d5c;["topology_master"];3.25;1533126086.28551;5.82;13.02;0.356598659;9;117
51;paravance-65.rennes.grid5000.fr;thermos-root-devel-WordCountTopology-1-335f0741-3db1-48e8-98e8-8c82d164fbc7;["container_1_Consume_and_count_1"];3.25;1533126096.51186;258.02;1645.65;902.231617189;10;151
51;paravance-67.rennes.grid5000.fr;thermos-root-devel-WordCountTopology-2-d1e01ddf-0b70-4167-94c2-a5f44051dcf0;["container_2_Emit_random_words_2"];3.25;1533126096.50468;153.16;793.07;6.550321084;10;149
51;paravance-66.rennes.grid5000.fr;thermos-root-devel-WordCountTopology-0-a1a5abdc-4e03-4421-a319-c7eee2fa8d5c;["topology_master"];3.25;1533126096.50204;5.92;13.17;0.356598659;9;117
52;paravance-65.rennes.grid5000.fr;thermos-root-devel-WordCountTopology-1-335f0741-3db1-48e8-98e8-8c82d164fbc7;["container_1_Consume_and_count_1"];3.25;1533126106.72628;261.98;1672.69;918.722786253;10;151
52;paravance-67.rennes.grid5000.fr;thermos-root-devel-WordCountTopology-2-d1e01ddf-0b70-4167-94c2-a5f44051dcf0;["container_2_Emit_random_words_2"];3.25;1533126106.71836;155.53;805.92;6.550321084;10;149
52;paravance-66.rennes.grid5000.fr;thermos-root-devel-WordCountTopology-0-a1a5abdc-4e03-4421-a319-c7eee2fa8d5c;["topology_master"];3.25;1533126106.71628;5.98;13.25;0.356598659;9;117
53;paravance-67.rennes.grid5000.fr;thermos-root-devel-WordCountTopology-2-d1e01ddf-0b70-4167-94c2-a5f44051dcf0;["container_2_Emit_random_words_2"];3.25;1533126116.93263;158.12;819.55;6.550321084;10;149
53;paravance-65.rennes.grid5000.fr;thermos-root-devel-WordCountTopology-1-335f0741-3db1-48e8-98e8-8c82d164fbc7;["container_1_Consume_and_count_1"];3.25;1533126116.94215;266.21;1700.64;936.86671326;10;151
53;paravance-66.rennes.grid5000.fr;thermos-root-devel-WordCountTopology-0-a1a5abdc-4e03-4421-a319-c7eee2fa8d5c;["topology_master"];3.25;1533126116.9316;6.06;13.38;0.356598659;9;117
54;paravance-65.rennes.grid5000.fr;thermos-root-devel-WordCountTopology-1-335f0741-3db1-48e8-98e8-8c82d164fbc7;["container_1_Consume_and_count_1"];3.25;1533126127.15793;270.02;1727.73;952.120689299;10;151
54;paravance-66.rennes.grid5000.fr;thermos-root-devel-WordCountTopology-0-a1a5abdc-4e03-4421-a319-c7eee2fa8d5c;["topology_master"];3.25;1533126127.14648;6.11;13.45;0.356598659;9;117
54;paravance-67.rennes.grid5000.fr;thermos-root-devel-WordCountTopology-2-d1e01ddf-0b70-4167-94c2-a5f44051dcf0;["container_2_Emit_random_words_2"];3.25;1533126127.1497;160.55;833.5;6.550321084;10;149
55;paravance-67.rennes.grid5000.fr;thermos-root-devel-WordCountTopology-2-d1e01ddf-0b70-4167-94c2-a5f44051dcf0;["container_2_Emit_random_words_2"];3.25;1533126137.36589;163.1;846.95;6.550321084;10;149
55;paravance-65.rennes.grid5000.fr;thermos-root-devel-WordCountTopology-1-335f0741-3db1-48e8-98e8-8c82d164fbc7;["container_1_Consume_and_count_1"];3.25;1533126137.37389;274.74;1754.24;967.267336603;10;151
55;paravance-66.rennes.grid5000.fr;thermos-root-devel-WordCountTopology-0-a1a5abdc-4e03-4421-a319-c7eee2fa8d5c;["topology_master"];3.25;1533126137.3636;6.21;13.58;0.356598659;9;117
56;paravance-65.rennes.grid5000.fr;thermos-root-devel-WordCountTopology-1-335f0741-3db1-48e8-98e8-8c82d164fbc7;["container_1_Consume_and_count_1"];3.25;1533126147.5897;279.2;1781.84;982.509653288;10;151
56;paravance-66.rennes.grid5000.fr;thermos-root-devel-WordCountTopology-0-a1a5abdc-4e03-4421-a319-c7eee2fa8d5c;["topology_master"];3.25;1533126147.57918;6.23;13.61;0.356598659;9;117
56;paravance-67.rennes.grid5000.fr;thermos-root-devel-WordCountTopology-2-d1e01ddf-0b70-4167-94c2-a5f44051dcf0;["container_2_Emit_random_words_2"];3.25;1533126147.58121;165.9;861.49;6.550321084;10;149
57;paravance-65.rennes.grid5000.fr;thermos-root-devel-WordCountTopology-1-335f0741-3db1-48e8-98e8-8c82d164fbc7;["container_1_Consume_and_count_1"];3.25;1533126157.80607;283.57;1808.94;999.197408541;10;151
57;paravance-66.rennes.grid5000.fr;thermos-root-devel-WordCountTopology-0-a1a5abdc-4e03-4421-a319-c7eee2fa8d5c;["topology_master"];3.25;1533126157.79575;6.32;13.73;0.356598659;9;117
57;paravance-67.rennes.grid5000.fr;thermos-root-devel-WordCountTopology-2-d1e01ddf-0b70-4167-94c2-a5f44051dcf0;["container_2_Emit_random_words_2"];3.25;1533126157.79747;168.55;874.78;6.550321084;10;149
58;paravance-66.rennes.grid5000.fr;thermos-root-devel-WordCountTopology-0-a1a5abdc-4e03-4421-a319-c7eee2fa8d5c;["topology_master"];3.25;1533126167.91035;6.38;13.81;0.356598659;9;117
58;paravance-65.rennes.grid5000.fr;thermos-root-devel-WordCountTopology-1-335f0741-3db1-48e8-98e8-8c82d164fbc7;["container_1_Consume_and_count_1"];3.25;1533126168.01972;288.42;1836.0;1014.155705765;10;151
58;paravance-67.rennes.grid5000.fr;thermos-root-devel-WordCountTopology-2-d1e01ddf-0b70-4167-94c2-a5f44051dcf0;["container_2_Emit_random_words_2"];3.25;1533126168.01283;171.06;888.3;6.550321084;10;149
59;paravance-65.rennes.grid5000.fr;thermos-root-devel-WordCountTopology-1-335f0741-3db1-48e8-98e8-8c82d164fbc7;["container_1_Consume_and_count_1"];3.25;1533126178.23636;292.59;1862.66;1027.86476893;10;151
59;paravance-66.rennes.grid5000.fr;thermos-root-devel-WordCountTopology-0-a1a5abdc-4e03-4421-a319-c7eee2fa8d5c;["topology_master"];3.25;1533126178.22625;6.45;13.92;0.356598659;9;117
59;paravance-67.rennes.grid5000.fr;thermos-root-devel-WordCountTopology-2-d1e01ddf-0b70-4167-94c2-a5f44051dcf0;["container_2_Emit_random_words_2"];3.25;1533126178.22916;173.56;901.55;6.550321084;10;149
60;paravance-66.rennes.grid5000.fr;thermos-root-devel-WordCountTopology-0-a1a5abdc-4e03-4421-a319-c7eee2fa8d5c;["topology_master"];3.25;1533126188.44204;6.51;13.99;0.356598659;9;117
60;paravance-67.rennes.grid5000.fr;thermos-root-devel-WordCountTopology-2-d1e01ddf-0b70-4167-94c2-a5f44051dcf0;["container_2_Emit_random_words_2"];3.25;1533126188.44482;176.38;916.91;6.550321084;10;149
60;paravance-65.rennes.grid5000.fr;thermos-root-devel-WordCountTopology-1-335f0741-3db1-48e8-98e8-8c82d164fbc7;["container_1_Consume_and_count_1"];3.25;1533126188.45341;297.55;1889.1;1041.271722596;10;151
