{
  "status": "success",
  "executiontime": 0.0001838207244873047,
  "message": "",
  "result": {
    "bolts": {
      "Consume_and_count": [
        "container_1_Consume_and_count_1"
      ]
    },
    "instances": {
      "container_2_Emit_random_words_2": {
        "stmgrId": "stmgr-2",
        "logfile": "http://paravance-18.rennes.grid5000.fr:31965/file/log-files/container_2_Emit_random_words_2.log.0",
        "id": "container_2_Emit_random_words_2",
        "name": "Emit_random_words"
      },
      "container_1_Consume_and_count_1": {
        "stmgrId": "stmgr-1",
        "logfile": "http://paravance-61.rennes.grid5000.fr:31507/file/log-files/container_1_Consume_and_count_1.log.0",
        "id": "container_1_Consume_and_count_1",
        "name": "Consume_and_count"
      }
    },
    "instance_groups": {
      "container_1_Consume_and": [
        "container_1_Consume_and_count_1"
      ],
      "container_2_Emit_random": [
        "container_2_Emit_random_words_2"
      ]
    },
    "spouts": {
      "Emit_random_words": [
        "container_2_Emit_random_words_2"
      ]
    },
    "config": {
      "topology.message.timeout.secs": "30",
      "topology.team.environment": "devel",
      "topology.serializer.classname": "org.apache.heron.streamlet.impl.KryoSerializer",
      "topology.team.name": "root",
      "topology.debug": "false",
      "topology.max.spout.pending": "100",
      "topology.container.padding.percentage": "100",
      "topology.enable.message.timeouts": "true",
      "topology.component.parallelism": "1",
      "topology.name": "WordCountTopology",
      "topology.stmgrs": "2",
      "topology.reliability.mode": "ATMOST_ONCE"
    },
    "stmgrs": {
      "stmgr-1": {
        "cwd": "/var/lib/mesos/slaves/2a6cf543-0b19-4c89-be73-642a3c937497-S2/frameworks/75deb08a-eb1b-415c-8b2c-e922be5f7d98-0000/executors/thermos-root-devel-WordCountTopology-1-faa5ecfa-12c1-4e3a-9cf6-d2b400ecacc2/runs/92614b9a-a375-45b4-be4a-a4fa2677f396/sandbox",
        "host": "paravance-61.rennes.grid5000.fr",
        "joburl": "http://paravance-61.rennes.grid5000.fr:31507/browse/",
        "shell_port": 31507,
        "logfiles": "http://paravance-61.rennes.grid5000.fr:31507/browse/log-files",
        "pid": 2141,
        "id": "stmgr-1",
        "instance_ids": [
          "container_1_Consume_and_count_1"
        ],
        "port": 31634
      },
      "stmgr-2": {
        "cwd": "/var/lib/mesos/slaves/2a6cf543-0b19-4c89-be73-642a3c937497-S1/frameworks/75deb08a-eb1b-415c-8b2c-e922be5f7d98-0000/executors/thermos-root-devel-WordCountTopology-2-af71f9b7-a719-4ce0-9ba6-a42b6649e46d/runs/f8831c14-de80-4f1d-8cc4-ea8abde25bad/sandbox",
        "host": "paravance-18.rennes.grid5000.fr",
        "joburl": "http://paravance-18.rennes.grid5000.fr:31965/browse/",
        "shell_port": 31965,
        "logfiles": "http://paravance-18.rennes.grid5000.fr:31965/browse/log-files",
        "pid": 2177,
        "id": "stmgr-2",
        "instance_ids": [
          "container_2_Emit_random_words_2"
        ],
        "port": 31761
      }
    }
  },
  "tracker_version": "0.17.8-61-gd7c8c62"
}