mesure_id;slave_id;executor_id;heron_instances;cpus_limit;timestamp_B;cpus_system_time_secs_B;cpus_user_time_secs_B;cpus_throttled_time_secs_B;processes;threads
0;paravance-24.rennes.grid5000.fr;thermos-root-devel-WordCountTopology-2-bf2c4b9a-3fd2-4a97-9411-b27aab814a93;["container_2_Emit_random_words_2"];4.25;1533763980.15051;8.9;187.22;2.334451848;10;149
0;paravance-26.rennes.grid5000.fr;thermos-root-devel-WordCountTopology-0-e7bf1839-5867-460f-809d-ba73a86905cc;["topology_master"];4.25;1533763980.25441;2.49;7.99;0.001427412;9;117
0;paravance-32.rennes.grid5000.fr;thermos-root-devel-WordCountTopology-1-3abeccde-757e-4a5a-94e7-a9698e529a96;["container_1_Consume_and_count_1"];4.25;1533763980.37624;21.81;274.31;5.43111454;10;151
1;paravance-32.rennes.grid5000.fr;thermos-root-devel-WordCountTopology-1-3abeccde-757e-4a5a-94e7-a9698e529a96;["container_1_Consume_and_count_1"];4.25;1533763990.59154;24.05;303.77;5.43111454;10;151
1;paravance-24.rennes.grid5000.fr;thermos-root-devel-WordCountTopology-2-bf2c4b9a-3fd2-4a97-9411-b27aab814a93;["container_2_Emit_random_words_2"];4.25;1533763990.46873;9.58;205.47;2.334451848;10;149
1;paravance-26.rennes.grid5000.fr;thermos-root-devel-WordCountTopology-0-e7bf1839-5867-460f-809d-ba73a86905cc;["topology_master"];4.25;1533763990.4718;2.58;8.15;0.001427412;9;117
2;paravance-24.rennes.grid5000.fr;thermos-root-devel-WordCountTopology-2-bf2c4b9a-3fd2-4a97-9411-b27aab814a93;["container_2_Emit_random_words_2"];4.25;1533764000.58214;10.25;223.39;2.334451848;10;149
2;paravance-32.rennes.grid5000.fr;thermos-root-devel-WordCountTopology-1-3abeccde-757e-4a5a-94e7-a9698e529a96;["container_1_Consume_and_count_1"];4.25;1533764000.80667;26.22;333.85;5.43111454;10;151
2;paravance-26.rennes.grid5000.fr;thermos-root-devel-WordCountTopology-0-e7bf1839-5867-460f-809d-ba73a86905cc;["topology_master"];4.25;1533764000.68694;2.64;8.23;0.001427412;9;117
3;paravance-24.rennes.grid5000.fr;thermos-root-devel-WordCountTopology-2-bf2c4b9a-3fd2-4a97-9411-b27aab814a93;["container_2_Emit_random_words_2"];4.25;1533764010.89928;10.94;241.74;2.334451848;10;149
3;paravance-32.rennes.grid5000.fr;thermos-root-devel-WordCountTopology-1-3abeccde-757e-4a5a-94e7-a9698e529a96;["container_1_Consume_and_count_1"];4.25;1533764011.02361;28.61;362.74;5.43111454;10;151
3;paravance-26.rennes.grid5000.fr;thermos-root-devel-WordCountTopology-0-e7bf1839-5867-460f-809d-ba73a86905cc;["topology_master"];4.25;1533764010.90385;2.7;8.31;0.001427412;9;117
4;paravance-32.rennes.grid5000.fr;thermos-root-devel-WordCountTopology-1-3abeccde-757e-4a5a-94e7-a9698e529a96;["container_1_Consume_and_count_1"];4.25;1533764021.24048;30.83;392.1;5.43111454;10;151
4;paravance-24.rennes.grid5000.fr;thermos-root-devel-WordCountTopology-2-bf2c4b9a-3fd2-4a97-9411-b27aab814a93;["container_2_Emit_random_words_2"];4.25;1533764021.11586;11.59;259.66;2.334451848;10;149
4;paravance-26.rennes.grid5000.fr;thermos-root-devel-WordCountTopology-0-e7bf1839-5867-460f-809d-ba73a86905cc;["topology_master"];4.25;1533764021.12218;2.76;8.38;0.001427412;9;117
5;paravance-32.rennes.grid5000.fr;thermos-root-devel-WordCountTopology-1-3abeccde-757e-4a5a-94e7-a9698e529a96;["container_1_Consume_and_count_1"];4.25;1533764031.45818;33.18;420.58;5.43111454;10;151
5;paravance-24.rennes.grid5000.fr;thermos-root-devel-WordCountTopology-2-bf2c4b9a-3fd2-4a97-9411-b27aab814a93;["container_2_Emit_random_words_2"];4.25;1533764031.33509;12.3;277.72;2.334451848;10;149
5;paravance-26.rennes.grid5000.fr;thermos-root-devel-WordCountTopology-0-e7bf1839-5867-460f-809d-ba73a86905cc;["topology_master"];4.25;1533764031.33796;2.88;8.58;0.001427412;9;117
6;paravance-32.rennes.grid5000.fr;thermos-root-devel-WordCountTopology-1-3abeccde-757e-4a5a-94e7-a9698e529a96;["container_1_Consume_and_count_1"];4.25;1533764041.6746;35.51;450.34;5.43111454;10;151
6;paravance-24.rennes.grid5000.fr;thermos-root-devel-WordCountTopology-2-bf2c4b9a-3fd2-4a97-9411-b27aab814a93;["container_2_Emit_random_words_2"];4.25;1533764041.54945;12.93;295.97;2.334451848;10;149
6;paravance-26.rennes.grid5000.fr;thermos-root-devel-WordCountTopology-0-e7bf1839-5867-460f-809d-ba73a86905cc;["topology_master"];4.25;1533764041.55454;2.91;8.62;0.001427412;9;117
7;paravance-32.rennes.grid5000.fr;thermos-root-devel-WordCountTopology-1-3abeccde-757e-4a5a-94e7-a9698e529a96;["container_1_Consume_and_count_1"];4.25;1533764051.89121;37.8;478.85;5.43111454;10;151
7;paravance-24.rennes.grid5000.fr;thermos-root-devel-WordCountTopology-2-bf2c4b9a-3fd2-4a97-9411-b27aab814a93;["container_2_Emit_random_words_2"];4.25;1533764051.76866;13.64;314.16;2.334451848;10;149
7;paravance-26.rennes.grid5000.fr;thermos-root-devel-WordCountTopology-0-e7bf1839-5867-460f-809d-ba73a86905cc;["topology_master"];4.25;1533764051.77262;3.0;8.75;0.001427412;9;117
8;paravance-24.rennes.grid5000.fr;thermos-root-devel-WordCountTopology-2-bf2c4b9a-3fd2-4a97-9411-b27aab814a93;["container_2_Emit_random_words_2"];4.25;1533764061.98518;14.28;331.98;2.334451848;10;149
8;paravance-26.rennes.grid5000.fr;thermos-root-devel-WordCountTopology-0-e7bf1839-5867-460f-809d-ba73a86905cc;["topology_master"];4.25;1533764061.98919;3.06;8.82;0.001427412;9;117
8;paravance-32.rennes.grid5000.fr;thermos-root-devel-WordCountTopology-1-3abeccde-757e-4a5a-94e7-a9698e529a96;["container_1_Consume_and_count_1"];4.25;1533764062.10966;39.95;508.39;5.43111454;10;151
9;paravance-26.rennes.grid5000.fr;thermos-root-devel-WordCountTopology-0-e7bf1839-5867-460f-809d-ba73a86905cc;["topology_master"];4.25;1533764072.20447;3.12;8.9;0.001427412;9;117
9;paravance-32.rennes.grid5000.fr;thermos-root-devel-WordCountTopology-1-3abeccde-757e-4a5a-94e7-a9698e529a96;["container_1_Consume_and_count_1"];4.25;1533764072.32733;42.28;537.53;5.43111454;10;151
9;paravance-24.rennes.grid5000.fr;thermos-root-devel-WordCountTopology-2-bf2c4b9a-3fd2-4a97-9411-b27aab814a93;["container_2_Emit_random_words_2"];4.25;1533764072.20278;14.94;350.05;2.334451848;10;149
10;paravance-26.rennes.grid5000.fr;thermos-root-devel-WordCountTopology-0-e7bf1839-5867-460f-809d-ba73a86905cc;["topology_master"];4.25;1533764082.42311;3.17;8.97;0.001427412;9;117
10;paravance-24.rennes.grid5000.fr;thermos-root-devel-WordCountTopology-2-bf2c4b9a-3fd2-4a97-9411-b27aab814a93;["container_2_Emit_random_words_2"];4.25;1533764082.42;15.59;368.1;2.334451848;10;149
10;paravance-32.rennes.grid5000.fr;thermos-root-devel-WordCountTopology-1-3abeccde-757e-4a5a-94e7-a9698e529a96;["container_1_Consume_and_count_1"];4.25;1533764082.54525;44.38;567.04;5.43111454;10;151
11;paravance-24.rennes.grid5000.fr;thermos-root-devel-WordCountTopology-2-bf2c4b9a-3fd2-4a97-9411-b27aab814a93;["container_2_Emit_random_words_2"];4.25;1533764092.6357;16.3;386.34;2.334451848;10;149
11;paravance-32.rennes.grid5000.fr;thermos-root-devel-WordCountTopology-1-3abeccde-757e-4a5a-94e7-a9698e529a96;["container_1_Consume_and_count_1"];4.25;1533764092.76231;46.45;595.49;5.435056901;10;151
11;paravance-26.rennes.grid5000.fr;thermos-root-devel-WordCountTopology-0-e7bf1839-5867-460f-809d-ba73a86905cc;["topology_master"];4.25;1533764092.6405;3.3;9.26;0.001427412;9;117
12;paravance-32.rennes.grid5000.fr;thermos-root-devel-WordCountTopology-1-3abeccde-757e-4a5a-94e7-a9698e529a96;["container_1_Consume_and_count_1"];4.25;1533764102.97575;48.72;624.67;5.435056901;10;151
12;paravance-24.rennes.grid5000.fr;thermos-root-devel-WordCountTopology-2-bf2c4b9a-3fd2-4a97-9411-b27aab814a93;["container_2_Emit_random_words_2"];4.25;1533764102.85261;16.94;404.48;2.334451848;10;149
12;paravance-26.rennes.grid5000.fr;thermos-root-devel-WordCountTopology-0-e7bf1839-5867-460f-809d-ba73a86905cc;["topology_master"];4.25;1533764102.85738;3.32;9.29;0.001427412;9;117
13;paravance-24.rennes.grid5000.fr;thermos-root-devel-WordCountTopology-2-bf2c4b9a-3fd2-4a97-9411-b27aab814a93;["container_2_Emit_random_words_2"];4.25;1533764113.06871;17.62;422.66;2.334451848;10;149
13;paravance-32.rennes.grid5000.fr;thermos-root-devel-WordCountTopology-1-3abeccde-757e-4a5a-94e7-a9698e529a96;["container_1_Consume_and_count_1"];4.25;1533764113.19317;51.1;654.12;5.439109755;10;151
13;paravance-26.rennes.grid5000.fr;thermos-root-devel-WordCountTopology-0-e7bf1839-5867-460f-809d-ba73a86905cc;["topology_master"];4.25;1533764113.07401;3.41;9.44;0.001427412;9;117
14;paravance-32.rennes.grid5000.fr;thermos-root-devel-WordCountTopology-1-3abeccde-757e-4a5a-94e7-a9698e529a96;["container_1_Consume_and_count_1"];4.25;1533764123.40944;53.51;684.12;5.439109755;10;151
14;paravance-24.rennes.grid5000.fr;thermos-root-devel-WordCountTopology-2-bf2c4b9a-3fd2-4a97-9411-b27aab814a93;["container_2_Emit_random_words_2"];4.25;1533764123.28813;18.26;440.73;2.334451848;10;149
14;paravance-26.rennes.grid5000.fr;thermos-root-devel-WordCountTopology-0-e7bf1839-5867-460f-809d-ba73a86905cc;["topology_master"];4.25;1533764123.29132;3.47;9.51;0.001427412;9;117
15;paravance-32.rennes.grid5000.fr;thermos-root-devel-WordCountTopology-1-3abeccde-757e-4a5a-94e7-a9698e529a96;["container_1_Consume_and_count_1"];4.25;1533764133.62986;55.99;713.55;5.439109755;10;151
15;paravance-24.rennes.grid5000.fr;thermos-root-devel-WordCountTopology-2-bf2c4b9a-3fd2-4a97-9411-b27aab814a93;["container_2_Emit_random_words_2"];4.25;1533764133.50512;18.9;458.87;2.334451848;10;149
15;paravance-26.rennes.grid5000.fr;thermos-root-devel-WordCountTopology-0-e7bf1839-5867-460f-809d-ba73a86905cc;["topology_master"];4.25;1533764133.51041;3.52;9.6;0.001427412;9;117
16;paravance-32.rennes.grid5000.fr;thermos-root-devel-WordCountTopology-1-3abeccde-757e-4a5a-94e7-a9698e529a96;["container_1_Consume_and_count_1"];4.25;1533764143.84396;58.28;743.01;5.439109755;10;151
16;paravance-24.rennes.grid5000.fr;thermos-root-devel-WordCountTopology-2-bf2c4b9a-3fd2-4a97-9411-b27aab814a93;["container_2_Emit_random_words_2"];4.25;1533764143.71984;19.56;477.07;2.334451848;10;149
16;paravance-26.rennes.grid5000.fr;thermos-root-devel-WordCountTopology-0-e7bf1839-5867-460f-809d-ba73a86905cc;["topology_master"];4.25;1533764143.72495;3.58;9.67;0.001427412;9;117
17;paravance-32.rennes.grid5000.fr;thermos-root-devel-WordCountTopology-1-3abeccde-757e-4a5a-94e7-a9698e529a96;["container_1_Consume_and_count_1"];4.25;1533764154.05843;60.67;772.91;5.479707441;10;151
17;paravance-24.rennes.grid5000.fr;thermos-root-devel-WordCountTopology-2-bf2c4b9a-3fd2-4a97-9411-b27aab814a93;["container_2_Emit_random_words_2"];4.25;1533764153.935;20.27;495.27;2.334451848;10;149
17;paravance-26.rennes.grid5000.fr;thermos-root-devel-WordCountTopology-0-e7bf1839-5867-460f-809d-ba73a86905cc;["topology_master"];4.25;1533764153.93994;3.69;9.86;0.001427412;9;117
18;paravance-32.rennes.grid5000.fr;thermos-root-devel-WordCountTopology-1-3abeccde-757e-4a5a-94e7-a9698e529a96;["container_1_Consume_and_count_1"];4.25;1533764164.27337;62.63;803.02;5.479707441;10;151
18;paravance-24.rennes.grid5000.fr;thermos-root-devel-WordCountTopology-2-bf2c4b9a-3fd2-4a97-9411-b27aab814a93;["container_2_Emit_random_words_2"];4.25;1533764164.14967;20.89;513.29;2.334451848;10;149
18;paravance-26.rennes.grid5000.fr;thermos-root-devel-WordCountTopology-0-e7bf1839-5867-460f-809d-ba73a86905cc;["topology_master"];4.25;1533764164.15482;3.72;9.89;0.001427412;9;117
19;paravance-32.rennes.grid5000.fr;thermos-root-devel-WordCountTopology-1-3abeccde-757e-4a5a-94e7-a9698e529a96;["container_1_Consume_and_count_1"];4.25;1533764174.49058;65.13;832.92;5.479707441;10;151
19;paravance-24.rennes.grid5000.fr;thermos-root-devel-WordCountTopology-2-bf2c4b9a-3fd2-4a97-9411-b27aab814a93;["container_2_Emit_random_words_2"];4.25;1533764174.36783;21.58;531.47;2.334451848;10;149
19;paravance-26.rennes.grid5000.fr;thermos-root-devel-WordCountTopology-0-e7bf1839-5867-460f-809d-ba73a86905cc;["topology_master"];4.25;1533764174.37174;3.81;10.03;0.001427412;9;117
20;paravance-26.rennes.grid5000.fr;thermos-root-devel-WordCountTopology-0-e7bf1839-5867-460f-809d-ba73a86905cc;["topology_master"];4.25;1533764184.48842;3.86;10.1;0.001427412;9;117
20;paravance-32.rennes.grid5000.fr;thermos-root-devel-WordCountTopology-1-3abeccde-757e-4a5a-94e7-a9698e529a96;["container_1_Consume_and_count_1"];4.25;1533764184.70689;67.27;862.93;5.479707441;10;151
20;paravance-24.rennes.grid5000.fr;thermos-root-devel-WordCountTopology-2-bf2c4b9a-3fd2-4a97-9411-b27aab814a93;["container_2_Emit_random_words_2"];4.25;1533764184.58416;22.25;549.58;2.334451848;10;149
21;paravance-32.rennes.grid5000.fr;thermos-root-devel-WordCountTopology-1-3abeccde-757e-4a5a-94e7-a9698e529a96;["container_1_Consume_and_count_1"];4.25;1533764194.92359;69.46;892.48;5.479707441;10;151
21;paravance-24.rennes.grid5000.fr;thermos-root-devel-WordCountTopology-2-bf2c4b9a-3fd2-4a97-9411-b27aab814a93;["container_2_Emit_random_words_2"];4.25;1533764194.8006;22.93;567.81;2.334451848;10;149
21;paravance-26.rennes.grid5000.fr;thermos-root-devel-WordCountTopology-0-e7bf1839-5867-460f-809d-ba73a86905cc;["topology_master"];4.25;1533764194.80518;3.92;10.17;0.001427412;9;117
22;paravance-24.rennes.grid5000.fr;thermos-root-devel-WordCountTopology-2-bf2c4b9a-3fd2-4a97-9411-b27aab814a93;["container_2_Emit_random_words_2"];4.25;1533764205.01796;23.59;586.02;2.334451848;10;149
22;paravance-32.rennes.grid5000.fr;thermos-root-devel-WordCountTopology-1-3abeccde-757e-4a5a-94e7-a9698e529a96;["container_1_Consume_and_count_1"];4.25;1533764205.14416;71.62;921.62;5.479707441;10;151
22;paravance-26.rennes.grid5000.fr;thermos-root-devel-WordCountTopology-0-e7bf1839-5867-460f-809d-ba73a86905cc;["topology_master"];4.25;1533764205.02266;3.97;10.24;0.001427412;9;117
23;paravance-32.rennes.grid5000.fr;thermos-root-devel-WordCountTopology-1-3abeccde-757e-4a5a-94e7-a9698e529a96;["container_1_Consume_and_count_1"];4.25;1533764215.35942;73.81;950.96;5.479707441;10;151
23;paravance-24.rennes.grid5000.fr;thermos-root-devel-WordCountTopology-2-bf2c4b9a-3fd2-4a97-9411-b27aab814a93;["container_2_Emit_random_words_2"];4.25;1533764215.23589;24.29;604.22;2.334451848;10;149
23;paravance-26.rennes.grid5000.fr;thermos-root-devel-WordCountTopology-0-e7bf1839-5867-460f-809d-ba73a86905cc;["topology_master"];4.25;1533764215.24109;4.08;10.42;0.001427412;9;117
24;paravance-32.rennes.grid5000.fr;thermos-root-devel-WordCountTopology-1-3abeccde-757e-4a5a-94e7-a9698e529a96;["container_1_Consume_and_count_1"];4.25;1533764225.57714;75.84;981.48;5.479707441;10;151
24;paravance-26.rennes.grid5000.fr;thermos-root-devel-WordCountTopology-0-e7bf1839-5867-460f-809d-ba73a86905cc;["topology_master"];4.25;1533764225.45834;4.1;10.45;0.001427412;9;117
24;paravance-24.rennes.grid5000.fr;thermos-root-devel-WordCountTopology-2-bf2c4b9a-3fd2-4a97-9411-b27aab814a93;["container_2_Emit_random_words_2"];4.25;1533764225.45403;24.93;622.35;2.334451848;10;149
25;paravance-24.rennes.grid5000.fr;thermos-root-devel-WordCountTopology-2-bf2c4b9a-3fd2-4a97-9411-b27aab814a93;["container_2_Emit_random_words_2"];4.25;1533764235.66996;25.59;640.24;2.334451848;10;149
25;paravance-32.rennes.grid5000.fr;thermos-root-devel-WordCountTopology-1-3abeccde-757e-4a5a-94e7-a9698e529a96;["container_1_Consume_and_count_1"];4.25;1533764235.79385;78.21;1010.78;5.479707441;10;151
25;paravance-26.rennes.grid5000.fr;thermos-root-devel-WordCountTopology-0-e7bf1839-5867-460f-809d-ba73a86905cc;["topology_master"];4.25;1533764235.67609;4.18;10.57;0.001427412;9;117
26;paravance-32.rennes.grid5000.fr;thermos-root-devel-WordCountTopology-1-3abeccde-757e-4a5a-94e7-a9698e529a96;["container_1_Consume_and_count_1"];4.25;1533764246.01223;80.37;1040.46;5.479707441;10;151
26;paravance-24.rennes.grid5000.fr;thermos-root-devel-WordCountTopology-2-bf2c4b9a-3fd2-4a97-9411-b27aab814a93;["container_2_Emit_random_words_2"];4.25;1533764245.88787;26.25;658.41;2.334451848;10;149
26;paravance-26.rennes.grid5000.fr;thermos-root-devel-WordCountTopology-0-e7bf1839-5867-460f-809d-ba73a86905cc;["topology_master"];4.25;1533764245.89226;4.24;10.64;0.001427412;9;117
27;paravance-32.rennes.grid5000.fr;thermos-root-devel-WordCountTopology-1-3abeccde-757e-4a5a-94e7-a9698e529a96;["container_1_Consume_and_count_1"];4.25;1533764256.22818;82.6;1069.54;5.479707441;10;151
27;paravance-26.rennes.grid5000.fr;thermos-root-devel-WordCountTopology-0-e7bf1839-5867-460f-809d-ba73a86905cc;["topology_master"];4.25;1533764256.10966;4.3;10.72;0.001427412;9;117
27;paravance-24.rennes.grid5000.fr;thermos-root-devel-WordCountTopology-2-bf2c4b9a-3fd2-4a97-9411-b27aab814a93;["container_2_Emit_random_words_2"];4.25;1533764256.10438;26.91;676.39;2.334451848;10;149
28;paravance-32.rennes.grid5000.fr;thermos-root-devel-WordCountTopology-1-3abeccde-757e-4a5a-94e7-a9698e529a96;["container_1_Consume_and_count_1"];4.25;1533764266.44523;85.13;1098.57;5.479707441;10;151
28;paravance-24.rennes.grid5000.fr;thermos-root-devel-WordCountTopology-2-bf2c4b9a-3fd2-4a97-9411-b27aab814a93;["container_2_Emit_random_words_2"];4.25;1533764266.32143;27.61;694.45;2.334451848;10;149
28;paravance-26.rennes.grid5000.fr;thermos-root-devel-WordCountTopology-0-e7bf1839-5867-460f-809d-ba73a86905cc;["topology_master"];4.25;1533764266.32664;4.4;10.86;0.001427412;9;117
29;paravance-24.rennes.grid5000.fr;thermos-root-devel-WordCountTopology-2-bf2c4b9a-3fd2-4a97-9411-b27aab814a93;["container_2_Emit_random_words_2"];4.25;1533764276.5375;28.27;712.46;2.334451848;10;149
29;paravance-32.rennes.grid5000.fr;thermos-root-devel-WordCountTopology-1-3abeccde-757e-4a5a-94e7-a9698e529a96;["container_1_Consume_and_count_1"];4.25;1533764276.66172;86.97;1126.36;5.479707441;10;151
29;paravance-26.rennes.grid5000.fr;thermos-root-devel-WordCountTopology-0-e7bf1839-5867-460f-809d-ba73a86905cc;["topology_master"];4.25;1533764276.54374;4.47;10.99;0.001427412;9;117
30;paravance-32.rennes.grid5000.fr;thermos-root-devel-WordCountTopology-1-3abeccde-757e-4a5a-94e7-a9698e529a96;["container_1_Consume_and_count_1"];4.25;1533764286.8777;89.02;1155.27;5.479707441;10;151
30;paravance-24.rennes.grid5000.fr;thermos-root-devel-WordCountTopology-2-bf2c4b9a-3fd2-4a97-9411-b27aab814a93;["container_2_Emit_random_words_2"];4.25;1533764286.75424;28.93;730.53;2.334451848;10;149
30;paravance-26.rennes.grid5000.fr;thermos-root-devel-WordCountTopology-0-e7bf1839-5867-460f-809d-ba73a86905cc;["topology_master"];4.25;1533764286.7598;4.53;11.07;0.001427412;9;117
31;paravance-24.rennes.grid5000.fr;thermos-root-devel-WordCountTopology-2-bf2c4b9a-3fd2-4a97-9411-b27aab814a93;["container_2_Emit_random_words_2"];4.25;1533764296.97085;29.59;748.41;2.334451848;10;149
31;paravance-32.rennes.grid5000.fr;thermos-root-devel-WordCountTopology-1-3abeccde-757e-4a5a-94e7-a9698e529a96;["container_1_Consume_and_count_1"];4.25;1533764297.09541;90.96;1183.18;5.479707441;10;151
31;paravance-26.rennes.grid5000.fr;thermos-root-devel-WordCountTopology-0-e7bf1839-5867-460f-809d-ba73a86905cc;["topology_master"];4.25;1533764296.97637;4.59;11.15;0.001427412;9;117
32;paravance-32.rennes.grid5000.fr;thermos-root-devel-WordCountTopology-1-3abeccde-757e-4a5a-94e7-a9698e529a96;["container_1_Consume_and_count_1"];4.25;1533764307.31195;92.65;1211.35;5.479707441;10;151
32;paravance-24.rennes.grid5000.fr;thermos-root-devel-WordCountTopology-2-bf2c4b9a-3fd2-4a97-9411-b27aab814a93;["container_2_Emit_random_words_2"];4.25;1533764307.18837;30.27;766.56;2.334451848;10;149
32;paravance-26.rennes.grid5000.fr;thermos-root-devel-WordCountTopology-0-e7bf1839-5867-460f-809d-ba73a86905cc;["topology_master"];4.25;1533764307.19349;4.68;11.27;0.001427412;9;117
33;paravance-32.rennes.grid5000.fr;thermos-root-devel-WordCountTopology-1-3abeccde-757e-4a5a-94e7-a9698e529a96;["container_1_Consume_and_count_1"];4.25;1533764317.52786;94.78;1240.96;5.479707441;10;151
33;paravance-26.rennes.grid5000.fr;thermos-root-devel-WordCountTopology-0-e7bf1839-5867-460f-809d-ba73a86905cc;["topology_master"];4.25;1533764317.411;4.71;11.3;0.001427412;9;117
33;paravance-24.rennes.grid5000.fr;thermos-root-devel-WordCountTopology-2-bf2c4b9a-3fd2-4a97-9411-b27aab814a93;["container_2_Emit_random_words_2"];4.25;1533764317.40464;30.94;784.59;2.334451848;10;149
34;paravance-32.rennes.grid5000.fr;thermos-root-devel-WordCountTopology-1-3abeccde-757e-4a5a-94e7-a9698e529a96;["container_1_Consume_and_count_1"];4.25;1533764327.74604;96.95;1269.66;5.479707441;10;151
34;paravance-24.rennes.grid5000.fr;thermos-root-devel-WordCountTopology-2-bf2c4b9a-3fd2-4a97-9411-b27aab814a93;["container_2_Emit_random_words_2"];4.25;1533764327.62125;31.61;802.75;2.334451848;10;149
34;paravance-26.rennes.grid5000.fr;thermos-root-devel-WordCountTopology-0-e7bf1839-5867-460f-809d-ba73a86905cc;["topology_master"];4.25;1533764327.62683;4.8;11.42;0.001427412;9;117
35;paravance-32.rennes.grid5000.fr;thermos-root-devel-WordCountTopology-1-3abeccde-757e-4a5a-94e7-a9698e529a96;["container_1_Consume_and_count_1"];4.25;1533764337.96161;99.04;1299.93;5.479707441;10;151
35;paravance-24.rennes.grid5000.fr;thermos-root-devel-WordCountTopology-2-bf2c4b9a-3fd2-4a97-9411-b27aab814a93;["container_2_Emit_random_words_2"];4.25;1533764337.83877;32.29;820.99;2.334451848;10;149
35;paravance-26.rennes.grid5000.fr;thermos-root-devel-WordCountTopology-0-e7bf1839-5867-460f-809d-ba73a86905cc;["topology_master"];4.25;1533764337.84427;4.86;11.56;0.001427412;9;117
36;paravance-32.rennes.grid5000.fr;thermos-root-devel-WordCountTopology-1-3abeccde-757e-4a5a-94e7-a9698e529a96;["container_1_Consume_and_count_1"];4.25;1533764348.1778;100.86;1328.29;5.479707441;10;151
36;paravance-24.rennes.grid5000.fr;thermos-root-devel-WordCountTopology-2-bf2c4b9a-3fd2-4a97-9411-b27aab814a93;["container_2_Emit_random_words_2"];4.25;1533764348.05429;32.96;839.07;2.334451848;10;149
36;paravance-26.rennes.grid5000.fr;thermos-root-devel-WordCountTopology-0-e7bf1839-5867-460f-809d-ba73a86905cc;["topology_master"];4.25;1533764348.06017;4.95;11.68;0.001427412;9;117
37;paravance-32.rennes.grid5000.fr;thermos-root-devel-WordCountTopology-1-3abeccde-757e-4a5a-94e7-a9698e529a96;["container_1_Consume_and_count_1"];4.25;1533764358.39332;102.62;1356.9;5.479707441;10;151
37;paravance-24.rennes.grid5000.fr;thermos-root-devel-WordCountTopology-2-bf2c4b9a-3fd2-4a97-9411-b27aab814a93;["container_2_Emit_random_words_2"];4.25;1533764358.27098;33.59;857.06;2.334451848;10;149
37;paravance-26.rennes.grid5000.fr;thermos-root-devel-WordCountTopology-0-e7bf1839-5867-460f-809d-ba73a86905cc;["topology_master"];4.25;1533764358.27622;4.97;11.71;0.001427412;9;117
38;paravance-24.rennes.grid5000.fr;thermos-root-devel-WordCountTopology-2-bf2c4b9a-3fd2-4a97-9411-b27aab814a93;["container_2_Emit_random_words_2"];4.25;1533764368.48549;34.27;875.29;2.334451848;10;149
38;paravance-32.rennes.grid5000.fr;thermos-root-devel-WordCountTopology-1-3abeccde-757e-4a5a-94e7-a9698e529a96;["container_1_Consume_and_count_1"];4.25;1533764368.61117;104.66;1385.52;5.479707441;10;151
38;paravance-26.rennes.grid5000.fr;thermos-root-devel-WordCountTopology-0-e7bf1839-5867-460f-809d-ba73a86905cc;["topology_master"];4.25;1533764368.49285;5.06;11.83;0.001427412;9;117
39;paravance-24.rennes.grid5000.fr;thermos-root-devel-WordCountTopology-2-bf2c4b9a-3fd2-4a97-9411-b27aab814a93;["container_2_Emit_random_words_2"];4.25;1533764378.70182;34.93;893.36;2.334451848;10;149
39;paravance-26.rennes.grid5000.fr;thermos-root-devel-WordCountTopology-0-e7bf1839-5867-460f-809d-ba73a86905cc;["topology_master"];4.25;1533764378.70666;5.11;11.9;0.001427412;9;117
39;paravance-32.rennes.grid5000.fr;thermos-root-devel-WordCountTopology-1-3abeccde-757e-4a5a-94e7-a9698e529a96;["container_1_Consume_and_count_1"];4.25;1533764378.82626;106.47;1414.26;5.479707441;10;151
40;paravance-32.rennes.grid5000.fr;thermos-root-devel-WordCountTopology-1-3abeccde-757e-4a5a-94e7-a9698e529a96;["container_1_Consume_and_count_1"];4.25;1533764389.04244;108.45;1442.77;5.479707441;10;151
40;paravance-24.rennes.grid5000.fr;thermos-root-devel-WordCountTopology-2-bf2c4b9a-3fd2-4a97-9411-b27aab814a93;["container_2_Emit_random_words_2"];4.25;1533764388.91889;35.58;911.51;2.334451848;10;149
40;paravance-26.rennes.grid5000.fr;thermos-root-devel-WordCountTopology-0-e7bf1839-5867-460f-809d-ba73a86905cc;["topology_master"];4.25;1533764388.92496;5.18;11.99;0.001427412;9;117
41;paravance-32.rennes.grid5000.fr;thermos-root-devel-WordCountTopology-1-3abeccde-757e-4a5a-94e7-a9698e529a96;["container_1_Consume_and_count_1"];4.25;1533764399.25897;110.81;1471.83;5.479707441;10;151
41;paravance-24.rennes.grid5000.fr;thermos-root-devel-WordCountTopology-2-bf2c4b9a-3fd2-4a97-9411-b27aab814a93;["container_2_Emit_random_words_2"];4.25;1533764399.13492;36.25;929.68;2.334451848;10;149
41;paravance-26.rennes.grid5000.fr;thermos-root-devel-WordCountTopology-0-e7bf1839-5867-460f-809d-ba73a86905cc;["topology_master"];4.25;1533764399.14128;5.24;12.16;0.001427412;9;117
42;paravance-32.rennes.grid5000.fr;thermos-root-devel-WordCountTopology-1-3abeccde-757e-4a5a-94e7-a9698e529a96;["container_1_Consume_and_count_1"];4.25;1533764409.47469;112.87;1500.45;5.479707441;10;151
42;paravance-24.rennes.grid5000.fr;thermos-root-devel-WordCountTopology-2-bf2c4b9a-3fd2-4a97-9411-b27aab814a93;["container_2_Emit_random_words_2"];4.25;1533764409.35214;36.95;947.76;2.334451848;10;149
42;paravance-26.rennes.grid5000.fr;thermos-root-devel-WordCountTopology-0-e7bf1839-5867-460f-809d-ba73a86905cc;["topology_master"];4.25;1533764409.35802;5.33;12.28;0.001427412;9;117
43;paravance-32.rennes.grid5000.fr;thermos-root-devel-WordCountTopology-1-3abeccde-757e-4a5a-94e7-a9698e529a96;["container_1_Consume_and_count_1"];4.25;1533764419.69013;115.08;1527.59;5.479707441;10;151
43;paravance-24.rennes.grid5000.fr;thermos-root-devel-WordCountTopology-2-bf2c4b9a-3fd2-4a97-9411-b27aab814a93;["container_2_Emit_random_words_2"];4.25;1533764419.56752;37.57;965.6;2.334451848;10;149
43;paravance-26.rennes.grid5000.fr;thermos-root-devel-WordCountTopology-0-e7bf1839-5867-460f-809d-ba73a86905cc;["topology_master"];4.25;1533764419.57425;5.35;12.31;0.001427412;9;117
44;paravance-32.rennes.grid5000.fr;thermos-root-devel-WordCountTopology-1-3abeccde-757e-4a5a-94e7-a9698e529a96;["container_1_Consume_and_count_1"];4.25;1533764429.90774;117.35;1555.91;5.479707441;10;151
44;paravance-24.rennes.grid5000.fr;thermos-root-devel-WordCountTopology-2-bf2c4b9a-3fd2-4a97-9411-b27aab814a93;["container_2_Emit_random_words_2"];4.25;1533764429.78424;38.25;983.79;2.334451848;10;149
44;paravance-26.rennes.grid5000.fr;thermos-root-devel-WordCountTopology-0-e7bf1839-5867-460f-809d-ba73a86905cc;["topology_master"];4.25;1533764429.78933;5.44;12.43;0.001427412;9;117
45;paravance-26.rennes.grid5000.fr;thermos-root-devel-WordCountTopology-0-e7bf1839-5867-460f-809d-ba73a86905cc;["topology_master"];4.25;1533764439.90624;5.49;12.5;0.001427412;9;117
45;paravance-32.rennes.grid5000.fr;thermos-root-devel-WordCountTopology-1-3abeccde-757e-4a5a-94e7-a9698e529a96;["container_1_Consume_and_count_1"];4.25;1533764440.12492;120.07;1583.36;5.479707441;10;151
45;paravance-24.rennes.grid5000.fr;thermos-root-devel-WordCountTopology-2-bf2c4b9a-3fd2-4a97-9411-b27aab814a93;["container_2_Emit_random_words_2"];4.25;1533764440.00052;38.89;1001.71;2.334451848;10;149
46;paravance-24.rennes.grid5000.fr;thermos-root-devel-WordCountTopology-2-bf2c4b9a-3fd2-4a97-9411-b27aab814a93;["container_2_Emit_random_words_2"];4.25;1533764450.11358;39.55;1019.69;2.334451848;10;149
46;paravance-32.rennes.grid5000.fr;thermos-root-devel-WordCountTopology-1-3abeccde-757e-4a5a-94e7-a9698e529a96;["container_1_Consume_and_count_1"];4.25;1533764450.23922;122.35;1612.74;5.479707441;10;151
46;paravance-26.rennes.grid5000.fr;thermos-root-devel-WordCountTopology-0-e7bf1839-5867-460f-809d-ba73a86905cc;["topology_master"];4.25;1533764450.12127;5.56;12.59;0.001427412;9;117
47;paravance-32.rennes.grid5000.fr;thermos-root-devel-WordCountTopology-1-3abeccde-757e-4a5a-94e7-a9698e529a96;["container_1_Consume_and_count_1"];4.25;1533764460.45403;124.7;1641.18;5.479707441;10;151
47;paravance-24.rennes.grid5000.fr;thermos-root-devel-WordCountTopology-2-bf2c4b9a-3fd2-4a97-9411-b27aab814a93;["container_2_Emit_random_words_2"];4.25;1533764460.33118;40.2;1037.83;2.334451848;10;149
47;paravance-26.rennes.grid5000.fr;thermos-root-devel-WordCountTopology-0-e7bf1839-5867-460f-809d-ba73a86905cc;["topology_master"];4.25;1533764460.33698;5.62;12.7;0.001427412;9;117
48;paravance-32.rennes.grid5000.fr;thermos-root-devel-WordCountTopology-1-3abeccde-757e-4a5a-94e7-a9698e529a96;["container_1_Consume_and_count_1"];4.25;1533764470.6689;126.96;1668.76;5.479707441;10;151
48;paravance-24.rennes.grid5000.fr;thermos-root-devel-WordCountTopology-2-bf2c4b9a-3fd2-4a97-9411-b27aab814a93;["container_2_Emit_random_words_2"];4.25;1533764470.54537;40.89;1055.74;2.334451848;10;149
48;paravance-26.rennes.grid5000.fr;thermos-root-devel-WordCountTopology-0-e7bf1839-5867-460f-809d-ba73a86905cc;["topology_master"];4.25;1533764470.55255;5.71;12.83;0.001427412;9;117
49;paravance-32.rennes.grid5000.fr;thermos-root-devel-WordCountTopology-1-3abeccde-757e-4a5a-94e7-a9698e529a96;["container_1_Consume_and_count_1"];4.25;1533764480.88582;129.18;1696.34;5.479707441;10;151
49;paravance-24.rennes.grid5000.fr;thermos-root-devel-WordCountTopology-2-bf2c4b9a-3fd2-4a97-9411-b27aab814a93;["container_2_Emit_random_words_2"];4.25;1533764480.76138;41.49;1073.69;2.334451848;10;149
49;paravance-26.rennes.grid5000.fr;thermos-root-devel-WordCountTopology-0-e7bf1839-5867-460f-809d-ba73a86905cc;["topology_master"];4.25;1533764480.76743;5.74;12.86;0.001427412;9;117
50;paravance-24.rennes.grid5000.fr;thermos-root-devel-WordCountTopology-2-bf2c4b9a-3fd2-4a97-9411-b27aab814a93;["container_2_Emit_random_words_2"];4.25;1533764490.97736;42.15;1091.73;2.334451848;10;149
50;paravance-32.rennes.grid5000.fr;thermos-root-devel-WordCountTopology-1-3abeccde-757e-4a5a-94e7-a9698e529a96;["container_1_Consume_and_count_1"];4.25;1533764491.10131;131.66;1724.17;5.479707441;10;151
50;paravance-26.rennes.grid5000.fr;thermos-root-devel-WordCountTopology-0-e7bf1839-5867-460f-809d-ba73a86905cc;["topology_master"];4.25;1533764490.98341;5.83;12.99;0.001427412;9;117
51;paravance-32.rennes.grid5000.fr;thermos-root-devel-WordCountTopology-1-3abeccde-757e-4a5a-94e7-a9698e529a96;["container_1_Consume_and_count_1"];4.25;1533764501.31825;133.98;1752.73;5.479707441;10;151
51;paravance-24.rennes.grid5000.fr;thermos-root-devel-WordCountTopology-2-bf2c4b9a-3fd2-4a97-9411-b27aab814a93;["container_2_Emit_random_words_2"];4.25;1533764501.19308;42.8;1109.87;2.334451848;10;149
51;paravance-26.rennes.grid5000.fr;thermos-root-devel-WordCountTopology-0-e7bf1839-5867-460f-809d-ba73a86905cc;["topology_master"];4.25;1533764501.20237;5.88;13.06;0.001427412;9;117
52;paravance-32.rennes.grid5000.fr;thermos-root-devel-WordCountTopology-1-3abeccde-757e-4a5a-94e7-a9698e529a96;["container_1_Consume_and_count_1"];4.25;1533764511.53641;136.15;1780.34;5.479707441;10;151
52;paravance-24.rennes.grid5000.fr;thermos-root-devel-WordCountTopology-2-bf2c4b9a-3fd2-4a97-9411-b27aab814a93;["container_2_Emit_random_words_2"];4.25;1533764511.41031;43.49;1127.76;2.334451848;10;149
52;paravance-26.rennes.grid5000.fr;thermos-root-devel-WordCountTopology-0-e7bf1839-5867-460f-809d-ba73a86905cc;["topology_master"];4.25;1533764511.41727;5.95;13.17;0.001427412;9;117
53;paravance-32.rennes.grid5000.fr;thermos-root-devel-WordCountTopology-1-3abeccde-757e-4a5a-94e7-a9698e529a96;["container_1_Consume_and_count_1"];4.25;1533764521.75114;138.61;1809.0;5.479707441;10;151
53;paravance-24.rennes.grid5000.fr;thermos-root-devel-WordCountTopology-2-bf2c4b9a-3fd2-4a97-9411-b27aab814a93;["container_2_Emit_random_words_2"];4.25;1533764521.62769;44.14;1145.71;2.334451848;10;149
53;paravance-26.rennes.grid5000.fr;thermos-root-devel-WordCountTopology-0-e7bf1839-5867-460f-809d-ba73a86905cc;["topology_master"];4.25;1533764521.63552;6.01;13.24;0.001427412;9;117
54;paravance-32.rennes.grid5000.fr;thermos-root-devel-WordCountTopology-1-3abeccde-757e-4a5a-94e7-a9698e529a96;["container_1_Consume_and_count_1"];4.25;1533764531.96937;141.06;1837.37;5.479707441;10;151
54;paravance-24.rennes.grid5000.fr;thermos-root-devel-WordCountTopology-2-bf2c4b9a-3fd2-4a97-9411-b27aab814a93;["container_2_Emit_random_words_2"];4.25;1533764531.84501;44.82;1163.79;2.334451848;10;149
54;paravance-26.rennes.grid5000.fr;thermos-root-devel-WordCountTopology-0-e7bf1839-5867-460f-809d-ba73a86905cc;["topology_master"];4.25;1533764531.85198;6.1;13.39;0.001427412;9;117
55;paravance-24.rennes.grid5000.fr;thermos-root-devel-WordCountTopology-2-bf2c4b9a-3fd2-4a97-9411-b27aab814a93;["container_2_Emit_random_words_2"];4.25;1533764542.06107;45.45;1181.78;2.334451848;10;149
55;paravance-32.rennes.grid5000.fr;thermos-root-devel-WordCountTopology-1-3abeccde-757e-4a5a-94e7-a9698e529a96;["container_1_Consume_and_count_1"];4.25;1533764542.18654;143.49;1865.89;5.479707441;10;151
55;paravance-26.rennes.grid5000.fr;thermos-root-devel-WordCountTopology-0-e7bf1839-5867-460f-809d-ba73a86905cc;["topology_master"];4.25;1533764542.06789;6.13;13.41;0.001427412;9;117
56;paravance-32.rennes.grid5000.fr;thermos-root-devel-WordCountTopology-1-3abeccde-757e-4a5a-94e7-a9698e529a96;["container_1_Consume_and_count_1"];4.25;1533764552.39973;145.92;1894.37;5.479707441;10;151
56;paravance-24.rennes.grid5000.fr;thermos-root-devel-WordCountTopology-2-bf2c4b9a-3fd2-4a97-9411-b27aab814a93;["container_2_Emit_random_words_2"];4.25;1533764552.27977;46.12;1199.88;2.334451848;10;149
56;paravance-26.rennes.grid5000.fr;thermos-root-devel-WordCountTopology-0-e7bf1839-5867-460f-809d-ba73a86905cc;["topology_master"];4.25;1533764552.28644;6.21;13.53;0.001427412;9;117
57;paravance-32.rennes.grid5000.fr;thermos-root-devel-WordCountTopology-1-3abeccde-757e-4a5a-94e7-a9698e529a96;["container_1_Consume_and_count_1"];4.25;1533764562.62105;148.31;1922.42;5.479707441;10;151
57;paravance-26.rennes.grid5000.fr;thermos-root-devel-WordCountTopology-0-e7bf1839-5867-460f-809d-ba73a86905cc;["topology_master"];4.25;1533764562.50348;6.27;13.61;0.001427412;9;117
57;paravance-24.rennes.grid5000.fr;thermos-root-devel-WordCountTopology-2-bf2c4b9a-3fd2-4a97-9411-b27aab814a93;["container_2_Emit_random_words_2"];4.25;1533764562.49839;46.75;1217.78;2.334451848;10;149
58;paravance-32.rennes.grid5000.fr;thermos-root-devel-WordCountTopology-1-3abeccde-757e-4a5a-94e7-a9698e529a96;["container_1_Consume_and_count_1"];4.25;1533764572.83594;150.73;1950.15;5.479707441;10;151
58;paravance-24.rennes.grid5000.fr;thermos-root-devel-WordCountTopology-2-bf2c4b9a-3fd2-4a97-9411-b27aab814a93;["container_2_Emit_random_words_2"];4.25;1533764572.71316;47.44;1235.65;2.334451848;10;149
58;paravance-26.rennes.grid5000.fr;thermos-root-devel-WordCountTopology-0-e7bf1839-5867-460f-809d-ba73a86905cc;["topology_master"];4.25;1533764572.71909;6.35;13.72;0.001427412;9;117
59;paravance-24.rennes.grid5000.fr;thermos-root-devel-WordCountTopology-2-bf2c4b9a-3fd2-4a97-9411-b27aab814a93;["container_2_Emit_random_words_2"];4.25;1533764582.92778;48.08;1253.64;2.334451848;10;149
59;paravance-32.rennes.grid5000.fr;thermos-root-devel-WordCountTopology-1-3abeccde-757e-4a5a-94e7-a9698e529a96;["container_1_Consume_and_count_1"];4.25;1533764583.05351;152.92;1978.55;5.479707441;10;151
59;paravance-26.rennes.grid5000.fr;thermos-root-devel-WordCountTopology-0-e7bf1839-5867-460f-809d-ba73a86905cc;["topology_master"];4.25;1533764582.93461;6.41;13.8;0.001427412;9;117
60;paravance-32.rennes.grid5000.fr;thermos-root-devel-WordCountTopology-1-3abeccde-757e-4a5a-94e7-a9698e529a96;["container_1_Consume_and_count_1"];4.25;1533764593.26875;155.3;2007.28;5.479707441;10;151
60;paravance-24.rennes.grid5000.fr;thermos-root-devel-WordCountTopology-2-bf2c4b9a-3fd2-4a97-9411-b27aab814a93;["container_2_Emit_random_words_2"];4.25;1533764593.14582;48.76;1271.67;2.334451848;10;149
60;paravance-26.rennes.grid5000.fr;thermos-root-devel-WordCountTopology-0-e7bf1839-5867-460f-809d-ba73a86905cc;["topology_master"];4.25;1533764593.15231;6.49;13.92;0.001427412;9;117
