mesure_id;slave_id;executor_id;heron_instances;cpus_limit;timestamp_B;cpus_system_time_secs_B;cpus_user_time_secs_B;cpus_throttled_time_secs_B;processes;threads
0;paravance-71.rennes.grid5000.fr;thermos-root-devel-WordCountTopology-1-068e3942-7672-4cf6-a15b-2985cd09ae63;["container_1_Consume_and_count_1"];4.25;1533805235.81041;46.84;262.28;3.459010536;10;151
0;paravance-69.rennes.grid5000.fr;thermos-root-devel-WordCountTopology-0-54eb3ed9-db2f-4d55-bb80-9b91db4dc2e2;["topology_master"];4.25;1533805235.68446;2.38;8.06;0.0;9;117
0;paravance-72.rennes.grid5000.fr;thermos-root-devel-WordCountTopology-2-d81e1fdd-2d0e-4a04-949e-e824f6f7ff99;["container_2_Emit_random_words_2"];4.25;1533805235.68891;17.34;197.63;3.00274622;10;149
1;paravance-71.rennes.grid5000.fr;thermos-root-devel-WordCountTopology-1-068e3942-7672-4cf6-a15b-2985cd09ae63;["container_1_Consume_and_count_1"];4.25;1533805246.02711;51.67;288.36;3.459010536;10;151
1;paravance-72.rennes.grid5000.fr;thermos-root-devel-WordCountTopology-2-d81e1fdd-2d0e-4a04-949e-e824f6f7ff99;["container_2_Emit_random_words_2"];4.25;1533805245.90505;18.85;216.64;3.00274622;10;149
1;paravance-69.rennes.grid5000.fr;thermos-root-devel-WordCountTopology-0-54eb3ed9-db2f-4d55-bb80-9b91db4dc2e2;["topology_master"];4.25;1533805245.90132;2.47;8.18;0.0;9;117
2;paravance-71.rennes.grid5000.fr;thermos-root-devel-WordCountTopology-1-068e3942-7672-4cf6-a15b-2985cd09ae63;["container_1_Consume_and_count_1"];4.25;1533805256.14393;56.3;314.41;3.459010536;10;151
2;paravance-72.rennes.grid5000.fr;thermos-root-devel-WordCountTopology-2-d81e1fdd-2d0e-4a04-949e-e824f6f7ff99;["container_2_Emit_random_words_2"];4.25;1533805256.12157;20.36;235.55;3.00274622;10;149
2;paravance-69.rennes.grid5000.fr;thermos-root-devel-WordCountTopology-0-54eb3ed9-db2f-4d55-bb80-9b91db4dc2e2;["topology_master"];4.25;1533805256.11848;2.53;8.29;0.0;9;117
3;paravance-71.rennes.grid5000.fr;thermos-root-devel-WordCountTopology-1-068e3942-7672-4cf6-a15b-2985cd09ae63;["container_1_Consume_and_count_1"];4.25;1533805266.35882;60.88;341.48;4.277344717;10;151
3;paravance-72.rennes.grid5000.fr;thermos-root-devel-WordCountTopology-2-d81e1fdd-2d0e-4a04-949e-e824f6f7ff99;["container_2_Emit_random_words_2"];4.25;1533805266.33704;21.87;254.85;3.00274622;10;149
3;paravance-69.rennes.grid5000.fr;thermos-root-devel-WordCountTopology-0-54eb3ed9-db2f-4d55-bb80-9b91db4dc2e2;["topology_master"];4.25;1533805266.33384;2.59;8.37;0.0;9;117
4;paravance-71.rennes.grid5000.fr;thermos-root-devel-WordCountTopology-1-068e3942-7672-4cf6-a15b-2985cd09ae63;["container_1_Consume_and_count_1"];4.25;1533805276.68273;65.59;367.67;4.277344717;10;151
4;paravance-69.rennes.grid5000.fr;thermos-root-devel-WordCountTopology-0-54eb3ed9-db2f-4d55-bb80-9b91db4dc2e2;["topology_master"];4.25;1533805276.55737;2.65;8.44;0.0;9;117
4;paravance-72.rennes.grid5000.fr;thermos-root-devel-WordCountTopology-2-d81e1fdd-2d0e-4a04-949e-e824f6f7ff99;["container_2_Emit_random_words_2"];4.25;1533805276.5636;23.33;273.95;3.00274622;10;149
5;paravance-71.rennes.grid5000.fr;thermos-root-devel-WordCountTopology-1-068e3942-7672-4cf6-a15b-2985cd09ae63;["container_1_Consume_and_count_1"];4.25;1533805286.90059;70.33;395.15;4.282352598;10;151
5;paravance-69.rennes.grid5000.fr;thermos-root-devel-WordCountTopology-0-54eb3ed9-db2f-4d55-bb80-9b91db4dc2e2;["topology_master"];4.25;1533805286.77511;2.77;8.65;0.0;9;117
5;paravance-72.rennes.grid5000.fr;thermos-root-devel-WordCountTopology-2-d81e1fdd-2d0e-4a04-949e-e824f6f7ff99;["container_2_Emit_random_words_2"];4.25;1533805286.7826;24.83;293.42;3.00274622;10;149
6;paravance-72.rennes.grid5000.fr;thermos-root-devel-WordCountTopology-2-d81e1fdd-2d0e-4a04-949e-e824f6f7ff99;["container_2_Emit_random_words_2"];4.25;1533805296.99557;26.24;312.94;3.00274622;10;149
6;paravance-71.rennes.grid5000.fr;thermos-root-devel-WordCountTopology-1-068e3942-7672-4cf6-a15b-2985cd09ae63;["container_1_Consume_and_count_1"];4.25;1533805297.11865;74.97;424.32;4.282375121;10;151
6;paravance-69.rennes.grid5000.fr;thermos-root-devel-WordCountTopology-0-54eb3ed9-db2f-4d55-bb80-9b91db4dc2e2;["topology_master"];4.25;1533805296.99327;2.8;8.68;0.0;9;117
7;paravance-71.rennes.grid5000.fr;thermos-root-devel-WordCountTopology-1-068e3942-7672-4cf6-a15b-2985cd09ae63;["container_1_Consume_and_count_1"];4.25;1533805307.33533;79.8;452.34;4.282375121;10;151
7;paravance-69.rennes.grid5000.fr;thermos-root-devel-WordCountTopology-0-54eb3ed9-db2f-4d55-bb80-9b91db4dc2e2;["topology_master"];4.25;1533805307.21341;2.9;8.81;0.0;9;117
7;paravance-72.rennes.grid5000.fr;thermos-root-devel-WordCountTopology-2-d81e1fdd-2d0e-4a04-949e-e824f6f7ff99;["container_2_Emit_random_words_2"];4.25;1533805307.22036;27.72;332.63;3.00274622;10;149
8;paravance-71.rennes.grid5000.fr;thermos-root-devel-WordCountTopology-1-068e3942-7672-4cf6-a15b-2985cd09ae63;["container_1_Consume_and_count_1"];4.25;1533805317.45737;84.5;479.57;4.282375121;10;151
8;paravance-69.rennes.grid5000.fr;thermos-root-devel-WordCountTopology-0-54eb3ed9-db2f-4d55-bb80-9b91db4dc2e2;["topology_master"];4.25;1533805317.43148;2.95;8.89;0.0;9;117
8;paravance-72.rennes.grid5000.fr;thermos-root-devel-WordCountTopology-2-d81e1fdd-2d0e-4a04-949e-e824f6f7ff99;["container_2_Emit_random_words_2"];4.25;1533805317.43489;29.21;352.08;3.00274622;10;149
9;paravance-72.rennes.grid5000.fr;thermos-root-devel-WordCountTopology-2-d81e1fdd-2d0e-4a04-949e-e824f6f7ff99;["container_2_Emit_random_words_2"];4.25;1533805327.64926;30.65;371.71;3.00274622;10;149
9;paravance-71.rennes.grid5000.fr;thermos-root-devel-WordCountTopology-1-068e3942-7672-4cf6-a15b-2985cd09ae63;["container_1_Consume_and_count_1"];4.25;1533805327.77055;89.02;508.29;4.282375121;10;151
9;paravance-69.rennes.grid5000.fr;thermos-root-devel-WordCountTopology-0-54eb3ed9-db2f-4d55-bb80-9b91db4dc2e2;["topology_master"];4.25;1533805327.64586;3.01;8.96;0.0;9;117
10;paravance-72.rennes.grid5000.fr;thermos-root-devel-WordCountTopology-2-d81e1fdd-2d0e-4a04-949e-e824f6f7ff99;["container_2_Emit_random_words_2"];4.25;1533805337.8645;32.1;391.45;3.00274622;10;149
10;paravance-71.rennes.grid5000.fr;thermos-root-devel-WordCountTopology-1-068e3942-7672-4cf6-a15b-2985cd09ae63;["container_1_Consume_and_count_1"];4.25;1533805337.98814;93.52;534.87;4.282375121;10;151
10;paravance-69.rennes.grid5000.fr;thermos-root-devel-WordCountTopology-0-54eb3ed9-db2f-4d55-bb80-9b91db4dc2e2;["topology_master"];4.25;1533805337.86148;3.07;9.04;0.0;9;117
11;paravance-72.rennes.grid5000.fr;thermos-root-devel-WordCountTopology-2-d81e1fdd-2d0e-4a04-949e-e824f6f7ff99;["container_2_Emit_random_words_2"];4.25;1533805348.08011;33.58;410.75;3.00274622;10;149
11;paravance-71.rennes.grid5000.fr;thermos-root-devel-WordCountTopology-1-068e3942-7672-4cf6-a15b-2985cd09ae63;["container_1_Consume_and_count_1"];4.25;1533805348.20327;98.17;562.29;4.282375121;10;151
11;paravance-69.rennes.grid5000.fr;thermos-root-devel-WordCountTopology-0-54eb3ed9-db2f-4d55-bb80-9b91db4dc2e2;["topology_master"];4.25;1533805348.07889;3.2;9.33;0.0;9;117
12;paravance-71.rennes.grid5000.fr;thermos-root-devel-WordCountTopology-1-068e3942-7672-4cf6-a15b-2985cd09ae63;["container_1_Consume_and_count_1"];4.25;1533805358.41857;102.74;590.75;4.282375121;10;151
12;paravance-72.rennes.grid5000.fr;thermos-root-devel-WordCountTopology-2-d81e1fdd-2d0e-4a04-949e-e824f6f7ff99;["container_2_Emit_random_words_2"];4.25;1533805358.29622;34.99;430.36;3.00274622;10;149
12;paravance-69.rennes.grid5000.fr;thermos-root-devel-WordCountTopology-0-54eb3ed9-db2f-4d55-bb80-9b91db4dc2e2;["topology_master"];4.25;1533805358.29352;3.23;9.36;0.0;9;117
13;paravance-72.rennes.grid5000.fr;thermos-root-devel-WordCountTopology-2-d81e1fdd-2d0e-4a04-949e-e824f6f7ff99;["container_2_Emit_random_words_2"];4.25;1533805368.51278;36.47;450.01;3.00274622;10;149
13;paravance-71.rennes.grid5000.fr;thermos-root-devel-WordCountTopology-1-068e3942-7672-4cf6-a15b-2985cd09ae63;["container_1_Consume_and_count_1"];4.25;1533805368.63629;107.66;617.91;4.282375121;10;151
13;paravance-69.rennes.grid5000.fr;thermos-root-devel-WordCountTopology-0-54eb3ed9-db2f-4d55-bb80-9b91db4dc2e2;["topology_master"];4.25;1533805368.50944;3.32;9.53;0.0;9;117
14;paravance-69.rennes.grid5000.fr;thermos-root-devel-WordCountTopology-0-54eb3ed9-db2f-4d55-bb80-9b91db4dc2e2;["topology_master"];4.25;1533805378.72616;3.37;9.6;0.0;9;117
14;paravance-71.rennes.grid5000.fr;thermos-root-devel-WordCountTopology-1-068e3942-7672-4cf6-a15b-2985cd09ae63;["container_1_Consume_and_count_1"];4.25;1533805378.85435;112.26;644.9;4.282375121;10;151
14;paravance-72.rennes.grid5000.fr;thermos-root-devel-WordCountTopology-2-d81e1fdd-2d0e-4a04-949e-e824f6f7ff99;["container_2_Emit_random_words_2"];4.25;1533805378.73169;37.93;469.3;3.00274622;10;149
15;paravance-72.rennes.grid5000.fr;thermos-root-devel-WordCountTopology-2-d81e1fdd-2d0e-4a04-949e-e824f6f7ff99;["container_2_Emit_random_words_2"];4.25;1533805388.94818;39.45;488.61;3.00274622;10;149
15;paravance-71.rennes.grid5000.fr;thermos-root-devel-WordCountTopology-1-068e3942-7672-4cf6-a15b-2985cd09ae63;["container_1_Consume_and_count_1"];4.25;1533805389.07111;116.9;672.19;4.282375121;10;151
15;paravance-69.rennes.grid5000.fr;thermos-root-devel-WordCountTopology-0-54eb3ed9-db2f-4d55-bb80-9b91db4dc2e2;["topology_master"];4.25;1533805388.94411;3.43;9.69;0.0;9;117
16;paravance-72.rennes.grid5000.fr;thermos-root-devel-WordCountTopology-2-d81e1fdd-2d0e-4a04-949e-e824f6f7ff99;["container_2_Emit_random_words_2"];4.25;1533805399.16566;40.9;507.49;3.00274622;10;149
16;paravance-69.rennes.grid5000.fr;thermos-root-devel-WordCountTopology-0-54eb3ed9-db2f-4d55-bb80-9b91db4dc2e2;["topology_master"];4.25;1533805399.16131;3.49;9.77;0.0;9;117
16;paravance-71.rennes.grid5000.fr;thermos-root-devel-WordCountTopology-1-068e3942-7672-4cf6-a15b-2985cd09ae63;["container_1_Consume_and_count_1"];4.25;1533805399.28866;121.59;698.48;4.282375121;10;151
17;paravance-72.rennes.grid5000.fr;thermos-root-devel-WordCountTopology-2-d81e1fdd-2d0e-4a04-949e-e824f6f7ff99;["container_2_Emit_random_words_2"];4.25;1533805409.38291;42.37;526.93;3.00274622;10;149
17;paravance-71.rennes.grid5000.fr;thermos-root-devel-WordCountTopology-1-068e3942-7672-4cf6-a15b-2985cd09ae63;["container_1_Consume_and_count_1"];4.25;1533805409.50533;126.27;726.18;4.282375121;10;151
17;paravance-69.rennes.grid5000.fr;thermos-root-devel-WordCountTopology-0-54eb3ed9-db2f-4d55-bb80-9b91db4dc2e2;["topology_master"];4.25;1533805409.38002;3.61;9.95;0.0;9;117
18;paravance-72.rennes.grid5000.fr;thermos-root-devel-WordCountTopology-2-d81e1fdd-2d0e-4a04-949e-e824f6f7ff99;["container_2_Emit_random_words_2"];4.25;1533805419.50013;43.8;546.36;3.00274622;10;149
18;paravance-71.rennes.grid5000.fr;thermos-root-devel-WordCountTopology-1-068e3942-7672-4cf6-a15b-2985cd09ae63;["container_1_Consume_and_count_1"];4.25;1533805419.72159;130.88;753.65;4.282375121;10;151
18;paravance-69.rennes.grid5000.fr;thermos-root-devel-WordCountTopology-0-54eb3ed9-db2f-4d55-bb80-9b91db4dc2e2;["topology_master"];4.25;1533805419.59829;3.63;9.98;0.0;9;117
19;paravance-71.rennes.grid5000.fr;thermos-root-devel-WordCountTopology-1-068e3942-7672-4cf6-a15b-2985cd09ae63;["container_1_Consume_and_count_1"];4.25;1533805429.93891;135.7;780.16;4.282375121;10;151
19;paravance-72.rennes.grid5000.fr;thermos-root-devel-WordCountTopology-2-d81e1fdd-2d0e-4a04-949e-e824f6f7ff99;["container_2_Emit_random_words_2"];4.25;1533805429.81669;45.27;566.12;3.00274622;10;149
19;paravance-69.rennes.grid5000.fr;thermos-root-devel-WordCountTopology-0-54eb3ed9-db2f-4d55-bb80-9b91db4dc2e2;["topology_master"];4.25;1533805429.81421;3.72;10.11;0.0;9;117
20;paravance-72.rennes.grid5000.fr;thermos-root-devel-WordCountTopology-2-d81e1fdd-2d0e-4a04-949e-e824f6f7ff99;["container_2_Emit_random_words_2"];4.25;1533805440.03404;46.73;585.55;3.00274622;10;149
20;paravance-69.rennes.grid5000.fr;thermos-root-devel-WordCountTopology-0-54eb3ed9-db2f-4d55-bb80-9b91db4dc2e2;["topology_master"];4.25;1533805440.03027;3.78;10.18;0.0;9;117
20;paravance-71.rennes.grid5000.fr;thermos-root-devel-WordCountTopology-1-068e3942-7672-4cf6-a15b-2985cd09ae63;["container_1_Consume_and_count_1"];4.25;1533805440.15735;140.26;807.09;4.282375121;10;151
21;paravance-71.rennes.grid5000.fr;thermos-root-devel-WordCountTopology-1-068e3942-7672-4cf6-a15b-2985cd09ae63;["container_1_Consume_and_count_1"];4.25;1533805450.37357;144.93;834.43;4.282397241;10;151
21;paravance-69.rennes.grid5000.fr;thermos-root-devel-WordCountTopology-0-54eb3ed9-db2f-4d55-bb80-9b91db4dc2e2;["topology_master"];4.25;1533805450.24686;3.84;10.27;0.0;9;117
21;paravance-72.rennes.grid5000.fr;thermos-root-devel-WordCountTopology-2-d81e1fdd-2d0e-4a04-949e-e824f6f7ff99;["container_2_Emit_random_words_2"];4.25;1533805450.25234;48.16;604.97;3.00274622;10;149
22;paravance-72.rennes.grid5000.fr;thermos-root-devel-WordCountTopology-2-d81e1fdd-2d0e-4a04-949e-e824f6f7ff99;["container_2_Emit_random_words_2"];4.25;1533805460.46869;49.59;624.08;3.00274622;10;149
22;paravance-69.rennes.grid5000.fr;thermos-root-devel-WordCountTopology-0-54eb3ed9-db2f-4d55-bb80-9b91db4dc2e2;["topology_master"];4.25;1533805460.46478;3.9;10.35;0.0;9;117
22;paravance-71.rennes.grid5000.fr;thermos-root-devel-WordCountTopology-1-068e3942-7672-4cf6-a15b-2985cd09ae63;["container_1_Consume_and_count_1"];4.25;1533805460.59208;149.08;860.64;4.282397241;10;151
23;paravance-72.rennes.grid5000.fr;thermos-root-devel-WordCountTopology-2-d81e1fdd-2d0e-4a04-949e-e824f6f7ff99;["container_2_Emit_random_words_2"];4.25;1533805470.58185;51.08;642.98;3.00274622;10;149
23;paravance-71.rennes.grid5000.fr;thermos-root-devel-WordCountTopology-1-068e3942-7672-4cf6-a15b-2985cd09ae63;["container_1_Consume_and_count_1"];4.25;1533805470.80712;153.64;887.69;4.282397241;10;151
23;paravance-69.rennes.grid5000.fr;thermos-root-devel-WordCountTopology-0-54eb3ed9-db2f-4d55-bb80-9b91db4dc2e2;["topology_master"];4.25;1533805470.68263;4.01;10.51;0.0;9;117
24;paravance-71.rennes.grid5000.fr;thermos-root-devel-WordCountTopology-1-068e3942-7672-4cf6-a15b-2985cd09ae63;["container_1_Consume_and_count_1"];4.25;1533805481.02468;157.74;913.53;4.282397241;10;151
24;paravance-69.rennes.grid5000.fr;thermos-root-devel-WordCountTopology-0-54eb3ed9-db2f-4d55-bb80-9b91db4dc2e2;["topology_master"];4.25;1533805480.89945;4.03;10.54;0.0;9;117
24;paravance-72.rennes.grid5000.fr;thermos-root-devel-WordCountTopology-2-d81e1fdd-2d0e-4a04-949e-e824f6f7ff99;["container_2_Emit_random_words_2"];4.25;1533805480.91675;52.51;662.13;3.00274622;10;149
25;paravance-69.rennes.grid5000.fr;thermos-root-devel-WordCountTopology-0-54eb3ed9-db2f-4d55-bb80-9b91db4dc2e2;["topology_master"];4.25;1533805491.02792;4.12;10.67;0.0;9;117
25;paravance-72.rennes.grid5000.fr;thermos-root-devel-WordCountTopology-2-d81e1fdd-2d0e-4a04-949e-e824f6f7ff99;["container_2_Emit_random_words_2"];4.25;1533805491.13125;53.98;681.27;3.00274622;10;149
25;paravance-71.rennes.grid5000.fr;thermos-root-devel-WordCountTopology-1-068e3942-7672-4cf6-a15b-2985cd09ae63;["container_1_Consume_and_count_1"];4.25;1533805491.25294;162.0;939.43;4.282397241;10;151
26;paravance-72.rennes.grid5000.fr;thermos-root-devel-WordCountTopology-2-d81e1fdd-2d0e-4a04-949e-e824f6f7ff99;["container_2_Emit_random_words_2"];4.25;1533805501.34687;55.42;700.16;3.00274622;10;149
26;paravance-71.rennes.grid5000.fr;thermos-root-devel-WordCountTopology-1-068e3942-7672-4cf6-a15b-2985cd09ae63;["container_1_Consume_and_count_1"];4.25;1533805501.47041;166.45;967.18;4.282430184;10;151
26;paravance-69.rennes.grid5000.fr;thermos-root-devel-WordCountTopology-0-54eb3ed9-db2f-4d55-bb80-9b91db4dc2e2;["topology_master"];4.25;1533805501.34377;4.17;10.73;0.0;9;117
27;paravance-72.rennes.grid5000.fr;thermos-root-devel-WordCountTopology-2-d81e1fdd-2d0e-4a04-949e-e824f6f7ff99;["container_2_Emit_random_words_2"];4.25;1533805511.56521;56.84;719.2;3.00274622;10;149
27;paravance-71.rennes.grid5000.fr;thermos-root-devel-WordCountTopology-1-068e3942-7672-4cf6-a15b-2985cd09ae63;["container_1_Consume_and_count_1"];4.25;1533805511.6884;170.64;992.87;4.282430184;10;151
27;paravance-69.rennes.grid5000.fr;thermos-root-devel-WordCountTopology-0-54eb3ed9-db2f-4d55-bb80-9b91db4dc2e2;["topology_master"];4.25;1533805511.56311;4.24;10.82;0.0;9;117
28;paravance-71.rennes.grid5000.fr;thermos-root-devel-WordCountTopology-1-068e3942-7672-4cf6-a15b-2985cd09ae63;["container_1_Consume_and_count_1"];4.25;1533805521.90526;175.52;1019.17;4.282430184;10;151
28;paravance-69.rennes.grid5000.fr;thermos-root-devel-WordCountTopology-0-54eb3ed9-db2f-4d55-bb80-9b91db4dc2e2;["topology_master"];4.25;1533805521.77965;4.35;10.96;0.0;9;117
28;paravance-72.rennes.grid5000.fr;thermos-root-devel-WordCountTopology-2-d81e1fdd-2d0e-4a04-949e-e824f6f7ff99;["container_2_Emit_random_words_2"];4.25;1533805521.78366;58.28;738.2;3.00274622;10;149
29;paravance-71.rennes.grid5000.fr;thermos-root-devel-WordCountTopology-1-068e3942-7672-4cf6-a15b-2985cd09ae63;["container_1_Consume_and_count_1"];4.25;1533805532.12248;179.7;1045.24;4.282430184;10;151
29;paravance-72.rennes.grid5000.fr;thermos-root-devel-WordCountTopology-2-d81e1fdd-2d0e-4a04-949e-e824f6f7ff99;["container_2_Emit_random_words_2"];4.25;1533805532.00086;59.73;757.01;3.00274622;10;149
29;paravance-69.rennes.grid5000.fr;thermos-root-devel-WordCountTopology-0-54eb3ed9-db2f-4d55-bb80-9b91db4dc2e2;["topology_master"];4.25;1533805531.99659;4.41;11.09;0.0;9;117
30;paravance-72.rennes.grid5000.fr;thermos-root-devel-WordCountTopology-2-d81e1fdd-2d0e-4a04-949e-e824f6f7ff99;["container_2_Emit_random_words_2"];4.25;1533805542.21542;61.19;776.11;3.00274622;10;149
30;paravance-69.rennes.grid5000.fr;thermos-root-devel-WordCountTopology-0-54eb3ed9-db2f-4d55-bb80-9b91db4dc2e2;["topology_master"];4.25;1533805542.21146;4.47;11.18;0.0;9;117
30;paravance-71.rennes.grid5000.fr;thermos-root-devel-WordCountTopology-1-068e3942-7672-4cf6-a15b-2985cd09ae63;["container_1_Consume_and_count_1"];4.25;1533805542.33751;183.89;1071.22;4.282430184;10;151
31;paravance-72.rennes.grid5000.fr;thermos-root-devel-WordCountTopology-2-d81e1fdd-2d0e-4a04-949e-e824f6f7ff99;["container_2_Emit_random_words_2"];4.25;1533805552.43411;62.61;794.88;3.00274622;10;149
31;paravance-71.rennes.grid5000.fr;thermos-root-devel-WordCountTopology-1-068e3942-7672-4cf6-a15b-2985cd09ae63;["container_1_Consume_and_count_1"];4.25;1533805552.55701;187.94;1096.72;4.282430184;10;151
31;paravance-69.rennes.grid5000.fr;thermos-root-devel-WordCountTopology-0-54eb3ed9-db2f-4d55-bb80-9b91db4dc2e2;["topology_master"];4.25;1533805552.43319;4.53;11.25;0.0;9;117
32;paravance-72.rennes.grid5000.fr;thermos-root-devel-WordCountTopology-2-d81e1fdd-2d0e-4a04-949e-e824f6f7ff99;["container_2_Emit_random_words_2"];4.25;1533805562.65105;64.06;813.99;3.00274622;10;149
32;paravance-71.rennes.grid5000.fr;thermos-root-devel-WordCountTopology-1-068e3942-7672-4cf6-a15b-2985cd09ae63;["container_1_Consume_and_count_1"];4.25;1533805562.77456;192.0;1122.16;4.282430184;10;151
32;paravance-69.rennes.grid5000.fr;thermos-root-devel-WordCountTopology-0-54eb3ed9-db2f-4d55-bb80-9b91db4dc2e2;["topology_master"];4.25;1533805562.64753;4.62;11.37;0.0;9;117
33;paravance-69.rennes.grid5000.fr;thermos-root-devel-WordCountTopology-0-54eb3ed9-db2f-4d55-bb80-9b91db4dc2e2;["topology_master"];4.25;1533805572.86422;4.64;11.4;0.0;9;117
33;paravance-71.rennes.grid5000.fr;thermos-root-devel-WordCountTopology-1-068e3942-7672-4cf6-a15b-2985cd09ae63;["container_1_Consume_and_count_1"];4.25;1533805572.99107;196.18;1148.9;4.282430184;10;151
33;paravance-72.rennes.grid5000.fr;thermos-root-devel-WordCountTopology-2-d81e1fdd-2d0e-4a04-949e-e824f6f7ff99;["container_2_Emit_random_words_2"];4.25;1533805572.86856;65.5;833.16;3.00274622;10;149
34;paravance-69.rennes.grid5000.fr;thermos-root-devel-WordCountTopology-0-54eb3ed9-db2f-4d55-bb80-9b91db4dc2e2;["topology_master"];4.25;1533805583.08182;4.74;11.53;0.0;9;117
34;paravance-71.rennes.grid5000.fr;thermos-root-devel-WordCountTopology-1-068e3942-7672-4cf6-a15b-2985cd09ae63;["container_1_Consume_and_count_1"];4.25;1533805583.20886;200.36;1174.37;4.282430184;10;151
34;paravance-72.rennes.grid5000.fr;thermos-root-devel-WordCountTopology-2-d81e1fdd-2d0e-4a04-949e-e824f6f7ff99;["container_2_Emit_random_words_2"];4.25;1533805583.08743;66.97;852.17;3.00274622;10;149
35;paravance-69.rennes.grid5000.fr;thermos-root-devel-WordCountTopology-0-54eb3ed9-db2f-4d55-bb80-9b91db4dc2e2;["topology_master"];4.25;1533805593.29985;4.8;11.64;0.0;9;117
35;paravance-71.rennes.grid5000.fr;thermos-root-devel-WordCountTopology-1-068e3942-7672-4cf6-a15b-2985cd09ae63;["container_1_Consume_and_count_1"];4.25;1533805593.4267;204.71;1200.18;4.282430184;10;151
35;paravance-72.rennes.grid5000.fr;thermos-root-devel-WordCountTopology-2-d81e1fdd-2d0e-4a04-949e-e824f6f7ff99;["container_2_Emit_random_words_2"];4.25;1533805593.30526;68.48;871.16;3.00274622;10;149
36;paravance-69.rennes.grid5000.fr;thermos-root-devel-WordCountTopology-0-54eb3ed9-db2f-4d55-bb80-9b91db4dc2e2;["topology_master"];4.25;1533805603.51804;4.88;11.76;0.0;9;117
36;paravance-71.rennes.grid5000.fr;thermos-root-devel-WordCountTopology-1-068e3942-7672-4cf6-a15b-2985cd09ae63;["container_1_Consume_and_count_1"];4.25;1533805603.64513;208.81;1225.26;4.282430184;10;151
36;paravance-72.rennes.grid5000.fr;thermos-root-devel-WordCountTopology-2-d81e1fdd-2d0e-4a04-949e-e824f6f7ff99;["container_2_Emit_random_words_2"];4.25;1533805603.52373;69.92;890.29;3.00274622;10;149
37;paravance-71.rennes.grid5000.fr;thermos-root-devel-WordCountTopology-1-068e3942-7672-4cf6-a15b-2985cd09ae63;["container_1_Consume_and_count_1"];4.25;1533805613.86049;213.16;1252.12;4.282430184;10;151
37;paravance-72.rennes.grid5000.fr;thermos-root-devel-WordCountTopology-2-d81e1fdd-2d0e-4a04-949e-e824f6f7ff99;["container_2_Emit_random_words_2"];4.25;1533805613.73884;71.34;909.12;3.00274622;10;149
37;paravance-69.rennes.grid5000.fr;thermos-root-devel-WordCountTopology-0-54eb3ed9-db2f-4d55-bb80-9b91db4dc2e2;["topology_master"];4.25;1533805613.73586;4.91;11.79;0.0;9;117
38;paravance-71.rennes.grid5000.fr;thermos-root-devel-WordCountTopology-1-068e3942-7672-4cf6-a15b-2985cd09ae63;["container_1_Consume_and_count_1"];4.25;1533805624.07398;217.3;1277.81;4.282430184;10;151
38;paravance-72.rennes.grid5000.fr;thermos-root-devel-WordCountTopology-2-d81e1fdd-2d0e-4a04-949e-e824f6f7ff99;["container_2_Emit_random_words_2"];4.25;1533805623.95413;72.82;927.9;3.00274622;10;149
38;paravance-69.rennes.grid5000.fr;thermos-root-devel-WordCountTopology-0-54eb3ed9-db2f-4d55-bb80-9b91db4dc2e2;["topology_master"];4.25;1533805623.94963;4.99;11.91;0.0;9;117
39;paravance-71.rennes.grid5000.fr;thermos-root-devel-WordCountTopology-1-068e3942-7672-4cf6-a15b-2985cd09ae63;["container_1_Consume_and_count_1"];4.25;1533805634.29016;221.48;1304.12;4.282430184;10;151
39;paravance-69.rennes.grid5000.fr;thermos-root-devel-WordCountTopology-0-54eb3ed9-db2f-4d55-bb80-9b91db4dc2e2;["topology_master"];4.25;1533805634.16421;5.05;11.98;0.0;9;117
39;paravance-72.rennes.grid5000.fr;thermos-root-devel-WordCountTopology-2-d81e1fdd-2d0e-4a04-949e-e824f6f7ff99;["container_2_Emit_random_words_2"];4.25;1533805634.16722;74.3;946.83;3.00274622;10;149
40;paravance-69.rennes.grid5000.fr;thermos-root-devel-WordCountTopology-0-54eb3ed9-db2f-4d55-bb80-9b91db4dc2e2;["topology_master"];4.25;1533805644.38152;5.11;12.07;0.0;9;117
40;paravance-71.rennes.grid5000.fr;thermos-root-devel-WordCountTopology-1-068e3942-7672-4cf6-a15b-2985cd09ae63;["container_1_Consume_and_count_1"];4.25;1533805644.509;225.98;1331.29;4.390217397;10;151
40;paravance-72.rennes.grid5000.fr;thermos-root-devel-WordCountTopology-2-d81e1fdd-2d0e-4a04-949e-e824f6f7ff99;["container_2_Emit_random_words_2"];4.25;1533805644.38581;75.78;965.69;3.00274622;10;149
41;paravance-72.rennes.grid5000.fr;thermos-root-devel-WordCountTopology-2-d81e1fdd-2d0e-4a04-949e-e824f6f7ff99;["container_2_Emit_random_words_2"];4.25;1533805654.60488;77.23;984.61;3.00274622;10;149
41;paravance-71.rennes.grid5000.fr;thermos-root-devel-WordCountTopology-1-068e3942-7672-4cf6-a15b-2985cd09ae63;["container_1_Consume_and_count_1"];4.25;1533805654.72803;230.25;1358.0;4.390217397;10;151
41;paravance-69.rennes.grid5000.fr;thermos-root-devel-WordCountTopology-0-54eb3ed9-db2f-4d55-bb80-9b91db4dc2e2;["topology_master"];4.25;1533805654.60159;5.18;12.18;0.0;9;117
42;paravance-72.rennes.grid5000.fr;thermos-root-devel-WordCountTopology-2-d81e1fdd-2d0e-4a04-949e-e824f6f7ff99;["container_2_Emit_random_words_2"];4.25;1533805664.82198;78.68;1003.3;3.00274622;10;149
42;paravance-71.rennes.grid5000.fr;thermos-root-devel-WordCountTopology-1-068e3942-7672-4cf6-a15b-2985cd09ae63;["container_1_Consume_and_count_1"];4.25;1533805664.94415;234.39;1383.51;4.390235975;10;151
42;paravance-69.rennes.grid5000.fr;thermos-root-devel-WordCountTopology-0-54eb3ed9-db2f-4d55-bb80-9b91db4dc2e2;["topology_master"];4.25;1533805664.81837;5.26;12.3;0.0;9;117
43;paravance-72.rennes.grid5000.fr;thermos-root-devel-WordCountTopology-2-d81e1fdd-2d0e-4a04-949e-e824f6f7ff99;["container_2_Emit_random_words_2"];4.25;1533805675.03862;80.15;1021.92;3.00274622;10;149
43;paravance-69.rennes.grid5000.fr;thermos-root-devel-WordCountTopology-0-54eb3ed9-db2f-4d55-bb80-9b91db4dc2e2;["topology_master"];4.25;1533805675.03452;5.29;12.34;0.0;9;117
43;paravance-71.rennes.grid5000.fr;thermos-root-devel-WordCountTopology-1-068e3942-7672-4cf6-a15b-2985cd09ae63;["container_1_Consume_and_count_1"];4.25;1533805675.16163;238.7;1409.57;4.390235975;10;151
44;paravance-72.rennes.grid5000.fr;thermos-root-devel-WordCountTopology-2-d81e1fdd-2d0e-4a04-949e-e824f6f7ff99;["container_2_Emit_random_words_2"];4.25;1533805685.2555;81.64;1040.69;3.00274622;10;149
44;paravance-71.rennes.grid5000.fr;thermos-root-devel-WordCountTopology-1-068e3942-7672-4cf6-a15b-2985cd09ae63;["container_1_Consume_and_count_1"];4.25;1533805685.37808;243.09;1436.38;4.390235975;10;151
44;paravance-69.rennes.grid5000.fr;thermos-root-devel-WordCountTopology-0-54eb3ed9-db2f-4d55-bb80-9b91db4dc2e2;["topology_master"];4.25;1533805685.25397;5.37;12.45;0.0;9;117
45;paravance-71.rennes.grid5000.fr;thermos-root-devel-WordCountTopology-1-068e3942-7672-4cf6-a15b-2985cd09ae63;["container_1_Consume_and_count_1"];4.25;1533805695.59679;247.18;1461.84;4.390235975;10;151
45;paravance-72.rennes.grid5000.fr;thermos-root-devel-WordCountTopology-2-d81e1fdd-2d0e-4a04-949e-e824f6f7ff99;["container_2_Emit_random_words_2"];4.25;1533805695.4756;83.04;1059.31;3.00274622;10;149
45;paravance-69.rennes.grid5000.fr;thermos-root-devel-WordCountTopology-0-54eb3ed9-db2f-4d55-bb80-9b91db4dc2e2;["topology_master"];4.25;1533805695.46951;5.43;12.52;0.0;9;117
46;paravance-69.rennes.grid5000.fr;thermos-root-devel-WordCountTopology-0-54eb3ed9-db2f-4d55-bb80-9b91db4dc2e2;["topology_master"];4.25;1533805705.68528;5.5;12.61;0.0;9;117
46;paravance-72.rennes.grid5000.fr;thermos-root-devel-WordCountTopology-2-d81e1fdd-2d0e-4a04-949e-e824f6f7ff99;["container_2_Emit_random_words_2"];4.25;1533805705.69039;84.48;1078.51;3.00274622;10;149
46;paravance-71.rennes.grid5000.fr;thermos-root-devel-WordCountTopology-1-068e3942-7672-4cf6-a15b-2985cd09ae63;["container_1_Consume_and_count_1"];4.25;1533805705.81464;251.38;1486.95;4.390235975;10;151
47;paravance-69.rennes.grid5000.fr;thermos-root-devel-WordCountTopology-0-54eb3ed9-db2f-4d55-bb80-9b91db4dc2e2;["topology_master"];4.25;1533805715.90319;5.56;12.72;0.0;9;117
47;paravance-72.rennes.grid5000.fr;thermos-root-devel-WordCountTopology-2-d81e1fdd-2d0e-4a04-949e-e824f6f7ff99;["container_2_Emit_random_words_2"];4.25;1533805715.90887;85.92;1097.6;3.00274622;10;149
47;paravance-71.rennes.grid5000.fr;thermos-root-devel-WordCountTopology-1-068e3942-7672-4cf6-a15b-2985cd09ae63;["container_1_Consume_and_count_1"];4.25;1533805716.03101;255.71;1512.39;4.390235975;10;151
48;paravance-72.rennes.grid5000.fr;thermos-root-devel-WordCountTopology-2-d81e1fdd-2d0e-4a04-949e-e824f6f7ff99;["container_2_Emit_random_words_2"];4.25;1533805726.12481;87.37;1116.49;3.00274622;10;149
48;paravance-71.rennes.grid5000.fr;thermos-root-devel-WordCountTopology-1-068e3942-7672-4cf6-a15b-2985cd09ae63;["container_1_Consume_and_count_1"];4.25;1533805726.2484;260.01;1539.07;4.390235975;10;151
48;paravance-69.rennes.grid5000.fr;thermos-root-devel-WordCountTopology-0-54eb3ed9-db2f-4d55-bb80-9b91db4dc2e2;["topology_master"];4.25;1533805726.12252;5.65;12.84;0.0;9;117
49;paravance-72.rennes.grid5000.fr;thermos-root-devel-WordCountTopology-2-d81e1fdd-2d0e-4a04-949e-e824f6f7ff99;["container_2_Emit_random_words_2"];4.25;1533805736.34377;88.78;1135.55;3.00274622;10;149
49;paravance-71.rennes.grid5000.fr;thermos-root-devel-WordCountTopology-1-068e3942-7672-4cf6-a15b-2985cd09ae63;["container_1_Consume_and_count_1"];4.25;1533805736.46472;264.74;1565.79;4.390235975;10;151
49;paravance-69.rennes.grid5000.fr;thermos-root-devel-WordCountTopology-0-54eb3ed9-db2f-4d55-bb80-9b91db4dc2e2;["topology_master"];4.25;1533805736.33914;5.68;12.87;0.0;9;117
50;paravance-71.rennes.grid5000.fr;thermos-root-devel-WordCountTopology-1-068e3942-7672-4cf6-a15b-2985cd09ae63;["container_1_Consume_and_count_1"];4.25;1533805746.68221;268.86;1592.25;4.446651816;10;151
50;paravance-69.rennes.grid5000.fr;thermos-root-devel-WordCountTopology-0-54eb3ed9-db2f-4d55-bb80-9b91db4dc2e2;["topology_master"];4.25;1533805746.5553;5.77;13.0;0.0;9;117
50;paravance-72.rennes.grid5000.fr;thermos-root-devel-WordCountTopology-2-d81e1fdd-2d0e-4a04-949e-e824f6f7ff99;["container_2_Emit_random_words_2"];4.25;1533805746.56098;90.24;1154.45;3.00274622;10;149
51;paravance-72.rennes.grid5000.fr;thermos-root-devel-WordCountTopology-2-d81e1fdd-2d0e-4a04-949e-e824f6f7ff99;["container_2_Emit_random_words_2"];4.25;1533805756.77683;91.68;1173.57;3.00274622;10;149
51;paravance-69.rennes.grid5000.fr;thermos-root-devel-WordCountTopology-0-54eb3ed9-db2f-4d55-bb80-9b91db4dc2e2;["topology_master"];4.25;1533805756.77199;5.82;13.07;0.0;9;117
51;paravance-71.rennes.grid5000.fr;thermos-root-devel-WordCountTopology-1-068e3942-7672-4cf6-a15b-2985cd09ae63;["container_1_Consume_and_count_1"];4.25;1533805756.9013;272.98;1618.17;4.446651816;10;151
52;paravance-71.rennes.grid5000.fr;thermos-root-devel-WordCountTopology-1-068e3942-7672-4cf6-a15b-2985cd09ae63;["container_1_Consume_and_count_1"];4.25;1533805767.01761;277.46;1644.33;4.450747312;10;151
52;paravance-72.rennes.grid5000.fr;thermos-root-devel-WordCountTopology-2-d81e1fdd-2d0e-4a04-949e-e824f6f7ff99;["container_2_Emit_random_words_2"];4.25;1533805766.99449;93.15;1192.76;3.00274622;10;149
52;paravance-69.rennes.grid5000.fr;thermos-root-devel-WordCountTopology-0-54eb3ed9-db2f-4d55-bb80-9b91db4dc2e2;["topology_master"];4.25;1533805766.98949;5.89;13.2;0.0;9;117
53;paravance-69.rennes.grid5000.fr;thermos-root-devel-WordCountTopology-0-54eb3ed9-db2f-4d55-bb80-9b91db4dc2e2;["topology_master"];4.25;1533805777.20391;5.94;13.27;0.0;9;117
53;paravance-71.rennes.grid5000.fr;thermos-root-devel-WordCountTopology-1-068e3942-7672-4cf6-a15b-2985cd09ae63;["container_1_Consume_and_count_1"];4.25;1533805777.33124;281.61;1670.3;4.450747312;10;151
53;paravance-72.rennes.grid5000.fr;thermos-root-devel-WordCountTopology-2-d81e1fdd-2d0e-4a04-949e-e824f6f7ff99;["container_2_Emit_random_words_2"];4.25;1533805777.20931;94.59;1211.51;3.00274622;10;149
54;paravance-72.rennes.grid5000.fr;thermos-root-devel-WordCountTopology-2-d81e1fdd-2d0e-4a04-949e-e824f6f7ff99;["container_2_Emit_random_words_2"];4.25;1533805787.42514;96.05;1230.55;3.00274622;10;149
54;paravance-69.rennes.grid5000.fr;thermos-root-devel-WordCountTopology-0-54eb3ed9-db2f-4d55-bb80-9b91db4dc2e2;["topology_master"];4.25;1533805787.42166;6.03;13.41;0.0;9;117
54;paravance-71.rennes.grid5000.fr;thermos-root-devel-WordCountTopology-1-068e3942-7672-4cf6-a15b-2985cd09ae63;["container_1_Consume_and_count_1"];4.25;1533805787.5499;285.47;1694.39;4.450747312;10;151
55;paravance-72.rennes.grid5000.fr;thermos-root-devel-WordCountTopology-2-d81e1fdd-2d0e-4a04-949e-e824f6f7ff99;["container_2_Emit_random_words_2"];4.25;1533805797.64197;97.47;1249.63;3.00274622;10;149
55;paravance-69.rennes.grid5000.fr;thermos-root-devel-WordCountTopology-0-54eb3ed9-db2f-4d55-bb80-9b91db4dc2e2;["topology_master"];4.25;1533805797.63863;6.06;13.43;0.0;9;117
55;paravance-71.rennes.grid5000.fr;thermos-root-devel-WordCountTopology-1-068e3942-7672-4cf6-a15b-2985cd09ae63;["container_1_Consume_and_count_1"];4.25;1533805797.76665;289.69;1720.9;4.450747312;10;151
56;paravance-72.rennes.grid5000.fr;thermos-root-devel-WordCountTopology-2-d81e1fdd-2d0e-4a04-949e-e824f6f7ff99;["container_2_Emit_random_words_2"];4.25;1533805807.85877;98.96;1268.5;3.00274622;10;149
56;paravance-69.rennes.grid5000.fr;thermos-root-devel-WordCountTopology-0-54eb3ed9-db2f-4d55-bb80-9b91db4dc2e2;["topology_master"];4.25;1533805807.85488;6.14;13.54;0.0;9;117
56;paravance-71.rennes.grid5000.fr;thermos-root-devel-WordCountTopology-1-068e3942-7672-4cf6-a15b-2985cd09ae63;["container_1_Consume_and_count_1"];4.25;1533805807.98262;294.18;1748.97;4.670543482;10;151
57;paravance-72.rennes.grid5000.fr;thermos-root-devel-WordCountTopology-2-d81e1fdd-2d0e-4a04-949e-e824f6f7ff99;["container_2_Emit_random_words_2"];4.25;1533805818.07569;100.38;1287.41;3.00274622;10;149
57;paravance-71.rennes.grid5000.fr;thermos-root-devel-WordCountTopology-1-068e3942-7672-4cf6-a15b-2985cd09ae63;["container_1_Consume_and_count_1"];4.25;1533805818.19765;298.34;1775.67;4.676122747;10;151
57;paravance-69.rennes.grid5000.fr;thermos-root-devel-WordCountTopology-0-54eb3ed9-db2f-4d55-bb80-9b91db4dc2e2;["topology_master"];4.25;1533805818.07035;6.2;13.62;0.0;9;117
58;paravance-72.rennes.grid5000.fr;thermos-root-devel-WordCountTopology-2-d81e1fdd-2d0e-4a04-949e-e824f6f7ff99;["container_2_Emit_random_words_2"];4.25;1533805828.18886;101.82;1306.54;3.00274622;10;149
58;paravance-71.rennes.grid5000.fr;thermos-root-devel-WordCountTopology-1-068e3942-7672-4cf6-a15b-2985cd09ae63;["container_1_Consume_and_count_1"];4.25;1533805828.31179;302.59;1801.3;4.676122747;10;151
58;paravance-69.rennes.grid5000.fr;thermos-root-devel-WordCountTopology-0-54eb3ed9-db2f-4d55-bb80-9b91db4dc2e2;["topology_master"];4.25;1533805828.28657;6.27;13.73;0.0;9;117
59;paravance-72.rennes.grid5000.fr;thermos-root-devel-WordCountTopology-2-d81e1fdd-2d0e-4a04-949e-e824f6f7ff99;["container_2_Emit_random_words_2"];4.25;1533805838.50633;103.33;1325.54;3.00274622;10;149
59;paravance-71.rennes.grid5000.fr;thermos-root-devel-WordCountTopology-1-068e3942-7672-4cf6-a15b-2985cd09ae63;["container_1_Consume_and_count_1"];4.25;1533805838.62899;307.1;1827.17;4.676122747;10;151
59;paravance-69.rennes.grid5000.fr;thermos-root-devel-WordCountTopology-0-54eb3ed9-db2f-4d55-bb80-9b91db4dc2e2;["topology_master"];4.25;1533805838.50174;6.32;13.8;0.0;9;117
60;paravance-71.rennes.grid5000.fr;thermos-root-devel-WordCountTopology-1-068e3942-7672-4cf6-a15b-2985cd09ae63;["container_1_Consume_and_count_1"];4.25;1533805848.84144;311.28;1852.86;4.676122747;10;151
60;paravance-72.rennes.grid5000.fr;thermos-root-devel-WordCountTopology-2-d81e1fdd-2d0e-4a04-949e-e824f6f7ff99;["container_2_Emit_random_words_2"];4.25;1533805848.72109;104.86;1344.37;3.00274622;10;149
60;paravance-69.rennes.grid5000.fr;thermos-root-devel-WordCountTopology-0-54eb3ed9-db2f-4d55-bb80-9b91db4dc2e2;["topology_master"];4.25;1533805848.71642;6.41;13.92;0.0;9;117
