------------------------------------------------------
 submission_time: 1533234516
------------------------------------------------------
timeslice start: 1533235200; backpressure time in ms: 0.0
timeslice start: 1533234720; backpressure time in ms: 34930.0
timeslice start: 1533234660; backpressure time in ms: 33955.0
timeslice start: 1533235080; backpressure time in ms: 34048.0
timeslice start: 1533235020; backpressure time in ms: 35015.0
timeslice start: 1533234960; backpressure time in ms: 35884.0
timeslice start: 1533234900; backpressure time in ms: 33937.0
timeslice start: 1533234840; backpressure time in ms: 34415.0
timeslice start: 1533235140; backpressure time in ms: 34587.0
timeslice start: 1533234780; backpressure time in ms: 34906.0
