{
  "status": "success",
  "executiontime": 0.00021004676818847656,
  "message": "",
  "result": {
    "bolts": {
      "Consume_and_count": [
        "container_1_Consume_and_count_1"
      ]
    },
    "instances": {
      "container_2_Emit_random_words_2": {
        "stmgrId": "stmgr-2",
        "logfile": "http://paravance-18.rennes.grid5000.fr:31557/file/log-files/container_2_Emit_random_words_2.log.0",
        "id": "container_2_Emit_random_words_2",
        "name": "Emit_random_words"
      },
      "container_1_Consume_and_count_1": {
        "stmgrId": "stmgr-1",
        "logfile": "http://paravance-27.rennes.grid5000.fr:31705/file/log-files/container_1_Consume_and_count_1.log.0",
        "id": "container_1_Consume_and_count_1",
        "name": "Consume_and_count"
      }
    },
    "instance_groups": {
      "container_1_Consume_and": [
        "container_1_Consume_and_count_1"
      ],
      "container_2_Emit_random": [
        "container_2_Emit_random_words_2"
      ]
    },
    "spouts": {
      "Emit_random_words": [
        "container_2_Emit_random_words_2"
      ]
    },
    "config": {
      "topology.message.timeout.secs": "30",
      "topology.team.environment": "devel",
      "topology.serializer.classname": "org.apache.heron.streamlet.impl.KryoSerializer",
      "topology.team.name": "root",
      "topology.debug": "false",
      "topology.max.spout.pending": "100",
      "topology.container.padding.percentage": "500",
      "topology.enable.message.timeouts": "true",
      "topology.component.parallelism": "1",
      "topology.name": "WordCountTopology",
      "topology.stmgrs": "2",
      "topology.reliability.mode": "ATMOST_ONCE"
    },
    "stmgrs": {
      "stmgr-1": {
        "cwd": "/var/lib/mesos/slaves/318c7d78-706a-497d-9de5-ceeaf523cdfa-S0/frameworks/75deb08a-eb1b-415c-8b2c-e922be5f7d98-0000/executors/thermos-root-devel-WordCountTopology-1-37d978c4-4cda-4158-9c5e-7a83859e41ae/runs/d8121f3a-e8fb-410a-b156-6c9f144003f8/sandbox",
        "host": "paravance-27.rennes.grid5000.fr",
        "joburl": "http://paravance-27.rennes.grid5000.fr:31705/browse/",
        "shell_port": 31705,
        "logfiles": "http://paravance-27.rennes.grid5000.fr:31705/browse/log-files",
        "pid": 2145,
        "id": "stmgr-1",
        "instance_ids": [
          "container_1_Consume_and_count_1"
        ],
        "port": 31716
      },
      "stmgr-2": {
        "cwd": "/var/lib/mesos/slaves/318c7d78-706a-497d-9de5-ceeaf523cdfa-S2/frameworks/75deb08a-eb1b-415c-8b2c-e922be5f7d98-0000/executors/thermos-root-devel-WordCountTopology-2-041b544b-7ec4-4d02-9f23-54c69a6e8a00/runs/b430e17d-ce4f-4d20-b0f8-0c6a4c0dca47/sandbox",
        "host": "paravance-18.rennes.grid5000.fr",
        "joburl": "http://paravance-18.rennes.grid5000.fr:31557/browse/",
        "shell_port": 31557,
        "logfiles": "http://paravance-18.rennes.grid5000.fr:31557/browse/log-files",
        "pid": 2137,
        "id": "stmgr-2",
        "instance_ids": [
          "container_2_Emit_random_words_2"
        ],
        "port": 31564
      }
    }
  },
  "tracker_version": "0.17.8-61-gd7c8c62"
}