mesure_id;slave_id;executor_id;heron_instances;cpus_limit;timestamp_A;cpus_system_time_secs_A;cpus_user_time_secs_A;cpus_throttled_time_secs_A;processes;threads
0;paravance-72.rennes.grid5000.fr;thermos-root-devel-WordCountTopology-0-a1412247-1a5f-43e3-8255-b663198ebf13;["topology_master"];4.25;1533111743.27066;2.49;8.18;0.0;9;117
0;paravance-71.rennes.grid5000.fr;thermos-root-devel-WordCountTopology-2-08891912-d9c7-45d7-98f0-87cf9351356f;["container_2_Emit_random_words_2"];4.25;1533111743.26931;10.08;220.79;1.931865518;10;149
0;paravance-69.rennes.grid5000.fr;thermos-root-devel-WordCountTopology-1-02f11d09-dd03-408e-afee-700a3b95f8f7;["container_1_Consume_and_count_1"];4.25;1533111743.27035;12.09;170.56;0.277417096;10;149
1;paravance-69.rennes.grid5000.fr;thermos-root-devel-WordCountTopology-1-02f11d09-dd03-408e-afee-700a3b95f8f7;["container_1_Consume_and_count_1"];4.25;1533111753.48425;12.94;184.19;0.277417096;10;149
1;paravance-72.rennes.grid5000.fr;thermos-root-devel-WordCountTopology-0-a1412247-1a5f-43e3-8255-b663198ebf13;["topology_master"];4.25;1533111753.49161;2.56;8.34;0.0;9;117
1;paravance-71.rennes.grid5000.fr;thermos-root-devel-WordCountTopology-2-08891912-d9c7-45d7-98f0-87cf9351356f;["container_2_Emit_random_words_2"];4.25;1533111753.48949;10.73;238.78;1.931865518;10;149
2;paravance-69.rennes.grid5000.fr;thermos-root-devel-WordCountTopology-1-02f11d09-dd03-408e-afee-700a3b95f8f7;["container_1_Consume_and_count_1"];4.25;1533111763.70547;13.78;199.82;0.277417096;10;149
2;paravance-71.rennes.grid5000.fr;thermos-root-devel-WordCountTopology-2-08891912-d9c7-45d7-98f0-87cf9351356f;["container_2_Emit_random_words_2"];4.25;1533111763.71705;11.41;256.83;1.931865518;10;149
2;paravance-72.rennes.grid5000.fr;thermos-root-devel-WordCountTopology-0-a1412247-1a5f-43e3-8255-b663198ebf13;["topology_master"];4.25;1533111763.71922;2.66;8.48;0.0;9;117
3;paravance-72.rennes.grid5000.fr;thermos-root-devel-WordCountTopology-0-a1412247-1a5f-43e3-8255-b663198ebf13;["topology_master"];4.25;1533111773.93684;2.69;8.51;0.0;9;117
3;paravance-69.rennes.grid5000.fr;thermos-root-devel-WordCountTopology-1-02f11d09-dd03-408e-afee-700a3b95f8f7;["container_1_Consume_and_count_1"];4.25;1533111773.92187;14.56;213.19;0.277417096;10;149
3;paravance-71.rennes.grid5000.fr;thermos-root-devel-WordCountTopology-2-08891912-d9c7-45d7-98f0-87cf9351356f;["container_2_Emit_random_words_2"];4.25;1533111773.93518;12.03;274.93;1.931865518;10;149
4;paravance-72.rennes.grid5000.fr;thermos-root-devel-WordCountTopology-0-a1412247-1a5f-43e3-8255-b663198ebf13;["topology_master"];4.25;1533111784.15318;2.78;8.64;0.0;9;117
4;paravance-69.rennes.grid5000.fr;thermos-root-devel-WordCountTopology-1-02f11d09-dd03-408e-afee-700a3b95f8f7;["container_1_Consume_and_count_1"];4.25;1533111784.13262;15.32;228.2;0.277417096;10;149
4;paravance-71.rennes.grid5000.fr;thermos-root-devel-WordCountTopology-2-08891912-d9c7-45d7-98f0-87cf9351356f;["container_2_Emit_random_words_2"];4.25;1533111784.1536;12.72;293.04;1.931865518;10;149
5;paravance-72.rennes.grid5000.fr;thermos-root-devel-WordCountTopology-0-a1412247-1a5f-43e3-8255-b663198ebf13;["topology_master"];4.25;1533111794.36948;2.84;8.72;0.0;9;117
5;paravance-71.rennes.grid5000.fr;thermos-root-devel-WordCountTopology-2-08891912-d9c7-45d7-98f0-87cf9351356f;["container_2_Emit_random_words_2"];4.25;1533111794.36927;13.38;311.18;1.931865518;10;149
5;paravance-69.rennes.grid5000.fr;thermos-root-devel-WordCountTopology-1-02f11d09-dd03-408e-afee-700a3b95f8f7;["container_1_Consume_and_count_1"];4.25;1533111794.34337;16.11;242.06;0.277417096;10;149
6;paravance-71.rennes.grid5000.fr;thermos-root-devel-WordCountTopology-2-08891912-d9c7-45d7-98f0-87cf9351356f;["container_2_Emit_random_words_2"];4.25;1533111804.58571;14.09;329.48;1.931865518;10;149
6;paravance-69.rennes.grid5000.fr;thermos-root-devel-WordCountTopology-1-02f11d09-dd03-408e-afee-700a3b95f8f7;["container_1_Consume_and_count_1"];4.25;1533111804.55455;16.97;256.04;0.277417096;10;149
6;paravance-72.rennes.grid5000.fr;thermos-root-devel-WordCountTopology-0-a1412247-1a5f-43e3-8255-b663198ebf13;["topology_master"];4.25;1533111804.58653;2.92;8.83;0.0;9;117
7;paravance-69.rennes.grid5000.fr;thermos-root-devel-WordCountTopology-1-02f11d09-dd03-408e-afee-700a3b95f8f7;["container_1_Consume_and_count_1"];4.25;1533111814.66328;17.74;270.04;0.277417096;10;149
7;paravance-71.rennes.grid5000.fr;thermos-root-devel-WordCountTopology-2-08891912-d9c7-45d7-98f0-87cf9351356f;["container_2_Emit_random_words_2"];4.25;1533111814.801;14.74;347.77;1.931865518;10;149
7;paravance-72.rennes.grid5000.fr;thermos-root-devel-WordCountTopology-0-a1412247-1a5f-43e3-8255-b663198ebf13;["topology_master"];4.25;1533111814.80164;2.98;8.96;0.0;9;117
8;paravance-69.rennes.grid5000.fr;thermos-root-devel-WordCountTopology-1-02f11d09-dd03-408e-afee-700a3b95f8f7;["container_1_Consume_and_count_1"];4.25;1533111824.97526;18.56;283.91;0.277417096;10;149
8;paravance-71.rennes.grid5000.fr;thermos-root-devel-WordCountTopology-2-08891912-d9c7-45d7-98f0-87cf9351356f;["container_2_Emit_random_words_2"];4.25;1533111825.01663;15.44;366.0;1.931865518;10;149
8;paravance-72.rennes.grid5000.fr;thermos-root-devel-WordCountTopology-0-a1412247-1a5f-43e3-8255-b663198ebf13;["topology_master"];4.25;1533111825.01709;3.08;9.1;0.0;9;117
9;paravance-72.rennes.grid5000.fr;thermos-root-devel-WordCountTopology-0-a1412247-1a5f-43e3-8255-b663198ebf13;["topology_master"];4.25;1533111835.23249;3.11;9.13;0.0;9;117
9;paravance-71.rennes.grid5000.fr;thermos-root-devel-WordCountTopology-2-08891912-d9c7-45d7-98f0-87cf9351356f;["container_2_Emit_random_words_2"];4.25;1533111835.2321;16.1;384.04;1.931865518;10;149
9;paravance-69.rennes.grid5000.fr;thermos-root-devel-WordCountTopology-1-02f11d09-dd03-408e-afee-700a3b95f8f7;["container_1_Consume_and_count_1"];4.25;1533111835.18566;19.35;298.36;0.277417096;10;149
10;paravance-69.rennes.grid5000.fr;thermos-root-devel-WordCountTopology-1-02f11d09-dd03-408e-afee-700a3b95f8f7;["container_1_Consume_and_count_1"];4.25;1533111845.39761;20.14;312.52;0.277417096;10;149
10;paravance-71.rennes.grid5000.fr;thermos-root-devel-WordCountTopology-2-08891912-d9c7-45d7-98f0-87cf9351356f;["container_2_Emit_random_words_2"];4.25;1533111845.44948;16.76;402.27;1.931865518;10;149
10;paravance-72.rennes.grid5000.fr;thermos-root-devel-WordCountTopology-0-a1412247-1a5f-43e3-8255-b663198ebf13;["topology_master"];4.25;1533111845.45067;3.2;9.25;0.0;9;117
11;paravance-71.rennes.grid5000.fr;thermos-root-devel-WordCountTopology-2-08891912-d9c7-45d7-98f0-87cf9351356f;["container_2_Emit_random_words_2"];4.25;1533111855.66367;17.41;420.33;1.931865518;10;149
11;paravance-69.rennes.grid5000.fr;thermos-root-devel-WordCountTopology-1-02f11d09-dd03-408e-afee-700a3b95f8f7;["container_1_Consume_and_count_1"];4.25;1533111855.60835;20.92;326.41;0.277417096;10;149
11;paravance-72.rennes.grid5000.fr;thermos-root-devel-WordCountTopology-0-a1412247-1a5f-43e3-8255-b663198ebf13;["topology_master"];4.25;1533111855.66565;3.26;9.33;0.0;9;117
12;paravance-71.rennes.grid5000.fr;thermos-root-devel-WordCountTopology-2-08891912-d9c7-45d7-98f0-87cf9351356f;["container_2_Emit_random_words_2"];4.25;1533111865.88021;18.1;438.62;1.931865518;10;149
12;paravance-69.rennes.grid5000.fr;thermos-root-devel-WordCountTopology-1-02f11d09-dd03-408e-afee-700a3b95f8f7;["container_1_Consume_and_count_1"];4.25;1533111865.81936;21.76;340.3;0.277417096;10;149
12;paravance-72.rennes.grid5000.fr;thermos-root-devel-WordCountTopology-0-a1412247-1a5f-43e3-8255-b663198ebf13;["topology_master"];4.25;1533111865.88234;3.35;9.51;0.0;9;117
13;paravance-71.rennes.grid5000.fr;thermos-root-devel-WordCountTopology-2-08891912-d9c7-45d7-98f0-87cf9351356f;["container_2_Emit_random_words_2"];4.25;1533111876.09583;18.73;456.65;1.931865518;10;149
13;paravance-69.rennes.grid5000.fr;thermos-root-devel-WordCountTopology-1-02f11d09-dd03-408e-afee-700a3b95f8f7;["container_1_Consume_and_count_1"];4.25;1533111876.03281;22.5;353.39;0.277417096;10;149
13;paravance-72.rennes.grid5000.fr;thermos-root-devel-WordCountTopology-0-a1412247-1a5f-43e3-8255-b663198ebf13;["topology_master"];4.25;1533111876.09737;3.41;9.58;0.0;9;117
14;paravance-69.rennes.grid5000.fr;thermos-root-devel-WordCountTopology-1-02f11d09-dd03-408e-afee-700a3b95f8f7;["container_1_Consume_and_count_1"];4.25;1533111886.24764;23.27;366.5;0.277417096;10;149
14;paravance-71.rennes.grid5000.fr;thermos-root-devel-WordCountTopology-2-08891912-d9c7-45d7-98f0-87cf9351356f;["container_2_Emit_random_words_2"];4.25;1533111886.3119;19.41;474.73;1.931865518;10;149
14;paravance-72.rennes.grid5000.fr;thermos-root-devel-WordCountTopology-0-a1412247-1a5f-43e3-8255-b663198ebf13;["topology_master"];4.25;1533111886.31244;3.5;9.72;0.0;9;117
15;paravance-72.rennes.grid5000.fr;thermos-root-devel-WordCountTopology-0-a1412247-1a5f-43e3-8255-b663198ebf13;["topology_master"];4.25;1533111896.52779;3.56;9.79;0.0;9;117
15;paravance-69.rennes.grid5000.fr;thermos-root-devel-WordCountTopology-1-02f11d09-dd03-408e-afee-700a3b95f8f7;["container_1_Consume_and_count_1"];4.25;1533111896.46316;24.03;379.93;0.277417096;10;149
15;paravance-71.rennes.grid5000.fr;thermos-root-devel-WordCountTopology-2-08891912-d9c7-45d7-98f0-87cf9351356f;["container_2_Emit_random_words_2"];4.25;1533111896.5271;20.07;492.84;1.931865518;10;149
16;paravance-71.rennes.grid5000.fr;thermos-root-devel-WordCountTopology-2-08891912-d9c7-45d7-98f0-87cf9351356f;["container_2_Emit_random_words_2"];4.25;1533111906.74231;20.73;510.9;1.931865518;10;149
16;paravance-69.rennes.grid5000.fr;thermos-root-devel-WordCountTopology-1-02f11d09-dd03-408e-afee-700a3b95f8f7;["container_1_Consume_and_count_1"];4.25;1533111906.67944;24.79;393.08;0.277417096;10;149
16;paravance-72.rennes.grid5000.fr;thermos-root-devel-WordCountTopology-0-a1412247-1a5f-43e3-8255-b663198ebf13;["topology_master"];4.25;1533111906.74433;3.61;9.87;0.0;9;117
17;paravance-71.rennes.grid5000.fr;thermos-root-devel-WordCountTopology-2-08891912-d9c7-45d7-98f0-87cf9351356f;["container_2_Emit_random_words_2"];4.25;1533111916.96065;21.38;528.97;1.931865518;10;149
17;paravance-72.rennes.grid5000.fr;thermos-root-devel-WordCountTopology-0-a1412247-1a5f-43e3-8255-b663198ebf13;["topology_master"];4.25;1533111916.96096;3.67;9.95;0.0;9;117
17;paravance-69.rennes.grid5000.fr;thermos-root-devel-WordCountTopology-1-02f11d09-dd03-408e-afee-700a3b95f8f7;["container_1_Consume_and_count_1"];4.25;1533111916.89644;25.59;406.32;0.277417096;10;149
18;paravance-69.rennes.grid5000.fr;thermos-root-devel-WordCountTopology-1-02f11d09-dd03-408e-afee-700a3b95f8f7;["container_1_Consume_and_count_1"];4.25;1533111927.11357;26.43;419.88;0.277417096;10;149
18;paravance-72.rennes.grid5000.fr;thermos-root-devel-WordCountTopology-0-a1412247-1a5f-43e3-8255-b663198ebf13;["topology_master"];4.25;1533111927.17645;3.79;10.22;0.0;9;117
18;paravance-71.rennes.grid5000.fr;thermos-root-devel-WordCountTopology-2-08891912-d9c7-45d7-98f0-87cf9351356f;["container_2_Emit_random_words_2"];4.25;1533111927.17672;22.11;547.32;1.931865518;10;149
19;paravance-69.rennes.grid5000.fr;thermos-root-devel-WordCountTopology-1-02f11d09-dd03-408e-afee-700a3b95f8f7;["container_1_Consume_and_count_1"];4.25;1533111937.32735;27.2;434.39;0.277417096;10;149
19;paravance-71.rennes.grid5000.fr;thermos-root-devel-WordCountTopology-2-08891912-d9c7-45d7-98f0-87cf9351356f;["container_2_Emit_random_words_2"];4.25;1533111937.39156;22.72;565.39;1.931865518;10;149
19;paravance-72.rennes.grid5000.fr;thermos-root-devel-WordCountTopology-0-a1412247-1a5f-43e3-8255-b663198ebf13;["topology_master"];4.25;1533111937.39226;3.81;10.25;0.0;9;117
20;paravance-72.rennes.grid5000.fr;thermos-root-devel-WordCountTopology-0-a1412247-1a5f-43e3-8255-b663198ebf13;["topology_master"];4.25;1533111947.60632;3.9;10.37;0.0;9;117
20;paravance-71.rennes.grid5000.fr;thermos-root-devel-WordCountTopology-2-08891912-d9c7-45d7-98f0-87cf9351356f;["container_2_Emit_random_words_2"];4.25;1533111947.6054;23.4;583.58;1.931865518;10;149
20;paravance-69.rennes.grid5000.fr;thermos-root-devel-WordCountTopology-1-02f11d09-dd03-408e-afee-700a3b95f8f7;["container_1_Consume_and_count_1"];4.25;1533111947.54274;28.07;450.21;0.277417096;10;149
21;paravance-71.rennes.grid5000.fr;thermos-root-devel-WordCountTopology-2-08891912-d9c7-45d7-98f0-87cf9351356f;["container_2_Emit_random_words_2"];4.25;1533111957.81928;24.05;601.79;1.931865518;10;149
21;paravance-69.rennes.grid5000.fr;thermos-root-devel-WordCountTopology-1-02f11d09-dd03-408e-afee-700a3b95f8f7;["container_1_Consume_and_count_1"];4.25;1533111957.75586;29.03;466.46;0.277417096;10;149
21;paravance-72.rennes.grid5000.fr;thermos-root-devel-WordCountTopology-0-a1412247-1a5f-43e3-8255-b663198ebf13;["topology_master"];4.25;1533111957.82119;3.96;10.45;0.0;9;117
22;paravance-71.rennes.grid5000.fr;thermos-root-devel-WordCountTopology-2-08891912-d9c7-45d7-98f0-87cf9351356f;["container_2_Emit_random_words_2"];4.25;1533111968.03464;24.69;619.87;1.931865518;10;149
22;paravance-69.rennes.grid5000.fr;thermos-root-devel-WordCountTopology-1-02f11d09-dd03-408e-afee-700a3b95f8f7;["container_1_Consume_and_count_1"];4.25;1533111967.97128;29.9;481.14;0.277417096;10;149
22;paravance-72.rennes.grid5000.fr;thermos-root-devel-WordCountTopology-0-a1412247-1a5f-43e3-8255-b663198ebf13;["topology_master"];4.25;1533111968.03735;4.02;10.52;0.0;9;117
23;paravance-69.rennes.grid5000.fr;thermos-root-devel-WordCountTopology-1-02f11d09-dd03-408e-afee-700a3b95f8f7;["container_1_Consume_and_count_1"];4.25;1533111978.18662;30.82;495.0;0.277417096;10;149
23;paravance-72.rennes.grid5000.fr;thermos-root-devel-WordCountTopology-0-a1412247-1a5f-43e3-8255-b663198ebf13;["topology_master"];4.25;1533111978.25094;4.08;10.59;0.0;9;117
23;paravance-71.rennes.grid5000.fr;thermos-root-devel-WordCountTopology-2-08891912-d9c7-45d7-98f0-87cf9351356f;["container_2_Emit_random_words_2"];4.25;1533111978.25047;25.34;638.03;1.931865518;10;149
24;paravance-71.rennes.grid5000.fr;thermos-root-devel-WordCountTopology-2-08891912-d9c7-45d7-98f0-87cf9351356f;["container_2_Emit_random_words_2"];4.25;1533111988.46516;26.05;656.28;1.931865518;10;149
24;paravance-69.rennes.grid5000.fr;thermos-root-devel-WordCountTopology-1-02f11d09-dd03-408e-afee-700a3b95f8f7;["container_1_Consume_and_count_1"];4.25;1533111988.4017;31.63;508.7;0.277417096;10;149
24;paravance-72.rennes.grid5000.fr;thermos-root-devel-WordCountTopology-0-a1412247-1a5f-43e3-8255-b663198ebf13;["topology_master"];4.25;1533111988.4669;4.19;10.78;0.0;9;117
25;paravance-72.rennes.grid5000.fr;thermos-root-devel-WordCountTopology-0-a1412247-1a5f-43e3-8255-b663198ebf13;["topology_master"];4.25;1533111998.6816;4.21;10.81;0.0;9;117
25;paravance-71.rennes.grid5000.fr;thermos-root-devel-WordCountTopology-2-08891912-d9c7-45d7-98f0-87cf9351356f;["container_2_Emit_random_words_2"];4.25;1533111998.68121;26.69;674.44;1.931865518;10;149
25;paravance-69.rennes.grid5000.fr;thermos-root-devel-WordCountTopology-1-02f11d09-dd03-408e-afee-700a3b95f8f7;["container_1_Consume_and_count_1"];4.25;1533111998.61697;32.39;521.91;0.277417096;10;149
26;paravance-71.rennes.grid5000.fr;thermos-root-devel-WordCountTopology-2-08891912-d9c7-45d7-98f0-87cf9351356f;["container_2_Emit_random_words_2"];4.25;1533112008.89555;27.39;692.76;1.931865518;10;149
26;paravance-72.rennes.grid5000.fr;thermos-root-devel-WordCountTopology-0-a1412247-1a5f-43e3-8255-b663198ebf13;["topology_master"];4.25;1533112008.89698;4.3;10.93;0.0;9;117
26;paravance-69.rennes.grid5000.fr;thermos-root-devel-WordCountTopology-1-02f11d09-dd03-408e-afee-700a3b95f8f7;["container_1_Consume_and_count_1"];4.25;1533112008.83048;33.19;535.25;0.277417096;10;149
27;paravance-69.rennes.grid5000.fr;thermos-root-devel-WordCountTopology-1-02f11d09-dd03-408e-afee-700a3b95f8f7;["container_1_Consume_and_count_1"];4.25;1533112019.04639;33.97;548.69;0.277417096;10;149
27;paravance-72.rennes.grid5000.fr;thermos-root-devel-WordCountTopology-0-a1412247-1a5f-43e3-8255-b663198ebf13;["topology_master"];4.25;1533112019.11167;4.36;11.0;0.0;9;117
27;paravance-71.rennes.grid5000.fr;thermos-root-devel-WordCountTopology-2-08891912-d9c7-45d7-98f0-87cf9351356f;["container_2_Emit_random_words_2"];4.25;1533112019.11062;28.06;710.99;1.931865518;10;149
28;paravance-69.rennes.grid5000.fr;thermos-root-devel-WordCountTopology-1-02f11d09-dd03-408e-afee-700a3b95f8f7;["container_1_Consume_and_count_1"];4.25;1533112029.26128;34.75;562.12;0.277417096;10;149
28;paravance-72.rennes.grid5000.fr;thermos-root-devel-WordCountTopology-0-a1412247-1a5f-43e3-8255-b663198ebf13;["topology_master"];4.25;1533112029.32679;4.42;11.08;0.0;9;117
28;paravance-71.rennes.grid5000.fr;thermos-root-devel-WordCountTopology-2-08891912-d9c7-45d7-98f0-87cf9351356f;["container_2_Emit_random_words_2"];4.25;1533112029.32647;28.72;729.21;1.931865518;10;149
29;paravance-72.rennes.grid5000.fr;thermos-root-devel-WordCountTopology-0-a1412247-1a5f-43e3-8255-b663198ebf13;["topology_master"];4.25;1533112039.55;4.47;11.15;0.0;9;117
29;paravance-71.rennes.grid5000.fr;thermos-root-devel-WordCountTopology-2-08891912-d9c7-45d7-98f0-87cf9351356f;["container_2_Emit_random_words_2"];4.25;1533112039.54977;29.39;747.38;1.931865518;10;149
29;paravance-69.rennes.grid5000.fr;thermos-root-devel-WordCountTopology-1-02f11d09-dd03-408e-afee-700a3b95f8f7;["container_1_Consume_and_count_1"];4.25;1533112039.48979;35.54;575.41;0.277417096;10;149
30;paravance-69.rennes.grid5000.fr;thermos-root-devel-WordCountTopology-1-02f11d09-dd03-408e-afee-700a3b95f8f7;["container_1_Consume_and_count_1"];4.25;1533112049.70268;36.39;588.72;0.277417096;10;149
30;paravance-72.rennes.grid5000.fr;thermos-root-devel-WordCountTopology-0-a1412247-1a5f-43e3-8255-b663198ebf13;["topology_master"];4.25;1533112049.76973;4.58;11.32;0.0;9;117
30;paravance-71.rennes.grid5000.fr;thermos-root-devel-WordCountTopology-2-08891912-d9c7-45d7-98f0-87cf9351356f;["container_2_Emit_random_words_2"];4.25;1533112049.76829;30.11;765.74;1.931865518;10;149
31;paravance-71.rennes.grid5000.fr;thermos-root-devel-WordCountTopology-2-08891912-d9c7-45d7-98f0-87cf9351356f;["container_2_Emit_random_words_2"];4.25;1533112059.98298;30.78;783.92;1.931865518;10;149
31;paravance-72.rennes.grid5000.fr;thermos-root-devel-WordCountTopology-0-a1412247-1a5f-43e3-8255-b663198ebf13;["topology_master"];4.25;1533112059.98499;4.65;11.4;0.0;9;117
31;paravance-69.rennes.grid5000.fr;thermos-root-devel-WordCountTopology-1-02f11d09-dd03-408e-afee-700a3b95f8f7;["container_1_Consume_and_count_1"];4.25;1533112059.91963;37.13;602.1;0.277417096;10;149
32;paravance-69.rennes.grid5000.fr;thermos-root-devel-WordCountTopology-1-02f11d09-dd03-408e-afee-700a3b95f8f7;["container_1_Consume_and_count_1"];4.25;1533112070.13319;37.94;615.41;0.277417096;10;149
32;paravance-72.rennes.grid5000.fr;thermos-root-devel-WordCountTopology-0-a1412247-1a5f-43e3-8255-b663198ebf13;["topology_master"];4.25;1533112070.19953;4.7;11.46;0.0;9;117
32;paravance-71.rennes.grid5000.fr;thermos-root-devel-WordCountTopology-2-08891912-d9c7-45d7-98f0-87cf9351356f;["container_2_Emit_random_words_2"];4.25;1533112070.19877;31.46;802.15;1.931865518;10;149
33;paravance-71.rennes.grid5000.fr;thermos-root-devel-WordCountTopology-2-08891912-d9c7-45d7-98f0-87cf9351356f;["container_2_Emit_random_words_2"];4.25;1533112080.41238;32.17;820.42;1.931865518;10;149
33;paravance-69.rennes.grid5000.fr;thermos-root-devel-WordCountTopology-1-02f11d09-dd03-408e-afee-700a3b95f8f7;["container_1_Consume_and_count_1"];4.25;1533112080.34824;38.75;628.89;0.277417096;10;149
33;paravance-72.rennes.grid5000.fr;thermos-root-devel-WordCountTopology-0-a1412247-1a5f-43e3-8255-b663198ebf13;["topology_master"];4.25;1533112080.41319;4.78;11.58;0.0;9;117
34;paravance-71.rennes.grid5000.fr;thermos-root-devel-WordCountTopology-2-08891912-d9c7-45d7-98f0-87cf9351356f;["container_2_Emit_random_words_2"];4.25;1533112090.62894;32.81;838.61;1.931865518;10;149
34;paravance-72.rennes.grid5000.fr;thermos-root-devel-WordCountTopology-0-a1412247-1a5f-43e3-8255-b663198ebf13;["topology_master"];4.25;1533112090.62959;4.81;11.61;0.0;9;117
34;paravance-69.rennes.grid5000.fr;thermos-root-devel-WordCountTopology-1-02f11d09-dd03-408e-afee-700a3b95f8f7;["container_1_Consume_and_count_1"];4.25;1533112090.56448;39.51;642.21;0.277417096;10;149
35;paravance-69.rennes.grid5000.fr;thermos-root-devel-WordCountTopology-1-02f11d09-dd03-408e-afee-700a3b95f8f7;["container_1_Consume_and_count_1"];4.25;1533112100.77808;40.34;655.68;0.277417096;10;149
35;paravance-71.rennes.grid5000.fr;thermos-root-devel-WordCountTopology-2-08891912-d9c7-45d7-98f0-87cf9351356f;["container_2_Emit_random_words_2"];4.25;1533112100.84291;33.52;856.79;1.931865518;10;149
35;paravance-72.rennes.grid5000.fr;thermos-root-devel-WordCountTopology-0-a1412247-1a5f-43e3-8255-b663198ebf13;["topology_master"];4.25;1533112100.84379;4.91;11.74;0.0;9;117
36;paravance-71.rennes.grid5000.fr;thermos-root-devel-WordCountTopology-2-08891912-d9c7-45d7-98f0-87cf9351356f;["container_2_Emit_random_words_2"];4.25;1533112111.05837;34.19;875.1;1.931865518;10;149
36;paravance-72.rennes.grid5000.fr;thermos-root-devel-WordCountTopology-0-a1412247-1a5f-43e3-8255-b663198ebf13;["topology_master"];4.25;1533112111.05948;4.97;11.91;0.0;9;117
36;paravance-69.rennes.grid5000.fr;thermos-root-devel-WordCountTopology-1-02f11d09-dd03-408e-afee-700a3b95f8f7;["container_1_Consume_and_count_1"];4.25;1533112110.99462;41.11;669.39;0.277417096;10;149
37;paravance-71.rennes.grid5000.fr;thermos-root-devel-WordCountTopology-2-08891912-d9c7-45d7-98f0-87cf9351356f;["container_2_Emit_random_words_2"];4.25;1533112121.27404;34.89;893.37;1.931865518;10;149
37;paravance-72.rennes.grid5000.fr;thermos-root-devel-WordCountTopology-0-a1412247-1a5f-43e3-8255-b663198ebf13;["topology_master"];4.25;1533112121.27596;5.03;11.99;0.0;9;117
37;paravance-69.rennes.grid5000.fr;thermos-root-devel-WordCountTopology-1-02f11d09-dd03-408e-afee-700a3b95f8f7;["container_1_Consume_and_count_1"];4.25;1533112121.20989;41.9;682.84;0.277417096;10;149
38;paravance-71.rennes.grid5000.fr;thermos-root-devel-WordCountTopology-2-08891912-d9c7-45d7-98f0-87cf9351356f;["container_2_Emit_random_words_2"];4.25;1533112131.49;35.53;911.48;1.931865518;10;149
38;paravance-69.rennes.grid5000.fr;thermos-root-devel-WordCountTopology-1-02f11d09-dd03-408e-afee-700a3b95f8f7;["container_1_Consume_and_count_1"];4.25;1533112131.4257;42.68;696.22;0.277417096;10;149
38;paravance-72.rennes.grid5000.fr;thermos-root-devel-WordCountTopology-0-a1412247-1a5f-43e3-8255-b663198ebf13;["topology_master"];4.25;1533112131.49142;5.09;12.06;0.0;9;117
39;paravance-72.rennes.grid5000.fr;thermos-root-devel-WordCountTopology-0-a1412247-1a5f-43e3-8255-b663198ebf13;["topology_master"];4.25;1533112141.70685;5.18;12.18;0.0;9;117
39;paravance-69.rennes.grid5000.fr;thermos-root-devel-WordCountTopology-1-02f11d09-dd03-408e-afee-700a3b95f8f7;["container_1_Consume_and_count_1"];4.25;1533112141.64181;43.5;709.71;0.277417096;10;149
39;paravance-71.rennes.grid5000.fr;thermos-root-devel-WordCountTopology-2-08891912-d9c7-45d7-98f0-87cf9351356f;["container_2_Emit_random_words_2"];4.25;1533112141.70651;36.23;929.78;1.931865518;10;149
40;paravance-71.rennes.grid5000.fr;thermos-root-devel-WordCountTopology-2-08891912-d9c7-45d7-98f0-87cf9351356f;["container_2_Emit_random_words_2"];4.25;1533112151.92033;36.89;948.05;1.931865518;10;149
40;paravance-72.rennes.grid5000.fr;thermos-root-devel-WordCountTopology-0-a1412247-1a5f-43e3-8255-b663198ebf13;["topology_master"];4.25;1533112151.92232;5.21;12.21;0.0;9;117
40;paravance-69.rennes.grid5000.fr;thermos-root-devel-WordCountTopology-1-02f11d09-dd03-408e-afee-700a3b95f8f7;["container_1_Consume_and_count_1"];4.25;1533112151.87764;44.29;723.25;0.277417096;10;149
41;paravance-69.rennes.grid5000.fr;thermos-root-devel-WordCountTopology-1-02f11d09-dd03-408e-afee-700a3b95f8f7;["container_1_Consume_and_count_1"];4.25;1533112162.08943;45.09;736.8;0.277417096;10;149
41;paravance-71.rennes.grid5000.fr;thermos-root-devel-WordCountTopology-2-08891912-d9c7-45d7-98f0-87cf9351356f;["container_2_Emit_random_words_2"];4.25;1533112162.15568;37.56;966.39;1.931865518;10;149
41;paravance-72.rennes.grid5000.fr;thermos-root-devel-WordCountTopology-0-a1412247-1a5f-43e3-8255-b663198ebf13;["topology_master"];4.25;1533112162.15715;5.3;12.34;0.0;9;117
42;paravance-72.rennes.grid5000.fr;thermos-root-devel-WordCountTopology-0-a1412247-1a5f-43e3-8255-b663198ebf13;["topology_master"];4.25;1533112172.37222;5.36;12.45;0.0;9;117
42;paravance-69.rennes.grid5000.fr;thermos-root-devel-WordCountTopology-1-02f11d09-dd03-408e-afee-700a3b95f8f7;["container_1_Consume_and_count_1"];4.25;1533112172.30678;45.88;750.31;0.277417096;10;149
42;paravance-71.rennes.grid5000.fr;thermos-root-devel-WordCountTopology-2-08891912-d9c7-45d7-98f0-87cf9351356f;["container_2_Emit_random_words_2"];4.25;1533112172.3719;38.22;984.56;1.931865518;10;149
43;paravance-71.rennes.grid5000.fr;thermos-root-devel-WordCountTopology-2-08891912-d9c7-45d7-98f0-87cf9351356f;["container_2_Emit_random_words_2"];4.25;1533112182.58755;38.92;1002.75;1.931865518;10;149
43;paravance-69.rennes.grid5000.fr;thermos-root-devel-WordCountTopology-1-02f11d09-dd03-408e-afee-700a3b95f8f7;["container_1_Consume_and_count_1"];4.25;1533112182.52336;46.68;763.68;0.277417096;10;149
43;paravance-72.rennes.grid5000.fr;thermos-root-devel-WordCountTopology-0-a1412247-1a5f-43e3-8255-b663198ebf13;["topology_master"];4.25;1533112182.5902;5.42;12.52;0.0;9;117
44;paravance-71.rennes.grid5000.fr;thermos-root-devel-WordCountTopology-2-08891912-d9c7-45d7-98f0-87cf9351356f;["container_2_Emit_random_words_2"];4.25;1533112192.80409;39.57;1020.96;1.931865518;10;149
44;paravance-72.rennes.grid5000.fr;thermos-root-devel-WordCountTopology-0-a1412247-1a5f-43e3-8255-b663198ebf13;["topology_master"];4.25;1533112192.80453;5.48;12.6;0.0;9;117
44;paravance-69.rennes.grid5000.fr;thermos-root-devel-WordCountTopology-1-02f11d09-dd03-408e-afee-700a3b95f8f7;["container_1_Consume_and_count_1"];4.25;1533112192.73945;47.44;777.13;0.277417096;10;149
45;paravance-69.rennes.grid5000.fr;thermos-root-devel-WordCountTopology-1-02f11d09-dd03-408e-afee-700a3b95f8f7;["container_1_Consume_and_count_1"];4.25;1533112202.95516;48.24;790.53;0.277417096;10;149
45;paravance-71.rennes.grid5000.fr;thermos-root-devel-WordCountTopology-2-08891912-d9c7-45d7-98f0-87cf9351356f;["container_2_Emit_random_words_2"];4.25;1533112203.01997;40.26;1038.99;1.931865518;10;149
45;paravance-72.rennes.grid5000.fr;thermos-root-devel-WordCountTopology-0-a1412247-1a5f-43e3-8255-b663198ebf13;["topology_master"];4.25;1533112203.0212;5.57;12.72;0.0;9;117
46;paravance-69.rennes.grid5000.fr;thermos-root-devel-WordCountTopology-1-02f11d09-dd03-408e-afee-700a3b95f8f7;["container_1_Consume_and_count_1"];4.25;1533112213.17215;49.02;804.17;0.277417096;10;149
46;paravance-72.rennes.grid5000.fr;thermos-root-devel-WordCountTopology-0-a1412247-1a5f-43e3-8255-b663198ebf13;["topology_master"];4.25;1533112213.23729;5.63;12.79;0.0;9;117
46;paravance-71.rennes.grid5000.fr;thermos-root-devel-WordCountTopology-2-08891912-d9c7-45d7-98f0-87cf9351356f;["container_2_Emit_random_words_2"];4.25;1533112213.2369;40.9;1057.09;1.931865518;10;149
47;paravance-72.rennes.grid5000.fr;thermos-root-devel-WordCountTopology-0-a1412247-1a5f-43e3-8255-b663198ebf13;["topology_master"];4.25;1533112223.45142;5.69;12.88;0.0;9;117
47;paravance-69.rennes.grid5000.fr;thermos-root-devel-WordCountTopology-1-02f11d09-dd03-408e-afee-700a3b95f8f7;["container_1_Consume_and_count_1"];4.25;1533112223.38653;49.82;817.88;0.277417096;10;149
47;paravance-71.rennes.grid5000.fr;thermos-root-devel-WordCountTopology-2-08891912-d9c7-45d7-98f0-87cf9351356f;["container_2_Emit_random_words_2"];4.25;1533112223.45025;41.57;1075.36;1.931865518;10;149
48;paravance-72.rennes.grid5000.fr;thermos-root-devel-WordCountTopology-0-a1412247-1a5f-43e3-8255-b663198ebf13;["topology_master"];4.25;1533112233.66741;5.75;13.02;0.0;9;117
48;paravance-69.rennes.grid5000.fr;thermos-root-devel-WordCountTopology-1-02f11d09-dd03-408e-afee-700a3b95f8f7;["container_1_Consume_and_count_1"];4.25;1533112233.60157;50.6;831.52;0.277417096;10;149
48;paravance-71.rennes.grid5000.fr;thermos-root-devel-WordCountTopology-2-08891912-d9c7-45d7-98f0-87cf9351356f;["container_2_Emit_random_words_2"];4.25;1533112233.66619;42.22;1093.57;1.931865518;10;149
49;paravance-69.rennes.grid5000.fr;thermos-root-devel-WordCountTopology-1-02f11d09-dd03-408e-afee-700a3b95f8f7;["container_1_Consume_and_count_1"];4.25;1533112243.81528;51.42;845.13;0.277417096;10;149
49;paravance-71.rennes.grid5000.fr;thermos-root-devel-WordCountTopology-2-08891912-d9c7-45d7-98f0-87cf9351356f;["container_2_Emit_random_words_2"];4.25;1533112243.8802;42.91;1111.74;1.931865518;10;149
49;paravance-72.rennes.grid5000.fr;thermos-root-devel-WordCountTopology-0-a1412247-1a5f-43e3-8255-b663198ebf13;["topology_master"];4.25;1533112243.8827;5.84;13.14;0.0;9;117
50;paravance-71.rennes.grid5000.fr;thermos-root-devel-WordCountTopology-2-08891912-d9c7-45d7-98f0-87cf9351356f;["container_2_Emit_random_words_2"];4.25;1533112253.99664;43.53;1129.74;1.931865518;10;149
50;paravance-72.rennes.grid5000.fr;thermos-root-devel-WordCountTopology-0-a1412247-1a5f-43e3-8255-b663198ebf13;["topology_master"];4.25;1533112254.09864;5.87;13.17;0.0;9;117
50;paravance-69.rennes.grid5000.fr;thermos-root-devel-WordCountTopology-1-02f11d09-dd03-408e-afee-700a3b95f8f7;["container_1_Consume_and_count_1"];4.25;1533112254.03255;52.18;858.74;0.277417096;10;149
51;paravance-72.rennes.grid5000.fr;thermos-root-devel-WordCountTopology-0-a1412247-1a5f-43e3-8255-b663198ebf13;["topology_master"];4.25;1533112264.31459;5.96;13.3;0.0;9;117
51;paravance-71.rennes.grid5000.fr;thermos-root-devel-WordCountTopology-2-08891912-d9c7-45d7-98f0-87cf9351356f;["container_2_Emit_random_words_2"];4.25;1533112264.31413;44.22;1148.15;1.931865518;10;149
51;paravance-69.rennes.grid5000.fr;thermos-root-devel-WordCountTopology-1-02f11d09-dd03-408e-afee-700a3b95f8f7;["container_1_Consume_and_count_1"];4.25;1533112264.24877;52.99;872.37;0.277417096;10;149
52;paravance-69.rennes.grid5000.fr;thermos-root-devel-WordCountTopology-1-02f11d09-dd03-408e-afee-700a3b95f8f7;["container_1_Consume_and_count_1"];4.25;1533112274.46462;53.79;886.03;0.277417096;10;149
52;paravance-71.rennes.grid5000.fr;thermos-root-devel-WordCountTopology-2-08891912-d9c7-45d7-98f0-87cf9351356f;["container_2_Emit_random_words_2"];4.25;1533112274.52934;44.87;1166.4;1.931865518;10;149
52;paravance-72.rennes.grid5000.fr;thermos-root-devel-WordCountTopology-0-a1412247-1a5f-43e3-8255-b663198ebf13;["topology_master"];4.25;1533112274.53204;6.01;13.37;0.0;9;117
53;paravance-69.rennes.grid5000.fr;thermos-root-devel-WordCountTopology-1-02f11d09-dd03-408e-afee-700a3b95f8f7;["container_1_Consume_and_count_1"];4.25;1533112284.67954;54.58;899.92;0.277417096;10;149
53;paravance-71.rennes.grid5000.fr;thermos-root-devel-WordCountTopology-2-08891912-d9c7-45d7-98f0-87cf9351356f;["container_2_Emit_random_words_2"];4.25;1533112284.74436;45.53;1184.68;1.931865518;10;149
53;paravance-72.rennes.grid5000.fr;thermos-root-devel-WordCountTopology-0-a1412247-1a5f-43e3-8255-b663198ebf13;["topology_master"];4.25;1533112284.74693;6.09;13.47;0.0;9;117
54;paravance-72.rennes.grid5000.fr;thermos-root-devel-WordCountTopology-0-a1412247-1a5f-43e3-8255-b663198ebf13;["topology_master"];4.25;1533112294.96132;6.15;13.57;0.0;9;117
54;paravance-69.rennes.grid5000.fr;thermos-root-devel-WordCountTopology-1-02f11d09-dd03-408e-afee-700a3b95f8f7;["container_1_Consume_and_count_1"];4.25;1533112294.89544;55.36;913.53;0.277417096;10;149
54;paravance-71.rennes.grid5000.fr;thermos-root-devel-WordCountTopology-2-08891912-d9c7-45d7-98f0-87cf9351356f;["container_2_Emit_random_words_2"];4.25;1533112294.95977;46.2;1202.84;1.931865518;10;149
55;paravance-71.rennes.grid5000.fr;thermos-root-devel-WordCountTopology-2-08891912-d9c7-45d7-98f0-87cf9351356f;["container_2_Emit_random_words_2"];4.25;1533112305.07534;46.89;1220.81;1.931865518;10;149
55;paravance-69.rennes.grid5000.fr;thermos-root-devel-WordCountTopology-1-02f11d09-dd03-408e-afee-700a3b95f8f7;["container_1_Consume_and_count_1"];4.25;1533112305.01038;56.15;927.04;0.277417096;10;149
55;paravance-72.rennes.grid5000.fr;thermos-root-devel-WordCountTopology-0-a1412247-1a5f-43e3-8255-b663198ebf13;["topology_master"];4.25;1533112305.17684;6.23;13.68;0.0;9;117
56;paravance-71.rennes.grid5000.fr;thermos-root-devel-WordCountTopology-2-08891912-d9c7-45d7-98f0-87cf9351356f;["container_2_Emit_random_words_2"];4.25;1533112315.38939;47.52;1239.19;1.931865518;10;149
56;paravance-69.rennes.grid5000.fr;thermos-root-devel-WordCountTopology-1-02f11d09-dd03-408e-afee-700a3b95f8f7;["container_1_Consume_and_count_1"];4.25;1533112315.32487;56.92;940.91;0.277417096;10;149
56;paravance-72.rennes.grid5000.fr;thermos-root-devel-WordCountTopology-0-a1412247-1a5f-43e3-8255-b663198ebf13;["topology_master"];4.25;1533112315.39172;6.26;13.71;0.0;9;117
57;paravance-72.rennes.grid5000.fr;thermos-root-devel-WordCountTopology-0-a1412247-1a5f-43e3-8255-b663198ebf13;["topology_master"];4.25;1533112325.60718;6.36;13.83;0.0;9;117
57;paravance-69.rennes.grid5000.fr;thermos-root-devel-WordCountTopology-1-02f11d09-dd03-408e-afee-700a3b95f8f7;["container_1_Consume_and_count_1"];4.25;1533112325.54057;57.73;954.47;0.277417096;10;149
57;paravance-71.rennes.grid5000.fr;thermos-root-devel-WordCountTopology-2-08891912-d9c7-45d7-98f0-87cf9351356f;["container_2_Emit_random_words_2"];4.25;1533112325.6057;48.19;1257.43;1.931865518;10;149
58;paravance-71.rennes.grid5000.fr;thermos-root-devel-WordCountTopology-2-08891912-d9c7-45d7-98f0-87cf9351356f;["container_2_Emit_random_words_2"];4.25;1533112335.82206;48.81;1275.61;1.931865518;10;149
58;paravance-69.rennes.grid5000.fr;thermos-root-devel-WordCountTopology-1-02f11d09-dd03-408e-afee-700a3b95f8f7;["container_1_Consume_and_count_1"];4.25;1533112335.75701;58.51;968.12;0.277417096;10;149
58;paravance-72.rennes.grid5000.fr;thermos-root-devel-WordCountTopology-0-a1412247-1a5f-43e3-8255-b663198ebf13;["topology_master"];4.25;1533112335.82373;6.41;13.9;0.0;9;117
59;paravance-71.rennes.grid5000.fr;thermos-root-devel-WordCountTopology-2-08891912-d9c7-45d7-98f0-87cf9351356f;["container_2_Emit_random_words_2"];4.25;1533112346.03681;49.5;1293.95;1.931865518;10;149
59;paravance-72.rennes.grid5000.fr;thermos-root-devel-WordCountTopology-0-a1412247-1a5f-43e3-8255-b663198ebf13;["topology_master"];4.25;1533112346.0387;6.48;14.03;0.0;9;117
59;paravance-69.rennes.grid5000.fr;thermos-root-devel-WordCountTopology-1-02f11d09-dd03-408e-afee-700a3b95f8f7;["container_1_Consume_and_count_1"];4.25;1533112345.9728;59.32;981.84;0.277417096;10;149
60;paravance-72.rennes.grid5000.fr;thermos-root-devel-WordCountTopology-0-a1412247-1a5f-43e3-8255-b663198ebf13;["topology_master"];4.25;1533112356.25515;6.54;14.1;0.0;9;117
60;paravance-71.rennes.grid5000.fr;thermos-root-devel-WordCountTopology-2-08891912-d9c7-45d7-98f0-87cf9351356f;["container_2_Emit_random_words_2"];4.25;1533112356.2536;50.16;1312.16;1.931865518;10;149
60;paravance-69.rennes.grid5000.fr;thermos-root-devel-WordCountTopology-1-02f11d09-dd03-408e-afee-700a3b95f8f7;["container_1_Consume_and_count_1"];4.25;1533112356.18901;60.09;995.35;0.277417096;10;149
