{
  "status": "success",
  "executiontime": 0.0001819133758544922,
  "message": "",
  "result": {
    "bolts": {
      "Consume_and_count": [
        "container_1_Consume_and_count_1"
      ]
    },
    "instances": {
      "container_2_Emit_random_words_2": {
        "stmgrId": "stmgr-2",
        "logfile": "http://paravance-71.rennes.grid5000.fr:31802/file/log-files/container_2_Emit_random_words_2.log.0",
        "id": "container_2_Emit_random_words_2",
        "name": "Emit_random_words"
      },
      "container_1_Consume_and_count_1": {
        "stmgrId": "stmgr-1",
        "logfile": "http://paravance-69.rennes.grid5000.fr:31714/file/log-files/container_1_Consume_and_count_1.log.0",
        "id": "container_1_Consume_and_count_1",
        "name": "Consume_and_count"
      }
    },
    "instance_groups": {
      "container_1_Consume_and": [
        "container_1_Consume_and_count_1"
      ],
      "container_2_Emit_random": [
        "container_2_Emit_random_words_2"
      ]
    },
    "spouts": {
      "Emit_random_words": [
        "container_2_Emit_random_words_2"
      ]
    },
    "config": {
      "topology.message.timeout.secs": "30",
      "topology.team.environment": "devel",
      "topology.serializer.classname": "org.apache.heron.streamlet.impl.KryoSerializer",
      "topology.team.name": "root",
      "topology.debug": "false",
      "topology.max.spout.pending": "100",
      "topology.container.padding.percentage": "300",
      "topology.enable.message.timeouts": "true",
      "topology.component.parallelism": "1",
      "topology.name": "WordCountTopology",
      "topology.stmgrs": "2",
      "topology.reliability.mode": "ATMOST_ONCE"
    },
    "stmgrs": {
      "stmgr-1": {
        "cwd": "/var/lib/mesos/slaves/c33b16a8-69b5-4375-a2bc-cabb741fee70-S1/frameworks/75deb08a-eb1b-415c-8b2c-e922be5f7d98-0000/executors/thermos-root-devel-WordCountTopology-1-02f11d09-dd03-408e-afee-700a3b95f8f7/runs/0a32ea67-aba9-4777-bb31-c6d2a64e33df/sandbox",
        "host": "paravance-69.rennes.grid5000.fr",
        "joburl": "http://paravance-69.rennes.grid5000.fr:31714/browse/",
        "shell_port": 31714,
        "logfiles": "http://paravance-69.rennes.grid5000.fr:31714/browse/log-files",
        "pid": 2144,
        "id": "stmgr-1",
        "instance_ids": [
          "container_1_Consume_and_count_1"
        ],
        "port": 31898
      },
      "stmgr-2": {
        "cwd": "/var/lib/mesos/slaves/c33b16a8-69b5-4375-a2bc-cabb741fee70-S2/frameworks/75deb08a-eb1b-415c-8b2c-e922be5f7d98-0000/executors/thermos-root-devel-WordCountTopology-2-08891912-d9c7-45d7-98f0-87cf9351356f/runs/be06ee85-e382-4013-a1e2-0e1cbf597281/sandbox",
        "host": "paravance-71.rennes.grid5000.fr",
        "joburl": "http://paravance-71.rennes.grid5000.fr:31802/browse/",
        "shell_port": 31802,
        "logfiles": "http://paravance-71.rennes.grid5000.fr:31802/browse/log-files",
        "pid": 2205,
        "id": "stmgr-2",
        "instance_ids": [
          "container_2_Emit_random_words_2"
        ],
        "port": 31475
      }
    }
  },
  "tracker_version": "0.17.8-61-gd7c8c62"
}