mesure_id;slave_id;executor_id;heron_instances;cpus_limit;timestamp_A;cpus_system_time_secs_A;cpus_user_time_secs_A;cpus_throttled_time_secs_A;processes;threads
0;paravance-31.rennes.grid5000.fr;thermos-root-devel-WordCountTopology-2-5b42d53f-f93d-48b1-8e34-c5960cd20279;["container_2_Emit_random_words_2"];3.25;1533808668.21584;35.12;196.18;4.713562418;10;149
0;paravance-34.rennes.grid5000.fr;thermos-root-devel-WordCountTopology-0-e3d39958-1408-45ed-bee7-e4a9fb959c4e;["topology_master"];3.25;1533808668.17724;2.48;8.09;0.0;9;117
0;paravance-33.rennes.grid5000.fr;thermos-root-devel-WordCountTopology-1-1478d12a-2308-4c11-99c5-7dbbe1be1684;["container_1_Consume_and_count_1"];3.25;1533808668.72662;47.57;275.68;10.97005123;10;149
1;paravance-33.rennes.grid5000.fr;thermos-root-devel-WordCountTopology-1-1478d12a-2308-4c11-99c5-7dbbe1be1684;["container_1_Consume_and_count_1"];3.25;1533808678.84127;51.37;299.65;12.009846577;10;149
1;paravance-34.rennes.grid5000.fr;thermos-root-devel-WordCountTopology-0-e3d39958-1408-45ed-bee7-e4a9fb959c4e;["topology_master"];3.25;1533808678.40183;2.55;8.27;0.0;9;117
1;paravance-31.rennes.grid5000.fr;thermos-root-devel-WordCountTopology-2-5b42d53f-f93d-48b1-8e34-c5960cd20279;["container_2_Emit_random_words_2"];3.25;1533808678.44249;37.9;212.26;4.713562418;10;149
2;paravance-34.rennes.grid5000.fr;thermos-root-devel-WordCountTopology-0-e3d39958-1408-45ed-bee7-e4a9fb959c4e;["topology_master"];3.25;1533808688.52272;2.64;8.4;0.0;9;117
2;paravance-31.rennes.grid5000.fr;thermos-root-devel-WordCountTopology-2-5b42d53f-f93d-48b1-8e34-c5960cd20279;["container_2_Emit_random_words_2"];3.25;1533808688.66162;40.73;227.89;4.713562418;10;149
2;paravance-33.rennes.grid5000.fr;thermos-root-devel-WordCountTopology-1-1478d12a-2308-4c11-99c5-7dbbe1be1684;["container_1_Consume_and_count_1"];3.25;1533808689.15179;55.28;324.17;12.762786352;10;149
3;paravance-33.rennes.grid5000.fr;thermos-root-devel-WordCountTopology-1-1478d12a-2308-4c11-99c5-7dbbe1be1684;["container_1_Consume_and_count_1"];3.25;1533808699.36137;59.09;349.07;14.043218688;10;149
3;paravance-31.rennes.grid5000.fr;thermos-root-devel-WordCountTopology-2-5b42d53f-f93d-48b1-8e34-c5960cd20279;["container_2_Emit_random_words_2"];3.25;1533808698.88319;43.47;243.03;4.713562418;10;149
3;paravance-34.rennes.grid5000.fr;thermos-root-devel-WordCountTopology-0-e3d39958-1408-45ed-bee7-e4a9fb959c4e;["topology_master"];3.25;1533808698.84373;2.67;8.43;0.0;9;117
4;paravance-34.rennes.grid5000.fr;thermos-root-devel-WordCountTopology-0-e3d39958-1408-45ed-bee7-e4a9fb959c4e;["topology_master"];3.25;1533808709.06284;2.76;8.55;0.0;9;117
4;paravance-33.rennes.grid5000.fr;thermos-root-devel-WordCountTopology-1-1478d12a-2308-4c11-99c5-7dbbe1be1684;["container_1_Consume_and_count_1"];3.25;1533808709.57279;62.89;373.59;14.868862565;10;149
4;paravance-31.rennes.grid5000.fr;thermos-root-devel-WordCountTopology-2-5b42d53f-f93d-48b1-8e34-c5960cd20279;["container_2_Emit_random_words_2"];3.25;1533808709.10356;46.31;258.59;4.713562418;10;149
5;paravance-33.rennes.grid5000.fr;thermos-root-devel-WordCountTopology-1-1478d12a-2308-4c11-99c5-7dbbe1be1684;["container_1_Consume_and_count_1"];3.25;1533808719.7836;66.74;397.18;15.44666413;10;149
5;paravance-31.rennes.grid5000.fr;thermos-root-devel-WordCountTopology-2-5b42d53f-f93d-48b1-8e34-c5960cd20279;["container_2_Emit_random_words_2"];3.25;1533808719.3242;49.14;274.83;4.713562418;10;149
5;paravance-34.rennes.grid5000.fr;thermos-root-devel-WordCountTopology-0-e3d39958-1408-45ed-bee7-e4a9fb959c4e;["topology_master"];3.25;1533808719.28402;2.82;8.63;0.0;9;117
6;paravance-33.rennes.grid5000.fr;thermos-root-devel-WordCountTopology-1-1478d12a-2308-4c11-99c5-7dbbe1be1684;["container_1_Consume_and_count_1"];3.25;1533808729.89365;70.46;420.95;16.15737635;10;149
6;paravance-31.rennes.grid5000.fr;thermos-root-devel-WordCountTopology-2-5b42d53f-f93d-48b1-8e34-c5960cd20279;["container_2_Emit_random_words_2"];3.25;1533808729.54381;52.02;290.52;4.713609882;10;149
6;paravance-34.rennes.grid5000.fr;thermos-root-devel-WordCountTopology-0-e3d39958-1408-45ed-bee7-e4a9fb959c4e;["topology_master"];3.25;1533808729.50428;2.91;8.73;0.0;9;117
7;paravance-33.rennes.grid5000.fr;thermos-root-devel-WordCountTopology-1-1478d12a-2308-4c11-99c5-7dbbe1be1684;["container_1_Consume_and_count_1"];3.25;1533808740.20147;74.44;446.63;17.481153472;10;149
7;paravance-31.rennes.grid5000.fr;thermos-root-devel-WordCountTopology-2-5b42d53f-f93d-48b1-8e34-c5960cd20279;["container_2_Emit_random_words_2"];3.25;1533808739.76347;54.95;306.28;4.746461542;10;149
7;paravance-34.rennes.grid5000.fr;thermos-root-devel-WordCountTopology-0-e3d39958-1408-45ed-bee7-e4a9fb959c4e;["topology_master"];3.25;1533808739.72422;2.98;8.9;0.0;9;117
8;paravance-33.rennes.grid5000.fr;thermos-root-devel-WordCountTopology-1-1478d12a-2308-4c11-99c5-7dbbe1be1684;["container_1_Consume_and_count_1"];3.25;1533808750.41201;78.45;471.43;18.634985984;10;149
8;paravance-34.rennes.grid5000.fr;thermos-root-devel-WordCountTopology-0-e3d39958-1408-45ed-bee7-e4a9fb959c4e;["topology_master"];3.25;1533808749.94382;3.07;9.03;0.0;9;117
8;paravance-31.rennes.grid5000.fr;thermos-root-devel-WordCountTopology-2-5b42d53f-f93d-48b1-8e34-c5960cd20279;["container_2_Emit_random_words_2"];3.25;1533808749.9841;57.8;321.68;4.746461542;10;149
9;paravance-34.rennes.grid5000.fr;thermos-root-devel-WordCountTopology-0-e3d39958-1408-45ed-bee7-e4a9fb959c4e;["topology_master"];3.25;1533808760.16375;3.09;9.06;0.0;9;117
9;paravance-33.rennes.grid5000.fr;thermos-root-devel-WordCountTopology-1-1478d12a-2308-4c11-99c5-7dbbe1be1684;["container_1_Consume_and_count_1"];3.25;1533808760.62293;82.76;495.64;19.659755406;10;149
9;paravance-31.rennes.grid5000.fr;thermos-root-devel-WordCountTopology-2-5b42d53f-f93d-48b1-8e34-c5960cd20279;["container_2_Emit_random_words_2"];3.25;1533808760.20409;60.81;339.31;4.746461542;10;149
10;paravance-31.rennes.grid5000.fr;thermos-root-devel-WordCountTopology-2-5b42d53f-f93d-48b1-8e34-c5960cd20279;["container_2_Emit_random_words_2"];3.25;1533808770.42415;63.63;354.98;4.746461542;10;149
10;paravance-34.rennes.grid5000.fr;thermos-root-devel-WordCountTopology-0-e3d39958-1408-45ed-bee7-e4a9fb959c4e;["topology_master"];3.25;1533808770.38547;3.18;9.18;0.0;9;117
10;paravance-33.rennes.grid5000.fr;thermos-root-devel-WordCountTopology-1-1478d12a-2308-4c11-99c5-7dbbe1be1684;["container_1_Consume_and_count_1"];3.25;1533808770.83476;86.74;519.91;20.479087061;10;149
11;paravance-31.rennes.grid5000.fr;thermos-root-devel-WordCountTopology-2-5b42d53f-f93d-48b1-8e34-c5960cd20279;["container_2_Emit_random_words_2"];3.25;1533808780.64698;66.46;370.53;4.746461542;10;149
11;paravance-34.rennes.grid5000.fr;thermos-root-devel-WordCountTopology-0-e3d39958-1408-45ed-bee7-e4a9fb959c4e;["topology_master"];3.25;1533808780.60755;3.23;9.25;0.0;9;117
11;paravance-33.rennes.grid5000.fr;thermos-root-devel-WordCountTopology-1-1478d12a-2308-4c11-99c5-7dbbe1be1684;["container_1_Consume_and_count_1"];3.25;1533808781.04744;90.63;544.2;21.275418753;10;149
12;paravance-31.rennes.grid5000.fr;thermos-root-devel-WordCountTopology-2-5b42d53f-f93d-48b1-8e34-c5960cd20279;["container_2_Emit_random_words_2"];3.25;1533808790.86828;69.3;385.76;4.746483622;10;149
12;paravance-33.rennes.grid5000.fr;thermos-root-devel-WordCountTopology-1-1478d12a-2308-4c11-99c5-7dbbe1be1684;["container_1_Consume_and_count_1"];3.25;1533808791.25665;94.51;569.42;22.412415908;10;150
12;paravance-34.rennes.grid5000.fr;thermos-root-devel-WordCountTopology-0-e3d39958-1408-45ed-bee7-e4a9fb959c4e;["topology_master"];3.25;1533808790.82695;3.32;9.39;0.0;9;117
13;paravance-31.rennes.grid5000.fr;thermos-root-devel-WordCountTopology-2-5b42d53f-f93d-48b1-8e34-c5960cd20279;["container_2_Emit_random_words_2"];3.25;1533808801.08912;71.87;399.66;4.746483622;10;149
13;paravance-33.rennes.grid5000.fr;thermos-root-devel-WordCountTopology-1-1478d12a-2308-4c11-99c5-7dbbe1be1684;["container_1_Consume_and_count_1"];3.25;1533808801.46658;98.32;593.92;23.173160427;10;150
13;paravance-34.rennes.grid5000.fr;thermos-root-devel-WordCountTopology-0-e3d39958-1408-45ed-bee7-e4a9fb959c4e;["topology_master"];3.25;1533808801.04865;3.39;9.5;0.0;9;117
14;paravance-33.rennes.grid5000.fr;thermos-root-devel-WordCountTopology-1-1478d12a-2308-4c11-99c5-7dbbe1be1684;["container_1_Consume_and_count_1"];3.25;1533808811.67623;102.3;617.76;23.765120612;10;149
14;paravance-31.rennes.grid5000.fr;thermos-root-devel-WordCountTopology-2-5b42d53f-f93d-48b1-8e34-c5960cd20279;["container_2_Emit_random_words_2"];3.25;1533808811.30821;74.62;414.86;4.746483622;10;149
14;paravance-34.rennes.grid5000.fr;thermos-root-devel-WordCountTopology-0-e3d39958-1408-45ed-bee7-e4a9fb959c4e;["topology_master"];3.25;1533808811.2688;3.47;9.63;0.0;9;117
15;paravance-34.rennes.grid5000.fr;thermos-root-devel-WordCountTopology-0-e3d39958-1408-45ed-bee7-e4a9fb959c4e;["topology_master"];3.25;1533808821.48748;3.5;9.65;0.0;9;117
15;paravance-33.rennes.grid5000.fr;thermos-root-devel-WordCountTopology-1-1478d12a-2308-4c11-99c5-7dbbe1be1684;["container_1_Consume_and_count_1"];3.25;1533808821.88556;106.23;641.63;24.502479086;10;149
15;paravance-31.rennes.grid5000.fr;thermos-root-devel-WordCountTopology-2-5b42d53f-f93d-48b1-8e34-c5960cd20279;["container_2_Emit_random_words_2"];3.25;1533808821.52775;77.34;430.14;4.746483622;10;149
16;paravance-33.rennes.grid5000.fr;thermos-root-devel-WordCountTopology-1-1478d12a-2308-4c11-99c5-7dbbe1be1684;["container_1_Consume_and_count_1"];3.25;1533808832.0956;110.28;665.04;25.417850094;10;149
16;paravance-34.rennes.grid5000.fr;thermos-root-devel-WordCountTopology-0-e3d39958-1408-45ed-bee7-e4a9fb959c4e;["topology_master"];3.25;1533808831.70824;3.58;9.78;0.0;9;117
16;paravance-31.rennes.grid5000.fr;thermos-root-devel-WordCountTopology-2-5b42d53f-f93d-48b1-8e34-c5960cd20279;["container_2_Emit_random_words_2"];3.25;1533808831.74842;79.96;445.2;4.746483622;10;149
17;paravance-33.rennes.grid5000.fr;thermos-root-devel-WordCountTopology-1-1478d12a-2308-4c11-99c5-7dbbe1be1684;["container_1_Consume_and_count_1"];3.25;1533808842.30535;114.17;689.22;26.236334744;10;149
17;paravance-31.rennes.grid5000.fr;thermos-root-devel-WordCountTopology-2-5b42d53f-f93d-48b1-8e34-c5960cd20279;["container_2_Emit_random_words_2"];3.25;1533808841.96881;82.67;460.25;4.746483622;10;149
17;paravance-34.rennes.grid5000.fr;thermos-root-devel-WordCountTopology-0-e3d39958-1408-45ed-bee7-e4a9fb959c4e;["topology_master"];3.25;1533808841.92928;3.64;9.85;0.0;9;117
18;paravance-31.rennes.grid5000.fr;thermos-root-devel-WordCountTopology-2-5b42d53f-f93d-48b1-8e34-c5960cd20279;["container_2_Emit_random_words_2"];3.25;1533808852.18848;85.45;475.48;4.816332926;10;149
18;paravance-33.rennes.grid5000.fr;thermos-root-devel-WordCountTopology-1-1478d12a-2308-4c11-99c5-7dbbe1be1684;["container_1_Consume_and_count_1"];3.25;1533808852.51542;118.25;713.37;27.447764712;10;149
18;paravance-34.rennes.grid5000.fr;thermos-root-devel-WordCountTopology-0-e3d39958-1408-45ed-bee7-e4a9fb959c4e;["topology_master"];3.25;1533808852.14877;3.76;10.1;0.0;9;117
19;paravance-33.rennes.grid5000.fr;thermos-root-devel-WordCountTopology-1-1478d12a-2308-4c11-99c5-7dbbe1be1684;["container_1_Consume_and_count_1"];3.25;1533808862.7259;122.13;736.95;28.135361301;10;149
19;paravance-34.rennes.grid5000.fr;thermos-root-devel-WordCountTopology-0-e3d39958-1408-45ed-bee7-e4a9fb959c4e;["topology_master"];3.25;1533808862.36956;3.79;10.13;0.0;9;117
19;paravance-31.rennes.grid5000.fr;thermos-root-devel-WordCountTopology-2-5b42d53f-f93d-48b1-8e34-c5960cd20279;["container_2_Emit_random_words_2"];3.25;1533808862.40987;87.96;489.74;4.816332926;10;149
20;paravance-33.rennes.grid5000.fr;thermos-root-devel-WordCountTopology-1-1478d12a-2308-4c11-99c5-7dbbe1be1684;["container_1_Consume_and_count_1"];3.25;1533808872.93494;126.09;761.4;29.112228571;10;149
20;paravance-31.rennes.grid5000.fr;thermos-root-devel-WordCountTopology-2-5b42d53f-f93d-48b1-8e34-c5960cd20279;["container_2_Emit_random_words_2"];3.25;1533808872.62895;90.74;504.97;4.816332926;10;149
20;paravance-34.rennes.grid5000.fr;thermos-root-devel-WordCountTopology-0-e3d39958-1408-45ed-bee7-e4a9fb959c4e;["topology_master"];3.25;1533808872.58957;3.88;10.25;0.0;9;117
21;paravance-31.rennes.grid5000.fr;thermos-root-devel-WordCountTopology-2-5b42d53f-f93d-48b1-8e34-c5960cd20279;["container_2_Emit_random_words_2"];3.25;1533808882.7474;93.42;519.77;4.816332926;10;149
21;paravance-33.rennes.grid5000.fr;thermos-root-devel-WordCountTopology-1-1478d12a-2308-4c11-99c5-7dbbe1be1684;["container_1_Consume_and_count_1"];3.25;1533808883.14476;129.96;785.61;29.885599812;10;149
21;paravance-34.rennes.grid5000.fr;thermos-root-devel-WordCountTopology-0-e3d39958-1408-45ed-bee7-e4a9fb959c4e;["topology_master"];3.25;1533808882.80823;3.93;10.32;0.0;9;117
22;paravance-33.rennes.grid5000.fr;thermos-root-devel-WordCountTopology-1-1478d12a-2308-4c11-99c5-7dbbe1be1684;["container_1_Consume_and_count_1"];3.25;1533808893.35532;133.74;808.92;30.516779741;10;149
22;paravance-31.rennes.grid5000.fr;thermos-root-devel-WordCountTopology-2-5b42d53f-f93d-48b1-8e34-c5960cd20279;["container_2_Emit_random_words_2"];3.25;1533808893.0683;96.03;533.97;4.816332926;10;149
22;paravance-34.rennes.grid5000.fr;thermos-root-devel-WordCountTopology-0-e3d39958-1408-45ed-bee7-e4a9fb959c4e;["topology_master"];3.25;1533808893.02928;3.99;10.4;0.0;9;117
23;paravance-33.rennes.grid5000.fr;thermos-root-devel-WordCountTopology-1-1478d12a-2308-4c11-99c5-7dbbe1be1684;["container_1_Consume_and_count_1"];3.25;1533808903.567;137.64;833.08;31.14783201;10;149
23;paravance-31.rennes.grid5000.fr;thermos-root-devel-WordCountTopology-2-5b42d53f-f93d-48b1-8e34-c5960cd20279;["container_2_Emit_random_words_2"];3.25;1533808903.29145;98.76;549.19;4.816332926;10;149
23;paravance-34.rennes.grid5000.fr;thermos-root-devel-WordCountTopology-0-e3d39958-1408-45ed-bee7-e4a9fb959c4e;["topology_master"];3.25;1533808903.25053;4.04;10.47;0.0;9;117
24;paravance-31.rennes.grid5000.fr;thermos-root-devel-WordCountTopology-2-5b42d53f-f93d-48b1-8e34-c5960cd20279;["container_2_Emit_random_words_2"];3.25;1533808913.51117;101.4;563.73;4.816332926;10;149
24;paravance-33.rennes.grid5000.fr;thermos-root-devel-WordCountTopology-1-1478d12a-2308-4c11-99c5-7dbbe1be1684;["container_1_Consume_and_count_1"];3.25;1533808913.77691;141.62;857.55;32.048644963;10;150
24;paravance-34.rennes.grid5000.fr;thermos-root-devel-WordCountTopology-0-e3d39958-1408-45ed-bee7-e4a9fb959c4e;["topology_master"];3.25;1533808913.47181;4.15;10.65;0.0;9;117
25;paravance-31.rennes.grid5000.fr;thermos-root-devel-WordCountTopology-2-5b42d53f-f93d-48b1-8e34-c5960cd20279;["container_2_Emit_random_words_2"];3.25;1533808923.73093;104.16;580.31;4.816332926;10;149
25;paravance-33.rennes.grid5000.fr;thermos-root-devel-WordCountTopology-1-1478d12a-2308-4c11-99c5-7dbbe1be1684;["container_1_Consume_and_count_1"];3.25;1533808923.98768;145.76;881.02;32.916365548;10;150
25;paravance-34.rennes.grid5000.fr;thermos-root-devel-WordCountTopology-0-e3d39958-1408-45ed-bee7-e4a9fb959c4e;["topology_master"];3.25;1533808923.69253;4.18;10.68;0.0;9;117
26;paravance-33.rennes.grid5000.fr;thermos-root-devel-WordCountTopology-1-1478d12a-2308-4c11-99c5-7dbbe1be1684;["container_1_Consume_and_count_1"];3.25;1533808934.19815;149.63;905.1;33.87434591;10;149
26;paravance-31.rennes.grid5000.fr;thermos-root-devel-WordCountTopology-2-5b42d53f-f93d-48b1-8e34-c5960cd20279;["container_2_Emit_random_words_2"];3.25;1533808933.95049;106.85;594.87;4.816332926;10;149
26;paravance-34.rennes.grid5000.fr;thermos-root-devel-WordCountTopology-0-e3d39958-1408-45ed-bee7-e4a9fb959c4e;["topology_master"];3.25;1533808933.91112;4.26;10.79;0.0;9;117
27;paravance-33.rennes.grid5000.fr;thermos-root-devel-WordCountTopology-1-1478d12a-2308-4c11-99c5-7dbbe1be1684;["container_1_Consume_and_count_1"];3.25;1533808944.40813;153.46;929.68;34.77177958;10;149
27;paravance-34.rennes.grid5000.fr;thermos-root-devel-WordCountTopology-0-e3d39958-1408-45ed-bee7-e4a9fb959c4e;["topology_master"];3.25;1533808944.13113;4.31;10.86;0.0;9;117
27;paravance-31.rennes.grid5000.fr;thermos-root-devel-WordCountTopology-2-5b42d53f-f93d-48b1-8e34-c5960cd20279;["container_2_Emit_random_words_2"];3.25;1533808944.17191;109.51;609.51;4.816332926;10;149
28;paravance-33.rennes.grid5000.fr;thermos-root-devel-WordCountTopology-1-1478d12a-2308-4c11-99c5-7dbbe1be1684;["container_1_Consume_and_count_1"];3.25;1533808954.61821;157.39;953.75;35.623130227;10;149
28;paravance-34.rennes.grid5000.fr;thermos-root-devel-WordCountTopology-0-e3d39958-1408-45ed-bee7-e4a9fb959c4e;["topology_master"];3.25;1533808954.35236;4.37;10.94;0.0;9;117
28;paravance-31.rennes.grid5000.fr;thermos-root-devel-WordCountTopology-2-5b42d53f-f93d-48b1-8e34-c5960cd20279;["container_2_Emit_random_words_2"];3.25;1533808954.39295;112.21;624.13;4.816332926;10;149
29;paravance-34.rennes.grid5000.fr;thermos-root-devel-WordCountTopology-0-e3d39958-1408-45ed-bee7-e4a9fb959c4e;["topology_master"];3.25;1533808964.57247;4.46;11.06;0.0;9;117
29;paravance-33.rennes.grid5000.fr;thermos-root-devel-WordCountTopology-1-1478d12a-2308-4c11-99c5-7dbbe1be1684;["container_1_Consume_and_count_1"];3.25;1533808964.82989;161.26;977.73;36.567928477;10;149
29;paravance-31.rennes.grid5000.fr;thermos-root-devel-WordCountTopology-2-5b42d53f-f93d-48b1-8e34-c5960cd20279;["container_2_Emit_random_words_2"];3.25;1533808964.61384;114.96;638.93;4.816332926;10;149
30;paravance-31.rennes.grid5000.fr;thermos-root-devel-WordCountTopology-2-5b42d53f-f93d-48b1-8e34-c5960cd20279;["container_2_Emit_random_words_2"];3.25;1533808974.8349;117.63;653.25;4.816332926;10;149
30;paravance-33.rennes.grid5000.fr;thermos-root-devel-WordCountTopology-1-1478d12a-2308-4c11-99c5-7dbbe1be1684;["container_1_Consume_and_count_1"];3.25;1533808975.04003;165.29;1001.13;37.438637856;10;149
30;paravance-34.rennes.grid5000.fr;thermos-root-devel-WordCountTopology-0-e3d39958-1408-45ed-bee7-e4a9fb959c4e;["topology_master"];3.25;1533808974.79349;4.52;11.18;0.0;9;117
31;paravance-33.rennes.grid5000.fr;thermos-root-devel-WordCountTopology-1-1478d12a-2308-4c11-99c5-7dbbe1be1684;["container_1_Consume_and_count_1"];3.25;1533808985.25004;169.04;1025.69;38.231381564;10;149
31;paravance-31.rennes.grid5000.fr;thermos-root-devel-WordCountTopology-2-5b42d53f-f93d-48b1-8e34-c5960cd20279;["container_2_Emit_random_words_2"];3.25;1533808985.05463;120.2;667.52;4.816332926;10;149
31;paravance-34.rennes.grid5000.fr;thermos-root-devel-WordCountTopology-0-e3d39958-1408-45ed-bee7-e4a9fb959c4e;["topology_master"];3.25;1533808985.01478;4.58;11.26;0.0;9;117
32;paravance-33.rennes.grid5000.fr;thermos-root-devel-WordCountTopology-1-1478d12a-2308-4c11-99c5-7dbbe1be1684;["container_1_Consume_and_count_1"];3.25;1533808995.4595;172.86;1049.83;38.823893523;10;149
32;paravance-31.rennes.grid5000.fr;thermos-root-devel-WordCountTopology-2-5b42d53f-f93d-48b1-8e34-c5960cd20279;["container_2_Emit_random_words_2"];3.25;1533808995.27545;122.91;682.38;4.816332926;10;149
32;paravance-34.rennes.grid5000.fr;thermos-root-devel-WordCountTopology-0-e3d39958-1408-45ed-bee7-e4a9fb959c4e;["topology_master"];3.25;1533808995.2343;4.64;11.33;0.0;9;117
33;paravance-34.rennes.grid5000.fr;thermos-root-devel-WordCountTopology-0-e3d39958-1408-45ed-bee7-e4a9fb959c4e;["topology_master"];3.25;1533809005.45393;4.73;11.45;0.0;9;117
33;paravance-33.rennes.grid5000.fr;thermos-root-devel-WordCountTopology-1-1478d12a-2308-4c11-99c5-7dbbe1be1684;["container_1_Consume_and_count_1"];3.25;1533809005.6699;176.88;1073.41;39.633382764;10;149
33;paravance-31.rennes.grid5000.fr;thermos-root-devel-WordCountTopology-2-5b42d53f-f93d-48b1-8e34-c5960cd20279;["container_2_Emit_random_words_2"];3.25;1533809005.49477;125.66;697.54;4.816332926;10;149
34;paravance-31.rennes.grid5000.fr;thermos-root-devel-WordCountTopology-2-5b42d53f-f93d-48b1-8e34-c5960cd20279;["container_2_Emit_random_words_2"];3.25;1533809015.71711;128.35;713.11;4.816332926;10;149
34;paravance-34.rennes.grid5000.fr;thermos-root-devel-WordCountTopology-0-e3d39958-1408-45ed-bee7-e4a9fb959c4e;["topology_master"];3.25;1533809015.67565;4.75;11.47;0.0;9;117
34;paravance-33.rennes.grid5000.fr;thermos-root-devel-WordCountTopology-1-1478d12a-2308-4c11-99c5-7dbbe1be1684;["container_1_Consume_and_count_1"];3.25;1533809015.88186;180.93;1096.54;40.265306865;10;149
35;paravance-33.rennes.grid5000.fr;thermos-root-devel-WordCountTopology-1-1478d12a-2308-4c11-99c5-7dbbe1be1684;["container_1_Consume_and_count_1"];3.25;1533809025.99166;185.06;1120.23;40.998065769;10;149
35;paravance-34.rennes.grid5000.fr;thermos-root-devel-WordCountTopology-0-e3d39958-1408-45ed-bee7-e4a9fb959c4e;["topology_master"];3.25;1533809025.89512;4.85;11.61;0.0;9;117
35;paravance-31.rennes.grid5000.fr;thermos-root-devel-WordCountTopology-2-5b42d53f-f93d-48b1-8e34-c5960cd20279;["container_2_Emit_random_words_2"];3.25;1533809025.9366;131.27;729.17;4.816332926;10;149
36;paravance-33.rennes.grid5000.fr;thermos-root-devel-WordCountTopology-1-1478d12a-2308-4c11-99c5-7dbbe1be1684;["container_1_Consume_and_count_1"];3.25;1533809036.30239;189.0;1145.2;41.88507282;10;149
36;paravance-34.rennes.grid5000.fr;thermos-root-devel-WordCountTopology-0-e3d39958-1408-45ed-bee7-e4a9fb959c4e;["topology_master"];3.25;1533809036.11648;4.91;11.77;0.0;9;117
36;paravance-31.rennes.grid5000.fr;thermos-root-devel-WordCountTopology-2-5b42d53f-f93d-48b1-8e34-c5960cd20279;["container_2_Emit_random_words_2"];3.25;1533809036.15709;133.98;744.07;4.816332926;10;149
37;paravance-33.rennes.grid5000.fr;thermos-root-devel-WordCountTopology-1-1478d12a-2308-4c11-99c5-7dbbe1be1684;["container_1_Consume_and_count_1"];3.25;1533809046.51298;192.94;1169.37;42.760228146;10;149
37;paravance-31.rennes.grid5000.fr;thermos-root-devel-WordCountTopology-2-5b42d53f-f93d-48b1-8e34-c5960cd20279;["container_2_Emit_random_words_2"];3.25;1533809046.37889;136.74;759.79;4.816332926;10;149
37;paravance-34.rennes.grid5000.fr;thermos-root-devel-WordCountTopology-0-e3d39958-1408-45ed-bee7-e4a9fb959c4e;["topology_master"];3.25;1533809046.338;4.97;11.84;0.0;9;117
38;paravance-31.rennes.grid5000.fr;thermos-root-devel-WordCountTopology-2-5b42d53f-f93d-48b1-8e34-c5960cd20279;["container_2_Emit_random_words_2"];3.25;1533809056.60036;139.45;775.08;4.816332926;10;149
38;paravance-34.rennes.grid5000.fr;thermos-root-devel-WordCountTopology-0-e3d39958-1408-45ed-bee7-e4a9fb959c4e;["topology_master"];3.25;1533809056.55879;5.03;11.91;0.0;9;117
38;paravance-33.rennes.grid5000.fr;thermos-root-devel-WordCountTopology-1-1478d12a-2308-4c11-99c5-7dbbe1be1684;["container_1_Consume_and_count_1"];3.25;1533809056.72513;196.83;1193.69;43.87464088;10;149
39;paravance-33.rennes.grid5000.fr;thermos-root-devel-WordCountTopology-1-1478d12a-2308-4c11-99c5-7dbbe1be1684;["container_1_Consume_and_count_1"];3.25;1533809066.93469;200.83;1218.26;44.998107433;10;149
39;paravance-31.rennes.grid5000.fr;thermos-root-devel-WordCountTopology-2-5b42d53f-f93d-48b1-8e34-c5960cd20279;["container_2_Emit_random_words_2"];3.25;1533809066.82004;142.3;790.54;4.816332926;10;149
39;paravance-34.rennes.grid5000.fr;thermos-root-devel-WordCountTopology-0-e3d39958-1408-45ed-bee7-e4a9fb959c4e;["topology_master"];3.25;1533809066.77945;5.12;12.03;0.0;9;117
40;paravance-31.rennes.grid5000.fr;thermos-root-devel-WordCountTopology-2-5b42d53f-f93d-48b1-8e34-c5960cd20279;["container_2_Emit_random_words_2"];3.25;1533809077.04067;145.1;805.63;4.816332926;10;149
40;paravance-34.rennes.grid5000.fr;thermos-root-devel-WordCountTopology-0-e3d39958-1408-45ed-bee7-e4a9fb959c4e;["topology_master"];3.25;1533809077.00048;5.14;12.06;0.0;9;117
40;paravance-33.rennes.grid5000.fr;thermos-root-devel-WordCountTopology-1-1478d12a-2308-4c11-99c5-7dbbe1be1684;["container_1_Consume_and_count_1"];3.25;1533809077.16114;204.81;1242.44;45.956293337;10;149
41;paravance-31.rennes.grid5000.fr;thermos-root-devel-WordCountTopology-2-5b42d53f-f93d-48b1-8e34-c5960cd20279;["container_2_Emit_random_words_2"];3.25;1533809087.27439;147.92;821.86;4.816332926;10;149
41;paravance-34.rennes.grid5000.fr;thermos-root-devel-WordCountTopology-0-e3d39958-1408-45ed-bee7-e4a9fb959c4e;["topology_master"];3.25;1533809087.23507;5.23;12.19;0.0;9;117
41;paravance-33.rennes.grid5000.fr;thermos-root-devel-WordCountTopology-1-1478d12a-2308-4c11-99c5-7dbbe1be1684;["container_1_Consume_and_count_1"];3.25;1533809087.37033;208.97;1266.86;46.878871328;10;149
42;paravance-34.rennes.grid5000.fr;thermos-root-devel-WordCountTopology-0-e3d39958-1408-45ed-bee7-e4a9fb959c4e;["topology_master"];3.25;1533809097.35672;5.3;12.3;0.0;9;117
42;paravance-33.rennes.grid5000.fr;thermos-root-devel-WordCountTopology-1-1478d12a-2308-4c11-99c5-7dbbe1be1684;["container_1_Consume_and_count_1"];3.25;1533809097.5818;213.11;1291.56;47.965543716;10;149
42;paravance-31.rennes.grid5000.fr;thermos-root-devel-WordCountTopology-2-5b42d53f-f93d-48b1-8e34-c5960cd20279;["container_2_Emit_random_words_2"];3.25;1533809097.4982;150.85;838.28;4.816332926;10;149
43;paravance-33.rennes.grid5000.fr;thermos-root-devel-WordCountTopology-1-1478d12a-2308-4c11-99c5-7dbbe1be1684;["container_1_Consume_and_count_1"];3.25;1533809107.69235;217.03;1316.12;48.921254718;10;149
43;paravance-34.rennes.grid5000.fr;thermos-root-devel-WordCountTopology-0-e3d39958-1408-45ed-bee7-e4a9fb959c4e;["topology_master"];3.25;1533809107.67797;5.35;12.37;0.0;9;117
43;paravance-31.rennes.grid5000.fr;thermos-root-devel-WordCountTopology-2-5b42d53f-f93d-48b1-8e34-c5960cd20279;["container_2_Emit_random_words_2"];3.25;1533809107.71897;153.57;853.02;4.816332926;10;149
44;paravance-34.rennes.grid5000.fr;thermos-root-devel-WordCountTopology-0-e3d39958-1408-45ed-bee7-e4a9fb959c4e;["topology_master"];3.25;1533809117.89757;5.41;12.45;0.0;9;117
44;paravance-33.rennes.grid5000.fr;thermos-root-devel-WordCountTopology-1-1478d12a-2308-4c11-99c5-7dbbe1be1684;["container_1_Consume_and_count_1"];3.25;1533809118.0023;221.07;1340.73;50.130324037;10;149
44;paravance-31.rennes.grid5000.fr;thermos-root-devel-WordCountTopology-2-5b42d53f-f93d-48b1-8e34-c5960cd20279;["container_2_Emit_random_words_2"];3.25;1533809117.93807;156.4;868.69;4.816332926;10;149
45;paravance-34.rennes.grid5000.fr;thermos-root-devel-WordCountTopology-0-e3d39958-1408-45ed-bee7-e4a9fb959c4e;["topology_master"];3.25;1533809128.11858;5.5;12.57;0.0;9;117
45;paravance-33.rennes.grid5000.fr;thermos-root-devel-WordCountTopology-1-1478d12a-2308-4c11-99c5-7dbbe1be1684;["container_1_Consume_and_count_1"];3.25;1533809128.21217;225.06;1364.33;50.880269679;10;149
45;paravance-31.rennes.grid5000.fr;thermos-root-devel-WordCountTopology-2-5b42d53f-f93d-48b1-8e34-c5960cd20279;["container_2_Emit_random_words_2"];3.25;1533809128.15888;159.16;884.42;4.816332926;10;149
46;paravance-31.rennes.grid5000.fr;thermos-root-devel-WordCountTopology-2-5b42d53f-f93d-48b1-8e34-c5960cd20279;["container_2_Emit_random_words_2"];3.25;1533809138.38073;161.97;900.6;4.816332926;10;149
46;paravance-33.rennes.grid5000.fr;thermos-root-devel-WordCountTopology-1-1478d12a-2308-4c11-99c5-7dbbe1be1684;["container_1_Consume_and_count_1"];3.25;1533809138.42393;229.05;1388.7;51.711193088;10;149
46;paravance-34.rennes.grid5000.fr;thermos-root-devel-WordCountTopology-0-e3d39958-1408-45ed-bee7-e4a9fb959c4e;["topology_master"];3.25;1533809138.34007;5.53;12.59;0.0;9;117
47;paravance-34.rennes.grid5000.fr;thermos-root-devel-WordCountTopology-0-e3d39958-1408-45ed-bee7-e4a9fb959c4e;["topology_master"];3.25;1533809148.56168;5.62;12.72;0.0;9;117
47;paravance-33.rennes.grid5000.fr;thermos-root-devel-WordCountTopology-1-1478d12a-2308-4c11-99c5-7dbbe1be1684;["container_1_Consume_and_count_1"];3.25;1533809148.63641;232.96;1412.67;52.31197027;10;149
47;paravance-31.rennes.grid5000.fr;thermos-root-devel-WordCountTopology-2-5b42d53f-f93d-48b1-8e34-c5960cd20279;["container_2_Emit_random_words_2"];3.25;1533809148.60354;164.76;915.9;4.816332926;10;149
48;paravance-31.rennes.grid5000.fr;thermos-root-devel-WordCountTopology-2-5b42d53f-f93d-48b1-8e34-c5960cd20279;["container_2_Emit_random_words_2"];3.25;1533809158.82297;167.67;932.56;4.816332926;10;149
48;paravance-33.rennes.grid5000.fr;thermos-root-devel-WordCountTopology-1-1478d12a-2308-4c11-99c5-7dbbe1be1684;["container_1_Consume_and_count_1"];3.25;1533809158.84613;237.15;1435.99;52.864676464;10;149
48;paravance-34.rennes.grid5000.fr;thermos-root-devel-WordCountTopology-0-e3d39958-1408-45ed-bee7-e4a9fb959c4e;["topology_master"];3.25;1533809158.78207;5.68;12.86;0.0;9;117
49;paravance-31.rennes.grid5000.fr;thermos-root-devel-WordCountTopology-2-5b42d53f-f93d-48b1-8e34-c5960cd20279;["container_2_Emit_random_words_2"];3.25;1533809169.04461;170.46;947.76;4.816332926;10;149
49;paravance-34.rennes.grid5000.fr;thermos-root-devel-WordCountTopology-0-e3d39958-1408-45ed-bee7-e4a9fb959c4e;["topology_master"];3.25;1533809169.00416;5.76;12.96;0.0;9;117
49;paravance-33.rennes.grid5000.fr;thermos-root-devel-WordCountTopology-1-1478d12a-2308-4c11-99c5-7dbbe1be1684;["container_1_Consume_and_count_1"];3.25;1533809169.05767;241.11;1459.47;53.554380062;10;149
50;paravance-31.rennes.grid5000.fr;thermos-root-devel-WordCountTopology-2-5b42d53f-f93d-48b1-8e34-c5960cd20279;["container_2_Emit_random_words_2"];3.25;1533809179.2641;173.25;964.34;4.816332926;10;149
50;paravance-33.rennes.grid5000.fr;thermos-root-devel-WordCountTopology-1-1478d12a-2308-4c11-99c5-7dbbe1be1684;["container_1_Consume_and_count_1"];3.25;1533809179.26699;245.13;1483.16;54.244033179;10;149
50;paravance-34.rennes.grid5000.fr;thermos-root-devel-WordCountTopology-0-e3d39958-1408-45ed-bee7-e4a9fb959c4e;["topology_master"];3.25;1533809179.22313;5.79;13.01;0.0;9;117
51;paravance-33.rennes.grid5000.fr;thermos-root-devel-WordCountTopology-1-1478d12a-2308-4c11-99c5-7dbbe1be1684;["container_1_Consume_and_count_1"];3.25;1533809189.47628;249.24;1506.51;55.284188647;10;149
51;paravance-31.rennes.grid5000.fr;thermos-root-devel-WordCountTopology-2-5b42d53f-f93d-48b1-8e34-c5960cd20279;["container_2_Emit_random_words_2"];3.25;1533809189.48413;176.14;981.35;4.816332926;10;149
51;paravance-34.rennes.grid5000.fr;thermos-root-devel-WordCountTopology-0-e3d39958-1408-45ed-bee7-e4a9fb959c4e;["topology_master"];3.25;1533809189.44279;5.88;13.13;0.0;9;117
52;paravance-33.rennes.grid5000.fr;thermos-root-devel-WordCountTopology-1-1478d12a-2308-4c11-99c5-7dbbe1be1684;["container_1_Consume_and_count_1"];3.25;1533809199.68979;253.34;1529.68;56.023269848;10;149
52;paravance-34.rennes.grid5000.fr;thermos-root-devel-WordCountTopology-0-e3d39958-1408-45ed-bee7-e4a9fb959c4e;["topology_master"];3.25;1533809199.66813;5.94;13.21;0.0;9;117
52;paravance-31.rennes.grid5000.fr;thermos-root-devel-WordCountTopology-2-5b42d53f-f93d-48b1-8e34-c5960cd20279;["container_2_Emit_random_words_2"];3.25;1533809199.71085;178.92;997.62;4.816332926;10;149
53;paravance-31.rennes.grid5000.fr;thermos-root-devel-WordCountTopology-2-5b42d53f-f93d-48b1-8e34-c5960cd20279;["container_2_Emit_random_words_2"];3.25;1533809209.92966;181.71;1013.4;4.816332926;10;149
53;paravance-33.rennes.grid5000.fr;thermos-root-devel-WordCountTopology-1-1478d12a-2308-4c11-99c5-7dbbe1be1684;["container_1_Consume_and_count_1"];3.25;1533809209.9028;257.25;1554.24;56.954919639;10;149
53;paravance-34.rennes.grid5000.fr;thermos-root-devel-WordCountTopology-0-e3d39958-1408-45ed-bee7-e4a9fb959c4e;["topology_master"];3.25;1533809209.89056;6.0;13.3;0.0;9;117
54;paravance-31.rennes.grid5000.fr;thermos-root-devel-WordCountTopology-2-5b42d53f-f93d-48b1-8e34-c5960cd20279;["container_2_Emit_random_words_2"];3.25;1533809220.15175;184.51;1029.24;4.816332926;10;149
54;paravance-34.rennes.grid5000.fr;thermos-root-devel-WordCountTopology-0-e3d39958-1408-45ed-bee7-e4a9fb959c4e;["topology_master"];3.25;1533809220.11048;6.06;13.41;0.0;9;117
54;paravance-33.rennes.grid5000.fr;thermos-root-devel-WordCountTopology-1-1478d12a-2308-4c11-99c5-7dbbe1be1684;["container_1_Consume_and_count_1"];3.25;1533809220.11358;261.2;1578.3;57.785663559;10;149
55;paravance-33.rennes.grid5000.fr;thermos-root-devel-WordCountTopology-1-1478d12a-2308-4c11-99c5-7dbbe1be1684;["container_1_Consume_and_count_1"];3.25;1533809230.32546;265.32;1601.67;58.395069784;10;149
55;paravance-31.rennes.grid5000.fr;thermos-root-devel-WordCountTopology-2-5b42d53f-f93d-48b1-8e34-c5960cd20279;["container_2_Emit_random_words_2"];3.25;1533809230.37308;187.37;1046.28;4.816332926;10;149
55;paravance-34.rennes.grid5000.fr;thermos-root-devel-WordCountTopology-0-e3d39958-1408-45ed-bee7-e4a9fb959c4e;["topology_master"];3.25;1533809230.33185;6.15;13.52;0.0;9;117
56;paravance-33.rennes.grid5000.fr;thermos-root-devel-WordCountTopology-1-1478d12a-2308-4c11-99c5-7dbbe1be1684;["container_1_Consume_and_count_1"];3.25;1533809240.43503;269.23;1625.15;59.278187161;10;149
56;paravance-34.rennes.grid5000.fr;thermos-root-devel-WordCountTopology-0-e3d39958-1408-45ed-bee7-e4a9fb959c4e;["topology_master"];3.25;1533809240.45239;6.17;13.55;0.0;9;117
56;paravance-31.rennes.grid5000.fr;thermos-root-devel-WordCountTopology-2-5b42d53f-f93d-48b1-8e34-c5960cd20279;["container_2_Emit_random_words_2"];3.25;1533809240.59371;190.2;1062.49;4.816332926;10;149
57;paravance-33.rennes.grid5000.fr;thermos-root-devel-WordCountTopology-1-1478d12a-2308-4c11-99c5-7dbbe1be1684;["container_1_Consume_and_count_1"];3.25;1533809250.74658;273.34;1649.33;60.092436904;10;149
57;paravance-31.rennes.grid5000.fr;thermos-root-devel-WordCountTopology-2-5b42d53f-f93d-48b1-8e34-c5960cd20279;["container_2_Emit_random_words_2"];3.25;1533809250.81614;193.08;1079.4;4.816332926;10;149
57;paravance-34.rennes.grid5000.fr;thermos-root-devel-WordCountTopology-0-e3d39958-1408-45ed-bee7-e4a9fb959c4e;["topology_master"];3.25;1533809250.77448;6.26;13.67;0.0;9;117
58;paravance-33.rennes.grid5000.fr;thermos-root-devel-WordCountTopology-1-1478d12a-2308-4c11-99c5-7dbbe1be1684;["container_1_Consume_and_count_1"];3.25;1533809260.95832;277.32;1673.21;60.859773965;10;149
58;paravance-31.rennes.grid5000.fr;thermos-root-devel-WordCountTopology-2-5b42d53f-f93d-48b1-8e34-c5960cd20279;["container_2_Emit_random_words_2"];3.25;1533809261.03781;195.83;1095.19;4.816332926;10;149
58;paravance-34.rennes.grid5000.fr;thermos-root-devel-WordCountTopology-0-e3d39958-1408-45ed-bee7-e4a9fb959c4e;["topology_master"];3.25;1533809260.99768;6.31;13.74;0.0;9;117
59;paravance-34.rennes.grid5000.fr;thermos-root-devel-WordCountTopology-0-e3d39958-1408-45ed-bee7-e4a9fb959c4e;["topology_master"];3.25;1533809271.11753;6.38;13.91;0.0;9;117
59;paravance-33.rennes.grid5000.fr;thermos-root-devel-WordCountTopology-1-1478d12a-2308-4c11-99c5-7dbbe1be1684;["container_1_Consume_and_count_1"];3.25;1533809271.16878;281.43;1697.83;61.788362899;10;149
59;paravance-31.rennes.grid5000.fr;thermos-root-devel-WordCountTopology-2-5b42d53f-f93d-48b1-8e34-c5960cd20279;["container_2_Emit_random_words_2"];3.25;1533809271.25889;198.77;1111.95;4.816332926;10;149
60;paravance-33.rennes.grid5000.fr;thermos-root-devel-WordCountTopology-1-1478d12a-2308-4c11-99c5-7dbbe1be1684;["container_1_Consume_and_count_1"];3.25;1533809281.37771;285.43;1722.25;62.722749129;10;149
60;paravance-31.rennes.grid5000.fr;thermos-root-devel-WordCountTopology-2-5b42d53f-f93d-48b1-8e34-c5960cd20279;["container_2_Emit_random_words_2"];3.25;1533809281.47851;201.58;1128.01;4.816332926;10;149
60;paravance-34.rennes.grid5000.fr;thermos-root-devel-WordCountTopology-0-e3d39958-1408-45ed-bee7-e4a9fb959c4e;["topology_master"];3.25;1533809281.43871;6.44;13.99;0.0;9;117
