mesure_id;slave_id;executor_id;heron_instances;cpus_limit;timestamp_A;cpus_system_time_secs_A;cpus_user_time_secs_A;cpus_throttled_time_secs_A;processes;threads
0;paravance-55.rennes.grid5000.fr;thermos-root-devel-WordCountTopology-2-bfca4f6b-17c6-4e30-94e6-ab488cbf2e8d;["container_2_Emit_random_words_2"];1.25;1533257677.33566;15.98;127.24;149.752296797;10;149
0;paravance-71.rennes.grid5000.fr;thermos-root-devel-WordCountTopology-0-d78c0f50-9637-457f-945f-714b8353ef25;["topology_master"];1.25;1533257677.30079;2.43;8.26;3.055746877;9;117
0;paravance-56.rennes.grid5000.fr;thermos-root-devel-WordCountTopology-1-707c3170-8db8-46ed-bc11-d82d6c9a25ba;["container_1_Consume_and_count_1"];1.25;1533257677.2098;22.16;96.85;44.998009105;10;149
1;paravance-56.rennes.grid5000.fr;thermos-root-devel-WordCountTopology-1-707c3170-8db8-46ed-bc11-d82d6c9a25ba;["container_1_Consume_and_count_1"];1.25;1533257687.43448;23.94;104.98;47.975703618;10;149
1;paravance-55.rennes.grid5000.fr;thermos-root-devel-WordCountTopology-2-bfca4f6b-17c6-4e30-94e6-ab488cbf2e8d;["container_2_Emit_random_words_2"];1.25;1533257687.55184;17.21;137.94;160.443290976;10;149
1;paravance-71.rennes.grid5000.fr;thermos-root-devel-WordCountTopology-0-d78c0f50-9637-457f-945f-714b8353ef25;["topology_master"];1.25;1533257687.51549;2.5;8.44;3.055746877;9;117
2;paravance-56.rennes.grid5000.fr;thermos-root-devel-WordCountTopology-1-707c3170-8db8-46ed-bc11-d82d6c9a25ba;["container_1_Consume_and_count_1"];1.25;1533257697.65485;25.78;113.15;49.926478798;10;149
2;paravance-55.rennes.grid5000.fr;thermos-root-devel-WordCountTopology-2-bfca4f6b-17c6-4e30-94e6-ab488cbf2e8d;["container_2_Emit_random_words_2"];1.25;1533257697.76249;18.46;148.61;170.353447498;10;149
2;paravance-71.rennes.grid5000.fr;thermos-root-devel-WordCountTopology-0-d78c0f50-9637-457f-945f-714b8353ef25;["topology_master"];1.25;1533257697.72587;2.59;8.56;3.055746877;9;117
3;paravance-56.rennes.grid5000.fr;thermos-root-devel-WordCountTopology-1-707c3170-8db8-46ed-bc11-d82d6c9a25ba;["container_1_Consume_and_count_1"];1.25;1533257707.87565;27.6;121.5;50.886274707;10;149
3;paravance-71.rennes.grid5000.fr;thermos-root-devel-WordCountTopology-0-d78c0f50-9637-457f-945f-714b8353ef25;["topology_master"];1.25;1533257707.93643;2.62;8.6;3.055746877;9;117
3;paravance-55.rennes.grid5000.fr;thermos-root-devel-WordCountTopology-2-bfca4f6b-17c6-4e30-94e6-ab488cbf2e8d;["container_2_Emit_random_words_2"];1.25;1533257707.98201;19.67;159.54;179.469774551;10;149
4;paravance-56.rennes.grid5000.fr;thermos-root-devel-WordCountTopology-1-707c3170-8db8-46ed-bc11-d82d6c9a25ba;["container_1_Consume_and_count_1"];1.25;1533257718.09903;29.44;129.86;51.955891282;10;149
4;paravance-55.rennes.grid5000.fr;thermos-root-devel-WordCountTopology-2-bfca4f6b-17c6-4e30-94e6-ab488cbf2e8d;["container_2_Emit_random_words_2"];1.25;1533257718.19097;20.91;170.28;188.619396605;10;149
4;paravance-71.rennes.grid5000.fr;thermos-root-devel-WordCountTopology-0-d78c0f50-9637-457f-945f-714b8353ef25;["topology_master"];1.25;1533257718.15531;2.71;8.72;3.055746877;9;117
5;paravance-71.rennes.grid5000.fr;thermos-root-devel-WordCountTopology-0-d78c0f50-9637-457f-945f-714b8353ef25;["topology_master"];1.25;1533257728.36513;2.77;8.8;3.055746877;9;117
5;paravance-55.rennes.grid5000.fr;thermos-root-devel-WordCountTopology-2-bfca4f6b-17c6-4e30-94e6-ab488cbf2e8d;["container_2_Emit_random_words_2"];1.25;1533257728.40189;22.14;181.03;198.73847176;10;149
5;paravance-56.rennes.grid5000.fr;thermos-root-devel-WordCountTopology-1-707c3170-8db8-46ed-bc11-d82d6c9a25ba;["container_1_Consume_and_count_1"];1.25;1533257728.31725;31.18;138.53;53.551706922;10;149
6;paravance-55.rennes.grid5000.fr;thermos-root-devel-WordCountTopology-2-bfca4f6b-17c6-4e30-94e6-ab488cbf2e8d;["container_2_Emit_random_words_2"];1.25;1533257738.61208;23.37;191.74;208.408632675;10;149
6;paravance-56.rennes.grid5000.fr;thermos-root-devel-WordCountTopology-1-707c3170-8db8-46ed-bc11-d82d6c9a25ba;["container_1_Consume_and_count_1"];1.25;1533257738.53291;32.8;147.28;54.660676151;10;150
6;paravance-71.rennes.grid5000.fr;thermos-root-devel-WordCountTopology-0-d78c0f50-9637-457f-945f-714b8353ef25;["topology_master"];1.25;1533257738.57544;2.86;8.9;3.055746877;9;117
7;paravance-56.rennes.grid5000.fr;thermos-root-devel-WordCountTopology-1-707c3170-8db8-46ed-bc11-d82d6c9a25ba;["container_1_Consume_and_count_1"];1.25;1533257748.74869;34.36;156.6;60.709039205;10;150
7;paravance-71.rennes.grid5000.fr;thermos-root-devel-WordCountTopology-0-d78c0f50-9637-457f-945f-714b8353ef25;["topology_master"];1.25;1533257748.78853;2.93;9.07;3.055746877;9;117
7;paravance-55.rennes.grid5000.fr;thermos-root-devel-WordCountTopology-2-bfca4f6b-17c6-4e30-94e6-ab488cbf2e8d;["container_2_Emit_random_words_2"];1.25;1533257748.82531;24.6;202.43;219.076346106;10;149
8;paravance-56.rennes.grid5000.fr;thermos-root-devel-WordCountTopology-1-707c3170-8db8-46ed-bc11-d82d6c9a25ba;["container_1_Consume_and_count_1"];1.25;1533257758.96419;36.19;164.93;61.734298953;10;149
8;paravance-55.rennes.grid5000.fr;thermos-root-devel-WordCountTopology-2-bfca4f6b-17c6-4e30-94e6-ab488cbf2e8d;["container_2_Emit_random_words_2"];1.25;1533257759.03523;25.85;213.12;229.378017854;10;149
8;paravance-71.rennes.grid5000.fr;thermos-root-devel-WordCountTopology-0-d78c0f50-9637-457f-945f-714b8353ef25;["topology_master"];1.25;1533257758.99825;3.02;9.2;3.055746877;9;117
9;paravance-71.rennes.grid5000.fr;thermos-root-devel-WordCountTopology-0-d78c0f50-9637-457f-945f-714b8353ef25;["topology_master"];1.25;1533257769.10689;3.05;9.23;3.055746877;9;117
9;paravance-56.rennes.grid5000.fr;thermos-root-devel-WordCountTopology-1-707c3170-8db8-46ed-bc11-d82d6c9a25ba;["container_1_Consume_and_count_1"];1.25;1533257769.17804;37.98;173.12;62.428883861;10;149
9;paravance-55.rennes.grid5000.fr;thermos-root-devel-WordCountTopology-2-bfca4f6b-17c6-4e30-94e6-ab488cbf2e8d;["container_2_Emit_random_words_2"];1.25;1533257769.24422;27.03;223.87;239.281685925;10;149
10;paravance-56.rennes.grid5000.fr;thermos-root-devel-WordCountTopology-1-707c3170-8db8-46ed-bc11-d82d6c9a25ba;["container_1_Consume_and_count_1"];1.25;1533257779.39415;39.75;181.57;63.513626707;10;149
10;paravance-55.rennes.grid5000.fr;thermos-root-devel-WordCountTopology-2-bfca4f6b-17c6-4e30-94e6-ab488cbf2e8d;["container_2_Emit_random_words_2"];1.25;1533257779.45427;28.25;234.54;249.477734162;10;149
10;paravance-71.rennes.grid5000.fr;thermos-root-devel-WordCountTopology-0-d78c0f50-9637-457f-945f-714b8353ef25;["topology_master"];1.25;1533257779.41785;3.14;9.35;3.055746877;9;117
11;paravance-55.rennes.grid5000.fr;thermos-root-devel-WordCountTopology-2-bfca4f6b-17c6-4e30-94e6-ab488cbf2e8d;["container_2_Emit_random_words_2"];1.25;1533257789.66571;29.5;245.22;259.913067963;10;149
11;paravance-56.rennes.grid5000.fr;thermos-root-devel-WordCountTopology-1-707c3170-8db8-46ed-bc11-d82d6c9a25ba;["container_1_Consume_and_count_1"];1.25;1533257789.6106;41.52;189.71;64.155292822;10;149
11;paravance-71.rennes.grid5000.fr;thermos-root-devel-WordCountTopology-0-d78c0f50-9637-457f-945f-714b8353ef25;["topology_master"];1.25;1533257789.62924;3.2;9.42;3.055746877;9;117
12;paravance-55.rennes.grid5000.fr;thermos-root-devel-WordCountTopology-2-bfca4f6b-17c6-4e30-94e6-ab488cbf2e8d;["container_2_Emit_random_words_2"];1.25;1533257799.87611;30.78;255.86;270.743438791;10;149
12;paravance-56.rennes.grid5000.fr;thermos-root-devel-WordCountTopology-1-707c3170-8db8-46ed-bc11-d82d6c9a25ba;["container_1_Consume_and_count_1"];1.25;1533257799.82654;43.26;197.55;65.344213439;10;149
12;paravance-71.rennes.grid5000.fr;thermos-root-devel-WordCountTopology-0-d78c0f50-9637-457f-945f-714b8353ef25;["topology_master"];1.25;1533257799.83886;3.31;9.57;3.055746877;9;117
13;paravance-56.rennes.grid5000.fr;thermos-root-devel-WordCountTopology-1-707c3170-8db8-46ed-bc11-d82d6c9a25ba;["container_1_Consume_and_count_1"];1.25;1533257810.04098;44.99;205.47;67.882354232;10;149
13;paravance-55.rennes.grid5000.fr;thermos-root-devel-WordCountTopology-2-bfca4f6b-17c6-4e30-94e6-ab488cbf2e8d;["container_2_Emit_random_words_2"];1.25;1533257810.08727;32.11;266.39;281.760669146;10;149
13;paravance-71.rennes.grid5000.fr;thermos-root-devel-WordCountTopology-0-d78c0f50-9637-457f-945f-714b8353ef25;["topology_master"];1.25;1533257810.05031;3.35;9.72;3.055746877;9;117
14;paravance-55.rennes.grid5000.fr;thermos-root-devel-WordCountTopology-2-bfca4f6b-17c6-4e30-94e6-ab488cbf2e8d;["container_2_Emit_random_words_2"];1.25;1533257820.29776;33.53;276.85;291.635719399;10;149
14;paravance-56.rennes.grid5000.fr;thermos-root-devel-WordCountTopology-1-707c3170-8db8-46ed-bc11-d82d6c9a25ba;["container_1_Consume_and_count_1"];1.25;1533257820.25783;46.79;213.62;70.220803297;10;149
14;paravance-71.rennes.grid5000.fr;thermos-root-devel-WordCountTopology-0-d78c0f50-9637-457f-945f-714b8353ef25;["topology_master"];1.25;1533257820.2614;3.44;9.84;3.055746877;9;117
15;paravance-56.rennes.grid5000.fr;thermos-root-devel-WordCountTopology-1-707c3170-8db8-46ed-bc11-d82d6c9a25ba;["container_1_Consume_and_count_1"];1.25;1533257830.47215;48.51;221.52;71.605321387;10;149
15;paravance-55.rennes.grid5000.fr;thermos-root-devel-WordCountTopology-2-bfca4f6b-17c6-4e30-94e6-ab488cbf2e8d;["container_2_Emit_random_words_2"];1.25;1533257830.50701;34.76;287.53;302.16973347;10;149
15;paravance-71.rennes.grid5000.fr;thermos-root-devel-WordCountTopology-0-d78c0f50-9637-457f-945f-714b8353ef25;["topology_master"];1.25;1533257830.47115;3.49;9.92;3.055746877;9;117
16;paravance-71.rennes.grid5000.fr;thermos-root-devel-WordCountTopology-0-d78c0f50-9637-457f-945f-714b8353ef25;["topology_master"];1.25;1533257840.68131;3.55;10.0;3.055746877;9;117
16;paravance-55.rennes.grid5000.fr;thermos-root-devel-WordCountTopology-2-bfca4f6b-17c6-4e30-94e6-ab488cbf2e8d;["container_2_Emit_random_words_2"];1.25;1533257840.71894;36.01;298.25;310.78924188;10;149
16;paravance-56.rennes.grid5000.fr;thermos-root-devel-WordCountTopology-1-707c3170-8db8-46ed-bc11-d82d6c9a25ba;["container_1_Consume_and_count_1"];1.25;1533257840.68968;50.39;230.09;74.226776016;10;149
17;paravance-56.rennes.grid5000.fr;thermos-root-devel-WordCountTopology-1-707c3170-8db8-46ed-bc11-d82d6c9a25ba;["container_1_Consume_and_count_1"];1.25;1533257850.9058;52.19;239.07;78.316262217;10;149
17;paravance-55.rennes.grid5000.fr;thermos-root-devel-WordCountTopology-2-bfca4f6b-17c6-4e30-94e6-ab488cbf2e8d;["container_2_Emit_random_words_2"];1.25;1533257850.9295;37.25;308.97;320.333865481;10;149
17;paravance-71.rennes.grid5000.fr;thermos-root-devel-WordCountTopology-0-d78c0f50-9637-457f-945f-714b8353ef25;["topology_master"];1.25;1533257850.89221;3.61;10.08;3.055746877;9;117
18;paravance-55.rennes.grid5000.fr;thermos-root-devel-WordCountTopology-2-bfca4f6b-17c6-4e30-94e6-ab488cbf2e8d;["container_2_Emit_random_words_2"];1.25;1533257861.13766;38.48;319.69;330.022167363;10;149
18;paravance-56.rennes.grid5000.fr;thermos-root-devel-WordCountTopology-1-707c3170-8db8-46ed-bc11-d82d6c9a25ba;["container_1_Consume_and_count_1"];1.25;1533257861.11856;54.01;247.44;80.965855218;10;149
18;paravance-71.rennes.grid5000.fr;thermos-root-devel-WordCountTopology-0-d78c0f50-9637-457f-945f-714b8353ef25;["topology_master"];1.25;1533257861.10256;3.74;10.3;3.055746877;9;117
19;paravance-56.rennes.grid5000.fr;thermos-root-devel-WordCountTopology-1-707c3170-8db8-46ed-bc11-d82d6c9a25ba;["container_1_Consume_and_count_1"];1.25;1533257871.33482;55.8;255.69;84.769094027;10;149
19;paravance-55.rennes.grid5000.fr;thermos-root-devel-WordCountTopology-2-bfca4f6b-17c6-4e30-94e6-ab488cbf2e8d;["container_2_Emit_random_words_2"];1.25;1533257871.3494;39.73;330.31;340.775251682;10;149
19;paravance-71.rennes.grid5000.fr;thermos-root-devel-WordCountTopology-0-d78c0f50-9637-457f-945f-714b8353ef25;["topology_master"];1.25;1533257871.31267;3.77;10.35;3.055746877;9;117
20;paravance-55.rennes.grid5000.fr;thermos-root-devel-WordCountTopology-2-bfca4f6b-17c6-4e30-94e6-ab488cbf2e8d;["container_2_Emit_random_words_2"];1.25;1533257881.56177;40.99;340.96;350.631539392;10;149
20;paravance-71.rennes.grid5000.fr;thermos-root-devel-WordCountTopology-0-d78c0f50-9637-457f-945f-714b8353ef25;["topology_master"];1.25;1533257881.52498;3.86;10.47;3.055746877;9;117
20;paravance-56.rennes.grid5000.fr;thermos-root-devel-WordCountTopology-1-707c3170-8db8-46ed-bc11-d82d6c9a25ba;["container_1_Consume_and_count_1"];1.25;1533257881.55347;57.63;263.98;86.50948318;10;149
21;paravance-56.rennes.grid5000.fr;thermos-root-devel-WordCountTopology-1-707c3170-8db8-46ed-bc11-d82d6c9a25ba;["container_1_Consume_and_count_1"];1.25;1533257891.77127;59.42;272.15;87.511375825;10;149
21;paravance-55.rennes.grid5000.fr;thermos-root-devel-WordCountTopology-2-bfca4f6b-17c6-4e30-94e6-ab488cbf2e8d;["container_2_Emit_random_words_2"];1.25;1533257891.77551;42.18;351.74;360.61782932;10;149
21;paravance-71.rennes.grid5000.fr;thermos-root-devel-WordCountTopology-0-d78c0f50-9637-457f-945f-714b8353ef25;["topology_master"];1.25;1533257891.7392;3.91;10.54;3.055746877;9;117
22;paravance-55.rennes.grid5000.fr;thermos-root-devel-WordCountTopology-2-bfca4f6b-17c6-4e30-94e6-ab488cbf2e8d;["container_2_Emit_random_words_2"];1.25;1533257901.98583;43.37;362.42;371.275557515;10;149
22;paravance-56.rennes.grid5000.fr;thermos-root-devel-WordCountTopology-1-707c3170-8db8-46ed-bc11-d82d6c9a25ba;["container_1_Consume_and_count_1"];1.25;1533257901.98739;61.13;280.31;88.998334354;10;149
22;paravance-71.rennes.grid5000.fr;thermos-root-devel-WordCountTopology-0-d78c0f50-9637-457f-945f-714b8353ef25;["topology_master"];1.25;1533257901.94889;3.97;10.62;3.055746877;9;117
23;paravance-55.rennes.grid5000.fr;thermos-root-devel-WordCountTopology-2-bfca4f6b-17c6-4e30-94e6-ab488cbf2e8d;["container_2_Emit_random_words_2"];1.25;1533257912.0985;44.62;372.9;380.65317032;10;149
23;paravance-56.rennes.grid5000.fr;thermos-root-devel-WordCountTopology-1-707c3170-8db8-46ed-bc11-d82d6c9a25ba;["container_1_Consume_and_count_1"];1.25;1533257912.20422;62.96;288.79;90.376068095;10;149
23;paravance-71.rennes.grid5000.fr;thermos-root-devel-WordCountTopology-0-d78c0f50-9637-457f-945f-714b8353ef25;["topology_master"];1.25;1533257912.16239;4.03;10.69;3.055746877;9;117
24;paravance-55.rennes.grid5000.fr;thermos-root-devel-WordCountTopology-2-bfca4f6b-17c6-4e30-94e6-ab488cbf2e8d;["container_2_Emit_random_words_2"];1.25;1533257922.30853;45.9;383.57;390.314854327;10;149
24;paravance-71.rennes.grid5000.fr;thermos-root-devel-WordCountTopology-0-d78c0f50-9637-457f-945f-714b8353ef25;["topology_master"];1.25;1533257922.37151;4.13;10.87;3.055746877;9;117
24;paravance-56.rennes.grid5000.fr;thermos-root-devel-WordCountTopology-1-707c3170-8db8-46ed-bc11-d82d6c9a25ba;["container_1_Consume_and_count_1"];1.25;1533257922.41998;64.84;297.3;92.306955197;10;149
25;paravance-56.rennes.grid5000.fr;thermos-root-devel-WordCountTopology-1-707c3170-8db8-46ed-bc11-d82d6c9a25ba;["container_1_Consume_and_count_1"];1.25;1533257932.63719;66.64;305.45;93.043425677;10;149
25;paravance-55.rennes.grid5000.fr;thermos-root-devel-WordCountTopology-2-bfca4f6b-17c6-4e30-94e6-ab488cbf2e8d;["container_2_Emit_random_words_2"];1.25;1533257932.6214;47.16;394.32;400.321272134;10;149
25;paravance-71.rennes.grid5000.fr;thermos-root-devel-WordCountTopology-0-d78c0f50-9637-457f-945f-714b8353ef25;["topology_master"];1.25;1533257932.58524;4.16;10.9;3.055746877;9;117
26;paravance-56.rennes.grid5000.fr;thermos-root-devel-WordCountTopology-1-707c3170-8db8-46ed-bc11-d82d6c9a25ba;["container_1_Consume_and_count_1"];1.25;1533257942.85238;68.48;313.95;94.336803621;10;149
26;paravance-71.rennes.grid5000.fr;thermos-root-devel-WordCountTopology-0-d78c0f50-9637-457f-945f-714b8353ef25;["topology_master"];1.25;1533257942.79568;4.25;11.02;3.055746877;9;117
26;paravance-55.rennes.grid5000.fr;thermos-root-devel-WordCountTopology-2-bfca4f6b-17c6-4e30-94e6-ab488cbf2e8d;["container_2_Emit_random_words_2"];1.25;1533257942.83289;48.45;405.06;409.882436024;10;149
27;paravance-56.rennes.grid5000.fr;thermos-root-devel-WordCountTopology-1-707c3170-8db8-46ed-bc11-d82d6c9a25ba;["container_1_Consume_and_count_1"];1.25;1533257952.96977;70.25;322.0;95.575584377;10;149
27;paravance-55.rennes.grid5000.fr;thermos-root-devel-WordCountTopology-2-bfca4f6b-17c6-4e30-94e6-ab488cbf2e8d;["container_2_Emit_random_words_2"];1.25;1533257953.04369;49.69;415.75;419.051162698;10;149
27;paravance-71.rennes.grid5000.fr;thermos-root-devel-WordCountTopology-0-d78c0f50-9637-457f-945f-714b8353ef25;["topology_master"];1.25;1533257953.00614;4.31;11.09;3.055746877;9;117
28;paravance-56.rennes.grid5000.fr;thermos-root-devel-WordCountTopology-1-707c3170-8db8-46ed-bc11-d82d6c9a25ba;["container_1_Consume_and_count_1"];1.25;1533257963.28548;72.1;330.4;96.59299741;10;149
28;paravance-55.rennes.grid5000.fr;thermos-root-devel-WordCountTopology-2-bfca4f6b-17c6-4e30-94e6-ab488cbf2e8d;["container_2_Emit_random_words_2"];1.25;1533257963.25261;50.97;426.35;428.857986475;10;149
28;paravance-71.rennes.grid5000.fr;thermos-root-devel-WordCountTopology-0-d78c0f50-9637-457f-945f-714b8353ef25;["topology_master"];1.25;1533257963.21665;4.36;11.16;3.055746877;9;117
29;paravance-56.rennes.grid5000.fr;thermos-root-devel-WordCountTopology-1-707c3170-8db8-46ed-bc11-d82d6c9a25ba;["container_1_Consume_and_count_1"];1.25;1533257973.40122;73.93;338.75;97.569910463;10;149
29;paravance-55.rennes.grid5000.fr;thermos-root-devel-WordCountTopology-2-bfca4f6b-17c6-4e30-94e6-ab488cbf2e8d;["container_2_Emit_random_words_2"];1.25;1533257973.46431;52.2;437.03;437.486257127;10;149
29;paravance-71.rennes.grid5000.fr;thermos-root-devel-WordCountTopology-0-d78c0f50-9637-457f-945f-714b8353ef25;["topology_master"];1.25;1533257973.42743;4.42;11.23;3.055746877;9;117
30;paravance-55.rennes.grid5000.fr;thermos-root-devel-WordCountTopology-2-bfca4f6b-17c6-4e30-94e6-ab488cbf2e8d;["container_2_Emit_random_words_2"];1.25;1533257983.67466;53.42;447.73;447.073039544;10;149
30;paravance-71.rennes.grid5000.fr;thermos-root-devel-WordCountTopology-0-d78c0f50-9637-457f-945f-714b8353ef25;["topology_master"];1.25;1533257983.63819;4.52;11.39;3.055746877;9;117
30;paravance-56.rennes.grid5000.fr;thermos-root-devel-WordCountTopology-1-707c3170-8db8-46ed-bc11-d82d6c9a25ba;["container_1_Consume_and_count_1"];1.25;1533257983.71759;75.84;347.44;99.402509353;10;149
31;paravance-55.rennes.grid5000.fr;thermos-root-devel-WordCountTopology-2-bfca4f6b-17c6-4e30-94e6-ab488cbf2e8d;["container_2_Emit_random_words_2"];1.25;1533257993.88481;54.67;458.33;456.330624692;10;149
31;paravance-71.rennes.grid5000.fr;thermos-root-devel-WordCountTopology-0-d78c0f50-9637-457f-945f-714b8353ef25;["topology_master"];1.25;1533257993.84819;4.55;11.42;3.055746877;9;117
31;paravance-56.rennes.grid5000.fr;thermos-root-devel-WordCountTopology-1-707c3170-8db8-46ed-bc11-d82d6c9a25ba;["container_1_Consume_and_count_1"];1.25;1533257993.93177;77.68;355.89;100.365948551;10;149
32;paravance-55.rennes.grid5000.fr;thermos-root-devel-WordCountTopology-2-bfca4f6b-17c6-4e30-94e6-ab488cbf2e8d;["container_2_Emit_random_words_2"];1.25;1533258004.09513;55.95;468.97;465.766686951;10;149
32;paravance-71.rennes.grid5000.fr;thermos-root-devel-WordCountTopology-0-d78c0f50-9637-457f-945f-714b8353ef25;["topology_master"];1.25;1533258004.05974;4.64;11.54;3.055746877;9;117
32;paravance-56.rennes.grid5000.fr;thermos-root-devel-WordCountTopology-1-707c3170-8db8-46ed-bc11-d82d6c9a25ba;["container_1_Consume_and_count_1"];1.25;1533258004.14833;79.57;364.4;101.986852103;10;149
33;paravance-71.rennes.grid5000.fr;thermos-root-devel-WordCountTopology-0-d78c0f50-9637-457f-945f-714b8353ef25;["topology_master"];1.25;1533258014.26996;4.7;11.62;3.055746877;9;117
33;paravance-56.rennes.grid5000.fr;thermos-root-devel-WordCountTopology-1-707c3170-8db8-46ed-bc11-d82d6c9a25ba;["container_1_Consume_and_count_1"];1.25;1533258014.36515;81.38;372.65;103.72115374;10;149
33;paravance-55.rennes.grid5000.fr;thermos-root-devel-WordCountTopology-2-bfca4f6b-17c6-4e30-94e6-ab488cbf2e8d;["container_2_Emit_random_words_2"];1.25;1533258014.30738;57.19;479.69;475.055976045;10;149
34;paravance-71.rennes.grid5000.fr;thermos-root-devel-WordCountTopology-0-d78c0f50-9637-457f-945f-714b8353ef25;["topology_master"];1.25;1533258024.48135;4.75;11.69;3.055746877;9;117
34;paravance-55.rennes.grid5000.fr;thermos-root-devel-WordCountTopology-2-bfca4f6b-17c6-4e30-94e6-ab488cbf2e8d;["container_2_Emit_random_words_2"];1.25;1533258024.51866;58.44;490.47;485.065043113;10;149
34;paravance-56.rennes.grid5000.fr;thermos-root-devel-WordCountTopology-1-707c3170-8db8-46ed-bc11-d82d6c9a25ba;["container_1_Consume_and_count_1"];1.25;1533258024.58225;83.16;380.64;105.386361115;10;149
35;paravance-55.rennes.grid5000.fr;thermos-root-devel-WordCountTopology-2-bfca4f6b-17c6-4e30-94e6-ab488cbf2e8d;["container_2_Emit_random_words_2"];1.25;1533258034.73004;59.72;501.29;494.872515457;10;147
35;paravance-56.rennes.grid5000.fr;thermos-root-devel-WordCountTopology-1-707c3170-8db8-46ed-bc11-d82d6c9a25ba;["container_1_Consume_and_count_1"];1.25;1533258034.79627;85.01;388.78;107.030191548;10;149
35;paravance-71.rennes.grid5000.fr;thermos-root-devel-WordCountTopology-0-d78c0f50-9637-457f-945f-714b8353ef25;["topology_master"];1.25;1533258034.69358;4.86;11.83;3.055746877;9;117
36;paravance-56.rennes.grid5000.fr;thermos-root-devel-WordCountTopology-1-707c3170-8db8-46ed-bc11-d82d6c9a25ba;["container_1_Consume_and_count_1"];1.25;1533258045.01368;86.81;396.91;109.438866491;10;149
36;paravance-71.rennes.grid5000.fr;thermos-root-devel-WordCountTopology-0-d78c0f50-9637-457f-945f-714b8353ef25;["topology_master"];1.25;1533258044.90417;4.93;11.99;3.055746877;9;117
36;paravance-55.rennes.grid5000.fr;thermos-root-devel-WordCountTopology-2-bfca4f6b-17c6-4e30-94e6-ab488cbf2e8d;["container_2_Emit_random_words_2"];1.25;1533258044.94002;60.94;511.95;504.676100905;10;149
37;paravance-56.rennes.grid5000.fr;thermos-root-devel-WordCountTopology-1-707c3170-8db8-46ed-bc11-d82d6c9a25ba;["container_1_Consume_and_count_1"];1.25;1533258055.22751;88.6;405.08;111.448704898;10;149
37;paravance-71.rennes.grid5000.fr;thermos-root-devel-WordCountTopology-0-d78c0f50-9637-457f-945f-714b8353ef25;["topology_master"];1.25;1533258055.11269;4.99;12.06;3.055746877;9;117
37;paravance-55.rennes.grid5000.fr;thermos-root-devel-WordCountTopology-2-bfca4f6b-17c6-4e30-94e6-ab488cbf2e8d;["container_2_Emit_random_words_2"];1.25;1533258055.15121;62.2;522.66;515.338859468;10;149
38;paravance-56.rennes.grid5000.fr;thermos-root-devel-WordCountTopology-1-707c3170-8db8-46ed-bc11-d82d6c9a25ba;["container_1_Consume_and_count_1"];1.25;1533258065.44422;90.45;413.35;114.063227945;10;149
38;paravance-55.rennes.grid5000.fr;thermos-root-devel-WordCountTopology-2-bfca4f6b-17c6-4e30-94e6-ab488cbf2e8d;["container_2_Emit_random_words_2"];1.25;1533258065.3614;63.47;533.35;525.011160939;10;149
38;paravance-71.rennes.grid5000.fr;thermos-root-devel-WordCountTopology-0-d78c0f50-9637-457f-945f-714b8353ef25;["topology_master"];1.25;1533258065.32535;5.04;12.14;3.055746877;9;117
39;paravance-55.rennes.grid5000.fr;thermos-root-devel-WordCountTopology-2-bfca4f6b-17c6-4e30-94e6-ab488cbf2e8d;["container_2_Emit_random_words_2"];1.25;1533258075.57204;64.74;544.13;534.637830379;10;149
39;paravance-56.rennes.grid5000.fr;thermos-root-devel-WordCountTopology-1-707c3170-8db8-46ed-bc11-d82d6c9a25ba;["container_1_Consume_and_count_1"];1.25;1533258075.66112;92.25;421.6;116.709948811;10;149
39;paravance-71.rennes.grid5000.fr;thermos-root-devel-WordCountTopology-0-d78c0f50-9637-457f-945f-714b8353ef25;["topology_master"];1.25;1533258075.53915;5.13;12.26;3.055746877;9;117
40;paravance-55.rennes.grid5000.fr;thermos-root-devel-WordCountTopology-2-bfca4f6b-17c6-4e30-94e6-ab488cbf2e8d;["container_2_Emit_random_words_2"];1.25;1533258085.7824;66.02;554.83;543.62888117;10;149
40;paravance-71.rennes.grid5000.fr;thermos-root-devel-WordCountTopology-0-d78c0f50-9637-457f-945f-714b8353ef25;["topology_master"];1.25;1533258085.75398;5.16;12.28;3.055746877;9;117
40;paravance-56.rennes.grid5000.fr;thermos-root-devel-WordCountTopology-1-707c3170-8db8-46ed-bc11-d82d6c9a25ba;["container_1_Consume_and_count_1"];1.25;1533258085.89322;94.02;429.76;118.433905376;10;149
41;paravance-56.rennes.grid5000.fr;thermos-root-devel-WordCountTopology-1-707c3170-8db8-46ed-bc11-d82d6c9a25ba;["container_1_Consume_and_count_1"];1.25;1533258096.105;95.83;438.0;120.168396063;10;149
41;paravance-55.rennes.grid5000.fr;thermos-root-devel-WordCountTopology-2-bfca4f6b-17c6-4e30-94e6-ab488cbf2e8d;["container_2_Emit_random_words_2"];1.25;1533258096.00699;67.3;565.57;553.537654512;10;149
41;paravance-71.rennes.grid5000.fr;thermos-root-devel-WordCountTopology-0-d78c0f50-9637-457f-945f-714b8353ef25;["topology_master"];1.25;1533258095.98518;5.25;12.41;3.055746877;9;117
42;paravance-56.rennes.grid5000.fr;thermos-root-devel-WordCountTopology-1-707c3170-8db8-46ed-bc11-d82d6c9a25ba;["container_1_Consume_and_count_1"];1.25;1533258106.32148;97.73;446.42;121.425271351;10;149
42;paravance-71.rennes.grid5000.fr;thermos-root-devel-WordCountTopology-0-d78c0f50-9637-457f-945f-714b8353ef25;["topology_master"];1.25;1533258106.19872;5.32;12.52;3.055746877;9;117
42;paravance-55.rennes.grid5000.fr;thermos-root-devel-WordCountTopology-2-bfca4f6b-17c6-4e30-94e6-ab488cbf2e8d;["container_2_Emit_random_words_2"];1.25;1533258106.21708;68.58;576.27;562.649377135;10;149
43;paravance-55.rennes.grid5000.fr;thermos-root-devel-WordCountTopology-2-bfca4f6b-17c6-4e30-94e6-ab488cbf2e8d;["container_2_Emit_random_words_2"];1.25;1533258116.32686;69.83;586.93;572.454784159;10;149
43;paravance-71.rennes.grid5000.fr;thermos-root-devel-WordCountTopology-0-d78c0f50-9637-457f-945f-714b8353ef25;["topology_master"];1.25;1533258116.41416;5.37;12.59;3.055746877;9;117
43;paravance-56.rennes.grid5000.fr;thermos-root-devel-WordCountTopology-1-707c3170-8db8-46ed-bc11-d82d6c9a25ba;["container_1_Consume_and_count_1"];1.25;1533258116.53663;99.51;455.18;122.912935482;10;149
44;paravance-56.rennes.grid5000.fr;thermos-root-devel-WordCountTopology-1-707c3170-8db8-46ed-bc11-d82d6c9a25ba;["container_1_Consume_and_count_1"];1.25;1533258126.65167;101.32;463.26;123.667358846;10;149
44;paravance-71.rennes.grid5000.fr;thermos-root-devel-WordCountTopology-0-d78c0f50-9637-457f-945f-714b8353ef25;["topology_master"];1.25;1533258126.52928;5.43;12.67;3.055746877;9;117
44;paravance-55.rennes.grid5000.fr;thermos-root-devel-WordCountTopology-2-bfca4f6b-17c6-4e30-94e6-ab488cbf2e8d;["container_2_Emit_random_words_2"];1.25;1533258126.63709;71.05;597.71;582.636157694;10;149
45;paravance-55.rennes.grid5000.fr;thermos-root-devel-WordCountTopology-2-bfca4f6b-17c6-4e30-94e6-ab488cbf2e8d;["container_2_Emit_random_words_2"];1.25;1533258136.84598;72.28;608.36;592.294605079;10;149
45;paravance-71.rennes.grid5000.fr;thermos-root-devel-WordCountTopology-0-d78c0f50-9637-457f-945f-714b8353ef25;["topology_master"];1.25;1533258136.84484;5.52;12.78;3.055746877;9;117
45;paravance-56.rennes.grid5000.fr;thermos-root-devel-WordCountTopology-1-707c3170-8db8-46ed-bc11-d82d6c9a25ba;["container_1_Consume_and_count_1"];1.25;1533258136.9654;103.11;471.63;124.969092641;10;149
46;paravance-55.rennes.grid5000.fr;thermos-root-devel-WordCountTopology-2-bfca4f6b-17c6-4e30-94e6-ab488cbf2e8d;["container_2_Emit_random_words_2"];1.25;1533258146.96039;73.48;618.88;602.147824996;10;149
46;paravance-56.rennes.grid5000.fr;thermos-root-devel-WordCountTopology-1-707c3170-8db8-46ed-bc11-d82d6c9a25ba;["container_1_Consume_and_count_1"];1.25;1533258147.18017;104.72;480.37;126.238062017;10;149
46;paravance-71.rennes.grid5000.fr;thermos-root-devel-WordCountTopology-0-d78c0f50-9637-457f-945f-714b8353ef25;["topology_master"];1.25;1533258147.06061;5.57;12.86;3.055746877;9;117
47;paravance-55.rennes.grid5000.fr;thermos-root-devel-WordCountTopology-2-bfca4f6b-17c6-4e30-94e6-ab488cbf2e8d;["container_2_Emit_random_words_2"];1.25;1533258157.275;74.77;629.56;612.451373983;10;149
47;paravance-71.rennes.grid5000.fr;thermos-root-devel-WordCountTopology-0-d78c0f50-9637-457f-945f-714b8353ef25;["topology_master"];1.25;1533258157.27542;5.64;12.94;3.055746877;9;117
47;paravance-56.rennes.grid5000.fr;thermos-root-devel-WordCountTopology-1-707c3170-8db8-46ed-bc11-d82d6c9a25ba;["container_1_Consume_and_count_1"];1.25;1533258157.39592;106.52;488.46;127.268908251;10;149
48;paravance-55.rennes.grid5000.fr;thermos-root-devel-WordCountTopology-2-bfca4f6b-17c6-4e30-94e6-ab488cbf2e8d;["container_2_Emit_random_words_2"];1.25;1533258167.48954;76.0;640.27;623.702270706;10;149
48;paravance-71.rennes.grid5000.fr;thermos-root-devel-WordCountTopology-0-d78c0f50-9637-457f-945f-714b8353ef25;["topology_master"];1.25;1533258167.49095;5.7;13.08;3.055746877;9;117
48;paravance-56.rennes.grid5000.fr;thermos-root-devel-WordCountTopology-1-707c3170-8db8-46ed-bc11-d82d6c9a25ba;["container_1_Consume_and_count_1"];1.25;1533258167.61292;108.32;496.73;128.203257068;10;149
49;paravance-71.rennes.grid5000.fr;thermos-root-devel-WordCountTopology-0-d78c0f50-9637-457f-945f-714b8353ef25;["topology_master"];1.25;1533258177.70586;5.79;13.21;3.055746877;9;117
49;paravance-55.rennes.grid5000.fr;thermos-root-devel-WordCountTopology-2-bfca4f6b-17c6-4e30-94e6-ab488cbf2e8d;["container_2_Emit_random_words_2"];1.25;1533258177.7071;77.26;650.9;633.597961337;10;149
49;paravance-56.rennes.grid5000.fr;thermos-root-devel-WordCountTopology-1-707c3170-8db8-46ed-bc11-d82d6c9a25ba;["container_1_Consume_and_count_1"];1.25;1533258177.8287;110.15;505.07;129.445269581;10;149
50;paravance-71.rennes.grid5000.fr;thermos-root-devel-WordCountTopology-0-d78c0f50-9637-457f-945f-714b8353ef25;["topology_master"];1.25;1533258187.82106;5.81;13.23;3.055746877;9;117
50;paravance-55.rennes.grid5000.fr;thermos-root-devel-WordCountTopology-2-bfca4f6b-17c6-4e30-94e6-ab488cbf2e8d;["container_2_Emit_random_words_2"];1.25;1533258187.92123;78.49;661.7;643.290584899;10;149
50;paravance-56.rennes.grid5000.fr;thermos-root-devel-WordCountTopology-1-707c3170-8db8-46ed-bc11-d82d6c9a25ba;["container_1_Consume_and_count_1"];1.25;1533258188.04195;111.99;513.43;130.451838581;10;149
51;paravance-56.rennes.grid5000.fr;thermos-root-devel-WordCountTopology-1-707c3170-8db8-46ed-bc11-d82d6c9a25ba;["container_1_Consume_and_count_1"];1.25;1533258198.25739;113.79;521.4;131.022462024;10;149
51;paravance-55.rennes.grid5000.fr;thermos-root-devel-WordCountTopology-2-bfca4f6b-17c6-4e30-94e6-ab488cbf2e8d;["container_2_Emit_random_words_2"];1.25;1533258198.13671;79.74;672.44;654.465751203;10;149
51;paravance-71.rennes.grid5000.fr;thermos-root-devel-WordCountTopology-0-d78c0f50-9637-457f-945f-714b8353ef25;["topology_master"];1.25;1533258198.13747;5.91;13.37;3.055746877;9;117
52;paravance-71.rennes.grid5000.fr;thermos-root-devel-WordCountTopology-0-d78c0f50-9637-457f-945f-714b8353ef25;["topology_master"];1.25;1533258208.35368;5.96;13.44;3.055746877;9;117
52;paravance-55.rennes.grid5000.fr;thermos-root-devel-WordCountTopology-2-bfca4f6b-17c6-4e30-94e6-ab488cbf2e8d;["container_2_Emit_random_words_2"];1.25;1533258208.35406;81.0;683.13;663.801716419;10;149
52;paravance-56.rennes.grid5000.fr;thermos-root-devel-WordCountTopology-1-707c3170-8db8-46ed-bc11-d82d6c9a25ba;["container_1_Consume_and_count_1"];1.25;1533258208.47565;115.63;529.73;132.156938764;10;149
53;paravance-56.rennes.grid5000.fr;thermos-root-devel-WordCountTopology-1-707c3170-8db8-46ed-bc11-d82d6c9a25ba;["container_1_Consume_and_count_1"];1.25;1533258218.69006;117.48;537.87;133.355058837;10;149
53;paravance-55.rennes.grid5000.fr;thermos-root-devel-WordCountTopology-2-bfca4f6b-17c6-4e30-94e6-ab488cbf2e8d;["container_2_Emit_random_words_2"];1.25;1533258218.57002;82.29;693.77;675.178005634;10;149
53;paravance-71.rennes.grid5000.fr;thermos-root-devel-WordCountTopology-0-d78c0f50-9637-457f-945f-714b8353ef25;["topology_master"];1.25;1533258218.57022;6.03;13.52;3.055746877;9;117
54;paravance-55.rennes.grid5000.fr;thermos-root-devel-WordCountTopology-2-bfca4f6b-17c6-4e30-94e6-ab488cbf2e8d;["container_2_Emit_random_words_2"];1.25;1533258228.78722;83.8;704.17;685.748998749;10;149
54;paravance-56.rennes.grid5000.fr;thermos-root-devel-WordCountTopology-1-707c3170-8db8-46ed-bc11-d82d6c9a25ba;["container_1_Consume_and_count_1"];1.25;1533258228.90913;119.23;545.89;134.118147066;10;149
54;paravance-71.rennes.grid5000.fr;thermos-root-devel-WordCountTopology-0-d78c0f50-9637-457f-945f-714b8353ef25;["topology_master"];1.25;1533258228.78747;6.1;13.65;3.055746877;9;117
55;paravance-56.rennes.grid5000.fr;thermos-root-devel-WordCountTopology-1-707c3170-8db8-46ed-bc11-d82d6c9a25ba;["container_1_Consume_and_count_1"];1.25;1533258239.12613;121.03;553.95;134.814061315;10;149
55;paravance-71.rennes.grid5000.fr;thermos-root-devel-WordCountTopology-0-d78c0f50-9637-457f-945f-714b8353ef25;["topology_master"];1.25;1533258239.00371;6.19;13.77;3.055746877;9;117
55;paravance-55.rennes.grid5000.fr;thermos-root-devel-WordCountTopology-2-bfca4f6b-17c6-4e30-94e6-ab488cbf2e8d;["container_2_Emit_random_words_2"];1.25;1533258239.00459;85.21;714.73;695.424279893;10;149
56;paravance-56.rennes.grid5000.fr;thermos-root-devel-WordCountTopology-1-707c3170-8db8-46ed-bc11-d82d6c9a25ba;["container_1_Consume_and_count_1"];1.25;1533258249.3411;122.84;562.15;135.473463115;10;149
56;paravance-55.rennes.grid5000.fr;thermos-root-devel-WordCountTopology-2-bfca4f6b-17c6-4e30-94e6-ab488cbf2e8d;["container_2_Emit_random_words_2"];1.25;1533258249.21996;86.53;725.31;705.635779857;10;149
56;paravance-71.rennes.grid5000.fr;thermos-root-devel-WordCountTopology-0-d78c0f50-9637-457f-945f-714b8353ef25;["topology_master"];1.25;1533258249.22049;6.21;13.8;3.055746877;9;117
57;paravance-55.rennes.grid5000.fr;thermos-root-devel-WordCountTopology-2-bfca4f6b-17c6-4e30-94e6-ab488cbf2e8d;["container_2_Emit_random_words_2"];1.25;1533258259.43628;87.82;735.98;715.70497493;10;149
57;paravance-56.rennes.grid5000.fr;thermos-root-devel-WordCountTopology-1-707c3170-8db8-46ed-bc11-d82d6c9a25ba;["container_1_Consume_and_count_1"];1.25;1533258259.55838;124.69;570.36;136.717133646;10;149
57;paravance-71.rennes.grid5000.fr;thermos-root-devel-WordCountTopology-0-d78c0f50-9637-457f-945f-714b8353ef25;["topology_master"];1.25;1533258259.43743;6.3;13.92;3.055746877;9;117
58;paravance-71.rennes.grid5000.fr;thermos-root-devel-WordCountTopology-0-d78c0f50-9637-457f-945f-714b8353ef25;["topology_master"];1.25;1533258269.65187;6.37;14.0;3.055746877;9;117
58;paravance-56.rennes.grid5000.fr;thermos-root-devel-WordCountTopology-1-707c3170-8db8-46ed-bc11-d82d6c9a25ba;["container_1_Consume_and_count_1"];1.25;1533258269.77432;126.51;578.52;137.48633396;10;149
58;paravance-55.rennes.grid5000.fr;thermos-root-devel-WordCountTopology-2-bfca4f6b-17c6-4e30-94e6-ab488cbf2e8d;["container_2_Emit_random_words_2"];1.25;1533258269.65239;89.07;746.73;725.614428577;10;149
59;paravance-56.rennes.grid5000.fr;thermos-root-devel-WordCountTopology-1-707c3170-8db8-46ed-bc11-d82d6c9a25ba;["container_1_Consume_and_count_1"];1.25;1533258279.98796;128.31;586.75;138.734654948;10;149
59;paravance-55.rennes.grid5000.fr;thermos-root-devel-WordCountTopology-2-bfca4f6b-17c6-4e30-94e6-ab488cbf2e8d;["container_2_Emit_random_words_2"];1.25;1533258279.86819;90.34;757.46;736.714824798;10;149
59;paravance-71.rennes.grid5000.fr;thermos-root-devel-WordCountTopology-0-d78c0f50-9637-457f-945f-714b8353ef25;["topology_master"];1.25;1533258279.868;6.43;14.1;3.055746877;9;117
60;paravance-56.rennes.grid5000.fr;thermos-root-devel-WordCountTopology-1-707c3170-8db8-46ed-bc11-d82d6c9a25ba;["container_1_Consume_and_count_1"];1.25;1533258290.21394;130.08;594.81;139.673132901;10;149
60;paravance-55.rennes.grid5000.fr;thermos-root-devel-WordCountTopology-2-bfca4f6b-17c6-4e30-94e6-ab488cbf2e8d;["container_2_Emit_random_words_2"];1.25;1533258290.09379;91.57;768.02;746.874470906;10;149
60;paravance-71.rennes.grid5000.fr;thermos-root-devel-WordCountTopology-0-d78c0f50-9637-457f-945f-714b8353ef25;["topology_master"];1.25;1533258290.09349;6.5;14.19;3.055746877;9;117
