{
  "status": "success",
  "executiontime": 0.0002040863037109375,
  "message": "",
  "result": {
    "bolts": {
      "Consume_and_count": [
        "container_1_Consume_and_count_1"
      ]
    },
    "instances": {
      "container_2_Emit_random_words_2": {
        "stmgrId": "stmgr-2",
        "logfile": "http://paravance-20.rennes.grid5000.fr:31786/file/log-files/container_2_Emit_random_words_2.log.0",
        "id": "container_2_Emit_random_words_2",
        "name": "Emit_random_words"
      },
      "container_1_Consume_and_count_1": {
        "stmgrId": "stmgr-1",
        "logfile": "http://paravance-5.rennes.grid5000.fr:31211/file/log-files/container_1_Consume_and_count_1.log.0",
        "id": "container_1_Consume_and_count_1",
        "name": "Consume_and_count"
      }
    },
    "instance_groups": {
      "container_1_Consume_and": [
        "container_1_Consume_and_count_1"
      ],
      "container_2_Emit_random": [
        "container_2_Emit_random_words_2"
      ]
    },
    "spouts": {
      "Emit_random_words": [
        "container_2_Emit_random_words_2"
      ]
    },
    "config": {
      "topology.message.timeout.secs": "30",
      "topology.team.environment": "devel",
      "topology.serializer.classname": "org.apache.heron.streamlet.impl.KryoSerializer",
      "topology.team.name": "root",
      "topology.debug": "false",
      "topology.max.spout.pending": "100",
      "topology.container.padding.percentage": "300",
      "topology.enable.message.timeouts": "true",
      "topology.component.parallelism": "1",
      "topology.name": "WordCountTopology",
      "topology.stmgrs": "2",
      "topology.reliability.mode": "ATMOST_ONCE"
    },
    "stmgrs": {
      "stmgr-1": {
        "cwd": "/var/lib/mesos/slaves/87c89772-bfa4-46db-98af-ad157e964c7a-S2/frameworks/75deb08a-eb1b-415c-8b2c-e922be5f7d98-0000/executors/thermos-root-devel-WordCountTopology-1-b9f8bcf2-6d94-4a69-803e-e249248ddc90/runs/8992739f-6919-4f66-9687-0e54e4ef92ea/sandbox",
        "host": "paravance-5.rennes.grid5000.fr",
        "joburl": "http://paravance-5.rennes.grid5000.fr:31211/browse/",
        "shell_port": 31211,
        "logfiles": "http://paravance-5.rennes.grid5000.fr:31211/browse/log-files",
        "pid": 2103,
        "id": "stmgr-1",
        "instance_ids": [
          "container_1_Consume_and_count_1"
        ],
        "port": 31375
      },
      "stmgr-2": {
        "cwd": "/var/lib/mesos/slaves/87c89772-bfa4-46db-98af-ad157e964c7a-S1/frameworks/75deb08a-eb1b-415c-8b2c-e922be5f7d98-0000/executors/thermos-root-devel-WordCountTopology-2-5f70f880-99b8-4632-8b8d-16c457dd95db/runs/bee504b5-c469-477f-b71f-9f4aa692d93f/sandbox",
        "host": "paravance-20.rennes.grid5000.fr",
        "joburl": "http://paravance-20.rennes.grid5000.fr:31786/browse/",
        "shell_port": 31786,
        "logfiles": "http://paravance-20.rennes.grid5000.fr:31786/browse/log-files",
        "pid": 2178,
        "id": "stmgr-2",
        "instance_ids": [
          "container_2_Emit_random_words_2"
        ],
        "port": 31155
      }
    }
  },
  "tracker_version": "0.17.8-61-gd7c8c62"
}