mesure_id;time;backpresure
0;1533753600;20298.0
1;1533753540;18731.0
2;1533753480;17839.0
3;1533753420;18823.0
4;1533753360;20571.0
5;1533753720;20285.0
6;1533753300;6025.0
7;1533753240;13813.0
8;1533753780;0.0
9;1533753660;20121.0
