mesure_id;slave_id;executor_id;heron_instances;cpus_limit;timestamp_B;cpus_system_time_secs_B;cpus_user_time_secs_B;cpus_throttled_time_secs_B;processes;threads
0;paravance-8.rennes.grid5000.fr;thermos-root-devel-WordCountTopology-1-b79165a6-1316-4cd6-8365-87ce32b81fbc;["container_1_Consume_and_count_1"];1.25;1533227909.49458;26.45;95.31;212.366617321;10;151
0;paravance-7.rennes.grid5000.fr;thermos-root-devel-WordCountTopology-2-21996703-cf48-4c20-a29f-9cb44d581192;["container_2_Emit_random_words_2"];1.25;1533227909.36722;19.23;87.61;116.752198722;10;149
0;paravance-22.rennes.grid5000.fr;thermos-root-devel-WordCountTopology-0-bf6c5a54-c1de-41f8-94f7-0c82658d9ad5;["topology_master"];1.25;1533227909.45105;2.51;8.56;6.823200529;9;117
1;paravance-7.rennes.grid5000.fr;thermos-root-devel-WordCountTopology-2-21996703-cf48-4c20-a29f-9cb44d581192;["container_2_Emit_random_words_2"];1.25;1533227919.4831;20.92;95.08;125.139670168;10;149
1;paravance-22.rennes.grid5000.fr;thermos-root-devel-WordCountTopology-0-bf6c5a54-c1de-41f8-94f7-0c82658d9ad5;["topology_master"];1.25;1533227919.66713;2.6;8.71;6.823200529;9;117
1;paravance-8.rennes.grid5000.fr;thermos-root-devel-WordCountTopology-1-b79165a6-1316-4cd6-8365-87ce32b81fbc;["container_1_Consume_and_count_1"];1.25;1533227919.71071;29.04;104.44;234.29425443;10;151
2;paravance-7.rennes.grid5000.fr;thermos-root-devel-WordCountTopology-2-21996703-cf48-4c20-a29f-9cb44d581192;["container_2_Emit_random_words_2"];1.25;1533227929.79977;22.62;102.54;133.211029956;10;149
2;paravance-22.rennes.grid5000.fr;thermos-root-devel-WordCountTopology-0-bf6c5a54-c1de-41f8-94f7-0c82658d9ad5;["topology_master"];1.25;1533227929.88241;2.63;8.75;6.823200529;9;117
2;paravance-8.rennes.grid5000.fr;thermos-root-devel-WordCountTopology-1-b79165a6-1316-4cd6-8365-87ce32b81fbc;["container_1_Consume_and_count_1"];1.25;1533227929.92754;31.6;113.53;254.57326207;10;151
3;paravance-7.rennes.grid5000.fr;thermos-root-devel-WordCountTopology-2-21996703-cf48-4c20-a29f-9cb44d581192;["container_2_Emit_random_words_2"];1.25;1533227940.01922;24.33;110.34;141.399544344;10;149
3;paravance-22.rennes.grid5000.fr;thermos-root-devel-WordCountTopology-0-bf6c5a54-c1de-41f8-94f7-0c82658d9ad5;["topology_master"];1.25;1533227940.10268;2.72;8.87;6.823200529;9;117
3;paravance-8.rennes.grid5000.fr;thermos-root-devel-WordCountTopology-1-b79165a6-1316-4cd6-8365-87ce32b81fbc;["container_1_Consume_and_count_1"];1.25;1533227940.14827;34.18;122.74;275.595851166;10;151
4;paravance-7.rennes.grid5000.fr;thermos-root-devel-WordCountTopology-2-21996703-cf48-4c20-a29f-9cb44d581192;["container_2_Emit_random_words_2"];1.25;1533227950.13724;25.99;117.57;148.392031906;10;149
4;paravance-22.rennes.grid5000.fr;thermos-root-devel-WordCountTopology-0-bf6c5a54-c1de-41f8-94f7-0c82658d9ad5;["topology_master"];1.25;1533227950.32066;2.78;8.95;6.823200529;9;117
4;paravance-8.rennes.grid5000.fr;thermos-root-devel-WordCountTopology-1-b79165a6-1316-4cd6-8365-87ce32b81fbc;["container_1_Consume_and_count_1"];1.25;1533227950.36438;36.82;131.79;296.187250629;10;151
5;paravance-7.rennes.grid5000.fr;thermos-root-devel-WordCountTopology-2-21996703-cf48-4c20-a29f-9cb44d581192;["container_2_Emit_random_words_2"];1.25;1533227960.45329;27.72;124.94;156.274508591;10;149
5;paravance-8.rennes.grid5000.fr;thermos-root-devel-WordCountTopology-1-b79165a6-1316-4cd6-8365-87ce32b81fbc;["container_1_Consume_and_count_1"];1.25;1533227960.58084;39.45;140.89;318.812168105;10;151
5;paravance-22.rennes.grid5000.fr;thermos-root-devel-WordCountTopology-0-bf6c5a54-c1de-41f8-94f7-0c82658d9ad5;["topology_master"];1.25;1533227960.53707;2.86;9.04;6.823200529;9;117
6;paravance-22.rennes.grid5000.fr;thermos-root-devel-WordCountTopology-0-bf6c5a54-c1de-41f8-94f7-0c82658d9ad5;["topology_master"];1.25;1533227970.75497;2.93;9.17;6.823200529;9;117
6;paravance-7.rennes.grid5000.fr;thermos-root-devel-WordCountTopology-2-21996703-cf48-4c20-a29f-9cb44d581192;["container_2_Emit_random_words_2"];1.25;1533227970.67081;29.27;131.65;163.973222785;10;149
6;paravance-8.rennes.grid5000.fr;thermos-root-devel-WordCountTopology-1-b79165a6-1316-4cd6-8365-87ce32b81fbc;["container_1_Consume_and_count_1"];1.25;1533227970.79961;42.01;149.95;342.558887662;10;151
7;paravance-7.rennes.grid5000.fr;thermos-root-devel-WordCountTopology-2-21996703-cf48-4c20-a29f-9cb44d581192;["container_2_Emit_random_words_2"];1.25;1533227980.88706;30.91;138.9;172.663880061;10;149
7;paravance-22.rennes.grid5000.fr;thermos-root-devel-WordCountTopology-0-bf6c5a54-c1de-41f8-94f7-0c82658d9ad5;["topology_master"];1.25;1533227980.97147;3.01;9.31;6.823200529;9;117
7;paravance-8.rennes.grid5000.fr;thermos-root-devel-WordCountTopology-1-b79165a6-1316-4cd6-8365-87ce32b81fbc;["container_1_Consume_and_count_1"];1.25;1533227981.01676;44.66;159.01;363.497348015;10;151
8;paravance-8.rennes.grid5000.fr;thermos-root-devel-WordCountTopology-1-b79165a6-1316-4cd6-8365-87ce32b81fbc;["container_1_Consume_and_count_1"];1.25;1533227991.13373;47.25;168.05;385.562530824;10;151
8;paravance-7.rennes.grid5000.fr;thermos-root-devel-WordCountTopology-2-21996703-cf48-4c20-a29f-9cb44d581192;["container_2_Emit_random_words_2"];1.25;1533227991.10398;32.4;145.38;179.100729981;10;149
8;paravance-22.rennes.grid5000.fr;thermos-root-devel-WordCountTopology-0-bf6c5a54-c1de-41f8-94f7-0c82658d9ad5;["topology_master"];1.25;1533227991.18857;3.05;9.36;6.823200529;9;117
9;paravance-7.rennes.grid5000.fr;thermos-root-devel-WordCountTopology-2-21996703-cf48-4c20-a29f-9cb44d581192;["container_2_Emit_random_words_2"];1.25;1533228001.21997;34.08;152.7;186.690101595;10;149
9;paravance-8.rennes.grid5000.fr;thermos-root-devel-WordCountTopology-1-b79165a6-1316-4cd6-8365-87ce32b81fbc;["container_1_Consume_and_count_1"];1.25;1533228001.44589;49.89;177.34;408.293484142;10;151
9;paravance-22.rennes.grid5000.fr;thermos-root-devel-WordCountTopology-0-bf6c5a54-c1de-41f8-94f7-0c82658d9ad5;["topology_master"];1.25;1533228001.4028;3.13;9.46;6.823200529;9;117
10;paravance-22.rennes.grid5000.fr;thermos-root-devel-WordCountTopology-0-bf6c5a54-c1de-41f8-94f7-0c82658d9ad5;["topology_master"];1.25;1533228011.61896;3.19;9.54;6.823200529;9;117
10;paravance-8.rennes.grid5000.fr;thermos-root-devel-WordCountTopology-1-b79165a6-1316-4cd6-8365-87ce32b81fbc;["container_1_Consume_and_count_1"];1.25;1533228011.66348;52.41;186.6;431.08950823;10;151
10;paravance-7.rennes.grid5000.fr;thermos-root-devel-WordCountTopology-2-21996703-cf48-4c20-a29f-9cb44d581192;["container_2_Emit_random_words_2"];1.25;1533228011.53768;35.68;159.79;193.905265082;10;149
11;paravance-22.rennes.grid5000.fr;thermos-root-devel-WordCountTopology-0-bf6c5a54-c1de-41f8-94f7-0c82658d9ad5;["topology_master"];1.25;1533228021.83607;3.31;9.77;6.901298314;9;117
11;paravance-8.rennes.grid5000.fr;thermos-root-devel-WordCountTopology-1-b79165a6-1316-4cd6-8365-87ce32b81fbc;["container_1_Consume_and_count_1"];1.25;1533228021.88079;55.08;195.74;450.617084003;10;151
11;paravance-7.rennes.grid5000.fr;thermos-root-devel-WordCountTopology-2-21996703-cf48-4c20-a29f-9cb44d581192;["container_2_Emit_random_words_2"];1.25;1533228021.75414;37.41;167.29;201.837315835;10;149
12;paravance-8.rennes.grid5000.fr;thermos-root-devel-WordCountTopology-1-b79165a6-1316-4cd6-8365-87ce32b81fbc;["container_1_Consume_and_count_1"];1.25;1533228032.09656;57.69;204.92;471.080655717;10;151
12;paravance-7.rennes.grid5000.fr;thermos-root-devel-WordCountTopology-2-21996703-cf48-4c20-a29f-9cb44d581192;["container_2_Emit_random_words_2"];1.25;1533228031.96941;39.13;175.25;211.566884095;10;149
12;paravance-22.rennes.grid5000.fr;thermos-root-devel-WordCountTopology-0-bf6c5a54-c1de-41f8-94f7-0c82658d9ad5;["topology_master"];1.25;1533228032.05458;3.34;9.83;6.901298314;9;117
13;paravance-8.rennes.grid5000.fr;thermos-root-devel-WordCountTopology-1-b79165a6-1316-4cd6-8365-87ce32b81fbc;["container_1_Consume_and_count_1"];1.25;1533228042.31439;60.31;214.06;491.902405507;10;151
13;paravance-22.rennes.grid5000.fr;thermos-root-devel-WordCountTopology-0-bf6c5a54-c1de-41f8-94f7-0c82658d9ad5;["topology_master"];1.25;1533228042.27146;3.42;9.98;6.901298314;9;117
13;paravance-7.rennes.grid5000.fr;thermos-root-devel-WordCountTopology-2-21996703-cf48-4c20-a29f-9cb44d581192;["container_2_Emit_random_words_2"];1.25;1533228042.18777;40.86;182.79;219.617534768;10;149
14;paravance-8.rennes.grid5000.fr;thermos-root-devel-WordCountTopology-1-b79165a6-1316-4cd6-8365-87ce32b81fbc;["container_1_Consume_and_count_1"];1.25;1533228052.53107;62.94;223.14;513.631790381;10;151
14;paravance-22.rennes.grid5000.fr;thermos-root-devel-WordCountTopology-0-bf6c5a54-c1de-41f8-94f7-0c82658d9ad5;["topology_master"];1.25;1533228052.48898;3.48;10.06;6.901298314;9;117
14;paravance-7.rennes.grid5000.fr;thermos-root-devel-WordCountTopology-2-21996703-cf48-4c20-a29f-9cb44d581192;["container_2_Emit_random_words_2"];1.25;1533228052.40541;42.43;189.8;226.887796372;10;149
15;paravance-7.rennes.grid5000.fr;thermos-root-devel-WordCountTopology-2-21996703-cf48-4c20-a29f-9cb44d581192;["container_2_Emit_random_words_2"];1.25;1533228062.61993;44.14;197.15;234.180511386;10;149
15;paravance-22.rennes.grid5000.fr;thermos-root-devel-WordCountTopology-0-bf6c5a54-c1de-41f8-94f7-0c82658d9ad5;["topology_master"];1.25;1533228062.70609;3.54;10.15;6.901298314;9;117
15;paravance-8.rennes.grid5000.fr;thermos-root-devel-WordCountTopology-1-b79165a6-1316-4cd6-8365-87ce32b81fbc;["container_1_Consume_and_count_1"];1.25;1533228062.75051;65.58;232.29;535.262309235;10;151
16;paravance-22.rennes.grid5000.fr;thermos-root-devel-WordCountTopology-0-bf6c5a54-c1de-41f8-94f7-0c82658d9ad5;["topology_master"];1.25;1533228072.92285;3.6;10.22;6.901298314;9;117
16;paravance-7.rennes.grid5000.fr;thermos-root-devel-WordCountTopology-2-21996703-cf48-4c20-a29f-9cb44d581192;["container_2_Emit_random_words_2"];1.25;1533228072.83769;45.74;204.49;241.664439392;10;149
16;paravance-8.rennes.grid5000.fr;thermos-root-devel-WordCountTopology-1-b79165a6-1316-4cd6-8365-87ce32b81fbc;["container_1_Consume_and_count_1"];1.25;1533228072.96727;68.17;241.55;556.336931388;10;151
17;paravance-22.rennes.grid5000.fr;thermos-root-devel-WordCountTopology-0-bf6c5a54-c1de-41f8-94f7-0c82658d9ad5;["topology_master"];1.25;1533228083.14067;3.71;10.45;6.901298314;9;117
17;paravance-8.rennes.grid5000.fr;thermos-root-devel-WordCountTopology-1-b79165a6-1316-4cd6-8365-87ce32b81fbc;["container_1_Consume_and_count_1"];1.25;1533228083.18416;70.64;250.74;583.123651426;10;151
17;paravance-7.rennes.grid5000.fr;thermos-root-devel-WordCountTopology-2-21996703-cf48-4c20-a29f-9cb44d581192;["container_2_Emit_random_words_2"];1.25;1533228083.05673;47.18;210.71;247.918987223;10;149
18;paravance-22.rennes.grid5000.fr;thermos-root-devel-WordCountTopology-0-bf6c5a54-c1de-41f8-94f7-0c82658d9ad5;["topology_master"];1.25;1533228093.35849;3.74;10.47;6.901298314;9;117
18;paravance-7.rennes.grid5000.fr;thermos-root-devel-WordCountTopology-2-21996703-cf48-4c20-a29f-9cb44d581192;["container_2_Emit_random_words_2"];1.25;1533228093.27338;48.76;217.75;255.34439946;10;149
18;paravance-8.rennes.grid5000.fr;thermos-root-devel-WordCountTopology-1-b79165a6-1316-4cd6-8365-87ce32b81fbc;["container_1_Consume_and_count_1"];1.25;1533228093.40247;73.22;259.88;604.551983763;10;151
19;paravance-22.rennes.grid5000.fr;thermos-root-devel-WordCountTopology-0-bf6c5a54-c1de-41f8-94f7-0c82658d9ad5;["topology_master"];1.25;1533228103.57605;3.84;10.61;6.901298314;9;117
19;paravance-8.rennes.grid5000.fr;thermos-root-devel-WordCountTopology-1-b79165a6-1316-4cd6-8365-87ce32b81fbc;["container_1_Consume_and_count_1"];1.25;1533228103.62082;75.86;269.01;626.291475333;10;151
19;paravance-7.rennes.grid5000.fr;thermos-root-devel-WordCountTopology-2-21996703-cf48-4c20-a29f-9cb44d581192;["container_2_Emit_random_words_2"];1.25;1533228103.49344;50.47;225.15;263.25499263;10;149
20;paravance-8.rennes.grid5000.fr;thermos-root-devel-WordCountTopology-1-b79165a6-1316-4cd6-8365-87ce32b81fbc;["container_1_Consume_and_count_1"];1.25;1533228113.83776;78.43;278.18;645.477757792;10;151
20;paravance-22.rennes.grid5000.fr;thermos-root-devel-WordCountTopology-0-bf6c5a54-c1de-41f8-94f7-0c82658d9ad5;["topology_master"];1.25;1533228113.79434;3.89;10.69;6.901298314;9;117
20;paravance-7.rennes.grid5000.fr;thermos-root-devel-WordCountTopology-2-21996703-cf48-4c20-a29f-9cb44d581192;["container_2_Emit_random_words_2"];1.25;1533228113.71087;52.11;232.79;270.980926628;10;149
21;paravance-8.rennes.grid5000.fr;thermos-root-devel-WordCountTopology-1-b79165a6-1316-4cd6-8365-87ce32b81fbc;["container_1_Consume_and_count_1"];1.25;1533228124.05361;80.98;287.51;667.733311909;10;151
21;paravance-22.rennes.grid5000.fr;thermos-root-devel-WordCountTopology-0-bf6c5a54-c1de-41f8-94f7-0c82658d9ad5;["topology_master"];1.25;1533228124.01104;3.95;10.76;6.901298314;9;117
21;paravance-7.rennes.grid5000.fr;thermos-root-devel-WordCountTopology-2-21996703-cf48-4c20-a29f-9cb44d581192;["container_2_Emit_random_words_2"];1.25;1533228123.9282;53.76;239.69;279.662395799;10;149
22;paravance-8.rennes.grid5000.fr;thermos-root-devel-WordCountTopology-1-b79165a6-1316-4cd6-8365-87ce32b81fbc;["container_1_Consume_and_count_1"];1.25;1533228134.27166;83.59;296.63;686.988192126;10;151
22;paravance-7.rennes.grid5000.fr;thermos-root-devel-WordCountTopology-2-21996703-cf48-4c20-a29f-9cb44d581192;["container_2_Emit_random_words_2"];1.25;1533228134.1435;55.43;247.34;287.96359458;10;149
22;paravance-22.rennes.grid5000.fr;thermos-root-devel-WordCountTopology-0-bf6c5a54-c1de-41f8-94f7-0c82658d9ad5;["topology_master"];1.25;1533228134.23052;4.0;10.84;6.901298314;9;117
23;paravance-8.rennes.grid5000.fr;thermos-root-devel-WordCountTopology-1-b79165a6-1316-4cd6-8365-87ce32b81fbc;["container_1_Consume_and_count_1"];1.25;1533228144.49081;86.19;305.71;709.708905646;10;151
23;paravance-7.rennes.grid5000.fr;thermos-root-devel-WordCountTopology-2-21996703-cf48-4c20-a29f-9cb44d581192;["container_2_Emit_random_words_2"];1.25;1533228144.36294;57.07;254.26;295.675652615;10;149
23;paravance-22.rennes.grid5000.fr;thermos-root-devel-WordCountTopology-0-bf6c5a54-c1de-41f8-94f7-0c82658d9ad5;["topology_master"];1.25;1533228144.44957;4.12;11.03;6.901298314;9;117
24;paravance-8.rennes.grid5000.fr;thermos-root-devel-WordCountTopology-1-b79165a6-1316-4cd6-8365-87ce32b81fbc;["container_1_Consume_and_count_1"];1.25;1533228154.70826;88.8;314.79;729.530093304;10;151
24;paravance-7.rennes.grid5000.fr;thermos-root-devel-WordCountTopology-2-21996703-cf48-4c20-a29f-9cb44d581192;["container_2_Emit_random_words_2"];1.25;1533228154.58043;58.76;261.9;304.201647508;10;149
24;paravance-22.rennes.grid5000.fr;thermos-root-devel-WordCountTopology-0-bf6c5a54-c1de-41f8-94f7-0c82658d9ad5;["topology_master"];1.25;1533228154.66648;4.14;11.06;6.901298314;9;117
25;paravance-8.rennes.grid5000.fr;thermos-root-devel-WordCountTopology-1-b79165a6-1316-4cd6-8365-87ce32b81fbc;["container_1_Consume_and_count_1"];1.25;1533228164.92421;91.38;323.94;751.036526714;10;151
25;paravance-7.rennes.grid5000.fr;thermos-root-devel-WordCountTopology-2-21996703-cf48-4c20-a29f-9cb44d581192;["container_2_Emit_random_words_2"];1.25;1533228164.79654;60.51;268.83;312.130805428;10;149
25;paravance-22.rennes.grid5000.fr;thermos-root-devel-WordCountTopology-0-bf6c5a54-c1de-41f8-94f7-0c82658d9ad5;["topology_master"];1.25;1533228164.88383;4.23;11.19;6.901298314;9;117
26;paravance-8.rennes.grid5000.fr;thermos-root-devel-WordCountTopology-1-b79165a6-1316-4cd6-8365-87ce32b81fbc;["container_1_Consume_and_count_1"];1.25;1533228175.14126;93.98;333.04;770.468029645;10;151
26;paravance-7.rennes.grid5000.fr;thermos-root-devel-WordCountTopology-2-21996703-cf48-4c20-a29f-9cb44d581192;["container_2_Emit_random_words_2"];1.25;1533228175.0127;62.32;276.75;321.370902726;10;149
26;paravance-22.rennes.grid5000.fr;thermos-root-devel-WordCountTopology-0-bf6c5a54-c1de-41f8-94f7-0c82658d9ad5;["topology_master"];1.25;1533228175.10012;4.28;11.26;6.901298314;9;117
27;paravance-7.rennes.grid5000.fr;thermos-root-devel-WordCountTopology-2-21996703-cf48-4c20-a29f-9cb44d581192;["container_2_Emit_random_words_2"];1.25;1533228185.23074;63.88;283.42;327.296586386;10;149
27;paravance-8.rennes.grid5000.fr;thermos-root-devel-WordCountTopology-1-b79165a6-1316-4cd6-8365-87ce32b81fbc;["container_1_Consume_and_count_1"];1.25;1533228185.35886;96.6;342.19;791.86878637;10;151
27;paravance-22.rennes.grid5000.fr;thermos-root-devel-WordCountTopology-0-bf6c5a54-c1de-41f8-94f7-0c82658d9ad5;["topology_master"];1.25;1533228185.31668;4.34;11.34;6.901298314;9;117
28;paravance-8.rennes.grid5000.fr;thermos-root-devel-WordCountTopology-1-b79165a6-1316-4cd6-8365-87ce32b81fbc;["container_1_Consume_and_count_1"];1.25;1533228195.57629;99.12;351.43;814.442458928;10;151
28;paravance-22.rennes.grid5000.fr;thermos-root-devel-WordCountTopology-0-bf6c5a54-c1de-41f8-94f7-0c82658d9ad5;["topology_master"];1.25;1533228195.53507;4.4;11.41;6.901298314;9;117
28;paravance-7.rennes.grid5000.fr;thermos-root-devel-WordCountTopology-2-21996703-cf48-4c20-a29f-9cb44d581192;["container_2_Emit_random_words_2"];1.25;1533228195.44937;65.46;290.18;334.597932866;10;149
29;paravance-8.rennes.grid5000.fr;thermos-root-devel-WordCountTopology-1-b79165a6-1316-4cd6-8365-87ce32b81fbc;["container_1_Consume_and_count_1"];1.25;1533228205.79281;101.6;360.73;837.427128301;10;151
29;paravance-7.rennes.grid5000.fr;thermos-root-devel-WordCountTopology-2-21996703-cf48-4c20-a29f-9cb44d581192;["container_2_Emit_random_words_2"];1.25;1533228205.66405;67.07;297.04;342.140083694;10;149
29;paravance-22.rennes.grid5000.fr;thermos-root-devel-WordCountTopology-0-bf6c5a54-c1de-41f8-94f7-0c82658d9ad5;["topology_master"];1.25;1533228205.75255;4.51;11.62;6.901298314;9;117
30;paravance-22.rennes.grid5000.fr;thermos-root-devel-WordCountTopology-0-bf6c5a54-c1de-41f8-94f7-0c82658d9ad5;["topology_master"];1.25;1533228215.96818;4.55;11.66;6.901298314;9;115
30;paravance-7.rennes.grid5000.fr;thermos-root-devel-WordCountTopology-2-21996703-cf48-4c20-a29f-9cb44d581192;["container_2_Emit_random_words_2"];1.25;1533228215.88257;68.57;303.54;348.605505397;10;149
30;paravance-8.rennes.grid5000.fr;thermos-root-devel-WordCountTopology-1-b79165a6-1316-4cd6-8365-87ce32b81fbc;["container_1_Consume_and_count_1"];1.25;1533228216.01202;104.04;370.05;860.427187338;10;151
31;paravance-7.rennes.grid5000.fr;thermos-root-devel-WordCountTopology-2-21996703-cf48-4c20-a29f-9cb44d581192;["container_2_Emit_random_words_2"];1.25;1533228226.09895;70.2;310.89;355.587584845;10;149
31;paravance-22.rennes.grid5000.fr;thermos-root-devel-WordCountTopology-0-bf6c5a54-c1de-41f8-94f7-0c82658d9ad5;["topology_master"];1.25;1533228226.18709;4.63;11.78;6.901298314;9;117
31;paravance-8.rennes.grid5000.fr;thermos-root-devel-WordCountTopology-1-b79165a6-1316-4cd6-8365-87ce32b81fbc;["container_1_Consume_and_count_1"];1.25;1533228226.22886;106.48;379.42;882.735719083;10;151
32;paravance-22.rennes.grid5000.fr;thermos-root-devel-WordCountTopology-0-bf6c5a54-c1de-41f8-94f7-0c82658d9ad5;["topology_master"];1.25;1533228236.40314;4.72;11.9;6.901298314;9;117
32;paravance-7.rennes.grid5000.fr;thermos-root-devel-WordCountTopology-2-21996703-cf48-4c20-a29f-9cb44d581192;["container_2_Emit_random_words_2"];1.25;1533228236.31822;71.72;317.39;362.618636959;10;149
32;paravance-8.rennes.grid5000.fr;thermos-root-devel-WordCountTopology-1-b79165a6-1316-4cd6-8365-87ce32b81fbc;["container_1_Consume_and_count_1"];1.25;1533228236.4497;108.89;388.82;905.255023825;10;151
33;paravance-7.rennes.grid5000.fr;thermos-root-devel-WordCountTopology-2-21996703-cf48-4c20-a29f-9cb44d581192;["container_2_Emit_random_words_2"];1.25;1533228246.53571;73.16;323.63;369.498170795;10;149
33;paravance-8.rennes.grid5000.fr;thermos-root-devel-WordCountTopology-1-b79165a6-1316-4cd6-8365-87ce32b81fbc;["container_1_Consume_and_count_1"];1.25;1533228246.6647;111.26;398.25;930.075661541;10;151
33;paravance-22.rennes.grid5000.fr;thermos-root-devel-WordCountTopology-0-bf6c5a54-c1de-41f8-94f7-0c82658d9ad5;["topology_master"];1.25;1533228246.62319;4.74;11.92;6.901298314;9;117
34;paravance-22.rennes.grid5000.fr;thermos-root-devel-WordCountTopology-0-bf6c5a54-c1de-41f8-94f7-0c82658d9ad5;["topology_master"];1.25;1533228256.83928;4.84;12.06;6.901298314;9;117
34;paravance-8.rennes.grid5000.fr;thermos-root-devel-WordCountTopology-1-b79165a6-1316-4cd6-8365-87ce32b81fbc;["container_1_Consume_and_count_1"];1.25;1533228256.88121;113.64;407.56;953.537005741;10;151
34;paravance-7.rennes.grid5000.fr;thermos-root-devel-WordCountTopology-2-21996703-cf48-4c20-a29f-9cb44d581192;["container_2_Emit_random_words_2"];1.25;1533228256.75304;74.71;330.55;377.097573713;10;149
35;paravance-8.rennes.grid5000.fr;thermos-root-devel-WordCountTopology-1-b79165a6-1316-4cd6-8365-87ce32b81fbc;["container_1_Consume_and_count_1"];1.25;1533228267.09807;115.89;417.13;978.337007682;10;151
35;paravance-22.rennes.grid5000.fr;thermos-root-devel-WordCountTopology-0-bf6c5a54-c1de-41f8-94f7-0c82658d9ad5;["topology_master"];1.25;1533228267.05621;4.9;12.18;6.901298314;9;117
35;paravance-7.rennes.grid5000.fr;thermos-root-devel-WordCountTopology-2-21996703-cf48-4c20-a29f-9cb44d581192;["container_2_Emit_random_words_2"];1.25;1533228266.97082;76.14;336.79;383.697446798;10;149
36;paravance-8.rennes.grid5000.fr;thermos-root-devel-WordCountTopology-1-b79165a6-1316-4cd6-8365-87ce32b81fbc;["container_1_Consume_and_count_1"];1.25;1533228277.31419;118.2;426.66;1001.819979902;10;151
36;paravance-22.rennes.grid5000.fr;thermos-root-devel-WordCountTopology-0-bf6c5a54-c1de-41f8-94f7-0c82658d9ad5;["topology_master"];1.25;1533228277.27366;4.96;12.26;6.901298314;9;117
36;paravance-7.rennes.grid5000.fr;thermos-root-devel-WordCountTopology-2-21996703-cf48-4c20-a29f-9cb44d581192;["container_2_Emit_random_words_2"];1.25;1533228277.18623;77.71;343.76;391.23814475;10;149
37;paravance-7.rennes.grid5000.fr;thermos-root-devel-WordCountTopology-2-21996703-cf48-4c20-a29f-9cb44d581192;["container_2_Emit_random_words_2"];1.25;1533228287.40238;79.2;350.03;397.356722921;10;149
37;paravance-22.rennes.grid5000.fr;thermos-root-devel-WordCountTopology-0-bf6c5a54-c1de-41f8-94f7-0c82658d9ad5;["topology_master"];1.25;1533228287.49034;5.02;12.33;6.901298314;9;117
37;paravance-8.rennes.grid5000.fr;thermos-root-devel-WordCountTopology-1-b79165a6-1316-4cd6-8365-87ce32b81fbc;["container_1_Consume_and_count_1"];1.25;1533228287.5333;120.42;436.22;1026.941614563;10;151
38;paravance-8.rennes.grid5000.fr;thermos-root-devel-WordCountTopology-1-b79165a6-1316-4cd6-8365-87ce32b81fbc;["container_1_Consume_and_count_1"];1.25;1533228297.74923;122.77;445.72;1049.258462797;10;151
38;paravance-7.rennes.grid5000.fr;thermos-root-devel-WordCountTopology-2-21996703-cf48-4c20-a29f-9cb44d581192;["container_2_Emit_random_words_2"];1.25;1533228297.61969;80.71;356.64;403.684668266;10;149
38;paravance-22.rennes.grid5000.fr;thermos-root-devel-WordCountTopology-0-bf6c5a54-c1de-41f8-94f7-0c82658d9ad5;["topology_master"];1.25;1533228297.70715;5.11;12.46;6.901298314;9;117
39;paravance-7.rennes.grid5000.fr;thermos-root-devel-WordCountTopology-2-21996703-cf48-4c20-a29f-9cb44d581192;["container_2_Emit_random_words_2"];1.25;1533228307.73747;82.33;363.3;410.400772606;10;149
39;paravance-8.rennes.grid5000.fr;thermos-root-devel-WordCountTopology-1-b79165a6-1316-4cd6-8365-87ce32b81fbc;["container_1_Consume_and_count_1"];1.25;1533228307.96483;125.06;455.24;1072.851310644;10;151
39;paravance-22.rennes.grid5000.fr;thermos-root-devel-WordCountTopology-0-bf6c5a54-c1de-41f8-94f7-0c82658d9ad5;["topology_master"];1.25;1533228307.92628;5.13;12.48;6.901298314;9;117
40;paravance-7.rennes.grid5000.fr;thermos-root-devel-WordCountTopology-2-21996703-cf48-4c20-a29f-9cb44d581192;["container_2_Emit_random_words_2"];1.25;1533228317.95468;83.78;369.54;417.751713377;10;149
40;paravance-22.rennes.grid5000.fr;thermos-root-devel-WordCountTopology-0-bf6c5a54-c1de-41f8-94f7-0c82658d9ad5;["topology_master"];1.25;1533228318.14103;5.23;12.62;6.901298314;9;117
40;paravance-8.rennes.grid5000.fr;thermos-root-devel-WordCountTopology-1-b79165a6-1316-4cd6-8365-87ce32b81fbc;["container_1_Consume_and_count_1"];1.25;1533228318.18224;127.38;464.74;1096.286658472;10;151
41;paravance-22.rennes.grid5000.fr;thermos-root-devel-WordCountTopology-0-bf6c5a54-c1de-41f8-94f7-0c82658d9ad5;["topology_master"];1.25;1533228328.3587;5.29;12.73;6.901298314;9;117
41;paravance-8.rennes.grid5000.fr;thermos-root-devel-WordCountTopology-1-b79165a6-1316-4cd6-8365-87ce32b81fbc;["container_1_Consume_and_count_1"];1.25;1533228328.40075;129.68;474.21;1120.199899623;10;151
41;paravance-7.rennes.grid5000.fr;thermos-root-devel-WordCountTopology-2-21996703-cf48-4c20-a29f-9cb44d581192;["container_2_Emit_random_words_2"];1.25;1533228328.27288;85.44;376.86;426.239597016;10;149
42;paravance-8.rennes.grid5000.fr;thermos-root-devel-WordCountTopology-1-b79165a6-1316-4cd6-8365-87ce32b81fbc;["container_1_Consume_and_count_1"];1.25;1533228338.61709;132.06;483.68;1144.166304781;10;151
42;paravance-7.rennes.grid5000.fr;thermos-root-devel-WordCountTopology-2-21996703-cf48-4c20-a29f-9cb44d581192;["container_2_Emit_random_words_2"];1.25;1533228338.48944;86.83;382.84;432.727270936;10;149
42;paravance-22.rennes.grid5000.fr;thermos-root-devel-WordCountTopology-0-bf6c5a54-c1de-41f8-94f7-0c82658d9ad5;["topology_master"];1.25;1533228338.57723;5.38;12.87;6.901298314;9;117
43;paravance-8.rennes.grid5000.fr;thermos-root-devel-WordCountTopology-1-b79165a6-1316-4cd6-8365-87ce32b81fbc;["container_1_Consume_and_count_1"];1.25;1533228348.83407;134.27;493.26;1167.697535143;10;151
43;paravance-7.rennes.grid5000.fr;thermos-root-devel-WordCountTopology-2-21996703-cf48-4c20-a29f-9cb44d581192;["container_2_Emit_random_words_2"];1.25;1533228348.70641;88.36;389.41;439.93075391;10;149
43;paravance-22.rennes.grid5000.fr;thermos-root-devel-WordCountTopology-0-bf6c5a54-c1de-41f8-94f7-0c82658d9ad5;["topology_master"];1.25;1533228348.80124;5.41;12.9;6.901298314;9;117
44;paravance-8.rennes.grid5000.fr;thermos-root-devel-WordCountTopology-1-b79165a6-1316-4cd6-8365-87ce32b81fbc;["container_1_Consume_and_count_1"];1.25;1533228359.05583;136.57;502.85;1190.67778123;10;151
44;paravance-7.rennes.grid5000.fr;thermos-root-devel-WordCountTopology-2-21996703-cf48-4c20-a29f-9cb44d581192;["container_2_Emit_random_words_2"];1.25;1533228358.92743;89.82;395.55;447.085225092;10;149
44;paravance-22.rennes.grid5000.fr;thermos-root-devel-WordCountTopology-0-bf6c5a54-c1de-41f8-94f7-0c82658d9ad5;["topology_master"];1.25;1533228359.01651;5.5;13.02;6.901298314;9;117
45;paravance-8.rennes.grid5000.fr;thermos-root-devel-WordCountTopology-1-b79165a6-1316-4cd6-8365-87ce32b81fbc;["container_1_Consume_and_count_1"];1.25;1533228369.27473;138.86;512.44;1213.736657372;10;151
45;paravance-22.rennes.grid5000.fr;thermos-root-devel-WordCountTopology-0-bf6c5a54-c1de-41f8-94f7-0c82658d9ad5;["topology_master"];1.25;1533228369.23301;5.55;13.1;6.901298314;9;117
45;paravance-7.rennes.grid5000.fr;thermos-root-devel-WordCountTopology-2-21996703-cf48-4c20-a29f-9cb44d581192;["container_2_Emit_random_words_2"];1.25;1533228369.14655;91.29;402.24;453.856324733;10;149
46;paravance-7.rennes.grid5000.fr;thermos-root-devel-WordCountTopology-2-21996703-cf48-4c20-a29f-9cb44d581192;["container_2_Emit_random_words_2"];1.25;1533228379.36277;92.84;408.95;460.840116372;10;149
46;paravance-8.rennes.grid5000.fr;thermos-root-devel-WordCountTopology-1-b79165a6-1316-4cd6-8365-87ce32b81fbc;["container_1_Consume_and_count_1"];1.25;1533228379.49272;141.19;521.92;1237.566675945;10;151
46;paravance-22.rennes.grid5000.fr;thermos-root-devel-WordCountTopology-0-bf6c5a54-c1de-41f8-94f7-0c82658d9ad5;["topology_master"];1.25;1533228379.45198;5.62;13.18;6.901298314;9;117
47;paravance-7.rennes.grid5000.fr;thermos-root-devel-WordCountTopology-2-21996703-cf48-4c20-a29f-9cb44d581192;["container_2_Emit_random_words_2"];1.25;1533228389.58009;94.31;415.25;466.535924823;10;149
47;paravance-22.rennes.grid5000.fr;thermos-root-devel-WordCountTopology-0-bf6c5a54-c1de-41f8-94f7-0c82658d9ad5;["topology_master"];1.25;1533228389.66855;5.68;13.31;6.901298314;9;117
47;paravance-8.rennes.grid5000.fr;thermos-root-devel-WordCountTopology-1-b79165a6-1316-4cd6-8365-87ce32b81fbc;["container_1_Consume_and_count_1"];1.25;1533228389.70984;143.44;531.54;1260.142302448;10;151
48;paravance-22.rennes.grid5000.fr;thermos-root-devel-WordCountTopology-0-bf6c5a54-c1de-41f8-94f7-0c82658d9ad5;["topology_master"];1.25;1533228399.88465;5.77;13.45;6.901298314;9;117
48;paravance-7.rennes.grid5000.fr;thermos-root-devel-WordCountTopology-2-21996703-cf48-4c20-a29f-9cb44d581192;["container_2_Emit_random_words_2"];1.25;1533228399.79792;95.93;422.56;474.762883214;10;149
48;paravance-8.rennes.grid5000.fr;thermos-root-devel-WordCountTopology-1-b79165a6-1316-4cd6-8365-87ce32b81fbc;["container_1_Consume_and_count_1"];1.25;1533228399.92735;145.73;541.12;1281.642369682;10;151
49;paravance-8.rennes.grid5000.fr;thermos-root-devel-WordCountTopology-1-b79165a6-1316-4cd6-8365-87ce32b81fbc;["container_1_Consume_and_count_1"];1.25;1533228410.14244;148.25;550.41;1308.378736968;10;151
49;paravance-22.rennes.grid5000.fr;thermos-root-devel-WordCountTopology-0-bf6c5a54-c1de-41f8-94f7-0c82658d9ad5;["topology_master"];1.25;1533228410.10261;5.8;13.47;6.901298314;9;117
49;paravance-7.rennes.grid5000.fr;thermos-root-devel-WordCountTopology-2-21996703-cf48-4c20-a29f-9cb44d581192;["container_2_Emit_random_words_2"];1.25;1533228410.01562;97.37;428.73;480.848042602;10;149
50;paravance-8.rennes.grid5000.fr;thermos-root-devel-WordCountTopology-1-b79165a6-1316-4cd6-8365-87ce32b81fbc;["container_1_Consume_and_count_1"];1.25;1533228420.35944;150.9;559.63;1333.996059778;10;151
50;paravance-22.rennes.grid5000.fr;thermos-root-devel-WordCountTopology-0-bf6c5a54-c1de-41f8-94f7-0c82658d9ad5;["topology_master"];1.25;1533228420.31835;5.89;13.6;6.901298314;9;117
50;paravance-7.rennes.grid5000.fr;thermos-root-devel-WordCountTopology-2-21996703-cf48-4c20-a29f-9cb44d581192;["container_2_Emit_random_words_2"];1.25;1533228420.23128;98.79;434.67;486.970111301;10;149
51;paravance-22.rennes.grid5000.fr;thermos-root-devel-WordCountTopology-0-bf6c5a54-c1de-41f8-94f7-0c82658d9ad5;["topology_master"];1.25;1533228430.53497;5.95;13.68;6.901298314;9;117
51;paravance-8.rennes.grid5000.fr;thermos-root-devel-WordCountTopology-1-b79165a6-1316-4cd6-8365-87ce32b81fbc;["container_1_Consume_and_count_1"];1.25;1533228430.57762;153.42;568.98;1360.757785519;10;151
51;paravance-7.rennes.grid5000.fr;thermos-root-devel-WordCountTopology-2-21996703-cf48-4c20-a29f-9cb44d581192;["container_2_Emit_random_words_2"];1.25;1533228430.44843;100.19;440.86;492.688791416;10;149
52;paravance-22.rennes.grid5000.fr;thermos-root-devel-WordCountTopology-0-bf6c5a54-c1de-41f8-94f7-0c82658d9ad5;["topology_master"];1.25;1533228440.7523;6.01;13.77;6.901298314;9;117
52;paravance-7.rennes.grid5000.fr;thermos-root-devel-WordCountTopology-2-21996703-cf48-4c20-a29f-9cb44d581192;["container_2_Emit_random_words_2"];1.25;1533228440.66441;101.64;447.15;499.621422878;10;149
52;paravance-8.rennes.grid5000.fr;thermos-root-devel-WordCountTopology-1-b79165a6-1316-4cd6-8365-87ce32b81fbc;["container_1_Consume_and_count_1"];1.25;1533228440.79307;155.93;578.34;1385.951572689;10;151
53;paravance-8.rennes.grid5000.fr;thermos-root-devel-WordCountTopology-1-b79165a6-1316-4cd6-8365-87ce32b81fbc;["container_1_Consume_and_count_1"];1.25;1533228451.0281;158.27;587.79;1409.102656434;10;151
53;paravance-22.rennes.grid5000.fr;thermos-root-devel-WordCountTopology-0-bf6c5a54-c1de-41f8-94f7-0c82658d9ad5;["topology_master"];1.25;1533228450.98923;6.08;13.88;6.901298314;9;117
53;paravance-7.rennes.grid5000.fr;thermos-root-devel-WordCountTopology-2-21996703-cf48-4c20-a29f-9cb44d581192;["container_2_Emit_random_words_2"];1.25;1533228450.90092;103.22;453.98;506.352042974;10;149
54;paravance-7.rennes.grid5000.fr;thermos-root-devel-WordCountTopology-2-21996703-cf48-4c20-a29f-9cb44d581192;["container_2_Emit_random_words_2"];1.25;1533228461.11809;104.65;460.2;512.47662315;10;149
54;paravance-22.rennes.grid5000.fr;thermos-root-devel-WordCountTopology-0-bf6c5a54-c1de-41f8-94f7-0c82658d9ad5;["topology_master"];1.25;1533228461.20638;6.17;14.01;6.901298314;9;117
54;paravance-8.rennes.grid5000.fr;thermos-root-devel-WordCountTopology-1-b79165a6-1316-4cd6-8365-87ce32b81fbc;["container_1_Consume_and_count_1"];1.25;1533228461.24661;160.61;597.29;1433.359887121;10;151
55;paravance-7.rennes.grid5000.fr;thermos-root-devel-WordCountTopology-2-21996703-cf48-4c20-a29f-9cb44d581192;["container_2_Emit_random_words_2"];1.25;1533228471.33324;106.11;466.32;518.749490909;10;149
55;paravance-22.rennes.grid5000.fr;thermos-root-devel-WordCountTopology-0-bf6c5a54-c1de-41f8-94f7-0c82658d9ad5;["topology_master"];1.25;1533228471.42383;6.19;14.04;6.901298314;9;117
55;paravance-8.rennes.grid5000.fr;thermos-root-devel-WordCountTopology-1-b79165a6-1316-4cd6-8365-87ce32b81fbc;["container_1_Consume_and_count_1"];1.25;1533228471.4648;162.95;606.74;1458.535860904;10;151
56;paravance-8.rennes.grid5000.fr;thermos-root-devel-WordCountTopology-1-b79165a6-1316-4cd6-8365-87ce32b81fbc;["container_1_Consume_and_count_1"];1.25;1533228481.68065;165.3;616.14;1482.402321334;10;151
56;paravance-22.rennes.grid5000.fr;thermos-root-devel-WordCountTopology-0-bf6c5a54-c1de-41f8-94f7-0c82658d9ad5;["topology_master"];1.25;1533228481.63924;6.28;14.16;6.901298314;9;117
56;paravance-7.rennes.grid5000.fr;thermos-root-devel-WordCountTopology-2-21996703-cf48-4c20-a29f-9cb44d581192;["container_2_Emit_random_words_2"];1.25;1533228481.55168;107.66;473.2;526.160033104;10;149
57;paravance-22.rennes.grid5000.fr;thermos-root-devel-WordCountTopology-0-bf6c5a54-c1de-41f8-94f7-0c82658d9ad5;["topology_master"];1.25;1533228491.85636;6.34;14.24;6.901298314;9;117
57;paravance-8.rennes.grid5000.fr;thermos-root-devel-WordCountTopology-1-b79165a6-1316-4cd6-8365-87ce32b81fbc;["container_1_Consume_and_count_1"];1.25;1533228491.89725;167.57;625.65;1507.339790712;10;151
57;paravance-7.rennes.grid5000.fr;thermos-root-devel-WordCountTopology-2-21996703-cf48-4c20-a29f-9cb44d581192;["container_2_Emit_random_words_2"];1.25;1533228491.76956;109.16;479.96;532.654388386;10;149
58;paravance-7.rennes.grid5000.fr;thermos-root-devel-WordCountTopology-2-21996703-cf48-4c20-a29f-9cb44d581192;["container_2_Emit_random_words_2"];1.25;1533228501.88333;110.68;486.32;539.347917313;10;149
58;paravance-8.rennes.grid5000.fr;thermos-root-devel-WordCountTopology-1-b79165a6-1316-4cd6-8365-87ce32b81fbc;["container_1_Consume_and_count_1"];1.25;1533228502.11205;169.91;635.18;1530.018238889;10;151
58;paravance-22.rennes.grid5000.fr;thermos-root-devel-WordCountTopology-0-bf6c5a54-c1de-41f8-94f7-0c82658d9ad5;["topology_master"];1.25;1533228502.07278;6.41;14.35;6.901298314;9;117
59;paravance-7.rennes.grid5000.fr;thermos-root-devel-WordCountTopology-2-21996703-cf48-4c20-a29f-9cb44d581192;["container_2_Emit_random_words_2"];1.25;1533228512.19755;112.26;493.14;546.629123564;10;149
59;paravance-8.rennes.grid5000.fr;thermos-root-devel-WordCountTopology-1-b79165a6-1316-4cd6-8365-87ce32b81fbc;["container_1_Consume_and_count_1"];1.25;1533228512.32614;172.22;644.69;1552.659685785;10;151
59;paravance-22.rennes.grid5000.fr;thermos-root-devel-WordCountTopology-0-bf6c5a54-c1de-41f8-94f7-0c82658d9ad5;["topology_master"];1.25;1533228512.28827;6.47;14.42;6.901298314;9;117
60;paravance-7.rennes.grid5000.fr;thermos-root-devel-WordCountTopology-2-21996703-cf48-4c20-a29f-9cb44d581192;["container_2_Emit_random_words_2"];1.25;1533228522.41303;113.69;499.1;553.581979881;10;149
60;paravance-22.rennes.grid5000.fr;thermos-root-devel-WordCountTopology-0-bf6c5a54-c1de-41f8-94f7-0c82658d9ad5;["topology_master"];1.25;1533228522.5065;6.56;14.55;6.901298314;9;117
60;paravance-8.rennes.grid5000.fr;thermos-root-devel-WordCountTopology-1-b79165a6-1316-4cd6-8365-87ce32b81fbc;["container_1_Consume_and_count_1"];1.25;1533228522.54855;174.59;654.17;1577.176618844;10;151
