{
  "status": "success",
  "executiontime": 0.00018906593322753906,
  "message": "",
  "result": {
    "bolts": {
      "Consume_and_count": [
        "container_1_Consume_and_count_1"
      ]
    },
    "instances": {
      "container_2_Emit_random_words_2": {
        "stmgrId": "stmgr-2",
        "logfile": "http://paravance-7.rennes.grid5000.fr:31487/file/log-files/container_2_Emit_random_words_2.log.0",
        "id": "container_2_Emit_random_words_2",
        "name": "Emit_random_words"
      },
      "container_1_Consume_and_count_1": {
        "stmgrId": "stmgr-1",
        "logfile": "http://paravance-8.rennes.grid5000.fr:31817/file/log-files/container_1_Consume_and_count_1.log.0",
        "id": "container_1_Consume_and_count_1",
        "name": "Consume_and_count"
      }
    },
    "instance_groups": {
      "container_1_Consume_and": [
        "container_1_Consume_and_count_1"
      ],
      "container_2_Emit_random": [
        "container_2_Emit_random_words_2"
      ]
    },
    "spouts": {
      "Emit_random_words": [
        "container_2_Emit_random_words_2"
      ]
    },
    "config": {
      "topology.message.timeout.secs": "30",
      "topology.team.environment": "devel",
      "topology.serializer.classname": "org.apache.heron.streamlet.impl.KryoSerializer",
      "topology.team.name": "root",
      "topology.debug": "false",
      "topology.max.spout.pending": "100",
      "topology.container.padding.percentage": "0",
      "topology.enable.message.timeouts": "true",
      "topology.component.parallelism": "1",
      "topology.name": "WordCountTopology",
      "topology.stmgrs": "2",
      "topology.reliability.mode": "ATMOST_ONCE"
    },
    "stmgrs": {
      "stmgr-1": {
        "cwd": "/var/lib/mesos/slaves/4886ff18-2122-461d-b9a3-2d13da4d7ba8-S2/frameworks/75deb08a-eb1b-415c-8b2c-e922be5f7d98-0000/executors/thermos-root-devel-WordCountTopology-1-b79165a6-1316-4cd6-8365-87ce32b81fbc/runs/013f7f04-b120-4b65-84b8-56d8644c6f1d/sandbox",
        "host": "paravance-8.rennes.grid5000.fr",
        "joburl": "http://paravance-8.rennes.grid5000.fr:31817/browse/",
        "shell_port": 31817,
        "logfiles": "http://paravance-8.rennes.grid5000.fr:31817/browse/log-files",
        "pid": 2764,
        "id": "stmgr-1",
        "instance_ids": [
          "container_1_Consume_and_count_1"
        ],
        "port": 31217
      },
      "stmgr-2": {
        "cwd": "/var/lib/mesos/slaves/4886ff18-2122-461d-b9a3-2d13da4d7ba8-S1/frameworks/75deb08a-eb1b-415c-8b2c-e922be5f7d98-0000/executors/thermos-root-devel-WordCountTopology-2-21996703-cf48-4c20-a29f-9cb44d581192/runs/69acc550-f61e-4f33-b5dd-bb05f65b76c2/sandbox",
        "host": "paravance-7.rennes.grid5000.fr",
        "joburl": "http://paravance-7.rennes.grid5000.fr:31487/browse/",
        "shell_port": 31487,
        "logfiles": "http://paravance-7.rennes.grid5000.fr:31487/browse/log-files",
        "pid": 2828,
        "id": "stmgr-2",
        "instance_ids": [
          "container_2_Emit_random_words_2"
        ],
        "port": 31828
      }
    }
  },
  "tracker_version": "0.17.8-61-gd7c8c62"
}