mesure_id;slave_id;executor_id;heron_instances;cpus_limit;timestamp_A;cpus_system_time_secs_A;cpus_user_time_secs_A;cpus_throttled_time_secs_A;processes;threads
0;paravance-20.rennes.grid5000.fr;thermos-root-devel-WordCountTopology-0-1b4b22c5-f549-4cde-97e7-bbcc56ec6abd;["topology_master"];4.25;1533754810.28342;2.36;7.81;0.002548214;9;117
0;paravance-1.rennes.grid5000.fr;thermos-root-devel-WordCountTopology-2-b61165b8-a4a3-4f08-ae7b-a3af0a52ec12;["container_2_Emit_random_words_2"];4.25;1533754810.28398;7.71;155.24;2.920597856;10;149
0;paravance-10.rennes.grid5000.fr;thermos-root-devel-WordCountTopology-1-28c93570-3474-416a-aff2-c0ad138ff6fd;["container_1_Consume_and_count_1"];4.25;1533754810.27605;27.04;270.37;13.486387091;10;151
1;paravance-20.rennes.grid5000.fr;thermos-root-devel-WordCountTopology-0-1b4b22c5-f549-4cde-97e7-bbcc56ec6abd;["topology_master"];4.25;1533754820.40723;2.42;7.93;0.002548214;9;117
1;paravance-10.rennes.grid5000.fr;thermos-root-devel-WordCountTopology-1-28c93570-3474-416a-aff2-c0ad138ff6fd;["container_1_Consume_and_count_1"];4.25;1533754820.49637;30.46;304.25;14.384797103;10;151
1;paravance-1.rennes.grid5000.fr;thermos-root-devel-WordCountTopology-2-b61165b8-a4a3-4f08-ae7b-a3af0a52ec12;["container_2_Emit_random_words_2"];4.25;1533754820.50386;8.39;173.42;2.920597856;10;149
2;paravance-10.rennes.grid5000.fr;thermos-root-devel-WordCountTopology-1-28c93570-3474-416a-aff2-c0ad138ff6fd;["container_1_Consume_and_count_1"];4.25;1533754830.72318;33.07;337.22;15.050674191;10;151
2;paravance-20.rennes.grid5000.fr;thermos-root-devel-WordCountTopology-0-1b4b22c5-f549-4cde-97e7-bbcc56ec6abd;["topology_master"];4.25;1533754830.73277;2.51;8.09;0.002548214;9;117
2;paravance-1.rennes.grid5000.fr;thermos-root-devel-WordCountTopology-2-b61165b8-a4a3-4f08-ae7b-a3af0a52ec12;["container_2_Emit_random_words_2"];4.25;1533754830.73379;8.92;186.24;2.920597856;10;149
3;paravance-10.rennes.grid5000.fr;thermos-root-devel-WordCountTopology-1-28c93570-3474-416a-aff2-c0ad138ff6fd;["container_1_Consume_and_count_1"];4.25;1533754840.94246;35.73;371.69;15.879626074;10;151
3;paravance-20.rennes.grid5000.fr;thermos-root-devel-WordCountTopology-0-1b4b22c5-f549-4cde-97e7-bbcc56ec6abd;["topology_master"];4.25;1533754840.9522;2.57;8.16;0.002548214;9;117
3;paravance-1.rennes.grid5000.fr;thermos-root-devel-WordCountTopology-2-b61165b8-a4a3-4f08-ae7b-a3af0a52ec12;["container_2_Emit_random_words_2"];4.25;1533754840.94932;9.54;202.68;2.920597856;10;149
4;paravance-10.rennes.grid5000.fr;thermos-root-devel-WordCountTopology-1-28c93570-3474-416a-aff2-c0ad138ff6fd;["container_1_Consume_and_count_1"];4.25;1533754851.15839;38.9;408.11;17.040464828;10;151
4;paravance-20.rennes.grid5000.fr;thermos-root-devel-WordCountTopology-0-1b4b22c5-f549-4cde-97e7-bbcc56ec6abd;["topology_master"];4.25;1533754851.16887;2.63;8.24;0.002548214;9;117
4;paravance-1.rennes.grid5000.fr;thermos-root-devel-WordCountTopology-2-b61165b8-a4a3-4f08-ae7b-a3af0a52ec12;["container_2_Emit_random_words_2"];4.25;1533754851.16408;10.21;220.73;2.920597856;10;149
5;paravance-10.rennes.grid5000.fr;thermos-root-devel-WordCountTopology-1-28c93570-3474-416a-aff2-c0ad138ff6fd;["container_1_Consume_and_count_1"];4.25;1533754861.37714;41.5;443.17;18.264348515;10;151
5;paravance-20.rennes.grid5000.fr;thermos-root-devel-WordCountTopology-0-1b4b22c5-f549-4cde-97e7-bbcc56ec6abd;["topology_master"];4.25;1533754861.38611;2.69;8.31;0.002548214;9;117
5;paravance-1.rennes.grid5000.fr;thermos-root-devel-WordCountTopology-2-b61165b8-a4a3-4f08-ae7b-a3af0a52ec12;["container_2_Emit_random_words_2"];4.25;1533754861.38358;10.88;238.82;2.920597856;10;149
6;paravance-10.rennes.grid5000.fr;thermos-root-devel-WordCountTopology-1-28c93570-3474-416a-aff2-c0ad138ff6fd;["container_1_Consume_and_count_1"];4.25;1533754871.59281;44.32;479.93;19.239643265;10;151
6;paravance-1.rennes.grid5000.fr;thermos-root-devel-WordCountTopology-2-b61165b8-a4a3-4f08-ae7b-a3af0a52ec12;["container_2_Emit_random_words_2"];4.25;1533754871.59955;11.38;249.97;2.920597856;10;149
6;paravance-20.rennes.grid5000.fr;thermos-root-devel-WordCountTopology-0-1b4b22c5-f549-4cde-97e7-bbcc56ec6abd;["topology_master"];4.25;1533754871.60245;2.81;8.52;0.002548214;9;117
7;paravance-10.rennes.grid5000.fr;thermos-root-devel-WordCountTopology-1-28c93570-3474-416a-aff2-c0ad138ff6fd;["container_1_Consume_and_count_1"];4.25;1533754881.80762;47.4;516.98;20.843770776;10;151
7;paravance-1.rennes.grid5000.fr;thermos-root-devel-WordCountTopology-2-b61165b8-a4a3-4f08-ae7b-a3af0a52ec12;["container_2_Emit_random_words_2"];4.25;1533754881.81511;12.03;268.07;2.920597856;10;149
7;paravance-20.rennes.grid5000.fr;thermos-root-devel-WordCountTopology-0-1b4b22c5-f549-4cde-97e7-bbcc56ec6abd;["topology_master"];4.25;1533754881.81951;2.84;8.55;0.002548214;9;117
8;paravance-10.rennes.grid5000.fr;thermos-root-devel-WordCountTopology-1-28c93570-3474-416a-aff2-c0ad138ff6fd;["container_1_Consume_and_count_1"];4.25;1533754892.02272;50.6;551.25;21.865393974;10;151
8;paravance-1.rennes.grid5000.fr;thermos-root-devel-WordCountTopology-2-b61165b8-a4a3-4f08-ae7b-a3af0a52ec12;["container_2_Emit_random_words_2"];4.25;1533754892.02991;12.74;286.28;2.920597856;10;149
8;paravance-20.rennes.grid5000.fr;thermos-root-devel-WordCountTopology-0-1b4b22c5-f549-4cde-97e7-bbcc56ec6abd;["topology_master"];4.25;1533754892.03401;2.93;8.69;0.002548214;9;117
9;paravance-10.rennes.grid5000.fr;thermos-root-devel-WordCountTopology-1-28c93570-3474-416a-aff2-c0ad138ff6fd;["container_1_Consume_and_count_1"];4.25;1533754902.24095;53.51;585.89;22.905066523;10;151
9;paravance-1.rennes.grid5000.fr;thermos-root-devel-WordCountTopology-2-b61165b8-a4a3-4f08-ae7b-a3af0a52ec12;["container_2_Emit_random_words_2"];4.25;1533754902.24809;13.23;299.44;2.920597856;10;149
9;paravance-20.rennes.grid5000.fr;thermos-root-devel-WordCountTopology-0-1b4b22c5-f549-4cde-97e7-bbcc56ec6abd;["topology_master"];4.25;1533754902.25146;2.99;8.76;0.002548214;9;117
10;paravance-1.rennes.grid5000.fr;thermos-root-devel-WordCountTopology-2-b61165b8-a4a3-4f08-ae7b-a3af0a52ec12;["container_2_Emit_random_words_2"];4.25;1533754912.46489;13.88;317.53;2.920597856;10;149
10;paravance-10.rennes.grid5000.fr;thermos-root-devel-WordCountTopology-1-28c93570-3474-416a-aff2-c0ad138ff6fd;["container_1_Consume_and_count_1"];4.25;1533754912.45895;56.33;623.11;24.346186125;10;151
10;paravance-20.rennes.grid5000.fr;thermos-root-devel-WordCountTopology-0-1b4b22c5-f549-4cde-97e7-bbcc56ec6abd;["topology_master"];4.25;1533754912.46947;3.05;8.84;0.002548214;9;117
11;paravance-10.rennes.grid5000.fr;thermos-root-devel-WordCountTopology-1-28c93570-3474-416a-aff2-c0ad138ff6fd;["container_1_Consume_and_count_1"];4.25;1533754922.67406;59.32;659.95;25.741079244;10;151
11;paravance-1.rennes.grid5000.fr;thermos-root-devel-WordCountTopology-2-b61165b8-a4a3-4f08-ae7b-a3af0a52ec12;["container_2_Emit_random_words_2"];4.25;1533754922.68196;14.52;335.4;2.920597856;10;149
11;paravance-20.rennes.grid5000.fr;thermos-root-devel-WordCountTopology-0-1b4b22c5-f549-4cde-97e7-bbcc56ec6abd;["topology_master"];4.25;1533754922.68518;3.11;8.91;0.002548214;9;117
12;paravance-10.rennes.grid5000.fr;thermos-root-devel-WordCountTopology-1-28c93570-3474-416a-aff2-c0ad138ff6fd;["container_1_Consume_and_count_1"];4.25;1533754932.89205;62.28;694.52;26.618038979;10;151
12;paravance-1.rennes.grid5000.fr;thermos-root-devel-WordCountTopology-2-b61165b8-a4a3-4f08-ae7b-a3af0a52ec12;["container_2_Emit_random_words_2"];4.25;1533754932.89894;15.25;353.53;2.920597856;10;149
12;paravance-20.rennes.grid5000.fr;thermos-root-devel-WordCountTopology-0-1b4b22c5-f549-4cde-97e7-bbcc56ec6abd;["topology_master"];4.25;1533754932.9032;3.23;9.24;0.002548214;9;117
13;paravance-10.rennes.grid5000.fr;thermos-root-devel-WordCountTopology-1-28c93570-3474-416a-aff2-c0ad138ff6fd;["container_1_Consume_and_count_1"];4.25;1533754943.10827;65.28;730.69;27.87362864;10;151
13;paravance-1.rennes.grid5000.fr;thermos-root-devel-WordCountTopology-2-b61165b8-a4a3-4f08-ae7b-a3af0a52ec12;["container_2_Emit_random_words_2"];4.25;1533754943.11613;15.88;371.47;2.920597856;10;149
13;paravance-20.rennes.grid5000.fr;thermos-root-devel-WordCountTopology-0-1b4b22c5-f549-4cde-97e7-bbcc56ec6abd;["topology_master"];4.25;1533754943.11966;3.26;9.26;0.002548214;9;117
14;paravance-10.rennes.grid5000.fr;thermos-root-devel-WordCountTopology-1-28c93570-3474-416a-aff2-c0ad138ff6fd;["container_1_Consume_and_count_1"];4.25;1533754953.32595;68.63;766.4;28.849476244;10;151
14;paravance-20.rennes.grid5000.fr;thermos-root-devel-WordCountTopology-0-1b4b22c5-f549-4cde-97e7-bbcc56ec6abd;["topology_master"];4.25;1533754953.33637;3.35;9.41;0.002548214;9;117
14;paravance-1.rennes.grid5000.fr;thermos-root-devel-WordCountTopology-2-b61165b8-a4a3-4f08-ae7b-a3af0a52ec12;["container_2_Emit_random_words_2"];4.25;1533754953.33266;16.55;389.39;2.920597856;10;149
15;paravance-20.rennes.grid5000.fr;thermos-root-devel-WordCountTopology-0-1b4b22c5-f549-4cde-97e7-bbcc56ec6abd;["topology_master"];4.25;1533754963.55368;3.41;9.48;0.002548214;9;117
15;paravance-10.rennes.grid5000.fr;thermos-root-devel-WordCountTopology-1-28c93570-3474-416a-aff2-c0ad138ff6fd;["container_1_Consume_and_count_1"];4.25;1533754963.544;71.52;802.8;29.76417021;10;151
15;paravance-1.rennes.grid5000.fr;thermos-root-devel-WordCountTopology-2-b61165b8-a4a3-4f08-ae7b-a3af0a52ec12;["container_2_Emit_random_words_2"];4.25;1533754963.55005;17.19;407.27;2.920597856;10;149
16;paravance-20.rennes.grid5000.fr;thermos-root-devel-WordCountTopology-0-1b4b22c5-f549-4cde-97e7-bbcc56ec6abd;["topology_master"];4.25;1533754973.76987;3.47;9.57;0.002548214;9;117
16;paravance-1.rennes.grid5000.fr;thermos-root-devel-WordCountTopology-2-b61165b8-a4a3-4f08-ae7b-a3af0a52ec12;["container_2_Emit_random_words_2"];;;;;;;
16;paravance-10.rennes.grid5000.fr;thermos-root-devel-WordCountTopology-1-28c93570-3474-416a-aff2-c0ad138ff6fd;["container_1_Consume_and_count_1"];4.25;1533754973.75975;73.71;832.78;30.606583681;10;151
17;paravance-10.rennes.grid5000.fr;thermos-root-devel-WordCountTopology-1-28c93570-3474-416a-aff2-c0ad138ff6fd;["container_1_Consume_and_count_1"];4.25;1533754983.97339;76.17;865.46;31.113938274;10;151
17;paravance-1.rennes.grid5000.fr;thermos-root-devel-WordCountTopology-2-b61165b8-a4a3-4f08-ae7b-a3af0a52ec12;["container_2_Emit_random_words_2"];4.25;1533754983.98186;18.08;429.17;2.920597856;10;149
17;paravance-20.rennes.grid5000.fr;thermos-root-devel-WordCountTopology-0-1b4b22c5-f549-4cde-97e7-bbcc56ec6abd;["topology_master"];4.25;1533754983.98664;3.53;9.64;0.002548214;9;117
18;paravance-10.rennes.grid5000.fr;thermos-root-devel-WordCountTopology-1-28c93570-3474-416a-aff2-c0ad138ff6fd;["container_1_Consume_and_count_1"];4.25;1533754994.18945;78.7;897.99;31.873037752;10;151
18;paravance-1.rennes.grid5000.fr;thermos-root-devel-WordCountTopology-2-b61165b8-a4a3-4f08-ae7b-a3af0a52ec12;["container_2_Emit_random_words_2"];4.25;1533754994.19912;18.61;441.14;2.920597856;10;149
18;paravance-20.rennes.grid5000.fr;thermos-root-devel-WordCountTopology-0-1b4b22c5-f549-4cde-97e7-bbcc56ec6abd;["topology_master"];4.25;1533754994.20546;3.64;9.84;0.002548214;9;117
19;paravance-10.rennes.grid5000.fr;thermos-root-devel-WordCountTopology-1-28c93570-3474-416a-aff2-c0ad138ff6fd;["container_1_Consume_and_count_1"];4.25;1533755004.40959;80.95;930.53;32.755732739;10;151
19;paravance-20.rennes.grid5000.fr;thermos-root-devel-WordCountTopology-0-1b4b22c5-f549-4cde-97e7-bbcc56ec6abd;["topology_master"];4.25;1533755004.41996;3.66;9.86;0.002548214;9;117
19;paravance-1.rennes.grid5000.fr;thermos-root-devel-WordCountTopology-2-b61165b8-a4a3-4f08-ae7b-a3af0a52ec12;["container_2_Emit_random_words_2"];4.25;1533755004.4189;19.01;451.75;2.920597856;10;149
20;paravance-10.rennes.grid5000.fr;thermos-root-devel-WordCountTopology-1-28c93570-3474-416a-aff2-c0ad138ff6fd;["container_1_Consume_and_count_1"];4.25;1533755014.62643;83.54;962.5;33.189105649;10;151
20;paravance-20.rennes.grid5000.fr;thermos-root-devel-WordCountTopology-0-1b4b22c5-f549-4cde-97e7-bbcc56ec6abd;["topology_master"];4.25;1533755014.63779;3.76;10.0;0.002548214;9;117
20;paravance-1.rennes.grid5000.fr;thermos-root-devel-WordCountTopology-2-b61165b8-a4a3-4f08-ae7b-a3af0a52ec12;["container_2_Emit_random_words_2"];4.25;1533755014.63442;19.49;463.08;2.920597856;10;149
21;paravance-10.rennes.grid5000.fr;thermos-root-devel-WordCountTopology-1-28c93570-3474-416a-aff2-c0ad138ff6fd;["container_1_Consume_and_count_1"];4.25;1533755024.74428;86.58;996.49;33.559252542;10;151
21;paravance-1.rennes.grid5000.fr;thermos-root-devel-WordCountTopology-2-b61165b8-a4a3-4f08-ae7b-a3af0a52ec12;["container_2_Emit_random_words_2"];4.25;1533755024.84888;19.93;473.23;2.920597856;10;149
21;paravance-20.rennes.grid5000.fr;thermos-root-devel-WordCountTopology-0-1b4b22c5-f549-4cde-97e7-bbcc56ec6abd;["topology_master"];4.25;1533755024.85362;3.81;10.07;0.002548214;9;117
22;paravance-10.rennes.grid5000.fr;thermos-root-devel-WordCountTopology-1-28c93570-3474-416a-aff2-c0ad138ff6fd;["container_1_Consume_and_count_1"];4.25;1533755035.0577;87.98;1018.53;34.159210746;10;151
22;paravance-20.rennes.grid5000.fr;thermos-root-devel-WordCountTopology-0-1b4b22c5-f549-4cde-97e7-bbcc56ec6abd;["topology_master"];4.25;1533755035.06942;3.87;10.14;0.002548214;9;117
22;paravance-1.rennes.grid5000.fr;thermos-root-devel-WordCountTopology-2-b61165b8-a4a3-4f08-ae7b-a3af0a52ec12;["container_2_Emit_random_words_2"];4.25;1533755035.06594;20.28;480.84;2.920597856;10;149
23;paravance-1.rennes.grid5000.fr;thermos-root-devel-WordCountTopology-2-b61165b8-a4a3-4f08-ae7b-a3af0a52ec12;["container_2_Emit_random_words_2"];4.25;1533755045.2827;20.6;487.68;2.920597856;10;149
23;paravance-10.rennes.grid5000.fr;thermos-root-devel-WordCountTopology-1-28c93570-3474-416a-aff2-c0ad138ff6fd;["container_1_Consume_and_count_1"];4.25;1533755045.27648;89.26;1039.0;34.555187116;10;151
23;paravance-20.rennes.grid5000.fr;thermos-root-devel-WordCountTopology-0-1b4b22c5-f549-4cde-97e7-bbcc56ec6abd;["topology_master"];4.25;1533755045.28807;3.93;10.21;0.002548214;9;117
24;paravance-20.rennes.grid5000.fr;thermos-root-devel-WordCountTopology-0-1b4b22c5-f549-4cde-97e7-bbcc56ec6abd;["topology_master"];4.25;1533755055.50426;4.04;10.4;0.002548214;9;117
24;paravance-10.rennes.grid5000.fr;thermos-root-devel-WordCountTopology-1-28c93570-3474-416a-aff2-c0ad138ff6fd;["container_1_Consume_and_count_1"];4.25;1533755055.49318;90.57;1059.54;34.801048937;10;151
24;paravance-1.rennes.grid5000.fr;thermos-root-devel-WordCountTopology-2-b61165b8-a4a3-4f08-ae7b-a3af0a52ec12;["container_2_Emit_random_words_2"];4.25;1533755055.50083;21.0;494.93;2.920597856;10;149
25;paravance-20.rennes.grid5000.fr;thermos-root-devel-WordCountTopology-0-1b4b22c5-f549-4cde-97e7-bbcc56ec6abd;["topology_master"];4.25;1533755065.72414;4.07;10.43;0.002548214;9;117
25;paravance-1.rennes.grid5000.fr;thermos-root-devel-WordCountTopology-2-b61165b8-a4a3-4f08-ae7b-a3af0a52ec12;["container_2_Emit_random_words_2"];4.25;1533755065.72144;21.29;501.73;2.920597856;10;149
25;paravance-10.rennes.grid5000.fr;thermos-root-devel-WordCountTopology-1-28c93570-3474-416a-aff2-c0ad138ff6fd;["container_1_Consume_and_count_1"];4.25;1533755065.71274;91.64;1080.44;35.393723288;10;151
26;paravance-20.rennes.grid5000.fr;thermos-root-devel-WordCountTopology-0-1b4b22c5-f549-4cde-97e7-bbcc56ec6abd;["topology_master"];4.25;1533755075.84448;4.15;10.55;0.002548214;9;117
26;paravance-10.rennes.grid5000.fr;thermos-root-devel-WordCountTopology-1-28c93570-3474-416a-aff2-c0ad138ff6fd;["container_1_Consume_and_count_1"];4.25;1533755075.93144;92.76;1100.54;35.958070967;10;151
26;paravance-1.rennes.grid5000.fr;thermos-root-devel-WordCountTopology-2-b61165b8-a4a3-4f08-ae7b-a3af0a52ec12;["container_2_Emit_random_words_2"];4.25;1533755075.9391;21.67;509.4;2.920597856;10;149
27;paravance-10.rennes.grid5000.fr;thermos-root-devel-WordCountTopology-1-28c93570-3474-416a-aff2-c0ad138ff6fd;["container_1_Consume_and_count_1"];4.25;1533755086.14699;93.97;1123.8;36.466320208;10;151
27;paravance-1.rennes.grid5000.fr;thermos-root-devel-WordCountTopology-2-b61165b8-a4a3-4f08-ae7b-a3af0a52ec12;["container_2_Emit_random_words_2"];4.25;1533755086.15546;22.0;516.41;2.920597856;10;149
27;paravance-20.rennes.grid5000.fr;thermos-root-devel-WordCountTopology-0-1b4b22c5-f549-4cde-97e7-bbcc56ec6abd;["topology_master"];4.25;1533755086.15999;4.2;10.62;0.002548214;9;117
28;paravance-1.rennes.grid5000.fr;thermos-root-devel-WordCountTopology-2-b61165b8-a4a3-4f08-ae7b-a3af0a52ec12;["container_2_Emit_random_words_2"];4.25;1533755096.37564;22.34;523.47;2.920597856;10;149
28;paravance-20.rennes.grid5000.fr;thermos-root-devel-WordCountTopology-0-1b4b22c5-f549-4cde-97e7-bbcc56ec6abd;["topology_master"];4.25;1533755096.3818;4.26;10.69;0.002548214;9;117
28;paravance-10.rennes.grid5000.fr;thermos-root-devel-WordCountTopology-1-28c93570-3474-416a-aff2-c0ad138ff6fd;["container_1_Consume_and_count_1"];4.25;1533755096.37625;95.06;1142.82;36.931142197;10;151
29;paravance-1.rennes.grid5000.fr;thermos-root-devel-WordCountTopology-2-b61165b8-a4a3-4f08-ae7b-a3af0a52ec12;["container_2_Emit_random_words_2"];4.25;1533755106.59818;22.71;530.15;2.920597856;10;149
29;paravance-10.rennes.grid5000.fr;thermos-root-devel-WordCountTopology-1-28c93570-3474-416a-aff2-c0ad138ff6fd;["container_1_Consume_and_count_1"];4.25;1533755106.59073;96.22;1164.72;37.681581556;10;151
29;paravance-20.rennes.grid5000.fr;thermos-root-devel-WordCountTopology-0-1b4b22c5-f549-4cde-97e7-bbcc56ec6abd;["topology_master"];4.25;1533755106.6045;4.37;10.83;0.002548214;9;117
30;paravance-20.rennes.grid5000.fr;thermos-root-devel-WordCountTopology-0-1b4b22c5-f549-4cde-97e7-bbcc56ec6abd;["topology_master"];4.25;1533755116.7208;4.43;10.97;0.002548214;9;117
30;paravance-10.rennes.grid5000.fr;thermos-root-devel-WordCountTopology-1-28c93570-3474-416a-aff2-c0ad138ff6fd;["container_1_Consume_and_count_1"];4.25;1533755116.80771;97.32;1183.65;37.943363061;10;151
30;paravance-1.rennes.grid5000.fr;thermos-root-devel-WordCountTopology-2-b61165b8-a4a3-4f08-ae7b-a3af0a52ec12;["container_2_Emit_random_words_2"];4.25;1533755116.81524;23.07;538.11;2.920597856;10;149
31;paravance-1.rennes.grid5000.fr;thermos-root-devel-WordCountTopology-2-b61165b8-a4a3-4f08-ae7b-a3af0a52ec12;["container_2_Emit_random_words_2"];4.25;1533755127.02903;23.31;542.36;2.920597856;10;149
31;paravance-20.rennes.grid5000.fr;thermos-root-devel-WordCountTopology-0-1b4b22c5-f549-4cde-97e7-bbcc56ec6abd;["topology_master"];4.25;1533755127.03401;4.49;11.04;0.002548214;9;117
31;paravance-10.rennes.grid5000.fr;thermos-root-devel-WordCountTopology-1-28c93570-3474-416a-aff2-c0ad138ff6fd;["container_1_Consume_and_count_1"];4.25;1533755127.0207;98.28;1204.4;38.424381311;10;151
32;paravance-10.rennes.grid5000.fr;thermos-root-devel-WordCountTopology-1-28c93570-3474-416a-aff2-c0ad138ff6fd;["container_1_Consume_and_count_1"];4.25;1533755137.23837;99.33;1223.06;38.931048773;10;151
32;paravance-1.rennes.grid5000.fr;thermos-root-devel-WordCountTopology-2-b61165b8-a4a3-4f08-ae7b-a3af0a52ec12;["container_2_Emit_random_words_2"];4.25;1533755137.24582;23.6;547.97;2.920597856;10;149
32;paravance-20.rennes.grid5000.fr;thermos-root-devel-WordCountTopology-0-1b4b22c5-f549-4cde-97e7-bbcc56ec6abd;["topology_master"];4.25;1533755137.25141;4.55;11.11;0.002548214;9;117
33;paravance-10.rennes.grid5000.fr;thermos-root-devel-WordCountTopology-1-28c93570-3474-416a-aff2-c0ad138ff6fd;["container_1_Consume_and_count_1"];4.25;1533755147.45516;100.46;1243.25;39.206780551;10;151
33;paravance-1.rennes.grid5000.fr;thermos-root-devel-WordCountTopology-2-b61165b8-a4a3-4f08-ae7b-a3af0a52ec12;["container_2_Emit_random_words_2"];4.25;1533755147.46427;23.93;554.19;2.920597856;10;149
33;paravance-20.rennes.grid5000.fr;thermos-root-devel-WordCountTopology-0-1b4b22c5-f549-4cde-97e7-bbcc56ec6abd;["topology_master"];4.25;1533755147.4694;4.64;11.23;0.002548214;9;117
34;paravance-10.rennes.grid5000.fr;thermos-root-devel-WordCountTopology-1-28c93570-3474-416a-aff2-c0ad138ff6fd;["container_1_Consume_and_count_1"];4.25;1533755157.67197;101.59;1263.52;39.651094733;10;151
34;paravance-1.rennes.grid5000.fr;thermos-root-devel-WordCountTopology-2-b61165b8-a4a3-4f08-ae7b-a3af0a52ec12;["container_2_Emit_random_words_2"];4.25;1533755157.68127;24.25;560.69;2.920597856;10;149
34;paravance-20.rennes.grid5000.fr;thermos-root-devel-WordCountTopology-0-1b4b22c5-f549-4cde-97e7-bbcc56ec6abd;["topology_master"];4.25;1533755157.68648;4.69;11.3;0.002548214;9;117
35;paravance-1.rennes.grid5000.fr;thermos-root-devel-WordCountTopology-2-b61165b8-a4a3-4f08-ae7b-a3af0a52ec12;["container_2_Emit_random_words_2"];4.25;1533755167.89784;24.58;567.63;2.920597856;10;149
35;paravance-10.rennes.grid5000.fr;thermos-root-devel-WordCountTopology-1-28c93570-3474-416a-aff2-c0ad138ff6fd;["container_1_Consume_and_count_1"];4.25;1533755167.8889;102.77;1281.07;39.842573446;10;151
35;paravance-20.rennes.grid5000.fr;thermos-root-devel-WordCountTopology-0-1b4b22c5-f549-4cde-97e7-bbcc56ec6abd;["topology_master"];4.25;1533755167.90093;4.76;11.39;0.002548214;9;117
36;paravance-1.rennes.grid5000.fr;thermos-root-devel-WordCountTopology-2-b61165b8-a4a3-4f08-ae7b-a3af0a52ec12;["container_2_Emit_random_words_2"];4.25;1533755178.1117;24.91;574.49;2.920597856;10;149
36;paravance-20.rennes.grid5000.fr;thermos-root-devel-WordCountTopology-0-1b4b22c5-f549-4cde-97e7-bbcc56ec6abd;["topology_master"];4.25;1533755178.11691;4.82;11.51;0.002548214;9;117
36;paravance-10.rennes.grid5000.fr;thermos-root-devel-WordCountTopology-1-28c93570-3474-416a-aff2-c0ad138ff6fd;["container_1_Consume_and_count_1"];4.25;1533755178.10254;103.87;1301.73;40.769840569;10;151
37;paravance-1.rennes.grid5000.fr;thermos-root-devel-WordCountTopology-2-b61165b8-a4a3-4f08-ae7b-a3af0a52ec12;["container_2_Emit_random_words_2"];4.25;1533755188.32614;25.28;581.61;2.920597856;10;149
37;paravance-10.rennes.grid5000.fr;thermos-root-devel-WordCountTopology-1-28c93570-3474-416a-aff2-c0ad138ff6fd;["container_1_Consume_and_count_1"];4.25;1533755188.32008;105.09;1320.69;41.075156022;10;151
37;paravance-20.rennes.grid5000.fr;thermos-root-devel-WordCountTopology-0-1b4b22c5-f549-4cde-97e7-bbcc56ec6abd;["topology_master"];4.25;1533755188.33417;4.91;11.62;0.002548214;9;117
38;paravance-1.rennes.grid5000.fr;thermos-root-devel-WordCountTopology-2-b61165b8-a4a3-4f08-ae7b-a3af0a52ec12;["container_2_Emit_random_words_2"];4.25;1533755198.54402;25.56;588.16;2.920597856;10;149
38;paravance-10.rennes.grid5000.fr;thermos-root-devel-WordCountTopology-1-28c93570-3474-416a-aff2-c0ad138ff6fd;["container_1_Consume_and_count_1"];4.25;1533755198.53649;106.18;1339.95;41.145043484;10;151
38;paravance-20.rennes.grid5000.fr;thermos-root-devel-WordCountTopology-0-1b4b22c5-f549-4cde-97e7-bbcc56ec6abd;["topology_master"];4.25;1533755198.54906;4.93;11.66;0.002548214;9;117
39;paravance-10.rennes.grid5000.fr;thermos-root-devel-WordCountTopology-1-28c93570-3474-416a-aff2-c0ad138ff6fd;["container_1_Consume_and_count_1"];4.25;1533755208.75198;107.31;1360.69;42.016145443;10;151
39;paravance-20.rennes.grid5000.fr;thermos-root-devel-WordCountTopology-0-1b4b22c5-f549-4cde-97e7-bbcc56ec6abd;["topology_master"];4.25;1533755208.76498;5.02;11.77;0.002548214;9;117
39;paravance-1.rennes.grid5000.fr;thermos-root-devel-WordCountTopology-2-b61165b8-a4a3-4f08-ae7b-a3af0a52ec12;["container_2_Emit_random_words_2"];4.25;1533755208.76095;25.97;596.62;2.920597856;10;149
40;paravance-10.rennes.grid5000.fr;thermos-root-devel-WordCountTopology-1-28c93570-3474-416a-aff2-c0ad138ff6fd;["container_1_Consume_and_count_1"];4.25;1533755218.9675;108.52;1380.89;42.281364046;10;151
40;paravance-1.rennes.grid5000.fr;thermos-root-devel-WordCountTopology-2-b61165b8-a4a3-4f08-ae7b-a3af0a52ec12;["container_2_Emit_random_words_2"];4.25;1533755218.97879;26.3;603.97;2.920597856;10;149
40;paravance-20.rennes.grid5000.fr;thermos-root-devel-WordCountTopology-0-1b4b22c5-f549-4cde-97e7-bbcc56ec6abd;["topology_master"];4.25;1533755218.98377;5.08;11.84;0.002548214;9;117
41;paravance-20.rennes.grid5000.fr;thermos-root-devel-WordCountTopology-0-1b4b22c5-f549-4cde-97e7-bbcc56ec6abd;["topology_master"];4.25;1533755229.09844;5.14;11.93;0.002548214;9;117
41;paravance-10.rennes.grid5000.fr;thermos-root-devel-WordCountTopology-1-28c93570-3474-416a-aff2-c0ad138ff6fd;["container_1_Consume_and_count_1"];4.25;1533755229.18459;109.65;1401.4;42.782154245;10;151
41;paravance-1.rennes.grid5000.fr;thermos-root-devel-WordCountTopology-2-b61165b8-a4a3-4f08-ae7b-a3af0a52ec12;["container_2_Emit_random_words_2"];4.25;1533755229.19436;26.67;611.67;2.920597856;10;149
42;paravance-1.rennes.grid5000.fr;thermos-root-devel-WordCountTopology-2-b61165b8-a4a3-4f08-ae7b-a3af0a52ec12;["container_2_Emit_random_words_2"];4.25;1533755239.30773;26.99;618.52;2.920597856;10;149
42;paravance-10.rennes.grid5000.fr;thermos-root-devel-WordCountTopology-1-28c93570-3474-416a-aff2-c0ad138ff6fd;["container_1_Consume_and_count_1"];4.25;1533755239.39844;111.02;1421.87;42.969061062;10;151
42;paravance-20.rennes.grid5000.fr;thermos-root-devel-WordCountTopology-0-1b4b22c5-f549-4cde-97e7-bbcc56ec6abd;["topology_master"];4.25;1533755239.41174;5.2;12.05;0.002548214;9;117
43;paravance-1.rennes.grid5000.fr;thermos-root-devel-WordCountTopology-2-b61165b8-a4a3-4f08-ae7b-a3af0a52ec12;["container_2_Emit_random_words_2"];4.25;1533755249.62093;27.37;626.72;2.920597856;10;149
43;paravance-10.rennes.grid5000.fr;thermos-root-devel-WordCountTopology-1-28c93570-3474-416a-aff2-c0ad138ff6fd;["container_1_Consume_and_count_1"];4.25;1533755249.61237;112.23;1440.97;43.795599307;10;151
43;paravance-20.rennes.grid5000.fr;thermos-root-devel-WordCountTopology-0-1b4b22c5-f549-4cde-97e7-bbcc56ec6abd;["topology_master"];4.25;1533755249.62637;5.29;12.17;0.002548214;9;117
44;paravance-1.rennes.grid5000.fr;thermos-root-devel-WordCountTopology-2-b61165b8-a4a3-4f08-ae7b-a3af0a52ec12;["container_2_Emit_random_words_2"];4.25;1533755259.83696;27.72;635.36;2.920597856;10;149
44;paravance-10.rennes.grid5000.fr;thermos-root-devel-WordCountTopology-1-28c93570-3474-416a-aff2-c0ad138ff6fd;["container_1_Consume_and_count_1"];4.25;1533755259.82814;113.78;1462.54;44.190601576;10;151
44;paravance-20.rennes.grid5000.fr;thermos-root-devel-WordCountTopology-0-1b4b22c5-f549-4cde-97e7-bbcc56ec6abd;["topology_master"];4.25;1533755259.8421;5.32;12.2;0.002548214;9;117
45;paravance-1.rennes.grid5000.fr;thermos-root-devel-WordCountTopology-2-b61165b8-a4a3-4f08-ae7b-a3af0a52ec12;["container_2_Emit_random_words_2"];4.25;1533755270.05504;28.08;642.22;2.920597856;10;149
45;paravance-10.rennes.grid5000.fr;thermos-root-devel-WordCountTopology-1-28c93570-3474-416a-aff2-c0ad138ff6fd;["container_1_Consume_and_count_1"];4.25;1533755270.04708;114.69;1483.33;44.575959695;10;151
45;paravance-20.rennes.grid5000.fr;thermos-root-devel-WordCountTopology-0-1b4b22c5-f549-4cde-97e7-bbcc56ec6abd;["topology_master"];4.25;1533755270.06026;5.41;12.32;0.002548214;9;117
46;paravance-10.rennes.grid5000.fr;thermos-root-devel-WordCountTopology-1-28c93570-3474-416a-aff2-c0ad138ff6fd;["container_1_Consume_and_count_1"];4.25;1533755280.26496;115.86;1503.4;44.858484387;10;151
46;paravance-20.rennes.grid5000.fr;thermos-root-devel-WordCountTopology-0-1b4b22c5-f549-4cde-97e7-bbcc56ec6abd;["topology_master"];4.25;1533755280.27801;5.47;12.39;0.002548214;9;117
46;paravance-1.rennes.grid5000.fr;thermos-root-devel-WordCountTopology-2-b61165b8-a4a3-4f08-ae7b-a3af0a52ec12;["container_2_Emit_random_words_2"];4.25;1533755280.27445;28.39;648.98;2.920597856;10;149
47;paravance-10.rennes.grid5000.fr;thermos-root-devel-WordCountTopology-1-28c93570-3474-416a-aff2-c0ad138ff6fd;["container_1_Consume_and_count_1"];4.25;1533755290.38039;116.94;1522.92;46.079366783;10;151
47;paravance-20.rennes.grid5000.fr;thermos-root-devel-WordCountTopology-0-1b4b22c5-f549-4cde-97e7-bbcc56ec6abd;["topology_master"];4.25;1533755290.49492;5.53;12.48;0.002548214;9;117
47;paravance-1.rennes.grid5000.fr;thermos-root-devel-WordCountTopology-2-b61165b8-a4a3-4f08-ae7b-a3af0a52ec12;["container_2_Emit_random_words_2"];4.25;1533755290.49043;28.72;656.11;2.920597856;10;149
48;paravance-10.rennes.grid5000.fr;thermos-root-devel-WordCountTopology-1-28c93570-3474-416a-aff2-c0ad138ff6fd;["container_1_Consume_and_count_1"];4.25;1533755300.69889;117.92;1544.94;46.332775082;10;151
48;paravance-20.rennes.grid5000.fr;thermos-root-devel-WordCountTopology-0-1b4b22c5-f549-4cde-97e7-bbcc56ec6abd;["topology_master"];4.25;1533755300.71197;5.59;12.58;0.002548214;9;117
48;paravance-1.rennes.grid5000.fr;thermos-root-devel-WordCountTopology-2-b61165b8-a4a3-4f08-ae7b-a3af0a52ec12;["container_2_Emit_random_words_2"];4.25;1533755300.70817;29.05;663.14;2.920597856;10;149
49;paravance-10.rennes.grid5000.fr;thermos-root-devel-WordCountTopology-1-28c93570-3474-416a-aff2-c0ad138ff6fd;["container_1_Consume_and_count_1"];4.25;1533755310.91461;119.12;1566.02;47.272115222;10;151
49;paravance-20.rennes.grid5000.fr;thermos-root-devel-WordCountTopology-0-1b4b22c5-f549-4cde-97e7-bbcc56ec6abd;["topology_master"];4.25;1533755310.9294;5.68;12.72;0.002548214;9;117
49;paravance-1.rennes.grid5000.fr;thermos-root-devel-WordCountTopology-2-b61165b8-a4a3-4f08-ae7b-a3af0a52ec12;["container_2_Emit_random_words_2"];4.25;1533755310.92529;29.39;669.64;2.920597856;10;149
50;paravance-1.rennes.grid5000.fr;thermos-root-devel-WordCountTopology-2-b61165b8-a4a3-4f08-ae7b-a3af0a52ec12;["container_2_Emit_random_words_2"];4.25;1533755321.14145;29.68;676.3;2.920597856;10;149
50;paravance-10.rennes.grid5000.fr;thermos-root-devel-WordCountTopology-1-28c93570-3474-416a-aff2-c0ad138ff6fd;["container_1_Consume_and_count_1"];4.25;1533755321.13271;120.24;1583.3;47.526086895;10;151
50;paravance-20.rennes.grid5000.fr;thermos-root-devel-WordCountTopology-0-1b4b22c5-f549-4cde-97e7-bbcc56ec6abd;["topology_master"];4.25;1533755321.14684;5.71;12.75;0.002548214;9;117
51;paravance-10.rennes.grid5000.fr;thermos-root-devel-WordCountTopology-1-28c93570-3474-416a-aff2-c0ad138ff6fd;["container_1_Consume_and_count_1"];4.25;1533755331.34809;121.37;1604.17;48.226910291;10;151
51;paravance-20.rennes.grid5000.fr;thermos-root-devel-WordCountTopology-0-1b4b22c5-f549-4cde-97e7-bbcc56ec6abd;["topology_master"];4.25;1533755331.36313;5.8;12.88;0.002548214;9;117
51;paravance-1.rennes.grid5000.fr;thermos-root-devel-WordCountTopology-2-b61165b8-a4a3-4f08-ae7b-a3af0a52ec12;["container_2_Emit_random_words_2"];4.25;1533755331.3597;29.95;680.89;2.920597856;10;149
52;paravance-1.rennes.grid5000.fr;thermos-root-devel-WordCountTopology-2-b61165b8-a4a3-4f08-ae7b-a3af0a52ec12;["container_2_Emit_random_words_2"];4.25;1533755341.57469;30.2;685.47;2.920597856;10;149
52;paravance-10.rennes.grid5000.fr;thermos-root-devel-WordCountTopology-1-28c93570-3474-416a-aff2-c0ad138ff6fd;["container_1_Consume_and_count_1"];4.25;1533755341.56494;122.56;1625.53;48.439303244;10;151
52;paravance-20.rennes.grid5000.fr;thermos-root-devel-WordCountTopology-0-1b4b22c5-f549-4cde-97e7-bbcc56ec6abd;["topology_master"];4.25;1533755341.57902;5.86;12.95;0.002548214;9;117
53;paravance-10.rennes.grid5000.fr;thermos-root-devel-WordCountTopology-1-28c93570-3474-416a-aff2-c0ad138ff6fd;["container_1_Consume_and_count_1"];4.25;1533755351.78041;123.89;1643.83;48.742107827;10;151
53;paravance-20.rennes.grid5000.fr;thermos-root-devel-WordCountTopology-0-1b4b22c5-f549-4cde-97e7-bbcc56ec6abd;["topology_master"];4.25;1533755351.79549;5.93;13.06;0.002548214;9;117
53;paravance-1.rennes.grid5000.fr;thermos-root-devel-WordCountTopology-2-b61165b8-a4a3-4f08-ae7b-a3af0a52ec12;["container_2_Emit_random_words_2"];4.25;1533755351.79109;30.57;693.51;2.920597856;10;149
54;paravance-10.rennes.grid5000.fr;thermos-root-devel-WordCountTopology-1-28c93570-3474-416a-aff2-c0ad138ff6fd;["container_1_Consume_and_count_1"];4.25;1533755361.9987;125.34;1663.55;48.904499118;10;151
54;paravance-20.rennes.grid5000.fr;thermos-root-devel-WordCountTopology-0-1b4b22c5-f549-4cde-97e7-bbcc56ec6abd;["topology_master"];4.25;1533755361.91254;5.98;13.12;0.002548214;9;117
54;paravance-1.rennes.grid5000.fr;thermos-root-devel-WordCountTopology-2-b61165b8-a4a3-4f08-ae7b-a3af0a52ec12;["container_2_Emit_random_words_2"];4.25;1533755362.00795;30.92;701.36;2.920597856;10;149
55;paravance-10.rennes.grid5000.fr;thermos-root-devel-WordCountTopology-1-28c93570-3474-416a-aff2-c0ad138ff6fd;["container_1_Consume_and_count_1"];4.25;1533755372.21431;126.68;1683.72;49.22529343;10;151
55;paravance-1.rennes.grid5000.fr;thermos-root-devel-WordCountTopology-2-b61165b8-a4a3-4f08-ae7b-a3af0a52ec12;["container_2_Emit_random_words_2"];4.25;1533755372.2236;31.28;708.34;2.920597856;10;149
55;paravance-20.rennes.grid5000.fr;thermos-root-devel-WordCountTopology-0-1b4b22c5-f549-4cde-97e7-bbcc56ec6abd;["topology_master"];4.25;1533755372.22962;6.07;13.26;0.002548214;9;117
56;paravance-10.rennes.grid5000.fr;thermos-root-devel-WordCountTopology-1-28c93570-3474-416a-aff2-c0ad138ff6fd;["container_1_Consume_and_count_1"];4.25;1533755382.43144;127.83;1704.81;49.677293805;10;151
56;paravance-1.rennes.grid5000.fr;thermos-root-devel-WordCountTopology-2-b61165b8-a4a3-4f08-ae7b-a3af0a52ec12;["container_2_Emit_random_words_2"];4.25;1533755382.44182;31.59;716.37;2.920597856;10;149
56;paravance-20.rennes.grid5000.fr;thermos-root-devel-WordCountTopology-0-1b4b22c5-f549-4cde-97e7-bbcc56ec6abd;["topology_master"];4.25;1533755382.44763;6.1;13.29;0.002548214;9;117
57;paravance-10.rennes.grid5000.fr;thermos-root-devel-WordCountTopology-1-28c93570-3474-416a-aff2-c0ad138ff6fd;["container_1_Consume_and_count_1"];4.25;1533755392.64985;129.06;1724.21;49.985950829;10;151
57;paravance-20.rennes.grid5000.fr;thermos-root-devel-WordCountTopology-0-1b4b22c5-f549-4cde-97e7-bbcc56ec6abd;["topology_master"];4.25;1533755392.6652;6.19;13.4;0.002548214;9;117
57;paravance-1.rennes.grid5000.fr;thermos-root-devel-WordCountTopology-2-b61165b8-a4a3-4f08-ae7b-a3af0a52ec12;["container_2_Emit_random_words_2"];4.25;1533755392.66115;31.93;723.77;2.920597856;10;149
58;paravance-10.rennes.grid5000.fr;thermos-root-devel-WordCountTopology-1-28c93570-3474-416a-aff2-c0ad138ff6fd;["container_1_Consume_and_count_1"];4.25;1533755402.76543;129.9;1745.61;50.552490128;10;151
58;paravance-20.rennes.grid5000.fr;thermos-root-devel-WordCountTopology-0-1b4b22c5-f549-4cde-97e7-bbcc56ec6abd;["topology_master"];4.25;1533755402.88019;6.24;13.48;0.002548214;9;117
58;paravance-1.rennes.grid5000.fr;thermos-root-devel-WordCountTopology-2-b61165b8-a4a3-4f08-ae7b-a3af0a52ec12;["container_2_Emit_random_words_2"];4.25;1533755402.87595;32.22;729.7;2.920597856;10;149
59;paravance-10.rennes.grid5000.fr;thermos-root-devel-WordCountTopology-1-28c93570-3474-416a-aff2-c0ad138ff6fd;["container_1_Consume_and_count_1"];4.25;1533755413.08079;131.1;1765.07;50.733599767;10;151
59;paravance-1.rennes.grid5000.fr;thermos-root-devel-WordCountTopology-2-b61165b8-a4a3-4f08-ae7b-a3af0a52ec12;["container_2_Emit_random_words_2"];4.25;1533755413.09116;32.53;735.37;2.920597856;10;149
59;paravance-20.rennes.grid5000.fr;thermos-root-devel-WordCountTopology-0-1b4b22c5-f549-4cde-97e7-bbcc56ec6abd;["topology_master"];4.25;1533755413.09743;6.31;13.59;0.002548214;9;117
60;paravance-1.rennes.grid5000.fr;thermos-root-devel-WordCountTopology-2-b61165b8-a4a3-4f08-ae7b-a3af0a52ec12;["container_2_Emit_random_words_2"];4.25;1533755423.20494;32.79;740.29;2.920597856;10;149
60;paravance-10.rennes.grid5000.fr;thermos-root-devel-WordCountTopology-1-28c93570-3474-416a-aff2-c0ad138ff6fd;["container_1_Consume_and_count_1"];4.25;1533755423.29506;132.57;1784.56;50.985111758;10;151
60;paravance-20.rennes.grid5000.fr;thermos-root-devel-WordCountTopology-0-1b4b22c5-f549-4cde-97e7-bbcc56ec6abd;["topology_master"];4.25;1533755423.31056;6.37;13.66;0.002548214;9;117
