mesure_id;slave_id;executor_id;heron_instances;cpus_limit;timestamp_A;cpus_system_time_secs_A;cpus_user_time_secs_A;cpus_throttled_time_secs_A;processes;threads
0;paravance-34.rennes.grid5000.fr;thermos-root-devel-WordCountTopology-1-48e7510e-bf59-4dbd-b89f-1a68b7afb23f;["container_1_Consume_and_count_1"];4.25;1533752830.26673;19.82;208.51;10.969405218;10;151
0;paravance-27.rennes.grid5000.fr;thermos-root-devel-WordCountTopology-0-cfdb07a6-0626-4d6b-ad7e-a03178406a43;["topology_master"];4.25;1533752830.26897;2.4;7.84;0.016436013;9;117
0;paravance-36.rennes.grid5000.fr;thermos-root-devel-WordCountTopology-2-92d4bcac-8730-47d6-a718-8c9cfad089be;["container_2_Emit_random_words_2"];4.25;1533752830.26833;6.8;119.61;2.380976158;10;149
1;paravance-34.rennes.grid5000.fr;thermos-root-devel-WordCountTopology-1-48e7510e-bf59-4dbd-b89f-1a68b7afb23f;["container_1_Consume_and_count_1"];4.25;1533752840.48221;20.99;229.16;11.587660481;10;151
1;paravance-36.rennes.grid5000.fr;thermos-root-devel-WordCountTopology-2-92d4bcac-8730-47d6-a718-8c9cfad089be;["container_2_Emit_random_words_2"];4.25;1533752840.48467;7.12;125.99;2.380976158;10;149
1;paravance-27.rennes.grid5000.fr;thermos-root-devel-WordCountTopology-0-cfdb07a6-0626-4d6b-ad7e-a03178406a43;["topology_master"];4.25;1533752840.48725;2.47;7.98;0.016436013;9;117
2;paravance-34.rennes.grid5000.fr;thermos-root-devel-WordCountTopology-1-48e7510e-bf59-4dbd-b89f-1a68b7afb23f;["container_1_Consume_and_count_1"];4.25;1533752850.70109;22.08;248.94;11.873863042;10;151
2;paravance-27.rennes.grid5000.fr;thermos-root-devel-WordCountTopology-0-cfdb07a6-0626-4d6b-ad7e-a03178406a43;["topology_master"];4.25;1533752850.70343;2.56;8.11;0.016436013;9;117
2;paravance-36.rennes.grid5000.fr;thermos-root-devel-WordCountTopology-2-92d4bcac-8730-47d6-a718-8c9cfad089be;["container_2_Emit_random_words_2"];4.25;1533752850.70121;7.46;132.16;2.380976158;10;149
3;paravance-36.rennes.grid5000.fr;thermos-root-devel-WordCountTopology-2-92d4bcac-8730-47d6-a718-8c9cfad089be;["container_2_Emit_random_words_2"];4.25;1533752860.91909;7.71;136.44;2.380976158;10;149
3;paravance-34.rennes.grid5000.fr;thermos-root-devel-WordCountTopology-1-48e7510e-bf59-4dbd-b89f-1a68b7afb23f;["container_1_Consume_and_count_1"];4.25;1533752860.91826;23.43;269.55;12.16649372;10;151
3;paravance-27.rennes.grid5000.fr;thermos-root-devel-WordCountTopology-0-cfdb07a6-0626-4d6b-ad7e-a03178406a43;["topology_master"];4.25;1533752860.92219;2.62;8.2;0.016436013;9;117
4;paravance-34.rennes.grid5000.fr;thermos-root-devel-WordCountTopology-1-48e7510e-bf59-4dbd-b89f-1a68b7afb23f;["container_1_Consume_and_count_1"];4.25;1533752871.13482;24.6;288.16;12.563673407;10;151
4;paravance-27.rennes.grid5000.fr;thermos-root-devel-WordCountTopology-0-cfdb07a6-0626-4d6b-ad7e-a03178406a43;["topology_master"];4.25;1533752871.13912;2.68;8.28;0.016436013;9;117
4;paravance-36.rennes.grid5000.fr;thermos-root-devel-WordCountTopology-2-92d4bcac-8730-47d6-a718-8c9cfad089be;["container_2_Emit_random_words_2"];4.25;1533752871.13533;8.0;141.86;2.380976158;10;149
5;paravance-34.rennes.grid5000.fr;thermos-root-devel-WordCountTopology-1-48e7510e-bf59-4dbd-b89f-1a68b7afb23f;["container_1_Consume_and_count_1"];4.25;1533752881.35198;25.79;307.21;12.904330786;10;151
5;paravance-36.rennes.grid5000.fr;thermos-root-devel-WordCountTopology-2-92d4bcac-8730-47d6-a718-8c9cfad089be;["container_2_Emit_random_words_2"];4.25;1533752881.35362;8.34;149.34;2.380976158;10;149
5;paravance-27.rennes.grid5000.fr;thermos-root-devel-WordCountTopology-0-cfdb07a6-0626-4d6b-ad7e-a03178406a43;["topology_master"];4.25;1533752881.35629;2.74;8.35;0.016436013;9;117
6;paravance-34.rennes.grid5000.fr;thermos-root-devel-WordCountTopology-1-48e7510e-bf59-4dbd-b89f-1a68b7afb23f;["container_1_Consume_and_count_1"];4.25;1533752891.46867;26.9;327.1;13.160790945;10;151
6;paravance-27.rennes.grid5000.fr;thermos-root-devel-WordCountTopology-0-cfdb07a6-0626-4d6b-ad7e-a03178406a43;["topology_master"];4.25;1533752891.57212;2.86;8.55;0.016436013;9;117
6;paravance-36.rennes.grid5000.fr;thermos-root-devel-WordCountTopology-2-92d4bcac-8730-47d6-a718-8c9cfad089be;["container_2_Emit_random_words_2"];4.25;1533752891.57073;8.69;154.96;2.380976158;10;149
7;paravance-34.rennes.grid5000.fr;thermos-root-devel-WordCountTopology-1-48e7510e-bf59-4dbd-b89f-1a68b7afb23f;["container_1_Consume_and_count_1"];4.25;1533752901.78831;27.93;347.43;13.681148592;10;151
7;paravance-27.rennes.grid5000.fr;thermos-root-devel-WordCountTopology-0-cfdb07a6-0626-4d6b-ad7e-a03178406a43;["topology_master"];4.25;1533752901.79074;2.89;8.59;0.016436013;9;117
7;paravance-36.rennes.grid5000.fr;thermos-root-devel-WordCountTopology-2-92d4bcac-8730-47d6-a718-8c9cfad089be;["container_2_Emit_random_words_2"];4.25;1533752901.78968;8.98;161.59;2.380976158;10;149
8;paravance-27.rennes.grid5000.fr;thermos-root-devel-WordCountTopology-0-cfdb07a6-0626-4d6b-ad7e-a03178406a43;["topology_master"];4.25;1533752912.00578;2.98;8.72;0.016436013;9;117
8;paravance-34.rennes.grid5000.fr;thermos-root-devel-WordCountTopology-1-48e7510e-bf59-4dbd-b89f-1a68b7afb23f;["container_1_Consume_and_count_1"];4.25;1533752912.00426;28.9;367.73;14.416634698;10;151
8;paravance-36.rennes.grid5000.fr;thermos-root-devel-WordCountTopology-2-92d4bcac-8730-47d6-a718-8c9cfad089be;["container_2_Emit_random_words_2"];4.25;1533752912.00526;9.34;168.54;2.380976158;10;149
9;paravance-34.rennes.grid5000.fr;thermos-root-devel-WordCountTopology-1-48e7510e-bf59-4dbd-b89f-1a68b7afb23f;["container_1_Consume_and_count_1"];4.25;1533752922.21969;29.98;388.32;14.632270027;10;151
9;paravance-27.rennes.grid5000.fr;thermos-root-devel-WordCountTopology-0-cfdb07a6-0626-4d6b-ad7e-a03178406a43;["topology_master"];4.25;1533752922.2226;3.04;8.79;0.016436013;9;117
9;paravance-36.rennes.grid5000.fr;thermos-root-devel-WordCountTopology-2-92d4bcac-8730-47d6-a718-8c9cfad089be;["container_2_Emit_random_words_2"];4.25;1533752922.22137;9.66;175.64;2.380976158;10;149
10;paravance-34.rennes.grid5000.fr;thermos-root-devel-WordCountTopology-1-48e7510e-bf59-4dbd-b89f-1a68b7afb23f;["container_1_Consume_and_count_1"];4.25;1533752932.43763;31.17;410.82;15.479341821;10;151
10;paravance-36.rennes.grid5000.fr;thermos-root-devel-WordCountTopology-2-92d4bcac-8730-47d6-a718-8c9cfad089be;["container_2_Emit_random_words_2"];4.25;1533752932.43785;10.02;183.11;2.380976158;10;149
10;paravance-27.rennes.grid5000.fr;thermos-root-devel-WordCountTopology-0-cfdb07a6-0626-4d6b-ad7e-a03178406a43;["topology_master"];4.25;1533752932.44017;3.1;8.87;0.016436013;9;117
11;paravance-34.rennes.grid5000.fr;thermos-root-devel-WordCountTopology-1-48e7510e-bf59-4dbd-b89f-1a68b7afb23f;["container_1_Consume_and_count_1"];4.25;1533752942.6531;32.39;430.42;16.055885944;10;151
11;paravance-36.rennes.grid5000.fr;thermos-root-devel-WordCountTopology-2-92d4bcac-8730-47d6-a718-8c9cfad089be;["container_2_Emit_random_words_2"];4.25;1533752942.65468;10.39;191.02;2.380976158;10;149
11;paravance-27.rennes.grid5000.fr;thermos-root-devel-WordCountTopology-0-cfdb07a6-0626-4d6b-ad7e-a03178406a43;["topology_master"];4.25;1533752942.65653;3.16;8.94;0.016436013;9;117
12;paravance-27.rennes.grid5000.fr;thermos-root-devel-WordCountTopology-0-cfdb07a6-0626-4d6b-ad7e-a03178406a43;["topology_master"];4.25;1533752952.8736;3.28;9.18;0.016436013;9;117
12;paravance-34.rennes.grid5000.fr;thermos-root-devel-WordCountTopology-1-48e7510e-bf59-4dbd-b89f-1a68b7afb23f;["container_1_Consume_and_count_1"];4.25;1533752952.87065;33.61;451.93;16.606968262;10;151
12;paravance-36.rennes.grid5000.fr;thermos-root-devel-WordCountTopology-2-92d4bcac-8730-47d6-a718-8c9cfad089be;["container_2_Emit_random_words_2"];4.25;1533752952.87236;10.79;198.44;2.380976158;10;149
13;paravance-34.rennes.grid5000.fr;thermos-root-devel-WordCountTopology-1-48e7510e-bf59-4dbd-b89f-1a68b7afb23f;["container_1_Consume_and_count_1"];4.25;1533752963.08949;34.72;472.5;16.893732922;10;151
13;paravance-27.rennes.grid5000.fr;thermos-root-devel-WordCountTopology-0-cfdb07a6-0626-4d6b-ad7e-a03178406a43;["topology_master"];4.25;1533752963.09189;3.31;9.21;0.016436013;9;117
13;paravance-36.rennes.grid5000.fr;thermos-root-devel-WordCountTopology-2-92d4bcac-8730-47d6-a718-8c9cfad089be;["container_2_Emit_random_words_2"];4.25;1533752963.09125;11.1;205.12;2.380976158;10;149
14;paravance-34.rennes.grid5000.fr;thermos-root-devel-WordCountTopology-1-48e7510e-bf59-4dbd-b89f-1a68b7afb23f;["container_1_Consume_and_count_1"];4.25;1533752973.30573;35.7;493.88;17.080317239;10;151
14;paravance-36.rennes.grid5000.fr;thermos-root-devel-WordCountTopology-2-92d4bcac-8730-47d6-a718-8c9cfad089be;["container_2_Emit_random_words_2"];4.25;1533752973.30747;11.48;211.84;2.380976158;10;149
14;paravance-27.rennes.grid5000.fr;thermos-root-devel-WordCountTopology-0-cfdb07a6-0626-4d6b-ad7e-a03178406a43;["topology_master"];4.25;1533752973.30985;3.4;9.35;0.016436013;9;117
15;paravance-34.rennes.grid5000.fr;thermos-root-devel-WordCountTopology-1-48e7510e-bf59-4dbd-b89f-1a68b7afb23f;["container_1_Consume_and_count_1"];4.25;1533752983.524;36.93;513.09;17.334138792;10;151
15;paravance-36.rennes.grid5000.fr;thermos-root-devel-WordCountTopology-2-92d4bcac-8730-47d6-a718-8c9cfad089be;["container_2_Emit_random_words_2"];4.25;1533752983.52504;11.79;217.9;2.380976158;10;149
15;paravance-27.rennes.grid5000.fr;thermos-root-devel-WordCountTopology-0-cfdb07a6-0626-4d6b-ad7e-a03178406a43;["topology_master"];4.25;1533752983.52749;3.45;9.42;0.016436013;9;117
16;paravance-34.rennes.grid5000.fr;thermos-root-devel-WordCountTopology-1-48e7510e-bf59-4dbd-b89f-1a68b7afb23f;["container_1_Consume_and_count_1"];4.25;1533752993.74097;38.26;532.47;17.774852782;10;151
16;paravance-36.rennes.grid5000.fr;thermos-root-devel-WordCountTopology-2-92d4bcac-8730-47d6-a718-8c9cfad089be;["container_2_Emit_random_words_2"];4.25;1533752993.74296;12.14;225.57;2.380976158;10;149
16;paravance-27.rennes.grid5000.fr;thermos-root-devel-WordCountTopology-0-cfdb07a6-0626-4d6b-ad7e-a03178406a43;["topology_master"];4.25;1533752993.74439;3.52;9.52;0.016436013;9;117
17;paravance-34.rennes.grid5000.fr;thermos-root-devel-WordCountTopology-1-48e7510e-bf59-4dbd-b89f-1a68b7afb23f;["container_1_Consume_and_count_1"];4.25;1533753003.96074;39.54;553.22;17.96186063;10;151
17;paravance-36.rennes.grid5000.fr;thermos-root-devel-WordCountTopology-2-92d4bcac-8730-47d6-a718-8c9cfad089be;["container_2_Emit_random_words_2"];4.25;1533753003.96113;12.47;232.21;2.380976158;10;149
17;paravance-27.rennes.grid5000.fr;thermos-root-devel-WordCountTopology-0-cfdb07a6-0626-4d6b-ad7e-a03178406a43;["topology_master"];4.25;1533753003.96271;3.57;9.59;0.016436013;9;117
18;paravance-34.rennes.grid5000.fr;thermos-root-devel-WordCountTopology-1-48e7510e-bf59-4dbd-b89f-1a68b7afb23f;["container_1_Consume_and_count_1"];4.25;1533753014.17796;40.73;575.53;18.247905109;10;151
18;paravance-36.rennes.grid5000.fr;thermos-root-devel-WordCountTopology-2-92d4bcac-8730-47d6-a718-8c9cfad089be;["container_2_Emit_random_words_2"];4.25;1533753014.17969;12.86;238.44;2.380976158;10;149
18;paravance-27.rennes.grid5000.fr;thermos-root-devel-WordCountTopology-0-cfdb07a6-0626-4d6b-ad7e-a03178406a43;["topology_master"];4.25;1533753014.18213;3.69;9.87;0.016436013;9;117
19;paravance-36.rennes.grid5000.fr;thermos-root-devel-WordCountTopology-2-92d4bcac-8730-47d6-a718-8c9cfad089be;["container_2_Emit_random_words_2"];4.25;1533753024.39352;13.08;242.73;2.380976158;10;149
19;paravance-34.rennes.grid5000.fr;thermos-root-devel-WordCountTopology-1-48e7510e-bf59-4dbd-b89f-1a68b7afb23f;["container_1_Consume_and_count_1"];4.25;1533753024.39323;41.96;595.07;18.424555949;10;151
19;paravance-27.rennes.grid5000.fr;thermos-root-devel-WordCountTopology-0-cfdb07a6-0626-4d6b-ad7e-a03178406a43;["topology_master"];4.25;1533753024.39715;3.72;9.9;0.016436013;9;117
20;paravance-34.rennes.grid5000.fr;thermos-root-devel-WordCountTopology-1-48e7510e-bf59-4dbd-b89f-1a68b7afb23f;["container_1_Consume_and_count_1"];4.25;1533753034.6076;43.42;613.76;18.638187447;10;151
20;paravance-36.rennes.grid5000.fr;thermos-root-devel-WordCountTopology-2-92d4bcac-8730-47d6-a718-8c9cfad089be;["container_2_Emit_random_words_2"];4.25;1533753034.60999;13.45;250.07;2.380976158;10;149
20;paravance-27.rennes.grid5000.fr;thermos-root-devel-WordCountTopology-0-cfdb07a6-0626-4d6b-ad7e-a03178406a43;["topology_master"];4.25;1533753034.61312;3.82;10.04;0.016436013;9;117
21;paravance-27.rennes.grid5000.fr;thermos-root-devel-WordCountTopology-0-cfdb07a6-0626-4d6b-ad7e-a03178406a43;["topology_master"];4.25;1533753044.72802;3.88;10.11;0.016436013;9;117
21;paravance-34.rennes.grid5000.fr;thermos-root-devel-WordCountTopology-1-48e7510e-bf59-4dbd-b89f-1a68b7afb23f;["container_1_Consume_and_count_1"];4.25;1533753044.82535;44.52;634.01;18.845070518;10;151
21;paravance-36.rennes.grid5000.fr;thermos-root-devel-WordCountTopology-2-92d4bcac-8730-47d6-a718-8c9cfad089be;["container_2_Emit_random_words_2"];4.25;1533753044.82563;13.74;255.04;2.380976158;10;149
22;paravance-27.rennes.grid5000.fr;thermos-root-devel-WordCountTopology-0-cfdb07a6-0626-4d6b-ad7e-a03178406a43;["topology_master"];4.25;1533753055.04498;3.93;10.18;0.016436013;9;117
22;paravance-34.rennes.grid5000.fr;thermos-root-devel-WordCountTopology-1-48e7510e-bf59-4dbd-b89f-1a68b7afb23f;["container_1_Consume_and_count_1"];4.25;1533753055.04378;45.88;653.71;19.102113608;10;151
22;paravance-36.rennes.grid5000.fr;thermos-root-devel-WordCountTopology-2-92d4bcac-8730-47d6-a718-8c9cfad089be;["container_2_Emit_random_words_2"];4.25;1533753055.04195;14.04;261.09;2.380976158;10;149
23;paravance-36.rennes.grid5000.fr;thermos-root-devel-WordCountTopology-2-92d4bcac-8730-47d6-a718-8c9cfad089be;["container_2_Emit_random_words_2"];4.25;1533753065.25928;14.35;267.92;2.380976158;10;149
23;paravance-34.rennes.grid5000.fr;thermos-root-devel-WordCountTopology-1-48e7510e-bf59-4dbd-b89f-1a68b7afb23f;["container_1_Consume_and_count_1"];4.25;1533753065.25778;47.1;671.41;19.348493665;10;151
23;paravance-27.rennes.grid5000.fr;thermos-root-devel-WordCountTopology-0-cfdb07a6-0626-4d6b-ad7e-a03178406a43;["topology_master"];4.25;1533753065.26245;3.99;10.25;0.016436013;9;117
24;paravance-34.rennes.grid5000.fr;thermos-root-devel-WordCountTopology-1-48e7510e-bf59-4dbd-b89f-1a68b7afb23f;["container_1_Consume_and_count_1"];4.25;1533753075.47377;48.36;689.82;19.524164073;10;151
24;paravance-36.rennes.grid5000.fr;thermos-root-devel-WordCountTopology-2-92d4bcac-8730-47d6-a718-8c9cfad089be;["container_2_Emit_random_words_2"];4.25;1533753075.47494;14.77;275.93;2.380976158;10;149
24;paravance-27.rennes.grid5000.fr;thermos-root-devel-WordCountTopology-0-cfdb07a6-0626-4d6b-ad7e-a03178406a43;["topology_master"];4.25;1533753075.47748;4.11;10.45;0.016436013;9;117
25;paravance-27.rennes.grid5000.fr;thermos-root-devel-WordCountTopology-0-cfdb07a6-0626-4d6b-ad7e-a03178406a43;["topology_master"];4.25;1533753085.69306;4.13;10.47;0.016436013;9;117
25;paravance-34.rennes.grid5000.fr;thermos-root-devel-WordCountTopology-1-48e7510e-bf59-4dbd-b89f-1a68b7afb23f;["container_1_Consume_and_count_1"];4.25;1533753085.69023;49.42;708.01;19.819682511;10;151
25;paravance-36.rennes.grid5000.fr;thermos-root-devel-WordCountTopology-2-92d4bcac-8730-47d6-a718-8c9cfad089be;["container_2_Emit_random_words_2"];4.25;1533753085.69118;15.09;283.65;2.380976158;10;149
26;paravance-34.rennes.grid5000.fr;thermos-root-devel-WordCountTopology-1-48e7510e-bf59-4dbd-b89f-1a68b7afb23f;["container_1_Consume_and_count_1"];4.25;1533753095.90542;51.35;736.01;20.260216089;10;151
26;paravance-27.rennes.grid5000.fr;thermos-root-devel-WordCountTopology-0-cfdb07a6-0626-4d6b-ad7e-a03178406a43;["topology_master"];4.25;1533753095.90864;4.22;10.6;0.016436013;9;117
26;paravance-36.rennes.grid5000.fr;thermos-root-devel-WordCountTopology-2-92d4bcac-8730-47d6-a718-8c9cfad089be;["container_2_Emit_random_words_2"];4.25;1533753095.90694;15.44;290.26;2.380976158;10;149
27;paravance-34.rennes.grid5000.fr;thermos-root-devel-WordCountTopology-1-48e7510e-bf59-4dbd-b89f-1a68b7afb23f;["container_1_Consume_and_count_1"];4.25;1533753106.1233;53.56;763.95;20.591671152;10;151
27;paravance-36.rennes.grid5000.fr;thermos-root-devel-WordCountTopology-2-92d4bcac-8730-47d6-a718-8c9cfad089be;["container_2_Emit_random_words_2"];4.25;1533753106.12473;15.88;300.63;2.380976158;10;149
27;paravance-27.rennes.grid5000.fr;thermos-root-devel-WordCountTopology-0-cfdb07a6-0626-4d6b-ad7e-a03178406a43;["topology_master"];4.25;1533753106.127;4.28;10.67;0.016436013;9;117
28;paravance-34.rennes.grid5000.fr;thermos-root-devel-WordCountTopology-1-48e7510e-bf59-4dbd-b89f-1a68b7afb23f;["container_1_Consume_and_count_1"];4.25;1533753116.33915;56.34;798.43;21.513045685;10;151
28;paravance-36.rennes.grid5000.fr;thermos-root-devel-WordCountTopology-2-92d4bcac-8730-47d6-a718-8c9cfad089be;["container_2_Emit_random_words_2"];4.25;1533753116.34044;16.39;313.46;2.380976158;10;149
28;paravance-27.rennes.grid5000.fr;thermos-root-devel-WordCountTopology-0-cfdb07a6-0626-4d6b-ad7e-a03178406a43;["topology_master"];4.25;1533753116.34297;4.34;10.74;0.016436013;9;117
29;paravance-36.rennes.grid5000.fr;thermos-root-devel-WordCountTopology-2-92d4bcac-8730-47d6-a718-8c9cfad089be;["container_2_Emit_random_words_2"];4.25;1533753126.55613;17.11;331.72;2.380976158;10;149
29;paravance-34.rennes.grid5000.fr;thermos-root-devel-WordCountTopology-1-48e7510e-bf59-4dbd-b89f-1a68b7afb23f;["container_1_Consume_and_count_1"];4.25;1533753126.55393;59.69;832.43;22.565811018;10;151
29;paravance-27.rennes.grid5000.fr;thermos-root-devel-WordCountTopology-0-cfdb07a6-0626-4d6b-ad7e-a03178406a43;["topology_master"];4.25;1533753126.55889;4.45;10.89;0.016436013;9;117
30;paravance-34.rennes.grid5000.fr;thermos-root-devel-WordCountTopology-1-48e7510e-bf59-4dbd-b89f-1a68b7afb23f;["container_1_Consume_and_count_1"];4.25;1533753136.76967;63.16;867.22;23.272162533;10;151
30;paravance-27.rennes.grid5000.fr;thermos-root-devel-WordCountTopology-0-cfdb07a6-0626-4d6b-ad7e-a03178406a43;["topology_master"];4.25;1533753136.773;4.51;11.03;0.016436013;9;117
30;paravance-36.rennes.grid5000.fr;thermos-root-devel-WordCountTopology-2-92d4bcac-8730-47d6-a718-8c9cfad089be;["container_2_Emit_random_words_2"];4.25;1533753136.77111;17.78;349.9;2.380976158;10;149
31;paravance-34.rennes.grid5000.fr;thermos-root-devel-WordCountTopology-1-48e7510e-bf59-4dbd-b89f-1a68b7afb23f;["container_1_Consume_and_count_1"];4.25;1533753146.98642;66.58;901.77;24.195385342;10;151
31;paravance-36.rennes.grid5000.fr;thermos-root-devel-WordCountTopology-2-92d4bcac-8730-47d6-a718-8c9cfad089be;["container_2_Emit_random_words_2"];4.25;1533753146.9879;18.46;368.15;2.380976158;10;149
31;paravance-27.rennes.grid5000.fr;thermos-root-devel-WordCountTopology-0-cfdb07a6-0626-4d6b-ad7e-a03178406a43;["topology_master"];4.25;1533753146.99063;4.57;11.1;0.016436013;9;117
32;paravance-34.rennes.grid5000.fr;thermos-root-devel-WordCountTopology-1-48e7510e-bf59-4dbd-b89f-1a68b7afb23f;["container_1_Consume_and_count_1"];4.25;1533753157.20168;69.63;937.88;25.524076877;10;151
32;paravance-36.rennes.grid5000.fr;thermos-root-devel-WordCountTopology-2-92d4bcac-8730-47d6-a718-8c9cfad089be;["container_2_Emit_random_words_2"];4.25;1533753157.20348;19.1;386.34;2.380976158;10;149
32;paravance-27.rennes.grid5000.fr;thermos-root-devel-WordCountTopology-0-cfdb07a6-0626-4d6b-ad7e-a03178406a43;["topology_master"];4.25;1533753157.2061;4.63;11.18;0.016436013;9;117
33;paravance-34.rennes.grid5000.fr;thermos-root-devel-WordCountTopology-1-48e7510e-bf59-4dbd-b89f-1a68b7afb23f;["container_1_Consume_and_count_1"];4.25;1533753167.41711;73.39;964.68;25.524076877;10;151
33;paravance-36.rennes.grid5000.fr;thermos-root-devel-WordCountTopology-2-92d4bcac-8730-47d6-a718-8c9cfad089be;["container_2_Emit_random_words_2"];4.25;1533753167.41854;19.8;404.65;2.380976158;10;149
33;paravance-27.rennes.grid5000.fr;thermos-root-devel-WordCountTopology-0-cfdb07a6-0626-4d6b-ad7e-a03178406a43;["topology_master"];4.25;1533753167.42086;4.72;11.3;0.016436013;9;117
34;paravance-36.rennes.grid5000.fr;thermos-root-devel-WordCountTopology-2-92d4bcac-8730-47d6-a718-8c9cfad089be;["container_2_Emit_random_words_2"];4.25;1533753177.6352;20.45;422.83;2.380976158;10;149
34;paravance-34.rennes.grid5000.fr;thermos-root-devel-WordCountTopology-1-48e7510e-bf59-4dbd-b89f-1a68b7afb23f;["container_1_Consume_and_count_1"];4.25;1533753177.63524;77.19;991.78;25.524076877;10;151
34;paravance-27.rennes.grid5000.fr;thermos-root-devel-WordCountTopology-0-cfdb07a6-0626-4d6b-ad7e-a03178406a43;["topology_master"];4.25;1533753177.63803;4.75;11.33;0.016436013;9;117
35;paravance-34.rennes.grid5000.fr;thermos-root-devel-WordCountTopology-1-48e7510e-bf59-4dbd-b89f-1a68b7afb23f;["container_1_Consume_and_count_1"];4.25;1533753187.84978;81.09;1017.93;25.524076877;10;151
35;paravance-36.rennes.grid5000.fr;thermos-root-devel-WordCountTopology-2-92d4bcac-8730-47d6-a718-8c9cfad089be;["container_2_Emit_random_words_2"];4.25;1533753187.85291;21.13;441.15;2.380976158;10;149
35;paravance-27.rennes.grid5000.fr;thermos-root-devel-WordCountTopology-0-cfdb07a6-0626-4d6b-ad7e-a03178406a43;["topology_master"];4.25;1533753187.85515;4.84;11.46;0.016436013;9;117
36;paravance-36.rennes.grid5000.fr;thermos-root-devel-WordCountTopology-2-92d4bcac-8730-47d6-a718-8c9cfad089be;["container_2_Emit_random_words_2"];4.25;1533753198.06762;21.81;459.34;2.380976158;10;149
36;paravance-27.rennes.grid5000.fr;thermos-root-devel-WordCountTopology-0-cfdb07a6-0626-4d6b-ad7e-a03178406a43;["topology_master"];4.25;1533753198.07044;4.9;11.58;0.016436013;9;117
36;paravance-34.rennes.grid5000.fr;thermos-root-devel-WordCountTopology-1-48e7510e-bf59-4dbd-b89f-1a68b7afb23f;["container_1_Consume_and_count_1"];4.25;1533753198.0662;84.53;1043.31;25.524076877;10;151
37;paravance-34.rennes.grid5000.fr;thermos-root-devel-WordCountTopology-1-48e7510e-bf59-4dbd-b89f-1a68b7afb23f;["container_1_Consume_and_count_1"];4.25;1533753208.2827;87.97;1068.06;25.524076877;10;151
37;paravance-36.rennes.grid5000.fr;thermos-root-devel-WordCountTopology-2-92d4bcac-8730-47d6-a718-8c9cfad089be;["container_2_Emit_random_words_2"];4.25;1533753208.28386;22.5;477.5;2.380976158;10;149
37;paravance-27.rennes.grid5000.fr;thermos-root-devel-WordCountTopology-0-cfdb07a6-0626-4d6b-ad7e-a03178406a43;["topology_master"];4.25;1533753208.28684;4.99;11.7;0.016436013;9;117
38;paravance-34.rennes.grid5000.fr;thermos-root-devel-WordCountTopology-1-48e7510e-bf59-4dbd-b89f-1a68b7afb23f;["container_1_Consume_and_count_1"];4.25;1533753218.4998;91.38;1094.35;25.524076877;10;151
38;paravance-36.rennes.grid5000.fr;thermos-root-devel-WordCountTopology-2-92d4bcac-8730-47d6-a718-8c9cfad089be;["container_2_Emit_random_words_2"];4.25;1533753218.50198;23.15;495.73;2.380976158;10;149
38;paravance-27.rennes.grid5000.fr;thermos-root-devel-WordCountTopology-0-cfdb07a6-0626-4d6b-ad7e-a03178406a43;["topology_master"];4.25;1533753218.50465;5.02;11.74;0.016436013;9;117
39;paravance-34.rennes.grid5000.fr;thermos-root-devel-WordCountTopology-1-48e7510e-bf59-4dbd-b89f-1a68b7afb23f;["container_1_Consume_and_count_1"];4.25;1533753228.71681;94.55;1120.06;25.524076877;10;151
39;paravance-27.rennes.grid5000.fr;thermos-root-devel-WordCountTopology-0-cfdb07a6-0626-4d6b-ad7e-a03178406a43;["topology_master"];4.25;1533753228.72022;5.11;11.86;0.016436013;9;117
39;paravance-36.rennes.grid5000.fr;thermos-root-devel-WordCountTopology-2-92d4bcac-8730-47d6-a718-8c9cfad089be;["container_2_Emit_random_words_2"];4.25;1533753228.71855;23.84;514.08;2.380976158;10;149
40;paravance-34.rennes.grid5000.fr;thermos-root-devel-WordCountTopology-1-48e7510e-bf59-4dbd-b89f-1a68b7afb23f;["container_1_Consume_and_count_1"];4.25;1533753238.93285;97.9;1145.47;25.524076877;10;151
40;paravance-36.rennes.grid5000.fr;thermos-root-devel-WordCountTopology-2-92d4bcac-8730-47d6-a718-8c9cfad089be;["container_2_Emit_random_words_2"];4.25;1533753238.93422;24.51;532.47;2.380976158;10;149
40;paravance-27.rennes.grid5000.fr;thermos-root-devel-WordCountTopology-0-cfdb07a6-0626-4d6b-ad7e-a03178406a43;["topology_master"];4.25;1533753238.93714;5.16;11.93;0.016436013;9;117
41;paravance-34.rennes.grid5000.fr;thermos-root-devel-WordCountTopology-1-48e7510e-bf59-4dbd-b89f-1a68b7afb23f;["container_1_Consume_and_count_1"];4.25;1533753249.14908;101.21;1170.01;25.524076877;10;151
41;paravance-36.rennes.grid5000.fr;thermos-root-devel-WordCountTopology-2-92d4bcac-8730-47d6-a718-8c9cfad089be;["container_2_Emit_random_words_2"];4.25;1533753249.15058;25.18;550.73;2.380976158;10;149
41;paravance-27.rennes.grid5000.fr;thermos-root-devel-WordCountTopology-0-cfdb07a6-0626-4d6b-ad7e-a03178406a43;["topology_master"];4.25;1533753249.15297;5.23;12.01;0.016436013;9;117
42;paravance-34.rennes.grid5000.fr;thermos-root-devel-WordCountTopology-1-48e7510e-bf59-4dbd-b89f-1a68b7afb23f;["container_1_Consume_and_count_1"];4.25;1533753259.36536;104.67;1196.18;25.524076877;10;151
42;paravance-36.rennes.grid5000.fr;thermos-root-devel-WordCountTopology-2-92d4bcac-8730-47d6-a718-8c9cfad089be;["container_2_Emit_random_words_2"];4.25;1533753259.36656;25.82;568.94;2.380976158;10;149
42;paravance-27.rennes.grid5000.fr;thermos-root-devel-WordCountTopology-0-cfdb07a6-0626-4d6b-ad7e-a03178406a43;["topology_master"];4.25;1533753259.36974;5.3;12.14;0.016436013;9;117
43;paravance-34.rennes.grid5000.fr;thermos-root-devel-WordCountTopology-1-48e7510e-bf59-4dbd-b89f-1a68b7afb23f;["container_1_Consume_and_count_1"];4.25;1533753269.5834;108.3;1222.72;25.534707167;10;151
43;paravance-36.rennes.grid5000.fr;thermos-root-devel-WordCountTopology-2-92d4bcac-8730-47d6-a718-8c9cfad089be;["container_2_Emit_random_words_2"];4.25;1533753269.58493;26.5;587.24;2.380976158;10;149
43;paravance-27.rennes.grid5000.fr;thermos-root-devel-WordCountTopology-0-cfdb07a6-0626-4d6b-ad7e-a03178406a43;["topology_master"];4.25;1533753269.58698;5.39;12.27;0.016436013;9;117
44;paravance-36.rennes.grid5000.fr;thermos-root-devel-WordCountTopology-2-92d4bcac-8730-47d6-a718-8c9cfad089be;["container_2_Emit_random_words_2"];4.25;1533753279.8006;27.14;605.37;2.380976158;10;149
44;paravance-34.rennes.grid5000.fr;thermos-root-devel-WordCountTopology-1-48e7510e-bf59-4dbd-b89f-1a68b7afb23f;["container_1_Consume_and_count_1"];4.25;1533753279.7996;111.53;1248.99;25.534707167;10;151
44;paravance-27.rennes.grid5000.fr;thermos-root-devel-WordCountTopology-0-cfdb07a6-0626-4d6b-ad7e-a03178406a43;["topology_master"];4.25;1533753279.80256;5.41;12.3;0.016436013;9;117
45;paravance-34.rennes.grid5000.fr;thermos-root-devel-WordCountTopology-1-48e7510e-bf59-4dbd-b89f-1a68b7afb23f;["container_1_Consume_and_count_1"];4.25;1533753290.01575;115.0;1274.31;25.534707167;10;151
45;paravance-27.rennes.grid5000.fr;thermos-root-devel-WordCountTopology-0-cfdb07a6-0626-4d6b-ad7e-a03178406a43;["topology_master"];4.25;1533753290.01867;5.5;12.43;0.016436013;9;117
45;paravance-36.rennes.grid5000.fr;thermos-root-devel-WordCountTopology-2-92d4bcac-8730-47d6-a718-8c9cfad089be;["container_2_Emit_random_words_2"];4.25;1533753290.0161;27.84;623.61;2.380976158;10;149
46;paravance-36.rennes.grid5000.fr;thermos-root-devel-WordCountTopology-2-92d4bcac-8730-47d6-a718-8c9cfad089be;["container_2_Emit_random_words_2"];4.25;1533753300.23417;28.51;641.85;2.380976158;10;149
46;paravance-27.rennes.grid5000.fr;thermos-root-devel-WordCountTopology-0-cfdb07a6-0626-4d6b-ad7e-a03178406a43;["topology_master"];4.25;1533753300.2367;5.55;12.49;0.016436013;9;117
46;paravance-34.rennes.grid5000.fr;thermos-root-devel-WordCountTopology-1-48e7510e-bf59-4dbd-b89f-1a68b7afb23f;["container_1_Consume_and_count_1"];4.25;1533753300.23362;118.47;1299.39;25.534707167;10;151
47;paravance-36.rennes.grid5000.fr;thermos-root-devel-WordCountTopology-2-92d4bcac-8730-47d6-a718-8c9cfad089be;["container_2_Emit_random_words_2"];4.25;1533753310.45284;29.15;660.03;2.380976158;10;149
47;paravance-34.rennes.grid5000.fr;thermos-root-devel-WordCountTopology-1-48e7510e-bf59-4dbd-b89f-1a68b7afb23f;["container_1_Consume_and_count_1"];4.25;1533753310.45178;122.09;1325.21;25.534707167;10;151
47;paravance-27.rennes.grid5000.fr;thermos-root-devel-WordCountTopology-0-cfdb07a6-0626-4d6b-ad7e-a03178406a43;["topology_master"];4.25;1533753310.45463;5.62;12.58;0.016436013;9;117
48;paravance-34.rennes.grid5000.fr;thermos-root-devel-WordCountTopology-1-48e7510e-bf59-4dbd-b89f-1a68b7afb23f;["container_1_Consume_and_count_1"];4.25;1533753320.66929;125.94;1352.83;25.534707167;10;151
48;paravance-36.rennes.grid5000.fr;thermos-root-devel-WordCountTopology-2-92d4bcac-8730-47d6-a718-8c9cfad089be;["container_2_Emit_random_words_2"];4.25;1533753320.67117;29.83;678.32;2.380976158;10;149
48;paravance-27.rennes.grid5000.fr;thermos-root-devel-WordCountTopology-0-cfdb07a6-0626-4d6b-ad7e-a03178406a43;["topology_master"];4.25;1533753320.67329;5.68;12.69;0.016436013;9;117
49;paravance-36.rennes.grid5000.fr;thermos-root-devel-WordCountTopology-2-92d4bcac-8730-47d6-a718-8c9cfad089be;["container_2_Emit_random_words_2"];4.25;1533753330.88818;30.52;696.55;2.380976158;10;149
49;paravance-27.rennes.grid5000.fr;thermos-root-devel-WordCountTopology-0-cfdb07a6-0626-4d6b-ad7e-a03178406a43;["topology_master"];4.25;1533753330.88987;5.78;12.83;0.016436013;9;117
49;paravance-34.rennes.grid5000.fr;thermos-root-devel-WordCountTopology-1-48e7510e-bf59-4dbd-b89f-1a68b7afb23f;["container_1_Consume_and_count_1"];4.25;1533753330.88802;130.05;1381.2;25.534707167;10;151
50;paravance-27.rennes.grid5000.fr;thermos-root-devel-WordCountTopology-0-cfdb07a6-0626-4d6b-ad7e-a03178406a43;["topology_master"];4.25;1533753341.0054;5.8;12.86;0.016436013;9;117
50;paravance-34.rennes.grid5000.fr;thermos-root-devel-WordCountTopology-1-48e7510e-bf59-4dbd-b89f-1a68b7afb23f;["container_1_Consume_and_count_1"];4.25;1533753341.10202;133.79;1409.83;25.617427317;10;151
50;paravance-36.rennes.grid5000.fr;thermos-root-devel-WordCountTopology-2-92d4bcac-8730-47d6-a718-8c9cfad089be;["container_2_Emit_random_words_2"];4.25;1533753341.103;31.15;714.75;2.380976158;10;149
51;paravance-34.rennes.grid5000.fr;thermos-root-devel-WordCountTopology-1-48e7510e-bf59-4dbd-b89f-1a68b7afb23f;["container_1_Consume_and_count_1"];4.25;1533753351.31587;137.15;1434.83;25.617427317;10;151
51;paravance-36.rennes.grid5000.fr;thermos-root-devel-WordCountTopology-2-92d4bcac-8730-47d6-a718-8c9cfad089be;["container_2_Emit_random_words_2"];4.25;1533753351.31685;31.85;733.14;2.380976158;10;149
51;paravance-27.rennes.grid5000.fr;thermos-root-devel-WordCountTopology-0-cfdb07a6-0626-4d6b-ad7e-a03178406a43;["topology_master"];4.25;1533753351.32025;5.89;13.0;0.016436013;9;117
52;paravance-36.rennes.grid5000.fr;thermos-root-devel-WordCountTopology-2-92d4bcac-8730-47d6-a718-8c9cfad089be;["container_2_Emit_random_words_2"];4.25;1533753361.43391;32.46;751.05;2.380976158;10;149
52;paravance-27.rennes.grid5000.fr;thermos-root-devel-WordCountTopology-0-cfdb07a6-0626-4d6b-ad7e-a03178406a43;["topology_master"];4.25;1533753361.53584;5.95;13.07;0.016436013;9;117
52;paravance-34.rennes.grid5000.fr;thermos-root-devel-WordCountTopology-1-48e7510e-bf59-4dbd-b89f-1a68b7afb23f;["container_1_Consume_and_count_1"];4.25;1533753361.53332;140.77;1460.1;25.617427317;10;151
53;paravance-34.rennes.grid5000.fr;thermos-root-devel-WordCountTopology-1-48e7510e-bf59-4dbd-b89f-1a68b7afb23f;["container_1_Consume_and_count_1"];4.25;1533753371.74671;144.25;1484.77;25.617427317;10;151
53;paravance-36.rennes.grid5000.fr;thermos-root-devel-WordCountTopology-2-92d4bcac-8730-47d6-a718-8c9cfad089be;["container_2_Emit_random_words_2"];4.25;1533753371.74868;33.16;769.54;2.380976158;10;149
53;paravance-27.rennes.grid5000.fr;thermos-root-devel-WordCountTopology-0-cfdb07a6-0626-4d6b-ad7e-a03178406a43;["topology_master"];4.25;1533753371.75102;6.03;13.18;0.016436013;9;117
54;paravance-34.rennes.grid5000.fr;thermos-root-devel-WordCountTopology-1-48e7510e-bf59-4dbd-b89f-1a68b7afb23f;["container_1_Consume_and_count_1"];4.25;1533753381.86197;147.42;1508.72;25.617427317;10;151
54;paravance-36.rennes.grid5000.fr;thermos-root-devel-WordCountTopology-2-92d4bcac-8730-47d6-a718-8c9cfad089be;["container_2_Emit_random_words_2"];4.25;1533753381.96247;33.84;787.82;2.380976158;10;149
54;paravance-27.rennes.grid5000.fr;thermos-root-devel-WordCountTopology-0-cfdb07a6-0626-4d6b-ad7e-a03178406a43;["topology_master"];4.25;1533753381.96408;6.08;13.26;0.016436013;9;117
55;paravance-36.rennes.grid5000.fr;thermos-root-devel-WordCountTopology-2-92d4bcac-8730-47d6-a718-8c9cfad089be;["container_2_Emit_random_words_2"];4.25;1533753392.0818;34.54;805.86;2.380976158;10;149
55;paravance-34.rennes.grid5000.fr;thermos-root-devel-WordCountTopology-1-48e7510e-bf59-4dbd-b89f-1a68b7afb23f;["container_1_Consume_and_count_1"];4.25;1533753392.17756;150.81;1533.26;25.617427317;10;151
55;paravance-27.rennes.grid5000.fr;thermos-root-devel-WordCountTopology-0-cfdb07a6-0626-4d6b-ad7e-a03178406a43;["topology_master"];4.25;1533753392.18424;6.17;13.39;0.016436013;9;117
56;paravance-34.rennes.grid5000.fr;thermos-root-devel-WordCountTopology-1-48e7510e-bf59-4dbd-b89f-1a68b7afb23f;["container_1_Consume_and_count_1"];4.25;1533753402.29418;154.1;1556.91;25.617427317;10;151
56;paravance-27.rennes.grid5000.fr;thermos-root-devel-WordCountTopology-0-cfdb07a6-0626-4d6b-ad7e-a03178406a43;["topology_master"];4.25;1533753402.39626;6.19;13.42;0.016436013;9;117
56;paravance-36.rennes.grid5000.fr;thermos-root-devel-WordCountTopology-2-92d4bcac-8730-47d6-a718-8c9cfad089be;["container_2_Emit_random_words_2"];4.25;1533753402.39486;35.16;824.2;2.380976158;10;149
57;paravance-34.rennes.grid5000.fr;thermos-root-devel-WordCountTopology-1-48e7510e-bf59-4dbd-b89f-1a68b7afb23f;["container_1_Consume_and_count_1"];4.25;1533753412.51238;157.54;1581.74;25.617427317;10;151
57;paravance-36.rennes.grid5000.fr;thermos-root-devel-WordCountTopology-2-92d4bcac-8730-47d6-a718-8c9cfad089be;["container_2_Emit_random_words_2"];4.25;1533753412.61256;35.87;842.52;2.380976158;10;149
57;paravance-27.rennes.grid5000.fr;thermos-root-devel-WordCountTopology-0-cfdb07a6-0626-4d6b-ad7e-a03178406a43;["topology_master"];4.25;1533753412.61413;6.28;13.54;0.016436013;9;117
58;paravance-34.rennes.grid5000.fr;thermos-root-devel-WordCountTopology-1-48e7510e-bf59-4dbd-b89f-1a68b7afb23f;["container_1_Consume_and_count_1"];4.25;1533753422.82795;160.92;1606.42;25.617427317;10;151
58;paravance-36.rennes.grid5000.fr;thermos-root-devel-WordCountTopology-2-92d4bcac-8730-47d6-a718-8c9cfad089be;["container_2_Emit_random_words_2"];4.25;1533753422.82928;36.53;860.7;2.380976158;10;149
58;paravance-27.rennes.grid5000.fr;thermos-root-devel-WordCountTopology-0-cfdb07a6-0626-4d6b-ad7e-a03178406a43;["topology_master"];4.25;1533753422.83215;6.34;13.62;0.016436013;9;117
59;paravance-27.rennes.grid5000.fr;thermos-root-devel-WordCountTopology-0-cfdb07a6-0626-4d6b-ad7e-a03178406a43;["topology_master"];4.25;1533753433.04752;6.41;13.72;0.016436013;9;117
59;paravance-36.rennes.grid5000.fr;thermos-root-devel-WordCountTopology-2-92d4bcac-8730-47d6-a718-8c9cfad089be;["container_2_Emit_random_words_2"];4.25;1533753433.04583;37.19;878.95;2.380976158;10;149
59;paravance-34.rennes.grid5000.fr;thermos-root-devel-WordCountTopology-1-48e7510e-bf59-4dbd-b89f-1a68b7afb23f;["container_1_Consume_and_count_1"];4.25;1533753433.04536;164.32;1630.81;25.617427317;10;151
60;paravance-36.rennes.grid5000.fr;thermos-root-devel-WordCountTopology-2-92d4bcac-8730-47d6-a718-8c9cfad089be;["container_2_Emit_random_words_2"];4.25;1533753443.26198;37.83;897.15;2.380976158;10;149
60;paravance-27.rennes.grid5000.fr;thermos-root-devel-WordCountTopology-0-cfdb07a6-0626-4d6b-ad7e-a03178406a43;["topology_master"];4.25;1533753443.26468;6.47;13.79;0.016436013;9;117
60;paravance-34.rennes.grid5000.fr;thermos-root-devel-WordCountTopology-1-48e7510e-bf59-4dbd-b89f-1a68b7afb23f;["container_1_Consume_and_count_1"];4.25;1533753443.26151;167.78;1656.0;25.617427317;10;151
