------------------------------------------------------
 submission_time: 1533233984
------------------------------------------------------
timeslice start: 1533234240; backpressure time in ms: 0.0
timeslice start: 1533234660; backpressure time in ms: 0.0
timeslice start: 1533234120; backpressure time in ms: 0.0
timeslice start: 1533234540; backpressure time in ms: 0.0
timeslice start: 1533234480; backpressure time in ms: 0.0
timeslice start: 1533234600; backpressure time in ms: 0.0
timeslice start: 1533234420; backpressure time in ms: 0.0
timeslice start: 1533234360; backpressure time in ms: 0.0
timeslice start: 1533234180; backpressure time in ms: 0.0
timeslice start: 1533234300; backpressure time in ms: 1649.0
