mesure_id;slave_id;executor_id;heron_instances;cpus_limit;timestamp_B;cpus_system_time_secs_B;cpus_user_time_secs_B;cpus_throttled_time_secs_B;processes;threads
0;paravance-1.rennes.grid5000.fr;thermos-root-devel-WordCountTopology-1-a01bf706-bf9d-4599-ba25-8f0fb4824db0;["container_1_Consume_and_count_1"];1.25;1533223540.26822;25.98;95.51;216.685216454;10;152
0;paravance-3.rennes.grid5000.fr;thermos-root-devel-WordCountTopology-0-7079e5dc-5da2-462a-8218-6eb446fc656b;["topology_master"];1.25;1533223540.26389;2.61;8.72;7.023231221;9;117
0;paravance-14.rennes.grid5000.fr;thermos-root-devel-WordCountTopology-2-937da4ec-d605-4363-a545-e4f56fd94b25;["container_2_Emit_random_words_2"];1.25;1533223540.26547;18.99;75.18;109.728139247;10;149
1;paravance-1.rennes.grid5000.fr;thermos-root-devel-WordCountTopology-1-a01bf706-bf9d-4599-ba25-8f0fb4824db0;["container_1_Consume_and_count_1"];1.25;1533223550.48464;28.57;104.69;240.060345518;10;151
1;paravance-3.rennes.grid5000.fr;thermos-root-devel-WordCountTopology-0-7079e5dc-5da2-462a-8218-6eb446fc656b;["topology_master"];1.25;1533223550.47957;2.7;8.86;7.023231221;9;117
1;paravance-14.rennes.grid5000.fr;thermos-root-devel-WordCountTopology-2-937da4ec-d605-4363-a545-e4f56fd94b25;["container_2_Emit_random_words_2"];1.25;1533223550.48178;20.47;80.43;115.972710571;10;149
2;paravance-14.rennes.grid5000.fr;thermos-root-devel-WordCountTopology-2-937da4ec-d605-4363-a545-e4f56fd94b25;["container_2_Emit_random_words_2"];1.25;1533223560.69756;22.12;86.49;122.755713742;10;149
2;paravance-1.rennes.grid5000.fr;thermos-root-devel-WordCountTopology-1-a01bf706-bf9d-4599-ba25-8f0fb4824db0;["container_1_Consume_and_count_1"];1.25;1533223560.70403;31.08;113.87;263.545332783;10;151
2;paravance-3.rennes.grid5000.fr;thermos-root-devel-WordCountTopology-0-7079e5dc-5da2-462a-8218-6eb446fc656b;["topology_master"];1.25;1533223560.69751;2.73;8.89;7.023231221;9;117
3;paravance-14.rennes.grid5000.fr;thermos-root-devel-WordCountTopology-2-937da4ec-d605-4363-a545-e4f56fd94b25;["container_2_Emit_random_words_2"];1.25;1533223570.81522;23.56;91.45;128.15202206;10;149
3;paravance-3.rennes.grid5000.fr;thermos-root-devel-WordCountTopology-0-7079e5dc-5da2-462a-8218-6eb446fc656b;["topology_master"];1.25;1533223570.91266;2.82;9.02;7.023231221;9;117
3;paravance-1.rennes.grid5000.fr;thermos-root-devel-WordCountTopology-1-a01bf706-bf9d-4599-ba25-8f0fb4824db0;["container_1_Consume_and_count_1"];1.25;1533223570.91896;33.65;123.04;289.658970673;10;151
4;paravance-14.rennes.grid5000.fr;thermos-root-devel-WordCountTopology-2-937da4ec-d605-4363-a545-e4f56fd94b25;["container_2_Emit_random_words_2"];1.25;1533223581.1276;25.21;97.49;134.702743277;10;149
4;paravance-1.rennes.grid5000.fr;thermos-root-devel-WordCountTopology-1-a01bf706-bf9d-4599-ba25-8f0fb4824db0;["container_1_Consume_and_count_1"];1.25;1533223581.13346;36.14;132.35;312.670776882;10;151
4;paravance-3.rennes.grid5000.fr;thermos-root-devel-WordCountTopology-0-7079e5dc-5da2-462a-8218-6eb446fc656b;["topology_master"];1.25;1533223581.12746;2.88;9.09;7.023231221;9;117
5;paravance-14.rennes.grid5000.fr;thermos-root-devel-WordCountTopology-2-937da4ec-d605-4363-a545-e4f56fd94b25;["container_2_Emit_random_words_2"];1.25;1533223591.34545;26.85;103.26;140.377009176;10;149
5;paravance-3.rennes.grid5000.fr;thermos-root-devel-WordCountTopology-0-7079e5dc-5da2-462a-8218-6eb446fc656b;["topology_master"];1.25;1533223591.34468;2.96;9.18;7.023231221;9;117
5;paravance-1.rennes.grid5000.fr;thermos-root-devel-WordCountTopology-1-a01bf706-bf9d-4599-ba25-8f0fb4824db0;["container_1_Consume_and_count_1"];1.25;1533223591.3515;38.73;141.58;335.667796199;10;151
6;paravance-3.rennes.grid5000.fr;thermos-root-devel-WordCountTopology-0-7079e5dc-5da2-462a-8218-6eb446fc656b;["topology_master"];1.25;1533223601.56231;3.03;9.32;7.023231221;9;117
6;paravance-14.rennes.grid5000.fr;thermos-root-devel-WordCountTopology-2-937da4ec-d605-4363-a545-e4f56fd94b25;["container_2_Emit_random_words_2"];1.25;1533223601.56365;28.75;110.2;148.506984537;10;149
6;paravance-1.rennes.grid5000.fr;thermos-root-devel-WordCountTopology-1-a01bf706-bf9d-4599-ba25-8f0fb4824db0;["container_1_Consume_and_count_1"];1.25;1533223601.56982;41.18;150.86;353.417484791;10;151
7;paravance-3.rennes.grid5000.fr;thermos-root-devel-WordCountTopology-0-7079e5dc-5da2-462a-8218-6eb446fc656b;["topology_master"];1.25;1533223611.77869;3.12;9.45;7.03529512;9;117
7;paravance-1.rennes.grid5000.fr;thermos-root-devel-WordCountTopology-1-a01bf706-bf9d-4599-ba25-8f0fb4824db0;["container_1_Consume_and_count_1"];1.25;1533223611.78736;43.73;160.08;375.196127114;10;151
7;paravance-14.rennes.grid5000.fr;thermos-root-devel-WordCountTopology-2-937da4ec-d605-4363-a545-e4f56fd94b25;["container_2_Emit_random_words_2"];1.25;1533223611.78184;30.41;116.12;155.283218183;10;149
8;paravance-3.rennes.grid5000.fr;thermos-root-devel-WordCountTopology-0-7079e5dc-5da2-462a-8218-6eb446fc656b;["topology_master"];1.25;1533223621.99604;3.14;9.48;7.03529512;9;117
8;paravance-14.rennes.grid5000.fr;thermos-root-devel-WordCountTopology-2-937da4ec-d605-4363-a545-e4f56fd94b25;["container_2_Emit_random_words_2"];1.25;1533223621.99811;31.93;121.54;160.930222108;10;149
8;paravance-1.rennes.grid5000.fr;thermos-root-devel-WordCountTopology-1-a01bf706-bf9d-4599-ba25-8f0fb4824db0;["container_1_Consume_and_count_1"];1.25;1533223622.00438;46.25;169.32;398.079579186;10;151
9;paravance-1.rennes.grid5000.fr;thermos-root-devel-WordCountTopology-1-a01bf706-bf9d-4599-ba25-8f0fb4824db0;["container_1_Consume_and_count_1"];1.25;1533223632.21917;48.85;178.42;424.487455399;10;151
9;paravance-14.rennes.grid5000.fr;thermos-root-devel-WordCountTopology-2-937da4ec-d605-4363-a545-e4f56fd94b25;["container_2_Emit_random_words_2"];1.25;1533223632.21282;33.42;126.84;166.285203001;10;149
9;paravance-3.rennes.grid5000.fr;thermos-root-devel-WordCountTopology-0-7079e5dc-5da2-462a-8218-6eb446fc656b;["topology_master"];1.25;1533223632.21434;3.23;9.6;7.03529512;9;117
10;paravance-14.rennes.grid5000.fr;thermos-root-devel-WordCountTopology-2-937da4ec-d605-4363-a545-e4f56fd94b25;["container_2_Emit_random_words_2"];1.25;1533223642.43013;34.97;132.37;172.251121876;10;149
10;paravance-3.rennes.grid5000.fr;thermos-root-devel-WordCountTopology-0-7079e5dc-5da2-462a-8218-6eb446fc656b;["topology_master"];1.25;1533223642.42974;3.29;9.67;7.03529512;9;117
10;paravance-1.rennes.grid5000.fr;thermos-root-devel-WordCountTopology-1-a01bf706-bf9d-4599-ba25-8f0fb4824db0;["container_1_Consume_and_count_1"];1.25;1533223642.4369;51.39;187.71;447.223228679;10;151
11;paravance-1.rennes.grid5000.fr;thermos-root-devel-WordCountTopology-1-a01bf706-bf9d-4599-ba25-8f0fb4824db0;["container_1_Consume_and_count_1"];1.25;1533223652.65285;54.0;196.92;467.385767123;10;151
11;paravance-14.rennes.grid5000.fr;thermos-root-devel-WordCountTopology-2-937da4ec-d605-4363-a545-e4f56fd94b25;["container_2_Emit_random_words_2"];1.25;1533223652.64949;36.61;138.22;178.600728962;10;149
11;paravance-3.rennes.grid5000.fr;thermos-root-devel-WordCountTopology-0-7079e5dc-5da2-462a-8218-6eb446fc656b;["topology_master"];1.25;1533223652.64844;3.4;9.9;7.03529512;9;117
12;paravance-1.rennes.grid5000.fr;thermos-root-devel-WordCountTopology-1-a01bf706-bf9d-4599-ba25-8f0fb4824db0;["container_1_Consume_and_count_1"];1.25;1533223662.87076;56.63;206.1;488.408689234;10;151
12;paravance-3.rennes.grid5000.fr;thermos-root-devel-WordCountTopology-0-7079e5dc-5da2-462a-8218-6eb446fc656b;["topology_master"];1.25;1533223662.86373;3.44;9.93;7.03529512;9;117
12;paravance-14.rennes.grid5000.fr;thermos-root-devel-WordCountTopology-2-937da4ec-d605-4363-a545-e4f56fd94b25;["container_2_Emit_random_words_2"];1.25;1533223662.86642;38.3;144.33;185.833483442;10;149
13;paravance-3.rennes.grid5000.fr;thermos-root-devel-WordCountTopology-0-7079e5dc-5da2-462a-8218-6eb446fc656b;["topology_master"];1.25;1533223673.08126;3.54;10.09;7.03529512;9;117
13;paravance-1.rennes.grid5000.fr;thermos-root-devel-WordCountTopology-1-a01bf706-bf9d-4599-ba25-8f0fb4824db0;["container_1_Consume_and_count_1"];1.25;1533223673.08687;59.43;215.11;512.04307506;10;151
13;paravance-14.rennes.grid5000.fr;thermos-root-devel-WordCountTopology-2-937da4ec-d605-4363-a545-e4f56fd94b25;["container_2_Emit_random_words_2"];1.25;1533223673.0847;39.89;150.09;191.901704411;10;149
14;paravance-1.rennes.grid5000.fr;thermos-root-devel-WordCountTopology-1-a01bf706-bf9d-4599-ba25-8f0fb4824db0;["container_1_Consume_and_count_1"];1.25;1533223683.30443;62.12;224.17;532.314110552;10;151
14;paravance-3.rennes.grid5000.fr;thermos-root-devel-WordCountTopology-0-7079e5dc-5da2-462a-8218-6eb446fc656b;["topology_master"];1.25;1533223683.29854;3.59;10.16;7.03529512;9;117
14;paravance-14.rennes.grid5000.fr;thermos-root-devel-WordCountTopology-2-937da4ec-d605-4363-a545-e4f56fd94b25;["container_2_Emit_random_words_2"];1.25;1533223683.30203;41.51;156.01;198.692346653;10;149
15;paravance-1.rennes.grid5000.fr;thermos-root-devel-WordCountTopology-1-a01bf706-bf9d-4599-ba25-8f0fb4824db0;["container_1_Consume_and_count_1"];1.25;1533223693.52256;64.64;233.36;555.323311491;10;151
15;paravance-14.rennes.grid5000.fr;thermos-root-devel-WordCountTopology-2-937da4ec-d605-4363-a545-e4f56fd94b25;["container_2_Emit_random_words_2"];1.25;1533223693.51903;43.07;161.57;205.471779918;10;149
15;paravance-3.rennes.grid5000.fr;thermos-root-devel-WordCountTopology-0-7079e5dc-5da2-462a-8218-6eb446fc656b;["topology_master"];1.25;1533223693.51861;3.65;10.24;7.03529512;9;117
16;paravance-3.rennes.grid5000.fr;thermos-root-devel-WordCountTopology-0-7079e5dc-5da2-462a-8218-6eb446fc656b;["topology_master"];1.25;1533223703.73407;3.71;10.32;7.03529512;9;117
16;paravance-14.rennes.grid5000.fr;thermos-root-devel-WordCountTopology-2-937da4ec-d605-4363-a545-e4f56fd94b25;["container_2_Emit_random_words_2"];1.25;1533223703.73417;44.73;167.42;211.512266314;10;149
16;paravance-1.rennes.grid5000.fr;thermos-root-devel-WordCountTopology-1-a01bf706-bf9d-4599-ba25-8f0fb4824db0;["container_1_Consume_and_count_1"];1.25;1533223703.74133;67.23;242.61;576.318756575;10;151
17;paravance-14.rennes.grid5000.fr;thermos-root-devel-WordCountTopology-2-937da4ec-d605-4363-a545-e4f56fd94b25;["container_2_Emit_random_words_2"];1.25;1533223713.95001;46.34;173.07;217.790206732;10;149
17;paravance-1.rennes.grid5000.fr;thermos-root-devel-WordCountTopology-1-a01bf706-bf9d-4599-ba25-8f0fb4824db0;["container_1_Consume_and_count_1"];1.25;1533223713.95808;69.82;251.89;598.895671317;10;151
17;paravance-3.rennes.grid5000.fr;thermos-root-devel-WordCountTopology-0-7079e5dc-5da2-462a-8218-6eb446fc656b;["topology_master"];1.25;1533223713.95194;3.83;10.56;7.03529512;9;117
18;paravance-1.rennes.grid5000.fr;thermos-root-devel-WordCountTopology-1-a01bf706-bf9d-4599-ba25-8f0fb4824db0;["container_1_Consume_and_count_1"];1.25;1533223724.17398;72.36;261.1;621.717944998;10;151
18;paravance-3.rennes.grid5000.fr;thermos-root-devel-WordCountTopology-0-7079e5dc-5da2-462a-8218-6eb446fc656b;["topology_master"];1.25;1533223724.16662;3.86;10.59;7.03529512;9;117
18;paravance-14.rennes.grid5000.fr;thermos-root-devel-WordCountTopology-2-937da4ec-d605-4363-a545-e4f56fd94b25;["container_2_Emit_random_words_2"];1.25;1533223724.16906;47.95;178.82;224.614379928;10;149
19;paravance-3.rennes.grid5000.fr;thermos-root-devel-WordCountTopology-0-7079e5dc-5da2-462a-8218-6eb446fc656b;["topology_master"];1.25;1533223734.38501;3.95;10.72;7.03529512;9;117
19;paravance-14.rennes.grid5000.fr;thermos-root-devel-WordCountTopology-2-937da4ec-d605-4363-a545-e4f56fd94b25;["container_2_Emit_random_words_2"];1.25;1533223734.38456;49.73;185.02;231.607304924;10;149
19;paravance-1.rennes.grid5000.fr;thermos-root-devel-WordCountTopology-1-a01bf706-bf9d-4599-ba25-8f0fb4824db0;["container_1_Consume_and_count_1"];1.25;1533223734.39229;74.97;270.4;643.170179261;10;151
20;paravance-3.rennes.grid5000.fr;thermos-root-devel-WordCountTopology-0-7079e5dc-5da2-462a-8218-6eb446fc656b;["topology_master"];1.25;1533223744.60364;4.01;10.79;7.03529512;9;117
20;paravance-14.rennes.grid5000.fr;thermos-root-devel-WordCountTopology-2-937da4ec-d605-4363-a545-e4f56fd94b25;["container_2_Emit_random_words_2"];1.25;1533223744.60437;51.4;190.94;237.401299212;10;149
20;paravance-1.rennes.grid5000.fr;thermos-root-devel-WordCountTopology-1-a01bf706-bf9d-4599-ba25-8f0fb4824db0;["container_1_Consume_and_count_1"];1.25;1533223744.61125;77.51;279.69;665.168818861;10;151
21;paravance-14.rennes.grid5000.fr;thermos-root-devel-WordCountTopology-2-937da4ec-d605-4363-a545-e4f56fd94b25;["container_2_Emit_random_words_2"];1.25;1533223754.81965;53.24;197.48;244.307867093;10;149
21;paravance-1.rennes.grid5000.fr;thermos-root-devel-WordCountTopology-1-a01bf706-bf9d-4599-ba25-8f0fb4824db0;["container_1_Consume_and_count_1"];1.25;1533223754.82739;80.09;288.94;687.724683024;10;151
21;paravance-3.rennes.grid5000.fr;thermos-root-devel-WordCountTopology-0-7079e5dc-5da2-462a-8218-6eb446fc656b;["topology_master"];1.25;1533223754.82092;4.06;10.86;7.03529512;9;117
22;paravance-14.rennes.grid5000.fr;thermos-root-devel-WordCountTopology-2-937da4ec-d605-4363-a545-e4f56fd94b25;["container_2_Emit_random_words_2"];1.25;1533223765.0368;54.91;203.26;250.920360127;10;149
22;paravance-3.rennes.grid5000.fr;thermos-root-devel-WordCountTopology-0-7079e5dc-5da2-462a-8218-6eb446fc656b;["topology_master"];1.25;1533223765.03776;4.12;10.93;7.03529512;9;117
22;paravance-1.rennes.grid5000.fr;thermos-root-devel-WordCountTopology-1-a01bf706-bf9d-4599-ba25-8f0fb4824db0;["container_1_Consume_and_count_1"];1.25;1533223765.04538;82.61;298.26;708.585992515;10;151
23;paravance-1.rennes.grid5000.fr;thermos-root-devel-WordCountTopology-1-a01bf706-bf9d-4599-ba25-8f0fb4824db0;["container_1_Consume_and_count_1"];1.25;1533223775.25949;85.06;307.55;733.451307538;10;151
23;paravance-14.rennes.grid5000.fr;thermos-root-devel-WordCountTopology-2-937da4ec-d605-4363-a545-e4f56fd94b25;["container_2_Emit_random_words_2"];1.25;1533223775.25491;56.57;208.56;256.343170154;10;149
23;paravance-3.rennes.grid5000.fr;thermos-root-devel-WordCountTopology-0-7079e5dc-5da2-462a-8218-6eb446fc656b;["topology_master"];1.25;1533223775.25685;4.23;11.12;7.03529512;9;117
24;paravance-1.rennes.grid5000.fr;thermos-root-devel-WordCountTopology-1-a01bf706-bf9d-4599-ba25-8f0fb4824db0;["container_1_Consume_and_count_1"];1.25;1533223785.47911;87.63;316.72;755.543614735;10;151
24;paravance-3.rennes.grid5000.fr;thermos-root-devel-WordCountTopology-0-7079e5dc-5da2-462a-8218-6eb446fc656b;["topology_master"];1.25;1533223785.47308;4.26;11.14;7.03529512;9;117
24;paravance-14.rennes.grid5000.fr;thermos-root-devel-WordCountTopology-2-937da4ec-d605-4363-a545-e4f56fd94b25;["container_2_Emit_random_words_2"];1.25;1533223785.47446;58.12;214.19;262.687581712;10;149
25;paravance-1.rennes.grid5000.fr;thermos-root-devel-WordCountTopology-1-a01bf706-bf9d-4599-ba25-8f0fb4824db0;["container_1_Consume_and_count_1"];1.25;1533223795.69491;90.23;325.8;777.770350669;10;151
25;paravance-3.rennes.grid5000.fr;thermos-root-devel-WordCountTopology-0-7079e5dc-5da2-462a-8218-6eb446fc656b;["topology_master"];1.25;1533223795.68927;4.35;11.27;7.03529512;9;117
25;paravance-14.rennes.grid5000.fr;thermos-root-devel-WordCountTopology-2-937da4ec-d605-4363-a545-e4f56fd94b25;["container_2_Emit_random_words_2"];1.25;1533223795.69098;59.94;220.23;269.665881924;10;149
26;paravance-3.rennes.grid5000.fr;thermos-root-devel-WordCountTopology-0-7079e5dc-5da2-462a-8218-6eb446fc656b;["topology_master"];1.25;1533223805.80449;4.41;11.34;7.03529512;9;117
26;paravance-1.rennes.grid5000.fr;thermos-root-devel-WordCountTopology-1-a01bf706-bf9d-4599-ba25-8f0fb4824db0;["container_1_Consume_and_count_1"];1.25;1533223805.81193;92.62;334.95;802.039029191;10;151
26;paravance-14.rennes.grid5000.fr;thermos-root-devel-WordCountTopology-2-937da4ec-d605-4363-a545-e4f56fd94b25;["container_2_Emit_random_words_2"];1.25;1533223805.90492;61.49;225.78;275.197256607;10;149
27;paravance-3.rennes.grid5000.fr;thermos-root-devel-WordCountTopology-0-7079e5dc-5da2-462a-8218-6eb446fc656b;["topology_master"];1.25;1533223816.12021;4.47;11.41;7.03529512;9;117
27;paravance-14.rennes.grid5000.fr;thermos-root-devel-WordCountTopology-2-937da4ec-d605-4363-a545-e4f56fd94b25;["container_2_Emit_random_words_2"];1.25;1533223816.12125;62.99;231.08;281.298613587;10;149
27;paravance-1.rennes.grid5000.fr;thermos-root-devel-WordCountTopology-1-a01bf706-bf9d-4599-ba25-8f0fb4824db0;["container_1_Consume_and_count_1"];1.25;1533223816.12816;95.18;344.27;825.235302324;10;151
28;paravance-14.rennes.grid5000.fr;thermos-root-devel-WordCountTopology-2-937da4ec-d605-4363-a545-e4f56fd94b25;["container_2_Emit_random_words_2"];1.25;1533223826.3366;64.57;236.86;287.17288318;10;149
28;paravance-1.rennes.grid5000.fr;thermos-root-devel-WordCountTopology-1-a01bf706-bf9d-4599-ba25-8f0fb4824db0;["container_1_Consume_and_count_1"];1.25;1533223826.34398;97.67;353.53;850.207943082;10;151
28;paravance-3.rennes.grid5000.fr;thermos-root-devel-WordCountTopology-0-7079e5dc-5da2-462a-8218-6eb446fc656b;["topology_master"];1.25;1533223826.33697;4.52;11.48;7.03529512;9;117
29;paravance-3.rennes.grid5000.fr;thermos-root-devel-WordCountTopology-0-7079e5dc-5da2-462a-8218-6eb446fc656b;["topology_master"];1.25;1533223836.55468;4.63;11.68;7.03529512;9;117
29;paravance-1.rennes.grid5000.fr;thermos-root-devel-WordCountTopology-1-a01bf706-bf9d-4599-ba25-8f0fb4824db0;["container_1_Consume_and_count_1"];1.25;1533223836.56296;100.11;362.78;874.10801848;10;151
29;paravance-14.rennes.grid5000.fr;thermos-root-devel-WordCountTopology-2-937da4ec-d605-4363-a545-e4f56fd94b25;["container_2_Emit_random_words_2"];1.25;1533223836.55647;66.17;242.54;293.358681191;10;149
30;paravance-1.rennes.grid5000.fr;thermos-root-devel-WordCountTopology-1-a01bf706-bf9d-4599-ba25-8f0fb4824db0;["container_1_Consume_and_count_1"];1.25;1533223846.77907;102.6;372.04;897.510921676;10;151
30;paravance-14.rennes.grid5000.fr;thermos-root-devel-WordCountTopology-2-937da4ec-d605-4363-a545-e4f56fd94b25;["container_2_Emit_random_words_2"];1.25;1533223846.77396;67.75;248.09;299.337700912;10;149
30;paravance-3.rennes.grid5000.fr;thermos-root-devel-WordCountTopology-0-7079e5dc-5da2-462a-8218-6eb446fc656b;["topology_master"];1.25;1533223846.77332;4.66;11.71;7.03529512;9;117
31;paravance-3.rennes.grid5000.fr;thermos-root-devel-WordCountTopology-0-7079e5dc-5da2-462a-8218-6eb446fc656b;["topology_master"];1.25;1533223856.99136;4.75;11.83;7.03529512;9;117
31;paravance-14.rennes.grid5000.fr;thermos-root-devel-WordCountTopology-2-937da4ec-d605-4363-a545-e4f56fd94b25;["container_2_Emit_random_words_2"];1.25;1533223856.99165;69.42;253.97;307.17732587;10;149
31;paravance-1.rennes.grid5000.fr;thermos-root-devel-WordCountTopology-1-a01bf706-bf9d-4599-ba25-8f0fb4824db0;["container_1_Consume_and_count_1"];1.25;1533223857.00013;105.07;381.4;919.374596157;10;151
32;paravance-14.rennes.grid5000.fr;thermos-root-devel-WordCountTopology-2-937da4ec-d605-4363-a545-e4f56fd94b25;["container_2_Emit_random_words_2"];1.25;1533223867.21064;71.0;259.55;313.853437646;10;147
32;paravance-3.rennes.grid5000.fr;thermos-root-devel-WordCountTopology-0-7079e5dc-5da2-462a-8218-6eb446fc656b;["topology_master"];1.25;1533223867.21017;4.84;11.95;7.03529512;9;117
32;paravance-1.rennes.grid5000.fr;thermos-root-devel-WordCountTopology-1-a01bf706-bf9d-4599-ba25-8f0fb4824db0;["container_1_Consume_and_count_1"];1.25;1533223867.21691;107.43;390.79;943.492216012;10;151
33;paravance-1.rennes.grid5000.fr;thermos-root-devel-WordCountTopology-1-a01bf706-bf9d-4599-ba25-8f0fb4824db0;["container_1_Consume_and_count_1"];1.25;1533223877.43453;109.81;400.19;968.780271907;10;151
33;paravance-3.rennes.grid5000.fr;thermos-root-devel-WordCountTopology-0-7079e5dc-5da2-462a-8218-6eb446fc656b;["topology_master"];1.25;1533223877.42937;4.87;11.97;7.03529512;9;117
33;paravance-14.rennes.grid5000.fr;thermos-root-devel-WordCountTopology-2-937da4ec-d605-4363-a545-e4f56fd94b25;["container_2_Emit_random_words_2"];1.25;1533223877.42961;72.59;264.87;318.948859113;10;149
34;paravance-1.rennes.grid5000.fr;thermos-root-devel-WordCountTopology-1-a01bf706-bf9d-4599-ba25-8f0fb4824db0;["container_1_Consume_and_count_1"];1.25;1533223887.65334;112.23;409.62;998.431633072;10;149
34;paravance-14.rennes.grid5000.fr;thermos-root-devel-WordCountTopology-2-937da4ec-d605-4363-a545-e4f56fd94b25;["container_2_Emit_random_words_2"];1.25;1533223887.64721;74.01;269.41;323.145539202;10;149
34;paravance-3.rennes.grid5000.fr;thermos-root-devel-WordCountTopology-0-7079e5dc-5da2-462a-8218-6eb446fc656b;["topology_master"];1.25;1533223887.64684;4.97;12.1;7.03529512;9;117
35;paravance-1.rennes.grid5000.fr;thermos-root-devel-WordCountTopology-1-a01bf706-bf9d-4599-ba25-8f0fb4824db0;["container_1_Consume_and_count_1"];1.25;1533223897.86954;114.56;419.05;1022.480673237;10;151
35;paravance-3.rennes.grid5000.fr;thermos-root-devel-WordCountTopology-0-7079e5dc-5da2-462a-8218-6eb446fc656b;["topology_master"];1.25;1533223897.86326;5.03;12.23;7.03529512;9;117
35;paravance-14.rennes.grid5000.fr;thermos-root-devel-WordCountTopology-2-937da4ec-d605-4363-a545-e4f56fd94b25;["container_2_Emit_random_words_2"];1.25;1533223897.86807;75.66;274.81;328.122211137;10;149
36;paravance-3.rennes.grid5000.fr;thermos-root-devel-WordCountTopology-0-7079e5dc-5da2-462a-8218-6eb446fc656b;["topology_master"];1.25;1533223908.08221;5.09;12.3;7.03529512;9;117
36;paravance-1.rennes.grid5000.fr;thermos-root-devel-WordCountTopology-1-a01bf706-bf9d-4599-ba25-8f0fb4824db0;["container_1_Consume_and_count_1"];1.25;1533223908.09038;116.96;428.38;1048.240094735;10;151
36;paravance-14.rennes.grid5000.fr;thermos-root-devel-WordCountTopology-2-937da4ec-d605-4363-a545-e4f56fd94b25;["container_2_Emit_random_words_2"];1.25;1533223908.0847;77.13;279.77;332.555841439;10;149
37;paravance-14.rennes.grid5000.fr;thermos-root-devel-WordCountTopology-2-937da4ec-d605-4363-a545-e4f56fd94b25;["container_2_Emit_random_words_2"];1.25;1533223918.30289;78.62;284.5;337.110904894;10;149
37;paravance-1.rennes.grid5000.fr;thermos-root-devel-WordCountTopology-1-a01bf706-bf9d-4599-ba25-8f0fb4824db0;["container_1_Consume_and_count_1"];1.25;1533223918.30823;119.36;437.75;1073.722259098;10;151
37;paravance-3.rennes.grid5000.fr;thermos-root-devel-WordCountTopology-0-7079e5dc-5da2-462a-8218-6eb446fc656b;["topology_master"];1.25;1533223918.30265;5.14;12.38;7.03529512;9;117
38;paravance-3.rennes.grid5000.fr;thermos-root-devel-WordCountTopology-0-7079e5dc-5da2-462a-8218-6eb446fc656b;["topology_master"];1.25;1533223928.52046;5.23;12.49;7.03529512;9;117
38;paravance-1.rennes.grid5000.fr;thermos-root-devel-WordCountTopology-1-a01bf706-bf9d-4599-ba25-8f0fb4824db0;["container_1_Consume_and_count_1"];1.25;1533223928.52671;121.72;447.24;1096.990857391;10;151
38;paravance-14.rennes.grid5000.fr;thermos-root-devel-WordCountTopology-2-937da4ec-d605-4363-a545-e4f56fd94b25;["container_2_Emit_random_words_2"];1.25;1533223928.52246;80.2;289.83;341.749971908;10;149
39;paravance-14.rennes.grid5000.fr;thermos-root-devel-WordCountTopology-2-937da4ec-d605-4363-a545-e4f56fd94b25;["container_2_Emit_random_words_2"];1.25;1533223938.7394;81.54;294.43;346.066823469;10;149
39;paravance-1.rennes.grid5000.fr;thermos-root-devel-WordCountTopology-1-a01bf706-bf9d-4599-ba25-8f0fb4824db0;["container_1_Consume_and_count_1"];1.25;1533223938.74638;123.95;456.98;1124.627965471;10;151
39;paravance-3.rennes.grid5000.fr;thermos-root-devel-WordCountTopology-0-7079e5dc-5da2-462a-8218-6eb446fc656b;["topology_master"];1.25;1533223938.73926;5.25;12.52;7.03529512;9;117
40;paravance-3.rennes.grid5000.fr;thermos-root-devel-WordCountTopology-0-7079e5dc-5da2-462a-8218-6eb446fc656b;["topology_master"];1.25;1533223948.95561;5.36;12.65;7.03529512;9;117
40;paravance-1.rennes.grid5000.fr;thermos-root-devel-WordCountTopology-1-a01bf706-bf9d-4599-ba25-8f0fb4824db0;["container_1_Consume_and_count_1"];1.25;1533223948.96444;126.35;466.49;1149.764560518;10;151
40;paravance-14.rennes.grid5000.fr;thermos-root-devel-WordCountTopology-2-937da4ec-d605-4363-a545-e4f56fd94b25;["container_2_Emit_random_words_2"];1.25;1533223948.95882;83.02;299.21;350.305682199;10;149
41;paravance-1.rennes.grid5000.fr;thermos-root-devel-WordCountTopology-1-a01bf706-bf9d-4599-ba25-8f0fb4824db0;["container_1_Consume_and_count_1"];1.25;1533223959.18057;128.64;476.03;1173.474497262;10;151
41;paravance-3.rennes.grid5000.fr;thermos-root-devel-WordCountTopology-0-7079e5dc-5da2-462a-8218-6eb446fc656b;["topology_master"];1.25;1533223959.17358;5.42;12.75;7.03529512;9;117
41;paravance-14.rennes.grid5000.fr;thermos-root-devel-WordCountTopology-2-937da4ec-d605-4363-a545-e4f56fd94b25;["container_2_Emit_random_words_2"];1.25;1533223959.17623;84.58;304.29;355.182748981;10;149
42;paravance-3.rennes.grid5000.fr;thermos-root-devel-WordCountTopology-0-7079e5dc-5da2-462a-8218-6eb446fc656b;["topology_master"];1.25;1533223969.39141;5.51;12.87;7.03529512;9;117
42;paravance-14.rennes.grid5000.fr;thermos-root-devel-WordCountTopology-2-937da4ec-d605-4363-a545-e4f56fd94b25;["container_2_Emit_random_words_2"];1.25;1533223969.39232;86.1;309.37;360.174100343;10;149
42;paravance-1.rennes.grid5000.fr;thermos-root-devel-WordCountTopology-1-a01bf706-bf9d-4599-ba25-8f0fb4824db0;["container_1_Consume_and_count_1"];1.25;1533223969.39865;131.0;485.54;1199.310998454;10;151
43;paravance-14.rennes.grid5000.fr;thermos-root-devel-WordCountTopology-2-937da4ec-d605-4363-a545-e4f56fd94b25;["container_2_Emit_random_words_2"];1.25;1533223979.60979;87.67;314.8;365.375255987;10;149
43;paravance-1.rennes.grid5000.fr;thermos-root-devel-WordCountTopology-1-a01bf706-bf9d-4599-ba25-8f0fb4824db0;["container_1_Consume_and_count_1"];1.25;1533223979.61659;133.4;494.98;1222.229759933;10;151
43;paravance-3.rennes.grid5000.fr;thermos-root-devel-WordCountTopology-0-7079e5dc-5da2-462a-8218-6eb446fc656b;["topology_master"];1.25;1533223979.61459;5.53;12.9;7.03529512;9;117
44;paravance-14.rennes.grid5000.fr;thermos-root-devel-WordCountTopology-2-937da4ec-d605-4363-a545-e4f56fd94b25;["container_2_Emit_random_words_2"];1.25;1533223989.83091;89.13;319.5;369.705255224;10;149
44;paravance-3.rennes.grid5000.fr;thermos-root-devel-WordCountTopology-0-7079e5dc-5da2-462a-8218-6eb446fc656b;["topology_master"];1.25;1533223989.83044;5.62;13.02;7.03529512;9;117
44;paravance-1.rennes.grid5000.fr;thermos-root-devel-WordCountTopology-1-a01bf706-bf9d-4599-ba25-8f0fb4824db0;["container_1_Consume_and_count_1"];1.25;1533223989.83837;135.75;504.57;1247.257520714;10;151
45;paravance-14.rennes.grid5000.fr;thermos-root-devel-WordCountTopology-2-937da4ec-d605-4363-a545-e4f56fd94b25;["container_2_Emit_random_words_2"];1.25;1533224000.04874;90.61;324.58;374.506674827;10;149
45;paravance-1.rennes.grid5000.fr;thermos-root-devel-WordCountTopology-1-a01bf706-bf9d-4599-ba25-8f0fb4824db0;["container_1_Consume_and_count_1"];1.25;1533224000.05685;138.05;514.13;1271.566763861;10;151
45;paravance-3.rennes.grid5000.fr;thermos-root-devel-WordCountTopology-0-7079e5dc-5da2-462a-8218-6eb446fc656b;["topology_master"];1.25;1533224000.04929;5.68;13.1;7.03529512;9;117
46;paravance-1.rennes.grid5000.fr;thermos-root-devel-WordCountTopology-1-a01bf706-bf9d-4599-ba25-8f0fb4824db0;["container_1_Consume_and_count_1"];1.25;1533224010.2708;140.34;523.64;1300.556395263;10;151
46;paravance-3.rennes.grid5000.fr;thermos-root-devel-WordCountTopology-0-7079e5dc-5da2-462a-8218-6eb446fc656b;["topology_master"];1.25;1533224010.26661;5.75;13.19;7.03529512;9;117
46;paravance-14.rennes.grid5000.fr;thermos-root-devel-WordCountTopology-2-937da4ec-d605-4363-a545-e4f56fd94b25;["container_2_Emit_random_words_2"];1.25;1533224010.26731;91.99;328.99;378.530132635;10;149
47;paravance-1.rennes.grid5000.fr;thermos-root-devel-WordCountTopology-1-a01bf706-bf9d-4599-ba25-8f0fb4824db0;["container_1_Consume_and_count_1"];1.25;1533224020.4887;142.53;533.14;1329.948008093;10;151
47;paravance-3.rennes.grid5000.fr;thermos-root-devel-WordCountTopology-0-7079e5dc-5da2-462a-8218-6eb446fc656b;["topology_master"];1.25;1533224020.48251;5.82;13.32;7.03529512;9;117
47;paravance-14.rennes.grid5000.fr;thermos-root-devel-WordCountTopology-2-937da4ec-d605-4363-a545-e4f56fd94b25;["container_2_Emit_random_words_2"];1.25;1533224020.48421;93.37;333.56;382.758200884;10;149
48;paravance-1.rennes.grid5000.fr;thermos-root-devel-WordCountTopology-1-a01bf706-bf9d-4599-ba25-8f0fb4824db0;["container_1_Consume_and_count_1"];1.25;1533224030.70472;144.82;542.66;1356.448547464;10;151
48;paravance-3.rennes.grid5000.fr;thermos-root-devel-WordCountTopology-0-7079e5dc-5da2-462a-8218-6eb446fc656b;["topology_master"];1.25;1533224030.69943;5.91;13.46;7.03529512;9;117
48;paravance-14.rennes.grid5000.fr;thermos-root-devel-WordCountTopology-2-937da4ec-d605-4363-a545-e4f56fd94b25;["container_2_Emit_random_words_2"];1.25;1533224030.69986;94.87;338.5;387.589688462;10;149
49;paravance-14.rennes.grid5000.fr;thermos-root-devel-WordCountTopology-2-937da4ec-d605-4363-a545-e4f56fd94b25;["container_2_Emit_random_words_2"];1.25;1533224040.91644;96.45;343.76;392.863033399;10;149
49;paravance-3.rennes.grid5000.fr;thermos-root-devel-WordCountTopology-0-7079e5dc-5da2-462a-8218-6eb446fc656b;["topology_master"];1.25;1533224040.91621;5.93;13.48;7.03529512;9;117
49;paravance-1.rennes.grid5000.fr;thermos-root-devel-WordCountTopology-1-a01bf706-bf9d-4599-ba25-8f0fb4824db0;["container_1_Consume_and_count_1"];1.25;1533224040.92393;147.19;552.24;1380.6195116;10;151
50;paravance-3.rennes.grid5000.fr;thermos-root-devel-WordCountTopology-0-7079e5dc-5da2-462a-8218-6eb446fc656b;["topology_master"];1.25;1533224051.03351;6.02;13.61;7.03529512;9;117
50;paravance-1.rennes.grid5000.fr;thermos-root-devel-WordCountTopology-1-a01bf706-bf9d-4599-ba25-8f0fb4824db0;["container_1_Consume_and_count_1"];1.25;1533224051.14173;149.68;561.7;1404.924688195;10;151
50;paravance-14.rennes.grid5000.fr;thermos-root-devel-WordCountTopology-2-937da4ec-d605-4363-a545-e4f56fd94b25;["container_2_Emit_random_words_2"];1.25;1533224051.13411;98.04;348.92;397.968665415;10;149
51;paravance-1.rennes.grid5000.fr;thermos-root-devel-WordCountTopology-1-a01bf706-bf9d-4599-ba25-8f0fb4824db0;["container_1_Consume_and_count_1"];1.25;1533224061.25805;151.96;571.01;1432.905812568;10;151
51;paravance-14.rennes.grid5000.fr;thermos-root-devel-WordCountTopology-2-937da4ec-d605-4363-a545-e4f56fd94b25;["container_2_Emit_random_words_2"];1.25;1533224061.34998;99.33;353.17;401.48283969;10;149
51;paravance-3.rennes.grid5000.fr;thermos-root-devel-WordCountTopology-0-7079e5dc-5da2-462a-8218-6eb446fc656b;["topology_master"];1.25;1533224061.35138;6.08;13.69;7.03529512;9;117
52;paravance-1.rennes.grid5000.fr;thermos-root-devel-WordCountTopology-1-a01bf706-bf9d-4599-ba25-8f0fb4824db0;["container_1_Consume_and_count_1"];1.25;1533224071.57224;154.31;580.65;1460.584997852;10;151
52;paravance-3.rennes.grid5000.fr;thermos-root-devel-WordCountTopology-0-7079e5dc-5da2-462a-8218-6eb446fc656b;["topology_master"];1.25;1533224071.56768;6.14;13.77;7.03529512;9;117
52;paravance-14.rennes.grid5000.fr;thermos-root-devel-WordCountTopology-2-937da4ec-d605-4363-a545-e4f56fd94b25;["container_2_Emit_random_words_2"];1.25;1533224071.56783;100.75;357.8;405.969929401;10;149
53;paravance-1.rennes.grid5000.fr;thermos-root-devel-WordCountTopology-1-a01bf706-bf9d-4599-ba25-8f0fb4824db0;["container_1_Consume_and_count_1"];1.25;1533224081.78979;156.64;590.15;1481.578820976;10;151
53;paravance-3.rennes.grid5000.fr;thermos-root-devel-WordCountTopology-0-7079e5dc-5da2-462a-8218-6eb446fc656b;["topology_master"];1.25;1533224081.78373;6.21;13.88;7.03529512;9;117
53;paravance-14.rennes.grid5000.fr;thermos-root-devel-WordCountTopology-2-937da4ec-d605-4363-a545-e4f56fd94b25;["container_2_Emit_random_words_2"];1.25;1533224081.78447;102.37;363.31;411.660706526;10;149
54;paravance-3.rennes.grid5000.fr;thermos-root-devel-WordCountTopology-0-7079e5dc-5da2-462a-8218-6eb446fc656b;["topology_master"];1.25;1533224091.99874;6.3;14.0;7.03529512;9;117
54;paravance-14.rennes.grid5000.fr;thermos-root-devel-WordCountTopology-2-937da4ec-d605-4363-a545-e4f56fd94b25;["container_2_Emit_random_words_2"];1.25;1533224092.00096;103.75;367.83;415.138835645;10;149
54;paravance-1.rennes.grid5000.fr;thermos-root-devel-WordCountTopology-1-a01bf706-bf9d-4599-ba25-8f0fb4824db0;["container_1_Consume_and_count_1"];1.25;1533224092.00818;159.07;599.68;1507.618636745;10;151
55;paravance-14.rennes.grid5000.fr;thermos-root-devel-WordCountTopology-2-937da4ec-d605-4363-a545-e4f56fd94b25;["container_2_Emit_random_words_2"];1.25;1533224102.11841;105.33;373.09;420.155082395;10;149
55;paravance-3.rennes.grid5000.fr;thermos-root-devel-WordCountTopology-0-7079e5dc-5da2-462a-8218-6eb446fc656b;["topology_master"];1.25;1533224102.2161;6.33;14.03;7.03529512;9;117
55;paravance-1.rennes.grid5000.fr;thermos-root-devel-WordCountTopology-1-a01bf706-bf9d-4599-ba25-8f0fb4824db0;["container_1_Consume_and_count_1"];1.25;1533224102.22677;161.42;609.17;1532.798780748;10;151
56;paravance-3.rennes.grid5000.fr;thermos-root-devel-WordCountTopology-0-7079e5dc-5da2-462a-8218-6eb446fc656b;["topology_master"];1.25;1533224112.43378;6.41;14.15;7.03529512;9;117
56;paravance-1.rennes.grid5000.fr;thermos-root-devel-WordCountTopology-1-a01bf706-bf9d-4599-ba25-8f0fb4824db0;["container_1_Consume_and_count_1"];1.25;1533224112.443;163.64;618.74;1559.727057837;10;151
56;paravance-14.rennes.grid5000.fr;thermos-root-devel-WordCountTopology-2-937da4ec-d605-4363-a545-e4f56fd94b25;["container_2_Emit_random_words_2"];1.25;1533224112.43548;107.02;378.68;425.486726001;10;149
57;paravance-3.rennes.grid5000.fr;thermos-root-devel-WordCountTopology-0-7079e5dc-5da2-462a-8218-6eb446fc656b;["topology_master"];1.25;1533224122.5527;6.47;14.22;7.03529512;9;117
57;paravance-14.rennes.grid5000.fr;thermos-root-devel-WordCountTopology-2-937da4ec-d605-4363-a545-e4f56fd94b25;["container_2_Emit_random_words_2"];1.25;1533224122.65309;108.51;383.61;429.907493328;10;149
57;paravance-1.rennes.grid5000.fr;thermos-root-devel-WordCountTopology-1-a01bf706-bf9d-4599-ba25-8f0fb4824db0;["container_1_Consume_and_count_1"];1.25;1533224122.65999;166.03;628.3;1585.037307597;10;151
58;paravance-3.rennes.grid5000.fr;thermos-root-devel-WordCountTopology-0-7079e5dc-5da2-462a-8218-6eb446fc656b;["topology_master"];1.25;1533224132.86762;6.53;14.32;7.03529512;9;117
58;paravance-1.rennes.grid5000.fr;thermos-root-devel-WordCountTopology-1-a01bf706-bf9d-4599-ba25-8f0fb4824db0;["container_1_Consume_and_count_1"];1.25;1533224132.87653;168.41;637.65;1609.274137346;10;151
58;paravance-14.rennes.grid5000.fr;thermos-root-devel-WordCountTopology-2-937da4ec-d605-4363-a545-e4f56fd94b25;["container_2_Emit_random_words_2"];1.25;1533224132.86953;110.13;388.88;435.304355666;10;149
59;paravance-14.rennes.grid5000.fr;thermos-root-devel-WordCountTopology-2-937da4ec-d605-4363-a545-e4f56fd94b25;["container_2_Emit_random_words_2"];1.25;1533224143.08575;111.67;393.79;440.264941056;10;149
59;paravance-1.rennes.grid5000.fr;thermos-root-devel-WordCountTopology-1-a01bf706-bf9d-4599-ba25-8f0fb4824db0;["container_1_Consume_and_count_1"];1.25;1533224143.09215;170.77;647.02;1632.892800003;10;151
59;paravance-3.rennes.grid5000.fr;thermos-root-devel-WordCountTopology-0-7079e5dc-5da2-462a-8218-6eb446fc656b;["topology_master"];1.25;1533224143.08575;6.59;14.42;7.03529512;9;117
60;paravance-14.rennes.grid5000.fr;thermos-root-devel-WordCountTopology-2-937da4ec-d605-4363-a545-e4f56fd94b25;["container_2_Emit_random_words_2"];1.25;1533224153.30186;113.14;398.61;444.611514171;10;149
60;paravance-1.rennes.grid5000.fr;thermos-root-devel-WordCountTopology-1-a01bf706-bf9d-4599-ba25-8f0fb4824db0;["container_1_Consume_and_count_1"];1.25;1533224153.3099;173.16;656.45;1658.954889588;10;151
60;paravance-3.rennes.grid5000.fr;thermos-root-devel-WordCountTopology-0-7079e5dc-5da2-462a-8218-6eb446fc656b;["topology_master"];1.25;1533224153.30161;6.68;14.54;7.03529512;9;117
