mesure_id;slave_id;executor_id;heron_instances;cpus_limit;timestamp_B;cpus_system_time_secs_B;cpus_user_time_secs_B;cpus_throttled_time_secs_B;processes;threads
0;paravance-37.rennes.grid5000.fr;thermos-root-devel-WordCountTopology-0-89fe5494-c951-4b0a-864a-85e1f16287b8;["topology_master"];3.25;1533056491.36858;2.43;7.91;0.246673708;9;117
0;paravance-38.rennes.grid5000.fr;thermos-root-devel-WordCountTopology-1-1f156107-7dd6-4617-bf60-c31c1088e192;["container_1_Consume_and_count_1"];3.25;1533056491.57641;72.07;248.05;62.604689481;10;151
0;paravance-63.rennes.grid5000.fr;thermos-root-devel-WordCountTopology-2-e02c21a4-7ba5-4050-a2cc-e100c8b5e7fd;["container_2_Emit_random_words_2"];3.25;1533056491.44961;40.6;166.35;7.846717839;10;149
1;paravance-38.rennes.grid5000.fr;thermos-root-devel-WordCountTopology-1-1f156107-7dd6-4617-bf60-c31c1088e192;["container_1_Consume_and_count_1"];3.25;1533056501.79262;78.76;272.95;72.799329567;10;151
1;paravance-63.rennes.grid5000.fr;thermos-root-devel-WordCountTopology-2-e02c21a4-7ba5-4050-a2cc-e100c8b5e7fd;["container_2_Emit_random_words_2"];3.25;1533056501.66589;44.18;180.93;7.846717839;10;149
1;paravance-37.rennes.grid5000.fr;thermos-root-devel-WordCountTopology-0-89fe5494-c951-4b0a-864a-85e1f16287b8;["topology_master"];3.25;1533056501.68059;2.52;8.05;0.246673708;9;117
2;paravance-38.rennes.grid5000.fr;thermos-root-devel-WordCountTopology-1-1f156107-7dd6-4617-bf60-c31c1088e192;["container_1_Consume_and_count_1"];3.25;1533056512.008;84.9;297.05;81.576601824;10;151
2;paravance-63.rennes.grid5000.fr;thermos-root-devel-WordCountTopology-2-e02c21a4-7ba5-4050-a2cc-e100c8b5e7fd;["container_2_Emit_random_words_2"];3.25;1533056511.88331;47.53;194.41;7.846717839;10;149
2;paravance-37.rennes.grid5000.fr;thermos-root-devel-WordCountTopology-0-89fe5494-c951-4b0a-864a-85e1f16287b8;["topology_master"];3.25;1533056511.89159;2.58;8.14;0.246673708;9;117
3;paravance-38.rennes.grid5000.fr;thermos-root-devel-WordCountTopology-1-1f156107-7dd6-4617-bf60-c31c1088e192;["container_1_Consume_and_count_1"];3.25;1533056522.22433;92.02;321.36;86.231462003;10;151
3;paravance-37.rennes.grid5000.fr;thermos-root-devel-WordCountTopology-0-89fe5494-c951-4b0a-864a-85e1f16287b8;["topology_master"];3.25;1533056522.10152;2.64;8.21;0.246673708;9;117
3;paravance-63.rennes.grid5000.fr;thermos-root-devel-WordCountTopology-2-e02c21a4-7ba5-4050-a2cc-e100c8b5e7fd;["container_2_Emit_random_words_2"];3.25;1533056522.10084;51.5;210.39;7.846717839;10;149
4;paravance-63.rennes.grid5000.fr;thermos-root-devel-WordCountTopology-2-e02c21a4-7ba5-4050-a2cc-e100c8b5e7fd;["container_2_Emit_random_words_2"];3.25;1533056532.31609;55.43;226.4;7.846717839;10;149
4;paravance-37.rennes.grid5000.fr;thermos-root-devel-WordCountTopology-0-89fe5494-c951-4b0a-864a-85e1f16287b8;["topology_master"];3.25;1533056532.31744;2.7;8.28;0.246673708;9;117
4;paravance-38.rennes.grid5000.fr;thermos-root-devel-WordCountTopology-1-1f156107-7dd6-4617-bf60-c31c1088e192;["container_1_Consume_and_count_1"];3.25;1533056532.44464;99.17;345.85;91.289855107;10;151
5;paravance-63.rennes.grid5000.fr;thermos-root-devel-WordCountTopology-2-e02c21a4-7ba5-4050-a2cc-e100c8b5e7fd;["container_2_Emit_random_words_2"];3.25;1533056542.53339;59.28;242.12;7.852467329;10;149
5;paravance-38.rennes.grid5000.fr;thermos-root-devel-WordCountTopology-1-1f156107-7dd6-4617-bf60-c31c1088e192;["container_1_Consume_and_count_1"];3.25;1533056542.66037;106.17;370.5;97.14835698;10;151
5;paravance-37.rennes.grid5000.fr;thermos-root-devel-WordCountTopology-0-89fe5494-c951-4b0a-864a-85e1f16287b8;["topology_master"];3.25;1533056542.53468;2.83;8.51;0.246673708;9;117
6;paravance-38.rennes.grid5000.fr;thermos-root-devel-WordCountTopology-1-1f156107-7dd6-4617-bf60-c31c1088e192;["container_1_Consume_and_count_1"];3.25;1533056552.87476;112.87;395.38;104.979201984;10;151
6;paravance-63.rennes.grid5000.fr;thermos-root-devel-WordCountTopology-2-e02c21a4-7ba5-4050-a2cc-e100c8b5e7fd;["container_2_Emit_random_words_2"];3.25;1533056552.75042;62.94;256.87;7.852467329;10;149
6;paravance-37.rennes.grid5000.fr;thermos-root-devel-WordCountTopology-0-89fe5494-c951-4b0a-864a-85e1f16287b8;["topology_master"];3.25;1533056552.75097;2.86;8.55;0.246673708;9;117
7;paravance-38.rennes.grid5000.fr;thermos-root-devel-WordCountTopology-1-1f156107-7dd6-4617-bf60-c31c1088e192;["container_1_Consume_and_count_1"];3.25;1533056563.09117;119.98;419.71;110.29397387;10;151
7;paravance-63.rennes.grid5000.fr;thermos-root-devel-WordCountTopology-2-e02c21a4-7ba5-4050-a2cc-e100c8b5e7fd;["container_2_Emit_random_words_2"];3.25;1533056562.96728;66.87;273.09;7.852467329;10;149
7;paravance-37.rennes.grid5000.fr;thermos-root-devel-WordCountTopology-0-89fe5494-c951-4b0a-864a-85e1f16287b8;["topology_master"];3.25;1533056562.96885;2.95;8.68;0.246673708;9;117
8;paravance-37.rennes.grid5000.fr;thermos-root-devel-WordCountTopology-0-89fe5494-c951-4b0a-864a-85e1f16287b8;["topology_master"];3.25;1533056573.08539;3.01;8.75;0.246673708;9;117
8;paravance-38.rennes.grid5000.fr;thermos-root-devel-WordCountTopology-1-1f156107-7dd6-4617-bf60-c31c1088e192;["container_1_Consume_and_count_1"];3.25;1533056573.30742;127.0;444.41;115.0145398;10;151
8;paravance-63.rennes.grid5000.fr;thermos-root-devel-WordCountTopology-2-e02c21a4-7ba5-4050-a2cc-e100c8b5e7fd;["container_2_Emit_random_words_2"];3.25;1533056573.1835;70.83;288.87;7.852467329;10;149
9;paravance-63.rennes.grid5000.fr;thermos-root-devel-WordCountTopology-2-e02c21a4-7ba5-4050-a2cc-e100c8b5e7fd;["container_2_Emit_random_words_2"];3.25;1533056583.29826;74.64;304.31;7.852467329;10;149
9;paravance-38.rennes.grid5000.fr;thermos-root-devel-WordCountTopology-1-1f156107-7dd6-4617-bf60-c31c1088e192;["container_1_Consume_and_count_1"];3.25;1533056583.524;134.02;468.72;120.149200984;10;151
9;paravance-37.rennes.grid5000.fr;thermos-root-devel-WordCountTopology-0-89fe5494-c951-4b0a-864a-85e1f16287b8;["topology_master"];3.25;1533056583.39846;3.07;8.83;0.246673708;9;117
10;paravance-63.rennes.grid5000.fr;thermos-root-devel-WordCountTopology-2-e02c21a4-7ba5-4050-a2cc-e100c8b5e7fd;["container_2_Emit_random_words_2"];3.25;1533056593.61381;78.46;320.37;7.852467329;10;149
10;paravance-38.rennes.grid5000.fr;thermos-root-devel-WordCountTopology-1-1f156107-7dd6-4617-bf60-c31c1088e192;["container_1_Consume_and_count_1"];3.25;1533056593.74103;141.14;493.16;125.434687086;10;151
10;paravance-37.rennes.grid5000.fr;thermos-root-devel-WordCountTopology-0-89fe5494-c951-4b0a-864a-85e1f16287b8;["topology_master"];3.25;1533056593.61453;3.13;8.9;0.246673708;9;117
11;paravance-38.rennes.grid5000.fr;thermos-root-devel-WordCountTopology-1-1f156107-7dd6-4617-bf60-c31c1088e192;["container_1_Consume_and_count_1"];3.25;1533056603.95754;148.14;517.79;130.76498014;10;151
11;paravance-63.rennes.grid5000.fr;thermos-root-devel-WordCountTopology-2-e02c21a4-7ba5-4050-a2cc-e100c8b5e7fd;["container_2_Emit_random_words_2"];3.25;1533056603.83361;82.42;335.94;7.85934031;10;149
11;paravance-37.rennes.grid5000.fr;thermos-root-devel-WordCountTopology-0-89fe5494-c951-4b0a-864a-85e1f16287b8;["topology_master"];3.25;1533056603.83528;3.26;9.19;0.246673708;9;117
12;paravance-38.rennes.grid5000.fr;thermos-root-devel-WordCountTopology-1-1f156107-7dd6-4617-bf60-c31c1088e192;["container_1_Consume_and_count_1"];3.25;1533056614.1749;155.29;541.94;134.722745264;10;151
12;paravance-63.rennes.grid5000.fr;thermos-root-devel-WordCountTopology-2-e02c21a4-7ba5-4050-a2cc-e100c8b5e7fd;["container_2_Emit_random_words_2"];3.25;1533056614.0502;86.39;352.62;7.85934031;10;149
12;paravance-37.rennes.grid5000.fr;thermos-root-devel-WordCountTopology-0-89fe5494-c951-4b0a-864a-85e1f16287b8;["topology_master"];3.25;1533056614.05112;3.29;9.22;0.246673708;9;117
13;paravance-38.rennes.grid5000.fr;thermos-root-devel-WordCountTopology-1-1f156107-7dd6-4617-bf60-c31c1088e192;["container_1_Consume_and_count_1"];3.25;1533056624.39173;162.19;566.77;142.518633348;10;151
13;paravance-63.rennes.grid5000.fr;thermos-root-devel-WordCountTopology-2-e02c21a4-7ba5-4050-a2cc-e100c8b5e7fd;["container_2_Emit_random_words_2"];3.25;1533056624.26784;90.12;367.5;7.85934031;10;149
13;paravance-37.rennes.grid5000.fr;thermos-root-devel-WordCountTopology-0-89fe5494-c951-4b0a-864a-85e1f16287b8;["topology_master"];3.25;1533056624.26889;3.38;9.36;0.246673708;9;117
14;paravance-38.rennes.grid5000.fr;thermos-root-devel-WordCountTopology-1-1f156107-7dd6-4617-bf60-c31c1088e192;["container_1_Consume_and_count_1"];3.25;1533056634.6111;169.18;591.37;146.861797419;10;151
14;paravance-63.rennes.grid5000.fr;thermos-root-devel-WordCountTopology-2-e02c21a4-7ba5-4050-a2cc-e100c8b5e7fd;["container_2_Emit_random_words_2"];3.25;1533056634.4848;94.12;384.04;7.85934031;10;149
14;paravance-37.rennes.grid5000.fr;thermos-root-devel-WordCountTopology-0-89fe5494-c951-4b0a-864a-85e1f16287b8;["topology_master"];3.25;1533056634.48627;3.44;9.44;0.246673708;9;117
15;paravance-63.rennes.grid5000.fr;thermos-root-devel-WordCountTopology-2-e02c21a4-7ba5-4050-a2cc-e100c8b5e7fd;["container_2_Emit_random_words_2"];3.25;1533056644.70071;98.01;400.2;7.85934031;10;149
15;paravance-37.rennes.grid5000.fr;thermos-root-devel-WordCountTopology-0-89fe5494-c951-4b0a-864a-85e1f16287b8;["topology_master"];3.25;1533056644.70276;3.5;9.52;0.246673708;9;117
15;paravance-38.rennes.grid5000.fr;thermos-root-devel-WordCountTopology-1-1f156107-7dd6-4617-bf60-c31c1088e192;["container_1_Consume_and_count_1"];3.25;1533056644.82854;176.19;615.82;152.087511906;10;151
16;paravance-38.rennes.grid5000.fr;thermos-root-devel-WordCountTopology-1-1f156107-7dd6-4617-bf60-c31c1088e192;["container_1_Consume_and_count_1"];3.25;1533056655.04481;183.04;640.48;159.66159369;10;151
16;paravance-63.rennes.grid5000.fr;thermos-root-devel-WordCountTopology-2-e02c21a4-7ba5-4050-a2cc-e100c8b5e7fd;["container_2_Emit_random_words_2"];3.25;1533056654.91887;101.63;415.08;7.85934031;10;149
16;paravance-37.rennes.grid5000.fr;thermos-root-devel-WordCountTopology-0-89fe5494-c951-4b0a-864a-85e1f16287b8;["topology_master"];3.25;1533056654.92052;3.56;9.6;0.246673708;9;117
17;paravance-63.rennes.grid5000.fr;thermos-root-devel-WordCountTopology-2-e02c21a4-7ba5-4050-a2cc-e100c8b5e7fd;["container_2_Emit_random_words_2"];3.25;1533056665.13622;105.38;430.56;7.868951583;10;149
17;paravance-38.rennes.grid5000.fr;thermos-root-devel-WordCountTopology-1-1f156107-7dd6-4617-bf60-c31c1088e192;["container_1_Consume_and_count_1"];3.25;1533056665.26229;189.89;665.4;167.229248606;10;151
17;paravance-37.rennes.grid5000.fr;thermos-root-devel-WordCountTopology-0-89fe5494-c951-4b0a-864a-85e1f16287b8;["topology_master"];3.25;1533056665.13706;3.68;9.8;0.246673708;9;117
18;paravance-38.rennes.grid5000.fr;thermos-root-devel-WordCountTopology-1-1f156107-7dd6-4617-bf60-c31c1088e192;["container_1_Consume_and_count_1"];3.25;1533056675.48033;196.09;689.28;175.683950078;10;151
18;paravance-63.rennes.grid5000.fr;thermos-root-devel-WordCountTopology-2-e02c21a4-7ba5-4050-a2cc-e100c8b5e7fd;["container_2_Emit_random_words_2"];3.25;1533056675.35553;108.58;443.8;7.868951583;10;149
18;paravance-37.rennes.grid5000.fr;thermos-root-devel-WordCountTopology-0-89fe5494-c951-4b0a-864a-85e1f16287b8;["topology_master"];3.25;1533056675.35584;3.7;9.82;0.246673708;9;117
19;paravance-38.rennes.grid5000.fr;thermos-root-devel-WordCountTopology-1-1f156107-7dd6-4617-bf60-c31c1088e192;["container_1_Consume_and_count_1"];3.25;1533056685.69586;203.15;713.58;180.281544097;10;151
19;paravance-37.rennes.grid5000.fr;thermos-root-devel-WordCountTopology-0-89fe5494-c951-4b0a-864a-85e1f16287b8;["topology_master"];3.25;1533056685.5724;3.8;9.96;0.246673708;9;117
19;paravance-63.rennes.grid5000.fr;thermos-root-devel-WordCountTopology-2-e02c21a4-7ba5-4050-a2cc-e100c8b5e7fd;["container_2_Emit_random_words_2"];3.25;1533056685.57234;112.57;460.19;7.868951583;10;149
20;paravance-38.rennes.grid5000.fr;thermos-root-devel-WordCountTopology-1-1f156107-7dd6-4617-bf60-c31c1088e192;["container_1_Consume_and_count_1"];3.25;1533056695.91196;210.19;738.14;183.742355014;10;151
20;paravance-63.rennes.grid5000.fr;thermos-root-devel-WordCountTopology-2-e02c21a4-7ba5-4050-a2cc-e100c8b5e7fd;["container_2_Emit_random_words_2"];3.25;1533056695.78774;116.62;476.62;7.868951583;10;149
20;paravance-37.rennes.grid5000.fr;thermos-root-devel-WordCountTopology-0-89fe5494-c951-4b0a-864a-85e1f16287b8;["topology_master"];3.25;1533056695.7907;3.85;10.03;0.246673708;9;117
21;paravance-38.rennes.grid5000.fr;thermos-root-devel-WordCountTopology-1-1f156107-7dd6-4617-bf60-c31c1088e192;["container_1_Consume_and_count_1"];3.25;1533056706.13068;217.19;762.64;187.157228126;10;151
21;paravance-37.rennes.grid5000.fr;thermos-root-devel-WordCountTopology-0-89fe5494-c951-4b0a-864a-85e1f16287b8;["topology_master"];3.25;1533056706.00635;3.92;10.12;0.246673708;9;117
21;paravance-63.rennes.grid5000.fr;thermos-root-devel-WordCountTopology-2-e02c21a4-7ba5-4050-a2cc-e100c8b5e7fd;["container_2_Emit_random_words_2"];3.25;1533056706.00529;120.76;493.52;7.868951583;10;149
22;paravance-38.rennes.grid5000.fr;thermos-root-devel-WordCountTopology-1-1f156107-7dd6-4617-bf60-c31c1088e192;["container_1_Consume_and_count_1"];3.25;1533056716.34924;224.36;787.2;191.163914956;10;151
22;paravance-63.rennes.grid5000.fr;thermos-root-devel-WordCountTopology-2-e02c21a4-7ba5-4050-a2cc-e100c8b5e7fd;["container_2_Emit_random_words_2"];3.25;1533056716.22556;124.72;509.54;7.868951583;10;149
22;paravance-37.rennes.grid5000.fr;thermos-root-devel-WordCountTopology-0-89fe5494-c951-4b0a-864a-85e1f16287b8;["topology_master"];3.25;1533056716.22724;3.98;10.19;0.246673708;9;117
23;paravance-38.rennes.grid5000.fr;thermos-root-devel-WordCountTopology-1-1f156107-7dd6-4617-bf60-c31c1088e192;["container_1_Consume_and_count_1"];3.25;1533056726.56563;231.0;812.38;200.037693066;10;151
23;paravance-63.rennes.grid5000.fr;thermos-root-devel-WordCountTopology-2-e02c21a4-7ba5-4050-a2cc-e100c8b5e7fd;["container_2_Emit_random_words_2"];3.25;1533056726.44262;128.54;524.89;7.868951583;10;149
23;paravance-37.rennes.grid5000.fr;thermos-root-devel-WordCountTopology-0-89fe5494-c951-4b0a-864a-85e1f16287b8;["topology_master"];3.25;1533056726.44371;4.09;10.38;0.246673708;9;117
24;paravance-38.rennes.grid5000.fr;thermos-root-devel-WordCountTopology-1-1f156107-7dd6-4617-bf60-c31c1088e192;["container_1_Consume_and_count_1"];3.25;1533056736.78505;235.95;839.03;216.220030982;10;151
24;paravance-37.rennes.grid5000.fr;thermos-root-devel-WordCountTopology-0-89fe5494-c951-4b0a-864a-85e1f16287b8;["topology_master"];3.25;1533056736.66187;4.12;10.41;0.246673708;9;117
24;paravance-63.rennes.grid5000.fr;thermos-root-devel-WordCountTopology-2-e02c21a4-7ba5-4050-a2cc-e100c8b5e7fd;["container_2_Emit_random_words_2"];3.25;1533056736.66188;131.44;537.24;7.868951583;10;149
25;paravance-38.rennes.grid5000.fr;thermos-root-devel-WordCountTopology-1-1f156107-7dd6-4617-bf60-c31c1088e192;["container_1_Consume_and_count_1"];3.25;1533056747.00102;242.58;863.92;225.820482615;10;151
25;paravance-63.rennes.grid5000.fr;thermos-root-devel-WordCountTopology-2-e02c21a4-7ba5-4050-a2cc-e100c8b5e7fd;["container_2_Emit_random_words_2"];3.25;1533056746.87434;135.02;551.51;7.868951583;10;149
25;paravance-37.rennes.grid5000.fr;thermos-root-devel-WordCountTopology-0-89fe5494-c951-4b0a-864a-85e1f16287b8;["topology_master"];3.25;1533056746.87725;4.21;10.54;0.246673708;9;117
26;paravance-37.rennes.grid5000.fr;thermos-root-devel-WordCountTopology-0-89fe5494-c951-4b0a-864a-85e1f16287b8;["topology_master"];3.25;1533056756.99385;4.26;10.6;0.246673708;9;117
26;paravance-63.rennes.grid5000.fr;thermos-root-devel-WordCountTopology-2-e02c21a4-7ba5-4050-a2cc-e100c8b5e7fd;["container_2_Emit_random_words_2"];3.25;1533056757.09238;138.61;565.62;7.868951583;10;149
26;paravance-38.rennes.grid5000.fr;thermos-root-devel-WordCountTopology-1-1f156107-7dd6-4617-bf60-c31c1088e192;["container_1_Consume_and_count_1"];3.25;1533056757.21874;249.4;888.85;234.767175456;10;151
27;paravance-63.rennes.grid5000.fr;thermos-root-devel-WordCountTopology-2-e02c21a4-7ba5-4050-a2cc-e100c8b5e7fd;["container_2_Emit_random_words_2"];3.25;1533056767.30832;142.41;580.69;7.868951583;10;149
27;paravance-38.rennes.grid5000.fr;thermos-root-devel-WordCountTopology-1-1f156107-7dd6-4617-bf60-c31c1088e192;["container_1_Consume_and_count_1"];3.25;1533056767.43611;256.47;913.37;243.35599687;10;151
27;paravance-37.rennes.grid5000.fr;thermos-root-devel-WordCountTopology-0-89fe5494-c951-4b0a-864a-85e1f16287b8;["topology_master"];3.25;1533056767.30998;4.32;10.68;0.246673708;9;117
28;paravance-63.rennes.grid5000.fr;thermos-root-devel-WordCountTopology-2-e02c21a4-7ba5-4050-a2cc-e100c8b5e7fd;["container_2_Emit_random_words_2"];3.25;1533056777.52331;146.2;596.06;7.868951583;10;149
28;paravance-38.rennes.grid5000.fr;thermos-root-devel-WordCountTopology-1-1f156107-7dd6-4617-bf60-c31c1088e192;["container_1_Consume_and_count_1"];3.25;1533056777.64953;263.49;938.17;249.131834892;10;151
28;paravance-37.rennes.grid5000.fr;thermos-root-devel-WordCountTopology-0-89fe5494-c951-4b0a-864a-85e1f16287b8;["topology_master"];3.25;1533056777.52509;4.42;10.8;0.246673708;9;115
29;paravance-38.rennes.grid5000.fr;thermos-root-devel-WordCountTopology-1-1f156107-7dd6-4617-bf60-c31c1088e192;["container_1_Consume_and_count_1"];3.25;1533056787.86528;270.48;962.83;255.224052061;10;151
29;paravance-63.rennes.grid5000.fr;thermos-root-devel-WordCountTopology-2-e02c21a4-7ba5-4050-a2cc-e100c8b5e7fd;["container_2_Emit_random_words_2"];3.25;1533056787.73741;149.99;611.2;7.868951583;10;149
29;paravance-37.rennes.grid5000.fr;thermos-root-devel-WordCountTopology-0-89fe5494-c951-4b0a-864a-85e1f16287b8;["topology_master"];3.25;1533056787.73996;4.49;10.96;0.246673708;9;117
30;paravance-38.rennes.grid5000.fr;thermos-root-devel-WordCountTopology-1-1f156107-7dd6-4617-bf60-c31c1088e192;["container_1_Consume_and_count_1"];3.25;1533056798.08003;277.37;987.7;260.109225837;10;151
30;paravance-63.rennes.grid5000.fr;thermos-root-devel-WordCountTopology-2-e02c21a4-7ba5-4050-a2cc-e100c8b5e7fd;["container_2_Emit_random_words_2"];3.25;1533056797.95379;153.86;627.08;7.868951583;10;149
30;paravance-37.rennes.grid5000.fr;thermos-root-devel-WordCountTopology-0-89fe5494-c951-4b0a-864a-85e1f16287b8;["topology_master"];3.25;1533056797.95747;4.56;11.03;0.246673708;9;117
31;paravance-38.rennes.grid5000.fr;thermos-root-devel-WordCountTopology-1-1f156107-7dd6-4617-bf60-c31c1088e192;["container_1_Consume_and_count_1"];3.25;1533056808.29423;284.56;1012.01;266.70377097;10;151
31;paravance-63.rennes.grid5000.fr;thermos-root-devel-WordCountTopology-2-e02c21a4-7ba5-4050-a2cc-e100c8b5e7fd;["container_2_Emit_random_words_2"];3.25;1533056808.17096;157.59;641.96;7.868951583;10;149
31;paravance-37.rennes.grid5000.fr;thermos-root-devel-WordCountTopology-0-89fe5494-c951-4b0a-864a-85e1f16287b8;["topology_master"];3.25;1533056808.1734;4.61;11.11;0.246673708;9;117
32;paravance-38.rennes.grid5000.fr;thermos-root-devel-WordCountTopology-1-1f156107-7dd6-4617-bf60-c31c1088e192;["container_1_Consume_and_count_1"];3.25;1533056818.51226;292.03;1036.18;271.710173964;10;151
32;paravance-63.rennes.grid5000.fr;thermos-root-devel-WordCountTopology-2-e02c21a4-7ba5-4050-a2cc-e100c8b5e7fd;["container_2_Emit_random_words_2"];3.25;1533056818.38712;161.55;658.41;7.868951583;10;149
32;paravance-37.rennes.grid5000.fr;thermos-root-devel-WordCountTopology-0-89fe5494-c951-4b0a-864a-85e1f16287b8;["topology_master"];3.25;1533056818.38768;4.7;11.23;0.246673708;9;117
33;paravance-38.rennes.grid5000.fr;thermos-root-devel-WordCountTopology-1-1f156107-7dd6-4617-bf60-c31c1088e192;["container_1_Consume_and_count_1"];3.25;1533056828.72999;299.54;1060.2;275.719950101;10;151
33;paravance-63.rennes.grid5000.fr;thermos-root-devel-WordCountTopology-2-e02c21a4-7ba5-4050-a2cc-e100c8b5e7fd;["container_2_Emit_random_words_2"];3.25;1533056828.60421;165.57;674.73;7.868951583;10;149
33;paravance-37.rennes.grid5000.fr;thermos-root-devel-WordCountTopology-0-89fe5494-c951-4b0a-864a-85e1f16287b8;["topology_master"];3.25;1533056828.60646;4.73;11.25;0.246673708;9;117
34;paravance-38.rennes.grid5000.fr;thermos-root-devel-WordCountTopology-1-1f156107-7dd6-4617-bf60-c31c1088e192;["container_1_Consume_and_count_1"];3.25;1533056838.94616;306.73;1084.7;280.755091875;10;151
34;paravance-63.rennes.grid5000.fr;thermos-root-devel-WordCountTopology-2-e02c21a4-7ba5-4050-a2cc-e100c8b5e7fd;["container_2_Emit_random_words_2"];3.25;1533056838.8221;169.59;690.57;7.868951583;10;149
34;paravance-37.rennes.grid5000.fr;thermos-root-devel-WordCountTopology-0-89fe5494-c951-4b0a-864a-85e1f16287b8;["topology_master"];3.25;1533056838.82327;4.83;11.38;0.246673708;9;117
35;paravance-63.rennes.grid5000.fr;thermos-root-devel-WordCountTopology-2-e02c21a4-7ba5-4050-a2cc-e100c8b5e7fd;["container_2_Emit_random_words_2"];3.25;1533056849.03655;173.32;705.7;7.868951583;10;149
35;paravance-38.rennes.grid5000.fr;thermos-root-devel-WordCountTopology-1-1f156107-7dd6-4617-bf60-c31c1088e192;["container_1_Consume_and_count_1"];3.25;1533056849.16342;313.56;1109.54;287.419726855;10;151
35;paravance-37.rennes.grid5000.fr;thermos-root-devel-WordCountTopology-0-89fe5494-c951-4b0a-864a-85e1f16287b8;["topology_master"];3.25;1533056849.03819;4.89;11.51;0.246673708;9;117
36;paravance-63.rennes.grid5000.fr;thermos-root-devel-WordCountTopology-2-e02c21a4-7ba5-4050-a2cc-e100c8b5e7fd;["container_2_Emit_random_words_2"];3.25;1533056859.25239;177.48;722.39;7.868951583;10;149
36;paravance-37.rennes.grid5000.fr;thermos-root-devel-WordCountTopology-0-89fe5494-c951-4b0a-864a-85e1f16287b8;["topology_master"];3.25;1533056859.25286;4.98;11.64;0.246673708;9;117
36;paravance-38.rennes.grid5000.fr;thermos-root-devel-WordCountTopology-1-1f156107-7dd6-4617-bf60-c31c1088e192;["container_1_Consume_and_count_1"];3.25;1533056859.37963;320.89;1133.88;291.634487331;10;151
37;paravance-38.rennes.grid5000.fr;thermos-root-devel-WordCountTopology-1-1f156107-7dd6-4617-bf60-c31c1088e192;["container_1_Consume_and_count_1"];3.25;1533056869.5952;328.09;1158.07;295.933545181;10;151
37;paravance-63.rennes.grid5000.fr;thermos-root-devel-WordCountTopology-2-e02c21a4-7ba5-4050-a2cc-e100c8b5e7fd;["container_2_Emit_random_words_2"];3.25;1533056869.4713;181.45;738.38;7.868951583;10;149
37;paravance-37.rennes.grid5000.fr;thermos-root-devel-WordCountTopology-0-89fe5494-c951-4b0a-864a-85e1f16287b8;["topology_master"];3.25;1533056869.47124;5.01;11.66;0.246673708;9;117
38;paravance-37.rennes.grid5000.fr;thermos-root-devel-WordCountTopology-0-89fe5494-c951-4b0a-864a-85e1f16287b8;["topology_master"];3.25;1533056879.68713;5.09;11.78;0.246673708;9;117
38;paravance-38.rennes.grid5000.fr;thermos-root-devel-WordCountTopology-1-1f156107-7dd6-4617-bf60-c31c1088e192;["container_1_Consume_and_count_1"];3.25;1533056879.81179;335.05;1182.77;301.656570024;10;151
38;paravance-63.rennes.grid5000.fr;thermos-root-devel-WordCountTopology-2-e02c21a4-7ba5-4050-a2cc-e100c8b5e7fd;["container_2_Emit_random_words_2"];3.25;1533056879.68776;185.24;754.09;7.868951583;10;149
39;paravance-38.rennes.grid5000.fr;thermos-root-devel-WordCountTopology-1-1f156107-7dd6-4617-bf60-c31c1088e192;["container_1_Consume_and_count_1"];3.25;1533056890.02835;342.25;1207.32;307.302010983;10;151
39;paravance-63.rennes.grid5000.fr;thermos-root-devel-WordCountTopology-2-e02c21a4-7ba5-4050-a2cc-e100c8b5e7fd;["container_2_Emit_random_words_2"];3.25;1533056889.9022;189.11;769.45;7.868951583;10;149
39;paravance-37.rennes.grid5000.fr;thermos-root-devel-WordCountTopology-0-89fe5494-c951-4b0a-864a-85e1f16287b8;["topology_master"];3.25;1533056889.90538;5.15;11.85;0.246673708;9;117
40;paravance-38.rennes.grid5000.fr;thermos-root-devel-WordCountTopology-1-1f156107-7dd6-4617-bf60-c31c1088e192;["container_1_Consume_and_count_1"];3.25;1533056900.24348;349.41;1231.99;312.727310122;10;151
40;paravance-63.rennes.grid5000.fr;thermos-root-devel-WordCountTopology-2-e02c21a4-7ba5-4050-a2cc-e100c8b5e7fd;["container_2_Emit_random_words_2"];3.25;1533056900.11946;192.95;785.09;7.868951583;10;149
40;paravance-37.rennes.grid5000.fr;thermos-root-devel-WordCountTopology-0-89fe5494-c951-4b0a-864a-85e1f16287b8;["topology_master"];3.25;1533056900.12249;5.22;11.94;0.246673708;9;117
41;paravance-63.rennes.grid5000.fr;thermos-root-devel-WordCountTopology-2-e02c21a4-7ba5-4050-a2cc-e100c8b5e7fd;["container_2_Emit_random_words_2"];3.25;1533056910.33504;196.76;800.61;7.868951583;10;149
41;paravance-38.rennes.grid5000.fr;thermos-root-devel-WordCountTopology-1-1f156107-7dd6-4617-bf60-c31c1088e192;["container_1_Consume_and_count_1"];3.25;1533056910.46312;356.66;1256.45;317.712011272;10;151
41;paravance-37.rennes.grid5000.fr;thermos-root-devel-WordCountTopology-0-89fe5494-c951-4b0a-864a-85e1f16287b8;["topology_master"];3.25;1533056910.33824;5.28;12.07;0.246673708;9;117
42;paravance-63.rennes.grid5000.fr;thermos-root-devel-WordCountTopology-2-e02c21a4-7ba5-4050-a2cc-e100c8b5e7fd;["container_2_Emit_random_words_2"];3.25;1533056920.55336;200.43;815.61;7.868951583;10;149
42;paravance-37.rennes.grid5000.fr;thermos-root-devel-WordCountTopology-0-89fe5494-c951-4b0a-864a-85e1f16287b8;["topology_master"];3.25;1533056920.5552;5.37;12.2;0.246673708;9;117
42;paravance-38.rennes.grid5000.fr;thermos-root-devel-WordCountTopology-1-1f156107-7dd6-4617-bf60-c31c1088e192;["container_1_Consume_and_count_1"];3.25;1533056920.68002;363.72;1281.21;324.512511046;10;151
43;paravance-63.rennes.grid5000.fr;thermos-root-devel-WordCountTopology-2-e02c21a4-7ba5-4050-a2cc-e100c8b5e7fd;["container_2_Emit_random_words_2"];3.25;1533056930.76921;204.34;831.39;7.868951583;10;149
43;paravance-37.rennes.grid5000.fr;thermos-root-devel-WordCountTopology-0-89fe5494-c951-4b0a-864a-85e1f16287b8;["topology_master"];3.25;1533056930.77052;5.4;12.23;0.246673708;9;117
43;paravance-38.rennes.grid5000.fr;thermos-root-devel-WordCountTopology-1-1f156107-7dd6-4617-bf60-c31c1088e192;["container_1_Consume_and_count_1"];3.25;1533056930.89536;370.96;1305.73;329.460236845;10;151
44;paravance-38.rennes.grid5000.fr;thermos-root-devel-WordCountTopology-1-1f156107-7dd6-4617-bf60-c31c1088e192;["container_1_Consume_and_count_1"];3.25;1533056941.11283;378.45;1330.02;333.893646908;10;151
44;paravance-37.rennes.grid5000.fr;thermos-root-devel-WordCountTopology-0-89fe5494-c951-4b0a-864a-85e1f16287b8;["topology_master"];3.25;1533056940.98879;5.48;12.34;0.246673708;9;117
44;paravance-63.rennes.grid5000.fr;thermos-root-devel-WordCountTopology-2-e02c21a4-7ba5-4050-a2cc-e100c8b5e7fd;["container_2_Emit_random_words_2"];3.25;1533056940.98815;208.25;847.22;7.868951583;10;149
45;paravance-38.rennes.grid5000.fr;thermos-root-devel-WordCountTopology-1-1f156107-7dd6-4617-bf60-c31c1088e192;["container_1_Consume_and_count_1"];3.25;1533056951.32651;385.39;1354.74;340.691468782;10;151
45;paravance-63.rennes.grid5000.fr;thermos-root-devel-WordCountTopology-2-e02c21a4-7ba5-4050-a2cc-e100c8b5e7fd;["container_2_Emit_random_words_2"];3.25;1533056951.20129;211.86;862.19;7.868951583;10;149
45;paravance-37.rennes.grid5000.fr;thermos-root-devel-WordCountTopology-0-89fe5494-c951-4b0a-864a-85e1f16287b8;["topology_master"];3.25;1533056951.20379;5.54;12.42;0.246673708;9;117
46;paravance-63.rennes.grid5000.fr;thermos-root-devel-WordCountTopology-2-e02c21a4-7ba5-4050-a2cc-e100c8b5e7fd;["container_2_Emit_random_words_2"];3.25;1533056961.4177;215.37;875.97;7.868951583;10;149
46;paravance-38.rennes.grid5000.fr;thermos-root-devel-WordCountTopology-1-1f156107-7dd6-4617-bf60-c31c1088e192;["container_1_Consume_and_count_1"];3.25;1533056961.54621;391.9;1379.9;350.188178595;10;151
46;paravance-37.rennes.grid5000.fr;thermos-root-devel-WordCountTopology-0-89fe5494-c951-4b0a-864a-85e1f16287b8;["topology_master"];3.25;1533056961.41939;5.61;12.5;0.246673708;9;117
47;paravance-38.rennes.grid5000.fr;thermos-root-devel-WordCountTopology-1-1f156107-7dd6-4617-bf60-c31c1088e192;["container_1_Consume_and_count_1"];3.25;1533056971.76184;399.05;1404.57;354.922803329;10;151
47;paravance-63.rennes.grid5000.fr;thermos-root-devel-WordCountTopology-2-e02c21a4-7ba5-4050-a2cc-e100c8b5e7fd;["container_2_Emit_random_words_2"];3.25;1533056971.63547;219.38;892.45;7.868951583;10;149
47;paravance-37.rennes.grid5000.fr;thermos-root-devel-WordCountTopology-0-89fe5494-c951-4b0a-864a-85e1f16287b8;["topology_master"];3.25;1533056971.63748;5.67;12.63;0.246673708;9;117
48;paravance-63.rennes.grid5000.fr;thermos-root-devel-WordCountTopology-2-e02c21a4-7ba5-4050-a2cc-e100c8b5e7fd;["container_2_Emit_random_words_2"];3.25;1533056981.8528;223.28;907.55;7.868951583;10;149
48;paravance-38.rennes.grid5000.fr;thermos-root-devel-WordCountTopology-1-1f156107-7dd6-4617-bf60-c31c1088e192;["container_1_Consume_and_count_1"];3.25;1533056981.9792;406.11;1429.14;361.051901748;10;151
48;paravance-37.rennes.grid5000.fr;thermos-root-devel-WordCountTopology-0-89fe5494-c951-4b0a-864a-85e1f16287b8;["topology_master"];3.25;1533056981.85217;5.76;12.77;0.246673708;9;117
49;paravance-38.rennes.grid5000.fr;thermos-root-devel-WordCountTopology-1-1f156107-7dd6-4617-bf60-c31c1088e192;["container_1_Consume_and_count_1"];3.25;1533056992.19495;411.07;1455.01;374.635322166;10;151
49;paravance-63.rennes.grid5000.fr;thermos-root-devel-WordCountTopology-2-e02c21a4-7ba5-4050-a2cc-e100c8b5e7fd;["container_2_Emit_random_words_2"];3.25;1533056992.07042;226.15;918.36;7.868951583;10;149
49;paravance-37.rennes.grid5000.fr;thermos-root-devel-WordCountTopology-0-89fe5494-c951-4b0a-864a-85e1f16287b8;["topology_master"];3.25;1533056992.07225;5.79;12.8;0.246673708;9;117
50;paravance-63.rennes.grid5000.fr;thermos-root-devel-WordCountTopology-2-e02c21a4-7ba5-4050-a2cc-e100c8b5e7fd;["container_2_Emit_random_words_2"];3.25;1533057002.28506;229.38;930.41;7.868951583;10;149
50;paravance-38.rennes.grid5000.fr;thermos-root-devel-WordCountTopology-1-1f156107-7dd6-4617-bf60-c31c1088e192;["container_1_Consume_and_count_1"];3.25;1533057002.41448;416.99;1480.84;389.117210043;10;151
50;paravance-37.rennes.grid5000.fr;thermos-root-devel-WordCountTopology-0-89fe5494-c951-4b0a-864a-85e1f16287b8;["topology_master"];3.25;1533057002.28839;5.88;12.93;0.246673708;9;117
51;paravance-63.rennes.grid5000.fr;thermos-root-devel-WordCountTopology-2-e02c21a4-7ba5-4050-a2cc-e100c8b5e7fd;["container_2_Emit_random_words_2"];3.25;1533057012.50199;233.45;945.68;7.868951583;10;149
51;paravance-37.rennes.grid5000.fr;thermos-root-devel-WordCountTopology-0-89fe5494-c951-4b0a-864a-85e1f16287b8;["topology_master"];3.25;1533057012.50621;5.94;13.0;0.246673708;9;117
51;paravance-38.rennes.grid5000.fr;thermos-root-devel-WordCountTopology-1-1f156107-7dd6-4617-bf60-c31c1088e192;["container_1_Consume_and_count_1"];3.25;1533057012.63367;424.42;1505.02;394.844701801;10;151
52;paravance-38.rennes.grid5000.fr;thermos-root-devel-WordCountTopology-1-1f156107-7dd6-4617-bf60-c31c1088e192;["container_1_Consume_and_count_1"];3.25;1533057022.84977;431.73;1529.44;399.801528986;10;151
52;paravance-63.rennes.grid5000.fr;thermos-root-devel-WordCountTopology-2-e02c21a4-7ba5-4050-a2cc-e100c8b5e7fd;["container_2_Emit_random_words_2"];3.25;1533057022.72341;237.38;960.94;7.868951583;10;149
52;paravance-37.rennes.grid5000.fr;thermos-root-devel-WordCountTopology-0-89fe5494-c951-4b0a-864a-85e1f16287b8;["topology_master"];3.25;1533057022.72392;6.01;13.12;0.246673708;9;117
53;paravance-63.rennes.grid5000.fr;thermos-root-devel-WordCountTopology-2-e02c21a4-7ba5-4050-a2cc-e100c8b5e7fd;["container_2_Emit_random_words_2"];3.25;1533057032.9391;241.49;977.07;7.868951583;10;149
53;paravance-38.rennes.grid5000.fr;thermos-root-devel-WordCountTopology-1-1f156107-7dd6-4617-bf60-c31c1088e192;["container_1_Consume_and_count_1"];3.25;1533057033.06705;438.93;1553.94;404.180085263;10;151
53;paravance-37.rennes.grid5000.fr;thermos-root-devel-WordCountTopology-0-89fe5494-c951-4b0a-864a-85e1f16287b8;["topology_master"];3.25;1533057032.94156;6.07;13.19;0.246673708;9;117
54;paravance-38.rennes.grid5000.fr;thermos-root-devel-WordCountTopology-1-1f156107-7dd6-4617-bf60-c31c1088e192;["container_1_Consume_and_count_1"];3.25;1533057043.28284;446.09;1578.28;407.731715749;10;151
54;paravance-63.rennes.grid5000.fr;thermos-root-devel-WordCountTopology-2-e02c21a4-7ba5-4050-a2cc-e100c8b5e7fd;["container_2_Emit_random_words_2"];3.25;1533057043.15619;245.63;993.55;7.868951583;10;149
54;paravance-37.rennes.grid5000.fr;thermos-root-devel-WordCountTopology-0-89fe5494-c951-4b0a-864a-85e1f16287b8;["topology_master"];3.25;1533057043.1569;6.16;13.32;0.246673708;9;117
55;paravance-63.rennes.grid5000.fr;thermos-root-devel-WordCountTopology-2-e02c21a4-7ba5-4050-a2cc-e100c8b5e7fd;["container_2_Emit_random_words_2"];3.25;1533057053.37278;249.53;1008.9;7.868951583;10;149
55;paravance-37.rennes.grid5000.fr;thermos-root-devel-WordCountTopology-0-89fe5494-c951-4b0a-864a-85e1f16287b8;["topology_master"];3.25;1533057053.37382;6.19;13.34;0.246673708;9;117
55;paravance-38.rennes.grid5000.fr;thermos-root-devel-WordCountTopology-1-1f156107-7dd6-4617-bf60-c31c1088e192;["container_1_Consume_and_count_1"];3.25;1533057053.50008;453.67;1602.11;412.564285166;10;151
56;paravance-38.rennes.grid5000.fr;thermos-root-devel-WordCountTopology-1-1f156107-7dd6-4617-bf60-c31c1088e192;["container_1_Consume_and_count_1"];3.25;1533057063.71647;461.1;1626.34;417.756802026;10;151
56;paravance-63.rennes.grid5000.fr;thermos-root-devel-WordCountTopology-2-e02c21a4-7ba5-4050-a2cc-e100c8b5e7fd;["container_2_Emit_random_words_2"];3.25;1533057063.58987;253.53;1024.4;7.868951583;10;149
56;paravance-37.rennes.grid5000.fr;thermos-root-devel-WordCountTopology-0-89fe5494-c951-4b0a-864a-85e1f16287b8;["topology_master"];3.25;1533057063.59616;6.28;13.47;0.246673708;9;117
57;paravance-38.rennes.grid5000.fr;thermos-root-devel-WordCountTopology-1-1f156107-7dd6-4617-bf60-c31c1088e192;["container_1_Consume_and_count_1"];3.25;1533057073.93614;468.5;1650.44;423.947503262;10;151
57;paravance-37.rennes.grid5000.fr;thermos-root-devel-WordCountTopology-0-89fe5494-c951-4b0a-864a-85e1f16287b8;["topology_master"];3.25;1533057073.81919;6.34;13.54;0.246673708;9;117
57;paravance-63.rennes.grid5000.fr;thermos-root-devel-WordCountTopology-2-e02c21a4-7ba5-4050-a2cc-e100c8b5e7fd;["container_2_Emit_random_words_2"];3.25;1533057073.81914;257.28;1039.03;7.868951583;10;149
58;paravance-38.rennes.grid5000.fr;thermos-root-devel-WordCountTopology-1-1f156107-7dd6-4617-bf60-c31c1088e192;["container_1_Consume_and_count_1"];3.25;1533057084.16016;475.11;1675.59;433.715941517;10;151
58;paravance-37.rennes.grid5000.fr;thermos-root-devel-WordCountTopology-0-89fe5494-c951-4b0a-864a-85e1f16287b8;["topology_master"];3.25;1533057084.0343;6.41;13.65;0.246673708;9;117
58;paravance-63.rennes.grid5000.fr;thermos-root-devel-WordCountTopology-2-e02c21a4-7ba5-4050-a2cc-e100c8b5e7fd;["container_2_Emit_random_words_2"];3.25;1533057084.03424;260.83;1052.15;7.868951583;10;149
59;paravance-63.rennes.grid5000.fr;thermos-root-devel-WordCountTopology-2-e02c21a4-7ba5-4050-a2cc-e100c8b5e7fd;["container_2_Emit_random_words_2"];3.25;1533057094.24872;264.37;1065.93;7.868951583;10;149
59;paravance-38.rennes.grid5000.fr;thermos-root-devel-WordCountTopology-1-1f156107-7dd6-4617-bf60-c31c1088e192;["container_1_Consume_and_count_1"];3.25;1533057094.37525;481.96;1700.45;442.016912626;10;151
59;paravance-37.rennes.grid5000.fr;thermos-root-devel-WordCountTopology-0-89fe5494-c951-4b0a-864a-85e1f16287b8;["topology_master"];3.25;1533057094.25014;6.46;13.72;0.246673708;9;117
60;paravance-63.rennes.grid5000.fr;thermos-root-devel-WordCountTopology-2-e02c21a4-7ba5-4050-a2cc-e100c8b5e7fd;["container_2_Emit_random_words_2"];3.25;1533057104.46775;268.12;1080.49;7.868951583;10;149
60;paravance-37.rennes.grid5000.fr;thermos-root-devel-WordCountTopology-0-89fe5494-c951-4b0a-864a-85e1f16287b8;["topology_master"];3.25;1533057104.46962;6.55;13.84;0.246673708;9;117
60;paravance-38.rennes.grid5000.fr;thermos-root-devel-WordCountTopology-1-1f156107-7dd6-4617-bf60-c31c1088e192;["container_1_Consume_and_count_1"];3.25;1533057104.59528;489.24;1724.93;448.360612895;10;151
