{
  "status": "success",
  "executiontime": 0.00011706352233886719,
  "message": "",
  "result": {
    "bolts": {
      "Consume_and_count": [
        "container_1_Consume_and_count_1"
      ]
    },
    "instances": {
      "container_2_Emit_random_words_2": {
        "stmgrId": "stmgr-2",
        "logfile": "http://paravance-8.rennes.grid5000.fr:31392/file/log-files/container_2_Emit_random_words_2.log.0",
        "id": "container_2_Emit_random_words_2",
        "name": "Emit_random_words"
      },
      "container_1_Consume_and_count_1": {
        "stmgrId": "stmgr-1",
        "logfile": "http://paravance-6.rennes.grid5000.fr:31946/file/log-files/container_1_Consume_and_count_1.log.0",
        "id": "container_1_Consume_and_count_1",
        "name": "Consume_and_count"
      }
    },
    "instance_groups": {
      "container_1_Consume_and": [
        "container_1_Consume_and_count_1"
      ],
      "container_2_Emit_random": [
        "container_2_Emit_random_words_2"
      ]
    },
    "spouts": {
      "Emit_random_words": [
        "container_2_Emit_random_words_2"
      ]
    },
    "config": {
      "topology.message.timeout.secs": "30",
      "topology.team.environment": "devel",
      "topology.serializer.classname": "org.apache.heron.streamlet.impl.KryoSerializer",
      "topology.team.name": "root",
      "topology.debug": "false",
      "topology.max.spout.pending": "100",
      "topology.container.padding.percentage": "100",
      "topology.enable.message.timeouts": "true",
      "topology.component.parallelism": "1",
      "topology.name": "WordCountTopology",
      "topology.stmgrs": "2",
      "topology.reliability.mode": "ATMOST_ONCE"
    },
    "stmgrs": {
      "stmgr-1": {
        "cwd": "/var/lib/mesos/slaves/2ae3514c-1423-426e-bbc9-9e86abaa0253-S0/frameworks/75deb08a-eb1b-415c-8b2c-e922be5f7d98-0000/executors/thermos-root-devel-WordCountTopology-1-74aefbb1-a0d7-4103-bc6f-9ef6b402594d/runs/d16a22f8-dfac-4de2-a305-8db8d0b025bc/sandbox",
        "host": "paravance-6.rennes.grid5000.fr",
        "joburl": "http://paravance-6.rennes.grid5000.fr:31946/browse/",
        "shell_port": 31946,
        "logfiles": "http://paravance-6.rennes.grid5000.fr:31946/browse/log-files",
        "pid": 2846,
        "id": "stmgr-1",
        "instance_ids": [
          "container_1_Consume_and_count_1"
        ],
        "port": 31885
      },
      "stmgr-2": {
        "cwd": "/var/lib/mesos/slaves/2ae3514c-1423-426e-bbc9-9e86abaa0253-S1/frameworks/75deb08a-eb1b-415c-8b2c-e922be5f7d98-0000/executors/thermos-root-devel-WordCountTopology-2-6a57958c-cfee-4ab9-b2d4-759c73959629/runs/b76d84fe-c25a-4def-8613-febb7df73cf4/sandbox",
        "host": "paravance-8.rennes.grid5000.fr",
        "joburl": "http://paravance-8.rennes.grid5000.fr:31392/browse/",
        "shell_port": 31392,
        "logfiles": "http://paravance-8.rennes.grid5000.fr:31392/browse/log-files",
        "pid": 2809,
        "id": "stmgr-2",
        "instance_ids": [
          "container_2_Emit_random_words_2"
        ],
        "port": 31030
      }
    }
  },
  "tracker_version": "0.17.8-61-gd7c8c62"
}