mesure_id;slave_id;executor_id;heron_instances;cpus_limit;timestamp_B;cpus_system_time_secs_B;cpus_user_time_secs_B;cpus_throttled_time_secs_B;processes;threads
0;paravance-33.rennes.grid5000.fr;thermos-root-devel-WordCountTopology-0-0ba8ee96-54f6-4800-a386-86d50fcd4f2e;["topology_master"];3.25;1533809445.55073;2.45;8.1;0.268564465;9;117
0;paravance-34.rennes.grid5000.fr;thermos-root-devel-WordCountTopology-1-a723490c-1b2c-4b3d-b691-83aa67053059;["container_1_Consume_and_count_1"];3.25;1533809445.76224;51.26;265.89;99.062770029;10;151
0;paravance-31.rennes.grid5000.fr;thermos-root-devel-WordCountTopology-2-fdd2f7b3-ecb6-4f8b-85e5-db3d07475279;["container_2_Emit_random_words_2"];3.25;1533809445.76651;30.47;164.65;6.412245723;10;149
1;paravance-34.rennes.grid5000.fr;thermos-root-devel-WordCountTopology-1-a723490c-1b2c-4b3d-b691-83aa67053059;["container_1_Consume_and_count_1"];3.25;1533809455.9751;55.74;292.71;114.016812077;10;151
1;paravance-31.rennes.grid5000.fr;thermos-root-devel-WordCountTopology-2-fdd2f7b3-ecb6-4f8b-85e5-db3d07475279;["container_2_Emit_random_words_2"];3.25;1533809455.98012;33.21;179.37;6.412245723;10;149
1;paravance-33.rennes.grid5000.fr;thermos-root-devel-WordCountTopology-0-0ba8ee96-54f6-4800-a386-86d50fcd4f2e;["topology_master"];3.25;1533809455.8626;2.55;8.24;0.268564465;9;117
2;paravance-34.rennes.grid5000.fr;thermos-root-devel-WordCountTopology-1-a723490c-1b2c-4b3d-b691-83aa67053059;["container_1_Consume_and_count_1"];3.25;1533809466.0907;60.05;319.78;128.705923053;10;151
2;paravance-33.rennes.grid5000.fr;thermos-root-devel-WordCountTopology-0-0ba8ee96-54f6-4800-a386-86d50fcd4f2e;["topology_master"];3.25;1533809466.07638;2.58;8.28;0.268564465;9;117
2;paravance-31.rennes.grid5000.fr;thermos-root-devel-WordCountTopology-2-fdd2f7b3-ecb6-4f8b-85e5-db3d07475279;["container_2_Emit_random_words_2"];3.25;1533809466.19384;35.92;193.32;6.412245723;10;149
3;paravance-34.rennes.grid5000.fr;thermos-root-devel-WordCountTopology-1-a723490c-1b2c-4b3d-b691-83aa67053059;["container_1_Consume_and_count_1"];3.25;1533809476.40771;63.98;346.76;143.673849883;10;151
3;paravance-31.rennes.grid5000.fr;thermos-root-devel-WordCountTopology-2-fdd2f7b3-ecb6-4f8b-85e5-db3d07475279;["container_2_Emit_random_words_2"];3.25;1533809476.41118;38.33;206.2;6.412245723;10;149
3;paravance-33.rennes.grid5000.fr;thermos-root-devel-WordCountTopology-0-0ba8ee96-54f6-4800-a386-86d50fcd4f2e;["topology_master"];3.25;1533809476.29571;2.67;8.41;0.268564465;9;117
4;paravance-34.rennes.grid5000.fr;thermos-root-devel-WordCountTopology-1-a723490c-1b2c-4b3d-b691-83aa67053059;["container_1_Consume_and_count_1"];3.25;1533809486.52569;67.53;373.12;156.331206245;10;151
4;paravance-31.rennes.grid5000.fr;thermos-root-devel-WordCountTopology-2-fdd2f7b3-ecb6-4f8b-85e5-db3d07475279;["container_2_Emit_random_words_2"];3.25;1533809486.62997;40.41;217.02;6.412245723;10;149
4;paravance-33.rennes.grid5000.fr;thermos-root-devel-WordCountTopology-0-0ba8ee96-54f6-4800-a386-86d50fcd4f2e;["topology_master"];3.25;1533809486.51246;2.73;8.49;0.268564465;9;117
5;paravance-31.rennes.grid5000.fr;thermos-root-devel-WordCountTopology-2-fdd2f7b3-ecb6-4f8b-85e5-db3d07475279;["container_2_Emit_random_words_2"];3.25;1533809496.74547;42.57;228.24;6.412245723;10;149
5;paravance-34.rennes.grid5000.fr;thermos-root-devel-WordCountTopology-1-a723490c-1b2c-4b3d-b691-83aa67053059;["container_1_Consume_and_count_1"];3.25;1533809496.84194;71.12;399.81;169.586841687;10;151
5;paravance-33.rennes.grid5000.fr;thermos-root-devel-WordCountTopology-0-0ba8ee96-54f6-4800-a386-86d50fcd4f2e;["topology_master"];3.25;1533809496.72603;2.82;8.65;0.268564465;9;117
6;paravance-34.rennes.grid5000.fr;thermos-root-devel-WordCountTopology-1-a723490c-1b2c-4b3d-b691-83aa67053059;["container_1_Consume_and_count_1"];3.25;1533809507.05561;75.01;426.41;184.39998419;10;151
6;paravance-31.rennes.grid5000.fr;thermos-root-devel-WordCountTopology-2-fdd2f7b3-ecb6-4f8b-85e5-db3d07475279;["container_2_Emit_random_words_2"];3.25;1533809507.06172;45.09;241.43;6.412245723;10;149
6;paravance-33.rennes.grid5000.fr;thermos-root-devel-WordCountTopology-0-0ba8ee96-54f6-4800-a386-86d50fcd4f2e;["topology_master"];3.25;1533809506.94436;2.89;8.74;0.268564465;9;117
7;paravance-34.rennes.grid5000.fr;thermos-root-devel-WordCountTopology-1-a723490c-1b2c-4b3d-b691-83aa67053059;["container_1_Consume_and_count_1"];3.25;1533809517.17296;79.13;453.76;201.011115457;10;151
7;paravance-33.rennes.grid5000.fr;thermos-root-devel-WordCountTopology-0-0ba8ee96-54f6-4800-a386-86d50fcd4f2e;["topology_master"];3.25;1533809517.16026;2.98;8.88;0.268564465;9;117
7;paravance-31.rennes.grid5000.fr;thermos-root-devel-WordCountTopology-2-fdd2f7b3-ecb6-4f8b-85e5-db3d07475279;["container_2_Emit_random_words_2"];3.25;1533809517.27875;47.42;253.16;6.412245723;10;149
8;paravance-31.rennes.grid5000.fr;thermos-root-devel-WordCountTopology-2-fdd2f7b3-ecb6-4f8b-85e5-db3d07475279;["container_2_Emit_random_words_2"];3.25;1533809527.4946;49.9;265.59;6.412245723;10;149
8;paravance-34.rennes.grid5000.fr;thermos-root-devel-WordCountTopology-1-a723490c-1b2c-4b3d-b691-83aa67053059;["container_1_Consume_and_count_1"];3.25;1533809527.49189;83.41;481.74;217.646263398;10;151
8;paravance-33.rennes.grid5000.fr;thermos-root-devel-WordCountTopology-0-0ba8ee96-54f6-4800-a386-86d50fcd4f2e;["topology_master"];3.25;1533809527.37836;3.01;8.91;0.268564465;9;117
9;paravance-34.rennes.grid5000.fr;thermos-root-devel-WordCountTopology-1-a723490c-1b2c-4b3d-b691-83aa67053059;["container_1_Consume_and_count_1"];3.25;1533809537.70652;87.31;508.89;231.76352017;10;151
9;paravance-31.rennes.grid5000.fr;thermos-root-devel-WordCountTopology-2-fdd2f7b3-ecb6-4f8b-85e5-db3d07475279;["container_2_Emit_random_words_2"];3.25;1533809537.71089;52.21;277.47;6.412245723;10;149
9;paravance-33.rennes.grid5000.fr;thermos-root-devel-WordCountTopology-0-0ba8ee96-54f6-4800-a386-86d50fcd4f2e;["topology_master"];3.25;1533809537.59413;3.1;9.04;0.268564465;9;117
10;paravance-34.rennes.grid5000.fr;thermos-root-devel-WordCountTopology-1-a723490c-1b2c-4b3d-b691-83aa67053059;["container_1_Consume_and_count_1"];3.25;1533809547.92461;91.5;535.94;248.066667166;10;151
10;paravance-31.rennes.grid5000.fr;thermos-root-devel-WordCountTopology-2-fdd2f7b3-ecb6-4f8b-85e5-db3d07475279;["container_2_Emit_random_words_2"];3.25;1533809547.92836;54.83;290.78;6.412245723;10;149
10;paravance-33.rennes.grid5000.fr;thermos-root-devel-WordCountTopology-0-0ba8ee96-54f6-4800-a386-86d50fcd4f2e;["topology_master"];3.25;1533809547.81063;3.15;9.11;0.268564465;9;117
11;paravance-31.rennes.grid5000.fr;thermos-root-devel-WordCountTopology-2-fdd2f7b3-ecb6-4f8b-85e5-db3d07475279;["container_2_Emit_random_words_2"];3.25;1533809558.14299;56.94;301.77;6.412245723;10;149
11;paravance-34.rennes.grid5000.fr;thermos-root-devel-WordCountTopology-1-a723490c-1b2c-4b3d-b691-83aa67053059;["container_1_Consume_and_count_1"];3.25;1533809558.14028;94.9;563.16;261.292290183;10;151
11;paravance-33.rennes.grid5000.fr;thermos-root-devel-WordCountTopology-0-0ba8ee96-54f6-4800-a386-86d50fcd4f2e;["topology_master"];3.25;1533809558.02712;3.28;9.43;0.268564465;9;117
12;paravance-34.rennes.grid5000.fr;thermos-root-devel-WordCountTopology-1-a723490c-1b2c-4b3d-b691-83aa67053059;["container_1_Consume_and_count_1"];3.25;1533809568.35349;98.41;590.32;275.288995004;10;151
12;paravance-31.rennes.grid5000.fr;thermos-root-devel-WordCountTopology-2-fdd2f7b3-ecb6-4f8b-85e5-db3d07475279;["container_2_Emit_random_words_2"];3.25;1533809568.35836;59.05;313.8;6.412245723;10;149
12;paravance-33.rennes.grid5000.fr;thermos-root-devel-WordCountTopology-0-0ba8ee96-54f6-4800-a386-86d50fcd4f2e;["topology_master"];3.25;1533809568.24222;3.31;9.46;0.268564465;9;117
13;paravance-34.rennes.grid5000.fr;thermos-root-devel-WordCountTopology-1-a723490c-1b2c-4b3d-b691-83aa67053059;["container_1_Consume_and_count_1"];3.25;1533809578.57062;101.75;616.56;286.635686761;10;151
13;paravance-31.rennes.grid5000.fr;thermos-root-devel-WordCountTopology-2-fdd2f7b3-ecb6-4f8b-85e5-db3d07475279;["container_2_Emit_random_words_2"];3.25;1533809578.5749;60.99;323.34;6.412245723;10;149
13;paravance-33.rennes.grid5000.fr;thermos-root-devel-WordCountTopology-0-0ba8ee96-54f6-4800-a386-86d50fcd4f2e;["topology_master"];3.25;1533809578.45826;3.4;9.61;0.268564465;9;117
14;paravance-31.rennes.grid5000.fr;thermos-root-devel-WordCountTopology-2-fdd2f7b3-ecb6-4f8b-85e5-db3d07475279;["container_2_Emit_random_words_2"];3.25;1533809588.79164;63.53;336.7;6.412245723;10;149
14;paravance-33.rennes.grid5000.fr;thermos-root-devel-WordCountTopology-0-0ba8ee96-54f6-4800-a386-86d50fcd4f2e;["topology_master"];3.25;1533809588.67536;3.46;9.68;0.268564465;9;117
14;paravance-34.rennes.grid5000.fr;thermos-root-devel-WordCountTopology-1-a723490c-1b2c-4b3d-b691-83aa67053059;["container_1_Consume_and_count_1"];3.25;1533809588.78892;106.09;644.39;303.001810951;10;151
15;paravance-34.rennes.grid5000.fr;thermos-root-devel-WordCountTopology-1-a723490c-1b2c-4b3d-b691-83aa67053059;["container_1_Consume_and_count_1"];3.25;1533809599.00663;109.5;670.58;315.717312059;10;151
15;paravance-33.rennes.grid5000.fr;thermos-root-devel-WordCountTopology-0-0ba8ee96-54f6-4800-a386-86d50fcd4f2e;["topology_master"];3.25;1533809598.89261;3.52;9.78;0.268564465;9;117
15;paravance-31.rennes.grid5000.fr;thermos-root-devel-WordCountTopology-2-fdd2f7b3-ecb6-4f8b-85e5-db3d07475279;["container_2_Emit_random_words_2"];3.25;1533809599.01149;65.54;346.97;6.412245723;10;149
16;paravance-34.rennes.grid5000.fr;thermos-root-devel-WordCountTopology-1-a723490c-1b2c-4b3d-b691-83aa67053059;["container_1_Consume_and_count_1"];3.25;1533809609.22173;113.5;698.36;331.526309175;10;151
16;paravance-31.rennes.grid5000.fr;thermos-root-devel-WordCountTopology-2-fdd2f7b3-ecb6-4f8b-85e5-db3d07475279;["container_2_Emit_random_words_2"];3.25;1533809609.22872;68.01;359.95;6.412245723;10;149
16;paravance-33.rennes.grid5000.fr;thermos-root-devel-WordCountTopology-0-0ba8ee96-54f6-4800-a386-86d50fcd4f2e;["topology_master"];3.25;1533809609.11094;3.58;9.85;0.268564465;9;117
17;paravance-31.rennes.grid5000.fr;thermos-root-devel-WordCountTopology-2-fdd2f7b3-ecb6-4f8b-85e5-db3d07475279;["container_2_Emit_random_words_2"];3.25;1533809619.34386;70.16;370.86;6.412245723;10;149
17;paravance-34.rennes.grid5000.fr;thermos-root-devel-WordCountTopology-1-a723490c-1b2c-4b3d-b691-83aa67053059;["container_1_Consume_and_count_1"];3.25;1533809619.43838;117.29;724.74;345.324649454;10;151
17;paravance-33.rennes.grid5000.fr;thermos-root-devel-WordCountTopology-0-0ba8ee96-54f6-4800-a386-86d50fcd4f2e;["topology_master"];3.25;1533809619.32782;3.7;10.07;0.268564465;9;117
18;paravance-34.rennes.grid5000.fr;thermos-root-devel-WordCountTopology-1-a723490c-1b2c-4b3d-b691-83aa67053059;["container_1_Consume_and_count_1"];3.25;1533809629.6554;121.67;751.83;358.014287293;10;151
18;paravance-33.rennes.grid5000.fr;thermos-root-devel-WordCountTopology-0-0ba8ee96-54f6-4800-a386-86d50fcd4f2e;["topology_master"];3.25;1533809629.54459;3.72;10.09;0.268564465;9;117
18;paravance-31.rennes.grid5000.fr;thermos-root-devel-WordCountTopology-2-fdd2f7b3-ecb6-4f8b-85e5-db3d07475279;["container_2_Emit_random_words_2"];3.25;1533809629.66177;72.63;383.61;6.412245723;10;149
19;paravance-34.rennes.grid5000.fr;thermos-root-devel-WordCountTopology-1-a723490c-1b2c-4b3d-b691-83aa67053059;["container_1_Consume_and_count_1"];3.25;1533809639.87397;126.16;778.9;373.68165006;10;151
19;paravance-31.rennes.grid5000.fr;thermos-root-devel-WordCountTopology-2-fdd2f7b3-ecb6-4f8b-85e5-db3d07475279;["container_2_Emit_random_words_2"];3.25;1533809639.87925;75.2;397.02;6.412245723;10;149
19;paravance-33.rennes.grid5000.fr;thermos-root-devel-WordCountTopology-0-0ba8ee96-54f6-4800-a386-86d50fcd4f2e;["topology_master"];3.25;1533809639.76144;3.81;10.24;0.268564465;9;117
20;paravance-34.rennes.grid5000.fr;thermos-root-devel-WordCountTopology-1-a723490c-1b2c-4b3d-b691-83aa67053059;["container_1_Consume_and_count_1"];3.25;1533809650.09025;129.69;805.88;387.86694135;10;151
20;paravance-33.rennes.grid5000.fr;thermos-root-devel-WordCountTopology-0-0ba8ee96-54f6-4800-a386-86d50fcd4f2e;["topology_master"];3.25;1533809649.97951;3.87;10.32;0.268564465;9;117
20;paravance-31.rennes.grid5000.fr;thermos-root-devel-WordCountTopology-2-fdd2f7b3-ecb6-4f8b-85e5-db3d07475279;["container_2_Emit_random_words_2"];3.25;1533809650.09757;77.5;408.87;6.412245723;10;149
21;paravance-34.rennes.grid5000.fr;thermos-root-devel-WordCountTopology-1-a723490c-1b2c-4b3d-b691-83aa67053059;["container_1_Consume_and_count_1"];3.25;1533809660.30725;134.07;832.84;403.229989209;10;151
21;paravance-33.rennes.grid5000.fr;thermos-root-devel-WordCountTopology-0-0ba8ee96-54f6-4800-a386-86d50fcd4f2e;["topology_master"];3.25;1533809660.19647;3.93;10.39;0.268564465;9;117
21;paravance-31.rennes.grid5000.fr;thermos-root-devel-WordCountTopology-2-fdd2f7b3-ecb6-4f8b-85e5-db3d07475279;["container_2_Emit_random_words_2"];3.25;1533809660.31537;80.11;421.73;6.412245723;10;149
22;paravance-34.rennes.grid5000.fr;thermos-root-devel-WordCountTopology-1-a723490c-1b2c-4b3d-b691-83aa67053059;["container_1_Consume_and_count_1"];3.25;1533809670.42558;137.44;858.18;415.962305282;10;151
22;paravance-33.rennes.grid5000.fr;thermos-root-devel-WordCountTopology-0-0ba8ee96-54f6-4800-a386-86d50fcd4f2e;["topology_master"];3.25;1533809670.41415;3.99;10.47;0.268564465;9;117
22;paravance-31.rennes.grid5000.fr;thermos-root-devel-WordCountTopology-2-fdd2f7b3-ecb6-4f8b-85e5-db3d07475279;["container_2_Emit_random_words_2"];3.25;1533809670.53252;82.17;432.31;6.412245723;10;149
23;paravance-34.rennes.grid5000.fr;thermos-root-devel-WordCountTopology-1-a723490c-1b2c-4b3d-b691-83aa67053059;["container_1_Consume_and_count_1"];3.25;1533809680.74143;141.29;885.01;430.006605368;10;151
23;paravance-31.rennes.grid5000.fr;thermos-root-devel-WordCountTopology-2-fdd2f7b3-ecb6-4f8b-85e5-db3d07475279;["container_2_Emit_random_words_2"];3.25;1533809680.74893;84.64;444.8;6.412245723;10;149
23;paravance-33.rennes.grid5000.fr;thermos-root-devel-WordCountTopology-0-0ba8ee96-54f6-4800-a386-86d50fcd4f2e;["topology_master"];3.25;1533809680.63094;4.1;10.66;0.268564465;9;117
24;paravance-34.rennes.grid5000.fr;thermos-root-devel-WordCountTopology-1-a723490c-1b2c-4b3d-b691-83aa67053059;["container_1_Consume_and_count_1"];3.25;1533809690.95962;145.5;912.0;445.370279937;10;151
24;paravance-33.rennes.grid5000.fr;thermos-root-devel-WordCountTopology-0-0ba8ee96-54f6-4800-a386-86d50fcd4f2e;["topology_master"];3.25;1533809690.84915;4.13;10.69;0.268564465;9;117
24;paravance-31.rennes.grid5000.fr;thermos-root-devel-WordCountTopology-2-fdd2f7b3-ecb6-4f8b-85e5-db3d07475279;["container_2_Emit_random_words_2"];3.25;1533809690.96534;86.94;456.69;6.412245723;10;149
25;paravance-34.rennes.grid5000.fr;thermos-root-devel-WordCountTopology-1-a723490c-1b2c-4b3d-b691-83aa67053059;["container_1_Consume_and_count_1"];3.25;1533809701.17693;148.89;937.87;459.413343849;10;151
25;paravance-31.rennes.grid5000.fr;thermos-root-devel-WordCountTopology-2-fdd2f7b3-ecb6-4f8b-85e5-db3d07475279;["container_2_Emit_random_words_2"];3.25;1533809701.18369;88.91;466.58;6.412245723;10;149
25;paravance-33.rennes.grid5000.fr;thermos-root-devel-WordCountTopology-0-0ba8ee96-54f6-4800-a386-86d50fcd4f2e;["topology_master"];3.25;1533809701.06592;4.23;10.83;0.268564465;9;117
26;paravance-34.rennes.grid5000.fr;thermos-root-devel-WordCountTopology-1-a723490c-1b2c-4b3d-b691-83aa67053059;["container_1_Consume_and_count_1"];3.25;1533809711.39651;152.72;965.12;474.421569219;10;151
26;paravance-31.rennes.grid5000.fr;thermos-root-devel-WordCountTopology-2-fdd2f7b3-ecb6-4f8b-85e5-db3d07475279;["container_2_Emit_random_words_2"];3.25;1533809711.40115;91.14;478.71;6.412245723;10;149
26;paravance-33.rennes.grid5000.fr;thermos-root-devel-WordCountTopology-0-0ba8ee96-54f6-4800-a386-86d50fcd4f2e;["topology_master"];3.25;1533809711.2841;4.28;10.9;0.268564465;9;117
27;paravance-34.rennes.grid5000.fr;thermos-root-devel-WordCountTopology-1-a723490c-1b2c-4b3d-b691-83aa67053059;["container_1_Consume_and_count_1"];3.25;1533809721.61609;156.34;991.22;487.695157602;10;151
27;paravance-31.rennes.grid5000.fr;thermos-root-devel-WordCountTopology-2-fdd2f7b3-ecb6-4f8b-85e5-db3d07475279;["container_2_Emit_random_words_2"];3.25;1533809721.62115;93.31;490.07;6.412245723;10;149
27;paravance-33.rennes.grid5000.fr;thermos-root-devel-WordCountTopology-0-0ba8ee96-54f6-4800-a386-86d50fcd4f2e;["topology_master"];3.25;1533809721.5048;4.34;10.98;0.268564465;9;117
28;paravance-34.rennes.grid5000.fr;thermos-root-devel-WordCountTopology-1-a723490c-1b2c-4b3d-b691-83aa67053059;["container_1_Consume_and_count_1"];3.25;1533809731.8318;160.19;1017.55;502.113133935;10;149
28;paravance-33.rennes.grid5000.fr;thermos-root-devel-WordCountTopology-0-0ba8ee96-54f6-4800-a386-86d50fcd4f2e;["topology_master"];3.25;1533809731.72131;4.45;11.13;0.268564465;9;117
28;paravance-31.rennes.grid5000.fr;thermos-root-devel-WordCountTopology-2-fdd2f7b3-ecb6-4f8b-85e5-db3d07475279;["container_2_Emit_random_words_2"];3.25;1533809731.83761;95.55;501.32;6.412245723;10;149
29;paravance-34.rennes.grid5000.fr;thermos-root-devel-WordCountTopology-1-a723490c-1b2c-4b3d-b691-83aa67053059;["container_1_Consume_and_count_1"];3.25;1533809742.04665;163.72;1043.6;515.773491854;10;151
29;paravance-31.rennes.grid5000.fr;thermos-root-devel-WordCountTopology-2-fdd2f7b3-ecb6-4f8b-85e5-db3d07475279;["container_2_Emit_random_words_2"];3.25;1533809742.0527;97.87;513.69;6.412245723;10;149
29;paravance-33.rennes.grid5000.fr;thermos-root-devel-WordCountTopology-0-0ba8ee96-54f6-4800-a386-86d50fcd4f2e;["topology_master"];3.25;1533809741.93531;4.51;11.27;0.268564465;9;117
30;paravance-34.rennes.grid5000.fr;thermos-root-devel-WordCountTopology-1-a723490c-1b2c-4b3d-b691-83aa67053059;["container_1_Consume_and_count_1"];3.25;1533809752.26239;167.92;1069.84;530.655054339;10;151
30;paravance-33.rennes.grid5000.fr;thermos-root-devel-WordCountTopology-0-0ba8ee96-54f6-4800-a386-86d50fcd4f2e;["topology_master"];3.25;1533809752.15156;4.57;11.35;0.268564465;9;117
30;paravance-31.rennes.grid5000.fr;thermos-root-devel-WordCountTopology-2-fdd2f7b3-ecb6-4f8b-85e5-db3d07475279;["container_2_Emit_random_words_2"];3.25;1533809752.26853;100.13;526.17;6.412245723;10;149
31;paravance-34.rennes.grid5000.fr;thermos-root-devel-WordCountTopology-1-a723490c-1b2c-4b3d-b691-83aa67053059;["container_1_Consume_and_count_1"];3.25;1533809762.47881;171.76;1097.26;544.852925376;10;151
31;paravance-33.rennes.grid5000.fr;thermos-root-devel-WordCountTopology-0-0ba8ee96-54f6-4800-a386-86d50fcd4f2e;["topology_master"];3.25;1533809762.3689;4.63;11.43;0.268564465;9;117
31;paravance-31.rennes.grid5000.fr;thermos-root-devel-WordCountTopology-2-fdd2f7b3-ecb6-4f8b-85e5-db3d07475279;["container_2_Emit_random_words_2"];3.25;1533809762.48421;102.37;538.24;6.412245723;10;149
32;paravance-34.rennes.grid5000.fr;thermos-root-devel-WordCountTopology-1-a723490c-1b2c-4b3d-b691-83aa67053059;["container_1_Consume_and_count_1"];3.25;1533809772.69544;176.58;1124.51;560.443262781;10;151
32;paravance-31.rennes.grid5000.fr;thermos-root-devel-WordCountTopology-2-fdd2f7b3-ecb6-4f8b-85e5-db3d07475279;["container_2_Emit_random_words_2"];3.25;1533809772.70034;104.87;550.72;6.412245723;10;149
32;paravance-33.rennes.grid5000.fr;thermos-root-devel-WordCountTopology-0-0ba8ee96-54f6-4800-a386-86d50fcd4f2e;["topology_master"];3.25;1533809772.58415;4.72;11.56;0.268564465;9;117
33;paravance-33.rennes.grid5000.fr;thermos-root-devel-WordCountTopology-0-0ba8ee96-54f6-4800-a386-86d50fcd4f2e;["topology_master"];3.25;1533809782.80147;4.75;11.58;0.268564465;9;117
33;paravance-31.rennes.grid5000.fr;thermos-root-devel-WordCountTopology-2-fdd2f7b3-ecb6-4f8b-85e5-db3d07475279;["container_2_Emit_random_words_2"];3.25;1533809782.91772;106.92;561.6;6.412245723;10;149
33;paravance-34.rennes.grid5000.fr;thermos-root-devel-WordCountTopology-1-a723490c-1b2c-4b3d-b691-83aa67053059;["container_1_Consume_and_count_1"];3.25;1533809782.91291;180.29;1151.12;573.542956492;10;151
34;paravance-33.rennes.grid5000.fr;thermos-root-devel-WordCountTopology-0-0ba8ee96-54f6-4800-a386-86d50fcd4f2e;["topology_master"];3.25;1533809792.91572;4.85;11.73;0.268564465;9;117
34;paravance-34.rennes.grid5000.fr;thermos-root-devel-WordCountTopology-1-a723490c-1b2c-4b3d-b691-83aa67053059;["container_1_Consume_and_count_1"];3.25;1533809793.12673;183.9;1176.44;585.151441156;10;151
34;paravance-31.rennes.grid5000.fr;thermos-root-devel-WordCountTopology-2-fdd2f7b3-ecb6-4f8b-85e5-db3d07475279;["container_2_Emit_random_words_2"];3.25;1533809793.1321;109.08;572.73;6.412245723;10;149
35;paravance-34.rennes.grid5000.fr;thermos-root-devel-WordCountTopology-1-a723490c-1b2c-4b3d-b691-83aa67053059;["container_1_Consume_and_count_1"];3.25;1533809803.33971;187.86;1203.02;599.117337626;10;151
35;paravance-31.rennes.grid5000.fr;thermos-root-devel-WordCountTopology-2-fdd2f7b3-ecb6-4f8b-85e5-db3d07475279;["container_2_Emit_random_words_2"];3.25;1533809803.34627;111.37;584.64;6.412245723;10;149
35;paravance-33.rennes.grid5000.fr;thermos-root-devel-WordCountTopology-0-0ba8ee96-54f6-4800-a386-86d50fcd4f2e;["topology_master"];3.25;1533809803.2301;4.92;11.86;0.268564465;9;117
36;paravance-34.rennes.grid5000.fr;thermos-root-devel-WordCountTopology-1-a723490c-1b2c-4b3d-b691-83aa67053059;["container_1_Consume_and_count_1"];3.25;1533809813.55531;191.96;1230.22;613.330110852;10;151
36;paravance-31.rennes.grid5000.fr;thermos-root-devel-WordCountTopology-2-fdd2f7b3-ecb6-4f8b-85e5-db3d07475279;["container_2_Emit_random_words_2"];3.25;1533809813.56326;113.88;597.37;6.412245723;10;149
36;paravance-33.rennes.grid5000.fr;thermos-root-devel-WordCountTopology-0-0ba8ee96-54f6-4800-a386-86d50fcd4f2e;["topology_master"];3.25;1533809813.44868;4.98;11.94;0.268564465;9;117
37;paravance-34.rennes.grid5000.fr;thermos-root-devel-WordCountTopology-1-a723490c-1b2c-4b3d-b691-83aa67053059;["container_1_Consume_and_count_1"];3.25;1533809823.77276;195.85;1258.01;630.107840402;10;151
37;paravance-31.rennes.grid5000.fr;thermos-root-devel-WordCountTopology-2-fdd2f7b3-ecb6-4f8b-85e5-db3d07475279;["container_2_Emit_random_words_2"];3.25;1533809823.77871;116.35;610.14;6.412245723;10;149
37;paravance-33.rennes.grid5000.fr;thermos-root-devel-WordCountTopology-0-0ba8ee96-54f6-4800-a386-86d50fcd4f2e;["topology_master"];3.25;1533809823.66529;5.03;12.02;0.268564465;9;117
38;paravance-33.rennes.grid5000.fr;thermos-root-devel-WordCountTopology-0-0ba8ee96-54f6-4800-a386-86d50fcd4f2e;["topology_master"];3.25;1533809833.87941;5.12;12.14;0.268564465;9;117
38;paravance-34.rennes.grid5000.fr;thermos-root-devel-WordCountTopology-1-a723490c-1b2c-4b3d-b691-83aa67053059;["container_1_Consume_and_count_1"];3.25;1533809833.99149;199.86;1284.36;642.837988116;10;151
38;paravance-31.rennes.grid5000.fr;thermos-root-devel-WordCountTopology-2-fdd2f7b3-ecb6-4f8b-85e5-db3d07475279;["container_2_Emit_random_words_2"];3.25;1533809833.99693;118.53;621.19;6.412245723;10;149
39;paravance-34.rennes.grid5000.fr;thermos-root-devel-WordCountTopology-1-a723490c-1b2c-4b3d-b691-83aa67053059;["container_1_Consume_and_count_1"];3.25;1533809844.20819;203.61;1311.09;655.796418248;10;151
39;paravance-33.rennes.grid5000.fr;thermos-root-devel-WordCountTopology-0-0ba8ee96-54f6-4800-a386-86d50fcd4f2e;["topology_master"];3.25;1533809844.09793;5.14;12.16;0.268564465;9;117
39;paravance-31.rennes.grid5000.fr;thermos-root-devel-WordCountTopology-2-fdd2f7b3-ecb6-4f8b-85e5-db3d07475279;["container_2_Emit_random_words_2"];3.25;1533809844.2157;120.68;632.12;6.412245723;10;149
40;paravance-31.rennes.grid5000.fr;thermos-root-devel-WordCountTopology-2-fdd2f7b3-ecb6-4f8b-85e5-db3d07475279;["container_2_Emit_random_words_2"];3.25;1533809854.43322;122.86;643.15;6.412245723;10;149
40;paravance-34.rennes.grid5000.fr;thermos-root-devel-WordCountTopology-1-a723490c-1b2c-4b3d-b691-83aa67053059;["container_1_Consume_and_count_1"];3.25;1533809854.43197;207.53;1337.35;668.157135301;10;151
40;paravance-33.rennes.grid5000.fr;thermos-root-devel-WordCountTopology-0-0ba8ee96-54f6-4800-a386-86d50fcd4f2e;["topology_master"];3.25;1533809854.32231;5.24;12.3;0.268564465;9;117
41;paravance-34.rennes.grid5000.fr;thermos-root-devel-WordCountTopology-1-a723490c-1b2c-4b3d-b691-83aa67053059;["container_1_Consume_and_count_1"];3.25;1533809864.6462;211.32;1364.16;681.695526617;10;151
41;paravance-33.rennes.grid5000.fr;thermos-root-devel-WordCountTopology-0-0ba8ee96-54f6-4800-a386-86d50fcd4f2e;["topology_master"];3.25;1533809864.53804;5.3;12.41;0.268564465;9;117
41;paravance-31.rennes.grid5000.fr;thermos-root-devel-WordCountTopology-2-fdd2f7b3-ecb6-4f8b-85e5-db3d07475279;["container_2_Emit_random_words_2"];3.25;1533809864.65495;124.97;654.44;6.412245723;10;149
42;paravance-34.rennes.grid5000.fr;thermos-root-devel-WordCountTopology-1-a723490c-1b2c-4b3d-b691-83aa67053059;["container_1_Consume_and_count_1"];3.25;1533809874.86337;214.99;1390.71;694.587558613;10;151
42;paravance-31.rennes.grid5000.fr;thermos-root-devel-WordCountTopology-2-fdd2f7b3-ecb6-4f8b-85e5-db3d07475279;["container_2_Emit_random_words_2"];3.25;1533809874.87002;127.23;665.85;6.412245723;10;149
42;paravance-33.rennes.grid5000.fr;thermos-root-devel-WordCountTopology-0-0ba8ee96-54f6-4800-a386-86d50fcd4f2e;["topology_master"];3.25;1533809874.75434;5.39;12.54;0.268564465;9;117
43;paravance-33.rennes.grid5000.fr;thermos-root-devel-WordCountTopology-0-0ba8ee96-54f6-4800-a386-86d50fcd4f2e;["topology_master"];3.25;1533809884.97005;5.42;12.58;0.268564465;9;117
43;paravance-34.rennes.grid5000.fr;thermos-root-devel-WordCountTopology-1-a723490c-1b2c-4b3d-b691-83aa67053059;["container_1_Consume_and_count_1"];3.25;1533809885.08211;218.86;1418.26;710.722216623;10;151
43;paravance-31.rennes.grid5000.fr;thermos-root-devel-WordCountTopology-2-fdd2f7b3-ecb6-4f8b-85e5-db3d07475279;["container_2_Emit_random_words_2"];3.25;1533809885.08787;129.63;677.99;6.412245723;10;149
44;paravance-34.rennes.grid5000.fr;thermos-root-devel-WordCountTopology-1-a723490c-1b2c-4b3d-b691-83aa67053059;["container_1_Consume_and_count_1"];3.25;1533809895.29943;222.18;1444.69;721.226516857;10;151
44;paravance-31.rennes.grid5000.fr;thermos-root-devel-WordCountTopology-2-fdd2f7b3-ecb6-4f8b-85e5-db3d07475279;["container_2_Emit_random_words_2"];3.25;1533809895.30536;131.59;688.3;6.412245723;10;149
44;paravance-33.rennes.grid5000.fr;thermos-root-devel-WordCountTopology-0-0ba8ee96-54f6-4800-a386-86d50fcd4f2e;["topology_master"];3.25;1533809895.19068;5.51;12.7;0.268564465;9;117
45;paravance-34.rennes.grid5000.fr;thermos-root-devel-WordCountTopology-1-a723490c-1b2c-4b3d-b691-83aa67053059;["container_1_Consume_and_count_1"];3.25;1533809905.51384;225.77;1471.39;733.82913039;10;151
45;paravance-33.rennes.grid5000.fr;thermos-root-devel-WordCountTopology-0-0ba8ee96-54f6-4800-a386-86d50fcd4f2e;["topology_master"];3.25;1533809905.40569;5.56;12.78;0.268564465;9;117
45;paravance-31.rennes.grid5000.fr;thermos-root-devel-WordCountTopology-2-fdd2f7b3-ecb6-4f8b-85e5-db3d07475279;["container_2_Emit_random_words_2"];3.25;1533809905.52215;133.62;698.92;6.412245723;10;149
46;paravance-31.rennes.grid5000.fr;thermos-root-devel-WordCountTopology-2-fdd2f7b3-ecb6-4f8b-85e5-db3d07475279;["container_2_Emit_random_words_2"];3.25;1533809915.73788;136.02;711.18;6.412245723;10;149
46;paravance-34.rennes.grid5000.fr;thermos-root-devel-WordCountTopology-1-a723490c-1b2c-4b3d-b691-83aa67053059;["container_1_Consume_and_count_1"];3.25;1533809915.73276;229.69;1498.16;747.870057236;10;151
46;paravance-33.rennes.grid5000.fr;thermos-root-devel-WordCountTopology-0-0ba8ee96-54f6-4800-a386-86d50fcd4f2e;["topology_master"];3.25;1533809915.62347;5.63;12.86;0.268564465;9;117
47;paravance-34.rennes.grid5000.fr;thermos-root-devel-WordCountTopology-1-a723490c-1b2c-4b3d-b691-83aa67053059;["container_1_Consume_and_count_1"];3.25;1533809925.94795;233.65;1525.04;762.08946933;10;151
47;paravance-33.rennes.grid5000.fr;thermos-root-devel-WordCountTopology-0-0ba8ee96-54f6-4800-a386-86d50fcd4f2e;["topology_master"];3.25;1533809925.84105;5.69;13.0;0.268564465;9;117
47;paravance-31.rennes.grid5000.fr;thermos-root-devel-WordCountTopology-2-fdd2f7b3-ecb6-4f8b-85e5-db3d07475279;["container_2_Emit_random_words_2"];3.25;1533809925.9574;138.15;722.62;6.412245723;10;149
48;paravance-34.rennes.grid5000.fr;thermos-root-devel-WordCountTopology-1-a723490c-1b2c-4b3d-b691-83aa67053059;["container_1_Consume_and_count_1"];3.25;1533809936.16599;237.51;1551.81;775.206338586;10;151
48;paravance-31.rennes.grid5000.fr;thermos-root-devel-WordCountTopology-2-fdd2f7b3-ecb6-4f8b-85e5-db3d07475279;["container_2_Emit_random_words_2"];3.25;1533809936.1726;140.51;734.7;6.412245723;10;149
48;paravance-33.rennes.grid5000.fr;thermos-root-devel-WordCountTopology-0-0ba8ee96-54f6-4800-a386-86d50fcd4f2e;["topology_master"];3.25;1533809936.05784;5.78;13.14;0.268564465;9;117
49;paravance-34.rennes.grid5000.fr;thermos-root-devel-WordCountTopology-1-a723490c-1b2c-4b3d-b691-83aa67053059;["container_1_Consume_and_count_1"];3.25;1533809946.3816;241.63;1578.69;789.37048212;10;151
49;paravance-33.rennes.grid5000.fr;thermos-root-devel-WordCountTopology-0-0ba8ee96-54f6-4800-a386-86d50fcd4f2e;["topology_master"];3.25;1533809946.27404;5.81;13.17;0.268564465;9;117
49;paravance-31.rennes.grid5000.fr;thermos-root-devel-WordCountTopology-2-fdd2f7b3-ecb6-4f8b-85e5-db3d07475279;["container_2_Emit_random_words_2"];3.25;1533809946.39067;143.03;747.62;6.412245723;10;149
50;paravance-33.rennes.grid5000.fr;thermos-root-devel-WordCountTopology-0-0ba8ee96-54f6-4800-a386-86d50fcd4f2e;["topology_master"];3.25;1533809956.48947;5.9;13.31;0.268564465;9;117
50;paravance-34.rennes.grid5000.fr;thermos-root-devel-WordCountTopology-1-a723490c-1b2c-4b3d-b691-83aa67053059;["container_1_Consume_and_count_1"];3.25;1533809956.601;245.9;1605.46;803.781799464;10;151
50;paravance-31.rennes.grid5000.fr;thermos-root-devel-WordCountTopology-2-fdd2f7b3-ecb6-4f8b-85e5-db3d07475279;["container_2_Emit_random_words_2"];3.25;1533809956.60522;145.36;759.05;6.412245723;10;149
51;paravance-34.rennes.grid5000.fr;thermos-root-devel-WordCountTopology-1-a723490c-1b2c-4b3d-b691-83aa67053059;["container_1_Consume_and_count_1"];3.25;1533809966.81609;250.25;1633.2;820.033407013;10;151
51;paravance-33.rennes.grid5000.fr;thermos-root-devel-WordCountTopology-0-0ba8ee96-54f6-4800-a386-86d50fcd4f2e;["topology_master"];3.25;1533809966.70838;5.96;13.39;0.268564465;9;117
51;paravance-31.rennes.grid5000.fr;thermos-root-devel-WordCountTopology-2-fdd2f7b3-ecb6-4f8b-85e5-db3d07475279;["container_2_Emit_random_words_2"];3.25;1533809966.82404;147.85;771.84;6.412245723;10;149
52;paravance-34.rennes.grid5000.fr;thermos-root-devel-WordCountTopology-1-a723490c-1b2c-4b3d-b691-83aa67053059;["container_1_Consume_and_count_1"];3.25;1533809977.03522;253.95;1659.74;833.508173925;10;151
52;paravance-33.rennes.grid5000.fr;thermos-root-devel-WordCountTopology-0-0ba8ee96-54f6-4800-a386-86d50fcd4f2e;["topology_master"];3.25;1533809976.9254;6.03;13.51;0.268564465;9;117
52;paravance-31.rennes.grid5000.fr;thermos-root-devel-WordCountTopology-2-fdd2f7b3-ecb6-4f8b-85e5-db3d07475279;["container_2_Emit_random_words_2"];3.25;1533809977.04204;150.17;784.01;6.412245723;10;149
53;paravance-34.rennes.grid5000.fr;thermos-root-devel-WordCountTopology-1-a723490c-1b2c-4b3d-b691-83aa67053059;["container_1_Consume_and_count_1"];3.25;1533809987.25043;257.82;1686.24;847.06147544;10;151
53;paravance-31.rennes.grid5000.fr;thermos-root-devel-WordCountTopology-2-fdd2f7b3-ecb6-4f8b-85e5-db3d07475279;["container_2_Emit_random_words_2"];3.25;1533809987.25828;152.45;796.07;6.412245723;10;149
53;paravance-33.rennes.grid5000.fr;thermos-root-devel-WordCountTopology-0-0ba8ee96-54f6-4800-a386-86d50fcd4f2e;["topology_master"];3.25;1533809987.14359;6.08;13.59;0.268564465;9;117
54;paravance-34.rennes.grid5000.fr;thermos-root-devel-WordCountTopology-1-a723490c-1b2c-4b3d-b691-83aa67053059;["container_1_Consume_and_count_1"];3.25;1533809997.46717;261.98;1713.21;861.972382783;10;151
54;paravance-33.rennes.grid5000.fr;thermos-root-devel-WordCountTopology-0-0ba8ee96-54f6-4800-a386-86d50fcd4f2e;["topology_master"];3.25;1533809997.35806;6.18;13.72;0.268564465;9;117
55;paravance-34.rennes.grid5000.fr;thermos-root-devel-WordCountTopology-1-a723490c-1b2c-4b3d-b691-83aa67053059;["container_1_Consume_and_count_1"];3.25;1533810007.68273;266.13;1740.5;876.806103195;10;151
55;paravance-33.rennes.grid5000.fr;thermos-root-devel-WordCountTopology-0-0ba8ee96-54f6-4800-a386-86d50fcd4f2e;["topology_master"];3.25;1533810007.57427;6.2;13.75;0.268564465;9;117
55;paravance-31.rennes.grid5000.fr;thermos-root-devel-WordCountTopology-2-fdd2f7b3-ecb6-4f8b-85e5-db3d07475279;["container_2_Emit_random_words_2"];3.25;1533810007.69122;157.3;820.9;6.412245723;10;149
56;paravance-33.rennes.grid5000.fr;thermos-root-devel-WordCountTopology-0-0ba8ee96-54f6-4800-a386-86d50fcd4f2e;["topology_master"];3.25;1533810017.79053;6.29;13.88;0.268564465;9;117
56;paravance-34.rennes.grid5000.fr;thermos-root-devel-WordCountTopology-1-a723490c-1b2c-4b3d-b691-83aa67053059;["container_1_Consume_and_count_1"];3.25;1533810017.90181;270.52;1767.53;890.357035239;10;151
56;paravance-31.rennes.grid5000.fr;thermos-root-devel-WordCountTopology-2-fdd2f7b3-ecb6-4f8b-85e5-db3d07475279;["container_2_Emit_random_words_2"];3.25;1533810017.90856;160.0;834.62;6.412245723;10;149
57;paravance-34.rennes.grid5000.fr;thermos-root-devel-WordCountTopology-1-a723490c-1b2c-4b3d-b691-83aa67053059;["container_1_Consume_and_count_1"];3.25;1533810028.11696;274.37;1794.77;906.757655111;10;151
57;paravance-31.rennes.grid5000.fr;thermos-root-devel-WordCountTopology-2-fdd2f7b3-ecb6-4f8b-85e5-db3d07475279;["container_2_Emit_random_words_2"];3.25;1533810028.12373;162.21;846.8;6.412245723;10;149
57;paravance-33.rennes.grid5000.fr;thermos-root-devel-WordCountTopology-0-0ba8ee96-54f6-4800-a386-86d50fcd4f2e;["topology_master"];3.25;1533810028.00938;6.35;13.96;0.268564465;9;117
58;paravance-34.rennes.grid5000.fr;thermos-root-devel-WordCountTopology-1-a723490c-1b2c-4b3d-b691-83aa67053059;["container_1_Consume_and_count_1"];3.25;1533810038.33284;278.07;1821.38;920.102769048;10;151
58;paravance-31.rennes.grid5000.fr;thermos-root-devel-WordCountTopology-2-fdd2f7b3-ecb6-4f8b-85e5-db3d07475279;["container_2_Emit_random_words_2"];3.25;1533810038.33878;164.22;857.18;6.412245723;10;149
58;paravance-33.rennes.grid5000.fr;thermos-root-devel-WordCountTopology-0-0ba8ee96-54f6-4800-a386-86d50fcd4f2e;["topology_master"];3.25;1533810038.22437;6.43;14.07;0.268564465;9;117
59;paravance-34.rennes.grid5000.fr;thermos-root-devel-WordCountTopology-1-a723490c-1b2c-4b3d-b691-83aa67053059;["container_1_Consume_and_count_1"];3.25;1533810048.54643;282.31;1848.82;933.414289519;10;151
59;paravance-33.rennes.grid5000.fr;thermos-root-devel-WordCountTopology-0-0ba8ee96-54f6-4800-a386-86d50fcd4f2e;["topology_master"];3.25;1533810048.43984;6.48;14.15;0.268564465;9;117
59;paravance-31.rennes.grid5000.fr;thermos-root-devel-WordCountTopology-2-fdd2f7b3-ecb6-4f8b-85e5-db3d07475279;["container_2_Emit_random_words_2"];3.25;1533810048.55534;166.55;869.92;6.412245723;10;149
60;paravance-34.rennes.grid5000.fr;thermos-root-devel-WordCountTopology-1-a723490c-1b2c-4b3d-b691-83aa67053059;["container_1_Consume_and_count_1"];3.25;1533810058.76301;286.52;1876.09;948.510083954;10;151
60;paravance-33.rennes.grid5000.fr;thermos-root-devel-WordCountTopology-0-0ba8ee96-54f6-4800-a386-86d50fcd4f2e;["topology_master"];3.25;1533810058.65593;6.58;14.29;0.268564465;9;117
60;paravance-31.rennes.grid5000.fr;thermos-root-devel-WordCountTopology-2-fdd2f7b3-ecb6-4f8b-85e5-db3d07475279;["container_2_Emit_random_words_2"];3.25;1533810058.77077;168.94;882.45;6.412245723;10;149
