mesure_id;slave_id;executor_id;heron_instances;cpus_limit;timestamp_A;cpus_system_time_secs_A;cpus_user_time_secs_A;cpus_throttled_time_secs_A;processes;threads
0;paravance-67.rennes.grid5000.fr;thermos-root-devel-WordCountTopology-2-c6c08717-82e7-48e0-a413-718459811319;["container_2_Emit_random_words_2"];1.25;1533040563.37341;18.94;76.99;105.123570446;10;150
0;paravance-69.rennes.grid5000.fr;thermos-root-devel-WordCountTopology-0-8043eac0-8674-41a8-a655-82570c504bef;["topology_master"];1.25;1533040563.41627;2.59;8.87;6.521263174;9;117
0;paravance-68.rennes.grid5000.fr;thermos-root-devel-WordCountTopology-1-32480b17-c9bf-48ac-8bd9-57f1a3400b83;["container_1_Consume_and_count_1"];1.25;1533040563.37183;26.89;93.74;223.453904541;10;151
1;paravance-68.rennes.grid5000.fr;thermos-root-devel-WordCountTopology-1-32480b17-c9bf-48ac-8bd9-57f1a3400b83;["container_1_Consume_and_count_1"];1.25;1533040573.58883;29.72;102.54;244.49365954;10;151
1;paravance-67.rennes.grid5000.fr;thermos-root-devel-WordCountTopology-2-c6c08717-82e7-48e0-a413-718459811319;["container_2_Emit_random_words_2"];1.25;1533040573.59197;20.72;83.92;112.682395278;10;150
1;paravance-69.rennes.grid5000.fr;thermos-root-devel-WordCountTopology-0-8043eac0-8674-41a8-a655-82570c504bef;["topology_master"];1.25;1533040573.64045;2.66;9.01;6.521263174;9;117
2;paravance-69.rennes.grid5000.fr;thermos-root-devel-WordCountTopology-0-8043eac0-8674-41a8-a655-82570c504bef;["topology_master"];1.25;1533040583.86218;2.74;9.14;6.521263174;9;117
2;paravance-67.rennes.grid5000.fr;thermos-root-devel-WordCountTopology-2-c6c08717-82e7-48e0-a413-718459811319;["container_2_Emit_random_words_2"];1.25;1533040583.8084;22.45;90.43;118.393786735;10;149
2;paravance-68.rennes.grid5000.fr;thermos-root-devel-WordCountTopology-1-32480b17-c9bf-48ac-8bd9-57f1a3400b83;["container_1_Consume_and_count_1"];1.25;1533040583.80758;32.52;111.59;266.780813651;10;151
3;paravance-69.rennes.grid5000.fr;thermos-root-devel-WordCountTopology-0-8043eac0-8674-41a8-a655-82570c504bef;["topology_master"];1.25;1533040593.98326;2.78;9.18;6.521263174;9;117
3;paravance-68.rennes.grid5000.fr;thermos-root-devel-WordCountTopology-1-32480b17-c9bf-48ac-8bd9-57f1a3400b83;["container_1_Consume_and_count_1"];1.25;1533040594.02196;35.35;120.41;286.83284543;10;151
3;paravance-67.rennes.grid5000.fr;thermos-root-devel-WordCountTopology-2-c6c08717-82e7-48e0-a413-718459811319;["container_2_Emit_random_words_2"];1.25;1533040594.02509;24.21;97.46;126.243450768;10;149
4;paravance-68.rennes.grid5000.fr;thermos-root-devel-WordCountTopology-1-32480b17-c9bf-48ac-8bd9-57f1a3400b83;["container_1_Consume_and_count_1"];1.25;1533040604.23887;38.2;129.22;307.537171117;10;151
4;paravance-69.rennes.grid5000.fr;thermos-root-devel-WordCountTopology-0-8043eac0-8674-41a8-a655-82570c504bef;["topology_master"];1.25;1533040604.29963;2.87;9.32;6.521263174;9;117
4;paravance-67.rennes.grid5000.fr;thermos-root-devel-WordCountTopology-2-c6c08717-82e7-48e0-a413-718459811319;["container_2_Emit_random_words_2"];1.25;1533040604.24166;25.99;104.21;132.760036187;10;149
5;paravance-69.rennes.grid5000.fr;thermos-root-devel-WordCountTopology-0-8043eac0-8674-41a8-a655-82570c504bef;["topology_master"];1.25;1533040614.51553;2.93;9.4;6.521263174;9;117
5;paravance-67.rennes.grid5000.fr;thermos-root-devel-WordCountTopology-2-c6c08717-82e7-48e0-a413-718459811319;["container_2_Emit_random_words_2"];1.25;1533040614.45793;27.75;110.85;138.348199226;10;149
5;paravance-68.rennes.grid5000.fr;thermos-root-devel-WordCountTopology-1-32480b17-c9bf-48ac-8bd9-57f1a3400b83;["container_1_Consume_and_count_1"];1.25;1533040614.45694;40.99;138.16;326.435317043;10;151
6;paravance-67.rennes.grid5000.fr;thermos-root-devel-WordCountTopology-2-c6c08717-82e7-48e0-a413-718459811319;["container_2_Emit_random_words_2"];1.25;1533040624.67501;29.63;118.13;145.001316991;10;149
6;paravance-69.rennes.grid5000.fr;thermos-root-devel-WordCountTopology-0-8043eac0-8674-41a8-a655-82570c504bef;["topology_master"];1.25;1533040624.73323;3.02;9.49;6.521292545;9;117
6;paravance-68.rennes.grid5000.fr;thermos-root-devel-WordCountTopology-1-32480b17-c9bf-48ac-8bd9-57f1a3400b83;["container_1_Consume_and_count_1"];1.25;1533040624.67388;43.74;147.19;345.884113177;10;151
7;paravance-67.rennes.grid5000.fr;thermos-root-devel-WordCountTopology-2-c6c08717-82e7-48e0-a413-718459811319;["container_2_Emit_random_words_2"];1.25;1533040634.89303;31.37;124.89;152.549369208;10;149
7;paravance-68.rennes.grid5000.fr;thermos-root-devel-WordCountTopology-1-32480b17-c9bf-48ac-8bd9-57f1a3400b83;["container_1_Consume_and_count_1"];1.25;1533040634.89219;46.55;156.2;365.559919621;10;151
7;paravance-69.rennes.grid5000.fr;thermos-root-devel-WordCountTopology-0-8043eac0-8674-41a8-a655-82570c504bef;["topology_master"];1.25;1533040634.95222;3.09;9.63;6.521292545;9;117
8;paravance-67.rennes.grid5000.fr;thermos-root-devel-WordCountTopology-2-c6c08717-82e7-48e0-a413-718459811319;["container_2_Emit_random_words_2"];1.25;1533040645.11197;33.27;132.15;159.606076767;10;149
8;paravance-69.rennes.grid5000.fr;thermos-root-devel-WordCountTopology-0-8043eac0-8674-41a8-a655-82570c504bef;["topology_master"];1.25;1533040645.17027;3.18;9.78;6.521292545;9;117
8;paravance-68.rennes.grid5000.fr;thermos-root-devel-WordCountTopology-1-32480b17-c9bf-48ac-8bd9-57f1a3400b83;["container_1_Consume_and_count_1"];1.25;1533040645.10973;49.27;165.39;383.707667763;10;151
9;paravance-67.rennes.grid5000.fr;thermos-root-devel-WordCountTopology-2-c6c08717-82e7-48e0-a413-718459811319;["container_2_Emit_random_words_2"];1.25;1533040655.32691;35.14;139.52;165.658836643;10;149
9;paravance-69.rennes.grid5000.fr;thermos-root-devel-WordCountTopology-0-8043eac0-8674-41a8-a655-82570c504bef;["topology_master"];1.25;1533040655.38486;3.24;9.84;6.521292545;9;117
9;paravance-68.rennes.grid5000.fr;thermos-root-devel-WordCountTopology-1-32480b17-c9bf-48ac-8bd9-57f1a3400b83;["container_1_Consume_and_count_1"];1.25;1533040655.32496;52.09;174.36;402.185269342;10;151
10;paravance-68.rennes.grid5000.fr;thermos-root-devel-WordCountTopology-1-32480b17-c9bf-48ac-8bd9-57f1a3400b83;["container_1_Consume_and_count_1"];1.25;1533040665.54218;54.92;183.33;422.520414325;10;151
10;paravance-67.rennes.grid5000.fr;thermos-root-devel-WordCountTopology-2-c6c08717-82e7-48e0-a413-718459811319;["container_2_Emit_random_words_2"];1.25;1533040665.54538;36.96;146.41;171.573850563;10;149
10;paravance-69.rennes.grid5000.fr;thermos-root-devel-WordCountTopology-0-8043eac0-8674-41a8-a655-82570c504bef;["topology_master"];1.25;1533040665.6033;3.31;9.94;6.521292545;9;117
11;paravance-67.rennes.grid5000.fr;thermos-root-devel-WordCountTopology-2-c6c08717-82e7-48e0-a413-718459811319;["container_2_Emit_random_words_2"];1.25;1533040675.76144;38.82;153.39;177.623436953;10;149
11;paravance-69.rennes.grid5000.fr;thermos-root-devel-WordCountTopology-0-8043eac0-8674-41a8-a655-82570c504bef;["topology_master"];1.25;1533040675.8203;3.36;10.01;6.521292545;9;117
11;paravance-68.rennes.grid5000.fr;thermos-root-devel-WordCountTopology-1-32480b17-c9bf-48ac-8bd9-57f1a3400b83;["container_1_Consume_and_count_1"];1.25;1533040675.75912;57.71;192.34;441.628704459;10;151
12;paravance-67.rennes.grid5000.fr;thermos-root-devel-WordCountTopology-2-c6c08717-82e7-48e0-a413-718459811319;["container_2_Emit_random_words_2"];1.25;1533040685.97539;40.73;160.81;183.939230134;10;149
12;paravance-69.rennes.grid5000.fr;thermos-root-devel-WordCountTopology-0-8043eac0-8674-41a8-a655-82570c504bef;["topology_master"];1.25;1533040686.03457;3.49;10.31;6.521292545;9;117
12;paravance-68.rennes.grid5000.fr;thermos-root-devel-WordCountTopology-1-32480b17-c9bf-48ac-8bd9-57f1a3400b83;["container_1_Consume_and_count_1"];1.25;1533040685.9747;60.55;201.26;461.794375183;10;151
13;paravance-67.rennes.grid5000.fr;thermos-root-devel-WordCountTopology-2-c6c08717-82e7-48e0-a413-718459811319;["container_2_Emit_random_words_2"];1.25;1533040696.19431;42.47;167.54;189.554211296;10;149
13;paravance-69.rennes.grid5000.fr;thermos-root-devel-WordCountTopology-0-8043eac0-8674-41a8-a655-82570c504bef;["topology_master"];1.25;1533040696.25212;3.52;10.34;6.521292545;9;117
13;paravance-68.rennes.grid5000.fr;thermos-root-devel-WordCountTopology-1-32480b17-c9bf-48ac-8bd9-57f1a3400b83;["container_1_Consume_and_count_1"];1.25;1533040696.19396;63.31;210.3;483.81429223;10;151
14;paravance-68.rennes.grid5000.fr;thermos-root-devel-WordCountTopology-1-32480b17-c9bf-48ac-8bd9-57f1a3400b83;["container_1_Consume_and_count_1"];1.25;1533040706.40767;66.04;219.31;504.481050616;10;151
14;paravance-69.rennes.grid5000.fr;thermos-root-devel-WordCountTopology-0-8043eac0-8674-41a8-a655-82570c504bef;["topology_master"];1.25;1533040706.46815;3.61;10.49;6.521292545;9;117
14;paravance-67.rennes.grid5000.fr;thermos-root-devel-WordCountTopology-2-c6c08717-82e7-48e0-a413-718459811319;["container_2_Emit_random_words_2"];1.25;1533040706.41033;44.24;174.24;195.470382628;10;149
15;paravance-68.rennes.grid5000.fr;thermos-root-devel-WordCountTopology-1-32480b17-c9bf-48ac-8bd9-57f1a3400b83;["container_1_Consume_and_count_1"];1.25;1533040716.62532;68.79;228.41;524.785635498;10;151
15;paravance-67.rennes.grid5000.fr;thermos-root-devel-WordCountTopology-2-c6c08717-82e7-48e0-a413-718459811319;["container_2_Emit_random_words_2"];1.25;1533040716.62849;45.93;180.71;201.513669228;10;149
15;paravance-69.rennes.grid5000.fr;thermos-root-devel-WordCountTopology-0-8043eac0-8674-41a8-a655-82570c504bef;["topology_master"];1.25;1533040716.68645;3.67;10.57;6.521292545;9;117
16;paravance-69.rennes.grid5000.fr;thermos-root-devel-WordCountTopology-0-8043eac0-8674-41a8-a655-82570c504bef;["topology_master"];1.25;1533040726.90222;3.73;10.66;6.521292545;9;117
16;paravance-67.rennes.grid5000.fr;thermos-root-devel-WordCountTopology-2-c6c08717-82e7-48e0-a413-718459811319;["container_2_Emit_random_words_2"];1.25;1533040726.84456;47.79;187.81;208.694885791;10;149
16;paravance-68.rennes.grid5000.fr;thermos-root-devel-WordCountTopology-1-32480b17-c9bf-48ac-8bd9-57f1a3400b83;["container_1_Consume_and_count_1"];1.25;1533040726.84265;71.5;237.54;543.135409472;10;151
17;paravance-69.rennes.grid5000.fr;thermos-root-devel-WordCountTopology-0-8043eac0-8674-41a8-a655-82570c504bef;["topology_master"];1.25;1533040737.11956;3.79;10.73;6.521292545;9;117
17;paravance-68.rennes.grid5000.fr;thermos-root-devel-WordCountTopology-1-32480b17-c9bf-48ac-8bd9-57f1a3400b83;["container_1_Consume_and_count_1"];1.25;1533040737.06036;74.14;246.61;563.357834399;10;151
17;paravance-67.rennes.grid5000.fr;thermos-root-devel-WordCountTopology-2-c6c08717-82e7-48e0-a413-718459811319;["container_2_Emit_random_words_2"];1.25;1533040737.06212;49.55;194.35;214.43866299;10;149
18;paravance-69.rennes.grid5000.fr;thermos-root-devel-WordCountTopology-0-8043eac0-8674-41a8-a655-82570c504bef;["topology_master"];1.25;1533040747.33914;3.91;10.94;6.521292545;9;117
18;paravance-68.rennes.grid5000.fr;thermos-root-devel-WordCountTopology-1-32480b17-c9bf-48ac-8bd9-57f1a3400b83;["container_1_Consume_and_count_1"];1.25;1533040747.27804;76.83;255.59;583.13411878;10;151
18;paravance-67.rennes.grid5000.fr;thermos-root-devel-WordCountTopology-2-c6c08717-82e7-48e0-a413-718459811319;["container_2_Emit_random_words_2"];1.25;1533040747.28056;51.37;201.44;221.983916624;10;149
19;paravance-68.rennes.grid5000.fr;thermos-root-devel-WordCountTopology-1-32480b17-c9bf-48ac-8bd9-57f1a3400b83;["container_1_Consume_and_count_1"];1.25;1533040757.49652;79.58;264.75;602.816793787;10;151
19;paravance-69.rennes.grid5000.fr;thermos-root-devel-WordCountTopology-0-8043eac0-8674-41a8-a655-82570c504bef;["topology_master"];1.25;1533040757.55763;3.94;10.96;6.521292545;9;117
19;paravance-67.rennes.grid5000.fr;thermos-root-devel-WordCountTopology-2-c6c08717-82e7-48e0-a413-718459811319;["container_2_Emit_random_words_2"];1.25;1533040757.50052;53.18;208.42;228.44158421;10;149
20;paravance-68.rennes.grid5000.fr;thermos-root-devel-WordCountTopology-1-32480b17-c9bf-48ac-8bd9-57f1a3400b83;["container_1_Consume_and_count_1"];1.25;1533040767.71308;82.31;273.8;623.029735372;10;151
20;paravance-67.rennes.grid5000.fr;thermos-root-devel-WordCountTopology-2-c6c08717-82e7-48e0-a413-718459811319;["container_2_Emit_random_words_2"];1.25;1533040767.7161;54.98;215.13;234.808940549;10;149
20;paravance-69.rennes.grid5000.fr;thermos-root-devel-WordCountTopology-0-8043eac0-8674-41a8-a655-82570c504bef;["topology_master"];1.25;1533040767.77407;4.04;11.1;6.521292545;9;117
21;paravance-69.rennes.grid5000.fr;thermos-root-devel-WordCountTopology-0-8043eac0-8674-41a8-a655-82570c504bef;["topology_master"];1.25;1533040777.99064;4.09;11.17;6.521292545;9;117
21;paravance-67.rennes.grid5000.fr;thermos-root-devel-WordCountTopology-2-c6c08717-82e7-48e0-a413-718459811319;["container_2_Emit_random_words_2"];1.25;1533040777.93387;56.79;222.15;241.021253508;10;149
21;paravance-68.rennes.grid5000.fr;thermos-root-devel-WordCountTopology-1-32480b17-c9bf-48ac-8bd9-57f1a3400b83;["container_1_Consume_and_count_1"];1.25;1533040777.93007;85.03;282.91;641.795921465;10;151
22;paravance-67.rennes.grid5000.fr;thermos-root-devel-WordCountTopology-2-c6c08717-82e7-48e0-a413-718459811319;["container_2_Emit_random_words_2"];1.25;1533040788.15186;58.56;228.82;247.001036382;10;149
22;paravance-68.rennes.grid5000.fr;thermos-root-devel-WordCountTopology-1-32480b17-c9bf-48ac-8bd9-57f1a3400b83;["container_1_Consume_and_count_1"];1.25;1533040788.14828;87.73;292.12;664.598631943;10;151
22;paravance-69.rennes.grid5000.fr;thermos-root-devel-WordCountTopology-0-8043eac0-8674-41a8-a655-82570c504bef;["topology_master"];1.25;1533040788.20947;4.15;11.25;6.521292545;9;117
23;paravance-68.rennes.grid5000.fr;thermos-root-devel-WordCountTopology-1-32480b17-c9bf-48ac-8bd9-57f1a3400b83;["container_1_Consume_and_count_1"];1.25;1533040798.36574;90.38;301.36;687.437619561;10;151
23;paravance-67.rennes.grid5000.fr;thermos-root-devel-WordCountTopology-2-c6c08717-82e7-48e0-a413-718459811319;["container_2_Emit_random_words_2"];1.25;1533040798.36797;60.23;235.11;252.811135679;10;149
23;paravance-69.rennes.grid5000.fr;thermos-root-devel-WordCountTopology-0-8043eac0-8674-41a8-a655-82570c504bef;["topology_master"];1.25;1533040798.42662;4.2;11.32;6.521292545;9;117
24;paravance-69.rennes.grid5000.fr;thermos-root-devel-WordCountTopology-0-8043eac0-8674-41a8-a655-82570c504bef;["topology_master"];1.25;1533040808.6449;4.31;11.49;6.521292545;9;117
24;paravance-68.rennes.grid5000.fr;thermos-root-devel-WordCountTopology-1-32480b17-c9bf-48ac-8bd9-57f1a3400b83;["container_1_Consume_and_count_1"];1.25;1533040808.58417;93.09;310.52;707.300073301;10;151
24;paravance-67.rennes.grid5000.fr;thermos-root-devel-WordCountTopology-2-c6c08717-82e7-48e0-a413-718459811319;["container_2_Emit_random_words_2"];1.25;1533040808.58769;62.07;242.0;258.949951932;10;149
25;paravance-67.rennes.grid5000.fr;thermos-root-devel-WordCountTopology-2-c6c08717-82e7-48e0-a413-718459811319;["container_2_Emit_random_words_2"];1.25;1533040818.80386;63.79;248.64;264.481901076;10;149
25;paravance-68.rennes.grid5000.fr;thermos-root-devel-WordCountTopology-1-32480b17-c9bf-48ac-8bd9-57f1a3400b83;["container_1_Consume_and_count_1"];1.25;1533040818.80127;95.84;319.58;728.93454352;10;151
25;paravance-69.rennes.grid5000.fr;thermos-root-devel-WordCountTopology-0-8043eac0-8674-41a8-a655-82570c504bef;["topology_master"];1.25;1533040818.86278;4.34;11.52;6.521292545;9;117
26;paravance-69.rennes.grid5000.fr;thermos-root-devel-WordCountTopology-0-8043eac0-8674-41a8-a655-82570c504bef;["topology_master"];1.25;1533040829.07727;4.44;11.66;6.521292545;9;117
26;paravance-68.rennes.grid5000.fr;thermos-root-devel-WordCountTopology-1-32480b17-c9bf-48ac-8bd9-57f1a3400b83;["container_1_Consume_and_count_1"];1.25;1533040829.01899;98.56;328.59;750.883656429;10;151
26;paravance-67.rennes.grid5000.fr;thermos-root-devel-WordCountTopology-2-c6c08717-82e7-48e0-a413-718459811319;["container_2_Emit_random_words_2"];1.25;1533040829.0206;65.63;255.6;270.705176209;10;149
27;paravance-68.rennes.grid5000.fr;thermos-root-devel-WordCountTopology-1-32480b17-c9bf-48ac-8bd9-57f1a3400b83;["container_1_Consume_and_count_1"];1.25;1533040839.23487;101.23;337.7;772.352030608;10;151
27;paravance-69.rennes.grid5000.fr;thermos-root-devel-WordCountTopology-0-8043eac0-8674-41a8-a655-82570c504bef;["topology_master"];1.25;1533040839.29634;4.49;11.73;6.521292545;9;117
27;paravance-67.rennes.grid5000.fr;thermos-root-devel-WordCountTopology-2-c6c08717-82e7-48e0-a413-718459811319;["container_2_Emit_random_words_2"];1.25;1533040839.23765;67.36;262.24;276.261531094;10;149
28;paravance-69.rennes.grid5000.fr;thermos-root-devel-WordCountTopology-0-8043eac0-8674-41a8-a655-82570c504bef;["topology_master"];1.25;1533040849.51158;4.56;11.81;6.521292545;9;117
28;paravance-68.rennes.grid5000.fr;thermos-root-devel-WordCountTopology-1-32480b17-c9bf-48ac-8bd9-57f1a3400b83;["container_1_Consume_and_count_1"];1.25;1533040849.4517;103.98;346.7;792.966663706;10;151
28;paravance-67.rennes.grid5000.fr;thermos-root-devel-WordCountTopology-2-c6c08717-82e7-48e0-a413-718459811319;["container_2_Emit_random_words_2"];1.25;1533040849.45442;69.09;268.71;282.434952424;10;149
29;paravance-67.rennes.grid5000.fr;thermos-root-devel-WordCountTopology-2-c6c08717-82e7-48e0-a413-718459811319;["container_2_Emit_random_words_2"];1.25;1533040859.6726;70.89;275.72;288.5946439;10;149
29;paravance-69.rennes.grid5000.fr;thermos-root-devel-WordCountTopology-0-8043eac0-8674-41a8-a655-82570c504bef;["topology_master"];1.25;1533040859.7303;4.62;11.89;6.521292545;9;117
29;paravance-68.rennes.grid5000.fr;thermos-root-devel-WordCountTopology-1-32480b17-c9bf-48ac-8bd9-57f1a3400b83;["container_1_Consume_and_count_1"];1.25;1533040859.67035;106.71;355.79;814.272308909;10;151
30;paravance-69.rennes.grid5000.fr;thermos-root-devel-WordCountTopology-0-8043eac0-8674-41a8-a655-82570c504bef;["topology_master"];1.25;1533040869.94669;4.73;12.09;6.521292545;9;117
30;paravance-67.rennes.grid5000.fr;thermos-root-devel-WordCountTopology-2-c6c08717-82e7-48e0-a413-718459811319;["container_2_Emit_random_words_2"];1.25;1533040869.89117;72.8;282.9;296.263888498;10;149
30;paravance-68.rennes.grid5000.fr;thermos-root-devel-WordCountTopology-1-32480b17-c9bf-48ac-8bd9-57f1a3400b83;["container_1_Consume_and_count_1"];1.25;1533040869.88889;109.4;364.87;833.824780837;10;151
31;paravance-68.rennes.grid5000.fr;thermos-root-devel-WordCountTopology-1-32480b17-c9bf-48ac-8bd9-57f1a3400b83;["container_1_Consume_and_count_1"];1.25;1533040880.10508;112.11;374.07;853.046278935;10;151
31;paravance-67.rennes.grid5000.fr;thermos-root-devel-WordCountTopology-2-c6c08717-82e7-48e0-a413-718459811319;["container_2_Emit_random_words_2"];1.25;1533040880.10821;74.51;289.41;302.39282239;10;149
31;paravance-69.rennes.grid5000.fr;thermos-root-devel-WordCountTopology-0-8043eac0-8674-41a8-a655-82570c504bef;["topology_master"];1.25;1533040880.1651;4.75;12.11;6.521292545;9;117
32;paravance-68.rennes.grid5000.fr;thermos-root-devel-WordCountTopology-1-32480b17-c9bf-48ac-8bd9-57f1a3400b83;["container_1_Consume_and_count_1"];1.25;1533040890.32425;114.81;383.01;874.253536296;10;151
32;paravance-67.rennes.grid5000.fr;thermos-root-devel-WordCountTopology-2-c6c08717-82e7-48e0-a413-718459811319;["container_2_Emit_random_words_2"];1.25;1533040890.32678;76.34;296.46;308.671920898;10;149
32;paravance-69.rennes.grid5000.fr;thermos-root-devel-WordCountTopology-0-8043eac0-8674-41a8-a655-82570c504bef;["topology_master"];1.25;1533040890.38407;4.84;12.24;6.521292545;9;117
33;paravance-69.rennes.grid5000.fr;thermos-root-devel-WordCountTopology-0-8043eac0-8674-41a8-a655-82570c504bef;["topology_master"];1.25;1533040900.60264;4.94;12.37;6.521292545;9;117
33;paravance-67.rennes.grid5000.fr;thermos-root-devel-WordCountTopology-2-c6c08717-82e7-48e0-a413-718459811319;["container_2_Emit_random_words_2"];1.25;1533040900.54577;78.15;303.14;315.372581396;10;149
33;paravance-68.rennes.grid5000.fr;thermos-root-devel-WordCountTopology-1-32480b17-c9bf-48ac-8bd9-57f1a3400b83;["container_1_Consume_and_count_1"];1.25;1533040900.54312;117.52;392.13;893.706562064;10;151
34;paravance-69.rennes.grid5000.fr;thermos-root-devel-WordCountTopology-0-8043eac0-8674-41a8-a655-82570c504bef;["topology_master"];1.25;1533040910.82157;4.96;12.39;6.521292545;9;117
34;paravance-67.rennes.grid5000.fr;thermos-root-devel-WordCountTopology-2-c6c08717-82e7-48e0-a413-718459811319;["container_2_Emit_random_words_2"];1.25;1533040910.76496;79.88;309.63;321.394967739;10;149
34;paravance-68.rennes.grid5000.fr;thermos-root-devel-WordCountTopology-1-32480b17-c9bf-48ac-8bd9-57f1a3400b83;["container_1_Consume_and_count_1"];1.25;1533040910.76186;120.3;401.15;915.023584582;10;151
35;paravance-68.rennes.grid5000.fr;thermos-root-devel-WordCountTopology-1-32480b17-c9bf-48ac-8bd9-57f1a3400b83;["container_1_Consume_and_count_1"];1.25;1533040920.97996;123.05;410.26;935.978019067;10;152
35;paravance-69.rennes.grid5000.fr;thermos-root-devel-WordCountTopology-0-8043eac0-8674-41a8-a655-82570c504bef;["topology_master"];1.25;1533040921.04105;5.06;12.53;6.521292545;9;117
35;paravance-67.rennes.grid5000.fr;thermos-root-devel-WordCountTopology-2-c6c08717-82e7-48e0-a413-718459811319;["container_2_Emit_random_words_2"];1.25;1533040920.98368;81.67;316.35;327.822655841;10;149
36;paravance-69.rennes.grid5000.fr;thermos-root-devel-WordCountTopology-0-8043eac0-8674-41a8-a655-82570c504bef;["topology_master"];1.25;1533040931.25693;5.13;12.66;6.521292545;9;117
36;paravance-67.rennes.grid5000.fr;thermos-root-devel-WordCountTopology-2-c6c08717-82e7-48e0-a413-718459811319;["container_2_Emit_random_words_2"];1.25;1533040931.20046;83.39;322.93;334.033962341;10;149
36;paravance-68.rennes.grid5000.fr;thermos-root-devel-WordCountTopology-1-32480b17-c9bf-48ac-8bd9-57f1a3400b83;["container_1_Consume_and_count_1"];1.25;1533040931.19747;125.82;419.35;957.919430254;10;151
37;paravance-67.rennes.grid5000.fr;thermos-root-devel-WordCountTopology-2-c6c08717-82e7-48e0-a413-718459811319;["container_2_Emit_random_words_2"];1.25;1533040941.41833;85.02;329.18;338.946944471;10;149
37;paravance-69.rennes.grid5000.fr;thermos-root-devel-WordCountTopology-0-8043eac0-8674-41a8-a655-82570c504bef;["topology_master"];1.25;1533040941.47502;5.18;12.73;6.521292545;9;117
37;paravance-68.rennes.grid5000.fr;thermos-root-devel-WordCountTopology-1-32480b17-c9bf-48ac-8bd9-57f1a3400b83;["container_1_Consume_and_count_1"];1.25;1533040941.41506;128.46;428.66;980.391970141;10;151
38;paravance-67.rennes.grid5000.fr;thermos-root-devel-WordCountTopology-2-c6c08717-82e7-48e0-a413-718459811319;["container_2_Emit_random_words_2"];1.25;1533040951.63608;86.69;335.55;344.272072264;10;149
38;paravance-69.rennes.grid5000.fr;thermos-root-devel-WordCountTopology-0-8043eac0-8674-41a8-a655-82570c504bef;["topology_master"];1.25;1533040951.69363;5.24;12.81;6.521292545;9;117
38;paravance-68.rennes.grid5000.fr;thermos-root-devel-WordCountTopology-1-32480b17-c9bf-48ac-8bd9-57f1a3400b83;["container_1_Consume_and_count_1"];1.25;1533040951.63374;131.2;437.65;1001.710034595;10;151
39;paravance-69.rennes.grid5000.fr;thermos-root-devel-WordCountTopology-0-8043eac0-8674-41a8-a655-82570c504bef;["topology_master"];1.25;1533040961.91105;5.33;12.93;6.521292545;9;117
39;paravance-68.rennes.grid5000.fr;thermos-root-devel-WordCountTopology-1-32480b17-c9bf-48ac-8bd9-57f1a3400b83;["container_1_Consume_and_count_1"];1.25;1533040961.85279;133.99;446.73;1019.696209637;10;151
39;paravance-67.rennes.grid5000.fr;thermos-root-devel-WordCountTopology-2-c6c08717-82e7-48e0-a413-718459811319;["container_2_Emit_random_words_2"];1.25;1533040961.85464;88.5;342.37;351.38031183;10;149
40;paravance-69.rennes.grid5000.fr;thermos-root-devel-WordCountTopology-0-8043eac0-8674-41a8-a655-82570c504bef;["topology_master"];1.25;1533040972.12977;5.36;12.96;6.521292545;9;117
40;paravance-67.rennes.grid5000.fr;thermos-root-devel-WordCountTopology-2-c6c08717-82e7-48e0-a413-718459811319;["container_2_Emit_random_words_2"];1.25;1533040972.07347;90.22;348.97;357.337541935;10;149
40;paravance-68.rennes.grid5000.fr;thermos-root-devel-WordCountTopology-1-32480b17-c9bf-48ac-8bd9-57f1a3400b83;["container_1_Consume_and_count_1"];1.25;1533040972.07161;136.61;455.84;1039.898716978;10;151
41;paravance-69.rennes.grid5000.fr;thermos-root-devel-WordCountTopology-0-8043eac0-8674-41a8-a655-82570c504bef;["topology_master"];1.25;1533040982.34886;5.46;13.09;6.521292545;9;117
41;paravance-67.rennes.grid5000.fr;thermos-root-devel-WordCountTopology-2-c6c08717-82e7-48e0-a413-718459811319;["container_2_Emit_random_words_2"];1.25;1533040982.29203;92.01;355.66;363.540801143;10;149
41;paravance-68.rennes.grid5000.fr;thermos-root-devel-WordCountTopology-1-32480b17-c9bf-48ac-8bd9-57f1a3400b83;["container_1_Consume_and_count_1"];1.25;1533040982.2898;139.37;464.87;1060.503788689;10;151
42;paravance-67.rennes.grid5000.fr;thermos-root-devel-WordCountTopology-2-c6c08717-82e7-48e0-a413-718459811319;["container_2_Emit_random_words_2"];1.25;1533040992.51002;93.77;362.43;369.962076712;10;149
42;paravance-69.rennes.grid5000.fr;thermos-root-devel-WordCountTopology-0-8043eac0-8674-41a8-a655-82570c504bef;["topology_master"];1.25;1533040992.56695;5.52;13.21;6.521292545;9;117
42;paravance-68.rennes.grid5000.fr;thermos-root-devel-WordCountTopology-1-32480b17-c9bf-48ac-8bd9-57f1a3400b83;["container_1_Consume_and_count_1"];1.25;1533040992.50757;141.97;474.05;1081.85474671;10;151
43;paravance-69.rennes.grid5000.fr;thermos-root-devel-WordCountTopology-0-8043eac0-8674-41a8-a655-82570c504bef;["topology_master"];1.25;1533041002.78465;5.61;13.33;6.521292545;9;117
43;paravance-67.rennes.grid5000.fr;thermos-root-devel-WordCountTopology-2-c6c08717-82e7-48e0-a413-718459811319;["container_2_Emit_random_words_2"];1.25;1533041002.7271;95.52;369.1;375.662441926;10;149
43;paravance-68.rennes.grid5000.fr;thermos-root-devel-WordCountTopology-1-32480b17-c9bf-48ac-8bd9-57f1a3400b83;["container_1_Consume_and_count_1"];1.25;1533041002.72505;144.65;483.17;1103.690511325;10;151
44;paravance-67.rennes.grid5000.fr;thermos-root-devel-WordCountTopology-2-c6c08717-82e7-48e0-a413-718459811319;["container_2_Emit_random_words_2"];1.25;1533041012.94525;97.25;375.57;381.520598549;10;149
44;paravance-68.rennes.grid5000.fr;thermos-root-devel-WordCountTopology-1-32480b17-c9bf-48ac-8bd9-57f1a3400b83;["container_1_Consume_and_count_1"];1.25;1533041012.94203;147.32;492.24;1122.919578468;10;151
44;paravance-69.rennes.grid5000.fr;thermos-root-devel-WordCountTopology-0-8043eac0-8674-41a8-a655-82570c504bef;["topology_master"];1.25;1533041013.00289;5.63;13.37;6.521292545;9;117
45;paravance-68.rennes.grid5000.fr;thermos-root-devel-WordCountTopology-1-32480b17-c9bf-48ac-8bd9-57f1a3400b83;["container_1_Consume_and_count_1"];1.25;1533041023.16115;149.98;501.26;1142.522284051;10;151
45;paravance-67.rennes.grid5000.fr;thermos-root-devel-WordCountTopology-2-c6c08717-82e7-48e0-a413-718459811319;["container_2_Emit_random_words_2"];1.25;1533041023.16422;99.12;382.62;388.396290835;10;149
45;paravance-69.rennes.grid5000.fr;thermos-root-devel-WordCountTopology-0-8043eac0-8674-41a8-a655-82570c504bef;["topology_master"];1.25;1533041023.22092;5.72;13.48;6.521292545;9;117
46;paravance-67.rennes.grid5000.fr;thermos-root-devel-WordCountTopology-2-c6c08717-82e7-48e0-a413-718459811319;["container_2_Emit_random_words_2"];1.25;1533041033.38113;100.84;389.24;393.997501578;10;149
46;paravance-68.rennes.grid5000.fr;thermos-root-devel-WordCountTopology-1-32480b17-c9bf-48ac-8bd9-57f1a3400b83;["container_1_Consume_and_count_1"];1.25;1533041033.37879;152.69;510.34;1163.680338532;10;151
46;paravance-69.rennes.grid5000.fr;thermos-root-devel-WordCountTopology-0-8043eac0-8674-41a8-a655-82570c504bef;["topology_master"];1.25;1533041033.43868;5.78;13.56;6.521292545;9;117
47;paravance-69.rennes.grid5000.fr;thermos-root-devel-WordCountTopology-0-8043eac0-8674-41a8-a655-82570c504bef;["topology_master"];1.25;1533041043.6565;5.84;13.64;6.521292545;9;117
47;paravance-67.rennes.grid5000.fr;thermos-root-devel-WordCountTopology-2-c6c08717-82e7-48e0-a413-718459811319;["container_2_Emit_random_words_2"];1.25;1533041043.59959;102.65;396.09;401.06410625;10;149
47;paravance-68.rennes.grid5000.fr;thermos-root-devel-WordCountTopology-1-32480b17-c9bf-48ac-8bd9-57f1a3400b83;["container_1_Consume_and_count_1"];1.25;1533041043.59646;155.41;519.37;1183.314111152;10;151
48;paravance-69.rennes.grid5000.fr;thermos-root-devel-WordCountTopology-0-8043eac0-8674-41a8-a655-82570c504bef;["topology_master"];1.25;1533041053.87191;5.91;13.77;6.521292545;9;117
48;paravance-67.rennes.grid5000.fr;thermos-root-devel-WordCountTopology-2-c6c08717-82e7-48e0-a413-718459811319;["container_2_Emit_random_words_2"];1.25;1533041053.816;104.41;402.82;406.756693523;10;149
48;paravance-68.rennes.grid5000.fr;thermos-root-devel-WordCountTopology-1-32480b17-c9bf-48ac-8bd9-57f1a3400b83;["container_1_Consume_and_count_1"];1.25;1533041053.8128;158.08;528.49;1204.756988185;10;151
49;paravance-68.rennes.grid5000.fr;thermos-root-devel-WordCountTopology-1-32480b17-c9bf-48ac-8bd9-57f1a3400b83;["container_1_Consume_and_count_1"];1.25;1533041064.02954;160.77;537.64;1226.706064244;10;151
49;paravance-69.rennes.grid5000.fr;thermos-root-devel-WordCountTopology-0-8043eac0-8674-41a8-a655-82570c504bef;["topology_master"];1.25;1533041064.0896;6.0;13.9;6.521292545;9;117
49;paravance-67.rennes.grid5000.fr;thermos-root-devel-WordCountTopology-2-c6c08717-82e7-48e0-a413-718459811319;["container_2_Emit_random_words_2"];1.25;1533041064.03374;106.2;409.78;413.258471443;10;149
50;paravance-68.rennes.grid5000.fr;thermos-root-devel-WordCountTopology-1-32480b17-c9bf-48ac-8bd9-57f1a3400b83;["container_1_Consume_and_count_1"];1.25;1533041074.2479;163.46;546.79;1244.767716916;10;151
50;paravance-69.rennes.grid5000.fr;thermos-root-devel-WordCountTopology-0-8043eac0-8674-41a8-a655-82570c504bef;["topology_master"];1.25;1533041074.30791;6.03;13.93;6.521292545;9;117
50;paravance-67.rennes.grid5000.fr;thermos-root-devel-WordCountTopology-2-c6c08717-82e7-48e0-a413-718459811319;["container_2_Emit_random_words_2"];1.25;1533041074.25081;108.09;416.94;420.596977869;10;149
51;paravance-69.rennes.grid5000.fr;thermos-root-devel-WordCountTopology-0-8043eac0-8674-41a8-a655-82570c504bef;["topology_master"];1.25;1533041084.52566;6.12;14.05;6.521292545;9;117
51;paravance-68.rennes.grid5000.fr;thermos-root-devel-WordCountTopology-1-32480b17-c9bf-48ac-8bd9-57f1a3400b83;["container_1_Consume_and_count_1"];1.25;1533041084.46595;166.1;555.95;1264.528388812;10;151
51;paravance-67.rennes.grid5000.fr;thermos-root-devel-WordCountTopology-2-c6c08717-82e7-48e0-a413-718459811319;["container_2_Emit_random_words_2"];1.25;1533041084.46902;109.89;423.71;427.615765362;10;149
52;paravance-67.rennes.grid5000.fr;thermos-root-devel-WordCountTopology-2-c6c08717-82e7-48e0-a413-718459811319;["container_2_Emit_random_words_2"];1.25;1533041094.68544;111.59;430.17;433.571861883;10;149
52;paravance-68.rennes.grid5000.fr;thermos-root-devel-WordCountTopology-1-32480b17-c9bf-48ac-8bd9-57f1a3400b83;["container_1_Consume_and_count_1"];1.25;1533041094.68409;168.77;565.11;1285.075499483;10;151
52;paravance-69.rennes.grid5000.fr;thermos-root-devel-WordCountTopology-0-8043eac0-8674-41a8-a655-82570c504bef;["topology_master"];1.25;1533041094.74342;6.18;14.13;6.521292545;9;117
53;paravance-69.rennes.grid5000.fr;thermos-root-devel-WordCountTopology-0-8043eac0-8674-41a8-a655-82570c504bef;["topology_master"];1.25;1533041104.96202;6.24;14.22;6.521292545;9;117
53;paravance-67.rennes.grid5000.fr;thermos-root-devel-WordCountTopology-2-c6c08717-82e7-48e0-a413-718459811319;["container_2_Emit_random_words_2"];1.25;1533041104.90458;113.46;437.3;440.100273402;10;149
53;paravance-68.rennes.grid5000.fr;thermos-root-devel-WordCountTopology-1-32480b17-c9bf-48ac-8bd9-57f1a3400b83;["container_1_Consume_and_count_1"];1.25;1533041104.90153;171.51;574.22;1304.239484018;10;151
54;paravance-68.rennes.grid5000.fr;thermos-root-devel-WordCountTopology-1-32480b17-c9bf-48ac-8bd9-57f1a3400b83;["container_1_Consume_and_count_1"];1.25;1533041115.12899;173.92;583.62;1330.94212245;10;151
54;paravance-69.rennes.grid5000.fr;thermos-root-devel-WordCountTopology-0-8043eac0-8674-41a8-a655-82570c504bef;["topology_master"];1.25;1533041115.18927;6.31;14.32;6.521292545;9;117
54;paravance-67.rennes.grid5000.fr;thermos-root-devel-WordCountTopology-2-c6c08717-82e7-48e0-a413-718459811319;["container_2_Emit_random_words_2"];1.25;1533041115.13233;114.97;442.91;445.297590666;10;149
55;paravance-68.rennes.grid5000.fr;thermos-root-devel-WordCountTopology-1-32480b17-c9bf-48ac-8bd9-57f1a3400b83;["container_1_Consume_and_count_1"];1.25;1533041125.34557;176.4;592.91;1357.241731949;10;151
55;paravance-69.rennes.grid5000.fr;thermos-root-devel-WordCountTopology-0-8043eac0-8674-41a8-a655-82570c504bef;["topology_master"];1.25;1533041125.40708;6.4;14.45;6.521292545;9;117
55;paravance-67.rennes.grid5000.fr;thermos-root-devel-WordCountTopology-2-c6c08717-82e7-48e0-a413-718459811319;["container_2_Emit_random_words_2"];1.25;1533041125.35075;116.48;448.5;450.049295264;10;149
56;paravance-68.rennes.grid5000.fr;thermos-root-devel-WordCountTopology-1-32480b17-c9bf-48ac-8bd9-57f1a3400b83;["container_1_Consume_and_count_1"];1.25;1533041135.56347;178.92;602.22;1381.945230831;10;151
56;paravance-67.rennes.grid5000.fr;thermos-root-devel-WordCountTopology-2-c6c08717-82e7-48e0-a413-718459811319;["container_2_Emit_random_words_2"];1.25;1533041135.5659;118.11;454.91;455.695110718;10;149
56;paravance-69.rennes.grid5000.fr;thermos-root-devel-WordCountTopology-0-8043eac0-8674-41a8-a655-82570c504bef;["topology_master"];1.25;1533041135.62264;6.42;14.48;6.521292545;9;117
57;paravance-69.rennes.grid5000.fr;thermos-root-devel-WordCountTopology-0-8043eac0-8674-41a8-a655-82570c504bef;["topology_master"];1.25;1533041145.84029;6.51;14.6;6.521292545;9;117
57;paravance-67.rennes.grid5000.fr;thermos-root-devel-WordCountTopology-2-c6c08717-82e7-48e0-a413-718459811319;["container_2_Emit_random_words_2"];1.25;1533041145.78468;119.86;461.61;461.25420421;10;149
57;paravance-68.rennes.grid5000.fr;thermos-root-devel-WordCountTopology-1-32480b17-c9bf-48ac-8bd9-57f1a3400b83;["container_1_Consume_and_count_1"];1.25;1533041145.78131;181.62;611.34;1402.841156326;10;151
58;paravance-67.rennes.grid5000.fr;thermos-root-devel-WordCountTopology-2-c6c08717-82e7-48e0-a413-718459811319;["container_2_Emit_random_words_2"];1.25;1533041156.00059;121.53;467.88;466.184199101;10;149
58;paravance-69.rennes.grid5000.fr;thermos-root-devel-WordCountTopology-0-8043eac0-8674-41a8-a655-82570c504bef;["topology_master"];1.25;1533041156.05606;6.57;14.67;6.521292545;9;117
58;paravance-68.rennes.grid5000.fr;thermos-root-devel-WordCountTopology-1-32480b17-c9bf-48ac-8bd9-57f1a3400b83;["container_1_Consume_and_count_1"];1.25;1533041155.99735;184.32;620.6;1425.468030515;10;151
59;paravance-69.rennes.grid5000.fr;thermos-root-devel-WordCountTopology-0-8043eac0-8674-41a8-a655-82570c504bef;["topology_master"];1.25;1533041166.27174;6.64;14.8;6.521292545;9;117
59;paravance-68.rennes.grid5000.fr;thermos-root-devel-WordCountTopology-1-32480b17-c9bf-48ac-8bd9-57f1a3400b83;["container_1_Consume_and_count_1"];1.25;1533041166.21232;187.1;629.69;1446.113458602;10;151
59;paravance-67.rennes.grid5000.fr;thermos-root-devel-WordCountTopology-2-c6c08717-82e7-48e0-a413-718459811319;["container_2_Emit_random_words_2"];1.25;1533041166.21628;123.37;474.8;472.226242922;10;149
60;paravance-68.rennes.grid5000.fr;thermos-root-devel-WordCountTopology-1-32480b17-c9bf-48ac-8bd9-57f1a3400b83;["container_1_Consume_and_count_1"];1.25;1533041176.42627;189.75;638.87;1466.121663691;10;151
60;paravance-67.rennes.grid5000.fr;thermos-root-devel-WordCountTopology-2-c6c08717-82e7-48e0-a413-718459811319;["container_2_Emit_random_words_2"];1.25;1533041176.43096;125.16;481.75;478.540698759;10;149
60;paravance-69.rennes.grid5000.fr;thermos-root-devel-WordCountTopology-0-8043eac0-8674-41a8-a655-82570c504bef;["topology_master"];1.25;1533041176.48738;6.71;14.88;6.521292545;9;117
