{
  "status": "success",
  "executiontime": 0.00021910667419433594,
  "message": "",
  "result": {
    "bolts": {
      "Consume_and_count": [
        "container_1_Consume_and_count_1"
      ]
    },
    "instances": {
      "container_2_Emit_random_words_2": {
        "stmgrId": "stmgr-2",
        "logfile": "http://paravance-71.rennes.grid5000.fr:31589/file/log-files/container_2_Emit_random_words_2.log.0",
        "id": "container_2_Emit_random_words_2",
        "name": "Emit_random_words"
      },
      "container_1_Consume_and_count_1": {
        "stmgrId": "stmgr-1",
        "logfile": "http://paravance-44.rennes.grid5000.fr:31574/file/log-files/container_1_Consume_and_count_1.log.0",
        "id": "container_1_Consume_and_count_1",
        "name": "Consume_and_count"
      }
    },
    "instance_groups": {
      "container_1_Consume_and": [
        "container_1_Consume_and_count_1"
      ],
      "container_2_Emit_random": [
        "container_2_Emit_random_words_2"
      ]
    },
    "spouts": {
      "Emit_random_words": [
        "container_2_Emit_random_words_2"
      ]
    },
    "config": {
      "topology.message.timeout.secs": "30",
      "topology.team.environment": "devel",
      "topology.serializer.classname": "org.apache.heron.streamlet.impl.KryoSerializer",
      "topology.team.name": "root",
      "topology.debug": "false",
      "topology.max.spout.pending": "100",
      "topology.container.padding.percentage": "400",
      "topology.enable.message.timeouts": "true",
      "topology.component.parallelism": "1",
      "topology.name": "WordCountTopology",
      "topology.stmgrs": "2",
      "topology.reliability.mode": "ATMOST_ONCE"
    },
    "stmgrs": {
      "stmgr-1": {
        "cwd": "/var/lib/mesos/slaves/4ee8fcc3-d26e-44fc-bf49-39cad29584d2-S2/frameworks/75deb08a-eb1b-415c-8b2c-e922be5f7d98-0000/executors/thermos-root-devel-WordCountTopology-1-768b9330-6ced-43af-ac69-5b3f566402aa/runs/f22fdfb3-3e96-4964-84f2-5d534a964f38/sandbox",
        "host": "paravance-44.rennes.grid5000.fr",
        "joburl": "http://paravance-44.rennes.grid5000.fr:31574/browse/",
        "shell_port": 31574,
        "logfiles": "http://paravance-44.rennes.grid5000.fr:31574/browse/log-files",
        "pid": 2725,
        "id": "stmgr-1",
        "instance_ids": [
          "container_1_Consume_and_count_1"
        ],
        "port": 31638
      },
      "stmgr-2": {
        "cwd": "/var/lib/mesos/slaves/4ee8fcc3-d26e-44fc-bf49-39cad29584d2-S0/frameworks/75deb08a-eb1b-415c-8b2c-e922be5f7d98-0000/executors/thermos-root-devel-WordCountTopology-2-6bbac5f8-a2e5-4823-837d-fd4b63df9773/runs/ecd191fc-5c21-4af6-8eb4-091ce0c14362/sandbox",
        "host": "paravance-71.rennes.grid5000.fr",
        "joburl": "http://paravance-71.rennes.grid5000.fr:31589/browse/",
        "shell_port": 31589,
        "logfiles": "http://paravance-71.rennes.grid5000.fr:31589/browse/log-files",
        "pid": 2845,
        "id": "stmgr-2",
        "instance_ids": [
          "container_2_Emit_random_words_2"
        ],
        "port": 31995
      }
    }
  },
  "tracker_version": "0.17.8-61-gd7c8c62"
}