mesure_id;slave_id;executor_id;heron_instances;cpus_limit;timestamp_B;cpus_system_time_secs_B;cpus_user_time_secs_B;cpus_throttled_time_secs_B;processes;threads
0;paravance-29.rennes.grid5000.fr;thermos-root-devel-WordCountTopology-1-87d7e74f-c3b0-4da0-a670-4f45e84f3dca;["container_1_Consume_and_count_1"];3.25;1533751193.60472;40.58;299.23;108.335227733;10;151
0;paravance-25.rennes.grid5000.fr;thermos-root-devel-WordCountTopology-0-21a61557-e933-480f-80e1-26c4b575da13;["topology_master"];3.25;1533751193.72026;2.41;7.93;0.347415979;9;117
0;paravance-20.rennes.grid5000.fr;thermos-root-devel-WordCountTopology-2-afbe6184-e211-4ace-93f4-a86e583a3cd6;["container_2_Emit_random_words_2"];3.25;1533751193.73927;15.41;167.56;6.658305916;10;149
1;paravance-25.rennes.grid5000.fr;thermos-root-devel-WordCountTopology-0-21a61557-e933-480f-80e1-26c4b575da13;["topology_master"];3.25;1533751203.83681;2.5;8.06;0.347415979;9;117
1;paravance-29.rennes.grid5000.fr;thermos-root-devel-WordCountTopology-1-87d7e74f-c3b0-4da0-a670-4f45e84f3dca;["container_1_Consume_and_count_1"];3.25;1533751203.8202;43.85;327.95;119.597381162;10;151
1;paravance-20.rennes.grid5000.fr;thermos-root-devel-WordCountTopology-2-afbe6184-e211-4ace-93f4-a86e583a3cd6;["container_2_Emit_random_words_2"];3.25;1533751203.95414;16.5;179.44;6.658305916;10;149
2;paravance-25.rennes.grid5000.fr;thermos-root-devel-WordCountTopology-0-21a61557-e933-480f-80e1-26c4b575da13;["topology_master"];3.25;1533751214.05917;2.54;8.11;0.347415979;9;117
2;paravance-29.rennes.grid5000.fr;thermos-root-devel-WordCountTopology-1-87d7e74f-c3b0-4da0-a670-4f45e84f3dca;["container_1_Consume_and_count_1"];3.25;1533751214.04041;47.11;356.54;130.611520059;10;151
2;paravance-20.rennes.grid5000.fr;thermos-root-devel-WordCountTopology-2-afbe6184-e211-4ace-93f4-a86e583a3cd6;["container_2_Emit_random_words_2"];3.25;1533751214.18032;17.4;189.53;6.658305916;10;149
3;paravance-25.rennes.grid5000.fr;thermos-root-devel-WordCountTopology-0-21a61557-e933-480f-80e1-26c4b575da13;["topology_master"];3.25;1533751224.27916;2.63;8.23;0.347415979;9;117
3;paravance-29.rennes.grid5000.fr;thermos-root-devel-WordCountTopology-1-87d7e74f-c3b0-4da0-a670-4f45e84f3dca;["container_1_Consume_and_count_1"];3.25;1533751224.26363;50.22;385.69;143.060419002;10;151
3;paravance-20.rennes.grid5000.fr;thermos-root-devel-WordCountTopology-2-afbe6184-e211-4ace-93f4-a86e583a3cd6;["container_2_Emit_random_words_2"];3.25;1533751224.39921;18.69;204.6;6.658305916;10;149
4;paravance-29.rennes.grid5000.fr;thermos-root-devel-WordCountTopology-1-87d7e74f-c3b0-4da0-a670-4f45e84f3dca;["container_1_Consume_and_count_1"];3.25;1533751234.47858;52.87;411.32;149.943843806;10;151
4;paravance-25.rennes.grid5000.fr;thermos-root-devel-WordCountTopology-0-21a61557-e933-480f-80e1-26c4b575da13;["topology_master"];3.25;1533751234.59424;2.69;8.3;0.347415979;9;117
4;paravance-20.rennes.grid5000.fr;thermos-root-devel-WordCountTopology-2-afbe6184-e211-4ace-93f4-a86e583a3cd6;["container_2_Emit_random_words_2"];3.25;1533751234.61406;19.43;212.44;6.658305916;10;149
5;paravance-29.rennes.grid5000.fr;thermos-root-devel-WordCountTopology-1-87d7e74f-c3b0-4da0-a670-4f45e84f3dca;["container_1_Consume_and_count_1"];3.25;1533751244.69526;55.86;437.86;158.55764006;10;151
5;paravance-20.rennes.grid5000.fr;thermos-root-devel-WordCountTopology-2-afbe6184-e211-4ace-93f4-a86e583a3cd6;["container_2_Emit_random_words_2"];3.25;1533751244.8291;20.38;223.03;6.658305916;10;149
5;paravance-25.rennes.grid5000.fr;thermos-root-devel-WordCountTopology-0-21a61557-e933-480f-80e1-26c4b575da13;["topology_master"];3.25;1533751244.80985;2.8;8.5;0.347415979;9;117
6;paravance-29.rennes.grid5000.fr;thermos-root-devel-WordCountTopology-1-87d7e74f-c3b0-4da0-a670-4f45e84f3dca;["container_1_Consume_and_count_1"];3.25;1533751254.91209;58.29;464.14;167.033447174;10;151
6;paravance-25.rennes.grid5000.fr;thermos-root-devel-WordCountTopology-0-21a61557-e933-480f-80e1-26c4b575da13;["topology_master"];3.25;1533751255.02946;2.83;8.54;0.347415979;9;117
6;paravance-20.rennes.grid5000.fr;thermos-root-devel-WordCountTopology-2-afbe6184-e211-4ace-93f4-a86e583a3cd6;["container_2_Emit_random_words_2"];3.25;1533751255.04868;21.03;230.02;6.658305916;10;149
7;paravance-29.rennes.grid5000.fr;thermos-root-devel-WordCountTopology-1-87d7e74f-c3b0-4da0-a670-4f45e84f3dca;["container_1_Consume_and_count_1"];3.25;1533751265.12664;61.22;490.76;177.673941014;10;151
7;paravance-25.rennes.grid5000.fr;thermos-root-devel-WordCountTopology-0-21a61557-e933-480f-80e1-26c4b575da13;["topology_master"];3.25;1533751265.24404;2.92;8.67;0.347415979;9;117
7;paravance-20.rennes.grid5000.fr;thermos-root-devel-WordCountTopology-2-afbe6184-e211-4ace-93f4-a86e583a3cd6;["container_2_Emit_random_words_2"];3.25;1533751265.26389;21.99;240.51;6.658305916;10;149
8;paravance-25.rennes.grid5000.fr;thermos-root-devel-WordCountTopology-0-21a61557-e933-480f-80e1-26c4b575da13;["topology_master"];3.25;1533751275.46087;2.97;8.74;0.347415979;9;117
8;paravance-29.rennes.grid5000.fr;thermos-root-devel-WordCountTopology-1-87d7e74f-c3b0-4da0-a670-4f45e84f3dca;["container_1_Consume_and_count_1"];3.25;1533751275.34681;64.15;519.19;186.854377626;10;151
8;paravance-20.rennes.grid5000.fr;thermos-root-devel-WordCountTopology-2-afbe6184-e211-4ace-93f4-a86e583a3cd6;["container_2_Emit_random_words_2"];3.25;1533751275.48102;22.7;248.68;6.658305916;10;149
9;paravance-29.rennes.grid5000.fr;thermos-root-devel-WordCountTopology-1-87d7e74f-c3b0-4da0-a670-4f45e84f3dca;["container_1_Consume_and_count_1"];3.25;1533751285.56267;67.48;547.67;197.175436439;10;151
9;paravance-25.rennes.grid5000.fr;thermos-root-devel-WordCountTopology-0-21a61557-e933-480f-80e1-26c4b575da13;["topology_master"];3.25;1533751285.67916;3.03;8.82;0.347415979;9;117
9;paravance-20.rennes.grid5000.fr;thermos-root-devel-WordCountTopology-2-afbe6184-e211-4ace-93f4-a86e583a3cd6;["container_2_Emit_random_words_2"];3.25;1533751285.69892;23.7;260.73;6.658305916;10;149
10;paravance-20.rennes.grid5000.fr;thermos-root-devel-WordCountTopology-2-afbe6184-e211-4ace-93f4-a86e583a3cd6;["container_2_Emit_random_words_2"];3.25;1533751295.91234;24.62;271.28;6.658305916;10;149
10;paravance-29.rennes.grid5000.fr;thermos-root-devel-WordCountTopology-1-87d7e74f-c3b0-4da0-a670-4f45e84f3dca;["container_1_Consume_and_count_1"];3.25;1533751295.77845;70.4;575.87;206.884519152;10;151
10;paravance-25.rennes.grid5000.fr;thermos-root-devel-WordCountTopology-0-21a61557-e933-480f-80e1-26c4b575da13;["topology_master"];3.25;1533751295.895;3.1;8.89;0.347415979;9;117
11;paravance-20.rennes.grid5000.fr;thermos-root-devel-WordCountTopology-2-afbe6184-e211-4ace-93f4-a86e583a3cd6;["container_2_Emit_random_words_2"];3.25;1533751306.02827;25.69;283.77;6.658305916;10;149
11;paravance-25.rennes.grid5000.fr;thermos-root-devel-WordCountTopology-0-21a61557-e933-480f-80e1-26c4b575da13;["topology_master"];3.25;1533751306.10827;3.22;9.17;0.347415979;9;117
11;paravance-29.rennes.grid5000.fr;thermos-root-devel-WordCountTopology-1-87d7e74f-c3b0-4da0-a670-4f45e84f3dca;["container_1_Consume_and_count_1"];3.25;1533751305.99353;73.58;604.66;219.234826092;10;151
12;paravance-25.rennes.grid5000.fr;thermos-root-devel-WordCountTopology-0-21a61557-e933-480f-80e1-26c4b575da13;["topology_master"];3.25;1533751316.32569;3.25;9.19;0.347415979;9;117
12;paravance-29.rennes.grid5000.fr;thermos-root-devel-WordCountTopology-1-87d7e74f-c3b0-4da0-a670-4f45e84f3dca;["container_1_Consume_and_count_1"];3.25;1533751316.21104;76.44;632.78;229.345487175;10;151
12;paravance-20.rennes.grid5000.fr;thermos-root-devel-WordCountTopology-2-afbe6184-e211-4ace-93f4-a86e583a3cd6;["container_2_Emit_random_words_2"];3.25;1533751316.34853;26.69;295.45;6.658305916;10;149
13;paravance-29.rennes.grid5000.fr;thermos-root-devel-WordCountTopology-1-87d7e74f-c3b0-4da0-a670-4f45e84f3dca;["container_1_Consume_and_count_1"];3.25;1533751326.32985;79.45;660.23;239.622438928;10;151
13;paravance-20.rennes.grid5000.fr;thermos-root-devel-WordCountTopology-2-afbe6184-e211-4ace-93f4-a86e583a3cd6;["container_2_Emit_random_words_2"];3.25;1533751326.56395;27.76;307.94;6.658305916;10;149
13;paravance-25.rennes.grid5000.fr;thermos-root-devel-WordCountTopology-0-21a61557-e933-480f-80e1-26c4b575da13;["topology_master"];3.25;1533751326.54501;3.35;9.38;0.347415979;9;117
14;paravance-29.rennes.grid5000.fr;thermos-root-devel-WordCountTopology-1-87d7e74f-c3b0-4da0-a670-4f45e84f3dca;["container_1_Consume_and_count_1"];3.25;1533751336.64633;82.79;689.32;251.658107699;10;151
14;paravance-20.rennes.grid5000.fr;thermos-root-devel-WordCountTopology-2-afbe6184-e211-4ace-93f4-a86e583a3cd6;["container_2_Emit_random_words_2"];3.25;1533751336.78172;28.91;321.65;6.658305916;10;149
14;paravance-25.rennes.grid5000.fr;thermos-root-devel-WordCountTopology-0-21a61557-e933-480f-80e1-26c4b575da13;["topology_master"];3.25;1533751336.76221;3.4;9.45;0.347415979;9;117
15;paravance-29.rennes.grid5000.fr;thermos-root-devel-WordCountTopology-1-87d7e74f-c3b0-4da0-a670-4f45e84f3dca;["container_1_Consume_and_count_1"];3.25;1533751346.86147;85.32;715.83;259.359048504;10;151
15;paravance-20.rennes.grid5000.fr;thermos-root-devel-WordCountTopology-2-afbe6184-e211-4ace-93f4-a86e583a3cd6;["container_2_Emit_random_words_2"];3.25;1533751346.99941;29.84;332.71;6.658305916;10;149
15;paravance-25.rennes.grid5000.fr;thermos-root-devel-WordCountTopology-0-21a61557-e933-480f-80e1-26c4b575da13;["topology_master"];3.25;1533751346.97949;3.46;9.54;0.347415979;9;117
16;paravance-20.rennes.grid5000.fr;thermos-root-devel-WordCountTopology-2-afbe6184-e211-4ace-93f4-a86e583a3cd6;["container_2_Emit_random_words_2"];3.25;1533751357.22315;30.61;341.45;6.658305916;10;149
16;paravance-29.rennes.grid5000.fr;thermos-root-devel-WordCountTopology-1-87d7e74f-c3b0-4da0-a670-4f45e84f3dca;["container_1_Consume_and_count_1"];3.25;1533751357.0903;88.21;743.62;268.051065943;10;151
16;paravance-25.rennes.grid5000.fr;thermos-root-devel-WordCountTopology-0-21a61557-e933-480f-80e1-26c4b575da13;["topology_master"];3.25;1533751357.20608;3.52;9.61;0.347415979;9;117
17;paravance-20.rennes.grid5000.fr;thermos-root-devel-WordCountTopology-2-afbe6184-e211-4ace-93f4-a86e583a3cd6;["container_2_Emit_random_words_2"];3.25;1533751367.44412;31.55;351.5;6.658305916;10;149
17;paravance-29.rennes.grid5000.fr;thermos-root-devel-WordCountTopology-1-87d7e74f-c3b0-4da0-a670-4f45e84f3dca;["container_1_Consume_and_count_1"];3.25;1533751367.31402;91.33;771.3;277.81670321;10;151
17;paravance-25.rennes.grid5000.fr;thermos-root-devel-WordCountTopology-0-21a61557-e933-480f-80e1-26c4b575da13;["topology_master"];3.25;1533751367.42871;3.64;9.82;0.347415979;9;117
18;paravance-29.rennes.grid5000.fr;thermos-root-devel-WordCountTopology-1-87d7e74f-c3b0-4da0-a670-4f45e84f3dca;["container_1_Consume_and_count_1"];3.25;1533751377.52606;94.2;799.13;287.549742933;10;151
18;paravance-25.rennes.grid5000.fr;thermos-root-devel-WordCountTopology-0-21a61557-e933-480f-80e1-26c4b575da13;["topology_master"];3.25;1533751377.64261;3.66;9.85;0.347415979;9;117
18;paravance-20.rennes.grid5000.fr;thermos-root-devel-WordCountTopology-2-afbe6184-e211-4ace-93f4-a86e583a3cd6;["container_2_Emit_random_words_2"];3.25;1533751377.67378;32.48;362.71;6.658305916;10;149
19;paravance-29.rennes.grid5000.fr;thermos-root-devel-WordCountTopology-1-87d7e74f-c3b0-4da0-a670-4f45e84f3dca;["container_1_Consume_and_count_1"];3.25;1533751387.75105;97.06;825.6;297.31394883;10;151
19;paravance-20.rennes.grid5000.fr;thermos-root-devel-WordCountTopology-2-afbe6184-e211-4ace-93f4-a86e583a3cd6;["container_2_Emit_random_words_2"];3.25;1533751387.89;33.45;373.56;6.658305916;10;149
19;paravance-25.rennes.grid5000.fr;thermos-root-devel-WordCountTopology-0-21a61557-e933-480f-80e1-26c4b575da13;["topology_master"];3.25;1533751387.87036;3.76;9.98;0.347415979;9;117
20;paravance-20.rennes.grid5000.fr;thermos-root-devel-WordCountTopology-2-afbe6184-e211-4ace-93f4-a86e583a3cd6;["container_2_Emit_random_words_2"];3.25;1533751398.10468;34.32;383.86;6.658305916;10;149
20;paravance-25.rennes.grid5000.fr;thermos-root-devel-WordCountTopology-0-21a61557-e933-480f-80e1-26c4b575da13;["topology_master"];3.25;1533751398.08593;3.82;10.06;0.347415979;9;117
20;paravance-29.rennes.grid5000.fr;thermos-root-devel-WordCountTopology-1-87d7e74f-c3b0-4da0-a670-4f45e84f3dca;["container_1_Consume_and_count_1"];3.25;1533751397.97409;99.92;852.8;307.170876997;10;151
21;paravance-20.rennes.grid5000.fr;thermos-root-devel-WordCountTopology-2-afbe6184-e211-4ace-93f4-a86e583a3cd6;["container_2_Emit_random_words_2"];3.25;1533751408.32297;35.24;394.66;6.658305916;10;149
21;paravance-29.rennes.grid5000.fr;thermos-root-devel-WordCountTopology-1-87d7e74f-c3b0-4da0-a670-4f45e84f3dca;["container_1_Consume_and_count_1"];3.25;1533751408.18908;102.78;880.53;317.19335414;10;151
21;paravance-25.rennes.grid5000.fr;thermos-root-devel-WordCountTopology-0-21a61557-e933-480f-80e1-26c4b575da13;["topology_master"];3.25;1533751408.30438;3.88;10.13;0.347415979;9;117
22;paravance-29.rennes.grid5000.fr;thermos-root-devel-WordCountTopology-1-87d7e74f-c3b0-4da0-a670-4f45e84f3dca;["container_1_Consume_and_count_1"];3.25;1533751418.40372;105.63;907.22;325.595519809;10;151
22;paravance-20.rennes.grid5000.fr;thermos-root-devel-WordCountTopology-2-afbe6184-e211-4ace-93f4-a86e583a3cd6;["container_2_Emit_random_words_2"];3.25;1533751418.53844;36.2;406.14;6.658305916;10;149
22;paravance-25.rennes.grid5000.fr;thermos-root-devel-WordCountTopology-0-21a61557-e933-480f-80e1-26c4b575da13;["topology_master"];3.25;1533751418.51883;3.94;10.21;0.347415979;9;117
23;paravance-29.rennes.grid5000.fr;thermos-root-devel-WordCountTopology-1-87d7e74f-c3b0-4da0-a670-4f45e84f3dca;["container_1_Consume_and_count_1"];3.25;1533751428.62681;108.29;933.94;334.94931104;10;151
23;paravance-25.rennes.grid5000.fr;thermos-root-devel-WordCountTopology-0-21a61557-e933-480f-80e1-26c4b575da13;["topology_master"];3.25;1533751428.74262;4.06;10.39;0.347415979;9;117
23;paravance-20.rennes.grid5000.fr;thermos-root-devel-WordCountTopology-2-afbe6184-e211-4ace-93f4-a86e583a3cd6;["container_2_Emit_random_words_2"];3.25;1533751428.76347;37.16;416.62;6.658305916;10;149
24;paravance-29.rennes.grid5000.fr;thermos-root-devel-WordCountTopology-1-87d7e74f-c3b0-4da0-a670-4f45e84f3dca;["container_1_Consume_and_count_1"];3.25;1533751438.84874;111.08;961.91;345.982874364;10;151
24;paravance-25.rennes.grid5000.fr;thermos-root-devel-WordCountTopology-0-21a61557-e933-480f-80e1-26c4b575da13;["topology_master"];3.25;1533751438.9644;4.08;10.41;0.347415979;9;117
24;paravance-20.rennes.grid5000.fr;thermos-root-devel-WordCountTopology-2-afbe6184-e211-4ace-93f4-a86e583a3cd6;["container_2_Emit_random_words_2"];3.25;1533751438.98933;38.16;429.08;6.658305916;10;149
25;paravance-20.rennes.grid5000.fr;thermos-root-devel-WordCountTopology-2-afbe6184-e211-4ace-93f4-a86e583a3cd6;["container_2_Emit_random_words_2"];3.25;1533751449.21046;39.21;440.83;6.658305916;10;149
25;paravance-25.rennes.grid5000.fr;thermos-root-devel-WordCountTopology-0-21a61557-e933-480f-80e1-26c4b575da13;["topology_master"];3.25;1533751449.19445;4.17;10.54;0.347415979;9;117
25;paravance-29.rennes.grid5000.fr;thermos-root-devel-WordCountTopology-1-87d7e74f-c3b0-4da0-a670-4f45e84f3dca;["container_1_Consume_and_count_1"];3.25;1533751449.08082;113.79;989.03;356.440422839;10;151
26;paravance-29.rennes.grid5000.fr;thermos-root-devel-WordCountTopology-1-87d7e74f-c3b0-4da0-a670-4f45e84f3dca;["container_1_Consume_and_count_1"];3.25;1533751459.30188;116.77;1017.0;365.936579385;10;151
26;paravance-20.rennes.grid5000.fr;thermos-root-devel-WordCountTopology-2-afbe6184-e211-4ace-93f4-a86e583a3cd6;["container_2_Emit_random_words_2"];3.25;1533751459.44101;40.12;451.33;6.658305916;10;149
26;paravance-25.rennes.grid5000.fr;thermos-root-devel-WordCountTopology-0-21a61557-e933-480f-80e1-26c4b575da13;["topology_master"];3.25;1533751459.42039;4.23;10.61;0.347415979;9;117
27;paravance-29.rennes.grid5000.fr;thermos-root-devel-WordCountTopology-1-87d7e74f-c3b0-4da0-a670-4f45e84f3dca;["container_1_Consume_and_count_1"];3.25;1533751469.52843;120.33;1045.4;377.280525;10;151
27;paravance-20.rennes.grid5000.fr;thermos-root-devel-WordCountTopology-2-afbe6184-e211-4ace-93f4-a86e583a3cd6;["container_2_Emit_random_words_2"];3.25;1533751469.66665;41.5;468.71;6.658305916;10;149
27;paravance-25.rennes.grid5000.fr;thermos-root-devel-WordCountTopology-0-21a61557-e933-480f-80e1-26c4b575da13;["topology_master"];3.25;1533751469.64602;4.29;10.69;0.347415979;9;117
28;paravance-29.rennes.grid5000.fr;thermos-root-devel-WordCountTopology-1-87d7e74f-c3b0-4da0-a670-4f45e84f3dca;["container_1_Consume_and_count_1"];3.25;1533751479.74821;123.61;1074.08;389.670718738;10;151
28;paravance-25.rennes.grid5000.fr;thermos-root-devel-WordCountTopology-0-21a61557-e933-480f-80e1-26c4b575da13;["topology_master"];3.25;1533751479.86224;4.39;10.82;0.347415979;9;117
28;paravance-20.rennes.grid5000.fr;thermos-root-devel-WordCountTopology-2-afbe6184-e211-4ace-93f4-a86e583a3cd6;["container_2_Emit_random_words_2"];3.25;1533751479.88341;42.58;481.0;6.658305916;10;149
29;paravance-29.rennes.grid5000.fr;thermos-root-devel-WordCountTopology-1-87d7e74f-c3b0-4da0-a670-4f45e84f3dca;["container_1_Consume_and_count_1"];3.25;1533751489.96153;126.55;1101.2;398.243916254;10;151
29;paravance-25.rennes.grid5000.fr;thermos-root-devel-WordCountTopology-0-21a61557-e933-480f-80e1-26c4b575da13;["topology_master"];3.25;1533751490.07678;4.45;10.95;0.347415979;9;117
29;paravance-20.rennes.grid5000.fr;thermos-root-devel-WordCountTopology-2-afbe6184-e211-4ace-93f4-a86e583a3cd6;["container_2_Emit_random_words_2"];3.25;1533751490.09854;43.32;489.68;6.658305916;10;149
30;paravance-25.rennes.grid5000.fr;thermos-root-devel-WordCountTopology-0-21a61557-e933-480f-80e1-26c4b575da13;["topology_master"];3.25;1533751500.29911;4.51;11.03;0.347415979;9;117
30;paravance-29.rennes.grid5000.fr;thermos-root-devel-WordCountTopology-1-87d7e74f-c3b0-4da0-a670-4f45e84f3dca;["container_1_Consume_and_count_1"];3.25;1533751500.18743;129.19;1128.94;407.05754653;10;151
30;paravance-20.rennes.grid5000.fr;thermos-root-devel-WordCountTopology-2-afbe6184-e211-4ace-93f4-a86e583a3cd6;["container_2_Emit_random_words_2"];3.25;1533751500.3269;44.15;498.91;6.658305916;10;149
31;paravance-29.rennes.grid5000.fr;thermos-root-devel-WordCountTopology-1-87d7e74f-c3b0-4da0-a670-4f45e84f3dca;["container_1_Consume_and_count_1"];3.25;1533751510.40146;131.81;1156.23;417.255265689;10;151
31;paravance-25.rennes.grid5000.fr;thermos-root-devel-WordCountTopology-0-21a61557-e933-480f-80e1-26c4b575da13;["topology_master"];3.25;1533751510.51956;4.57;11.11;0.347415979;9;117
31;paravance-20.rennes.grid5000.fr;thermos-root-devel-WordCountTopology-2-afbe6184-e211-4ace-93f4-a86e583a3cd6;["container_2_Emit_random_words_2"];3.25;1533751510.5486;45.12;509.9;6.658305916;10;149
32;paravance-29.rennes.grid5000.fr;thermos-root-devel-WordCountTopology-1-87d7e74f-c3b0-4da0-a670-4f45e84f3dca;["container_1_Consume_and_count_1"];3.25;1533751520.62986;134.83;1184.96;427.285062672;10;151
32;paravance-25.rennes.grid5000.fr;thermos-root-devel-WordCountTopology-0-21a61557-e933-480f-80e1-26c4b575da13;["topology_master"];3.25;1533751520.74907;4.66;11.23;0.347415979;9;117
32;paravance-20.rennes.grid5000.fr;thermos-root-devel-WordCountTopology-2-afbe6184-e211-4ace-93f4-a86e583a3cd6;["container_2_Emit_random_words_2"];3.25;1533751520.77119;46.01;520.13;6.658305916;10;149
33;paravance-29.rennes.grid5000.fr;thermos-root-devel-WordCountTopology-1-87d7e74f-c3b0-4da0-a670-4f45e84f3dca;["container_1_Consume_and_count_1"];3.25;1533751530.85221;138.0;1213.06;436.687208259;10;151
33;paravance-20.rennes.grid5000.fr;thermos-root-devel-WordCountTopology-2-afbe6184-e211-4ace-93f4-a86e583a3cd6;["container_2_Emit_random_words_2"];3.25;1533751530.98773;46.96;531.54;6.658305916;10;149
33;paravance-25.rennes.grid5000.fr;thermos-root-devel-WordCountTopology-0-21a61557-e933-480f-80e1-26c4b575da13;["topology_master"];3.25;1533751530.96674;4.69;11.25;0.347415979;9;117
34;paravance-29.rennes.grid5000.fr;thermos-root-devel-WordCountTopology-1-87d7e74f-c3b0-4da0-a670-4f45e84f3dca;["container_1_Consume_and_count_1"];3.25;1533751541.06506;141.5;1241.63;449.421687289;10;151
34;paravance-25.rennes.grid5000.fr;thermos-root-devel-WordCountTopology-0-21a61557-e933-480f-80e1-26c4b575da13;["topology_master"];3.25;1533751541.17978;4.79;11.39;0.347415979;9;117
34;paravance-20.rennes.grid5000.fr;thermos-root-devel-WordCountTopology-2-afbe6184-e211-4ace-93f4-a86e583a3cd6;["container_2_Emit_random_words_2"];3.25;1533751541.20249;48.1;545.34;6.658305916;10;149
35;paravance-29.rennes.grid5000.fr;thermos-root-devel-WordCountTopology-1-87d7e74f-c3b0-4da0-a670-4f45e84f3dca;["container_1_Consume_and_count_1"];3.25;1533751551.2913;144.74;1270.6;461.506663722;10;151
35;paravance-20.rennes.grid5000.fr;thermos-root-devel-WordCountTopology-2-afbe6184-e211-4ace-93f4-a86e583a3cd6;["container_2_Emit_random_words_2"];3.25;1533751551.42698;49.3;559.57;6.658305916;10;149
35;paravance-25.rennes.grid5000.fr;thermos-root-devel-WordCountTopology-0-21a61557-e933-480f-80e1-26c4b575da13;["topology_master"];3.25;1533751551.41048;4.85;11.51;0.347415979;9;117
36;paravance-25.rennes.grid5000.fr;thermos-root-devel-WordCountTopology-0-21a61557-e933-480f-80e1-26c4b575da13;["topology_master"];3.25;1533751561.63426;4.94;11.63;0.347415979;9;117
36;paravance-29.rennes.grid5000.fr;thermos-root-devel-WordCountTopology-1-87d7e74f-c3b0-4da0-a670-4f45e84f3dca;["container_1_Consume_and_count_1"];3.25;1533751561.52169;148.03;1298.44;471.056924451;10;151
36;paravance-20.rennes.grid5000.fr;thermos-root-devel-WordCountTopology-2-afbe6184-e211-4ace-93f4-a86e583a3cd6;["container_2_Emit_random_words_2"];3.25;1533751561.65948;50.4;572.24;6.658305916;10;149
37;paravance-20.rennes.grid5000.fr;thermos-root-devel-WordCountTopology-2-afbe6184-e211-4ace-93f4-a86e583a3cd6;["container_2_Emit_random_words_2"];3.25;1533751571.88281;51.24;581.71;6.658305916;10;149
37;paravance-25.rennes.grid5000.fr;thermos-root-devel-WordCountTopology-0-21a61557-e933-480f-80e1-26c4b575da13;["topology_master"];3.25;1533751571.86288;4.97;11.66;0.347415979;9;117
37;paravance-29.rennes.grid5000.fr;thermos-root-devel-WordCountTopology-1-87d7e74f-c3b0-4da0-a670-4f45e84f3dca;["container_1_Consume_and_count_1"];3.25;1533751571.75315;150.78;1326.35;480.732562051;10;151
38;paravance-29.rennes.grid5000.fr;thermos-root-devel-WordCountTopology-1-87d7e74f-c3b0-4da0-a670-4f45e84f3dca;["container_1_Consume_and_count_1"];3.25;1533751581.97135;153.97;1354.52;489.650055549;10;151
38;paravance-20.rennes.grid5000.fr;thermos-root-devel-WordCountTopology-2-afbe6184-e211-4ace-93f4-a86e583a3cd6;["container_2_Emit_random_words_2"];3.25;1533751582.10767;52.32;594.04;6.658305916;10;149
38;paravance-25.rennes.grid5000.fr;thermos-root-devel-WordCountTopology-0-21a61557-e933-480f-80e1-26c4b575da13;["topology_master"];3.25;1533751582.0899;5.06;11.78;0.347415979;9;117
39;paravance-25.rennes.grid5000.fr;thermos-root-devel-WordCountTopology-0-21a61557-e933-480f-80e1-26c4b575da13;["topology_master"];3.25;1533751592.30426;5.11;11.85;0.347415979;9;117
39;paravance-29.rennes.grid5000.fr;thermos-root-devel-WordCountTopology-1-87d7e74f-c3b0-4da0-a670-4f45e84f3dca;["container_1_Consume_and_count_1"];3.25;1533751592.2022;157.15;1381.46;498.992503643;10;151
39;paravance-20.rennes.grid5000.fr;thermos-root-devel-WordCountTopology-2-afbe6184-e211-4ace-93f4-a86e583a3cd6;["container_2_Emit_random_words_2"];3.25;1533751592.33932;53.51;608.64;6.658305916;10;149
40;paravance-29.rennes.grid5000.fr;thermos-root-devel-WordCountTopology-1-87d7e74f-c3b0-4da0-a670-4f45e84f3dca;["container_1_Consume_and_count_1"];3.25;1533751602.42651;160.16;1409.25;509.364939955;10;151
40;paravance-25.rennes.grid5000.fr;thermos-root-devel-WordCountTopology-0-21a61557-e933-480f-80e1-26c4b575da13;["topology_master"];3.25;1533751602.54252;5.18;11.94;0.347415979;9;117
40;paravance-20.rennes.grid5000.fr;thermos-root-devel-WordCountTopology-2-afbe6184-e211-4ace-93f4-a86e583a3cd6;["container_2_Emit_random_words_2"];3.25;1533751602.57721;54.43;618.84;6.658305916;10;149
41;paravance-29.rennes.grid5000.fr;thermos-root-devel-WordCountTopology-1-87d7e74f-c3b0-4da0-a670-4f45e84f3dca;["container_1_Consume_and_count_1"];3.25;1533751612.65307;163.57;1436.52;518.988070825;10;151
41;paravance-25.rennes.grid5000.fr;thermos-root-devel-WordCountTopology-0-21a61557-e933-480f-80e1-26c4b575da13;["topology_master"];3.25;1533751612.77293;5.24;12.06;0.347415979;9;117
41;paravance-20.rennes.grid5000.fr;thermos-root-devel-WordCountTopology-2-afbe6184-e211-4ace-93f4-a86e583a3cd6;["container_2_Emit_random_words_2"];3.25;1533751612.80021;55.55;632.37;6.658305916;10;149
42;paravance-25.rennes.grid5000.fr;thermos-root-devel-WordCountTopology-0-21a61557-e933-480f-80e1-26c4b575da13;["topology_master"];3.25;1533751622.7938;5.33;12.18;0.347415979;9;117
42;paravance-29.rennes.grid5000.fr;thermos-root-devel-WordCountTopology-1-87d7e74f-c3b0-4da0-a670-4f45e84f3dca;["container_1_Consume_and_count_1"];3.25;1533751622.77813;167.14;1464.65;529.697961877;10;151
42;paravance-20.rennes.grid5000.fr;thermos-root-devel-WordCountTopology-2-afbe6184-e211-4ace-93f4-a86e583a3cd6;["container_2_Emit_random_words_2"];3.25;1533751623.01586;56.69;645.82;6.658305916;10;149
43;paravance-29.rennes.grid5000.fr;thermos-root-devel-WordCountTopology-1-87d7e74f-c3b0-4da0-a670-4f45e84f3dca;["container_1_Consume_and_count_1"];3.25;1533751633.09193;170.03;1491.4;539.873663492;10;151
43;paravance-20.rennes.grid5000.fr;thermos-root-devel-WordCountTopology-2-afbe6184-e211-4ace-93f4-a86e583a3cd6;["container_2_Emit_random_words_2"];3.25;1533751633.23039;57.57;656.11;6.658305916;10;149
43;paravance-25.rennes.grid5000.fr;thermos-root-devel-WordCountTopology-0-21a61557-e933-480f-80e1-26c4b575da13;["topology_master"];3.25;1533751633.20887;5.37;12.22;0.347415979;9;117
44;paravance-25.rennes.grid5000.fr;thermos-root-devel-WordCountTopology-0-21a61557-e933-480f-80e1-26c4b575da13;["topology_master"];3.25;1533751643.32724;5.45;12.34;0.347415979;9;117
44;paravance-20.rennes.grid5000.fr;thermos-root-devel-WordCountTopology-2-afbe6184-e211-4ace-93f4-a86e583a3cd6;["container_2_Emit_random_words_2"];3.25;1533751643.44955;58.41;665.32;6.658305916;10;149
44;paravance-29.rennes.grid5000.fr;thermos-root-devel-WordCountTopology-1-87d7e74f-c3b0-4da0-a670-4f45e84f3dca;["container_1_Consume_and_count_1"];3.25;1533751643.31352;173.01;1520.19;549.922744975;10;151
45;paravance-29.rennes.grid5000.fr;thermos-root-devel-WordCountTopology-1-87d7e74f-c3b0-4da0-a670-4f45e84f3dca;["container_1_Consume_and_count_1"];3.25;1533751653.52671;176.44;1548.36;561.918601611;10;151
45;paravance-20.rennes.grid5000.fr;thermos-root-devel-WordCountTopology-2-afbe6184-e211-4ace-93f4-a86e583a3cd6;["container_2_Emit_random_words_2"];3.25;1533751653.66726;59.61;679.94;6.658305916;10;149
45;paravance-25.rennes.grid5000.fr;thermos-root-devel-WordCountTopology-0-21a61557-e933-480f-80e1-26c4b575da13;["topology_master"];3.25;1533751653.6439;5.51;12.42;0.347415979;9;117
46;paravance-20.rennes.grid5000.fr;thermos-root-devel-WordCountTopology-2-afbe6184-e211-4ace-93f4-a86e583a3cd6;["container_2_Emit_random_words_2"];3.25;1533751663.88209;60.64;691.72;6.658305916;10;149
46;paravance-29.rennes.grid5000.fr;thermos-root-devel-WordCountTopology-1-87d7e74f-c3b0-4da0-a670-4f45e84f3dca;["container_1_Consume_and_count_1"];3.25;1533751663.74499;179.66;1576.49;571.805504963;10;151
46;paravance-25.rennes.grid5000.fr;thermos-root-devel-WordCountTopology-0-21a61557-e933-480f-80e1-26c4b575da13;["topology_master"];3.25;1533751663.8599;5.59;12.52;0.347415979;9;117
47;paravance-20.rennes.grid5000.fr;thermos-root-devel-WordCountTopology-2-afbe6184-e211-4ace-93f4-a86e583a3cd6;["container_2_Emit_random_words_2"];3.25;1533751674.0986;61.48;701.17;6.658305916;10;149
47;paravance-29.rennes.grid5000.fr;thermos-root-devel-WordCountTopology-1-87d7e74f-c3b0-4da0-a670-4f45e84f3dca;["container_1_Consume_and_count_1"];3.25;1533751673.96244;182.98;1604.36;580.517691422;10;151
47;paravance-25.rennes.grid5000.fr;thermos-root-devel-WordCountTopology-0-21a61557-e933-480f-80e1-26c4b575da13;["topology_master"];3.25;1533751674.07656;5.65;12.63;0.347415979;9;117
48;paravance-29.rennes.grid5000.fr;thermos-root-devel-WordCountTopology-1-87d7e74f-c3b0-4da0-a670-4f45e84f3dca;["container_1_Consume_and_count_1"];3.25;1533751684.17812;186.17;1632.89;591.829306505;10;151
48;paravance-25.rennes.grid5000.fr;thermos-root-devel-WordCountTopology-0-21a61557-e933-480f-80e1-26c4b575da13;["topology_master"];3.25;1533751684.29493;5.74;12.76;0.347415979;9;117
48;paravance-20.rennes.grid5000.fr;thermos-root-devel-WordCountTopology-2-afbe6184-e211-4ace-93f4-a86e583a3cd6;["container_2_Emit_random_words_2"];3.25;1533751684.31741;62.53;712.53;6.658305916;10;149
49;paravance-25.rennes.grid5000.fr;thermos-root-devel-WordCountTopology-0-21a61557-e933-480f-80e1-26c4b575da13;["topology_master"];3.25;1533751694.41185;5.77;12.79;0.347415979;9;117
49;paravance-29.rennes.grid5000.fr;thermos-root-devel-WordCountTopology-1-87d7e74f-c3b0-4da0-a670-4f45e84f3dca;["container_1_Consume_and_count_1"];3.25;1533751694.39571;188.48;1658.95;600.336284201;10;151
49;paravance-20.rennes.grid5000.fr;thermos-root-devel-WordCountTopology-2-afbe6184-e211-4ace-93f4-a86e583a3cd6;["container_2_Emit_random_words_2"];3.25;1533751694.53601;63.3;721.09;6.658305916;10;149
50;paravance-29.rennes.grid5000.fr;thermos-root-devel-WordCountTopology-1-87d7e74f-c3b0-4da0-a670-4f45e84f3dca;["container_1_Consume_and_count_1"];3.25;1533751704.61368;191.73;1686.39;609.849573618;10;151
50;paravance-20.rennes.grid5000.fr;thermos-root-devel-WordCountTopology-2-afbe6184-e211-4ace-93f4-a86e583a3cd6;["container_2_Emit_random_words_2"];3.25;1533751704.75277;64.28;731.63;6.658305916;10;149
50;paravance-25.rennes.grid5000.fr;thermos-root-devel-WordCountTopology-0-21a61557-e933-480f-80e1-26c4b575da13;["topology_master"];3.25;1533751704.72906;5.87;12.93;0.347415979;9;117
51;paravance-29.rennes.grid5000.fr;thermos-root-devel-WordCountTopology-1-87d7e74f-c3b0-4da0-a670-4f45e84f3dca;["container_1_Consume_and_count_1"];3.25;1533751714.82691;195.35;1713.57;619.435451566;10;151
51;paravance-20.rennes.grid5000.fr;thermos-root-devel-WordCountTopology-2-afbe6184-e211-4ace-93f4-a86e583a3cd6;["container_2_Emit_random_words_2"];3.25;1533751714.96784;65.57;748.35;6.658305916;10;149
51;paravance-25.rennes.grid5000.fr;thermos-root-devel-WordCountTopology-0-21a61557-e933-480f-80e1-26c4b575da13;["topology_master"];3.25;1533751714.94471;5.93;13.0;0.347415979;9;117
52;paravance-20.rennes.grid5000.fr;thermos-root-devel-WordCountTopology-2-afbe6184-e211-4ace-93f4-a86e583a3cd6;["container_2_Emit_random_words_2"];3.25;1533751725.18316;66.64;760.65;6.658305916;10;149
52;paravance-29.rennes.grid5000.fr;thermos-root-devel-WordCountTopology-1-87d7e74f-c3b0-4da0-a670-4f45e84f3dca;["container_1_Consume_and_count_1"];3.25;1533751725.04688;198.28;1741.34;630.766579332;10;151
52;paravance-25.rennes.grid5000.fr;thermos-root-devel-WordCountTopology-0-21a61557-e933-480f-80e1-26c4b575da13;["topology_master"];3.25;1533751725.16056;6.0;13.13;0.347415979;9;117
53;paravance-29.rennes.grid5000.fr;thermos-root-devel-WordCountTopology-1-87d7e74f-c3b0-4da0-a670-4f45e84f3dca;["container_1_Consume_and_count_1"];3.25;1533751735.26407;201.76;1769.27;640.086459333;10;151
53;paravance-25.rennes.grid5000.fr;thermos-root-devel-WordCountTopology-0-21a61557-e933-480f-80e1-26c4b575da13;["topology_master"];3.25;1533751735.37864;6.06;13.2;0.347415979;9;117
53;paravance-20.rennes.grid5000.fr;thermos-root-devel-WordCountTopology-2-afbe6184-e211-4ace-93f4-a86e583a3cd6;["container_2_Emit_random_words_2"];3.25;1533751735.40174;67.68;772.39;6.658305916;10;149
54;paravance-29.rennes.grid5000.fr;thermos-root-devel-WordCountTopology-1-87d7e74f-c3b0-4da0-a670-4f45e84f3dca;["container_1_Consume_and_count_1"];3.25;1533751745.48117;204.97;1798.13;651.637405616;10;151
54;paravance-20.rennes.grid5000.fr;thermos-root-devel-WordCountTopology-2-afbe6184-e211-4ace-93f4-a86e583a3cd6;["container_2_Emit_random_words_2"];3.25;1533751745.6177;68.73;784.69;6.658305916;10;149
54;paravance-25.rennes.grid5000.fr;thermos-root-devel-WordCountTopology-0-21a61557-e933-480f-80e1-26c4b575da13;["topology_master"];3.25;1533751745.59514;6.15;13.35;0.347415979;9;117
55;paravance-29.rennes.grid5000.fr;thermos-root-devel-WordCountTopology-1-87d7e74f-c3b0-4da0-a670-4f45e84f3dca;["container_1_Consume_and_count_1"];3.25;1533751755.69611;208.24;1825.99;662.777636592;10;151
55;paravance-20.rennes.grid5000.fr;thermos-root-devel-WordCountTopology-2-afbe6184-e211-4ace-93f4-a86e583a3cd6;["container_2_Emit_random_words_2"];3.25;1533751755.83474;69.83;798.02;6.658305916;10;149
55;paravance-25.rennes.grid5000.fr;thermos-root-devel-WordCountTopology-0-21a61557-e933-480f-80e1-26c4b575da13;["topology_master"];3.25;1533751755.81193;6.18;13.37;0.347415979;9;117
56;paravance-29.rennes.grid5000.fr;thermos-root-devel-WordCountTopology-1-87d7e74f-c3b0-4da0-a670-4f45e84f3dca;["container_1_Consume_and_count_1"];3.25;1533751765.91;211.29;1854.03;674.895006775;10;151
56;paravance-25.rennes.grid5000.fr;thermos-root-devel-WordCountTopology-0-21a61557-e933-480f-80e1-26c4b575da13;["topology_master"];3.25;1533751766.02607;6.27;13.49;0.347415979;9;117
56;paravance-20.rennes.grid5000.fr;thermos-root-devel-WordCountTopology-2-afbe6184-e211-4ace-93f4-a86e583a3cd6;["container_2_Emit_random_words_2"];3.25;1533751766.04978;71.04;811.98;6.658305916;10;149
57;paravance-29.rennes.grid5000.fr;thermos-root-devel-WordCountTopology-1-87d7e74f-c3b0-4da0-a670-4f45e84f3dca;["container_1_Consume_and_count_1"];3.25;1533751776.12656;214.88;1882.36;685.318645212;10;151
57;paravance-20.rennes.grid5000.fr;thermos-root-devel-WordCountTopology-2-afbe6184-e211-4ace-93f4-a86e583a3cd6;["container_2_Emit_random_words_2"];3.25;1533751776.26602;72.31;826.76;6.658305916;10;149
57;paravance-25.rennes.grid5000.fr;thermos-root-devel-WordCountTopology-0-21a61557-e933-480f-80e1-26c4b575da13;["topology_master"];3.25;1533751776.24151;6.33;13.57;0.347415979;9;117
58;paravance-20.rennes.grid5000.fr;thermos-root-devel-WordCountTopology-2-afbe6184-e211-4ace-93f4-a86e583a3cd6;["container_2_Emit_random_words_2"];3.25;1533751786.48092;73.01;834.26;6.658305916;10;149
58;paravance-29.rennes.grid5000.fr;thermos-root-devel-WordCountTopology-1-87d7e74f-c3b0-4da0-a670-4f45e84f3dca;["container_1_Consume_and_count_1"];3.25;1533751786.34482;217.32;1908.66;693.027218762;10;151
58;paravance-25.rennes.grid5000.fr;thermos-root-devel-WordCountTopology-0-21a61557-e933-480f-80e1-26c4b575da13;["topology_master"];3.25;1533751786.45837;6.4;13.68;0.347415979;9;117
59;paravance-20.rennes.grid5000.fr;thermos-root-devel-WordCountTopology-2-afbe6184-e211-4ace-93f4-a86e583a3cd6;["container_2_Emit_random_words_2"];3.25;1533751796.69748;74.1;846.81;6.658305916;10;149
59;paravance-25.rennes.grid5000.fr;thermos-root-devel-WordCountTopology-0-21a61557-e933-480f-80e1-26c4b575da13;["topology_master"];3.25;1533751796.67391;6.46;13.76;0.347415979;9;117
59;paravance-29.rennes.grid5000.fr;thermos-root-devel-WordCountTopology-1-87d7e74f-c3b0-4da0-a670-4f45e84f3dca;["container_1_Consume_and_count_1"];3.25;1533751796.56204;220.63;1937.47;704.825219093;10;151
60;paravance-29.rennes.grid5000.fr;thermos-root-devel-WordCountTopology-1-87d7e74f-c3b0-4da0-a670-4f45e84f3dca;["container_1_Consume_and_count_1"];3.25;1533751806.77542;224.2;1965.03;715.482960969;10;151
60;paravance-25.rennes.grid5000.fr;thermos-root-devel-WordCountTopology-0-21a61557-e933-480f-80e1-26c4b575da13;["topology_master"];3.25;1533751806.89219;6.55;13.88;0.347415979;9;117
60;paravance-20.rennes.grid5000.fr;thermos-root-devel-WordCountTopology-2-afbe6184-e211-4ace-93f4-a86e583a3cd6;["container_2_Emit_random_words_2"];3.25;1533751806.91571;75.28;860.15;6.658305916;10;149
