mesure_id;slave_id;executor_id;heron_instances;cpus_limit;timestamp_B;cpus_system_time_secs_B;cpus_user_time_secs_B;cpus_throttled_time_secs_B;processes;threads
0;paravance-31.rennes.grid5000.fr;thermos-root-devel-WordCountTopology-2-9b5bef99-bea6-4126-b9ea-82671c08621a;["container_2_Emit_random_words_2"];5.25;1533385591.9368;33.49;182.32;1.131790013;10;149
0;paravance-57.rennes.grid5000.fr;thermos-root-devel-WordCountTopology-1-b42051c4-23d0-41b1-9108-c2cf34290c00;["container_1_Consume_and_count_1"];5.25;1533385592.15763;59.36;227.67;0.854013986;10;151
0;paravance-14.rennes.grid5000.fr;thermos-root-devel-WordCountTopology-0-86113956-91ee-4adb-9791-b864e52d9632;["topology_master"];5.25;1533385592.04585;2.42;7.89;0.0;9;117
1;paravance-57.rennes.grid5000.fr;thermos-root-devel-WordCountTopology-1-b42051c4-23d0-41b1-9108-c2cf34290c00;["container_1_Consume_and_count_1"];5.25;1533385602.37198;65.81;251.77;0.854083961;10;151
1;paravance-31.rennes.grid5000.fr;thermos-root-devel-WordCountTopology-2-9b5bef99-bea6-4126-b9ea-82671c08621a;["container_2_Emit_random_words_2"];5.25;1533385602.25003;36.84;200.59;1.131790013;10;149
1;paravance-14.rennes.grid5000.fr;thermos-root-devel-WordCountTopology-0-86113956-91ee-4adb-9791-b864e52d9632;["topology_master"];5.25;1533385602.25648;2.51;8.01;0.0;9;117
2;paravance-31.rennes.grid5000.fr;thermos-root-devel-WordCountTopology-2-9b5bef99-bea6-4126-b9ea-82671c08621a;["container_2_Emit_random_words_2"];5.25;1533385612.46478;40.08;218.39;1.131790013;10;149
2;paravance-57.rennes.grid5000.fr;thermos-root-devel-WordCountTopology-1-b42051c4-23d0-41b1-9108-c2cf34290c00;["container_1_Consume_and_count_1"];5.25;1533385612.58744;71.88;274.52;0.854083961;10;151
2;paravance-14.rennes.grid5000.fr;thermos-root-devel-WordCountTopology-0-86113956-91ee-4adb-9791-b864e52d9632;["topology_master"];5.25;1533385612.46791;2.56;8.1;0.0;9;117
3;paravance-57.rennes.grid5000.fr;thermos-root-devel-WordCountTopology-1-b42051c4-23d0-41b1-9108-c2cf34290c00;["container_1_Consume_and_count_1"];5.25;1533385622.70882;77.93;297.65;0.854083961;10;151
3;paravance-31.rennes.grid5000.fr;thermos-root-devel-WordCountTopology-2-9b5bef99-bea6-4126-b9ea-82671c08621a;["container_2_Emit_random_words_2"];5.25;1533385622.68755;43.5;236.01;1.131790013;10;149
3;paravance-14.rennes.grid5000.fr;thermos-root-devel-WordCountTopology-0-86113956-91ee-4adb-9791-b864e52d9632;["topology_master"];5.25;1533385622.68876;2.62;8.18;0.0;9;117
4;paravance-57.rennes.grid5000.fr;thermos-root-devel-WordCountTopology-1-b42051c4-23d0-41b1-9108-c2cf34290c00;["container_1_Consume_and_count_1"];5.25;1533385632.9272;83.78;321.75;0.854083961;10;151
4;paravance-14.rennes.grid5000.fr;thermos-root-devel-WordCountTopology-0-86113956-91ee-4adb-9791-b864e52d9632;["topology_master"];5.25;1533385632.90463;2.68;8.25;0.0;9;117
4;paravance-31.rennes.grid5000.fr;thermos-root-devel-WordCountTopology-2-9b5bef99-bea6-4126-b9ea-82671c08621a;["container_2_Emit_random_words_2"];5.25;1533385632.90294;46.81;253.79;1.131790013;10;149
5;paravance-31.rennes.grid5000.fr;thermos-root-devel-WordCountTopology-2-9b5bef99-bea6-4126-b9ea-82671c08621a;["container_2_Emit_random_words_2"];5.25;1533385643.11647;50.26;271.85;1.131790013;10;149
5;paravance-57.rennes.grid5000.fr;thermos-root-devel-WordCountTopology-1-b42051c4-23d0-41b1-9108-c2cf34290c00;["container_1_Consume_and_count_1"];5.25;1533385643.2393;90.05;347.31;0.869852918;10;151
5;paravance-14.rennes.grid5000.fr;thermos-root-devel-WordCountTopology-0-86113956-91ee-4adb-9791-b864e52d9632;["topology_master"];5.25;1533385643.12081;2.8;8.46;0.0;9;117
6;paravance-57.rennes.grid5000.fr;thermos-root-devel-WordCountTopology-1-b42051c4-23d0-41b1-9108-c2cf34290c00;["container_1_Consume_and_count_1"];5.25;1533385653.45587;96.11;372.36;0.869877306;10;151
6;paravance-31.rennes.grid5000.fr;thermos-root-devel-WordCountTopology-2-9b5bef99-bea6-4126-b9ea-82671c08621a;["container_2_Emit_random_words_2"];5.25;1533385653.33374;53.58;289.56;1.131790013;10;149
6;paravance-14.rennes.grid5000.fr;thermos-root-devel-WordCountTopology-0-86113956-91ee-4adb-9791-b864e52d9632;["topology_master"];5.25;1533385653.3365;2.83;8.5;0.0;9;117
7;paravance-57.rennes.grid5000.fr;thermos-root-devel-WordCountTopology-1-b42051c4-23d0-41b1-9108-c2cf34290c00;["container_1_Consume_and_count_1"];5.25;1533385663.6712;102.41;397.81;0.869877306;10;151
7;paravance-31.rennes.grid5000.fr;thermos-root-devel-WordCountTopology-2-9b5bef99-bea6-4126-b9ea-82671c08621a;["container_2_Emit_random_words_2"];5.25;1533385663.54978;56.96;307.4;1.131790013;10;149
7;paravance-14.rennes.grid5000.fr;thermos-root-devel-WordCountTopology-0-86113956-91ee-4adb-9791-b864e52d9632;["topology_master"];5.25;1533385663.55217;2.92;8.62;0.0;9;117
8;paravance-31.rennes.grid5000.fr;thermos-root-devel-WordCountTopology-2-9b5bef99-bea6-4126-b9ea-82671c08621a;["container_2_Emit_random_words_2"];5.25;1533385673.7651;60.59;325.26;1.131790013;10;149
8;paravance-57.rennes.grid5000.fr;thermos-root-devel-WordCountTopology-1-b42051c4-23d0-41b1-9108-c2cf34290c00;["container_1_Consume_and_count_1"];5.25;1533385673.88918;108.86;423.36;0.869877306;10;151
8;paravance-14.rennes.grid5000.fr;thermos-root-devel-WordCountTopology-0-86113956-91ee-4adb-9791-b864e52d9632;["topology_master"];5.25;1533385673.76768;2.98;8.7;0.0;9;117
9;paravance-57.rennes.grid5000.fr;thermos-root-devel-WordCountTopology-1-b42051c4-23d0-41b1-9108-c2cf34290c00;["container_1_Consume_and_count_1"];5.25;1533385684.10412;115.01;448.65;0.869877306;10;151
9;paravance-31.rennes.grid5000.fr;thermos-root-devel-WordCountTopology-2-9b5bef99-bea6-4126-b9ea-82671c08621a;["container_2_Emit_random_words_2"];5.25;1533385683.98233;64.06;343.0;1.131790013;10;149
9;paravance-14.rennes.grid5000.fr;thermos-root-devel-WordCountTopology-0-86113956-91ee-4adb-9791-b864e52d9632;["topology_master"];5.25;1533385683.98391;3.04;8.78;0.0;9;117
10;paravance-31.rennes.grid5000.fr;thermos-root-devel-WordCountTopology-2-9b5bef99-bea6-4126-b9ea-82671c08621a;["container_2_Emit_random_words_2"];5.25;1533385694.19829;67.54;361.21;1.131790013;10;149
10;paravance-57.rennes.grid5000.fr;thermos-root-devel-WordCountTopology-1-b42051c4-23d0-41b1-9108-c2cf34290c00;["container_1_Consume_and_count_1"];5.25;1533385694.32162;121.56;474.87;0.869877306;10;151
10;paravance-14.rennes.grid5000.fr;thermos-root-devel-WordCountTopology-0-86113956-91ee-4adb-9791-b864e52d9632;["topology_master"];5.25;1533385694.2004;3.1;8.85;0.0;9;117
11;paravance-31.rennes.grid5000.fr;thermos-root-devel-WordCountTopology-2-9b5bef99-bea6-4126-b9ea-82671c08621a;["container_2_Emit_random_words_2"];5.25;1533385704.41386;71.19;379.04;1.131790013;10;149
11;paravance-57.rennes.grid5000.fr;thermos-root-devel-WordCountTopology-1-b42051c4-23d0-41b1-9108-c2cf34290c00;["container_1_Consume_and_count_1"];5.25;1533385704.53788;128.05;502.05;0.904010882;10;151
11;paravance-14.rennes.grid5000.fr;thermos-root-devel-WordCountTopology-0-86113956-91ee-4adb-9791-b864e52d9632;["topology_master"];5.25;1533385704.41696;3.22;9.17;0.0;9;117
12;paravance-57.rennes.grid5000.fr;thermos-root-devel-WordCountTopology-1-b42051c4-23d0-41b1-9108-c2cf34290c00;["container_1_Consume_and_count_1"];5.25;1533385714.75377;134.15;526.75;0.904010882;10;151
12;paravance-14.rennes.grid5000.fr;thermos-root-devel-WordCountTopology-0-86113956-91ee-4adb-9791-b864e52d9632;["topology_master"];5.25;1533385714.63439;3.25;9.19;0.0;9;117
12;paravance-31.rennes.grid5000.fr;thermos-root-devel-WordCountTopology-2-9b5bef99-bea6-4126-b9ea-82671c08621a;["container_2_Emit_random_words_2"];5.25;1533385714.63224;74.63;396.77;1.131790013;10;149
13;paravance-57.rennes.grid5000.fr;thermos-root-devel-WordCountTopology-1-b42051c4-23d0-41b1-9108-c2cf34290c00;["container_1_Consume_and_count_1"];5.25;1533385724.96939;140.34;551.73;0.904038134;10;151
13;paravance-31.rennes.grid5000.fr;thermos-root-devel-WordCountTopology-2-9b5bef99-bea6-4126-b9ea-82671c08621a;["container_2_Emit_random_words_2"];5.25;1533385724.85061;78.05;414.5;1.131790013;10;149
13;paravance-14.rennes.grid5000.fr;thermos-root-devel-WordCountTopology-0-86113956-91ee-4adb-9791-b864e52d9632;["topology_master"];5.25;1533385724.85161;3.34;9.35;0.0;9;117
14;paravance-57.rennes.grid5000.fr;thermos-root-devel-WordCountTopology-1-b42051c4-23d0-41b1-9108-c2cf34290c00;["container_1_Consume_and_count_1"];5.25;1533385735.18617;146.4;576.85;0.904058388;10;151
14;paravance-14.rennes.grid5000.fr;thermos-root-devel-WordCountTopology-0-86113956-91ee-4adb-9791-b864e52d9632;["topology_master"];5.25;1533385735.06659;3.4;9.42;0.0;9;117
14;paravance-31.rennes.grid5000.fr;thermos-root-devel-WordCountTopology-2-9b5bef99-bea6-4126-b9ea-82671c08621a;["container_2_Emit_random_words_2"];5.25;1533385735.06496;81.45;432.16;1.131790013;10;149
15;paravance-57.rennes.grid5000.fr;thermos-root-devel-WordCountTopology-1-b42051c4-23d0-41b1-9108-c2cf34290c00;["container_1_Consume_and_count_1"];5.25;1533385745.40137;152.83;603.16;0.904913816;10;151
15;paravance-31.rennes.grid5000.fr;thermos-root-devel-WordCountTopology-2-9b5bef99-bea6-4126-b9ea-82671c08621a;["container_2_Emit_random_words_2"];5.25;1533385745.28208;84.95;450.23;1.131790013;10;149
15;paravance-14.rennes.grid5000.fr;thermos-root-devel-WordCountTopology-0-86113956-91ee-4adb-9791-b864e52d9632;["topology_master"];5.25;1533385745.28357;3.46;9.52;0.0;9;117
16;paravance-31.rennes.grid5000.fr;thermos-root-devel-WordCountTopology-2-9b5bef99-bea6-4126-b9ea-82671c08621a;["container_2_Emit_random_words_2"];5.25;1533385755.4947;88.4;468.21;1.131790013;10;149
16;paravance-57.rennes.grid5000.fr;thermos-root-devel-WordCountTopology-1-b42051c4-23d0-41b1-9108-c2cf34290c00;["container_1_Consume_and_count_1"];5.25;1533385755.61776;159.1;630.31;0.904913816;10;151
16;paravance-14.rennes.grid5000.fr;thermos-root-devel-WordCountTopology-0-86113956-91ee-4adb-9791-b864e52d9632;["topology_master"];5.25;1533385755.49863;3.52;9.6;0.0;9;117
17;paravance-57.rennes.grid5000.fr;thermos-root-devel-WordCountTopology-1-b42051c4-23d0-41b1-9108-c2cf34290c00;["container_1_Consume_and_count_1"];5.25;1533385765.831;165.72;658.32;0.912307221;10;151
17;paravance-31.rennes.grid5000.fr;thermos-root-devel-WordCountTopology-2-9b5bef99-bea6-4126-b9ea-82671c08621a;["container_2_Emit_random_words_2"];5.25;1533385765.71181;91.85;486.21;1.131790013;10;149
17;paravance-14.rennes.grid5000.fr;thermos-root-devel-WordCountTopology-0-86113956-91ee-4adb-9791-b864e52d9632;["topology_master"];5.25;1533385765.71404;3.64;9.79;0.0;9;117
18;paravance-57.rennes.grid5000.fr;thermos-root-devel-WordCountTopology-1-b42051c4-23d0-41b1-9108-c2cf34290c00;["container_1_Consume_and_count_1"];5.25;1533385776.04723;172.27;686.16;0.912307221;10;151
18;paravance-31.rennes.grid5000.fr;thermos-root-devel-WordCountTopology-2-9b5bef99-bea6-4126-b9ea-82671c08621a;["container_2_Emit_random_words_2"];5.25;1533385775.92696;95.31;504.09;1.131790013;10;149
18;paravance-14.rennes.grid5000.fr;thermos-root-devel-WordCountTopology-0-86113956-91ee-4adb-9791-b864e52d9632;["topology_master"];5.25;1533385775.92928;3.67;9.82;0.0;9;117
19;paravance-31.rennes.grid5000.fr;thermos-root-devel-WordCountTopology-2-9b5bef99-bea6-4126-b9ea-82671c08621a;["container_2_Emit_random_words_2"];5.25;1533385786.14404;98.81;522.03;1.131790013;10;149
19;paravance-57.rennes.grid5000.fr;thermos-root-devel-WordCountTopology-1-b42051c4-23d0-41b1-9108-c2cf34290c00;["container_1_Consume_and_count_1"];5.25;1533385786.26518;179.1;714.47;0.927115928;10;151
19;paravance-14.rennes.grid5000.fr;thermos-root-devel-WordCountTopology-0-86113956-91ee-4adb-9791-b864e52d9632;["topology_master"];5.25;1533385786.14614;3.76;9.95;0.0;9;117
20;paravance-57.rennes.grid5000.fr;thermos-root-devel-WordCountTopology-1-b42051c4-23d0-41b1-9108-c2cf34290c00;["container_1_Consume_and_count_1"];5.25;1533385796.4831;185.65;740.76;0.928194841;10;151
20;paravance-31.rennes.grid5000.fr;thermos-root-devel-WordCountTopology-2-9b5bef99-bea6-4126-b9ea-82671c08621a;["container_2_Emit_random_words_2"];5.25;1533385796.36169;102.21;539.97;1.131790013;10;149
20;paravance-14.rennes.grid5000.fr;thermos-root-devel-WordCountTopology-0-86113956-91ee-4adb-9791-b864e52d9632;["topology_master"];5.25;1533385796.36362;3.81;10.02;0.0;9;117
21;paravance-31.rennes.grid5000.fr;thermos-root-devel-WordCountTopology-2-9b5bef99-bea6-4126-b9ea-82671c08621a;["container_2_Emit_random_words_2"];5.25;1533385806.5796;105.76;558.04;1.131790013;10;149
21;paravance-57.rennes.grid5000.fr;thermos-root-devel-WordCountTopology-1-b42051c4-23d0-41b1-9108-c2cf34290c00;["container_1_Consume_and_count_1"];5.25;1533385806.69935;192.07;767.38;0.928194841;10;151
21;paravance-14.rennes.grid5000.fr;thermos-root-devel-WordCountTopology-0-86113956-91ee-4adb-9791-b864e52d9632;["topology_master"];5.25;1533385806.58166;3.88;10.1;0.0;9;117
22;paravance-57.rennes.grid5000.fr;thermos-root-devel-WordCountTopology-1-b42051c4-23d0-41b1-9108-c2cf34290c00;["container_1_Consume_and_count_1"];5.25;1533385816.91608;198.36;793.5;0.928194841;10;151
22;paravance-31.rennes.grid5000.fr;thermos-root-devel-WordCountTopology-2-9b5bef99-bea6-4126-b9ea-82671c08621a;["container_2_Emit_random_words_2"];5.25;1533385816.79489;109.16;576.03;1.131790013;10;149
22;paravance-14.rennes.grid5000.fr;thermos-root-devel-WordCountTopology-0-86113956-91ee-4adb-9791-b864e52d9632;["topology_master"];5.25;1533385816.79621;3.93;10.16;0.0;9;117
23;paravance-14.rennes.grid5000.fr;thermos-root-devel-WordCountTopology-0-86113956-91ee-4adb-9791-b864e52d9632;["topology_master"];5.25;1533385826.91206;4.05;10.34;0.0;9;117
23;paravance-57.rennes.grid5000.fr;thermos-root-devel-WordCountTopology-1-b42051c4-23d0-41b1-9108-c2cf34290c00;["container_1_Consume_and_count_1"];5.25;1533385827.12795;204.58;818.59;0.928194841;10;151
23;paravance-31.rennes.grid5000.fr;thermos-root-devel-WordCountTopology-2-9b5bef99-bea6-4126-b9ea-82671c08621a;["container_2_Emit_random_words_2"];5.25;1533385827.01094;112.56;593.81;1.131790013;10;149
24;paravance-57.rennes.grid5000.fr;thermos-root-devel-WordCountTopology-1-b42051c4-23d0-41b1-9108-c2cf34290c00;["container_1_Consume_and_count_1"];5.25;1533385837.34547;210.89;844.82;0.928211169;10;151
24;paravance-31.rennes.grid5000.fr;thermos-root-devel-WordCountTopology-2-9b5bef99-bea6-4126-b9ea-82671c08621a;["container_2_Emit_random_words_2"];5.25;1533385837.22475;116.06;611.67;1.131790013;10;149
24;paravance-14.rennes.grid5000.fr;thermos-root-devel-WordCountTopology-0-86113956-91ee-4adb-9791-b864e52d9632;["topology_master"];5.25;1533385837.22609;4.07;10.37;0.0;9;117
25;paravance-57.rennes.grid5000.fr;thermos-root-devel-WordCountTopology-1-b42051c4-23d0-41b1-9108-c2cf34290c00;["container_1_Consume_and_count_1"];5.25;1533385847.56265;216.86;869.97;0.965720329;10;151
25;paravance-31.rennes.grid5000.fr;thermos-root-devel-WordCountTopology-2-9b5bef99-bea6-4126-b9ea-82671c08621a;["container_2_Emit_random_words_2"];5.25;1533385847.4392;119.55;629.49;1.131790013;10;149
25;paravance-14.rennes.grid5000.fr;thermos-root-devel-WordCountTopology-0-86113956-91ee-4adb-9791-b864e52d9632;["topology_master"];5.25;1533385847.44303;4.17;10.5;0.0;9;117
26;paravance-57.rennes.grid5000.fr;thermos-root-devel-WordCountTopology-1-b42051c4-23d0-41b1-9108-c2cf34290c00;["container_1_Consume_and_count_1"];5.25;1533385857.77676;222.78;894.71;0.965720329;10;151
26;paravance-14.rennes.grid5000.fr;thermos-root-devel-WordCountTopology-0-86113956-91ee-4adb-9791-b864e52d9632;["topology_master"];5.25;1533385857.65818;4.22;10.57;0.0;9;117
26;paravance-31.rennes.grid5000.fr;thermos-root-devel-WordCountTopology-2-9b5bef99-bea6-4126-b9ea-82671c08621a;["container_2_Emit_random_words_2"];5.25;1533385857.65595;122.96;646.9;1.131790013;10;149
27;paravance-31.rennes.grid5000.fr;thermos-root-devel-WordCountTopology-2-9b5bef99-bea6-4126-b9ea-82671c08621a;["container_2_Emit_random_words_2"];5.25;1533385867.87211;126.39;664.79;1.131790013;10;149
27;paravance-57.rennes.grid5000.fr;thermos-root-devel-WordCountTopology-1-b42051c4-23d0-41b1-9108-c2cf34290c00;["container_1_Consume_and_count_1"];5.25;1533385867.99297;229.12;921.06;0.965720329;10;151
27;paravance-14.rennes.grid5000.fr;thermos-root-devel-WordCountTopology-0-86113956-91ee-4adb-9791-b864e52d9632;["topology_master"];5.25;1533385867.87408;4.28;10.64;0.0;9;117
28;paravance-31.rennes.grid5000.fr;thermos-root-devel-WordCountTopology-2-9b5bef99-bea6-4126-b9ea-82671c08621a;["container_2_Emit_random_words_2"];5.25;1533385878.08665;129.79;682.53;1.131790013;10;149
28;paravance-57.rennes.grid5000.fr;thermos-root-devel-WordCountTopology-1-b42051c4-23d0-41b1-9108-c2cf34290c00;["container_1_Consume_and_count_1"];5.25;1533385878.20889;235.12;946.05;0.965720329;10;151
28;paravance-14.rennes.grid5000.fr;thermos-root-devel-WordCountTopology-0-86113956-91ee-4adb-9791-b864e52d9632;["topology_master"];5.25;1533385878.09009;4.38;10.78;0.0;9;117
29;paravance-57.rennes.grid5000.fr;thermos-root-devel-WordCountTopology-1-b42051c4-23d0-41b1-9108-c2cf34290c00;["container_1_Consume_and_count_1"];5.25;1533385888.42501;241.18;970.98;0.976487223;10;151
29;paravance-31.rennes.grid5000.fr;thermos-root-devel-WordCountTopology-2-9b5bef99-bea6-4126-b9ea-82671c08621a;["container_2_Emit_random_words_2"];5.25;1533385888.30472;133.13;700.11;1.131790013;10;149
29;paravance-14.rennes.grid5000.fr;thermos-root-devel-WordCountTopology-0-86113956-91ee-4adb-9791-b864e52d9632;["topology_master"];5.25;1533385888.30532;4.44;10.92;0.0;9;117
30;paravance-31.rennes.grid5000.fr;thermos-root-devel-WordCountTopology-2-9b5bef99-bea6-4126-b9ea-82671c08621a;["container_2_Emit_random_words_2"];5.25;1533385898.52268;136.51;717.84;1.131790013;10;149
30;paravance-14.rennes.grid5000.fr;thermos-root-devel-WordCountTopology-0-86113956-91ee-4adb-9791-b864e52d9632;["topology_master"];5.25;1533385898.52234;4.5;10.99;0.0;9;117
30;paravance-57.rennes.grid5000.fr;thermos-root-devel-WordCountTopology-1-b42051c4-23d0-41b1-9108-c2cf34290c00;["container_1_Consume_and_count_1"];5.25;1533385898.6435;247.36;997.1;0.976487223;10;151
31;paravance-57.rennes.grid5000.fr;thermos-root-devel-WordCountTopology-1-b42051c4-23d0-41b1-9108-c2cf34290c00;["container_1_Consume_and_count_1"];5.25;1533385908.85601;253.53;1023.08;0.976487223;10;151
31;paravance-31.rennes.grid5000.fr;thermos-root-devel-WordCountTopology-2-9b5bef99-bea6-4126-b9ea-82671c08621a;["container_2_Emit_random_words_2"];5.25;1533385908.73871;139.92;735.77;1.131790013;10;149
31;paravance-14.rennes.grid5000.fr;thermos-root-devel-WordCountTopology-0-86113956-91ee-4adb-9791-b864e52d9632;["topology_master"];5.25;1533385908.74256;4.55;11.06;0.0;9;117
32;paravance-57.rennes.grid5000.fr;thermos-root-devel-WordCountTopology-1-b42051c4-23d0-41b1-9108-c2cf34290c00;["container_1_Consume_and_count_1"];5.25;1533385919.07395;259.68;1048.61;0.982676132;10;151
32;paravance-14.rennes.grid5000.fr;thermos-root-devel-WordCountTopology-0-86113956-91ee-4adb-9791-b864e52d9632;["topology_master"];5.25;1533385918.95673;4.64;11.18;0.0;9;117
32;paravance-31.rennes.grid5000.fr;thermos-root-devel-WordCountTopology-2-9b5bef99-bea6-4126-b9ea-82671c08621a;["container_2_Emit_random_words_2"];5.25;1533385918.95652;143.39;753.72;1.131790013;10;149
33;paravance-31.rennes.grid5000.fr;thermos-root-devel-WordCountTopology-2-9b5bef99-bea6-4126-b9ea-82671c08621a;["container_2_Emit_random_words_2"];5.25;1533385929.17265;146.86;771.7;1.131790013;10;149
33;paravance-57.rennes.grid5000.fr;thermos-root-devel-WordCountTopology-1-b42051c4-23d0-41b1-9108-c2cf34290c00;["container_1_Consume_and_count_1"];5.25;1533385929.29402;265.81;1074.1;0.982676132;10;151
33;paravance-14.rennes.grid5000.fr;thermos-root-devel-WordCountTopology-0-86113956-91ee-4adb-9791-b864e52d9632;["topology_master"];5.25;1533385929.17288;4.67;11.21;0.0;9;117
34;paravance-57.rennes.grid5000.fr;thermos-root-devel-WordCountTopology-1-b42051c4-23d0-41b1-9108-c2cf34290c00;["container_1_Consume_and_count_1"];5.25;1533385939.50584;272.16;1099.73;0.991290072;10;151
34;paravance-31.rennes.grid5000.fr;thermos-root-devel-WordCountTopology-2-9b5bef99-bea6-4126-b9ea-82671c08621a;["container_2_Emit_random_words_2"];5.25;1533385939.38667;150.32;789.39;1.131790013;10;149
34;paravance-14.rennes.grid5000.fr;thermos-root-devel-WordCountTopology-0-86113956-91ee-4adb-9791-b864e52d9632;["topology_master"];5.25;1533385939.38828;4.76;11.34;0.0;9;117
35;paravance-57.rennes.grid5000.fr;thermos-root-devel-WordCountTopology-1-b42051c4-23d0-41b1-9108-c2cf34290c00;["container_1_Consume_and_count_1"];5.25;1533385949.72326;278.49;1125.54;0.991290072;10;151
35;paravance-31.rennes.grid5000.fr;thermos-root-devel-WordCountTopology-2-9b5bef99-bea6-4126-b9ea-82671c08621a;["container_2_Emit_random_words_2"];5.25;1533385949.60271;153.77;807.44;1.131790013;10;149
35;paravance-14.rennes.grid5000.fr;thermos-root-devel-WordCountTopology-0-86113956-91ee-4adb-9791-b864e52d9632;["topology_master"];5.25;1533385949.60373;4.82;11.46;0.0;9;117
36;paravance-14.rennes.grid5000.fr;thermos-root-devel-WordCountTopology-0-86113956-91ee-4adb-9791-b864e52d9632;["topology_master"];5.25;1533385959.821;4.91;11.58;0.0;9;117
36;paravance-57.rennes.grid5000.fr;thermos-root-devel-WordCountTopology-1-b42051c4-23d0-41b1-9108-c2cf34290c00;["container_1_Consume_and_count_1"];5.25;1533385959.94039;284.84;1151.92;0.991290072;10;151
36;paravance-31.rennes.grid5000.fr;thermos-root-devel-WordCountTopology-2-9b5bef99-bea6-4126-b9ea-82671c08621a;["container_2_Emit_random_words_2"];5.25;1533385959.82187;157.23;825.25;1.131790013;10;149
37;paravance-31.rennes.grid5000.fr;thermos-root-devel-WordCountTopology-2-9b5bef99-bea6-4126-b9ea-82671c08621a;["container_2_Emit_random_words_2"];5.25;1533385970.0357;160.57;842.95;1.131790013;10;149
37;paravance-57.rennes.grid5000.fr;thermos-root-devel-WordCountTopology-1-b42051c4-23d0-41b1-9108-c2cf34290c00;["container_1_Consume_and_count_1"];5.25;1533385970.15693;291.07;1177.66;0.991290072;10;151
37;paravance-14.rennes.grid5000.fr;thermos-root-devel-WordCountTopology-0-86113956-91ee-4adb-9791-b864e52d9632;["topology_master"];5.25;1533385970.03663;4.93;11.61;0.0;9;117
38;paravance-31.rennes.grid5000.fr;thermos-root-devel-WordCountTopology-2-9b5bef99-bea6-4126-b9ea-82671c08621a;["container_2_Emit_random_words_2"];5.25;1533385980.25071;164.02;860.92;1.131790013;10;149
38;paravance-57.rennes.grid5000.fr;thermos-root-devel-WordCountTopology-1-b42051c4-23d0-41b1-9108-c2cf34290c00;["container_1_Consume_and_count_1"];5.25;1533385980.37425;297.48;1203.55;0.999297793;10;151
38;paravance-14.rennes.grid5000.fr;thermos-root-devel-WordCountTopology-0-86113956-91ee-4adb-9791-b864e52d9632;["topology_master"];5.25;1533385980.25467;5.02;11.72;0.0;9;117
39;paravance-57.rennes.grid5000.fr;thermos-root-devel-WordCountTopology-1-b42051c4-23d0-41b1-9108-c2cf34290c00;["container_1_Consume_and_count_1"];5.25;1533385990.59018;303.75;1229.9;0.99932177;10;151
39;paravance-31.rennes.grid5000.fr;thermos-root-devel-WordCountTopology-2-9b5bef99-bea6-4126-b9ea-82671c08621a;["container_2_Emit_random_words_2"];5.25;1533385990.47041;167.45;878.65;1.131790013;10;149
39;paravance-14.rennes.grid5000.fr;thermos-root-devel-WordCountTopology-0-86113956-91ee-4adb-9791-b864e52d9632;["topology_master"];5.25;1533385990.47149;5.08;11.8;0.0;9;117
40;paravance-57.rennes.grid5000.fr;thermos-root-devel-WordCountTopology-1-b42051c4-23d0-41b1-9108-c2cf34290c00;["container_1_Consume_and_count_1"];5.25;1533386000.80527;310.13;1256.15;0.99932177;10;151
40;paravance-31.rennes.grid5000.fr;thermos-root-devel-WordCountTopology-2-9b5bef99-bea6-4126-b9ea-82671c08621a;["container_2_Emit_random_words_2"];5.25;1533386000.68586;170.89;896.75;1.131790013;10;149
40;paravance-14.rennes.grid5000.fr;thermos-root-devel-WordCountTopology-0-86113956-91ee-4adb-9791-b864e52d9632;["topology_master"];5.25;1533386000.68787;5.15;11.88;0.0;9;117
41;paravance-31.rennes.grid5000.fr;thermos-root-devel-WordCountTopology-2-9b5bef99-bea6-4126-b9ea-82671c08621a;["container_2_Emit_random_words_2"];5.25;1533386010.90198;174.32;914.67;1.131790013;10;149
41;paravance-57.rennes.grid5000.fr;thermos-root-devel-WordCountTopology-1-b42051c4-23d0-41b1-9108-c2cf34290c00;["container_1_Consume_and_count_1"];5.25;1533386011.02328;316.35;1282.44;1.012690697;10;151
41;paravance-14.rennes.grid5000.fr;thermos-root-devel-WordCountTopology-0-86113956-91ee-4adb-9791-b864e52d9632;["topology_master"];5.25;1533386010.90363;5.21;12.01;0.0;9;117
42;paravance-31.rennes.grid5000.fr;thermos-root-devel-WordCountTopology-2-9b5bef99-bea6-4126-b9ea-82671c08621a;["container_2_Emit_random_words_2"];5.25;1533386021.11704;177.79;932.76;1.131790013;10;149
42;paravance-57.rennes.grid5000.fr;thermos-root-devel-WordCountTopology-1-b42051c4-23d0-41b1-9108-c2cf34290c00;["container_1_Consume_and_count_1"];5.25;1533386021.23997;322.53;1308.38;1.033795909;10;151
42;paravance-14.rennes.grid5000.fr;thermos-root-devel-WordCountTopology-0-86113956-91ee-4adb-9791-b864e52d9632;["topology_master"];5.25;1533386021.12075;5.29;12.13;0.0;9;117
43;paravance-31.rennes.grid5000.fr;thermos-root-devel-WordCountTopology-2-9b5bef99-bea6-4126-b9ea-82671c08621a;["container_2_Emit_random_words_2"];5.25;1533386031.33598;181.16;950.65;1.131790013;10;149
43;paravance-57.rennes.grid5000.fr;thermos-root-devel-WordCountTopology-1-b42051c4-23d0-41b1-9108-c2cf34290c00;["container_1_Consume_and_count_1"];5.25;1533386031.45733;328.84;1334.83;1.033795909;10;151
43;paravance-14.rennes.grid5000.fr;thermos-root-devel-WordCountTopology-0-86113956-91ee-4adb-9791-b864e52d9632;["topology_master"];5.25;1533386031.33697;5.32;12.17;0.0;9;117
44;paravance-57.rennes.grid5000.fr;thermos-root-devel-WordCountTopology-1-b42051c4-23d0-41b1-9108-c2cf34290c00;["container_1_Consume_and_count_1"];5.25;1533386041.67157;334.9;1360.83;1.035538846;10;151
44;paravance-31.rennes.grid5000.fr;thermos-root-devel-WordCountTopology-2-9b5bef99-bea6-4126-b9ea-82671c08621a;["container_2_Emit_random_words_2"];5.25;1533386041.55199;184.56;968.56;1.131790013;10;149
44;paravance-14.rennes.grid5000.fr;thermos-root-devel-WordCountTopology-0-86113956-91ee-4adb-9791-b864e52d9632;["topology_master"];5.25;1533386041.55356;5.41;12.29;0.0;9;117
45;paravance-57.rennes.grid5000.fr;thermos-root-devel-WordCountTopology-1-b42051c4-23d0-41b1-9108-c2cf34290c00;["container_1_Consume_and_count_1"];5.25;1533386051.88734;341.17;1386.53;1.035538846;10;151
45;paravance-31.rennes.grid5000.fr;thermos-root-devel-WordCountTopology-2-9b5bef99-bea6-4126-b9ea-82671c08621a;["container_2_Emit_random_words_2"];5.25;1533386051.76755;187.93;986.24;1.131790013;10;149
45;paravance-14.rennes.grid5000.fr;thermos-root-devel-WordCountTopology-0-86113956-91ee-4adb-9791-b864e52d9632;["topology_master"];5.25;1533386051.76964;5.46;12.36;0.0;9;117
46;paravance-31.rennes.grid5000.fr;thermos-root-devel-WordCountTopology-2-9b5bef99-bea6-4126-b9ea-82671c08621a;["container_2_Emit_random_words_2"];5.25;1533386061.98469;191.38;1004.26;1.131790013;10;149
46;paravance-57.rennes.grid5000.fr;thermos-root-devel-WordCountTopology-1-b42051c4-23d0-41b1-9108-c2cf34290c00;["container_1_Consume_and_count_1"];5.25;1533386062.10594;347.59;1411.98;1.035538846;10;151
46;paravance-14.rennes.grid5000.fr;thermos-root-devel-WordCountTopology-0-86113956-91ee-4adb-9791-b864e52d9632;["topology_master"];5.25;1533386061.98679;5.53;12.45;0.0;9;117
47;paravance-31.rennes.grid5000.fr;thermos-root-devel-WordCountTopology-2-9b5bef99-bea6-4126-b9ea-82671c08621a;["container_2_Emit_random_words_2"];5.25;1533386072.2011;194.79;1022.26;1.131790013;10;149
47;paravance-57.rennes.grid5000.fr;thermos-root-devel-WordCountTopology-1-b42051c4-23d0-41b1-9108-c2cf34290c00;["container_1_Consume_and_count_1"];5.25;1533386072.32202;353.79;1437.67;1.035538846;10;151
47;paravance-14.rennes.grid5000.fr;thermos-root-devel-WordCountTopology-0-86113956-91ee-4adb-9791-b864e52d9632;["topology_master"];5.25;1533386072.20363;5.59;12.56;0.0;9;117
48;paravance-57.rennes.grid5000.fr;thermos-root-devel-WordCountTopology-1-b42051c4-23d0-41b1-9108-c2cf34290c00;["container_1_Consume_and_count_1"];5.25;1533386082.54007;359.95;1463.02;1.04721579;10;151
48;paravance-31.rennes.grid5000.fr;thermos-root-devel-WordCountTopology-2-9b5bef99-bea6-4126-b9ea-82671c08621a;["container_2_Emit_random_words_2"];5.25;1533386082.41848;198.25;1040.05;1.131790013;10;149
48;paravance-14.rennes.grid5000.fr;thermos-root-devel-WordCountTopology-0-86113956-91ee-4adb-9791-b864e52d9632;["topology_master"];5.25;1533386082.42013;5.67;12.68;0.0;9;117
49;paravance-31.rennes.grid5000.fr;thermos-root-devel-WordCountTopology-2-9b5bef99-bea6-4126-b9ea-82671c08621a;["container_2_Emit_random_words_2"];5.25;1533386092.63425;201.64;1057.89;1.131790013;10;149
49;paravance-57.rennes.grid5000.fr;thermos-root-devel-WordCountTopology-1-b42051c4-23d0-41b1-9108-c2cf34290c00;["container_1_Consume_and_count_1"];5.25;1533386092.75733;365.84;1486.78;1.04721579;10;151
49;paravance-14.rennes.grid5000.fr;thermos-root-devel-WordCountTopology-0-86113956-91ee-4adb-9791-b864e52d9632;["topology_master"];5.25;1533386092.63828;5.71;12.72;0.0;9;117
50;paravance-14.rennes.grid5000.fr;thermos-root-devel-WordCountTopology-0-86113956-91ee-4adb-9791-b864e52d9632;["topology_master"];5.25;1533386102.75356;5.8;12.85;0.0;9;117
50;paravance-57.rennes.grid5000.fr;thermos-root-devel-WordCountTopology-1-b42051c4-23d0-41b1-9108-c2cf34290c00;["container_1_Consume_and_count_1"];5.25;1533386102.97182;372.02;1511.34;1.04721579;10;151
50;paravance-31.rennes.grid5000.fr;thermos-root-devel-WordCountTopology-2-9b5bef99-bea6-4126-b9ea-82671c08621a;["container_2_Emit_random_words_2"];5.25;1533386102.85229;205.06;1075.72;1.131790013;10;149
51;paravance-31.rennes.grid5000.fr;thermos-root-devel-WordCountTopology-2-9b5bef99-bea6-4126-b9ea-82671c08621a;["container_2_Emit_random_words_2"];5.25;1533386113.06322;208.43;1093.57;1.131790013;10;149
51;paravance-14.rennes.grid5000.fr;thermos-root-devel-WordCountTopology-0-86113956-91ee-4adb-9791-b864e52d9632;["topology_master"];5.25;1533386113.06776;5.85;12.92;0.0;9;117
51;paravance-57.rennes.grid5000.fr;thermos-root-devel-WordCountTopology-1-b42051c4-23d0-41b1-9108-c2cf34290c00;["container_1_Consume_and_count_1"];5.25;1533386113.1881;378.15;1536.12;1.04721579;10;151
52;paravance-31.rennes.grid5000.fr;thermos-root-devel-WordCountTopology-2-9b5bef99-bea6-4126-b9ea-82671c08621a;["container_2_Emit_random_words_2"];5.25;1533386123.28251;211.91;1111.37;1.131790013;10;149
52;paravance-57.rennes.grid5000.fr;thermos-root-devel-WordCountTopology-1-b42051c4-23d0-41b1-9108-c2cf34290c00;["container_1_Consume_and_count_1"];5.25;1533386123.40501;384.38;1561.4;1.04721579;10;151
52;paravance-14.rennes.grid5000.fr;thermos-root-devel-WordCountTopology-0-86113956-91ee-4adb-9791-b864e52d9632;["topology_master"];5.25;1533386123.2843;5.92;13.03;0.0;9;117
53;paravance-57.rennes.grid5000.fr;thermos-root-devel-WordCountTopology-1-b42051c4-23d0-41b1-9108-c2cf34290c00;["container_1_Consume_and_count_1"];5.25;1533386133.62042;390.84;1587.13;1.048136489;10;151
53;paravance-14.rennes.grid5000.fr;thermos-root-devel-WordCountTopology-0-86113956-91ee-4adb-9791-b864e52d9632;["topology_master"];5.25;1533386133.50012;5.98;13.1;0.0;9;117
53;paravance-31.rennes.grid5000.fr;thermos-root-devel-WordCountTopology-2-9b5bef99-bea6-4126-b9ea-82671c08621a;["container_2_Emit_random_words_2"];5.25;1533386133.5004;215.36;1129.41;1.131790013;10;149
54;paravance-31.rennes.grid5000.fr;thermos-root-devel-WordCountTopology-2-9b5bef99-bea6-4126-b9ea-82671c08621a;["container_2_Emit_random_words_2"];5.25;1533386143.61572;218.84;1147.27;1.131790013;10;149
54;paravance-57.rennes.grid5000.fr;thermos-root-devel-WordCountTopology-1-b42051c4-23d0-41b1-9108-c2cf34290c00;["container_1_Consume_and_count_1"];5.25;1533386143.83573;397.18;1612.85;1.048136489;10;151
54;paravance-14.rennes.grid5000.fr;thermos-root-devel-WordCountTopology-0-86113956-91ee-4adb-9791-b864e52d9632;["topology_master"];5.25;1533386143.71734;6.07;13.23;0.0;9;117
55;paravance-31.rennes.grid5000.fr;thermos-root-devel-WordCountTopology-2-9b5bef99-bea6-4126-b9ea-82671c08621a;["container_2_Emit_random_words_2"];5.25;1533386153.93036;222.29;1165.35;1.131790013;10;149
55;paravance-57.rennes.grid5000.fr;thermos-root-devel-WordCountTopology-1-b42051c4-23d0-41b1-9108-c2cf34290c00;["container_1_Consume_and_count_1"];5.25;1533386154.05369;403.25;1637.68;1.048136489;10;151
55;paravance-14.rennes.grid5000.fr;thermos-root-devel-WordCountTopology-0-86113956-91ee-4adb-9791-b864e52d9632;["topology_master"];5.25;1533386153.93458;6.1;13.25;0.0;9;117
56;paravance-31.rennes.grid5000.fr;thermos-root-devel-WordCountTopology-2-9b5bef99-bea6-4126-b9ea-82671c08621a;["container_2_Emit_random_words_2"];5.25;1533386164.14885;225.71;1183.24;1.131790013;10;149
56;paravance-57.rennes.grid5000.fr;thermos-root-devel-WordCountTopology-1-b42051c4-23d0-41b1-9108-c2cf34290c00;["container_1_Consume_and_count_1"];5.25;1533386164.26944;409.38;1662.29;1.048136489;10;151
56;paravance-14.rennes.grid5000.fr;thermos-root-devel-WordCountTopology-0-86113956-91ee-4adb-9791-b864e52d9632;["topology_master"];5.25;1533386164.15061;6.19;13.37;0.0;9;117
57;paravance-57.rennes.grid5000.fr;thermos-root-devel-WordCountTopology-1-b42051c4-23d0-41b1-9108-c2cf34290c00;["container_1_Consume_and_count_1"];5.25;1533386174.38461;415.4;1686.76;1.048136489;10;151
57;paravance-31.rennes.grid5000.fr;thermos-root-devel-WordCountTopology-2-9b5bef99-bea6-4126-b9ea-82671c08621a;["container_2_Emit_random_words_2"];5.25;1533386174.36299;229.33;1201.34;1.131790013;10;149
57;paravance-14.rennes.grid5000.fr;thermos-root-devel-WordCountTopology-0-86113956-91ee-4adb-9791-b864e52d9632;["topology_master"];5.25;1533386174.36548;6.24;13.45;0.0;9;117
58;paravance-57.rennes.grid5000.fr;thermos-root-devel-WordCountTopology-1-b42051c4-23d0-41b1-9108-c2cf34290c00;["container_1_Consume_and_count_1"];5.25;1533386184.6996;421.89;1712.63;1.079517184;10;151
58;paravance-14.rennes.grid5000.fr;thermos-root-devel-WordCountTopology-0-86113956-91ee-4adb-9791-b864e52d9632;["topology_master"];5.25;1533386184.58039;6.31;13.55;0.0;9;117
58;paravance-31.rennes.grid5000.fr;thermos-root-devel-WordCountTopology-2-9b5bef99-bea6-4126-b9ea-82671c08621a;["container_2_Emit_random_words_2"];5.25;1533386184.57997;232.76;1219.27;1.131790013;10;149
59;paravance-57.rennes.grid5000.fr;thermos-root-devel-WordCountTopology-1-b42051c4-23d0-41b1-9108-c2cf34290c00;["container_1_Consume_and_count_1"];5.25;1533386194.9137;428.26;1738.47;1.086718126;10;151
59;paravance-31.rennes.grid5000.fr;thermos-root-devel-WordCountTopology-2-9b5bef99-bea6-4126-b9ea-82671c08621a;["container_2_Emit_random_words_2"];5.25;1533386194.7949;236.25;1237.44;1.131790013;10;149
59;paravance-14.rennes.grid5000.fr;thermos-root-devel-WordCountTopology-0-86113956-91ee-4adb-9791-b864e52d9632;["topology_master"];5.25;1533386194.79634;6.37;13.63;0.0;9;117
60;paravance-57.rennes.grid5000.fr;thermos-root-devel-WordCountTopology-1-b42051c4-23d0-41b1-9108-c2cf34290c00;["container_1_Consume_and_count_1"];5.25;1533386205.12783;434.53;1764.09;1.086718126;10;151
60;paravance-31.rennes.grid5000.fr;thermos-root-devel-WordCountTopology-2-9b5bef99-bea6-4126-b9ea-82671c08621a;["container_2_Emit_random_words_2"];5.25;1533386205.00856;239.74;1255.49;1.131790013;10;149
60;paravance-14.rennes.grid5000.fr;thermos-root-devel-WordCountTopology-0-86113956-91ee-4adb-9791-b864e52d9632;["topology_master"];5.25;1533386205.01103;6.46;13.75;0.0;9;117
