mesure_id;slave_id;executor_id;heron_instances;cpus_limit;timestamp_B;cpus_system_time_secs_B;cpus_user_time_secs_B;cpus_throttled_time_secs_B;processes;threads
0;paravance-70.rennes.grid5000.fr;thermos-root-devel-WordCountTopology-1-bc36ae5a-a659-4402-8590-960072e5e1e1;["container_1_Consume_and_count_1"];1.25;1533042103.7824;33.33;116.74;146.222378796;10;149
0;paravance-72.rennes.grid5000.fr;thermos-root-devel-WordCountTopology-2-fd723600-9495-4ff5-9124-9f3bd2c71b58;["container_2_Emit_random_words_2"];1.25;1533042103.86961;30.51;122.24;160.724920627;10;149
0;paravance-71.rennes.grid5000.fr;thermos-root-devel-WordCountTopology-0-1eb68ba3-15f9-42e0-ab4d-b9290397cc3c;["topology_master"];1.25;1533042103.90333;2.67;8.98;4.159581037;9;117
1;paravance-71.rennes.grid5000.fr;thermos-root-devel-WordCountTopology-0-1eb68ba3-15f9-42e0-ab4d-b9290397cc3c;["topology_master"];1.25;1533042114.0226;2.76;9.11;4.159581037;9;117
1;paravance-72.rennes.grid5000.fr;thermos-root-devel-WordCountTopology-2-fd723600-9495-4ff5-9124-9f3bd2c71b58;["container_2_Emit_random_words_2"];1.25;1533042114.08988;32.84;130.97;169.205589309;10;149
1;paravance-70.rennes.grid5000.fr;thermos-root-devel-WordCountTopology-1-bc36ae5a-a659-4402-8590-960072e5e1e1;["container_1_Consume_and_count_1"];1.25;1533042114.00527;36.01;126.14;160.250574341;10;149
2;paravance-70.rennes.grid5000.fr;thermos-root-devel-WordCountTopology-1-bc36ae5a-a659-4402-8590-960072e5e1e1;["container_1_Consume_and_count_1"];1.25;1533042124.22567;38.76;135.46;170.785015156;10;149
2;paravance-71.rennes.grid5000.fr;thermos-root-devel-WordCountTopology-0-1eb68ba3-15f9-42e0-ab4d-b9290397cc3c;["topology_master"];1.25;1533042124.34267;2.78;9.14;4.159581037;9;117
2;paravance-72.rennes.grid5000.fr;thermos-root-devel-WordCountTopology-2-fd723600-9495-4ff5-9124-9f3bd2c71b58;["container_2_Emit_random_words_2"];1.25;1533042124.31207;35.27;140.41;177.67527007;10;149
3;paravance-71.rennes.grid5000.fr;thermos-root-devel-WordCountTopology-0-1eb68ba3-15f9-42e0-ab4d-b9290397cc3c;["topology_master"];1.25;1533042134.56442;2.87;9.27;4.159581037;9;117
3;paravance-72.rennes.grid5000.fr;thermos-root-devel-WordCountTopology-2-fd723600-9495-4ff5-9124-9f3bd2c71b58;["container_2_Emit_random_words_2"];1.25;1533042134.53293;37.72;149.82;187.105446751;10;149
3;paravance-70.rennes.grid5000.fr;thermos-root-devel-WordCountTopology-1-bc36ae5a-a659-4402-8590-960072e5e1e1;["container_1_Consume_and_count_1"];1.25;1533042134.44796;41.57;144.69;182.164850087;10;149
4;paravance-71.rennes.grid5000.fr;thermos-root-devel-WordCountTopology-0-1eb68ba3-15f9-42e0-ab4d-b9290397cc3c;["topology_master"];1.25;1533042144.78451;2.93;9.34;4.159581037;9;117
4;paravance-72.rennes.grid5000.fr;thermos-root-devel-WordCountTopology-2-fd723600-9495-4ff5-9124-9f3bd2c71b58;["container_2_Emit_random_words_2"];1.25;1533042144.75325;40.06;158.91;195.706667752;10;149
4;paravance-70.rennes.grid5000.fr;thermos-root-devel-WordCountTopology-1-bc36ae5a-a659-4402-8590-960072e5e1e1;["container_1_Consume_and_count_1"];1.25;1533042144.66901;44.36;153.91;193.567415531;10;149
5;paravance-71.rennes.grid5000.fr;thermos-root-devel-WordCountTopology-0-1eb68ba3-15f9-42e0-ab4d-b9290397cc3c;["topology_master"];1.25;1533042155.00461;3.01;9.44;4.159581037;9;117
5;paravance-70.rennes.grid5000.fr;thermos-root-devel-WordCountTopology-1-bc36ae5a-a659-4402-8590-960072e5e1e1;["container_1_Consume_and_count_1"];1.25;1533042154.8871;47.15;163.14;205.704833967;10;149
5;paravance-72.rennes.grid5000.fr;thermos-root-devel-WordCountTopology-2-fd723600-9495-4ff5-9124-9f3bd2c71b58;["container_2_Emit_random_words_2"];1.25;1533042154.97447;42.39;167.94;203.84943341;10;149
6;paravance-72.rennes.grid5000.fr;thermos-root-devel-WordCountTopology-2-fd723600-9495-4ff5-9124-9f3bd2c71b58;["container_2_Emit_random_words_2"];1.25;1533042165.19539;44.76;177.07;212.62546854;10;149
6;paravance-71.rennes.grid5000.fr;thermos-root-devel-WordCountTopology-0-1eb68ba3-15f9-42e0-ab4d-b9290397cc3c;["topology_master"];1.25;1533042165.22788;3.08;9.6;4.159581037;9;117
6;paravance-70.rennes.grid5000.fr;thermos-root-devel-WordCountTopology-1-bc36ae5a-a659-4402-8590-960072e5e1e1;["container_1_Consume_and_count_1"];1.25;1533042165.11039;49.84;172.4;217.869614628;10;149
7;paravance-72.rennes.grid5000.fr;thermos-root-devel-WordCountTopology-2-fd723600-9495-4ff5-9124-9f3bd2c71b58;["container_2_Emit_random_words_2"];1.25;1533042175.41741;47.19;186.26;221.790977438;10;149
7;paravance-71.rennes.grid5000.fr;thermos-root-devel-WordCountTopology-0-1eb68ba3-15f9-42e0-ab4d-b9290397cc3c;["topology_master"];1.25;1533042175.44992;3.18;9.74;4.159581037;9;117
7;paravance-70.rennes.grid5000.fr;thermos-root-devel-WordCountTopology-1-bc36ae5a-a659-4402-8590-960072e5e1e1;["container_1_Consume_and_count_1"];1.25;1533042175.33322;52.52;181.72;231.189819955;10;149
8;paravance-72.rennes.grid5000.fr;thermos-root-devel-WordCountTopology-2-fd723600-9495-4ff5-9124-9f3bd2c71b58;["container_2_Emit_random_words_2"];1.25;1533042185.63857;49.52;195.25;230.351525456;10;149
8;paravance-70.rennes.grid5000.fr;thermos-root-devel-WordCountTopology-1-bc36ae5a-a659-4402-8590-960072e5e1e1;["container_1_Consume_and_count_1"];1.25;1533042185.55467;55.13;191.06;244.214774505;10;149
8;paravance-71.rennes.grid5000.fr;thermos-root-devel-WordCountTopology-0-1eb68ba3-15f9-42e0-ab4d-b9290397cc3c;["topology_master"];1.25;1533042185.67118;3.2;9.77;4.159581037;9;117
9;paravance-70.rennes.grid5000.fr;thermos-root-devel-WordCountTopology-1-bc36ae5a-a659-4402-8590-960072e5e1e1;["container_1_Consume_and_count_1"];1.25;1533042195.67452;57.76;200.32;258.408828257;10;149
9;paravance-72.rennes.grid5000.fr;thermos-root-devel-WordCountTopology-2-fd723600-9495-4ff5-9124-9f3bd2c71b58;["container_2_Emit_random_words_2"];1.25;1533042195.8607;51.84;203.79;238.9550543;10;149
9;paravance-71.rennes.grid5000.fr;thermos-root-devel-WordCountTopology-0-1eb68ba3-15f9-42e0-ab4d-b9290397cc3c;["topology_master"];1.25;1533042195.89262;3.29;9.89;4.159581037;9;117
10;paravance-70.rennes.grid5000.fr;thermos-root-devel-WordCountTopology-1-bc36ae5a-a659-4402-8590-960072e5e1e1;["container_1_Consume_and_count_1"];1.25;1533042205.99591;60.43;209.84;272.106950424;10;149
10;paravance-71.rennes.grid5000.fr;thermos-root-devel-WordCountTopology-0-1eb68ba3-15f9-42e0-ab4d-b9290397cc3c;["topology_master"];1.25;1533042206.11407;3.35;9.97;4.159581037;9;117
10;paravance-72.rennes.grid5000.fr;thermos-root-devel-WordCountTopology-2-fd723600-9495-4ff5-9124-9f3bd2c71b58;["container_2_Emit_random_words_2"];1.25;1533042206.08264;54.22;212.82;247.47495953;10;149
11;paravance-70.rennes.grid5000.fr;thermos-root-devel-WordCountTopology-1-bc36ae5a-a659-4402-8590-960072e5e1e1;["container_1_Consume_and_count_1"];1.25;1533042216.21748;62.94;219.39;286.212043021;10;149
11;paravance-71.rennes.grid5000.fr;thermos-root-devel-WordCountTopology-0-1eb68ba3-15f9-42e0-ab4d-b9290397cc3c;["topology_master"];1.25;1533042216.33417;3.45;10.1;4.159581037;9;117
11;paravance-72.rennes.grid5000.fr;thermos-root-devel-WordCountTopology-2-fd723600-9495-4ff5-9124-9f3bd2c71b58;["container_2_Emit_random_words_2"];1.25;1533042216.30305;56.51;221.37;255.356003177;10;149
12;paravance-70.rennes.grid5000.fr;thermos-root-devel-WordCountTopology-1-bc36ae5a-a659-4402-8590-960072e5e1e1;["container_1_Consume_and_count_1"];1.25;1533042226.44037;65.62;228.74;298.409998152;10;149
12;paravance-71.rennes.grid5000.fr;thermos-root-devel-WordCountTopology-0-1eb68ba3-15f9-42e0-ab4d-b9290397cc3c;["topology_master"];1.25;1533042226.55809;3.51;10.28;4.159581037;9;117
12;paravance-72.rennes.grid5000.fr;thermos-root-devel-WordCountTopology-2-fd723600-9495-4ff5-9124-9f3bd2c71b58;["container_2_Emit_random_words_2"];1.25;1533042226.52638;58.9;230.36;264.255688677;10;149
13;paravance-70.rennes.grid5000.fr;thermos-root-devel-WordCountTopology-1-bc36ae5a-a659-4402-8590-960072e5e1e1;["container_1_Consume_and_count_1"];1.25;1533042236.6623;68.3;238.16;310.5094738;10;149
13;paravance-71.rennes.grid5000.fr;thermos-root-devel-WordCountTopology-0-1eb68ba3-15f9-42e0-ab4d-b9290397cc3c;["topology_master"];1.25;1533042236.77965;3.6;10.4;4.159581037;9;117
13;paravance-72.rennes.grid5000.fr;thermos-root-devel-WordCountTopology-2-fd723600-9495-4ff5-9124-9f3bd2c71b58;["container_2_Emit_random_words_2"];1.25;1533042236.74837;61.48;239.69;274.660618455;10;149
14;paravance-70.rennes.grid5000.fr;thermos-root-devel-WordCountTopology-1-bc36ae5a-a659-4402-8590-960072e5e1e1;["container_1_Consume_and_count_1"];1.25;1533042246.88281;70.87;247.72;321.282052284;10;149
14;paravance-71.rennes.grid5000.fr;thermos-root-devel-WordCountTopology-0-1eb68ba3-15f9-42e0-ab4d-b9290397cc3c;["topology_master"];1.25;1533042247.00132;3.66;10.49;4.159581037;9;117
14;paravance-72.rennes.grid5000.fr;thermos-root-devel-WordCountTopology-2-fd723600-9495-4ff5-9124-9f3bd2c71b58;["container_2_Emit_random_words_2"];1.25;1533042246.96996;63.96;249.23;283.473722091;10;149
15;paravance-70.rennes.grid5000.fr;thermos-root-devel-WordCountTopology-1-bc36ae5a-a659-4402-8590-960072e5e1e1;["container_1_Consume_and_count_1"];1.25;1533042257.10328;73.44;257.35;334.83638736;10;149
15;paravance-71.rennes.grid5000.fr;thermos-root-devel-WordCountTopology-0-1eb68ba3-15f9-42e0-ab4d-b9290397cc3c;["topology_master"];1.25;1533042257.22238;3.72;10.57;4.159581037;9;117
15;paravance-72.rennes.grid5000.fr;thermos-root-devel-WordCountTopology-2-fd723600-9495-4ff5-9124-9f3bd2c71b58;["container_2_Emit_random_words_2"];1.25;1533042257.19163;66.3;258.15;292.130152599;10;149
16;paravance-71.rennes.grid5000.fr;thermos-root-devel-WordCountTopology-0-1eb68ba3-15f9-42e0-ab4d-b9290397cc3c;["topology_master"];1.25;1533042267.44302;3.77;10.65;4.159581037;9;117
16;paravance-70.rennes.grid5000.fr;thermos-root-devel-WordCountTopology-1-bc36ae5a-a659-4402-8590-960072e5e1e1;["container_1_Consume_and_count_1"];1.25;1533042267.32679;75.96;266.92;348.652331512;10;149
16;paravance-72.rennes.grid5000.fr;thermos-root-devel-WordCountTopology-2-fd723600-9495-4ff5-9124-9f3bd2c71b58;["container_2_Emit_random_words_2"];1.25;1533042267.41251;68.67;267.05;301.055286709;10;149
17;paravance-71.rennes.grid5000.fr;thermos-root-devel-WordCountTopology-0-1eb68ba3-15f9-42e0-ab4d-b9290397cc3c;["topology_master"];1.25;1533042277.65974;3.9;10.89;4.202432146;9;117
17;paravance-70.rennes.grid5000.fr;thermos-root-devel-WordCountTopology-1-bc36ae5a-a659-4402-8590-960072e5e1e1;["container_1_Consume_and_count_1"];1.25;1533042277.54842;78.62;276.34;362.108141487;10;149
17;paravance-72.rennes.grid5000.fr;thermos-root-devel-WordCountTopology-2-fd723600-9495-4ff5-9124-9f3bd2c71b58;["container_2_Emit_random_words_2"];1.25;1533042277.63366;71.02;276.0;310.468320598;10;149
18;paravance-70.rennes.grid5000.fr;thermos-root-devel-WordCountTopology-1-bc36ae5a-a659-4402-8590-960072e5e1e1;["container_1_Consume_and_count_1"];1.25;1533042287.76911;81.26;285.67;373.934847006;10;149
18;paravance-71.rennes.grid5000.fr;thermos-root-devel-WordCountTopology-0-1eb68ba3-15f9-42e0-ab4d-b9290397cc3c;["topology_master"];1.25;1533042287.87658;3.92;10.91;4.202432146;9;117
18;paravance-72.rennes.grid5000.fr;thermos-root-devel-WordCountTopology-2-fd723600-9495-4ff5-9124-9f3bd2c71b58;["container_2_Emit_random_words_2"];1.25;1533042287.85432;73.44;285.27;319.359160209;10;149
19;paravance-71.rennes.grid5000.fr;thermos-root-devel-WordCountTopology-0-1eb68ba3-15f9-42e0-ab4d-b9290397cc3c;["topology_master"];1.25;1533042298.09131;4.01;11.04;4.202432146;9;117
19;paravance-70.rennes.grid5000.fr;thermos-root-devel-WordCountTopology-1-bc36ae5a-a659-4402-8590-960072e5e1e1;["container_1_Consume_and_count_1"];1.25;1533042297.99087;83.93;295.08;387.093522597;10;149
19;paravance-72.rennes.grid5000.fr;thermos-root-devel-WordCountTopology-2-fd723600-9495-4ff5-9124-9f3bd2c71b58;["container_2_Emit_random_words_2"];1.25;1533042298.07568;75.87;294.27;327.885674118;10;149
20;paravance-70.rennes.grid5000.fr;thermos-root-devel-WordCountTopology-1-bc36ae5a-a659-4402-8590-960072e5e1e1;["container_1_Consume_and_count_1"];1.25;1533042308.21133;86.57;304.47;400.370189191;10;149
20;paravance-71.rennes.grid5000.fr;thermos-root-devel-WordCountTopology-0-1eb68ba3-15f9-42e0-ab4d-b9290397cc3c;["topology_master"];1.25;1533042308.30818;4.07;11.12;4.202432146;9;117
20;paravance-72.rennes.grid5000.fr;thermos-root-devel-WordCountTopology-2-fd723600-9495-4ff5-9124-9f3bd2c71b58;["container_2_Emit_random_words_2"];1.25;1533042308.29738;78.15;302.96;335.792311345;10;149
21;paravance-71.rennes.grid5000.fr;thermos-root-devel-WordCountTopology-0-1eb68ba3-15f9-42e0-ab4d-b9290397cc3c;["topology_master"];1.25;1533042318.52483;4.13;11.19;4.202432146;9;117
21;paravance-70.rennes.grid5000.fr;thermos-root-devel-WordCountTopology-1-bc36ae5a-a659-4402-8590-960072e5e1e1;["container_1_Consume_and_count_1"];1.25;1533042318.43409;89.22;313.77;413.237951283;10;149
21;paravance-72.rennes.grid5000.fr;thermos-root-devel-WordCountTopology-2-fd723600-9495-4ff5-9124-9f3bd2c71b58;["container_2_Emit_random_words_2"];1.25;1533042318.51845;80.7;311.53;344.179361412;10;149
22;paravance-70.rennes.grid5000.fr;thermos-root-devel-WordCountTopology-1-bc36ae5a-a659-4402-8590-960072e5e1e1;["container_1_Consume_and_count_1"];1.25;1533042328.65314;91.88;323.17;425.048030515;10;149
22;paravance-71.rennes.grid5000.fr;thermos-root-devel-WordCountTopology-0-1eb68ba3-15f9-42e0-ab4d-b9290397cc3c;["topology_master"];1.25;1533042328.74028;4.18;11.26;4.202432146;9;117
22;paravance-72.rennes.grid5000.fr;thermos-root-devel-WordCountTopology-2-fd723600-9495-4ff5-9124-9f3bd2c71b58;["container_2_Emit_random_words_2"];1.25;1533042328.73945;83.25;320.51;352.612567748;10;149
23;paravance-71.rennes.grid5000.fr;thermos-root-devel-WordCountTopology-0-1eb68ba3-15f9-42e0-ab4d-b9290397cc3c;["topology_master"];1.25;1533042338.95592;4.3;11.46;4.202432146;9;117
23;paravance-70.rennes.grid5000.fr;thermos-root-devel-WordCountTopology-1-bc36ae5a-a659-4402-8590-960072e5e1e1;["container_1_Consume_and_count_1"];1.25;1533042338.87541;94.53;332.48;437.562685987;10;149
23;paravance-72.rennes.grid5000.fr;thermos-root-devel-WordCountTopology-2-fd723600-9495-4ff5-9124-9f3bd2c71b58;["container_2_Emit_random_words_2"];1.25;1533042338.95784;85.72;329.61;361.777396232;10;149
24;paravance-71.rennes.grid5000.fr;thermos-root-devel-WordCountTopology-0-1eb68ba3-15f9-42e0-ab4d-b9290397cc3c;["topology_master"];1.25;1533042349.17243;4.33;11.48;4.202432146;9;117
24;paravance-70.rennes.grid5000.fr;thermos-root-devel-WordCountTopology-1-bc36ae5a-a659-4402-8590-960072e5e1e1;["container_1_Consume_and_count_1"];1.25;1533042349.09656;97.13;341.87;448.540859211;10;149
24;paravance-72.rennes.grid5000.fr;thermos-root-devel-WordCountTopology-2-fd723600-9495-4ff5-9124-9f3bd2c71b58;["container_2_Emit_random_words_2"];1.25;1533042349.17464;88.21;338.74;371.037820321;10;149
25;paravance-71.rennes.grid5000.fr;thermos-root-devel-WordCountTopology-0-1eb68ba3-15f9-42e0-ab4d-b9290397cc3c;["topology_master"];1.25;1533042359.38769;4.42;11.61;4.202432146;9;117
25;paravance-72.rennes.grid5000.fr;thermos-root-devel-WordCountTopology-2-fd723600-9495-4ff5-9124-9f3bd2c71b58;["container_2_Emit_random_words_2"];1.25;1533042359.39054;90.44;347.15;378.887407805;10;149
25;paravance-70.rennes.grid5000.fr;thermos-root-devel-WordCountTopology-1-bc36ae5a-a659-4402-8590-960072e5e1e1;["container_1_Consume_and_count_1"];1.25;1533042359.31859;99.61;351.46;461.120893648;10;149
26;paravance-70.rennes.grid5000.fr;thermos-root-devel-WordCountTopology-1-bc36ae5a-a659-4402-8590-960072e5e1e1;["container_1_Consume_and_count_1"];1.25;1533042369.53839;102.21;360.85;470.582192487;10;149
26;paravance-71.rennes.grid5000.fr;thermos-root-devel-WordCountTopology-0-1eb68ba3-15f9-42e0-ab4d-b9290397cc3c;["topology_master"];1.25;1533042369.60411;4.47;11.68;4.202432146;9;117
26;paravance-72.rennes.grid5000.fr;thermos-root-devel-WordCountTopology-2-fd723600-9495-4ff5-9124-9f3bd2c71b58;["container_2_Emit_random_words_2"];1.25;1533042369.60592;92.67;355.65;386.198817341;10;149
27;paravance-70.rennes.grid5000.fr;thermos-root-devel-WordCountTopology-1-bc36ae5a-a659-4402-8590-960072e5e1e1;["container_1_Consume_and_count_1"];1.25;1533042379.76171;104.84;370.23;477.584037186;10;149
27;paravance-71.rennes.grid5000.fr;thermos-root-devel-WordCountTopology-0-1eb68ba3-15f9-42e0-ab4d-b9290397cc3c;["topology_master"];1.25;1533042379.82115;4.54;11.77;4.202432146;9;117
27;paravance-72.rennes.grid5000.fr;thermos-root-devel-WordCountTopology-2-fd723600-9495-4ff5-9124-9f3bd2c71b58;["container_2_Emit_random_words_2"];1.25;1533042379.82373;95.11;364.83;395.921557724;10;149
28;paravance-71.rennes.grid5000.fr;thermos-root-devel-WordCountTopology-0-1eb68ba3-15f9-42e0-ab4d-b9290397cc3c;["topology_master"];1.25;1533042390.03807;4.6;11.84;4.202432146;9;117
28;paravance-72.rennes.grid5000.fr;thermos-root-devel-WordCountTopology-2-fd723600-9495-4ff5-9124-9f3bd2c71b58;["container_2_Emit_random_words_2"];1.25;1533042390.04073;97.41;373.61;403.782497294;10;149
28;paravance-70.rennes.grid5000.fr;thermos-root-devel-WordCountTopology-1-bc36ae5a-a659-4402-8590-960072e5e1e1;["container_1_Consume_and_count_1"];1.25;1533042389.98501;107.5;379.73;485.590139626;10;149
29;paravance-72.rennes.grid5000.fr;thermos-root-devel-WordCountTopology-2-fd723600-9495-4ff5-9124-9f3bd2c71b58;["container_2_Emit_random_words_2"];1.25;1533042400.25652;99.76;382.27;411.680431754;10;149
29;paravance-71.rennes.grid5000.fr;thermos-root-devel-WordCountTopology-0-1eb68ba3-15f9-42e0-ab4d-b9290397cc3c;["topology_master"];1.25;1533042400.25516;4.7;12.02;4.202432146;9;117
29;paravance-70.rennes.grid5000.fr;thermos-root-devel-WordCountTopology-1-bc36ae5a-a659-4402-8590-960072e5e1e1;["container_1_Consume_and_count_1"];1.25;1533042400.2043;110.15;389.03;494.37298286;10;149
30;paravance-70.rennes.grid5000.fr;thermos-root-devel-WordCountTopology-1-bc36ae5a-a659-4402-8590-960072e5e1e1;["container_1_Consume_and_count_1"];1.25;1533042410.42588;112.84;398.31;502.176425983;10;149
30;paravance-71.rennes.grid5000.fr;thermos-root-devel-WordCountTopology-0-1eb68ba3-15f9-42e0-ab4d-b9290397cc3c;["topology_master"];1.25;1533042410.47092;4.73;12.04;4.202432146;9;117
30;paravance-72.rennes.grid5000.fr;thermos-root-devel-WordCountTopology-2-fd723600-9495-4ff5-9124-9f3bd2c71b58;["container_2_Emit_random_words_2"];1.25;1533042410.47302;102.14;391.05;419.671000281;10;149
31;paravance-72.rennes.grid5000.fr;thermos-root-devel-WordCountTopology-2-fd723600-9495-4ff5-9124-9f3bd2c71b58;["container_2_Emit_random_words_2"];1.25;1533042420.68632;104.55;400.15;429.365975584;10;149
31;paravance-71.rennes.grid5000.fr;thermos-root-devel-WordCountTopology-0-1eb68ba3-15f9-42e0-ab4d-b9290397cc3c;["topology_master"];1.25;1533042420.68497;4.82;12.17;4.202432146;9;117
31;paravance-70.rennes.grid5000.fr;thermos-root-devel-WordCountTopology-1-bc36ae5a-a659-4402-8590-960072e5e1e1;["container_1_Consume_and_count_1"];1.25;1533042420.64717;115.51;407.61;509.946804812;10;149
32;paravance-71.rennes.grid5000.fr;thermos-root-devel-WordCountTopology-0-1eb68ba3-15f9-42e0-ab4d-b9290397cc3c;["topology_master"];1.25;1533042430.90044;4.87;12.24;4.202432146;9;117
32;paravance-70.rennes.grid5000.fr;thermos-root-devel-WordCountTopology-1-bc36ae5a-a659-4402-8590-960072e5e1e1;["container_1_Consume_and_count_1"];1.25;1533042430.86707;118.17;416.86;517.410149928;10;149
32;paravance-72.rennes.grid5000.fr;thermos-root-devel-WordCountTopology-2-fd723600-9495-4ff5-9124-9f3bd2c71b58;["container_2_Emit_random_words_2"];1.25;1533042430.90348;106.93;409.2;437.771416807;10;149
33;paravance-72.rennes.grid5000.fr;thermos-root-devel-WordCountTopology-2-fd723600-9495-4ff5-9124-9f3bd2c71b58;["container_2_Emit_random_words_2"];1.25;1533042441.11661;109.39;418.66;447.439867584;10;149
33;paravance-70.rennes.grid5000.fr;thermos-root-devel-WordCountTopology-1-bc36ae5a-a659-4402-8590-960072e5e1e1;["container_1_Consume_and_count_1"];1.25;1533042441.08791;120.82;426.15;525.382311725;10;149
33;paravance-71.rennes.grid5000.fr;thermos-root-devel-WordCountTopology-0-1eb68ba3-15f9-42e0-ab4d-b9290397cc3c;["topology_master"];1.25;1533042441.1181;4.93;12.31;4.202432146;9;117
34;paravance-70.rennes.grid5000.fr;thermos-root-devel-WordCountTopology-1-bc36ae5a-a659-4402-8590-960072e5e1e1;["container_1_Consume_and_count_1"];1.25;1533042451.30678;123.46;435.39;537.394817433;10;149
34;paravance-72.rennes.grid5000.fr;thermos-root-devel-WordCountTopology-2-fd723600-9495-4ff5-9124-9f3bd2c71b58;["container_2_Emit_random_words_2"];1.25;1533042451.33389;111.81;427.83;457.095422009;10;149
34;paravance-71.rennes.grid5000.fr;thermos-root-devel-WordCountTopology-0-1eb68ba3-15f9-42e0-ab4d-b9290397cc3c;["topology_master"];1.25;1533042451.33326;5.03;12.45;4.202432146;9;117
35;paravance-71.rennes.grid5000.fr;thermos-root-devel-WordCountTopology-0-1eb68ba3-15f9-42e0-ab4d-b9290397cc3c;["topology_master"];1.25;1533042461.54691;5.1;12.62;4.202432146;9;117
35;paravance-70.rennes.grid5000.fr;thermos-root-devel-WordCountTopology-1-bc36ae5a-a659-4402-8590-960072e5e1e1;["container_1_Consume_and_count_1"];1.25;1533042461.52868;126.01;444.73;554.286852167;10;149
35;paravance-72.rennes.grid5000.fr;thermos-root-devel-WordCountTopology-2-fd723600-9495-4ff5-9124-9f3bd2c71b58;["container_2_Emit_random_words_2"];1.25;1533042461.55;114.01;435.93;465.031801352;10;149
36;paravance-71.rennes.grid5000.fr;thermos-root-devel-WordCountTopology-0-1eb68ba3-15f9-42e0-ab4d-b9290397cc3c;["topology_master"];1.25;1533042471.76259;5.16;12.69;4.202432146;9;117
36;paravance-70.rennes.grid5000.fr;thermos-root-devel-WordCountTopology-1-bc36ae5a-a659-4402-8590-960072e5e1e1;["container_1_Consume_and_count_1"];1.25;1533042471.74895;128.26;454.48;572.524927806;10;149
36;paravance-72.rennes.grid5000.fr;thermos-root-devel-WordCountTopology-2-fd723600-9495-4ff5-9124-9f3bd2c71b58;["container_2_Emit_random_words_2"];1.25;1533042471.76489;115.92;443.1;471.686396669;10;149
37;paravance-71.rennes.grid5000.fr;thermos-root-devel-WordCountTopology-0-1eb68ba3-15f9-42e0-ab4d-b9290397cc3c;["topology_master"];1.25;1533042481.97822;5.21;12.76;4.202432146;9;117
37;paravance-72.rennes.grid5000.fr;thermos-root-devel-WordCountTopology-2-fd723600-9495-4ff5-9124-9f3bd2c71b58;["container_2_Emit_random_words_2"];1.25;1533042481.97946;118.11;451.18;479.603558587;10;149
37;paravance-70.rennes.grid5000.fr;thermos-root-devel-WordCountTopology-1-bc36ae5a-a659-4402-8590-960072e5e1e1;["container_1_Consume_and_count_1"];1.25;1533042481.97072;130.74;464.05;590.739637205;10;149
38;paravance-71.rennes.grid5000.fr;thermos-root-devel-WordCountTopology-0-1eb68ba3-15f9-42e0-ab4d-b9290397cc3c;["topology_master"];1.25;1533042492.1937;5.3;12.88;4.202432146;9;117
38;paravance-72.rennes.grid5000.fr;thermos-root-devel-WordCountTopology-2-fd723600-9495-4ff5-9124-9f3bd2c71b58;["container_2_Emit_random_words_2"];1.25;1533042492.19609;120.22;459.14;487.787318199;10;149
38;paravance-70.rennes.grid5000.fr;thermos-root-devel-WordCountTopology-1-bc36ae5a-a659-4402-8590-960072e5e1e1;["container_1_Consume_and_count_1"];1.25;1533042492.19191;133.2;473.53;610.229691089;10;149
39;paravance-71.rennes.grid5000.fr;thermos-root-devel-WordCountTopology-0-1eb68ba3-15f9-42e0-ab4d-b9290397cc3c;["topology_master"];1.25;1533042502.40893;5.33;12.9;4.202432146;9;117
39;paravance-70.rennes.grid5000.fr;thermos-root-devel-WordCountTopology-1-bc36ae5a-a659-4402-8590-960072e5e1e1;["container_1_Consume_and_count_1"];1.25;1533042502.41177;135.53;483.16;628.863321158;10;149
39;paravance-72.rennes.grid5000.fr;thermos-root-devel-WordCountTopology-2-fd723600-9495-4ff5-9124-9f3bd2c71b58;["container_2_Emit_random_words_2"];1.25;1533042502.41201;122.11;466.4;494.252125458;10;149
40;paravance-71.rennes.grid5000.fr;thermos-root-devel-WordCountTopology-0-1eb68ba3-15f9-42e0-ab4d-b9290397cc3c;["topology_master"];1.25;1533042512.63639;5.43;13.04;4.202432146;9;117
40;paravance-70.rennes.grid5000.fr;thermos-root-devel-WordCountTopology-1-bc36ae5a-a659-4402-8590-960072e5e1e1;["container_1_Consume_and_count_1"];1.25;1533042512.64093;137.92;492.81;649.061906931;10;149
40;paravance-72.rennes.grid5000.fr;thermos-root-devel-WordCountTopology-2-fd723600-9495-4ff5-9124-9f3bd2c71b58;["container_2_Emit_random_words_2"];1.25;1533042512.64412;124.26;474.49;502.825258171;10;149
41;paravance-71.rennes.grid5000.fr;thermos-root-devel-WordCountTopology-0-1eb68ba3-15f9-42e0-ab4d-b9290397cc3c;["topology_master"];1.25;1533042522.85721;5.49;13.15;4.202432146;9;117
41;paravance-72.rennes.grid5000.fr;thermos-root-devel-WordCountTopology-2-fd723600-9495-4ff5-9124-9f3bd2c71b58;["container_2_Emit_random_words_2"];1.25;1533042522.86024;126.42;482.8;511.315334835;10;149
41;paravance-70.rennes.grid5000.fr;thermos-root-devel-WordCountTopology-1-bc36ae5a-a659-4402-8590-960072e5e1e1;["container_1_Consume_and_count_1"];1.25;1533042522.86192;140.44;502.33;666.392809767;10;149
42;paravance-70.rennes.grid5000.fr;thermos-root-devel-WordCountTopology-1-bc36ae5a-a659-4402-8590-960072e5e1e1;["container_1_Consume_and_count_1"];1.25;1533042533.07745;142.89;511.89;686.607092133;10;149
42;paravance-71.rennes.grid5000.fr;thermos-root-devel-WordCountTopology-0-1eb68ba3-15f9-42e0-ab4d-b9290397cc3c;["topology_master"];1.25;1533042533.07365;5.55;13.23;4.202432146;9;117
42;paravance-72.rennes.grid5000.fr;thermos-root-devel-WordCountTopology-2-fd723600-9495-4ff5-9124-9f3bd2c71b58;["container_2_Emit_random_words_2"];1.25;1533042533.07722;128.52;490.82;518.763808602;10;149
43;paravance-72.rennes.grid5000.fr;thermos-root-devel-WordCountTopology-2-fd723600-9495-4ff5-9124-9f3bd2c71b58;["container_2_Emit_random_words_2"];1.25;1533042543.29226;130.56;498.28;525.64319283;10;149
43;paravance-70.rennes.grid5000.fr;thermos-root-devel-WordCountTopology-1-bc36ae5a-a659-4402-8590-960072e5e1e1;["container_1_Consume_and_count_1"];1.25;1533042543.29388;145.4;521.44;705.572332034;10;149
43;paravance-71.rennes.grid5000.fr;thermos-root-devel-WordCountTopology-0-1eb68ba3-15f9-42e0-ab4d-b9290397cc3c;["topology_master"];1.25;1533042543.29145;5.61;13.31;4.202432146;9;117
44;paravance-71.rennes.grid5000.fr;thermos-root-devel-WordCountTopology-0-1eb68ba3-15f9-42e0-ab4d-b9290397cc3c;["topology_master"];1.25;1533042553.50646;5.7;13.43;4.202432146;9;117
44;paravance-72.rennes.grid5000.fr;thermos-root-devel-WordCountTopology-2-fd723600-9495-4ff5-9124-9f3bd2c71b58;["container_2_Emit_random_words_2"];1.25;1533042553.50916;132.85;506.8;534.416957604;10;149
44;paravance-70.rennes.grid5000.fr;thermos-root-devel-WordCountTopology-1-bc36ae5a-a659-4402-8590-960072e5e1e1;["container_1_Consume_and_count_1"];1.25;1533042553.51122;147.87;531.07;724.027719693;10;149
45;paravance-71.rennes.grid5000.fr;thermos-root-devel-WordCountTopology-0-1eb68ba3-15f9-42e0-ab4d-b9290397cc3c;["topology_master"];1.25;1533042563.7247;5.75;13.5;4.202432146;9;117
45;paravance-70.rennes.grid5000.fr;thermos-root-devel-WordCountTopology-1-bc36ae5a-a659-4402-8590-960072e5e1e1;["container_1_Consume_and_count_1"];1.25;1533042563.72964;150.24;540.81;741.575063035;10;149
45;paravance-72.rennes.grid5000.fr;thermos-root-devel-WordCountTopology-2-fd723600-9495-4ff5-9124-9f3bd2c71b58;["container_2_Emit_random_words_2"];1.25;1533042563.72809;134.69;513.8;541.20109773;10;149
46;paravance-71.rennes.grid5000.fr;thermos-root-devel-WordCountTopology-0-1eb68ba3-15f9-42e0-ab4d-b9290397cc3c;["topology_master"];1.25;1533042573.94115;5.82;13.58;4.202432146;9;117
46;paravance-72.rennes.grid5000.fr;thermos-root-devel-WordCountTopology-2-fd723600-9495-4ff5-9124-9f3bd2c71b58;["container_2_Emit_random_words_2"];1.25;1533042573.94406;136.81;521.65;548.368300676;10;149
46;paravance-70.rennes.grid5000.fr;thermos-root-devel-WordCountTopology-1-bc36ae5a-a659-4402-8590-960072e5e1e1;["container_1_Consume_and_count_1"];1.25;1533042573.94692;152.64;550.47;762.466234231;10;149
47;paravance-71.rennes.grid5000.fr;thermos-root-devel-WordCountTopology-0-1eb68ba3-15f9-42e0-ab4d-b9290397cc3c;["topology_master"];1.25;1533042584.15822;5.88;13.73;4.202432146;9;117
47;paravance-70.rennes.grid5000.fr;thermos-root-devel-WordCountTopology-1-bc36ae5a-a659-4402-8590-960072e5e1e1;["container_1_Consume_and_count_1"];1.25;1533042584.16136;155.17;560.07;780.663398411;10;149
47;paravance-72.rennes.grid5000.fr;thermos-root-devel-WordCountTopology-2-fd723600-9495-4ff5-9124-9f3bd2c71b58;["container_2_Emit_random_words_2"];1.25;1533042584.1609;138.89;529.22;555.16202292;10;149
48;paravance-71.rennes.grid5000.fr;thermos-root-devel-WordCountTopology-0-1eb68ba3-15f9-42e0-ab4d-b9290397cc3c;["topology_master"];1.25;1533042594.37379;5.97;13.85;4.202432146;9;117
48;paravance-70.rennes.grid5000.fr;thermos-root-devel-WordCountTopology-1-bc36ae5a-a659-4402-8590-960072e5e1e1;["container_1_Consume_and_count_1"];1.25;1533042594.37758;157.64;569.63;800.089696271;10;149
48;paravance-72.rennes.grid5000.fr;thermos-root-devel-WordCountTopology-2-fd723600-9495-4ff5-9124-9f3bd2c71b58;["container_2_Emit_random_words_2"];1.25;1533042594.3766;140.96;536.94;562.317007725;10;149
49;paravance-71.rennes.grid5000.fr;thermos-root-devel-WordCountTopology-0-1eb68ba3-15f9-42e0-ab4d-b9290397cc3c;["topology_master"];1.25;1533042604.59012;6.0;13.88;4.202432146;9;117
49;paravance-70.rennes.grid5000.fr;thermos-root-devel-WordCountTopology-1-bc36ae5a-a659-4402-8590-960072e5e1e1;["container_1_Consume_and_count_1"];1.25;1533042604.5945;160.08;579.19;819.198505825;10;149
49;paravance-72.rennes.grid5000.fr;thermos-root-devel-WordCountTopology-2-fd723600-9495-4ff5-9124-9f3bd2c71b58;["container_2_Emit_random_words_2"];1.25;1533042604.5935;143.05;544.93;570.632873804;10;149
50;paravance-71.rennes.grid5000.fr;thermos-root-devel-WordCountTopology-0-1eb68ba3-15f9-42e0-ab4d-b9290397cc3c;["topology_master"];1.25;1533042614.80594;6.09;14.01;4.202432146;9;117
50;paravance-72.rennes.grid5000.fr;thermos-root-devel-WordCountTopology-2-fd723600-9495-4ff5-9124-9f3bd2c71b58;["container_2_Emit_random_words_2"];1.25;1533042614.80924;145.22;553.07;578.917868372;10;149
50;paravance-70.rennes.grid5000.fr;thermos-root-devel-WordCountTopology-1-bc36ae5a-a659-4402-8590-960072e5e1e1;["container_1_Consume_and_count_1"];1.25;1533042614.81082;162.6;588.66;837.906905971;10;149
51;paravance-72.rennes.grid5000.fr;thermos-root-devel-WordCountTopology-2-fd723600-9495-4ff5-9124-9f3bd2c71b58;["container_2_Emit_random_words_2"];1.25;1533042625.02413;147.14;560.36;585.689121322;10;149
51;paravance-70.rennes.grid5000.fr;thermos-root-devel-WordCountTopology-1-bc36ae5a-a659-4402-8590-960072e5e1e1;["container_1_Consume_and_count_1"];1.25;1533042625.02619;164.91;598.44;857.191781664;10;149
51;paravance-71.rennes.grid5000.fr;thermos-root-devel-WordCountTopology-0-1eb68ba3-15f9-42e0-ab4d-b9290397cc3c;["topology_master"];1.25;1533042625.02334;6.15;14.09;4.202432146;9;117
52;paravance-70.rennes.grid5000.fr;thermos-root-devel-WordCountTopology-1-bc36ae5a-a659-4402-8590-960072e5e1e1;["container_1_Consume_and_count_1"];1.25;1533042635.24076;167.3;608.29;876.639947658;10;149
52;paravance-71.rennes.grid5000.fr;thermos-root-devel-WordCountTopology-0-1eb68ba3-15f9-42e0-ab4d-b9290397cc3c;["topology_master"];1.25;1533042635.23752;6.21;14.17;4.202432146;9;117
52;paravance-72.rennes.grid5000.fr;thermos-root-devel-WordCountTopology-2-fd723600-9495-4ff5-9124-9f3bd2c71b58;["container_2_Emit_random_words_2"];1.25;1533042635.23985;149.32;568.17;593.308844041;10;149
53;paravance-71.rennes.grid5000.fr;thermos-root-devel-WordCountTopology-0-1eb68ba3-15f9-42e0-ab4d-b9290397cc3c;["topology_master"];1.25;1533042645.453;6.27;14.3;4.202432146;9;117
53;paravance-70.rennes.grid5000.fr;thermos-root-devel-WordCountTopology-1-bc36ae5a-a659-4402-8590-960072e5e1e1;["container_1_Consume_and_count_1"];1.25;1533042645.45836;169.51;618.29;896.615430621;10;149
53;paravance-72.rennes.grid5000.fr;thermos-root-devel-WordCountTopology-2-fd723600-9495-4ff5-9124-9f3bd2c71b58;["container_2_Emit_random_words_2"];1.25;1533042645.45655;151.35;575.89;601.132470081;10;149
54;paravance-71.rennes.grid5000.fr;thermos-root-devel-WordCountTopology-0-1eb68ba3-15f9-42e0-ab4d-b9290397cc3c;["topology_master"];1.25;1533042655.66992;6.36;14.42;4.202432146;9;117
54;paravance-70.rennes.grid5000.fr;thermos-root-devel-WordCountTopology-1-bc36ae5a-a659-4402-8590-960072e5e1e1;["container_1_Consume_and_count_1"];1.25;1533042655.67479;172.02;627.94;916.416395647;10;149
54;paravance-72.rennes.grid5000.fr;thermos-root-devel-WordCountTopology-2-fd723600-9495-4ff5-9124-9f3bd2c71b58;["container_2_Emit_random_words_2"];1.25;1533042655.67337;153.51;583.82;608.340708797;10;149
55;paravance-71.rennes.grid5000.fr;thermos-root-devel-WordCountTopology-0-1eb68ba3-15f9-42e0-ab4d-b9290397cc3c;["topology_master"];1.25;1533042665.88693;6.39;14.44;4.202432146;9;117
55;paravance-70.rennes.grid5000.fr;thermos-root-devel-WordCountTopology-1-bc36ae5a-a659-4402-8590-960072e5e1e1;["container_1_Consume_and_count_1"];1.25;1533042665.89138;174.52;637.56;934.173298814;10;149
55;paravance-72.rennes.grid5000.fr;thermos-root-devel-WordCountTopology-2-fd723600-9495-4ff5-9124-9f3bd2c71b58;["container_2_Emit_random_words_2"];1.25;1533042665.89048;155.76;592.22;616.742779569;10;149
56;paravance-72.rennes.grid5000.fr;thermos-root-devel-WordCountTopology-2-fd723600-9495-4ff5-9124-9f3bd2c71b58;["container_2_Emit_random_words_2"];1.25;1533042676.10487;157.98;600.56;624.58441609;10;149
56;paravance-71.rennes.grid5000.fr;thermos-root-devel-WordCountTopology-0-1eb68ba3-15f9-42e0-ab4d-b9290397cc3c;["topology_master"];1.25;1533042676.10334;6.48;14.57;4.202432146;9;117
56;paravance-70.rennes.grid5000.fr;thermos-root-devel-WordCountTopology-1-bc36ae5a-a659-4402-8590-960072e5e1e1;["container_1_Consume_and_count_1"];1.25;1533042676.10698;177.01;647.21;952.076731416;10;149
57;paravance-72.rennes.grid5000.fr;thermos-root-devel-WordCountTopology-2-fd723600-9495-4ff5-9124-9f3bd2c71b58;["container_2_Emit_random_words_2"];1.25;1533042686.32047;159.97;607.65;632.314167268;10;149
57;paravance-70.rennes.grid5000.fr;thermos-root-devel-WordCountTopology-1-bc36ae5a-a659-4402-8590-960072e5e1e1;["container_1_Consume_and_count_1"];1.25;1533042686.32267;179.49;656.75;970.127296237;10;149
57;paravance-71.rennes.grid5000.fr;thermos-root-devel-WordCountTopology-0-1eb68ba3-15f9-42e0-ab4d-b9290397cc3c;["topology_master"];1.25;1533042686.31823;6.53;14.64;4.202432146;9;117
58;paravance-70.rennes.grid5000.fr;thermos-root-devel-WordCountTopology-1-bc36ae5a-a659-4402-8590-960072e5e1e1;["container_1_Consume_and_count_1"];1.25;1533042696.43787;181.91;666.17;988.63165998;10;149
58;paravance-72.rennes.grid5000.fr;thermos-root-devel-WordCountTopology-2-fd723600-9495-4ff5-9124-9f3bd2c71b58;["container_2_Emit_random_words_2"];1.25;1533042696.53515;162.16;615.61;640.129803531;10;149
58;paravance-71.rennes.grid5000.fr;thermos-root-devel-WordCountTopology-0-1eb68ba3-15f9-42e0-ab4d-b9290397cc3c;["topology_master"];1.25;1533042696.53356;6.6;14.75;4.202432146;9;117
59;paravance-72.rennes.grid5000.fr;thermos-root-devel-WordCountTopology-2-fd723600-9495-4ff5-9124-9f3bd2c71b58;["container_2_Emit_random_words_2"];1.25;1533042706.75113;164.26;623.63;647.636390614;10;149
59;paravance-71.rennes.grid5000.fr;thermos-root-devel-WordCountTopology-0-1eb68ba3-15f9-42e0-ab4d-b9290397cc3c;["topology_master"];1.25;1533042706.74892;6.66;14.86;4.202432146;9;117
59;paravance-70.rennes.grid5000.fr;thermos-root-devel-WordCountTopology-1-bc36ae5a-a659-4402-8590-960072e5e1e1;["container_1_Consume_and_count_1"];1.25;1533042706.75395;184.31;675.92;1008.177751483;10;149
60;paravance-71.rennes.grid5000.fr;thermos-root-devel-WordCountTopology-0-1eb68ba3-15f9-42e0-ab4d-b9290397cc3c;["topology_master"];1.25;1533042716.96526;6.74;14.98;4.202432146;9;117
60;paravance-70.rennes.grid5000.fr;thermos-root-devel-WordCountTopology-1-bc36ae5a-a659-4402-8590-960072e5e1e1;["container_1_Consume_and_count_1"];1.25;1533042716.96971;186.77;685.59;1026.181067422;10;149
60;paravance-72.rennes.grid5000.fr;thermos-root-devel-WordCountTopology-2-fd723600-9495-4ff5-9124-9f3bd2c71b58;["container_2_Emit_random_words_2"];1.25;1533042716.96758;166.28;631.32;655.132973455;10;149
