{
  "status": "success",
  "executiontime": 0.00019502639770507812,
  "message": "",
  "result": {
    "bolts": {
      "Consume_and_count": [
        "container_1_Consume_and_count_1"
      ]
    },
    "instances": {
      "container_2_Emit_random_words_2": {
        "stmgrId": "stmgr-2",
        "logfile": "http://paravance-72.rennes.grid5000.fr:31305/file/log-files/container_2_Emit_random_words_2.log.0",
        "id": "container_2_Emit_random_words_2",
        "name": "Emit_random_words"
      },
      "container_1_Consume_and_count_1": {
        "stmgrId": "stmgr-1",
        "logfile": "http://paravance-70.rennes.grid5000.fr:31993/file/log-files/container_1_Consume_and_count_1.log.0",
        "id": "container_1_Consume_and_count_1",
        "name": "Consume_and_count"
      }
    },
    "instance_groups": {
      "container_1_Consume_and": [
        "container_1_Consume_and_count_1"
      ],
      "container_2_Emit_random": [
        "container_2_Emit_random_words_2"
      ]
    },
    "spouts": {
      "Emit_random_words": [
        "container_2_Emit_random_words_2"
      ]
    },
    "config": {
      "topology.message.timeout.secs": "30",
      "topology.team.environment": "devel",
      "topology.serializer.classname": "org.apache.heron.streamlet.impl.KryoSerializer",
      "topology.team.name": "root",
      "topology.debug": "false",
      "topology.max.spout.pending": "100",
      "topology.container.padding.percentage": "0",
      "topology.enable.message.timeouts": "true",
      "topology.component.parallelism": "1",
      "topology.name": "WordCountTopology",
      "topology.stmgrs": "2",
      "topology.reliability.mode": "ATMOST_ONCE"
    },
    "stmgrs": {
      "stmgr-1": {
        "cwd": "/var/lib/mesos/slaves/837dafe4-bf03-4093-a19a-e97df574b563-S1/frameworks/75deb08a-eb1b-415c-8b2c-e922be5f7d98-0000/executors/thermos-root-devel-WordCountTopology-1-bc36ae5a-a659-4402-8590-960072e5e1e1/runs/469e2397-6e21-4479-8326-549d18cd4d95/sandbox",
        "host": "paravance-70.rennes.grid5000.fr",
        "joburl": "http://paravance-70.rennes.grid5000.fr:31993/browse/",
        "shell_port": 31993,
        "logfiles": "http://paravance-70.rennes.grid5000.fr:31993/browse/log-files",
        "pid": 2146,
        "id": "stmgr-1",
        "instance_ids": [
          "container_1_Consume_and_count_1"
        ],
        "port": 31589
      },
      "stmgr-2": {
        "cwd": "/var/lib/mesos/slaves/837dafe4-bf03-4093-a19a-e97df574b563-S0/frameworks/75deb08a-eb1b-415c-8b2c-e922be5f7d98-0000/executors/thermos-root-devel-WordCountTopology-2-fd723600-9495-4ff5-9124-9f3bd2c71b58/runs/9c401c91-025e-4abc-bfef-3e03ec591620/sandbox",
        "host": "paravance-72.rennes.grid5000.fr",
        "joburl": "http://paravance-72.rennes.grid5000.fr:31305/browse/",
        "shell_port": 31305,
        "logfiles": "http://paravance-72.rennes.grid5000.fr:31305/browse/log-files",
        "pid": 2178,
        "id": "stmgr-2",
        "instance_ids": [
          "container_2_Emit_random_words_2"
        ],
        "port": 31507
      }
    }
  },
  "tracker_version": "0.17.8-61-gd7c8c62"
}