{
  "status": "success",
  "executiontime": 0.00017786026000976562,
  "message": "",
  "result": {
    "bolts": {
      "Consume_and_count": [
        "container_1_Consume_and_count_1"
      ]
    },
    "instances": {
      "container_2_Emit_random_words_2": {
        "stmgrId": "stmgr-2",
        "logfile": "http://paravance-34.rennes.grid5000.fr:31478/file/log-files/container_2_Emit_random_words_2.log.0",
        "id": "container_2_Emit_random_words_2",
        "name": "Emit_random_words"
      },
      "container_1_Consume_and_count_1": {
        "stmgrId": "stmgr-1",
        "logfile": "http://paravance-35.rennes.grid5000.fr:31462/file/log-files/container_1_Consume_and_count_1.log.0",
        "id": "container_1_Consume_and_count_1",
        "name": "Consume_and_count"
      }
    },
    "instance_groups": {
      "container_1_Consume_and": [
        "container_1_Consume_and_count_1"
      ],
      "container_2_Emit_random": [
        "container_2_Emit_random_words_2"
      ]
    },
    "spouts": {
      "Emit_random_words": [
        "container_2_Emit_random_words_2"
      ]
    },
    "config": {
      "topology.message.timeout.secs": "30",
      "topology.team.environment": "devel",
      "topology.serializer.classname": "org.apache.heron.streamlet.impl.KryoSerializer",
      "topology.team.name": "root",
      "topology.debug": "false",
      "topology.max.spout.pending": "100",
      "topology.container.padding.percentage": "300",
      "topology.enable.message.timeouts": "true",
      "topology.component.parallelism": "1",
      "topology.name": "WordCountTopology",
      "topology.stmgrs": "2",
      "topology.reliability.mode": "ATMOST_ONCE"
    },
    "stmgrs": {
      "stmgr-1": {
        "cwd": "/var/lib/mesos/slaves/df4ae789-9532-42e7-abe2-7996552c2ad4-S0/frameworks/75deb08a-eb1b-415c-8b2c-e922be5f7d98-0000/executors/thermos-root-devel-WordCountTopology-1-de72047f-dda8-4909-882b-3a9d9cf20718/runs/cf10c01a-55c5-4bf9-a3a5-e3dd1392c4d0/sandbox",
        "host": "paravance-35.rennes.grid5000.fr",
        "joburl": "http://paravance-35.rennes.grid5000.fr:31462/browse/",
        "shell_port": 31462,
        "logfiles": "http://paravance-35.rennes.grid5000.fr:31462/browse/log-files",
        "pid": 2839,
        "id": "stmgr-1",
        "instance_ids": [
          "container_1_Consume_and_count_1"
        ],
        "port": 31180
      },
      "stmgr-2": {
        "cwd": "/var/lib/mesos/slaves/df4ae789-9532-42e7-abe2-7996552c2ad4-S2/frameworks/75deb08a-eb1b-415c-8b2c-e922be5f7d98-0000/executors/thermos-root-devel-WordCountTopology-2-312f9516-9f9d-4c7a-a92a-ad5d1bc842e6/runs/d976be64-b707-4c87-8804-07903b012a29/sandbox",
        "host": "paravance-34.rennes.grid5000.fr",
        "joburl": "http://paravance-34.rennes.grid5000.fr:31478/browse/",
        "shell_port": 31478,
        "logfiles": "http://paravance-34.rennes.grid5000.fr:31478/browse/log-files",
        "pid": 2847,
        "id": "stmgr-2",
        "instance_ids": [
          "container_2_Emit_random_words_2"
        ],
        "port": 31624
      }
    }
  },
  "tracker_version": "0.17.8-61-gd7c8c62"
}