mesure_id;slave_id;executor_id;heron_instances;cpus_limit;timestamp_A;cpus_system_time_secs_A;cpus_user_time_secs_A;cpus_throttled_time_secs_A;processes;threads
0;paravance-56.rennes.grid5000.fr;thermos-root-devel-WordCountTopology-2-f1e6bccc-b35a-4cc1-8869-64357a1cfea3;["container_2_Emit_random_words_2"];4.25;1533225154.11061;27.61;116.09;1.806070457;10;149
0;paravance-55.rennes.grid5000.fr;thermos-root-devel-WordCountTopology-0-763990bd-f08d-4140-a785-c0513c0ca895;["topology_master"];4.25;1533225154.39301;2.52;8.3;0.0;9;117
0;paravance-54.rennes.grid5000.fr;thermos-root-devel-WordCountTopology-1-cc382e60-0b77-40f4-9f4b-e83961cb5bdd;["container_1_Consume_and_count_1"];4.25;1533225154.11049;34.63;236.9;0.510046053;10;149
1;paravance-55.rennes.grid5000.fr;thermos-root-devel-WordCountTopology-0-763990bd-f08d-4140-a785-c0513c0ca895;["topology_master"];4.25;1533225164.51185;2.59;8.46;0.0;9;117
1;paravance-54.rennes.grid5000.fr;thermos-root-devel-WordCountTopology-1-cc382e60-0b77-40f4-9f4b-e83961cb5bdd;["container_1_Consume_and_count_1"];4.25;1533225164.33233;37.49;257.03;0.510046053;10;149
1;paravance-56.rennes.grid5000.fr;thermos-root-devel-WordCountTopology-2-f1e6bccc-b35a-4cc1-8869-64357a1cfea3;["container_2_Emit_random_words_2"];4.25;1533225164.33304;29.79;125.05;1.806070457;10;149
2;paravance-56.rennes.grid5000.fr;thermos-root-devel-WordCountTopology-2-f1e6bccc-b35a-4cc1-8869-64357a1cfea3;["container_2_Emit_random_words_2"];4.25;1533225174.54751;31.77;133.24;1.806070457;10;149
2;paravance-55.rennes.grid5000.fr;thermos-root-devel-WordCountTopology-0-763990bd-f08d-4140-a785-c0513c0ca895;["topology_master"];4.25;1533225174.8212;2.68;8.59;0.0;9;117
2;paravance-54.rennes.grid5000.fr;thermos-root-devel-WordCountTopology-1-cc382e60-0b77-40f4-9f4b-e83961cb5bdd;["container_1_Consume_and_count_1"];4.25;1533225174.54968;40.17;277.33;0.510046053;10;149
3;paravance-56.rennes.grid5000.fr;thermos-root-devel-WordCountTopology-2-f1e6bccc-b35a-4cc1-8869-64357a1cfea3;["container_2_Emit_random_words_2"];4.25;1533225184.76323;33.82;141.28;1.806070457;10;149
3;paravance-54.rennes.grid5000.fr;thermos-root-devel-WordCountTopology-1-cc382e60-0b77-40f4-9f4b-e83961cb5bdd;["container_1_Consume_and_count_1"];4.25;1533225184.76396;42.87;297.31;0.510068252;10;149
3;paravance-55.rennes.grid5000.fr;thermos-root-devel-WordCountTopology-0-763990bd-f08d-4140-a785-c0513c0ca895;["topology_master"];4.25;1533225185.03269;2.71;8.62;0.0;9;117
4;paravance-54.rennes.grid5000.fr;thermos-root-devel-WordCountTopology-1-cc382e60-0b77-40f4-9f4b-e83961cb5bdd;["container_1_Consume_and_count_1"];4.25;1533225194.98042;45.58;317.68;0.575208391;10;149
4;paravance-56.rennes.grid5000.fr;thermos-root-devel-WordCountTopology-2-f1e6bccc-b35a-4cc1-8869-64357a1cfea3;["container_2_Emit_random_words_2"];4.25;1533225194.97956;35.86;149.46;1.806070457;10;149
4;paravance-55.rennes.grid5000.fr;thermos-root-devel-WordCountTopology-0-763990bd-f08d-4140-a785-c0513c0ca895;["topology_master"];4.25;1533225195.24443;2.8;8.75;0.0;9;117
5;paravance-56.rennes.grid5000.fr;thermos-root-devel-WordCountTopology-2-f1e6bccc-b35a-4cc1-8869-64357a1cfea3;["container_2_Emit_random_words_2"];4.25;1533225205.1956;37.85;157.48;1.806070457;10;149
5;paravance-54.rennes.grid5000.fr;thermos-root-devel-WordCountTopology-1-cc382e60-0b77-40f4-9f4b-e83961cb5bdd;["container_1_Consume_and_count_1"];4.25;1533225205.19584;48.18;338.3;0.575208391;10;149
5;paravance-55.rennes.grid5000.fr;thermos-root-devel-WordCountTopology-0-763990bd-f08d-4140-a785-c0513c0ca895;["topology_master"];4.25;1533225205.4543;2.85;8.82;0.0;9;117
6;paravance-54.rennes.grid5000.fr;thermos-root-devel-WordCountTopology-1-cc382e60-0b77-40f4-9f4b-e83961cb5bdd;["container_1_Consume_and_count_1"];4.25;1533225215.40954;50.94;358.31;0.646243719;10;149
6;paravance-56.rennes.grid5000.fr;thermos-root-devel-WordCountTopology-2-f1e6bccc-b35a-4cc1-8869-64357a1cfea3;["container_2_Emit_random_words_2"];4.25;1533225215.40959;39.93;165.68;1.806070457;10;149
6;paravance-55.rennes.grid5000.fr;thermos-root-devel-WordCountTopology-0-763990bd-f08d-4140-a785-c0513c0ca895;["topology_master"];4.25;1533225215.66221;2.97;9.0;0.0;9;117
7;paravance-56.rennes.grid5000.fr;thermos-root-devel-WordCountTopology-2-f1e6bccc-b35a-4cc1-8869-64357a1cfea3;["container_2_Emit_random_words_2"];4.25;1533225225.62412;42.0;173.62;1.806070457;10;149
7;paravance-55.rennes.grid5000.fr;thermos-root-devel-WordCountTopology-0-763990bd-f08d-4140-a785-c0513c0ca895;["topology_master"];4.25;1533225225.87286;3.01;9.11;0.0;9;117
7;paravance-54.rennes.grid5000.fr;thermos-root-devel-WordCountTopology-1-cc382e60-0b77-40f4-9f4b-e83961cb5bdd;["container_1_Consume_and_count_1"];4.25;1533225225.6261;53.6;378.3;0.662314542;10;149
8;paravance-55.rennes.grid5000.fr;thermos-root-devel-WordCountTopology-0-763990bd-f08d-4140-a785-c0513c0ca895;["topology_master"];4.25;1533225236.08431;3.1;9.25;0.0;9;117
8;paravance-56.rennes.grid5000.fr;thermos-root-devel-WordCountTopology-2-f1e6bccc-b35a-4cc1-8869-64357a1cfea3;["container_2_Emit_random_words_2"];4.25;1533225235.8406;44.01;181.38;1.806070457;10;149
8;paravance-54.rennes.grid5000.fr;thermos-root-devel-WordCountTopology-1-cc382e60-0b77-40f4-9f4b-e83961cb5bdd;["container_1_Consume_and_count_1"];4.25;1533225235.84232;56.23;398.39;0.662334199;10;149
9;paravance-55.rennes.grid5000.fr;thermos-root-devel-WordCountTopology-0-763990bd-f08d-4140-a785-c0513c0ca895;["topology_master"];4.25;1533225246.29401;3.16;9.32;0.0;9;117
9;paravance-56.rennes.grid5000.fr;thermos-root-devel-WordCountTopology-2-f1e6bccc-b35a-4cc1-8869-64357a1cfea3;["container_2_Emit_random_words_2"];4.25;1533225246.05508;46.14;189.79;1.806070457;10;149
9;paravance-54.rennes.grid5000.fr;thermos-root-devel-WordCountTopology-1-cc382e60-0b77-40f4-9f4b-e83961cb5bdd;["container_1_Consume_and_count_1"];4.25;1533225246.05632;58.91;418.49;0.662334199;10;149
10;paravance-54.rennes.grid5000.fr;thermos-root-devel-WordCountTopology-1-cc382e60-0b77-40f4-9f4b-e83961cb5bdd;["container_1_Consume_and_count_1"];4.25;1533225256.27268;61.65;438.61;0.662343829;10;149
10;paravance-56.rennes.grid5000.fr;thermos-root-devel-WordCountTopology-2-f1e6bccc-b35a-4cc1-8869-64357a1cfea3;["container_2_Emit_random_words_2"];4.25;1533225256.27111;48.22;197.93;1.806070457;10;149
10;paravance-55.rennes.grid5000.fr;thermos-root-devel-WordCountTopology-0-763990bd-f08d-4140-a785-c0513c0ca895;["topology_master"];4.25;1533225256.50503;3.22;9.39;0.0;9;117
11;paravance-55.rennes.grid5000.fr;thermos-root-devel-WordCountTopology-0-763990bd-f08d-4140-a785-c0513c0ca895;["topology_master"];4.25;1533225266.71489;3.27;9.47;0.0;9;117
11;paravance-54.rennes.grid5000.fr;thermos-root-devel-WordCountTopology-1-cc382e60-0b77-40f4-9f4b-e83961cb5bdd;["container_1_Consume_and_count_1"];4.25;1533225266.48828;64.38;458.73;0.662343829;10;149
11;paravance-56.rennes.grid5000.fr;thermos-root-devel-WordCountTopology-2-f1e6bccc-b35a-4cc1-8869-64357a1cfea3;["container_2_Emit_random_words_2"];4.25;1533225266.48703;50.33;206.2;1.806070457;10;149
12;paravance-54.rennes.grid5000.fr;thermos-root-devel-WordCountTopology-1-cc382e60-0b77-40f4-9f4b-e83961cb5bdd;["container_1_Consume_and_count_1"];4.25;1533225276.70289;67.16;478.56;0.662343829;10;149
12;paravance-55.rennes.grid5000.fr;thermos-root-devel-WordCountTopology-0-763990bd-f08d-4140-a785-c0513c0ca895;["topology_master"];4.25;1533225276.9254;3.4;9.73;0.0;9;117
12;paravance-56.rennes.grid5000.fr;thermos-root-devel-WordCountTopology-2-f1e6bccc-b35a-4cc1-8869-64357a1cfea3;["container_2_Emit_random_words_2"];4.25;1533225276.70324;52.35;214.0;1.806070457;10;149
13;paravance-56.rennes.grid5000.fr;thermos-root-devel-WordCountTopology-2-f1e6bccc-b35a-4cc1-8869-64357a1cfea3;["container_2_Emit_random_words_2"];4.25;1533225286.91816;54.28;221.81;1.806070457;10;149
13;paravance-54.rennes.grid5000.fr;thermos-root-devel-WordCountTopology-1-cc382e60-0b77-40f4-9f4b-e83961cb5bdd;["container_1_Consume_and_count_1"];4.25;1533225286.91873;69.78;498.1;0.662343829;10;149
13;paravance-55.rennes.grid5000.fr;thermos-root-devel-WordCountTopology-0-763990bd-f08d-4140-a785-c0513c0ca895;["topology_master"];4.25;1533225287.13575;3.42;9.76;0.0;9;117
14;paravance-56.rennes.grid5000.fr;thermos-root-devel-WordCountTopology-2-f1e6bccc-b35a-4cc1-8869-64357a1cfea3;["container_2_Emit_random_words_2"];4.25;1533225297.13167;56.29;229.61;1.806070457;10;149
14;paravance-54.rennes.grid5000.fr;thermos-root-devel-WordCountTopology-1-cc382e60-0b77-40f4-9f4b-e83961cb5bdd;["container_1_Consume_and_count_1"];4.25;1533225297.13384;72.33;517.48;0.662362916;10;149
14;paravance-55.rennes.grid5000.fr;thermos-root-devel-WordCountTopology-0-763990bd-f08d-4140-a785-c0513c0ca895;["topology_master"];4.25;1533225297.34669;3.51;9.89;0.0;9;117
15;paravance-54.rennes.grid5000.fr;thermos-root-devel-WordCountTopology-1-cc382e60-0b77-40f4-9f4b-e83961cb5bdd;["container_1_Consume_and_count_1"];4.25;1533225307.34884;74.94;537.42;0.662442893;10;149
15;paravance-56.rennes.grid5000.fr;thermos-root-devel-WordCountTopology-2-f1e6bccc-b35a-4cc1-8869-64357a1cfea3;["container_2_Emit_random_words_2"];4.25;1533225307.34849;58.26;237.55;1.806070457;10;149
15;paravance-55.rennes.grid5000.fr;thermos-root-devel-WordCountTopology-0-763990bd-f08d-4140-a785-c0513c0ca895;["topology_master"];4.25;1533225307.55594;3.57;9.96;0.0;9;117
16;paravance-54.rennes.grid5000.fr;thermos-root-devel-WordCountTopology-1-cc382e60-0b77-40f4-9f4b-e83961cb5bdd;["container_1_Consume_and_count_1"];4.25;1533225317.56273;77.55;557.25;0.662442893;10;149
16;paravance-56.rennes.grid5000.fr;thermos-root-devel-WordCountTopology-2-f1e6bccc-b35a-4cc1-8869-64357a1cfea3;["container_2_Emit_random_words_2"];4.25;1533225317.56699;60.12;245.32;1.806070457;10;149
16;paravance-55.rennes.grid5000.fr;thermos-root-devel-WordCountTopology-0-763990bd-f08d-4140-a785-c0513c0ca895;["topology_master"];4.25;1533225317.76964;3.63;10.05;0.0;9;117
17;paravance-54.rennes.grid5000.fr;thermos-root-devel-WordCountTopology-1-cc382e60-0b77-40f4-9f4b-e83961cb5bdd;["container_1_Consume_and_count_1"];4.25;1533225327.78383;80.14;576.99;0.662442893;10;149
17;paravance-55.rennes.grid5000.fr;thermos-root-devel-WordCountTopology-0-763990bd-f08d-4140-a785-c0513c0ca895;["topology_master"];4.25;1533225327.97907;3.69;10.12;0.0;9;117
17;paravance-56.rennes.grid5000.fr;thermos-root-devel-WordCountTopology-2-f1e6bccc-b35a-4cc1-8869-64357a1cfea3;["container_2_Emit_random_words_2"];4.25;1533225327.78238;62.09;253.4;1.806070457;10;149
18;paravance-55.rennes.grid5000.fr;thermos-root-devel-WordCountTopology-0-763990bd-f08d-4140-a785-c0513c0ca895;["topology_master"];4.25;1533225338.18871;3.81;10.34;0.0;9;117
18;paravance-56.rennes.grid5000.fr;thermos-root-devel-WordCountTopology-2-f1e6bccc-b35a-4cc1-8869-64357a1cfea3;["container_2_Emit_random_words_2"];4.25;1533225337.99851;64.33;262.13;1.806070457;10;149
18;paravance-54.rennes.grid5000.fr;thermos-root-devel-WordCountTopology-1-cc382e60-0b77-40f4-9f4b-e83961cb5bdd;["container_1_Consume_and_count_1"];4.25;1533225337.99686;83.05;597.37;0.662442893;10;149
19;paravance-54.rennes.grid5000.fr;thermos-root-devel-WordCountTopology-1-cc382e60-0b77-40f4-9f4b-e83961cb5bdd;["container_1_Consume_and_count_1"];4.25;1533225348.21325;85.67;617.26;0.662442893;10;149
19;paravance-56.rennes.grid5000.fr;thermos-root-devel-WordCountTopology-2-f1e6bccc-b35a-4cc1-8869-64357a1cfea3;["container_2_Emit_random_words_2"];4.25;1533225348.21365;66.33;270.45;1.806070457;10;149
19;paravance-55.rennes.grid5000.fr;thermos-root-devel-WordCountTopology-0-763990bd-f08d-4140-a785-c0513c0ca895;["topology_master"];4.25;1533225348.40155;3.83;10.37;0.0;9;117
20;paravance-54.rennes.grid5000.fr;thermos-root-devel-WordCountTopology-1-cc382e60-0b77-40f4-9f4b-e83961cb5bdd;["container_1_Consume_and_count_1"];4.25;1533225358.4292;88.3;637.21;0.662442893;10;149
20;paravance-55.rennes.grid5000.fr;thermos-root-devel-WordCountTopology-0-763990bd-f08d-4140-a785-c0513c0ca895;["topology_master"];4.25;1533225358.61058;3.92;10.49;0.0;9;117
20;paravance-56.rennes.grid5000.fr;thermos-root-devel-WordCountTopology-2-f1e6bccc-b35a-4cc1-8869-64357a1cfea3;["container_2_Emit_random_words_2"];4.25;1533225358.43022;68.33;278.59;1.806070457;10;149
21;paravance-56.rennes.grid5000.fr;thermos-root-devel-WordCountTopology-2-f1e6bccc-b35a-4cc1-8869-64357a1cfea3;["container_2_Emit_random_words_2"];4.25;1533225368.64446;70.33;286.49;1.806070457;10;149
21;paravance-54.rennes.grid5000.fr;thermos-root-devel-WordCountTopology-1-cc382e60-0b77-40f4-9f4b-e83961cb5bdd;["container_1_Consume_and_count_1"];4.25;1533225368.64578;90.87;657.58;0.662442893;10;149
21;paravance-55.rennes.grid5000.fr;thermos-root-devel-WordCountTopology-0-763990bd-f08d-4140-a785-c0513c0ca895;["topology_master"];4.25;1533225368.82193;3.98;10.56;0.0;9;117
22;paravance-56.rennes.grid5000.fr;thermos-root-devel-WordCountTopology-2-f1e6bccc-b35a-4cc1-8869-64357a1cfea3;["container_2_Emit_random_words_2"];4.25;1533225378.86141;72.4;294.72;1.806070457;10;149
22;paravance-55.rennes.grid5000.fr;thermos-root-devel-WordCountTopology-0-763990bd-f08d-4140-a785-c0513c0ca895;["topology_master"];4.25;1533225379.03319;4.03;10.64;0.0;9;117
22;paravance-54.rennes.grid5000.fr;thermos-root-devel-WordCountTopology-1-cc382e60-0b77-40f4-9f4b-e83961cb5bdd;["container_1_Consume_and_count_1"];4.25;1533225378.86241;93.48;677.32;0.662442893;10;149
23;paravance-56.rennes.grid5000.fr;thermos-root-devel-WordCountTopology-2-f1e6bccc-b35a-4cc1-8869-64357a1cfea3;["container_2_Emit_random_words_2"];4.25;1533225389.0776;74.56;303.3;1.806070457;10;149
23;paravance-54.rennes.grid5000.fr;thermos-root-devel-WordCountTopology-1-cc382e60-0b77-40f4-9f4b-e83961cb5bdd;["container_1_Consume_and_count_1"];4.25;1533225389.07914;96.19;697.45;0.662442893;10;149
23;paravance-55.rennes.grid5000.fr;thermos-root-devel-WordCountTopology-0-763990bd-f08d-4140-a785-c0513c0ca895;["topology_master"];4.25;1533225389.24399;4.09;10.71;0.0;9;117
24;paravance-54.rennes.grid5000.fr;thermos-root-devel-WordCountTopology-1-cc382e60-0b77-40f4-9f4b-e83961cb5bdd;["container_1_Consume_and_count_1"];4.25;1533225399.29369;98.9;717.94;0.662442893;10;149
24;paravance-56.rennes.grid5000.fr;thermos-root-devel-WordCountTopology-2-f1e6bccc-b35a-4cc1-8869-64357a1cfea3;["container_2_Emit_random_words_2"];4.25;1533225399.29288;76.68;311.85;1.806070457;10;149
24;paravance-55.rennes.grid5000.fr;thermos-root-devel-WordCountTopology-0-763990bd-f08d-4140-a785-c0513c0ca895;["topology_master"];4.25;1533225399.45435;4.2;10.89;0.0;9;117
25;paravance-54.rennes.grid5000.fr;thermos-root-devel-WordCountTopology-1-cc382e60-0b77-40f4-9f4b-e83961cb5bdd;["container_1_Consume_and_count_1"];4.25;1533225409.50901;101.54;737.62;0.662442893;10;149
25;paravance-55.rennes.grid5000.fr;thermos-root-devel-WordCountTopology-0-763990bd-f08d-4140-a785-c0513c0ca895;["topology_master"];4.25;1533225409.66498;4.23;10.92;0.0;9;117
25;paravance-56.rennes.grid5000.fr;thermos-root-devel-WordCountTopology-2-f1e6bccc-b35a-4cc1-8869-64357a1cfea3;["container_2_Emit_random_words_2"];4.25;1533225409.50754;78.72;319.86;1.806070457;10;149
26;paravance-56.rennes.grid5000.fr;thermos-root-devel-WordCountTopology-2-f1e6bccc-b35a-4cc1-8869-64357a1cfea3;["container_2_Emit_random_words_2"];4.25;1533225419.72329;80.59;327.1;1.806070457;10;149
26;paravance-54.rennes.grid5000.fr;thermos-root-devel-WordCountTopology-1-cc382e60-0b77-40f4-9f4b-e83961cb5bdd;["container_1_Consume_and_count_1"];4.25;1533225419.7243;103.98;757.04;0.662442893;10;149
26;paravance-55.rennes.grid5000.fr;thermos-root-devel-WordCountTopology-0-763990bd-f08d-4140-a785-c0513c0ca895;["topology_master"];4.25;1533225419.87472;4.31;11.04;0.0;9;117
27;paravance-56.rennes.grid5000.fr;thermos-root-devel-WordCountTopology-2-f1e6bccc-b35a-4cc1-8869-64357a1cfea3;["container_2_Emit_random_words_2"];4.25;1533225429.94132;82.66;335.17;1.806070457;10;149
27;paravance-55.rennes.grid5000.fr;thermos-root-devel-WordCountTopology-0-763990bd-f08d-4140-a785-c0513c0ca895;["topology_master"];4.25;1533225430.08624;4.37;11.11;0.0;9;117
27;paravance-54.rennes.grid5000.fr;thermos-root-devel-WordCountTopology-1-cc382e60-0b77-40f4-9f4b-e83961cb5bdd;["container_1_Consume_and_count_1"];4.25;1533225429.94244;106.59;776.77;0.662442893;10;149
28;paravance-54.rennes.grid5000.fr;thermos-root-devel-WordCountTopology-1-cc382e60-0b77-40f4-9f4b-e83961cb5bdd;["container_1_Consume_and_count_1"];4.25;1533225440.15674;109.09;796.23;0.662442893;10;149
28;paravance-56.rennes.grid5000.fr;thermos-root-devel-WordCountTopology-2-f1e6bccc-b35a-4cc1-8869-64357a1cfea3;["container_2_Emit_random_words_2"];4.25;1533225440.15666;84.59;342.82;1.806070457;10;149
28;paravance-55.rennes.grid5000.fr;thermos-root-devel-WordCountTopology-0-763990bd-f08d-4140-a785-c0513c0ca895;["topology_master"];4.25;1533225440.29655;4.42;11.18;0.0;9;117
29;paravance-54.rennes.grid5000.fr;thermos-root-devel-WordCountTopology-1-cc382e60-0b77-40f4-9f4b-e83961cb5bdd;["container_1_Consume_and_count_1"];4.25;1533225450.37354;111.84;816.39;0.662442893;10;149
29;paravance-56.rennes.grid5000.fr;thermos-root-devel-WordCountTopology-2-f1e6bccc-b35a-4cc1-8869-64357a1cfea3;["container_2_Emit_random_words_2"];4.25;1533225450.37155;86.66;351.14;1.806070457;10;149
29;paravance-55.rennes.grid5000.fr;thermos-root-devel-WordCountTopology-0-763990bd-f08d-4140-a785-c0513c0ca895;["topology_master"];4.25;1533225450.50845;4.48;11.25;0.0;9;117
30;paravance-54.rennes.grid5000.fr;thermos-root-devel-WordCountTopology-1-cc382e60-0b77-40f4-9f4b-e83961cb5bdd;["container_1_Consume_and_count_1"];4.25;1533225460.5887;114.4;836.41;0.662442893;10;149
30;paravance-55.rennes.grid5000.fr;thermos-root-devel-WordCountTopology-0-763990bd-f08d-4140-a785-c0513c0ca895;["topology_master"];4.25;1533225460.71712;4.59;11.42;0.0;9;117
30;paravance-56.rennes.grid5000.fr;thermos-root-devel-WordCountTopology-2-f1e6bccc-b35a-4cc1-8869-64357a1cfea3;["container_2_Emit_random_words_2"];4.25;1533225460.5879;88.65;358.78;1.806070457;10;149
31;paravance-54.rennes.grid5000.fr;thermos-root-devel-WordCountTopology-1-cc382e60-0b77-40f4-9f4b-e83961cb5bdd;["container_1_Consume_and_count_1"];4.25;1533225470.80211;117.11;856.31;0.662442893;10;149
31;paravance-56.rennes.grid5000.fr;thermos-root-devel-WordCountTopology-2-f1e6bccc-b35a-4cc1-8869-64357a1cfea3;["container_2_Emit_random_words_2"];4.25;1533225470.80156;90.63;366.65;1.806070457;10;149
31;paravance-55.rennes.grid5000.fr;thermos-root-devel-WordCountTopology-0-763990bd-f08d-4140-a785-c0513c0ca895;["topology_master"];4.25;1533225470.92796;4.63;11.47;0.0;9;115
32;paravance-56.rennes.grid5000.fr;thermos-root-devel-WordCountTopology-2-f1e6bccc-b35a-4cc1-8869-64357a1cfea3;["container_2_Emit_random_words_2"];4.25;1533225481.01617;92.55;374.22;1.806070457;10;149
32;paravance-54.rennes.grid5000.fr;thermos-root-devel-WordCountTopology-1-cc382e60-0b77-40f4-9f4b-e83961cb5bdd;["container_1_Consume_and_count_1"];4.25;1533225481.0192;119.66;875.94;0.662442893;10;149
32;paravance-55.rennes.grid5000.fr;thermos-root-devel-WordCountTopology-0-763990bd-f08d-4140-a785-c0513c0ca895;["topology_master"];4.25;1533225481.13807;4.71;11.57;0.0;9;117
33;paravance-56.rennes.grid5000.fr;thermos-root-devel-WordCountTopology-2-f1e6bccc-b35a-4cc1-8869-64357a1cfea3;["container_2_Emit_random_words_2"];4.25;1533225491.23218;94.6;381.93;1.806070457;10;149
33;paravance-54.rennes.grid5000.fr;thermos-root-devel-WordCountTopology-1-cc382e60-0b77-40f4-9f4b-e83961cb5bdd;["container_1_Consume_and_count_1"];4.25;1533225491.2341;122.28;895.62;0.662442893;10;149
33;paravance-55.rennes.grid5000.fr;thermos-root-devel-WordCountTopology-0-763990bd-f08d-4140-a785-c0513c0ca895;["topology_master"];4.25;1533225491.34847;4.79;11.69;0.0;9;117
34;paravance-54.rennes.grid5000.fr;thermos-root-devel-WordCountTopology-1-cc382e60-0b77-40f4-9f4b-e83961cb5bdd;["container_1_Consume_and_count_1"];4.25;1533225501.44946;124.67;915.13;0.662458817;10;149
34;paravance-55.rennes.grid5000.fr;thermos-root-devel-WordCountTopology-0-763990bd-f08d-4140-a785-c0513c0ca895;["topology_master"];4.25;1533225501.55888;4.82;11.72;0.0;9;117
34;paravance-56.rennes.grid5000.fr;thermos-root-devel-WordCountTopology-2-f1e6bccc-b35a-4cc1-8869-64357a1cfea3;["container_2_Emit_random_words_2"];4.25;1533225501.44848;96.38;389.09;1.806070457;10;149
35;paravance-54.rennes.grid5000.fr;thermos-root-devel-WordCountTopology-1-cc382e60-0b77-40f4-9f4b-e83961cb5bdd;["container_1_Consume_and_count_1"];4.25;1533225511.66511;127.34;934.61;0.662458817;10;149
35;paravance-56.rennes.grid5000.fr;thermos-root-devel-WordCountTopology-2-f1e6bccc-b35a-4cc1-8869-64357a1cfea3;["container_2_Emit_random_words_2"];4.25;1533225511.6635;98.33;396.76;1.806070457;10;149
35;paravance-55.rennes.grid5000.fr;thermos-root-devel-WordCountTopology-0-763990bd-f08d-4140-a785-c0513c0ca895;["topology_master"];4.25;1533225511.7694;4.92;11.85;0.0;9;117
36;paravance-56.rennes.grid5000.fr;thermos-root-devel-WordCountTopology-2-f1e6bccc-b35a-4cc1-8869-64357a1cfea3;["container_2_Emit_random_words_2"];4.25;1533225521.87773;100.26;404.32;1.806070457;10;149
36;paravance-54.rennes.grid5000.fr;thermos-root-devel-WordCountTopology-1-cc382e60-0b77-40f4-9f4b-e83961cb5bdd;["container_1_Consume_and_count_1"];4.25;1533225521.87997;129.91;954.21;0.662458817;10;149
36;paravance-55.rennes.grid5000.fr;thermos-root-devel-WordCountTopology-0-763990bd-f08d-4140-a785-c0513c0ca895;["topology_master"];4.25;1533225521.97937;4.99;12.03;0.0;9;117
37;paravance-56.rennes.grid5000.fr;thermos-root-devel-WordCountTopology-2-f1e6bccc-b35a-4cc1-8869-64357a1cfea3;["container_2_Emit_random_words_2"];4.25;1533225532.09413;102.1;411.21;1.806070457;10;149
37;paravance-54.rennes.grid5000.fr;thermos-root-devel-WordCountTopology-1-cc382e60-0b77-40f4-9f4b-e83961cb5bdd;["container_1_Consume_and_count_1"];4.25;1533225532.09447;132.39;973.96;0.662458817;10;149
37;paravance-55.rennes.grid5000.fr;thermos-root-devel-WordCountTopology-0-763990bd-f08d-4140-a785-c0513c0ca895;["topology_master"];4.25;1533225532.18861;5.05;12.1;0.0;9;117
38;paravance-54.rennes.grid5000.fr;thermos-root-devel-WordCountTopology-1-cc382e60-0b77-40f4-9f4b-e83961cb5bdd;["container_1_Consume_and_count_1"];4.25;1533225542.31077;134.95;993.84;0.662458817;10;149
38;paravance-55.rennes.grid5000.fr;thermos-root-devel-WordCountTopology-0-763990bd-f08d-4140-a785-c0513c0ca895;["topology_master"];4.25;1533225542.40039;5.1;12.17;0.0;9;117
38;paravance-56.rennes.grid5000.fr;thermos-root-devel-WordCountTopology-2-f1e6bccc-b35a-4cc1-8869-64357a1cfea3;["container_2_Emit_random_words_2"];4.25;1533225542.30994;104.07;418.7;1.806070457;10;149
39;paravance-54.rennes.grid5000.fr;thermos-root-devel-WordCountTopology-1-cc382e60-0b77-40f4-9f4b-e83961cb5bdd;["container_1_Consume_and_count_1"];4.25;1533225552.52762;137.46;1014.14;0.669728006;10;149
39;paravance-56.rennes.grid5000.fr;thermos-root-devel-WordCountTopology-2-f1e6bccc-b35a-4cc1-8869-64357a1cfea3;["container_2_Emit_random_words_2"];4.25;1533225552.52581;105.99;425.84;1.806070457;10;149
39;paravance-55.rennes.grid5000.fr;thermos-root-devel-WordCountTopology-0-763990bd-f08d-4140-a785-c0513c0ca895;["topology_master"];4.25;1533225552.61124;5.18;12.29;0.0;9;117
40;paravance-55.rennes.grid5000.fr;thermos-root-devel-WordCountTopology-0-763990bd-f08d-4140-a785-c0513c0ca895;["topology_master"];4.25;1533225562.81816;5.24;12.36;0.0;9;117
40;paravance-54.rennes.grid5000.fr;thermos-root-devel-WordCountTopology-1-cc382e60-0b77-40f4-9f4b-e83961cb5bdd;["container_1_Consume_and_count_1"];4.25;1533225562.75564;140.05;1034.2;0.669728006;10;149
40;paravance-56.rennes.grid5000.fr;thermos-root-devel-WordCountTopology-2-f1e6bccc-b35a-4cc1-8869-64357a1cfea3;["container_2_Emit_random_words_2"];4.25;1533225562.75439;107.87;432.99;1.806070457;10;149
41;paravance-54.rennes.grid5000.fr;thermos-root-devel-WordCountTopology-1-cc382e60-0b77-40f4-9f4b-e83961cb5bdd;["container_1_Consume_and_count_1"];4.25;1533225572.97041;142.46;1053.98;0.72441764;10;149
41;paravance-55.rennes.grid5000.fr;thermos-root-devel-WordCountTopology-0-763990bd-f08d-4140-a785-c0513c0ca895;["topology_master"];4.25;1533225573.0428;5.31;12.44;0.0;9;117
41;paravance-56.rennes.grid5000.fr;thermos-root-devel-WordCountTopology-2-f1e6bccc-b35a-4cc1-8869-64357a1cfea3;["container_2_Emit_random_words_2"];4.25;1533225572.96968;109.67;439.69;1.806070457;10;149
42;paravance-54.rennes.grid5000.fr;thermos-root-devel-WordCountTopology-1-cc382e60-0b77-40f4-9f4b-e83961cb5bdd;["container_1_Consume_and_count_1"];4.25;1533225583.18613;145.11;1073.18;0.739516395;10;149
42;paravance-55.rennes.grid5000.fr;thermos-root-devel-WordCountTopology-0-763990bd-f08d-4140-a785-c0513c0ca895;["topology_master"];4.25;1533225583.25312;5.36;12.54;0.0;9;117
42;paravance-56.rennes.grid5000.fr;thermos-root-devel-WordCountTopology-2-f1e6bccc-b35a-4cc1-8869-64357a1cfea3;["container_2_Emit_random_words_2"];4.25;1533225583.18576;111.81;447.37;1.806070457;10;149
43;paravance-55.rennes.grid5000.fr;thermos-root-devel-WordCountTopology-0-763990bd-f08d-4140-a785-c0513c0ca895;["topology_master"];4.25;1533225593.46321;5.45;12.66;0.0;9;117
43;paravance-54.rennes.grid5000.fr;thermos-root-devel-WordCountTopology-1-cc382e60-0b77-40f4-9f4b-e83961cb5bdd;["container_1_Consume_and_count_1"];4.25;1533225593.40002;147.94;1093.03;0.739558307;10;149
43;paravance-56.rennes.grid5000.fr;thermos-root-devel-WordCountTopology-2-f1e6bccc-b35a-4cc1-8869-64357a1cfea3;["container_2_Emit_random_words_2"];4.25;1533225593.40003;113.79;455.06;1.806070457;10;149
44;paravance-56.rennes.grid5000.fr;thermos-root-devel-WordCountTopology-2-f1e6bccc-b35a-4cc1-8869-64357a1cfea3;["container_2_Emit_random_words_2"];4.25;1533225603.61541;115.87;462.82;1.806070457;10;149
44;paravance-54.rennes.grid5000.fr;thermos-root-devel-WordCountTopology-1-cc382e60-0b77-40f4-9f4b-e83961cb5bdd;["container_1_Consume_and_count_1"];4.25;1533225603.61786;150.64;1113.17;0.739558307;10;149
44;paravance-55.rennes.grid5000.fr;thermos-root-devel-WordCountTopology-0-763990bd-f08d-4140-a785-c0513c0ca895;["topology_master"];4.25;1533225603.67538;5.47;12.69;0.0;9;117
45;paravance-54.rennes.grid5000.fr;thermos-root-devel-WordCountTopology-1-cc382e60-0b77-40f4-9f4b-e83961cb5bdd;["container_1_Consume_and_count_1"];4.25;1533225613.83229;153.44;1133.27;0.739558307;10;149
45;paravance-55.rennes.grid5000.fr;thermos-root-devel-WordCountTopology-0-763990bd-f08d-4140-a785-c0513c0ca895;["topology_master"];4.25;1533225613.88595;5.56;12.8;0.0;9;117
45;paravance-56.rennes.grid5000.fr;thermos-root-devel-WordCountTopology-2-f1e6bccc-b35a-4cc1-8869-64357a1cfea3;["container_2_Emit_random_words_2"];4.25;1533225613.83168;118.03;471.08;1.806070457;10;149
46;paravance-54.rennes.grid5000.fr;thermos-root-devel-WordCountTopology-1-cc382e60-0b77-40f4-9f4b-e83961cb5bdd;["container_1_Consume_and_count_1"];4.25;1533225624.04807;156.07;1153.36;0.740166425;10;149
46;paravance-56.rennes.grid5000.fr;thermos-root-devel-WordCountTopology-2-f1e6bccc-b35a-4cc1-8869-64357a1cfea3;["container_2_Emit_random_words_2"];4.25;1533225624.04681;120.04;478.93;1.806070457;10;149
46;paravance-55.rennes.grid5000.fr;thermos-root-devel-WordCountTopology-0-763990bd-f08d-4140-a785-c0513c0ca895;["topology_master"];4.25;1533225624.09628;5.61;12.88;0.0;9;117
47;paravance-54.rennes.grid5000.fr;thermos-root-devel-WordCountTopology-1-cc382e60-0b77-40f4-9f4b-e83961cb5bdd;["container_1_Consume_and_count_1"];4.25;1533225634.26468;158.77;1173.25;0.829683563;10;149
47;paravance-55.rennes.grid5000.fr;thermos-root-devel-WordCountTopology-0-763990bd-f08d-4140-a785-c0513c0ca895;["topology_master"];4.25;1533225634.30669;5.68;12.96;0.0;9;117
47;paravance-56.rennes.grid5000.fr;thermos-root-devel-WordCountTopology-2-f1e6bccc-b35a-4cc1-8869-64357a1cfea3;["container_2_Emit_random_words_2"];4.25;1533225634.26477;122.07;486.42;1.806070457;10;149
48;paravance-56.rennes.grid5000.fr;thermos-root-devel-WordCountTopology-2-f1e6bccc-b35a-4cc1-8869-64357a1cfea3;["container_2_Emit_random_words_2"];4.25;1533225644.47942;124.22;494.38;1.806070457;10;149
48;paravance-55.rennes.grid5000.fr;thermos-root-devel-WordCountTopology-0-763990bd-f08d-4140-a785-c0513c0ca895;["topology_master"];4.25;1533225644.51754;5.74;13.08;0.0;9;117
48;paravance-54.rennes.grid5000.fr;thermos-root-devel-WordCountTopology-1-cc382e60-0b77-40f4-9f4b-e83961cb5bdd;["container_1_Consume_and_count_1"];4.25;1533225644.479;161.47;1193.75;0.829683563;10;149
49;paravance-54.rennes.grid5000.fr;thermos-root-devel-WordCountTopology-1-cc382e60-0b77-40f4-9f4b-e83961cb5bdd;["container_1_Consume_and_count_1"];4.25;1533225654.69781;164.11;1214.08;0.829683563;10;149
49;paravance-55.rennes.grid5000.fr;thermos-root-devel-WordCountTopology-0-763990bd-f08d-4140-a785-c0513c0ca895;["topology_master"];4.25;1533225654.73057;5.83;13.2;0.0;9;117
49;paravance-56.rennes.grid5000.fr;thermos-root-devel-WordCountTopology-2-f1e6bccc-b35a-4cc1-8869-64357a1cfea3;["container_2_Emit_random_words_2"];4.25;1533225654.69727;126.28;502.15;1.806070457;10;149
50;paravance-54.rennes.grid5000.fr;thermos-root-devel-WordCountTopology-1-cc382e60-0b77-40f4-9f4b-e83961cb5bdd;["container_1_Consume_and_count_1"];4.25;1533225664.91225;166.71;1233.64;0.829683563;10;149
50;paravance-56.rennes.grid5000.fr;thermos-root-devel-WordCountTopology-2-f1e6bccc-b35a-4cc1-8869-64357a1cfea3;["container_2_Emit_random_words_2"];4.25;1533225664.91165;128.3;509.54;1.806070457;10;149
50;paravance-55.rennes.grid5000.fr;thermos-root-devel-WordCountTopology-0-763990bd-f08d-4140-a785-c0513c0ca895;["topology_master"];4.25;1533225664.9404;5.85;13.23;0.0;9;117
51;paravance-54.rennes.grid5000.fr;thermos-root-devel-WordCountTopology-1-cc382e60-0b77-40f4-9f4b-e83961cb5bdd;["container_1_Consume_and_count_1"];4.25;1533225675.12719;169.31;1253.56;0.829683563;10;149
51;paravance-56.rennes.grid5000.fr;thermos-root-devel-WordCountTopology-2-f1e6bccc-b35a-4cc1-8869-64357a1cfea3;["container_2_Emit_random_words_2"];4.25;1533225675.12668;130.34;516.85;1.806070457;10;149
51;paravance-55.rennes.grid5000.fr;thermos-root-devel-WordCountTopology-0-763990bd-f08d-4140-a785-c0513c0ca895;["topology_master"];4.25;1533225675.14869;5.94;13.36;0.0;9;117
52;paravance-54.rennes.grid5000.fr;thermos-root-devel-WordCountTopology-1-cc382e60-0b77-40f4-9f4b-e83961cb5bdd;["container_1_Consume_and_count_1"];4.25;1533225685.34244;171.8;1273.49;0.829683563;10;149
52;paravance-55.rennes.grid5000.fr;thermos-root-devel-WordCountTopology-0-763990bd-f08d-4140-a785-c0513c0ca895;["topology_master"];4.25;1533225685.35986;6.0;13.44;0.0;9;117
52;paravance-56.rennes.grid5000.fr;thermos-root-devel-WordCountTopology-2-f1e6bccc-b35a-4cc1-8869-64357a1cfea3;["container_2_Emit_random_words_2"];4.25;1533225685.34182;132.25;524.05;1.806070457;10;149
53;paravance-54.rennes.grid5000.fr;thermos-root-devel-WordCountTopology-1-cc382e60-0b77-40f4-9f4b-e83961cb5bdd;["container_1_Consume_and_count_1"];4.25;1533225695.55982;174.54;1293.96;0.833827142;10;149
53;paravance-56.rennes.grid5000.fr;thermos-root-devel-WordCountTopology-2-f1e6bccc-b35a-4cc1-8869-64357a1cfea3;["container_2_Emit_random_words_2"];4.25;1533225695.55723;134.44;531.81;1.806070457;10;149
53;paravance-55.rennes.grid5000.fr;thermos-root-devel-WordCountTopology-0-763990bd-f08d-4140-a785-c0513c0ca895;["topology_master"];4.25;1533225695.57057;6.07;13.54;0.0;9;117
54;paravance-54.rennes.grid5000.fr;thermos-root-devel-WordCountTopology-1-cc382e60-0b77-40f4-9f4b-e83961cb5bdd;["container_1_Consume_and_count_1"];4.25;1533225705.7733;177.16;1314.03;0.833827142;10;149
54;paravance-56.rennes.grid5000.fr;thermos-root-devel-WordCountTopology-2-f1e6bccc-b35a-4cc1-8869-64357a1cfea3;["container_2_Emit_random_words_2"];4.25;1533225705.77361;136.44;539.32;1.806070457;10;149
54;paravance-55.rennes.grid5000.fr;thermos-root-devel-WordCountTopology-0-763990bd-f08d-4140-a785-c0513c0ca895;["topology_master"];4.25;1533225705.78159;6.13;13.64;0.0;9;117
55;paravance-54.rennes.grid5000.fr;thermos-root-devel-WordCountTopology-1-cc382e60-0b77-40f4-9f4b-e83961cb5bdd;["container_1_Consume_and_count_1"];4.25;1533225715.991;179.83;1334.06;0.833827142;10;149
55;paravance-56.rennes.grid5000.fr;thermos-root-devel-WordCountTopology-2-f1e6bccc-b35a-4cc1-8869-64357a1cfea3;["container_2_Emit_random_words_2"];4.25;1533225715.98897;138.54;547.21;1.806070457;10;149
55;paravance-55.rennes.grid5000.fr;thermos-root-devel-WordCountTopology-0-763990bd-f08d-4140-a785-c0513c0ca895;["topology_master"];4.25;1533225715.992;6.21;13.76;0.0;9;117
56;paravance-56.rennes.grid5000.fr;thermos-root-devel-WordCountTopology-2-f1e6bccc-b35a-4cc1-8869-64357a1cfea3;["container_2_Emit_random_words_2"];4.25;1533225726.20565;140.52;554.53;1.806070457;10;149
56;paravance-55.rennes.grid5000.fr;thermos-root-devel-WordCountTopology-0-763990bd-f08d-4140-a785-c0513c0ca895;["topology_master"];4.25;1533225726.20252;6.24;13.79;0.0;9;117
56;paravance-54.rennes.grid5000.fr;thermos-root-devel-WordCountTopology-1-cc382e60-0b77-40f4-9f4b-e83961cb5bdd;["container_1_Consume_and_count_1"];4.25;1533225726.20846;182.4;1353.92;0.833827142;10;149
57;paravance-54.rennes.grid5000.fr;thermos-root-devel-WordCountTopology-1-cc382e60-0b77-40f4-9f4b-e83961cb5bdd;["container_1_Consume_and_count_1"];4.25;1533225736.42388;185.03;1374.07;0.841863028;10;149
57;paravance-55.rennes.grid5000.fr;thermos-root-devel-WordCountTopology-0-763990bd-f08d-4140-a785-c0513c0ca895;["topology_master"];4.25;1533225736.41411;6.33;13.91;0.0;9;117
57;paravance-56.rennes.grid5000.fr;thermos-root-devel-WordCountTopology-2-f1e6bccc-b35a-4cc1-8869-64357a1cfea3;["container_2_Emit_random_words_2"];4.25;1533225736.42266;142.59;562.01;1.806070457;10;149
58;paravance-54.rennes.grid5000.fr;thermos-root-devel-WordCountTopology-1-cc382e60-0b77-40f4-9f4b-e83961cb5bdd;["container_1_Consume_and_count_1"];4.25;1533225746.63966;187.61;1394.1;0.841863028;10;149
58;paravance-55.rennes.grid5000.fr;thermos-root-devel-WordCountTopology-0-763990bd-f08d-4140-a785-c0513c0ca895;["topology_master"];4.25;1533225746.62585;6.38;13.98;0.0;9;117
58;paravance-56.rennes.grid5000.fr;thermos-root-devel-WordCountTopology-2-f1e6bccc-b35a-4cc1-8869-64357a1cfea3;["container_2_Emit_random_words_2"];4.25;1533225746.63806;144.6;569.57;1.806070457;10;149
59;paravance-56.rennes.grid5000.fr;thermos-root-devel-WordCountTopology-2-f1e6bccc-b35a-4cc1-8869-64357a1cfea3;["container_2_Emit_random_words_2"];4.25;1533225756.85296;146.54;576.6;1.806070457;10;149
59;paravance-54.rennes.grid5000.fr;thermos-root-devel-WordCountTopology-1-cc382e60-0b77-40f4-9f4b-e83961cb5bdd;["container_1_Consume_and_count_1"];4.25;1533225756.85538;190.11;1413.67;0.841863028;10;149
59;paravance-55.rennes.grid5000.fr;thermos-root-devel-WordCountTopology-0-763990bd-f08d-4140-a785-c0513c0ca895;["topology_master"];4.25;1533225756.83651;6.46;14.11;0.0;9;117
60;paravance-56.rennes.grid5000.fr;thermos-root-devel-WordCountTopology-2-f1e6bccc-b35a-4cc1-8869-64357a1cfea3;["container_2_Emit_random_words_2"];4.25;1533225767.07129;148.38;583.22;1.806070457;10;149
60;paravance-54.rennes.grid5000.fr;thermos-root-devel-WordCountTopology-1-cc382e60-0b77-40f4-9f4b-e83961cb5bdd;["container_1_Consume_and_count_1"];4.25;1533225767.07243;192.47;1433.16;0.841863028;10;149
60;paravance-55.rennes.grid5000.fr;thermos-root-devel-WordCountTopology-0-763990bd-f08d-4140-a785-c0513c0ca895;["topology_master"];4.25;1533225767.04896;6.51;14.18;0.0;9;117
