mesure_id;slave_id;executor_id;heron_instances;cpus_limit;timestamp_A;cpus_system_time_secs_A;cpus_user_time_secs_A;cpus_throttled_time_secs_A;processes;threads
0;paravance-44.rennes.grid5000.fr;thermos-root-devel-WordCountTopology-1-b01866df-a58a-4e2d-9f58-74b0fd7d4006;["container_1_Consume_and_count_1"];1.25;1533764637.12555;15.67;101.46;318.398698001;10;151
0;paravance-39.rennes.grid5000.fr;thermos-root-devel-WordCountTopology-0-f92ab484-9807-42a0-829f-7cf2a9b17a58;["topology_master"];1.25;1533764637.1253;2.54;8.59;7.031555168;9;117
0;paravance-55.rennes.grid5000.fr;thermos-root-devel-WordCountTopology-2-d9015b70-6222-4f1d-8637-51f60eb8227f;["container_2_Emit_random_words_2"];1.25;1533764637.13154;9.19;60.44;87.755063685;10;149
1;paravance-55.rennes.grid5000.fr;thermos-root-devel-WordCountTopology-2-d9015b70-6222-4f1d-8637-51f60eb8227f;["container_2_Emit_random_words_2"];1.25;1533764647.34807;9.84;65.32;91.901958699;10;149
1;paravance-39.rennes.grid5000.fr;thermos-root-devel-WordCountTopology-0-f92ab484-9807-42a0-829f-7cf2a9b17a58;["topology_master"];1.25;1533764647.34236;2.61;8.71;7.031555168;9;117
1;paravance-44.rennes.grid5000.fr;thermos-root-devel-WordCountTopology-1-b01866df-a58a-4e2d-9f58-74b0fd7d4006;["container_1_Consume_and_count_1"];1.25;1533764647.34006;17.11;111.8;350.101098025;10;151
2;paravance-44.rennes.grid5000.fr;thermos-root-devel-WordCountTopology-1-b01866df-a58a-4e2d-9f58-74b0fd7d4006;["container_1_Consume_and_count_1"];1.25;1533764657.55969;18.62;122.07;376.765863566;10;151
2;paravance-39.rennes.grid5000.fr;thermos-root-devel-WordCountTopology-0-f92ab484-9807-42a0-829f-7cf2a9b17a58;["topology_master"];1.25;1533764657.56099;2.7;8.86;7.031555168;9;117
2;paravance-55.rennes.grid5000.fr;thermos-root-devel-WordCountTopology-2-d9015b70-6222-4f1d-8637-51f60eb8227f;["container_2_Emit_random_words_2"];1.25;1533764657.5671;10.66;71.39;97.131491597;10;149
3;paravance-39.rennes.grid5000.fr;thermos-root-devel-WordCountTopology-0-f92ab484-9807-42a0-829f-7cf2a9b17a58;["topology_master"];1.25;1533764667.77624;2.73;8.89;7.031555168;9;117
3;paravance-44.rennes.grid5000.fr;thermos-root-devel-WordCountTopology-1-b01866df-a58a-4e2d-9f58-74b0fd7d4006;["container_1_Consume_and_count_1"];1.25;1533764667.7752;20.23;132.21;407.959344226;10;151
3;paravance-55.rennes.grid5000.fr;thermos-root-devel-WordCountTopology-2-d9015b70-6222-4f1d-8637-51f60eb8227f;["container_2_Emit_random_words_2"];1.25;1533764667.78348;11.15;75.1;100.339031636;10;149
4;paravance-55.rennes.grid5000.fr;thermos-root-devel-WordCountTopology-2-d9015b70-6222-4f1d-8637-51f60eb8227f;["container_2_Emit_random_words_2"];1.25;1533764678.00318;12.15;82.84;107.475388442;10;149
4;paravance-44.rennes.grid5000.fr;thermos-root-devel-WordCountTopology-1-b01866df-a58a-4e2d-9f58-74b0fd7d4006;["container_1_Consume_and_count_1"];1.25;1533764677.9948;21.85;142.65;450.135569729;10;151
4;paravance-39.rennes.grid5000.fr;thermos-root-devel-WordCountTopology-0-f92ab484-9807-42a0-829f-7cf2a9b17a58;["topology_master"];1.25;1533764677.99657;2.82;9.02;7.031555168;9;117
5;paravance-44.rennes.grid5000.fr;thermos-root-devel-WordCountTopology-1-b01866df-a58a-4e2d-9f58-74b0fd7d4006;["container_1_Consume_and_count_1"];1.25;1533764688.21404;22.98;153.37;476.036158584;10;151
5;paravance-39.rennes.grid5000.fr;thermos-root-devel-WordCountTopology-0-f92ab484-9807-42a0-829f-7cf2a9b17a58;["topology_master"];1.25;1533764688.21608;2.88;9.09;7.031555168;9;117
5;paravance-55.rennes.grid5000.fr;thermos-root-devel-WordCountTopology-2-d9015b70-6222-4f1d-8637-51f60eb8227f;["container_2_Emit_random_words_2"];1.25;1533764688.22267;12.54;85.47;109.200230425;10;149
6;paravance-44.rennes.grid5000.fr;thermos-root-devel-WordCountTopology-1-b01866df-a58a-4e2d-9f58-74b0fd7d4006;["container_1_Consume_and_count_1"];1.25;1533764698.43032;24.43;163.71;508.629325003;10;151
6;paravance-55.rennes.grid5000.fr;thermos-root-devel-WordCountTopology-2-d9015b70-6222-4f1d-8637-51f60eb8227f;["container_2_Emit_random_words_2"];1.25;1533764698.43884;13.23;90.54;113.452192584;10;149
6;paravance-39.rennes.grid5000.fr;thermos-root-devel-WordCountTopology-0-f92ab484-9807-42a0-829f-7cf2a9b17a58;["topology_master"];1.25;1533764698.43297;2.97;9.19;7.042475361;9;117
7;paravance-55.rennes.grid5000.fr;thermos-root-devel-WordCountTopology-2-d9015b70-6222-4f1d-8637-51f60eb8227f;["container_2_Emit_random_words_2"];1.25;1533764708.65238;13.94;95.99;118.24168886;10;149
7;paravance-44.rennes.grid5000.fr;thermos-root-devel-WordCountTopology-1-b01866df-a58a-4e2d-9f58-74b0fd7d4006;["container_1_Consume_and_count_1"];1.25;1533764708.64509;25.69;174.19;533.064357587;10;151
7;paravance-39.rennes.grid5000.fr;thermos-root-devel-WordCountTopology-0-f92ab484-9807-42a0-829f-7cf2a9b17a58;["topology_master"];1.25;1533764708.64803;3.03;9.37;7.042475361;9;117
8;paravance-44.rennes.grid5000.fr;thermos-root-devel-WordCountTopology-1-b01866df-a58a-4e2d-9f58-74b0fd7d4006;["container_1_Consume_and_count_1"];1.25;1533764718.86335;26.96;184.66;554.736750661;10;151
8;paravance-55.rennes.grid5000.fr;thermos-root-devel-WordCountTopology-2-d9015b70-6222-4f1d-8637-51f60eb8227f;["container_2_Emit_random_words_2"];1.25;1533764718.87228;14.51;99.82;121.668072143;10;149
8;paravance-39.rennes.grid5000.fr;thermos-root-devel-WordCountTopology-0-f92ab484-9807-42a0-829f-7cf2a9b17a58;["topology_master"];1.25;1533764718.86539;3.12;9.51;7.042475361;9;117
9;paravance-44.rennes.grid5000.fr;thermos-root-devel-WordCountTopology-1-b01866df-a58a-4e2d-9f58-74b0fd7d4006;["container_1_Consume_and_count_1"];1.25;1533764729.08137;28.27;194.98;575.490478422;10;151
9;paravance-55.rennes.grid5000.fr;thermos-root-devel-WordCountTopology-2-d9015b70-6222-4f1d-8637-51f60eb8227f;["container_2_Emit_random_words_2"];1.25;1533764729.09006;15.01;103.43;124.45197663;10;149
9;paravance-39.rennes.grid5000.fr;thermos-root-devel-WordCountTopology-0-f92ab484-9807-42a0-829f-7cf2a9b17a58;["topology_master"];1.25;1533764729.08313;3.18;9.58;7.042475361;9;117
10;paravance-44.rennes.grid5000.fr;thermos-root-devel-WordCountTopology-1-b01866df-a58a-4e2d-9f58-74b0fd7d4006;["container_1_Consume_and_count_1"];1.25;1533764739.2957;29.49;205.67;598.509677634;10;151
10;paravance-39.rennes.grid5000.fr;thermos-root-devel-WordCountTopology-0-f92ab484-9807-42a0-829f-7cf2a9b17a58;["topology_master"];1.25;1533764739.29754;3.23;9.66;7.042475361;9;117
10;paravance-55.rennes.grid5000.fr;thermos-root-devel-WordCountTopology-2-d9015b70-6222-4f1d-8637-51f60eb8227f;["container_2_Emit_random_words_2"];1.25;1533764739.3042;15.6;107.59;128.110933292;10;149
11;paravance-55.rennes.grid5000.fr;thermos-root-devel-WordCountTopology-2-d9015b70-6222-4f1d-8637-51f60eb8227f;["container_2_Emit_random_words_2"];1.25;1533764749.41895;16.04;110.61;130.385567531;10;149
11;paravance-39.rennes.grid5000.fr;thermos-root-devel-WordCountTopology-0-f92ab484-9807-42a0-829f-7cf2a9b17a58;["topology_master"];1.25;1533764749.51206;3.29;9.73;7.042475361;9;117
11;paravance-44.rennes.grid5000.fr;thermos-root-devel-WordCountTopology-1-b01866df-a58a-4e2d-9f58-74b0fd7d4006;["container_1_Consume_and_count_1"];1.25;1533764749.51135;30.91;215.82;619.829542514;10;151
12;paravance-44.rennes.grid5000.fr;thermos-root-devel-WordCountTopology-1-b01866df-a58a-4e2d-9f58-74b0fd7d4006;["container_1_Consume_and_count_1"];1.25;1533764759.72588;32.23;226.15;646.859445498;10;151
12;paravance-39.rennes.grid5000.fr;thermos-root-devel-WordCountTopology-0-f92ab484-9807-42a0-829f-7cf2a9b17a58;["topology_master"];1.25;1533764759.72792;3.41;10.0;7.043824789;9;117
12;paravance-55.rennes.grid5000.fr;thermos-root-devel-WordCountTopology-2-d9015b70-6222-4f1d-8637-51f60eb8227f;["container_2_Emit_random_words_2"];1.25;1533764759.73478;16.5;113.67;132.750932044;10;149
13;paravance-44.rennes.grid5000.fr;thermos-root-devel-WordCountTopology-1-b01866df-a58a-4e2d-9f58-74b0fd7d4006;["container_1_Consume_and_count_1"];1.25;1533764769.94472;33.67;236.35;676.5006039;10;151
13;paravance-39.rennes.grid5000.fr;thermos-root-devel-WordCountTopology-0-f92ab484-9807-42a0-829f-7cf2a9b17a58;["topology_master"];1.25;1533764769.94628;3.44;10.03;7.043824789;9;117
13;paravance-55.rennes.grid5000.fr;thermos-root-devel-WordCountTopology-2-d9015b70-6222-4f1d-8637-51f60eb8227f;["container_2_Emit_random_words_2"];1.25;1533764769.95232;17.03;117.54;136.356151185;10;149
14;paravance-39.rennes.grid5000.fr;thermos-root-devel-WordCountTopology-0-f92ab484-9807-42a0-829f-7cf2a9b17a58;["topology_master"];1.25;1533764780.16412;3.53;10.18;7.043824789;9;117
14;paravance-55.rennes.grid5000.fr;thermos-root-devel-WordCountTopology-2-d9015b70-6222-4f1d-8637-51f60eb8227f;["container_2_Emit_random_words_2"];1.25;1533764780.17199;17.69;122.32;140.677160036;10;149
14;paravance-44.rennes.grid5000.fr;thermos-root-devel-WordCountTopology-1-b01866df-a58a-4e2d-9f58-74b0fd7d4006;["container_1_Consume_and_count_1"];1.25;1533764780.16328;34.9;247.03;701.645524675;10;151
15;paravance-44.rennes.grid5000.fr;thermos-root-devel-WordCountTopology-1-b01866df-a58a-4e2d-9f58-74b0fd7d4006;["container_1_Consume_and_count_1"];1.25;1533764790.3809;36.09;257.71;727.36048371;10;151
15;paravance-55.rennes.grid5000.fr;thermos-root-devel-WordCountTopology-2-d9015b70-6222-4f1d-8637-51f60eb8227f;["container_2_Emit_random_words_2"];1.25;1533764790.38898;18.34;127.45;145.202060569;10;149
15;paravance-39.rennes.grid5000.fr;thermos-root-devel-WordCountTopology-0-f92ab484-9807-42a0-829f-7cf2a9b17a58;["topology_master"];1.25;1533764790.38254;3.59;10.26;7.043824789;9;117
16;paravance-55.rennes.grid5000.fr;thermos-root-devel-WordCountTopology-2-d9015b70-6222-4f1d-8637-51f60eb8227f;["container_2_Emit_random_words_2"];1.25;1533764800.60777;19.11;133.2;150.186222802;10;149
16;paravance-39.rennes.grid5000.fr;thermos-root-devel-WordCountTopology-0-f92ab484-9807-42a0-829f-7cf2a9b17a58;["topology_master"];1.25;1533764800.60147;3.65;10.35;7.043824789;9;117
16;paravance-44.rennes.grid5000.fr;thermos-root-devel-WordCountTopology-1-b01866df-a58a-4e2d-9f58-74b0fd7d4006;["container_1_Consume_and_count_1"];1.25;1533764800.60093;37.35;268.45;755.493843168;10;151
17;paravance-39.rennes.grid5000.fr;thermos-root-devel-WordCountTopology-0-f92ab484-9807-42a0-829f-7cf2a9b17a58;["topology_master"];1.25;1533764810.81966;3.71;10.42;7.043824789;9;117
17;paravance-44.rennes.grid5000.fr;thermos-root-devel-WordCountTopology-1-b01866df-a58a-4e2d-9f58-74b0fd7d4006;["container_1_Consume_and_count_1"];1.25;1533764810.81938;38.57;279.15;783.321574733;10;151
17;paravance-55.rennes.grid5000.fr;thermos-root-devel-WordCountTopology-2-d9015b70-6222-4f1d-8637-51f60eb8227f;["container_2_Emit_random_words_2"];1.25;1533764810.82717;19.69;137.44;153.764574546;10;149
18;paravance-44.rennes.grid5000.fr;thermos-root-devel-WordCountTopology-1-b01866df-a58a-4e2d-9f58-74b0fd7d4006;["container_1_Consume_and_count_1"];1.25;1533764821.03718;39.66;289.9;811.888710387;10;151
18;paravance-55.rennes.grid5000.fr;thermos-root-devel-WordCountTopology-2-d9015b70-6222-4f1d-8637-51f60eb8227f;["container_2_Emit_random_words_2"];1.25;1533764821.04435;20.36;142.38;157.796634381;10;149
18;paravance-39.rennes.grid5000.fr;thermos-root-devel-WordCountTopology-0-f92ab484-9807-42a0-829f-7cf2a9b17a58;["topology_master"];1.25;1533764821.03864;3.82;10.61;7.043824789;9;117
19;paravance-44.rennes.grid5000.fr;thermos-root-devel-WordCountTopology-1-b01866df-a58a-4e2d-9f58-74b0fd7d4006;["container_1_Consume_and_count_1"];1.25;1533764831.25382;40.83;300.55;835.467783494;10;151
19;paravance-39.rennes.grid5000.fr;thermos-root-devel-WordCountTopology-0-f92ab484-9807-42a0-829f-7cf2a9b17a58;["topology_master"];1.25;1533764831.25499;3.85;10.64;7.043824789;9;117
19;paravance-55.rennes.grid5000.fr;thermos-root-devel-WordCountTopology-2-d9015b70-6222-4f1d-8637-51f60eb8227f;["container_2_Emit_random_words_2"];1.25;1533764831.26288;21.02;147.12;161.562043639;10;149
20;paravance-39.rennes.grid5000.fr;thermos-root-devel-WordCountTopology-0-f92ab484-9807-42a0-829f-7cf2a9b17a58;["topology_master"];1.25;1533764841.47275;3.94;10.77;7.043824789;9;117
20;paravance-55.rennes.grid5000.fr;thermos-root-devel-WordCountTopology-2-d9015b70-6222-4f1d-8637-51f60eb8227f;["container_2_Emit_random_words_2"];1.25;1533764841.48013;21.52;150.21;164.217748071;10;149
20;paravance-44.rennes.grid5000.fr;thermos-root-devel-WordCountTopology-1-b01866df-a58a-4e2d-9f58-74b0fd7d4006;["container_1_Consume_and_count_1"];1.25;1533764841.47222;42.03;311.13;860.273665303;10;151
21;paravance-39.rennes.grid5000.fr;thermos-root-devel-WordCountTopology-0-f92ab484-9807-42a0-829f-7cf2a9b17a58;["topology_master"];1.25;1533764851.69018;3.99;10.84;7.043824789;9;117
21;paravance-55.rennes.grid5000.fr;thermos-root-devel-WordCountTopology-2-d9015b70-6222-4f1d-8637-51f60eb8227f;["container_2_Emit_random_words_2"];1.25;1533764851.69735;22.13;155.11;168.139921012;10;149
21;paravance-44.rennes.grid5000.fr;thermos-root-devel-WordCountTopology-1-b01866df-a58a-4e2d-9f58-74b0fd7d4006;["container_1_Consume_and_count_1"];1.25;1533764851.69095;43.14;321.97;889.57077055;10;151
22;paravance-39.rennes.grid5000.fr;thermos-root-devel-WordCountTopology-0-f92ab484-9807-42a0-829f-7cf2a9b17a58;["topology_master"];1.25;1533764861.80727;4.05;10.92;7.043824789;9;117
22;paravance-44.rennes.grid5000.fr;thermos-root-devel-WordCountTopology-1-b01866df-a58a-4e2d-9f58-74b0fd7d4006;["container_1_Consume_and_count_1"];1.25;1533764861.90579;44.52;332.47;919.319119763;10;151
22;paravance-55.rennes.grid5000.fr;thermos-root-devel-WordCountTopology-2-d9015b70-6222-4f1d-8637-51f60eb8227f;["container_2_Emit_random_words_2"];1.25;1533764861.91484;22.79;159.58;172.37272721;10;149
23;paravance-44.rennes.grid5000.fr;thermos-root-devel-WordCountTopology-1-b01866df-a58a-4e2d-9f58-74b0fd7d4006;["container_1_Consume_and_count_1"];1.25;1533764872.12121;45.7;343.16;946.4731523;10;151
23;paravance-55.rennes.grid5000.fr;thermos-root-devel-WordCountTopology-2-d9015b70-6222-4f1d-8637-51f60eb8227f;["container_2_Emit_random_words_2"];1.25;1533764872.12924;23.32;162.95;175.056129442;10;149
23;paravance-39.rennes.grid5000.fr;thermos-root-devel-WordCountTopology-0-f92ab484-9807-42a0-829f-7cf2a9b17a58;["topology_master"];1.25;1533764872.12231;4.1;10.99;7.043824789;9;117
24;paravance-44.rennes.grid5000.fr;thermos-root-devel-WordCountTopology-1-b01866df-a58a-4e2d-9f58-74b0fd7d4006;["container_1_Consume_and_count_1"];1.25;1533764882.33848;47.07;353.64;978.39826202;10;151
24;paravance-39.rennes.grid5000.fr;thermos-root-devel-WordCountTopology-0-f92ab484-9807-42a0-829f-7cf2a9b17a58;["topology_master"];1.25;1533764882.3402;4.21;11.17;7.043824789;9;117
24;paravance-55.rennes.grid5000.fr;thermos-root-devel-WordCountTopology-2-d9015b70-6222-4f1d-8637-51f60eb8227f;["container_2_Emit_random_words_2"];1.25;1533764882.34724;23.99;167.72;179.557278918;10;149
25;paravance-44.rennes.grid5000.fr;thermos-root-devel-WordCountTopology-1-b01866df-a58a-4e2d-9f58-74b0fd7d4006;["container_1_Consume_and_count_1"];1.25;1533764892.55594;48.41;363.98;1004.779949402;10;151
25;paravance-39.rennes.grid5000.fr;thermos-root-devel-WordCountTopology-0-f92ab484-9807-42a0-829f-7cf2a9b17a58;["topology_master"];1.25;1533764892.5566;4.24;11.2;7.043824789;9;117
25;paravance-55.rennes.grid5000.fr;thermos-root-devel-WordCountTopology-2-d9015b70-6222-4f1d-8637-51f60eb8227f;["container_2_Emit_random_words_2"];1.25;1533764892.5643;24.36;170.06;181.5977292;10;149
26;paravance-39.rennes.grid5000.fr;thermos-root-devel-WordCountTopology-0-f92ab484-9807-42a0-829f-7cf2a9b17a58;["topology_master"];1.25;1533764902.77477;4.33;11.33;7.043824789;9;117
26;paravance-55.rennes.grid5000.fr;thermos-root-devel-WordCountTopology-2-d9015b70-6222-4f1d-8637-51f60eb8227f;["container_2_Emit_random_words_2"];1.25;1533764902.78162;24.89;173.72;185.059582973;10;149
26;paravance-44.rennes.grid5000.fr;thermos-root-devel-WordCountTopology-1-b01866df-a58a-4e2d-9f58-74b0fd7d4006;["container_1_Consume_and_count_1"];1.25;1533764902.77462;49.7;374.58;1034.937455709;10;151
27;paravance-55.rennes.grid5000.fr;thermos-root-devel-WordCountTopology-2-d9015b70-6222-4f1d-8637-51f60eb8227f;["container_2_Emit_random_words_2"];1.25;1533764912.99762;25.77;180.37;190.940885944;10;149
27;paravance-39.rennes.grid5000.fr;thermos-root-devel-WordCountTopology-0-f92ab484-9807-42a0-829f-7cf2a9b17a58;["topology_master"];1.25;1533764912.99067;4.38;11.4;7.043824789;9;117
27;paravance-44.rennes.grid5000.fr;thermos-root-devel-WordCountTopology-1-b01866df-a58a-4e2d-9f58-74b0fd7d4006;["container_1_Consume_and_count_1"];1.25;1533764912.98973;50.98;385.37;1071.735493229;10;151
28;paravance-44.rennes.grid5000.fr;thermos-root-devel-WordCountTopology-1-b01866df-a58a-4e2d-9f58-74b0fd7d4006;["container_1_Consume_and_count_1"];1.25;1533764923.21;52.25;396.2;1108.72204561;10;151
28;paravance-39.rennes.grid5000.fr;thermos-root-devel-WordCountTopology-0-f92ab484-9807-42a0-829f-7cf2a9b17a58;["topology_master"];1.25;1533764923.2111;4.44;11.47;7.043824789;9;117
28;paravance-55.rennes.grid5000.fr;thermos-root-devel-WordCountTopology-2-d9015b70-6222-4f1d-8637-51f60eb8227f;["container_2_Emit_random_words_2"];1.25;1533764923.21833;26.49;185.82;196.209838737;10;149
29;paravance-39.rennes.grid5000.fr;thermos-root-devel-WordCountTopology-0-f92ab484-9807-42a0-829f-7cf2a9b17a58;["topology_master"];1.25;1533764933.42813;4.49;11.54;7.043824789;9;117
29;paravance-44.rennes.grid5000.fr;thermos-root-devel-WordCountTopology-1-b01866df-a58a-4e2d-9f58-74b0fd7d4006;["container_1_Consume_and_count_1"];1.25;1533764933.42902;53.5;406.96;1142.053174079;10;151
29;paravance-55.rennes.grid5000.fr;thermos-root-devel-WordCountTopology-2-d9015b70-6222-4f1d-8637-51f60eb8227f;["container_2_Emit_random_words_2"];1.25;1533764933.43611;27.14;190.6;200.125514831;10;149
30;paravance-44.rennes.grid5000.fr;thermos-root-devel-WordCountTopology-1-b01866df-a58a-4e2d-9f58-74b0fd7d4006;["container_1_Consume_and_count_1"];1.25;1533764943.64548;54.73;417.54;1166.818764414;10;151
30;paravance-39.rennes.grid5000.fr;thermos-root-devel-WordCountTopology-0-f92ab484-9807-42a0-829f-7cf2a9b17a58;["topology_master"];1.25;1533764943.64679;4.6;11.74;7.043824789;9;117
30;paravance-55.rennes.grid5000.fr;thermos-root-devel-WordCountTopology-2-d9015b70-6222-4f1d-8637-51f60eb8227f;["container_2_Emit_random_words_2"];1.25;1533764943.65411;27.99;196.98;205.758113972;10;149
31;paravance-44.rennes.grid5000.fr;thermos-root-devel-WordCountTopology-1-b01866df-a58a-4e2d-9f58-74b0fd7d4006;["container_1_Consume_and_count_1"];1.25;1533764953.86174;55.91;428.24;1187.014014423;10;151
31;paravance-55.rennes.grid5000.fr;thermos-root-devel-WordCountTopology-2-d9015b70-6222-4f1d-8637-51f60eb8227f;["container_2_Emit_random_words_2"];1.25;1533764953.87074;28.6;201.75;209.891737435;10;149
31;paravance-39.rennes.grid5000.fr;thermos-root-devel-WordCountTopology-0-f92ab484-9807-42a0-829f-7cf2a9b17a58;["topology_master"];1.25;1533764953.86271;4.63;11.77;7.043824789;9;115
32;paravance-55.rennes.grid5000.fr;thermos-root-devel-WordCountTopology-2-d9015b70-6222-4f1d-8637-51f60eb8227f;["container_2_Emit_random_words_2"];1.25;1533764964.0887;29.2;205.81;213.575934842;10;149
32;paravance-39.rennes.grid5000.fr;thermos-root-devel-WordCountTopology-0-f92ab484-9807-42a0-829f-7cf2a9b17a58;["topology_master"];1.25;1533764964.08022;4.72;11.88;7.043824789;9;117
32;paravance-44.rennes.grid5000.fr;thermos-root-devel-WordCountTopology-1-b01866df-a58a-4e2d-9f58-74b0fd7d4006;["container_1_Consume_and_count_1"];1.25;1533764964.08179;57.13;438.78;1210.192323221;10;151
33;paravance-55.rennes.grid5000.fr;thermos-root-devel-WordCountTopology-2-d9015b70-6222-4f1d-8637-51f60eb8227f;["container_2_Emit_random_words_2"];1.25;1533764974.3064;29.83;210.21;217.528779649;10;149
33;paravance-44.rennes.grid5000.fr;thermos-root-devel-WordCountTopology-1-b01866df-a58a-4e2d-9f58-74b0fd7d4006;["container_1_Consume_and_count_1"];1.25;1533764974.29929;58.22;449.58;1235.82648553;10;151
33;paravance-39.rennes.grid5000.fr;thermos-root-devel-WordCountTopology-0-f92ab484-9807-42a0-829f-7cf2a9b17a58;["topology_master"];1.25;1533764974.29965;4.8;12.01;7.043824789;9;117
34;paravance-44.rennes.grid5000.fr;thermos-root-devel-WordCountTopology-1-b01866df-a58a-4e2d-9f58-74b0fd7d4006;["container_1_Consume_and_count_1"];1.25;1533764984.51326;59.23;460.5;1262.400514924;10;151
34;paravance-55.rennes.grid5000.fr;thermos-root-devel-WordCountTopology-2-d9015b70-6222-4f1d-8637-51f60eb8227f;["container_2_Emit_random_words_2"];1.25;1533764984.52345;30.37;214.33;221.159797585;10;149
34;paravance-39.rennes.grid5000.fr;thermos-root-devel-WordCountTopology-0-f92ab484-9807-42a0-829f-7cf2a9b17a58;["topology_master"];1.25;1533764984.51565;4.83;12.03;7.043824789;9;117
35;paravance-44.rennes.grid5000.fr;thermos-root-devel-WordCountTopology-1-b01866df-a58a-4e2d-9f58-74b0fd7d4006;["container_1_Consume_and_count_1"];1.25;1533764994.73298;60.36;471.16;1288.609088139;10;151
35;paravance-39.rennes.grid5000.fr;thermos-root-devel-WordCountTopology-0-f92ab484-9807-42a0-829f-7cf2a9b17a58;["topology_master"];1.25;1533764994.7328;4.94;12.17;7.043824789;9;117
35;paravance-55.rennes.grid5000.fr;thermos-root-devel-WordCountTopology-2-d9015b70-6222-4f1d-8637-51f60eb8227f;["container_2_Emit_random_words_2"];1.25;1533764994.73998;31.07;219.4;225.568053319;10;149
36;paravance-44.rennes.grid5000.fr;thermos-root-devel-WordCountTopology-1-b01866df-a58a-4e2d-9f58-74b0fd7d4006;["container_1_Consume_and_count_1"];1.25;1533765004.94783;61.68;481.64;1315.772281947;10;151
36;paravance-39.rennes.grid5000.fr;thermos-root-devel-WordCountTopology-0-f92ab484-9807-42a0-829f-7cf2a9b17a58;["topology_master"];1.25;1533765004.94872;5.0;12.3;7.043824789;9;117
36;paravance-55.rennes.grid5000.fr;thermos-root-devel-WordCountTopology-2-d9015b70-6222-4f1d-8637-51f60eb8227f;["container_2_Emit_random_words_2"];1.25;1533765004.95703;31.67;223.85;229.386635791;10;149
37;paravance-44.rennes.grid5000.fr;thermos-root-devel-WordCountTopology-1-b01866df-a58a-4e2d-9f58-74b0fd7d4006;["container_1_Consume_and_count_1"];1.25;1533765015.06389;62.97;491.94;1343.324772797;10;151
37;paravance-39.rennes.grid5000.fr;thermos-root-devel-WordCountTopology-0-f92ab484-9807-42a0-829f-7cf2a9b17a58;["topology_master"];1.25;1533765015.16452;5.06;12.37;7.043824789;9;117
37;paravance-55.rennes.grid5000.fr;thermos-root-devel-WordCountTopology-2-d9015b70-6222-4f1d-8637-51f60eb8227f;["container_2_Emit_random_words_2"];1.25;1533765015.1702;32.24;227.7;232.854295524;10;149
38;paravance-44.rennes.grid5000.fr;thermos-root-devel-WordCountTopology-1-b01866df-a58a-4e2d-9f58-74b0fd7d4006;["container_1_Consume_and_count_1"];1.25;1533765025.37893;64.23;502.59;1371.430196398;10;151
38;paravance-39.rennes.grid5000.fr;thermos-root-devel-WordCountTopology-0-f92ab484-9807-42a0-829f-7cf2a9b17a58;["topology_master"];1.25;1533765025.37999;5.12;12.45;7.043824789;9;117
38;paravance-55.rennes.grid5000.fr;thermos-root-devel-WordCountTopology-2-d9015b70-6222-4f1d-8637-51f60eb8227f;["container_2_Emit_random_words_2"];1.25;1533765025.38855;32.77;231.57;236.227370746;10;149
39;paravance-44.rennes.grid5000.fr;thermos-root-devel-WordCountTopology-1-b01866df-a58a-4e2d-9f58-74b0fd7d4006;["container_1_Consume_and_count_1"];1.25;1533765035.59716;65.33;513.27;1393.46700546;10;151
39;paravance-55.rennes.grid5000.fr;thermos-root-devel-WordCountTopology-2-d9015b70-6222-4f1d-8637-51f60eb8227f;["container_2_Emit_random_words_2"];1.25;1533765035.60652;33.35;235.53;240.52283103;10;149
39;paravance-39.rennes.grid5000.fr;thermos-root-devel-WordCountTopology-0-f92ab484-9807-42a0-829f-7cf2a9b17a58;["topology_master"];1.25;1533765035.59848;5.2;12.57;7.043824789;9;117
40;paravance-44.rennes.grid5000.fr;thermos-root-devel-WordCountTopology-1-b01866df-a58a-4e2d-9f58-74b0fd7d4006;["container_1_Consume_and_count_1"];1.25;1533765045.81651;66.5;524.03;1418.688410862;10;151
40;paravance-39.rennes.grid5000.fr;thermos-root-devel-WordCountTopology-0-f92ab484-9807-42a0-829f-7cf2a9b17a58;["topology_master"];1.25;1533765045.81711;5.23;12.59;7.043824789;9;117
40;paravance-55.rennes.grid5000.fr;thermos-root-devel-WordCountTopology-2-d9015b70-6222-4f1d-8637-51f60eb8227f;["container_2_Emit_random_words_2"];1.25;1533765045.82582;33.84;239.28;243.320677616;10;149
41;paravance-55.rennes.grid5000.fr;thermos-root-devel-WordCountTopology-2-d9015b70-6222-4f1d-8637-51f60eb8227f;["container_2_Emit_random_words_2"];1.25;1533765056.04178;34.51;243.95;247.689506613;10;149
41;paravance-44.rennes.grid5000.fr;thermos-root-devel-WordCountTopology-1-b01866df-a58a-4e2d-9f58-74b0fd7d4006;["container_1_Consume_and_count_1"];1.25;1533765056.03479;67.6;534.77;1442.331668207;10;151
41;paravance-39.rennes.grid5000.fr;thermos-root-devel-WordCountTopology-0-f92ab484-9807-42a0-829f-7cf2a9b17a58;["topology_master"];1.25;1533765056.03525;5.32;12.73;7.043824789;9;117
42;paravance-55.rennes.grid5000.fr;thermos-root-devel-WordCountTopology-2-d9015b70-6222-4f1d-8637-51f60eb8227f;["container_2_Emit_random_words_2"];1.25;1533765066.25545;35.13;248.51;252.731807297;10;149
42;paravance-44.rennes.grid5000.fr;thermos-root-devel-WordCountTopology-1-b01866df-a58a-4e2d-9f58-74b0fd7d4006;["container_1_Consume_and_count_1"];1.25;1533765066.24897;68.69;545.47;1465.06584678;10;151
42;paravance-39.rennes.grid5000.fr;thermos-root-devel-WordCountTopology-0-f92ab484-9807-42a0-829f-7cf2a9b17a58;["topology_master"];1.25;1533765066.24936;5.39;12.83;7.043824789;9;117
43;paravance-44.rennes.grid5000.fr;thermos-root-devel-WordCountTopology-1-b01866df-a58a-4e2d-9f58-74b0fd7d4006;["container_1_Consume_and_count_1"];1.25;1533765076.46415;69.93;555.88;1488.740082881;10;151
43;paravance-55.rennes.grid5000.fr;thermos-root-devel-WordCountTopology-2-d9015b70-6222-4f1d-8637-51f60eb8227f;["container_2_Emit_random_words_2"];1.25;1533765076.47118;35.72;252.61;256.256841116;10;149
43;paravance-39.rennes.grid5000.fr;thermos-root-devel-WordCountTopology-0-f92ab484-9807-42a0-829f-7cf2a9b17a58;["topology_master"];1.25;1533765076.46331;5.47;12.95;7.043824789;9;117
44;paravance-44.rennes.grid5000.fr;thermos-root-devel-WordCountTopology-1-b01866df-a58a-4e2d-9f58-74b0fd7d4006;["container_1_Consume_and_count_1"];1.25;1533765086.6784;71.06;566.53;1513.80564291;10;151
44;paravance-39.rennes.grid5000.fr;thermos-root-devel-WordCountTopology-0-f92ab484-9807-42a0-829f-7cf2a9b17a58;["topology_master"];1.25;1533765086.67885;5.5;12.98;7.043824789;9;117
44;paravance-55.rennes.grid5000.fr;thermos-root-devel-WordCountTopology-2-d9015b70-6222-4f1d-8637-51f60eb8227f;["container_2_Emit_random_words_2"];1.25;1533765086.68779;36.22;256.26;259.70401487;10;149
45;paravance-55.rennes.grid5000.fr;thermos-root-devel-WordCountTopology-2-d9015b70-6222-4f1d-8637-51f60eb8227f;["container_2_Emit_random_words_2"];1.25;1533765096.90484;36.95;261.45;264.46575135;10;149
45;paravance-44.rennes.grid5000.fr;thermos-root-devel-WordCountTopology-1-b01866df-a58a-4e2d-9f58-74b0fd7d4006;["container_1_Consume_and_count_1"];1.25;1533765096.89775;72.42;576.97;1538.531795306;10;151
45;paravance-39.rennes.grid5000.fr;thermos-root-devel-WordCountTopology-0-f92ab484-9807-42a0-829f-7cf2a9b17a58;["topology_master"];1.25;1533765096.89642;5.58;13.1;7.043824789;9;117
46;paravance-44.rennes.grid5000.fr;thermos-root-devel-WordCountTopology-1-b01866df-a58a-4e2d-9f58-74b0fd7d4006;["container_1_Consume_and_count_1"];1.25;1533765107.11256;73.54;587.31;1557.798639294;10;151
46;paravance-39.rennes.grid5000.fr;thermos-root-devel-WordCountTopology-0-f92ab484-9807-42a0-829f-7cf2a9b17a58;["topology_master"];1.25;1533765107.11241;5.64;13.17;7.043824789;9;117
46;paravance-55.rennes.grid5000.fr;thermos-root-devel-WordCountTopology-2-d9015b70-6222-4f1d-8637-51f60eb8227f;["container_2_Emit_random_words_2"];1.25;1533765107.1209;37.31;264.02;266.632064373;10;149
47;paravance-55.rennes.grid5000.fr;thermos-root-devel-WordCountTopology-2-d9015b70-6222-4f1d-8637-51f60eb8227f;["container_2_Emit_random_words_2"];1.25;1533765117.3378;37.9;268.06;269.727463322;10;149
47;paravance-44.rennes.grid5000.fr;thermos-root-devel-WordCountTopology-1-b01866df-a58a-4e2d-9f58-74b0fd7d4006;["container_1_Consume_and_count_1"];1.25;1533765117.33025;74.84;597.7;1578.997524008;10;151
47;paravance-39.rennes.grid5000.fr;thermos-root-devel-WordCountTopology-0-f92ab484-9807-42a0-829f-7cf2a9b17a58;["topology_master"];1.25;1533765117.33045;5.71;13.26;7.043824789;9;117
48;paravance-39.rennes.grid5000.fr;thermos-root-devel-WordCountTopology-0-f92ab484-9807-42a0-829f-7cf2a9b17a58;["topology_master"];1.25;1533765127.54733;5.77;13.38;7.043824789;9;117
48;paravance-55.rennes.grid5000.fr;thermos-root-devel-WordCountTopology-2-d9015b70-6222-4f1d-8637-51f60eb8227f;["container_2_Emit_random_words_2"];1.25;1533765127.55625;38.54;272.73;272.857870695;10;149
48;paravance-44.rennes.grid5000.fr;thermos-root-devel-WordCountTopology-1-b01866df-a58a-4e2d-9f58-74b0fd7d4006;["container_1_Consume_and_count_1"];1.25;1533765127.54894;75.9;608.39;1600.510073534;10;151
49;paravance-44.rennes.grid5000.fr;thermos-root-devel-WordCountTopology-1-b01866df-a58a-4e2d-9f58-74b0fd7d4006;["container_1_Consume_and_count_1"];1.25;1533765137.76808;77.16;618.89;1626.334043827;10;151
49;paravance-55.rennes.grid5000.fr;thermos-root-devel-WordCountTopology-2-d9015b70-6222-4f1d-8637-51f60eb8227f;["container_2_Emit_random_words_2"];1.25;1533765137.77486;39.15;277.27;276.611233138;10;149
49;paravance-39.rennes.grid5000.fr;thermos-root-devel-WordCountTopology-0-f92ab484-9807-42a0-829f-7cf2a9b17a58;["topology_master"];1.25;1533765137.7682;5.86;13.52;7.043824789;9;117
50;paravance-44.rennes.grid5000.fr;thermos-root-devel-WordCountTopology-1-b01866df-a58a-4e2d-9f58-74b0fd7d4006;["container_1_Consume_and_count_1"];1.25;1533765147.98186;78.19;629.72;1650.286796141;10;151
50;paravance-39.rennes.grid5000.fr;thermos-root-devel-WordCountTopology-0-f92ab484-9807-42a0-829f-7cf2a9b17a58;["topology_master"];1.25;1533765147.98184;5.88;13.54;7.043824789;9;117
50;paravance-55.rennes.grid5000.fr;thermos-root-devel-WordCountTopology-2-d9015b70-6222-4f1d-8637-51f60eb8227f;["container_2_Emit_random_words_2"];1.25;1533765147.99174;39.81;282.42;281.391066049;10;149
51;paravance-39.rennes.grid5000.fr;thermos-root-devel-WordCountTopology-0-f92ab484-9807-42a0-829f-7cf2a9b17a58;["topology_master"];1.25;1533765158.2006;5.97;13.68;7.043824789;9;117
51;paravance-44.rennes.grid5000.fr;thermos-root-devel-WordCountTopology-1-b01866df-a58a-4e2d-9f58-74b0fd7d4006;["container_1_Consume_and_count_1"];1.25;1533765158.2008;79.18;640.51;1673.429751494;10;151
51;paravance-55.rennes.grid5000.fr;thermos-root-devel-WordCountTopology-2-d9015b70-6222-4f1d-8637-51f60eb8227f;["container_2_Emit_random_words_2"];1.25;1533765158.20936;40.31;285.72;284.303459349;10;149
52;paravance-55.rennes.grid5000.fr;thermos-root-devel-WordCountTopology-2-d9015b70-6222-4f1d-8637-51f60eb8227f;["container_2_Emit_random_words_2"];1.25;1533765168.42512;40.85;289.68;288.0408118;10;149
52;paravance-44.rennes.grid5000.fr;thermos-root-devel-WordCountTopology-1-b01866df-a58a-4e2d-9f58-74b0fd7d4006;["container_1_Consume_and_count_1"];1.25;1533765168.41924;80.57;650.7;1695.287402627;10;151
52;paravance-39.rennes.grid5000.fr;thermos-root-devel-WordCountTopology-0-f92ab484-9807-42a0-829f-7cf2a9b17a58;["topology_master"];1.25;1533765168.41799;6.03;13.76;7.043824789;9;117
53;paravance-55.rennes.grid5000.fr;thermos-root-devel-WordCountTopology-2-d9015b70-6222-4f1d-8637-51f60eb8227f;["container_2_Emit_random_words_2"];1.25;1533765178.54126;41.63;295.33;292.687180034;10;149
53;paravance-44.rennes.grid5000.fr;thermos-root-devel-WordCountTopology-1-b01866df-a58a-4e2d-9f58-74b0fd7d4006;["container_1_Consume_and_count_1"];1.25;1533765178.63279;81.8;661.37;1719.694504843;10;151
53;paravance-39.rennes.grid5000.fr;thermos-root-devel-WordCountTopology-0-f92ab484-9807-42a0-829f-7cf2a9b17a58;["topology_master"];1.25;1533765178.63277;6.1;13.85;7.043824789;9;117
54;paravance-44.rennes.grid5000.fr;thermos-root-devel-WordCountTopology-1-b01866df-a58a-4e2d-9f58-74b0fd7d4006;["container_1_Consume_and_count_1"];1.25;1533765188.85002;83.05;671.75;1743.603539978;10;151
54;paravance-39.rennes.grid5000.fr;thermos-root-devel-WordCountTopology-0-f92ab484-9807-42a0-829f-7cf2a9b17a58;["topology_master"];1.25;1533765188.84897;6.16;13.95;7.043824789;9;117
54;paravance-55.rennes.grid5000.fr;thermos-root-devel-WordCountTopology-2-d9015b70-6222-4f1d-8637-51f60eb8227f;["container_2_Emit_random_words_2"];1.25;1533765188.85697;42.29;300.2;296.750344405;10;149
55;paravance-44.rennes.grid5000.fr;thermos-root-devel-WordCountTopology-1-b01866df-a58a-4e2d-9f58-74b0fd7d4006;["container_1_Consume_and_count_1"];1.25;1533765199.06605;84.21;682.58;1772.450707869;10;151
55;paravance-55.rennes.grid5000.fr;thermos-root-devel-WordCountTopology-2-d9015b70-6222-4f1d-8637-51f60eb8227f;["container_2_Emit_random_words_2"];1.25;1533765199.07507;42.9;304.64;300.497410946;10;149
55;paravance-39.rennes.grid5000.fr;thermos-root-devel-WordCountTopology-0-f92ab484-9807-42a0-829f-7cf2a9b17a58;["topology_master"];1.25;1533765199.06719;6.25;14.08;7.043824789;9;117
56;paravance-44.rennes.grid5000.fr;thermos-root-devel-WordCountTopology-1-b01866df-a58a-4e2d-9f58-74b0fd7d4006;["container_1_Consume_and_count_1"];1.25;1533765209.28277;85.34;693.24;1799.287329761;10;151
56;paravance-39.rennes.grid5000.fr;thermos-root-devel-WordCountTopology-0-f92ab484-9807-42a0-829f-7cf2a9b17a58;["topology_master"];1.25;1533765209.28302;6.28;14.1;7.043824789;9;117
56;paravance-55.rennes.grid5000.fr;thermos-root-devel-WordCountTopology-2-d9015b70-6222-4f1d-8637-51f60eb8227f;["container_2_Emit_random_words_2"];1.25;1533765209.2919;43.36;307.71;302.941222131;10;149
57;paravance-39.rennes.grid5000.fr;thermos-root-devel-WordCountTopology-0-f92ab484-9807-42a0-829f-7cf2a9b17a58;["topology_master"];1.25;1533765219.39948;6.36;14.22;7.043824789;9;117
57;paravance-44.rennes.grid5000.fr;thermos-root-devel-WordCountTopology-1-b01866df-a58a-4e2d-9f58-74b0fd7d4006;["container_1_Consume_and_count_1"];1.25;1533765219.49979;86.64;703.93;1830.619279487;10;151
57;paravance-55.rennes.grid5000.fr;thermos-root-devel-WordCountTopology-2-d9015b70-6222-4f1d-8637-51f60eb8227f;["container_2_Emit_random_words_2"];1.25;1533765219.50793;43.94;311.71;306.257720409;10;149
58;paravance-44.rennes.grid5000.fr;thermos-root-devel-WordCountTopology-1-b01866df-a58a-4e2d-9f58-74b0fd7d4006;["container_1_Consume_and_count_1"];1.25;1533765229.71257;87.88;714.5;1859.763660816;10;151
58;paravance-39.rennes.grid5000.fr;thermos-root-devel-WordCountTopology-0-f92ab484-9807-42a0-829f-7cf2a9b17a58;["topology_master"];1.25;1533765229.71409;6.42;14.29;7.043824789;9;117
58;paravance-55.rennes.grid5000.fr;thermos-root-devel-WordCountTopology-2-d9015b70-6222-4f1d-8637-51f60eb8227f;["container_2_Emit_random_words_2"];1.25;1533765229.72311;44.51;316.14;310.039133282;10;149
59;paravance-44.rennes.grid5000.fr;thermos-root-devel-WordCountTopology-1-b01866df-a58a-4e2d-9f58-74b0fd7d4006;["container_1_Consume_and_count_1"];1.25;1533765239.93217;89.26;725.02;1892.347131225;10;151
59;paravance-55.rennes.grid5000.fr;thermos-root-devel-WordCountTopology-2-d9015b70-6222-4f1d-8637-51f60eb8227f;["container_2_Emit_random_words_2"];1.25;1533765239.93932;44.98;319.12;312.451160865;10;149
59;paravance-39.rennes.grid5000.fr;thermos-root-devel-WordCountTopology-0-f92ab484-9807-42a0-829f-7cf2a9b17a58;["topology_master"];1.25;1533765239.93101;6.49;14.4;7.043824789;9;117
60;paravance-39.rennes.grid5000.fr;thermos-root-devel-WordCountTopology-0-f92ab484-9807-42a0-829f-7cf2a9b17a58;["topology_master"];1.25;1533765250.14633;6.55;14.47;7.043824789;9;117
60;paravance-44.rennes.grid5000.fr;thermos-root-devel-WordCountTopology-1-b01866df-a58a-4e2d-9f58-74b0fd7d4006;["container_1_Consume_and_count_1"];1.25;1533765250.14754;90.67;735.53;1924.026186502;10;151
60;paravance-55.rennes.grid5000.fr;thermos-root-devel-WordCountTopology-2-d9015b70-6222-4f1d-8637-51f60eb8227f;["container_2_Emit_random_words_2"];1.25;1533765250.15621;45.6;323.72;316.433130033;10;149
