mesure_id;slave_id;executor_id;heron_instances;cpus_limit;timestamp_B;cpus_system_time_secs_B;cpus_user_time_secs_B;cpus_throttled_time_secs_B;processes;threads
0;paravance-30.rennes.grid5000.fr;thermos-root-devel-WordCountTopology-0-04e9d41e-bfa3-4137-82c4-76e90b4f04b5;["topology_master"];3.25;1533232908.8063;2.55;8.1;0.0;9;117
0;paravance-58.rennes.grid5000.fr;thermos-root-devel-WordCountTopology-2-f546d34a-f95b-48e4-a259-1b8230a611a0;["container_2_Emit_random_words_2"];3.25;1533232908.8437;38.72;215.19;4.942548744;10;149
0;paravance-44.rennes.grid5000.fr;thermos-root-devel-WordCountTopology-1-8b9b7f55-5808-446f-a535-323d657e23b3;["container_1_Consume_and_count_1"];3.25;1533232908.84931;52.59;289.87;10.424124403;10;149
1;paravance-44.rennes.grid5000.fr;thermos-root-devel-WordCountTopology-1-8b9b7f55-5808-446f-a535-323d657e23b3;["container_1_Consume_and_count_1"];3.25;1533232918.96897;56.49;313.67;11.065532024;10;149
1;paravance-30.rennes.grid5000.fr;thermos-root-devel-WordCountTopology-0-04e9d41e-bfa3-4137-82c4-76e90b4f04b5;["topology_master"];3.25;1533232918.93219;2.64;8.23;0.0;9;117
1;paravance-58.rennes.grid5000.fr;thermos-root-devel-WordCountTopology-2-f546d34a-f95b-48e4-a259-1b8230a611a0;["container_2_Emit_random_words_2"];3.25;1533232919.06339;41.6;231.45;4.942548744;10;149
2;paravance-58.rennes.grid5000.fr;thermos-root-devel-WordCountTopology-2-f546d34a-f95b-48e4-a259-1b8230a611a0;["container_2_Emit_random_words_2"];3.25;1533232929.28275;44.53;248.18;4.942548744;10;149
2;paravance-30.rennes.grid5000.fr;thermos-root-devel-WordCountTopology-0-04e9d41e-bfa3-4137-82c4-76e90b4f04b5;["topology_master"];3.25;1533232929.25055;2.67;8.26;0.0;9;117
2;paravance-44.rennes.grid5000.fr;thermos-root-devel-WordCountTopology-1-8b9b7f55-5808-446f-a535-323d657e23b3;["container_1_Consume_and_count_1"];3.25;1533232929.28929;60.58;337.54;11.58174624;10;149
3;paravance-44.rennes.grid5000.fr;thermos-root-devel-WordCountTopology-1-8b9b7f55-5808-446f-a535-323d657e23b3;["container_1_Consume_and_count_1"];3.25;1533232939.40924;64.39;361.63;12.117818306;10;149
3;paravance-58.rennes.grid5000.fr;thermos-root-devel-WordCountTopology-2-f546d34a-f95b-48e4-a259-1b8230a611a0;["container_2_Emit_random_words_2"];3.25;1533232939.50337;47.31;263.45;4.942548744;10;149
3;paravance-30.rennes.grid5000.fr;thermos-root-devel-WordCountTopology-0-04e9d41e-bfa3-4137-82c4-76e90b4f04b5;["topology_master"];3.25;1533232939.4714;2.76;8.39;0.0;9;117
4;paravance-44.rennes.grid5000.fr;thermos-root-devel-WordCountTopology-1-8b9b7f55-5808-446f-a535-323d657e23b3;["container_1_Consume_and_count_1"];3.25;1533232949.72877;68.43;387.19;12.96913853;10;149
4;paravance-30.rennes.grid5000.fr;thermos-root-devel-WordCountTopology-0-04e9d41e-bfa3-4137-82c4-76e90b4f04b5;["topology_master"];3.25;1533232949.69188;2.81;8.47;0.0;9;117
4;paravance-58.rennes.grid5000.fr;thermos-root-devel-WordCountTopology-2-f546d34a-f95b-48e4-a259-1b8230a611a0;["container_2_Emit_random_words_2"];3.25;1533232949.7257;50.17;279.15;4.942548744;10;149
5;paravance-44.rennes.grid5000.fr;thermos-root-devel-WordCountTopology-1-8b9b7f55-5808-446f-a535-323d657e23b3;["container_1_Consume_and_count_1"];3.25;1533232959.94544;72.53;412.13;14.179111814;10;149
5;paravance-30.rennes.grid5000.fr;thermos-root-devel-WordCountTopology-0-04e9d41e-bfa3-4137-82c4-76e90b4f04b5;["topology_master"];3.25;1533232959.91225;2.89;8.56;0.0;9;117
5;paravance-58.rennes.grid5000.fr;thermos-root-devel-WordCountTopology-2-f546d34a-f95b-48e4-a259-1b8230a611a0;["container_2_Emit_random_words_2"];3.25;1533232959.94541;53.08;295.29;4.942548744;10;149
6;paravance-44.rennes.grid5000.fr;thermos-root-devel-WordCountTopology-1-8b9b7f55-5808-446f-a535-323d657e23b3;["container_1_Consume_and_count_1"];3.25;1533232970.15995;76.5;436.97;15.210659955;10;149
6;paravance-30.rennes.grid5000.fr;thermos-root-devel-WordCountTopology-0-04e9d41e-bfa3-4137-82c4-76e90b4f04b5;["topology_master"];3.25;1533232970.13222;2.96;8.74;0.0;9;117
6;paravance-58.rennes.grid5000.fr;thermos-root-devel-WordCountTopology-2-f546d34a-f95b-48e4-a259-1b8230a611a0;["container_2_Emit_random_words_2"];3.25;1533232970.16526;55.9;311.06;4.942548744;10;149
7;paravance-44.rennes.grid5000.fr;thermos-root-devel-WordCountTopology-1-8b9b7f55-5808-446f-a535-323d657e23b3;["container_1_Consume_and_count_1"];3.25;1533232980.37232;80.24;460.92;15.974293975;10;149
7;paravance-58.rennes.grid5000.fr;thermos-root-devel-WordCountTopology-2-f546d34a-f95b-48e4-a259-1b8230a611a0;["container_2_Emit_random_words_2"];3.25;1533232980.38324;58.69;326.15;4.942548744;10;149
7;paravance-30.rennes.grid5000.fr;thermos-root-devel-WordCountTopology-0-04e9d41e-bfa3-4137-82c4-76e90b4f04b5;["topology_master"];3.25;1533232980.35103;3.05;8.87;0.0;9;117
8;paravance-44.rennes.grid5000.fr;thermos-root-devel-WordCountTopology-1-8b9b7f55-5808-446f-a535-323d657e23b3;["container_1_Consume_and_count_1"];3.25;1533232990.58851;84.29;483.16;16.20778862;10;149
8;paravance-58.rennes.grid5000.fr;thermos-root-devel-WordCountTopology-2-f546d34a-f95b-48e4-a259-1b8230a611a0;["container_2_Emit_random_words_2"];3.25;1533232990.59955;61.61;343.85;4.942548744;10;149
8;paravance-30.rennes.grid5000.fr;thermos-root-devel-WordCountTopology-0-04e9d41e-bfa3-4137-82c4-76e90b4f04b5;["topology_master"];3.25;1533232990.57075;3.08;8.9;0.0;9;117
9;paravance-30.rennes.grid5000.fr;thermos-root-devel-WordCountTopology-0-04e9d41e-bfa3-4137-82c4-76e90b4f04b5;["topology_master"];3.25;1533233000.7911;3.17;9.02;0.0;9;117
9;paravance-58.rennes.grid5000.fr;thermos-root-devel-WordCountTopology-2-f546d34a-f95b-48e4-a259-1b8230a611a0;["container_2_Emit_random_words_2"];3.25;1533233000.81517;64.88;361.84;4.942548744;10;149
9;paravance-44.rennes.grid5000.fr;thermos-root-devel-WordCountTopology-1-8b9b7f55-5808-446f-a535-323d657e23b3;["container_1_Consume_and_count_1"];3.25;1533233000.80573;88.81;506.4;17.278589267;10;149
10;paravance-44.rennes.grid5000.fr;thermos-root-devel-WordCountTopology-1-8b9b7f55-5808-446f-a535-323d657e23b3;["container_1_Consume_and_count_1"];3.25;1533233011.02071;92.48;530.43;18.172991815;10;149
10;paravance-30.rennes.grid5000.fr;thermos-root-devel-WordCountTopology-0-04e9d41e-bfa3-4137-82c4-76e90b4f04b5;["topology_master"];3.25;1533233011.01326;3.23;9.1;0.0;9;117
10;paravance-58.rennes.grid5000.fr;thermos-root-devel-WordCountTopology-2-f546d34a-f95b-48e4-a259-1b8230a611a0;["container_2_Emit_random_words_2"];3.25;1533233011.03181;67.51;376.73;4.942548744;10;149
11;paravance-58.rennes.grid5000.fr;thermos-root-devel-WordCountTopology-2-f546d34a-f95b-48e4-a259-1b8230a611a0;["container_2_Emit_random_words_2"];3.25;1533233021.2458;70.39;392.3;4.951236793;10;149
11;paravance-30.rennes.grid5000.fr;thermos-root-devel-WordCountTopology-0-04e9d41e-bfa3-4137-82c4-76e90b4f04b5;["topology_master"];3.25;1533233021.23349;3.34;9.25;0.0;9;117
11;paravance-44.rennes.grid5000.fr;thermos-root-devel-WordCountTopology-1-8b9b7f55-5808-446f-a535-323d657e23b3;["container_1_Consume_and_count_1"];3.25;1533233021.23794;96.41;553.86;19.039383793;10;149
12;paravance-58.rennes.grid5000.fr;thermos-root-devel-WordCountTopology-2-f546d34a-f95b-48e4-a259-1b8230a611a0;["container_2_Emit_random_words_2"];3.25;1533233031.46171;73.18;407.8;4.951236793;10;149
12;paravance-30.rennes.grid5000.fr;thermos-root-devel-WordCountTopology-0-04e9d41e-bfa3-4137-82c4-76e90b4f04b5;["topology_master"];3.25;1533233031.4548;3.38;9.41;0.0;9;117
12;paravance-44.rennes.grid5000.fr;thermos-root-devel-WordCountTopology-1-8b9b7f55-5808-446f-a535-323d657e23b3;["container_1_Consume_and_count_1"];3.25;1533233031.453;100.42;578.75;20.027969884;10;149
13;paravance-44.rennes.grid5000.fr;thermos-root-devel-WordCountTopology-1-8b9b7f55-5808-446f-a535-323d657e23b3;["container_1_Consume_and_count_1"];3.25;1533233041.66727;104.34;602.91;21.181581493;10;149
13;paravance-58.rennes.grid5000.fr;thermos-root-devel-WordCountTopology-2-f546d34a-f95b-48e4-a259-1b8230a611a0;["container_2_Emit_random_words_2"];3.25;1533233041.6776;76.05;423.7;4.951236793;10;149
13;paravance-30.rennes.grid5000.fr;thermos-root-devel-WordCountTopology-0-04e9d41e-bfa3-4137-82c4-76e90b4f04b5;["topology_master"];3.25;1533233041.67479;3.48;9.54;0.0;9;117
14;paravance-44.rennes.grid5000.fr;thermos-root-devel-WordCountTopology-1-8b9b7f55-5808-446f-a535-323d657e23b3;["container_1_Consume_and_count_1"];3.25;1533233051.88351;108.09;627.5;22.101479642;10;149
14;paravance-30.rennes.grid5000.fr;thermos-root-devel-WordCountTopology-0-04e9d41e-bfa3-4137-82c4-76e90b4f04b5;["topology_master"];3.25;1533233051.89318;3.53;9.61;0.0;9;117
14;paravance-58.rennes.grid5000.fr;thermos-root-devel-WordCountTopology-2-f546d34a-f95b-48e4-a259-1b8230a611a0;["container_2_Emit_random_words_2"];3.25;1533233051.89448;78.69;438.22;4.951236793;10;149
15;paravance-44.rennes.grid5000.fr;thermos-root-devel-WordCountTopology-1-8b9b7f55-5808-446f-a535-323d657e23b3;["container_1_Consume_and_count_1"];3.25;1533233062.09933;111.83;651.06;22.739090281;10;149
15;paravance-58.rennes.grid5000.fr;thermos-root-devel-WordCountTopology-2-f546d34a-f95b-48e4-a259-1b8230a611a0;["container_2_Emit_random_words_2"];3.25;1533233062.10901;81.34;452.66;4.951236793;10;149
15;paravance-30.rennes.grid5000.fr;thermos-root-devel-WordCountTopology-0-04e9d41e-bfa3-4137-82c4-76e90b4f04b5;["topology_master"];3.25;1533233062.10956;3.59;9.7;0.0;9;117
16;paravance-58.rennes.grid5000.fr;thermos-root-devel-WordCountTopology-2-f546d34a-f95b-48e4-a259-1b8230a611a0;["container_2_Emit_random_words_2"];3.25;1533233072.32273;84.06;468.05;4.951236793;10;149
16;paravance-44.rennes.grid5000.fr;thermos-root-devel-WordCountTopology-1-8b9b7f55-5808-446f-a535-323d657e23b3;["container_1_Consume_and_count_1"];3.25;1533233072.31386;115.73;675.07;23.528817939;10;149
16;paravance-30.rennes.grid5000.fr;thermos-root-devel-WordCountTopology-0-04e9d41e-bfa3-4137-82c4-76e90b4f04b5;["topology_master"];3.25;1533233072.32355;3.65;9.77;0.0;9;117
17;paravance-44.rennes.grid5000.fr;thermos-root-devel-WordCountTopology-1-8b9b7f55-5808-446f-a535-323d657e23b3;["container_1_Consume_and_count_1"];3.25;1533233082.52806;119.64;698.64;24.234686911;10;149
17;paravance-30.rennes.grid5000.fr;thermos-root-devel-WordCountTopology-0-04e9d41e-bfa3-4137-82c4-76e90b4f04b5;["topology_master"];3.25;1533233082.53769;3.77;9.99;0.0;9;117
17;paravance-58.rennes.grid5000.fr;thermos-root-devel-WordCountTopology-2-f546d34a-f95b-48e4-a259-1b8230a611a0;["container_2_Emit_random_words_2"];3.25;1533233082.53884;86.86;484.25;4.951236793;10;149
18;paravance-58.rennes.grid5000.fr;thermos-root-devel-WordCountTopology-2-f546d34a-f95b-48e4-a259-1b8230a611a0;["container_2_Emit_random_words_2"];3.25;1533233092.75392;89.52;498.46;4.951236793;10;149
18;paravance-44.rennes.grid5000.fr;thermos-root-devel-WordCountTopology-1-8b9b7f55-5808-446f-a535-323d657e23b3;["container_1_Consume_and_count_1"];3.25;1533233092.74516;123.46;722.89;24.985067347;10;149
18;paravance-30.rennes.grid5000.fr;thermos-root-devel-WordCountTopology-0-04e9d41e-bfa3-4137-82c4-76e90b4f04b5;["topology_master"];3.25;1533233092.75557;3.8;10.02;0.0;9;117
19;paravance-30.rennes.grid5000.fr;thermos-root-devel-WordCountTopology-0-04e9d41e-bfa3-4137-82c4-76e90b4f04b5;["topology_master"];3.25;1533233102.87175;3.88;10.14;0.0;9;117
19;paravance-58.rennes.grid5000.fr;thermos-root-devel-WordCountTopology-2-f546d34a-f95b-48e4-a259-1b8230a611a0;["container_2_Emit_random_words_2"];3.25;1533233102.87252;92.36;514.39;4.951236793;10;149
19;paravance-44.rennes.grid5000.fr;thermos-root-devel-WordCountTopology-1-8b9b7f55-5808-446f-a535-323d657e23b3;["container_1_Consume_and_count_1"];3.25;1533233102.95958;127.49;746.82;25.592633534;10;149
20;paravance-44.rennes.grid5000.fr;thermos-root-devel-WordCountTopology-1-8b9b7f55-5808-446f-a535-323d657e23b3;["container_1_Consume_and_count_1"];3.25;1533233113.17442;131.47;770.47;26.282686997;10;149
20;paravance-58.rennes.grid5000.fr;thermos-root-devel-WordCountTopology-2-f546d34a-f95b-48e4-a259-1b8230a611a0;["container_2_Emit_random_words_2"];3.25;1533233113.18561;95.16;530.43;4.951236793;10;149
20;paravance-30.rennes.grid5000.fr;thermos-root-devel-WordCountTopology-0-04e9d41e-bfa3-4137-82c4-76e90b4f04b5;["topology_master"];3.25;1533233113.18506;3.94;10.22;0.0;9;117
21;paravance-30.rennes.grid5000.fr;thermos-root-devel-WordCountTopology-0-04e9d41e-bfa3-4137-82c4-76e90b4f04b5;["topology_master"];3.25;1533233123.40003;4.0;10.29;0.0;9;117
21;paravance-58.rennes.grid5000.fr;thermos-root-devel-WordCountTopology-2-f546d34a-f95b-48e4-a259-1b8230a611a0;["container_2_Emit_random_words_2"];3.25;1533233123.40163;97.94;546.17;4.951236793;10;149
21;paravance-44.rennes.grid5000.fr;thermos-root-devel-WordCountTopology-1-8b9b7f55-5808-446f-a535-323d657e23b3;["container_1_Consume_and_count_1"];3.25;1533233123.39176;135.4;794.38;26.795167938;10;149
22;paravance-58.rennes.grid5000.fr;thermos-root-devel-WordCountTopology-2-f546d34a-f95b-48e4-a259-1b8230a611a0;["container_2_Emit_random_words_2"];3.25;1533233133.61561;100.72;561.72;4.951236793;10;149
22;paravance-44.rennes.grid5000.fr;thermos-root-devel-WordCountTopology-1-8b9b7f55-5808-446f-a535-323d657e23b3;["container_1_Consume_and_count_1"];3.25;1533233133.6056;139.3;818.6;27.440508707;10;149
22;paravance-30.rennes.grid5000.fr;thermos-root-devel-WordCountTopology-0-04e9d41e-bfa3-4137-82c4-76e90b4f04b5;["topology_master"];3.25;1533233133.61569;4.05;10.36;0.0;9;117
23;paravance-44.rennes.grid5000.fr;thermos-root-devel-WordCountTopology-1-8b9b7f55-5808-446f-a535-323d657e23b3;["container_1_Consume_and_count_1"];3.25;1533233143.82249;143.22;843.35;28.473733811;10;149
23;paravance-30.rennes.grid5000.fr;thermos-root-devel-WordCountTopology-0-04e9d41e-bfa3-4137-82c4-76e90b4f04b5;["topology_master"];3.25;1533233143.83278;4.17;10.55;0.0;9;117
23;paravance-58.rennes.grid5000.fr;thermos-root-devel-WordCountTopology-2-f546d34a-f95b-48e4-a259-1b8230a611a0;["container_2_Emit_random_words_2"];3.25;1533233143.83373;103.44;576.16;4.954039279;10;149
24;paravance-44.rennes.grid5000.fr;thermos-root-devel-WordCountTopology-1-8b9b7f55-5808-446f-a535-323d657e23b3;["container_1_Consume_and_count_1"];3.25;1533233154.03911;147.3;867.24;29.200163387;10;149
24;paravance-58.rennes.grid5000.fr;thermos-root-devel-WordCountTopology-2-f546d34a-f95b-48e4-a259-1b8230a611a0;["container_2_Emit_random_words_2"];3.25;1533233154.04861;106.29;592.26;4.954039279;10;149
24;paravance-30.rennes.grid5000.fr;thermos-root-devel-WordCountTopology-0-04e9d41e-bfa3-4137-82c4-76e90b4f04b5;["topology_master"];3.25;1533233154.04898;4.19;10.58;0.0;9;117
25;paravance-44.rennes.grid5000.fr;thermos-root-devel-WordCountTopology-1-8b9b7f55-5808-446f-a535-323d657e23b3;["container_1_Consume_and_count_1"];3.25;1533233164.25439;151.38;890.99;29.866534814;10;149
25;paravance-58.rennes.grid5000.fr;thermos-root-devel-WordCountTopology-2-f546d34a-f95b-48e4-a259-1b8230a611a0;["container_2_Emit_random_words_2"];3.25;1533233164.26551;109.24;608.84;4.954039279;10;149
25;paravance-30.rennes.grid5000.fr;thermos-root-devel-WordCountTopology-0-04e9d41e-bfa3-4137-82c4-76e90b4f04b5;["topology_master"];3.25;1533233164.26437;4.28;10.7;0.0;9;117
26;paravance-44.rennes.grid5000.fr;thermos-root-devel-WordCountTopology-1-8b9b7f55-5808-446f-a535-323d657e23b3;["container_1_Consume_and_count_1"];3.25;1533233174.46922;155.5;915.16;30.574173747;10;149
26;paravance-58.rennes.grid5000.fr;thermos-root-devel-WordCountTopology-2-f546d34a-f95b-48e4-a259-1b8230a611a0;["container_2_Emit_random_words_2"];3.25;1533233174.48087;112.17;625.66;4.954039279;10;149
26;paravance-30.rennes.grid5000.fr;thermos-root-devel-WordCountTopology-0-04e9d41e-bfa3-4137-82c4-76e90b4f04b5;["topology_master"];3.25;1533233174.48033;4.33;10.77;0.0;9;117
27;paravance-44.rennes.grid5000.fr;thermos-root-devel-WordCountTopology-1-8b9b7f55-5808-446f-a535-323d657e23b3;["container_1_Consume_and_count_1"];3.25;1533233184.68694;159.46;939.75;31.319957774;10;149
27;paravance-30.rennes.grid5000.fr;thermos-root-devel-WordCountTopology-0-04e9d41e-bfa3-4137-82c4-76e90b4f04b5;["topology_master"];3.25;1533233184.69712;4.39;10.84;0.0;9;117
27;paravance-58.rennes.grid5000.fr;thermos-root-devel-WordCountTopology-2-f546d34a-f95b-48e4-a259-1b8230a611a0;["container_2_Emit_random_words_2"];3.25;1533233184.69881;115.08;641.71;4.954039279;10;149
28;paravance-44.rennes.grid5000.fr;thermos-root-devel-WordCountTopology-1-8b9b7f55-5808-446f-a535-323d657e23b3;["container_1_Consume_and_count_1"];3.25;1533233194.90486;163.4;964.25;32.07183794;10;149
28;paravance-30.rennes.grid5000.fr;thermos-root-devel-WordCountTopology-0-04e9d41e-bfa3-4137-82c4-76e90b4f04b5;["topology_master"];3.25;1533233194.91281;4.44;10.92;0.0;9;117
28;paravance-58.rennes.grid5000.fr;thermos-root-devel-WordCountTopology-2-f546d34a-f95b-48e4-a259-1b8230a611a0;["container_2_Emit_random_words_2"];3.25;1533233194.91585;117.87;657.2;4.954039279;10;149
29;paravance-58.rennes.grid5000.fr;thermos-root-devel-WordCountTopology-2-f546d34a-f95b-48e4-a259-1b8230a611a0;["container_2_Emit_random_words_2"];3.25;1533233205.13987;120.68;672.28;4.954039279;10;149
29;paravance-44.rennes.grid5000.fr;thermos-root-devel-WordCountTopology-1-8b9b7f55-5808-446f-a535-323d657e23b3;["container_1_Consume_and_count_1"];3.25;1533233205.13134;167.21;987.78;32.94747301;10;149
29;paravance-30.rennes.grid5000.fr;thermos-root-devel-WordCountTopology-0-04e9d41e-bfa3-4137-82c4-76e90b4f04b5;["topology_master"];3.25;1533233205.14193;4.55;11.09;0.0;9;117
30;paravance-58.rennes.grid5000.fr;thermos-root-devel-WordCountTopology-2-f546d34a-f95b-48e4-a259-1b8230a611a0;["container_2_Emit_random_words_2"];3.25;1533233215.35817;123.58;688.02;4.954039279;10;149
30;paravance-44.rennes.grid5000.fr;thermos-root-devel-WordCountTopology-1-8b9b7f55-5808-446f-a535-323d657e23b3;["container_1_Consume_and_count_1"];3.25;1533233215.34861;171.15;1013.14;33.835515992;10;149
30;paravance-30.rennes.grid5000.fr;thermos-root-devel-WordCountTopology-0-04e9d41e-bfa3-4137-82c4-76e90b4f04b5;["topology_master"];3.25;1533233215.36426;4.6;11.17;0.0;9;117
31;paravance-44.rennes.grid5000.fr;thermos-root-devel-WordCountTopology-1-8b9b7f55-5808-446f-a535-323d657e23b3;["container_1_Consume_and_count_1"];3.25;1533233225.56902;174.98;1036.5;34.331769845;10;149
31;paravance-30.rennes.grid5000.fr;thermos-root-devel-WordCountTopology-0-04e9d41e-bfa3-4137-82c4-76e90b4f04b5;["topology_master"];3.25;1533233225.5811;4.66;11.24;0.0;9;117
31;paravance-58.rennes.grid5000.fr;thermos-root-devel-WordCountTopology-2-f546d34a-f95b-48e4-a259-1b8230a611a0;["container_2_Emit_random_words_2"];3.25;1533233225.58476;126.29;703.17;4.954039279;10;149
32;paravance-44.rennes.grid5000.fr;thermos-root-devel-WordCountTopology-1-8b9b7f55-5808-446f-a535-323d657e23b3;["container_1_Consume_and_count_1"];3.25;1533233235.78726;178.93;1061.18;35.407385995;10;149
32;paravance-30.rennes.grid5000.fr;thermos-root-devel-WordCountTopology-0-04e9d41e-bfa3-4137-82c4-76e90b4f04b5;["topology_master"];3.25;1533233235.79786;4.74;11.36;0.0;9;117
32;paravance-58.rennes.grid5000.fr;thermos-root-devel-WordCountTopology-2-f546d34a-f95b-48e4-a259-1b8230a611a0;["container_2_Emit_random_words_2"];3.25;1533233235.80329;129.21;719.13;4.954039279;10;149
33;paravance-44.rennes.grid5000.fr;thermos-root-devel-WordCountTopology-1-8b9b7f55-5808-446f-a535-323d657e23b3;["container_1_Consume_and_count_1"];3.25;1533233246.0046;182.83;1084.98;36.209514198;10;149
33;paravance-58.rennes.grid5000.fr;thermos-root-devel-WordCountTopology-2-f546d34a-f95b-48e4-a259-1b8230a611a0;["container_2_Emit_random_words_2"];3.25;1533233246.01562;131.97;734.59;4.954039279;10;149
33;paravance-30.rennes.grid5000.fr;thermos-root-devel-WordCountTopology-0-04e9d41e-bfa3-4137-82c4-76e90b4f04b5;["topology_master"];3.25;1533233246.01534;4.77;11.38;0.0;9;117
34;paravance-58.rennes.grid5000.fr;thermos-root-devel-WordCountTopology-2-f546d34a-f95b-48e4-a259-1b8230a611a0;["container_2_Emit_random_words_2"];3.25;1533233256.23035;134.82;750.19;4.954039279;10;149
34;paravance-30.rennes.grid5000.fr;thermos-root-devel-WordCountTopology-0-04e9d41e-bfa3-4137-82c4-76e90b4f04b5;["topology_master"];3.25;1533233256.22962;4.88;11.52;0.0;9;117
34;paravance-44.rennes.grid5000.fr;thermos-root-devel-WordCountTopology-1-8b9b7f55-5808-446f-a535-323d657e23b3;["container_1_Consume_and_count_1"];3.25;1533233256.22074;186.82;1108.85;37.142269353;10;149
35;paravance-58.rennes.grid5000.fr;thermos-root-devel-WordCountTopology-2-f546d34a-f95b-48e4-a259-1b8230a611a0;["container_2_Emit_random_words_2"];3.25;1533233266.44622;137.55;764.8;4.954039279;10;149
35;paravance-30.rennes.grid5000.fr;thermos-root-devel-WordCountTopology-0-04e9d41e-bfa3-4137-82c4-76e90b4f04b5;["topology_master"];3.25;1533233266.44657;4.94;11.7;0.0;9;117
35;paravance-44.rennes.grid5000.fr;thermos-root-devel-WordCountTopology-1-8b9b7f55-5808-446f-a535-323d657e23b3;["container_1_Consume_and_count_1"];3.25;1533233266.43811;190.62;1133.31;38.207157612;10;149
36;paravance-44.rennes.grid5000.fr;thermos-root-devel-WordCountTopology-1-8b9b7f55-5808-446f-a535-323d657e23b3;["container_1_Consume_and_count_1"];3.25;1533233276.65329;194.45;1157.26;38.823553048;10;149
36;paravance-58.rennes.grid5000.fr;thermos-root-devel-WordCountTopology-2-f546d34a-f95b-48e4-a259-1b8230a611a0;["container_2_Emit_random_words_2"];3.25;1533233276.6628;140.31;779.91;4.954039279;10;149
36;paravance-30.rennes.grid5000.fr;thermos-root-devel-WordCountTopology-0-04e9d41e-bfa3-4137-82c4-76e90b4f04b5;["topology_master"];3.25;1533233276.66235;5.0;11.77;0.0;9;117
37;paravance-44.rennes.grid5000.fr;thermos-root-devel-WordCountTopology-1-8b9b7f55-5808-446f-a535-323d657e23b3;["container_1_Consume_and_count_1"];3.25;1533233286.86804;198.32;1181.2;39.570188359;10;149
37;paravance-58.rennes.grid5000.fr;thermos-root-devel-WordCountTopology-2-f546d34a-f95b-48e4-a259-1b8230a611a0;["container_2_Emit_random_words_2"];3.25;1533233286.87868;143.13;795.37;4.954039279;10;149
37;paravance-30.rennes.grid5000.fr;thermos-root-devel-WordCountTopology-0-04e9d41e-bfa3-4137-82c4-76e90b4f04b5;["topology_master"];3.25;1533233286.87797;5.05;11.84;0.0;9;117
38;paravance-44.rennes.grid5000.fr;thermos-root-devel-WordCountTopology-1-8b9b7f55-5808-446f-a535-323d657e23b3;["container_1_Consume_and_count_1"];3.25;1533233297.0828;202.21;1205.67;40.360673403;10;149
38;paravance-58.rennes.grid5000.fr;thermos-root-devel-WordCountTopology-2-f546d34a-f95b-48e4-a259-1b8230a611a0;["container_2_Emit_random_words_2"];3.25;1533233297.09382;145.88;810.79;4.954039279;10;149
38;paravance-30.rennes.grid5000.fr;thermos-root-devel-WordCountTopology-0-04e9d41e-bfa3-4137-82c4-76e90b4f04b5;["topology_master"];3.25;1533233297.09387;5.14;11.97;0.0;9;117
39;paravance-58.rennes.grid5000.fr;thermos-root-devel-WordCountTopology-2-f546d34a-f95b-48e4-a259-1b8230a611a0;["container_2_Emit_random_words_2"];3.25;1533233307.30917;148.6;825.63;4.954039279;10;149
39;paravance-30.rennes.grid5000.fr;thermos-root-devel-WordCountTopology-0-04e9d41e-bfa3-4137-82c4-76e90b4f04b5;["topology_master"];3.25;1533233307.30972;5.17;11.99;0.0;9;117
39;paravance-44.rennes.grid5000.fr;thermos-root-devel-WordCountTopology-1-8b9b7f55-5808-446f-a535-323d657e23b3;["container_1_Consume_and_count_1"];3.25;1533233307.30117;206.06;1229.83;40.908184391;10;149
40;paravance-58.rennes.grid5000.fr;thermos-root-devel-WordCountTopology-2-f546d34a-f95b-48e4-a259-1b8230a611a0;["container_2_Emit_random_words_2"];3.25;1533233317.53517;151.36;840.51;4.954039279;10;149
40;paravance-44.rennes.grid5000.fr;thermos-root-devel-WordCountTopology-1-8b9b7f55-5808-446f-a535-323d657e23b3;["container_1_Consume_and_count_1"];3.25;1533233317.52699;210.01;1253.63;41.751623119;10;149
40;paravance-30.rennes.grid5000.fr;thermos-root-devel-WordCountTopology-0-04e9d41e-bfa3-4137-82c4-76e90b4f04b5;["topology_master"];3.25;1533233317.53781;5.26;12.12;0.0;9;117
41;paravance-44.rennes.grid5000.fr;thermos-root-devel-WordCountTopology-1-8b9b7f55-5808-446f-a535-323d657e23b3;["container_1_Consume_and_count_1"];3.25;1533233327.74181;214.03;1277.62;42.494420946;10;149
41;paravance-58.rennes.grid5000.fr;thermos-root-devel-WordCountTopology-2-f546d34a-f95b-48e4-a259-1b8230a611a0;["container_2_Emit_random_words_2"];3.25;1533233327.75354;154.16;856.37;4.954039279;10;149
41;paravance-30.rennes.grid5000.fr;thermos-root-devel-WordCountTopology-0-04e9d41e-bfa3-4137-82c4-76e90b4f04b5;["topology_master"];3.25;1533233327.75252;5.32;12.23;0.0;9;117
42;paravance-58.rennes.grid5000.fr;thermos-root-devel-WordCountTopology-2-f546d34a-f95b-48e4-a259-1b8230a611a0;["container_2_Emit_random_words_2"];3.25;1533233337.96777;156.91;871.39;4.954039279;10;149
42;paravance-44.rennes.grid5000.fr;thermos-root-devel-WordCountTopology-1-8b9b7f55-5808-446f-a535-323d657e23b3;["container_1_Consume_and_count_1"];3.25;1533233337.9585;217.83;1302.37;43.360697886;10;149
42;paravance-30.rennes.grid5000.fr;thermos-root-devel-WordCountTopology-0-04e9d41e-bfa3-4137-82c4-76e90b4f04b5;["topology_master"];3.25;1533233337.96734;5.38;12.3;0.0;9;117
43;paravance-58.rennes.grid5000.fr;thermos-root-devel-WordCountTopology-2-f546d34a-f95b-48e4-a259-1b8230a611a0;["container_2_Emit_random_words_2"];3.25;1533233348.18402;159.68;887.03;4.954039279;10;149
43;paravance-44.rennes.grid5000.fr;thermos-root-devel-WordCountTopology-1-8b9b7f55-5808-446f-a535-323d657e23b3;["container_1_Consume_and_count_1"];3.25;1533233348.17407;221.75;1325.38;43.840482869;10;149
43;paravance-30.rennes.grid5000.fr;thermos-root-devel-WordCountTopology-0-04e9d41e-bfa3-4137-82c4-76e90b4f04b5;["topology_master"];3.25;1533233348.18269;5.44;12.38;0.0;9;117
44;paravance-44.rennes.grid5000.fr;thermos-root-devel-WordCountTopology-1-8b9b7f55-5808-446f-a535-323d657e23b3;["container_1_Consume_and_count_1"];3.25;1533233358.28953;225.77;1348.24;44.271228794;10;149
44;paravance-58.rennes.grid5000.fr;thermos-root-devel-WordCountTopology-2-f546d34a-f95b-48e4-a259-1b8230a611a0;["container_2_Emit_random_words_2"];3.25;1533233358.3985;162.57;903.24;4.954039279;10;149
44;paravance-30.rennes.grid5000.fr;thermos-root-devel-WordCountTopology-0-04e9d41e-bfa3-4137-82c4-76e90b4f04b5;["topology_master"];3.25;1533233358.39822;5.53;12.5;0.0;9;117
45;paravance-44.rennes.grid5000.fr;thermos-root-devel-WordCountTopology-1-8b9b7f55-5808-446f-a535-323d657e23b3;["container_1_Consume_and_count_1"];3.25;1533233368.60325;229.71;1372.57;44.971767325;10;149
45;paravance-30.rennes.grid5000.fr;thermos-root-devel-WordCountTopology-0-04e9d41e-bfa3-4137-82c4-76e90b4f04b5;["topology_master"];3.25;1533233368.61245;5.58;12.57;0.0;9;117
45;paravance-58.rennes.grid5000.fr;thermos-root-devel-WordCountTopology-2-f546d34a-f95b-48e4-a259-1b8230a611a0;["container_2_Emit_random_words_2"];3.25;1533233368.61522;165.35;918.83;4.954039279;10;149
46;paravance-44.rennes.grid5000.fr;thermos-root-devel-WordCountTopology-1-8b9b7f55-5808-446f-a535-323d657e23b3;["container_1_Consume_and_count_1"];3.25;1533233378.81895;233.58;1396.28;45.766458248;10;149
46;paravance-58.rennes.grid5000.fr;thermos-root-devel-WordCountTopology-2-f546d34a-f95b-48e4-a259-1b8230a611a0;["container_2_Emit_random_words_2"];3.25;1533233378.82975;168.12;934.24;4.954039279;10;149
46;paravance-30.rennes.grid5000.fr;thermos-root-devel-WordCountTopology-0-04e9d41e-bfa3-4137-82c4-76e90b4f04b5;["topology_master"];3.25;1533233378.82909;5.64;12.65;0.0;9;117
47;paravance-44.rennes.grid5000.fr;thermos-root-devel-WordCountTopology-1-8b9b7f55-5808-446f-a535-323d657e23b3;["container_1_Consume_and_count_1"];3.25;1533233389.0344;237.52;1420.52;46.620119269;10;149
47;paravance-58.rennes.grid5000.fr;thermos-root-devel-WordCountTopology-2-f546d34a-f95b-48e4-a259-1b8230a611a0;["container_2_Emit_random_words_2"];3.25;1533233389.04607;170.82;949.37;4.954039279;10;149
47;paravance-30.rennes.grid5000.fr;thermos-root-devel-WordCountTopology-0-04e9d41e-bfa3-4137-82c4-76e90b4f04b5;["topology_master"];3.25;1533233389.04451;5.71;12.79;0.0;9;117
48;paravance-44.rennes.grid5000.fr;thermos-root-devel-WordCountTopology-1-8b9b7f55-5808-446f-a535-323d657e23b3;["container_1_Consume_and_count_1"];3.25;1533233399.24934;241.57;1444.35;47.368963832;10;149
48;paravance-30.rennes.grid5000.fr;thermos-root-devel-WordCountTopology-0-04e9d41e-bfa3-4137-82c4-76e90b4f04b5;["topology_master"];3.25;1533233399.25899;5.79;12.9;0.0;9;117
48;paravance-58.rennes.grid5000.fr;thermos-root-devel-WordCountTopology-2-f546d34a-f95b-48e4-a259-1b8230a611a0;["container_2_Emit_random_words_2"];3.25;1533233399.26205;173.66;964.73;4.954039279;10;149
49;paravance-44.rennes.grid5000.fr;thermos-root-devel-WordCountTopology-1-8b9b7f55-5808-446f-a535-323d657e23b3;["container_1_Consume_and_count_1"];3.25;1533233409.46529;245.57;1468.07;48.000357642;10;149
49;paravance-58.rennes.grid5000.fr;thermos-root-devel-WordCountTopology-2-f546d34a-f95b-48e4-a259-1b8230a611a0;["container_2_Emit_random_words_2"];3.25;1533233409.476;176.39;980.23;4.954039279;10;149
49;paravance-30.rennes.grid5000.fr;thermos-root-devel-WordCountTopology-0-04e9d41e-bfa3-4137-82c4-76e90b4f04b5;["topology_master"];3.25;1533233409.47619;5.82;12.93;0.0;9;117
50;paravance-44.rennes.grid5000.fr;thermos-root-devel-WordCountTopology-1-8b9b7f55-5808-446f-a535-323d657e23b3;["container_1_Consume_and_count_1"];3.25;1533233419.68164;249.27;1492.35;48.621685257;10;149
50;paravance-58.rennes.grid5000.fr;thermos-root-devel-WordCountTopology-2-f546d34a-f95b-48e4-a259-1b8230a611a0;["container_2_Emit_random_words_2"];3.25;1533233419.69321;179.06;994.7;4.954039279;10;149
50;paravance-30.rennes.grid5000.fr;thermos-root-devel-WordCountTopology-0-04e9d41e-bfa3-4137-82c4-76e90b4f04b5;["topology_master"];3.25;1533233419.69203;5.91;13.05;0.0;9;117
51;paravance-44.rennes.grid5000.fr;thermos-root-devel-WordCountTopology-1-8b9b7f55-5808-446f-a535-323d657e23b3;["container_1_Consume_and_count_1"];3.25;1533233429.89672;253.12;1517.06;49.262276118;10;149
51;paravance-58.rennes.grid5000.fr;thermos-root-devel-WordCountTopology-2-f546d34a-f95b-48e4-a259-1b8230a611a0;["container_2_Emit_random_words_2"];3.25;1533233429.90973;181.85;1009.79;4.954039279;10;149
51;paravance-30.rennes.grid5000.fr;thermos-root-devel-WordCountTopology-0-04e9d41e-bfa3-4137-82c4-76e90b4f04b5;["topology_master"];3.25;1533233429.90926;5.97;13.13;0.0;9;117
52;paravance-58.rennes.grid5000.fr;thermos-root-devel-WordCountTopology-2-f546d34a-f95b-48e4-a259-1b8230a611a0;["container_2_Emit_random_words_2"];3.25;1533233440.12633;184.67;1025.55;4.954039279;10;149
52;paravance-30.rennes.grid5000.fr;thermos-root-devel-WordCountTopology-0-04e9d41e-bfa3-4137-82c4-76e90b4f04b5;["topology_master"];3.25;1533233440.12543;6.03;13.22;0.0;9;117
52;paravance-44.rennes.grid5000.fr;thermos-root-devel-WordCountTopology-1-8b9b7f55-5808-446f-a535-323d657e23b3;["container_1_Consume_and_count_1"];3.25;1533233440.11464;256.97;1541.33;49.828685351;10;149
53;paravance-44.rennes.grid5000.fr;thermos-root-devel-WordCountTopology-1-8b9b7f55-5808-446f-a535-323d657e23b3;["container_1_Consume_and_count_1"];3.25;1533233450.3324;260.78;1564.54;50.358965263;10;149
53;paravance-30.rennes.grid5000.fr;thermos-root-devel-WordCountTopology-0-04e9d41e-bfa3-4137-82c4-76e90b4f04b5;["topology_master"];3.25;1533233450.34127;6.1;13.34;0.0;9;117
53;paravance-58.rennes.grid5000.fr;thermos-root-devel-WordCountTopology-2-f546d34a-f95b-48e4-a259-1b8230a611a0;["container_2_Emit_random_words_2"];3.25;1533233450.34341;187.41;1040.68;4.954039279;10;149
54;paravance-44.rennes.grid5000.fr;thermos-root-devel-WordCountTopology-1-8b9b7f55-5808-446f-a535-323d657e23b3;["container_1_Consume_and_count_1"];3.25;1533233460.54606;264.71;1589.12;50.976684119;10;149
54;paravance-30.rennes.grid5000.fr;thermos-root-devel-WordCountTopology-0-04e9d41e-bfa3-4137-82c4-76e90b4f04b5;["topology_master"];3.25;1533233460.55729;6.18;13.46;0.0;9;117
54;paravance-58.rennes.grid5000.fr;thermos-root-devel-WordCountTopology-2-f546d34a-f95b-48e4-a259-1b8230a611a0;["container_2_Emit_random_words_2"];3.25;1533233460.55984;190.26;1056.25;4.954039279;10;149
55;paravance-44.rennes.grid5000.fr;thermos-root-devel-WordCountTopology-1-8b9b7f55-5808-446f-a535-323d657e23b3;["container_1_Consume_and_count_1"];3.25;1533233470.76236;268.6;1612.93;51.370154118;10;149
55;paravance-58.rennes.grid5000.fr;thermos-root-devel-WordCountTopology-2-f546d34a-f95b-48e4-a259-1b8230a611a0;["container_2_Emit_random_words_2"];3.25;1533233470.7749;192.96;1071.43;4.954039279;10;149
55;paravance-30.rennes.grid5000.fr;thermos-root-devel-WordCountTopology-0-04e9d41e-bfa3-4137-82c4-76e90b4f04b5;["topology_master"];3.25;1533233470.77358;6.21;13.48;0.0;9;117
56;paravance-44.rennes.grid5000.fr;thermos-root-devel-WordCountTopology-1-8b9b7f55-5808-446f-a535-323d657e23b3;["container_1_Consume_and_count_1"];3.25;1533233480.97874;272.51;1636.2;51.721606838;10;149
56;paravance-30.rennes.grid5000.fr;thermos-root-devel-WordCountTopology-0-04e9d41e-bfa3-4137-82c4-76e90b4f04b5;["topology_master"];3.25;1533233480.9884;6.3;13.6;0.0;9;117
56;paravance-58.rennes.grid5000.fr;thermos-root-devel-WordCountTopology-2-f546d34a-f95b-48e4-a259-1b8230a611a0;["container_2_Emit_random_words_2"];3.25;1533233480.99075;195.75;1087.29;4.954039279;10;149
57;paravance-44.rennes.grid5000.fr;thermos-root-devel-WordCountTopology-1-8b9b7f55-5808-446f-a535-323d657e23b3;["container_1_Consume_and_count_1"];3.25;1533233491.19436;276.33;1660.59;52.536144383;10;149
57;paravance-58.rennes.grid5000.fr;thermos-root-devel-WordCountTopology-2-f546d34a-f95b-48e4-a259-1b8230a611a0;["container_2_Emit_random_words_2"];3.25;1533233491.20527;198.48;1102.06;4.954039279;10;149
57;paravance-30.rennes.grid5000.fr;thermos-root-devel-WordCountTopology-0-04e9d41e-bfa3-4137-82c4-76e90b4f04b5;["topology_master"];3.25;1533233491.20473;6.36;13.67;0.0;9;117
58;paravance-44.rennes.grid5000.fr;thermos-root-devel-WordCountTopology-1-8b9b7f55-5808-446f-a535-323d657e23b3;["container_1_Consume_and_count_1"];3.25;1533233501.40857;280.12;1684.12;53.129809761;10;149
58;paravance-30.rennes.grid5000.fr;thermos-root-devel-WordCountTopology-0-04e9d41e-bfa3-4137-82c4-76e90b4f04b5;["topology_master"];3.25;1533233501.41998;6.43;13.79;0.0;9;117
58;paravance-58.rennes.grid5000.fr;thermos-root-devel-WordCountTopology-2-f546d34a-f95b-48e4-a259-1b8230a611a0;["container_2_Emit_random_words_2"];3.25;1533233501.42159;201.16;1116.81;4.954039279;10;149
59;paravance-44.rennes.grid5000.fr;thermos-root-devel-WordCountTopology-1-8b9b7f55-5808-446f-a535-323d657e23b3;["container_1_Consume_and_count_1"];3.25;1533233511.62406;283.95;1707.72;53.697242617;10;149
59;paravance-30.rennes.grid5000.fr;thermos-root-devel-WordCountTopology-0-04e9d41e-bfa3-4137-82c4-76e90b4f04b5;["topology_master"];3.25;1533233511.63547;6.49;13.86;0.0;9;117
59;paravance-58.rennes.grid5000.fr;thermos-root-devel-WordCountTopology-2-f546d34a-f95b-48e4-a259-1b8230a611a0;["container_2_Emit_random_words_2"];3.25;1533233511.64059;203.84;1131.79;4.954039279;10;149
60;paravance-44.rennes.grid5000.fr;thermos-root-devel-WordCountTopology-1-8b9b7f55-5808-446f-a535-323d657e23b3;["container_1_Consume_and_count_1"];3.25;1533233521.8453;288.01;1731.8;54.451178273;10;149
60;paravance-30.rennes.grid5000.fr;thermos-root-devel-WordCountTopology-0-04e9d41e-bfa3-4137-82c4-76e90b4f04b5;["topology_master"];3.25;1533233521.85456;6.58;13.98;0.0;9;117
60;paravance-58.rennes.grid5000.fr;thermos-root-devel-WordCountTopology-2-f546d34a-f95b-48e4-a259-1b8230a611a0;["container_2_Emit_random_words_2"];3.25;1533233521.8605;206.65;1147.23;4.954039279;10;149
