mesure_id;slave_id;executor_id;heron_instances;cpus_limit;timestamp_A;cpus_system_time_secs_A;cpus_user_time_secs_A;cpus_throttled_time_secs_A;processes;threads
0;paravance-14.rennes.grid5000.fr;thermos-root-devel-WordCountTopology-1-6ba18d03-8eb4-4f6b-b586-2c8efcbf4669;["container_1_Consume_and_count_1"];3.25;1533765555.0761;22.2;178.31;36.459790591;10;151
0;paravance-19.rennes.grid5000.fr;thermos-root-devel-WordCountTopology-0-0f49a002-e77d-46a4-9902-524440c7c28b;["topology_master"];3.25;1533765555.07098;2.39;8.01;0.16142096;9;117
0;paravance-36.rennes.grid5000.fr;thermos-root-devel-WordCountTopology-2-b2ed00b9-dfae-43fc-a1db-c16b76f0bae0;["container_2_Emit_random_words_2"];3.25;1533765555.07489;17.49;85.37;5.005190613;10;149
1;paravance-14.rennes.grid5000.fr;thermos-root-devel-WordCountTopology-1-6ba18d03-8eb4-4f6b-b586-2c8efcbf4669;["container_1_Consume_and_count_1"];3.25;1533765565.29299;24.05;197.4;38.635757374;10;151
1;paravance-19.rennes.grid5000.fr;thermos-root-devel-WordCountTopology-0-0f49a002-e77d-46a4-9902-524440c7c28b;["topology_master"];3.25;1533765565.28938;2.46;8.15;0.16142096;9;117
1;paravance-36.rennes.grid5000.fr;thermos-root-devel-WordCountTopology-2-b2ed00b9-dfae-43fc-a1db-c16b76f0bae0;["container_2_Emit_random_words_2"];3.25;1533765565.28944;19.02;92.38;5.005190613;10;149
2;paravance-14.rennes.grid5000.fr;thermos-root-devel-WordCountTopology-1-6ba18d03-8eb4-4f6b-b586-2c8efcbf4669;["container_1_Consume_and_count_1"];3.25;1533765575.50993;26.18;216.63;40.885437503;10;151
2;paravance-19.rennes.grid5000.fr;thermos-root-devel-WordCountTopology-0-0f49a002-e77d-46a4-9902-524440c7c28b;["topology_master"];3.25;1533765575.50551;2.55;8.28;0.16142096;9;117
2;paravance-36.rennes.grid5000.fr;thermos-root-devel-WordCountTopology-2-b2ed00b9-dfae-43fc-a1db-c16b76f0bae0;["container_2_Emit_random_words_2"];3.25;1533765575.50742;20.71;99.99;5.005190613;10;149
3;paravance-36.rennes.grid5000.fr;thermos-root-devel-WordCountTopology-2-b2ed00b9-dfae-43fc-a1db-c16b76f0bae0;["container_2_Emit_random_words_2"];3.25;1533765585.62257;22.29;107.29;5.005190613;10;149
3;paravance-14.rennes.grid5000.fr;thermos-root-devel-WordCountTopology-1-6ba18d03-8eb4-4f6b-b586-2c8efcbf4669;["container_1_Consume_and_count_1"];3.25;1533765585.72551;28.28;235.47;43.465258368;10;151
3;paravance-19.rennes.grid5000.fr;thermos-root-devel-WordCountTopology-0-0f49a002-e77d-46a4-9902-524440c7c28b;["topology_master"];3.25;1533765585.72064;2.61;8.37;0.16142096;9;117
4;paravance-36.rennes.grid5000.fr;thermos-root-devel-WordCountTopology-2-b2ed00b9-dfae-43fc-a1db-c16b76f0bae0;["container_2_Emit_random_words_2"];3.25;1533765595.83835;23.91;114.85;5.005190613;10;149
4;paravance-14.rennes.grid5000.fr;thermos-root-devel-WordCountTopology-1-6ba18d03-8eb4-4f6b-b586-2c8efcbf4669;["container_1_Consume_and_count_1"];3.25;1533765595.94161;30.37;253.71;44.763687665;10;151
4;paravance-19.rennes.grid5000.fr;thermos-root-devel-WordCountTopology-0-0f49a002-e77d-46a4-9902-524440c7c28b;["topology_master"];3.25;1533765595.93632;2.67;8.44;0.16142096;9;117
5;paravance-14.rennes.grid5000.fr;thermos-root-devel-WordCountTopology-1-6ba18d03-8eb4-4f6b-b586-2c8efcbf4669;["container_1_Consume_and_count_1"];3.25;1533765606.15723;31.92;270.69;45.270476647;10;151
5;paravance-19.rennes.grid5000.fr;thermos-root-devel-WordCountTopology-0-0f49a002-e77d-46a4-9902-524440c7c28b;["topology_master"];3.25;1533765606.15284;2.73;8.52;0.16142096;9;117
5;paravance-36.rennes.grid5000.fr;thermos-root-devel-WordCountTopology-2-b2ed00b9-dfae-43fc-a1db-c16b76f0bae0;["container_2_Emit_random_words_2"];3.25;1533765606.15517;25.2;120.58;5.005190613;10;149
6;paravance-14.rennes.grid5000.fr;thermos-root-devel-WordCountTopology-1-6ba18d03-8eb4-4f6b-b586-2c8efcbf4669;["container_1_Consume_and_count_1"];3.25;1533765616.37416;33.37;287.36;45.923129048;10;151
6;paravance-36.rennes.grid5000.fr;thermos-root-devel-WordCountTopology-2-b2ed00b9-dfae-43fc-a1db-c16b76f0bae0;["container_2_Emit_random_words_2"];3.25;1533765616.37059;26.34;125.65;5.01534681;10;149
6;paravance-19.rennes.grid5000.fr;thermos-root-devel-WordCountTopology-0-0f49a002-e77d-46a4-9902-524440c7c28b;["topology_master"];3.25;1533765616.36919;2.85;8.72;0.16142096;9;117
7;paravance-14.rennes.grid5000.fr;thermos-root-devel-WordCountTopology-1-6ba18d03-8eb4-4f6b-b586-2c8efcbf4669;["container_1_Consume_and_count_1"];3.25;1533765626.59292;34.64;304.08;46.392345637;10;151
7;paravance-36.rennes.grid5000.fr;thermos-root-devel-WordCountTopology-2-b2ed00b9-dfae-43fc-a1db-c16b76f0bae0;["container_2_Emit_random_words_2"];3.25;1533765626.58957;27.44;130.5;5.01534681;10;149
7;paravance-19.rennes.grid5000.fr;thermos-root-devel-WordCountTopology-0-0f49a002-e77d-46a4-9902-524440c7c28b;["topology_master"];3.25;1533765626.58874;2.88;8.76;0.16142096;9;117
8;paravance-14.rennes.grid5000.fr;thermos-root-devel-WordCountTopology-1-6ba18d03-8eb4-4f6b-b586-2c8efcbf4669;["container_1_Consume_and_count_1"];3.25;1533765636.81134;36.29;321.47;47.713387398;10;151
8;paravance-19.rennes.grid5000.fr;thermos-root-devel-WordCountTopology-0-0f49a002-e77d-46a4-9902-524440c7c28b;["topology_master"];3.25;1533765636.80622;2.98;8.9;0.16142096;9;117
8;paravance-36.rennes.grid5000.fr;thermos-root-devel-WordCountTopology-2-b2ed00b9-dfae-43fc-a1db-c16b76f0bae0;["container_2_Emit_random_words_2"];3.25;1533765636.80821;28.79;136.54;5.01534681;10;149
9;paravance-14.rennes.grid5000.fr;thermos-root-devel-WordCountTopology-1-6ba18d03-8eb4-4f6b-b586-2c8efcbf4669;["container_1_Consume_and_count_1"];3.25;1533765647.02577;37.92;338.32;49.009784344;10;151
9;paravance-19.rennes.grid5000.fr;thermos-root-devel-WordCountTopology-0-0f49a002-e77d-46a4-9902-524440c7c28b;["topology_master"];3.25;1533765647.02093;3.04;8.97;0.16142096;9;117
9;paravance-36.rennes.grid5000.fr;thermos-root-devel-WordCountTopology-2-b2ed00b9-dfae-43fc-a1db-c16b76f0bae0;["container_2_Emit_random_words_2"];3.25;1533765647.02479;30.04;142.6;5.021462278;10;149
10;paravance-36.rennes.grid5000.fr;thermos-root-devel-WordCountTopology-2-b2ed00b9-dfae-43fc-a1db-c16b76f0bae0;["container_2_Emit_random_words_2"];3.25;1533765657.14019;31.2;147.73;5.021462278;10;149
10;paravance-19.rennes.grid5000.fr;thermos-root-devel-WordCountTopology-0-0f49a002-e77d-46a4-9902-524440c7c28b;["topology_master"];3.25;1533765657.23894;3.1;9.04;0.16142096;9;117
10;paravance-14.rennes.grid5000.fr;thermos-root-devel-WordCountTopology-1-6ba18d03-8eb4-4f6b-b586-2c8efcbf4669;["container_1_Consume_and_count_1"];3.25;1533765657.24371;39.43;355.94;50.601367365;10;151
11;paravance-36.rennes.grid5000.fr;thermos-root-devel-WordCountTopology-2-b2ed00b9-dfae-43fc-a1db-c16b76f0bae0;["container_2_Emit_random_words_2"];3.25;1533765667.45461;32.69;154.66;5.021462278;10;149
11;paravance-19.rennes.grid5000.fr;thermos-root-devel-WordCountTopology-0-0f49a002-e77d-46a4-9902-524440c7c28b;["topology_master"];3.25;1533765667.45442;3.15;9.12;0.16142096;9;117
11;paravance-14.rennes.grid5000.fr;thermos-root-devel-WordCountTopology-1-6ba18d03-8eb4-4f6b-b586-2c8efcbf4669;["container_1_Consume_and_count_1"];3.25;1533765667.45992;41.25;375.69;53.993918519;10;151
12;paravance-36.rennes.grid5000.fr;thermos-root-devel-WordCountTopology-2-b2ed00b9-dfae-43fc-a1db-c16b76f0bae0;["container_2_Emit_random_words_2"];3.25;1533765677.67004;34.45;162.89;5.021462278;10;149
12;paravance-19.rennes.grid5000.fr;thermos-root-devel-WordCountTopology-0-0f49a002-e77d-46a4-9902-524440c7c28b;["topology_master"];3.25;1533765677.669;3.28;9.42;0.16142096;9;117
12;paravance-14.rennes.grid5000.fr;thermos-root-devel-WordCountTopology-1-6ba18d03-8eb4-4f6b-b586-2c8efcbf4669;["container_1_Consume_and_count_1"];3.25;1533765677.67547;43.55;395.56;56.862039314;10;151
13;paravance-14.rennes.grid5000.fr;thermos-root-devel-WordCountTopology-1-6ba18d03-8eb4-4f6b-b586-2c8efcbf4669;["container_1_Consume_and_count_1"];3.25;1533765687.89226;45.53;413.64;58.511559864;10;151
13;paravance-36.rennes.grid5000.fr;thermos-root-devel-WordCountTopology-2-b2ed00b9-dfae-43fc-a1db-c16b76f0bae0;["container_2_Emit_random_words_2"];3.25;1533765687.88956;36.03;170.06;5.021462278;10;149
13;paravance-19.rennes.grid5000.fr;thermos-root-devel-WordCountTopology-0-0f49a002-e77d-46a4-9902-524440c7c28b;["topology_master"];3.25;1533765687.88717;3.3;9.45;0.16142096;9;117
14;paravance-14.rennes.grid5000.fr;thermos-root-devel-WordCountTopology-1-6ba18d03-8eb4-4f6b-b586-2c8efcbf4669;["container_1_Consume_and_count_1"];3.25;1533765698.10839;47.04;430.23;59.146630962;10;151
14;paravance-36.rennes.grid5000.fr;thermos-root-devel-WordCountTopology-2-b2ed00b9-dfae-43fc-a1db-c16b76f0bae0;["container_2_Emit_random_words_2"];3.25;1533765698.1051;37.17;175.25;5.021462278;10;149
14;paravance-19.rennes.grid5000.fr;thermos-root-devel-WordCountTopology-0-0f49a002-e77d-46a4-9902-524440c7c28b;["topology_master"];3.25;1533765698.10424;3.39;9.61;0.16142096;9;117
15;paravance-14.rennes.grid5000.fr;thermos-root-devel-WordCountTopology-1-6ba18d03-8eb4-4f6b-b586-2c8efcbf4669;["container_1_Consume_and_count_1"];3.25;1533765708.32405;48.39;446.34;59.595813407;10;151
15;paravance-19.rennes.grid5000.fr;thermos-root-devel-WordCountTopology-0-0f49a002-e77d-46a4-9902-524440c7c28b;["topology_master"];3.25;1533765708.31905;3.45;9.69;0.16142096;9;117
15;paravance-36.rennes.grid5000.fr;thermos-root-devel-WordCountTopology-2-b2ed00b9-dfae-43fc-a1db-c16b76f0bae0;["container_2_Emit_random_words_2"];3.25;1533765708.32172;38.26;180.34;5.021462278;10;149
16;paravance-14.rennes.grid5000.fr;thermos-root-devel-WordCountTopology-1-6ba18d03-8eb4-4f6b-b586-2c8efcbf4669;["container_1_Consume_and_count_1"];3.25;1533765718.53959;50.14;465.09;61.491795013;10;151
16;paravance-36.rennes.grid5000.fr;thermos-root-devel-WordCountTopology-2-b2ed00b9-dfae-43fc-a1db-c16b76f0bae0;["container_2_Emit_random_words_2"];3.25;1533765718.53502;39.66;186.72;5.021462278;10;149
16;paravance-19.rennes.grid5000.fr;thermos-root-devel-WordCountTopology-0-0f49a002-e77d-46a4-9902-524440c7c28b;["topology_master"];3.25;1533765718.53496;3.51;9.78;0.16142096;9;117
17;paravance-14.rennes.grid5000.fr;thermos-root-devel-WordCountTopology-1-6ba18d03-8eb4-4f6b-b586-2c8efcbf4669;["container_1_Consume_and_count_1"];3.25;1533765728.75595;51.82;483.23;62.699453223;10;151
17;paravance-36.rennes.grid5000.fr;thermos-root-devel-WordCountTopology-2-b2ed00b9-dfae-43fc-a1db-c16b76f0bae0;["container_2_Emit_random_words_2"];3.25;1533765728.75227;41.05;193.3;5.021462278;10;149
17;paravance-19.rennes.grid5000.fr;thermos-root-devel-WordCountTopology-0-0f49a002-e77d-46a4-9902-524440c7c28b;["topology_master"];3.25;1533765728.75132;3.57;9.85;0.16142096;9;117
18;paravance-36.rennes.grid5000.fr;thermos-root-devel-WordCountTopology-2-b2ed00b9-dfae-43fc-a1db-c16b76f0bae0;["container_2_Emit_random_words_2"];3.25;1533765738.9686;42.87;201.81;5.021462278;10;149
18;paravance-19.rennes.grid5000.fr;thermos-root-devel-WordCountTopology-0-0f49a002-e77d-46a4-9902-524440c7c28b;["topology_master"];3.25;1533765738.96705;3.69;10.07;0.16142096;9;117
18;paravance-14.rennes.grid5000.fr;thermos-root-devel-WordCountTopology-1-6ba18d03-8eb4-4f6b-b586-2c8efcbf4669;["container_1_Consume_and_count_1"];3.25;1533765738.97354;54.18;503.96;66.835234643;10;151
19;paravance-14.rennes.grid5000.fr;thermos-root-devel-WordCountTopology-1-6ba18d03-8eb4-4f6b-b586-2c8efcbf4669;["container_1_Consume_and_count_1"];3.25;1533765749.19018;56.11;521.88;68.098108644;10;151
19;paravance-19.rennes.grid5000.fr;thermos-root-devel-WordCountTopology-0-0f49a002-e77d-46a4-9902-524440c7c28b;["topology_master"];3.25;1533765749.18339;3.72;10.09;0.16142096;9;117
19;paravance-36.rennes.grid5000.fr;thermos-root-devel-WordCountTopology-2-b2ed00b9-dfae-43fc-a1db-c16b76f0bae0;["container_2_Emit_random_words_2"];3.25;1533765749.18616;44.46;209.52;5.021462278;10;149
20;paravance-14.rennes.grid5000.fr;thermos-root-devel-WordCountTopology-1-6ba18d03-8eb4-4f6b-b586-2c8efcbf4669;["container_1_Consume_and_count_1"];3.25;1533765759.40687;57.69;539.63;69.670817779;10;151
20;paravance-36.rennes.grid5000.fr;thermos-root-devel-WordCountTopology-2-b2ed00b9-dfae-43fc-a1db-c16b76f0bae0;["container_2_Emit_random_words_2"];3.25;1533765759.40339;45.81;215.65;5.021462278;10;149
20;paravance-19.rennes.grid5000.fr;thermos-root-devel-WordCountTopology-0-0f49a002-e77d-46a4-9902-524440c7c28b;["topology_master"];3.25;1533765759.40251;3.82;10.23;0.16142096;9;117
21;paravance-14.rennes.grid5000.fr;thermos-root-devel-WordCountTopology-1-6ba18d03-8eb4-4f6b-b586-2c8efcbf4669;["container_1_Consume_and_count_1"];3.25;1533765769.62305;59.57;557.96;71.560301032;10;151
21;paravance-36.rennes.grid5000.fr;thermos-root-devel-WordCountTopology-2-b2ed00b9-dfae-43fc-a1db-c16b76f0bae0;["container_2_Emit_random_words_2"];3.25;1533765769.61968;47.24;222.86;5.021462278;10;149
21;paravance-19.rennes.grid5000.fr;thermos-root-devel-WordCountTopology-0-0f49a002-e77d-46a4-9902-524440c7c28b;["topology_master"];3.25;1533765769.61845;3.88;10.31;0.16142096;9;117
22;paravance-14.rennes.grid5000.fr;thermos-root-devel-WordCountTopology-1-6ba18d03-8eb4-4f6b-b586-2c8efcbf4669;["container_1_Consume_and_count_1"];3.25;1533765779.84121;61.72;576.37;73.002449998;10;151
22;paravance-36.rennes.grid5000.fr;thermos-root-devel-WordCountTopology-2-b2ed00b9-dfae-43fc-a1db-c16b76f0bae0;["container_2_Emit_random_words_2"];3.25;1533765779.83627;49.0;230.47;5.021462278;10;149
22;paravance-19.rennes.grid5000.fr;thermos-root-devel-WordCountTopology-0-0f49a002-e77d-46a4-9902-524440c7c28b;["topology_master"];3.25;1533765779.83478;3.93;10.38;0.16142096;9;117
23;paravance-14.rennes.grid5000.fr;thermos-root-devel-WordCountTopology-1-6ba18d03-8eb4-4f6b-b586-2c8efcbf4669;["container_1_Consume_and_count_1"];3.25;1533765790.05823;63.43;594.68;74.63182119;10;151
23;paravance-19.rennes.grid5000.fr;thermos-root-devel-WordCountTopology-0-0f49a002-e77d-46a4-9902-524440c7c28b;["topology_master"];3.25;1533765790.05232;3.99;10.45;0.16142096;9;117
23;paravance-36.rennes.grid5000.fr;thermos-root-devel-WordCountTopology-2-b2ed00b9-dfae-43fc-a1db-c16b76f0bae0;["container_2_Emit_random_words_2"];3.25;1533765790.05521;50.26;236.45;5.021462278;10;149
24;paravance-36.rennes.grid5000.fr;thermos-root-devel-WordCountTopology-2-b2ed00b9-dfae-43fc-a1db-c16b76f0bae0;["container_2_Emit_random_words_2"];3.25;1533765800.27044;51.61;242.56;5.021462278;10;149
24;paravance-19.rennes.grid5000.fr;thermos-root-devel-WordCountTopology-0-0f49a002-e77d-46a4-9902-524440c7c28b;["topology_master"];3.25;1533765800.2694;4.11;10.65;0.16142096;9;117
24;paravance-14.rennes.grid5000.fr;thermos-root-devel-WordCountTopology-1-6ba18d03-8eb4-4f6b-b586-2c8efcbf4669;["container_1_Consume_and_count_1"];3.25;1533765800.27594;65.07;612.27;76.006964402;10;151
25;paravance-14.rennes.grid5000.fr;thermos-root-devel-WordCountTopology-1-6ba18d03-8eb4-4f6b-b586-2c8efcbf4669;["container_1_Consume_and_count_1"];3.25;1533765810.49102;66.83;630.93;77.865409039;10;151
25;paravance-19.rennes.grid5000.fr;thermos-root-devel-WordCountTopology-0-0f49a002-e77d-46a4-9902-524440c7c28b;["topology_master"];3.25;1533765810.48534;4.14;10.68;0.16142096;9;117
25;paravance-36.rennes.grid5000.fr;thermos-root-devel-WordCountTopology-2-b2ed00b9-dfae-43fc-a1db-c16b76f0bae0;["container_2_Emit_random_words_2"];3.25;1533765810.4861;53.08;249.58;5.021462278;10;149
26;paravance-14.rennes.grid5000.fr;thermos-root-devel-WordCountTopology-1-6ba18d03-8eb4-4f6b-b586-2c8efcbf4669;["container_1_Consume_and_count_1"];3.25;1533765820.70782;68.87;650.07;79.27530051;10;151
26;paravance-19.rennes.grid5000.fr;thermos-root-devel-WordCountTopology-0-0f49a002-e77d-46a4-9902-524440c7c28b;["topology_master"];3.25;1533765820.70242;4.23;10.81;0.16142096;9;117
26;paravance-36.rennes.grid5000.fr;thermos-root-devel-WordCountTopology-2-b2ed00b9-dfae-43fc-a1db-c16b76f0bae0;["container_2_Emit_random_words_2"];3.25;1533765820.70469;54.84;257.31;5.021462278;10;149
27;paravance-14.rennes.grid5000.fr;thermos-root-devel-WordCountTopology-1-6ba18d03-8eb4-4f6b-b586-2c8efcbf4669;["container_1_Consume_and_count_1"];3.25;1533765830.92615;69.97;666.53;79.461744691;10;151
27;paravance-36.rennes.grid5000.fr;thermos-root-devel-WordCountTopology-2-b2ed00b9-dfae-43fc-a1db-c16b76f0bae0;["container_2_Emit_random_words_2"];3.25;1533765830.92366;55.73;261.93;5.021462278;10;147
27;paravance-19.rennes.grid5000.fr;thermos-root-devel-WordCountTopology-0-0f49a002-e77d-46a4-9902-524440c7c28b;["topology_master"];3.25;1533765830.9214;4.29;10.88;0.16142096;9;117
28;paravance-14.rennes.grid5000.fr;thermos-root-devel-WordCountTopology-1-6ba18d03-8eb4-4f6b-b586-2c8efcbf4669;["container_1_Consume_and_count_1"];3.25;1533765841.14457;71.3;683.59;79.79895464;10;151
28;paravance-36.rennes.grid5000.fr;thermos-root-devel-WordCountTopology-2-b2ed00b9-dfae-43fc-a1db-c16b76f0bae0;["container_2_Emit_random_words_2"];3.25;1533765841.14163;56.89;267.56;5.025705558;10;149
28;paravance-19.rennes.grid5000.fr;thermos-root-devel-WordCountTopology-0-0f49a002-e77d-46a4-9902-524440c7c28b;["topology_master"];3.25;1533765841.13886;4.35;10.96;0.16142096;9;117
29;paravance-14.rennes.grid5000.fr;thermos-root-devel-WordCountTopology-1-6ba18d03-8eb4-4f6b-b586-2c8efcbf4669;["container_1_Consume_and_count_1"];3.25;1533765851.36086;72.3;698.81;79.9878839;10;151
29;paravance-36.rennes.grid5000.fr;thermos-root-devel-WordCountTopology-2-b2ed00b9-dfae-43fc-a1db-c16b76f0bae0;["container_2_Emit_random_words_2"];3.25;1533765851.35679;57.62;271.24;5.029735388;10;149
29;paravance-19.rennes.grid5000.fr;thermos-root-devel-WordCountTopology-0-0f49a002-e77d-46a4-9902-524440c7c28b;["topology_master"];3.25;1533765851.35503;4.45;11.09;0.16142096;9;117
30;paravance-14.rennes.grid5000.fr;thermos-root-devel-WordCountTopology-1-6ba18d03-8eb4-4f6b-b586-2c8efcbf4669;["container_1_Consume_and_count_1"];3.25;1533765861.57611;73.23;713.78;80.43539082;10;151
30;paravance-19.rennes.grid5000.fr;thermos-root-devel-WordCountTopology-0-0f49a002-e77d-46a4-9902-524440c7c28b;["topology_master"];3.25;1533765861.57151;4.52;11.23;0.16142096;9;117
30;paravance-36.rennes.grid5000.fr;thermos-root-devel-WordCountTopology-2-b2ed00b9-dfae-43fc-a1db-c16b76f0bae0;["container_2_Emit_random_words_2"];3.25;1533765861.57264;58.43;275.14;5.029735388;10;149
31;paravance-36.rennes.grid5000.fr;thermos-root-devel-WordCountTopology-2-b2ed00b9-dfae-43fc-a1db-c16b76f0bae0;["container_2_Emit_random_words_2"];3.25;1533765871.78888;59.39;279.45;5.029735388;10;149
31;paravance-14.rennes.grid5000.fr;thermos-root-devel-WordCountTopology-1-6ba18d03-8eb4-4f6b-b586-2c8efcbf4669;["container_1_Consume_and_count_1"];3.25;1533765871.79403;74.48;728.74;80.708036011;10;151
31;paravance-19.rennes.grid5000.fr;thermos-root-devel-WordCountTopology-0-0f49a002-e77d-46a4-9902-524440c7c28b;["topology_master"];3.25;1533765871.78729;4.57;11.31;0.16142096;9;117
32;paravance-14.rennes.grid5000.fr;thermos-root-devel-WordCountTopology-1-6ba18d03-8eb4-4f6b-b586-2c8efcbf4669;["container_1_Consume_and_count_1"];3.25;1533765882.00978;75.57;743.33;80.764558927;10;151
32;paravance-19.rennes.grid5000.fr;thermos-root-devel-WordCountTopology-0-0f49a002-e77d-46a4-9902-524440c7c28b;["topology_master"];3.25;1533765882.00277;4.63;11.39;0.16142096;9;117
32;paravance-36.rennes.grid5000.fr;thermos-root-devel-WordCountTopology-2-b2ed00b9-dfae-43fc-a1db-c16b76f0bae0;["container_2_Emit_random_words_2"];3.25;1533765882.00572;60.21;283.1;5.029735388;10;149
33;paravance-36.rennes.grid5000.fr;thermos-root-devel-WordCountTopology-2-b2ed00b9-dfae-43fc-a1db-c16b76f0bae0;["container_2_Emit_random_words_2"];3.25;1533765892.22232;60.93;286.61;5.029735388;10;149
33;paravance-14.rennes.grid5000.fr;thermos-root-devel-WordCountTopology-1-6ba18d03-8eb4-4f6b-b586-2c8efcbf4669;["container_1_Consume_and_count_1"];3.25;1533765892.2268;76.56;758.08;81.099867901;10;151
33;paravance-19.rennes.grid5000.fr;thermos-root-devel-WordCountTopology-0-0f49a002-e77d-46a4-9902-524440c7c28b;["topology_master"];3.25;1533765892.22061;4.73;11.51;0.16142096;9;117
34;paravance-36.rennes.grid5000.fr;thermos-root-devel-WordCountTopology-2-b2ed00b9-dfae-43fc-a1db-c16b76f0bae0;["container_2_Emit_random_words_2"];3.25;1533765902.4391;61.77;290.6;5.029735388;10;149
34;paravance-14.rennes.grid5000.fr;thermos-root-devel-WordCountTopology-1-6ba18d03-8eb4-4f6b-b586-2c8efcbf4669;["container_1_Consume_and_count_1"];3.25;1533765902.44301;77.57;772.57;81.103883067;10;151
34;paravance-19.rennes.grid5000.fr;thermos-root-devel-WordCountTopology-0-0f49a002-e77d-46a4-9902-524440c7c28b;["topology_master"];3.25;1533765902.43728;4.75;11.54;0.16142096;9;117
35;paravance-14.rennes.grid5000.fr;thermos-root-devel-WordCountTopology-1-6ba18d03-8eb4-4f6b-b586-2c8efcbf4669;["container_1_Consume_and_count_1"];3.25;1533765912.65828;78.76;788.38;81.458471297;10;151
35;paravance-19.rennes.grid5000.fr;thermos-root-devel-WordCountTopology-0-0f49a002-e77d-46a4-9902-524440c7c28b;["topology_master"];3.25;1533765912.65277;4.85;11.67;0.16142096;9;117
35;paravance-36.rennes.grid5000.fr;thermos-root-devel-WordCountTopology-2-b2ed00b9-dfae-43fc-a1db-c16b76f0bae0;["container_2_Emit_random_words_2"];3.25;1533765912.65415;62.67;295.13;5.029735388;10;149
36;paravance-14.rennes.grid5000.fr;thermos-root-devel-WordCountTopology-1-6ba18d03-8eb4-4f6b-b586-2c8efcbf4669;["container_1_Consume_and_count_1"];3.25;1533765922.875;79.79;803.49;81.87489275;10;151
36;paravance-19.rennes.grid5000.fr;thermos-root-devel-WordCountTopology-0-0f49a002-e77d-46a4-9902-524440c7c28b;["topology_master"];3.25;1533765922.86866;4.91;11.79;0.16142096;9;117
36;paravance-36.rennes.grid5000.fr;thermos-root-devel-WordCountTopology-2-b2ed00b9-dfae-43fc-a1db-c16b76f0bae0;["container_2_Emit_random_words_2"];3.25;1533765922.87142;63.73;299.42;5.029735388;10;149
37;paravance-14.rennes.grid5000.fr;thermos-root-devel-WordCountTopology-1-6ba18d03-8eb4-4f6b-b586-2c8efcbf4669;["container_1_Consume_and_count_1"];3.25;1533765933.09116;81.21;819.26;82.357367574;10;151
37;paravance-19.rennes.grid5000.fr;thermos-root-devel-WordCountTopology-0-0f49a002-e77d-46a4-9902-524440c7c28b;["topology_master"];3.25;1533765933.08563;5.0;11.91;0.16142096;9;117
37;paravance-36.rennes.grid5000.fr;thermos-root-devel-WordCountTopology-2-b2ed00b9-dfae-43fc-a1db-c16b76f0bae0;["container_2_Emit_random_words_2"];3.25;1533765933.08833;64.9;304.48;5.050518757;10;149
38;paravance-14.rennes.grid5000.fr;thermos-root-devel-WordCountTopology-1-6ba18d03-8eb4-4f6b-b586-2c8efcbf4669;["container_1_Consume_and_count_1"];3.25;1533765943.30906;82.32;834.78;82.534848332;10;151
38;paravance-19.rennes.grid5000.fr;thermos-root-devel-WordCountTopology-0-0f49a002-e77d-46a4-9902-524440c7c28b;["topology_master"];3.25;1533765943.30345;5.03;11.94;0.16142096;9;117
38;paravance-36.rennes.grid5000.fr;thermos-root-devel-WordCountTopology-2-b2ed00b9-dfae-43fc-a1db-c16b76f0bae0;["container_2_Emit_random_words_2"];3.25;1533765943.30654;65.75;309.03;5.059671762;10;149
39;paravance-14.rennes.grid5000.fr;thermos-root-devel-WordCountTopology-1-6ba18d03-8eb4-4f6b-b586-2c8efcbf4669;["container_1_Consume_and_count_1"];3.25;1533765953.52789;83.67;850.32;82.729410402;10;151
39;paravance-19.rennes.grid5000.fr;thermos-root-devel-WordCountTopology-0-0f49a002-e77d-46a4-9902-524440c7c28b;["topology_master"];3.25;1533765953.52065;5.11;12.06;0.16142096;9;117
39;paravance-36.rennes.grid5000.fr;thermos-root-devel-WordCountTopology-2-b2ed00b9-dfae-43fc-a1db-c16b76f0bae0;["container_2_Emit_random_words_2"];3.25;1533765953.52263;66.83;314.2;5.059671762;10;149
40;paravance-14.rennes.grid5000.fr;thermos-root-devel-WordCountTopology-1-6ba18d03-8eb4-4f6b-b586-2c8efcbf4669;["container_1_Consume_and_count_1"];3.25;1533765963.6458;84.99;866.46;83.094715809;10;151
40;paravance-36.rennes.grid5000.fr;thermos-root-devel-WordCountTopology-2-b2ed00b9-dfae-43fc-a1db-c16b76f0bae0;["container_2_Emit_random_words_2"];3.25;1533765963.74079;67.91;319.35;5.059671762;10;149
40;paravance-19.rennes.grid5000.fr;thermos-root-devel-WordCountTopology-0-0f49a002-e77d-46a4-9902-524440c7c28b;["topology_master"];3.25;1533765963.73708;5.17;12.13;0.16142096;9;117
41;paravance-14.rennes.grid5000.fr;thermos-root-devel-WordCountTopology-1-6ba18d03-8eb4-4f6b-b586-2c8efcbf4669;["container_1_Consume_and_count_1"];3.25;1533765973.9606;86.24;882.12;83.626228092;10;151
41;paravance-36.rennes.grid5000.fr;thermos-root-devel-WordCountTopology-2-b2ed00b9-dfae-43fc-a1db-c16b76f0bae0;["container_2_Emit_random_words_2"];3.25;1533765973.95764;68.85;324.62;5.077259347;10;149
41;paravance-19.rennes.grid5000.fr;thermos-root-devel-WordCountTopology-0-0f49a002-e77d-46a4-9902-524440c7c28b;["topology_master"];3.25;1533765973.9546;5.24;12.22;0.16142096;9;117
42;paravance-14.rennes.grid5000.fr;thermos-root-devel-WordCountTopology-1-6ba18d03-8eb4-4f6b-b586-2c8efcbf4669;["container_1_Consume_and_count_1"];3.25;1533765984.17729;87.53;898.17;84.297920525;10;151
42;paravance-19.rennes.grid5000.fr;thermos-root-devel-WordCountTopology-0-0f49a002-e77d-46a4-9902-524440c7c28b;["topology_master"];3.25;1533765984.17143;5.3;12.32;0.16142096;9;117
42;paravance-36.rennes.grid5000.fr;thermos-root-devel-WordCountTopology-2-b2ed00b9-dfae-43fc-a1db-c16b76f0bae0;["container_2_Emit_random_words_2"];3.25;1533765984.17311;69.91;330.31;5.077259347;10;149
43;paravance-14.rennes.grid5000.fr;thermos-root-devel-WordCountTopology-1-6ba18d03-8eb4-4f6b-b586-2c8efcbf4669;["container_1_Consume_and_count_1"];3.25;1533765994.39208;88.8;913.38;84.739497859;10;151
43;paravance-36.rennes.grid5000.fr;thermos-root-devel-WordCountTopology-2-b2ed00b9-dfae-43fc-a1db-c16b76f0bae0;["container_2_Emit_random_words_2"];3.25;1533765994.3877;70.84;334.67;5.077259347;10;149
43;paravance-19.rennes.grid5000.fr;thermos-root-devel-WordCountTopology-0-0f49a002-e77d-46a4-9902-524440c7c28b;["topology_master"];3.25;1533765994.38519;5.39;12.45;0.16142096;9;117
44;paravance-19.rennes.grid5000.fr;thermos-root-devel-WordCountTopology-0-0f49a002-e77d-46a4-9902-524440c7c28b;["topology_master"];3.25;1533766004.49934;5.41;12.49;0.16142096;9;117
44;paravance-36.rennes.grid5000.fr;thermos-root-devel-WordCountTopology-2-b2ed00b9-dfae-43fc-a1db-c16b76f0bae0;["container_2_Emit_random_words_2"];3.25;1533766004.6012;71.91;340.03;5.077259347;10;149
44;paravance-14.rennes.grid5000.fr;thermos-root-devel-WordCountTopology-1-6ba18d03-8eb4-4f6b-b586-2c8efcbf4669;["container_1_Consume_and_count_1"];3.25;1533766004.60544;90.07;929.15;84.79542906;10;151
45;paravance-14.rennes.grid5000.fr;thermos-root-devel-WordCountTopology-1-6ba18d03-8eb4-4f6b-b586-2c8efcbf4669;["container_1_Consume_and_count_1"];3.25;1533766014.82002;91.18;944.49;84.834641613;10;151
45;paravance-36.rennes.grid5000.fr;thermos-root-devel-WordCountTopology-2-b2ed00b9-dfae-43fc-a1db-c16b76f0bae0;["container_2_Emit_random_words_2"];3.25;1533766014.81514;72.85;344.62;5.084630881;10;149
45;paravance-19.rennes.grid5000.fr;thermos-root-devel-WordCountTopology-0-0f49a002-e77d-46a4-9902-524440c7c28b;["topology_master"];3.25;1533766014.81304;5.5;12.61;0.16142096;9;117
46;paravance-36.rennes.grid5000.fr;thermos-root-devel-WordCountTopology-2-b2ed00b9-dfae-43fc-a1db-c16b76f0bae0;["container_2_Emit_random_words_2"];3.25;1533766025.03185;73.89;349.92;5.084630881;10;149
46;paravance-14.rennes.grid5000.fr;thermos-root-devel-WordCountTopology-1-6ba18d03-8eb4-4f6b-b586-2c8efcbf4669;["container_1_Consume_and_count_1"];3.25;1533766025.03665;92.47;960.37;85.004227437;10;151
46;paravance-19.rennes.grid5000.fr;thermos-root-devel-WordCountTopology-0-0f49a002-e77d-46a4-9902-524440c7c28b;["topology_master"];3.25;1533766025.03005;5.55;12.69;0.16142096;9;117
47;paravance-14.rennes.grid5000.fr;thermos-root-devel-WordCountTopology-1-6ba18d03-8eb4-4f6b-b586-2c8efcbf4669;["container_1_Consume_and_count_1"];3.25;1533766035.15444;93.95;976.97;85.335409734;10;151
47;paravance-36.rennes.grid5000.fr;thermos-root-devel-WordCountTopology-2-b2ed00b9-dfae-43fc-a1db-c16b76f0bae0;["container_2_Emit_random_words_2"];3.25;1533766035.24868;75.16;356.14;5.084630881;10;149
47;paravance-19.rennes.grid5000.fr;thermos-root-devel-WordCountTopology-0-0f49a002-e77d-46a4-9902-524440c7c28b;["topology_master"];3.25;1533766035.24703;5.62;12.77;0.16142096;9;117
48;paravance-14.rennes.grid5000.fr;thermos-root-devel-WordCountTopology-1-6ba18d03-8eb4-4f6b-b586-2c8efcbf4669;["container_1_Consume_and_count_1"];3.25;1533766045.46857;95.11;992.38;85.489206901;10;151
48;paravance-36.rennes.grid5000.fr;thermos-root-devel-WordCountTopology-2-b2ed00b9-dfae-43fc-a1db-c16b76f0bae0;["container_2_Emit_random_words_2"];3.25;1533766045.46245;76.18;361.31;5.084630881;10;149
48;paravance-19.rennes.grid5000.fr;thermos-root-devel-WordCountTopology-0-0f49a002-e77d-46a4-9902-524440c7c28b;["topology_master"];3.25;1533766045.46135;5.68;12.91;0.16142096;9;117
49;paravance-14.rennes.grid5000.fr;thermos-root-devel-WordCountTopology-1-6ba18d03-8eb4-4f6b-b586-2c8efcbf4669;["container_1_Consume_and_count_1"];3.25;1533766055.68384;96.44;1008.32;85.56541547;10;151
49;paravance-36.rennes.grid5000.fr;thermos-root-devel-WordCountTopology-2-b2ed00b9-dfae-43fc-a1db-c16b76f0bae0;["container_2_Emit_random_words_2"];3.25;1533766055.67836;77.39;366.51;5.084630881;10;149
49;paravance-19.rennes.grid5000.fr;thermos-root-devel-WordCountTopology-0-0f49a002-e77d-46a4-9902-524440c7c28b;["topology_master"];3.25;1533766055.67724;5.77;13.03;0.16142096;9;117
50;paravance-14.rennes.grid5000.fr;thermos-root-devel-WordCountTopology-1-6ba18d03-8eb4-4f6b-b586-2c8efcbf4669;["container_1_Consume_and_count_1"];3.25;1533766065.899;97.66;1024.85;86.288787661;10;151
50;paravance-19.rennes.grid5000.fr;thermos-root-devel-WordCountTopology-0-0f49a002-e77d-46a4-9902-524440c7c28b;["topology_master"];3.25;1533766065.89057;5.8;13.08;0.16142096;9;117
50;paravance-36.rennes.grid5000.fr;thermos-root-devel-WordCountTopology-2-b2ed00b9-dfae-43fc-a1db-c16b76f0bae0;["container_2_Emit_random_words_2"];3.25;1533766065.89364;78.41;371.59;5.084630881;10;149
51;paravance-14.rennes.grid5000.fr;thermos-root-devel-WordCountTopology-1-6ba18d03-8eb4-4f6b-b586-2c8efcbf4669;["container_1_Consume_and_count_1"];3.25;1533766076.11406;99.09;1041.37;86.510269282;10;151
51;paravance-36.rennes.grid5000.fr;thermos-root-devel-WordCountTopology-2-b2ed00b9-dfae-43fc-a1db-c16b76f0bae0;["container_2_Emit_random_words_2"];3.25;1533766076.11165;79.63;377.62;5.084630881;10;149
51;paravance-19.rennes.grid5000.fr;thermos-root-devel-WordCountTopology-0-0f49a002-e77d-46a4-9902-524440c7c28b;["topology_master"];3.25;1533766076.10763;5.89;13.21;0.16142096;9;117
52;paravance-14.rennes.grid5000.fr;thermos-root-devel-WordCountTopology-1-6ba18d03-8eb4-4f6b-b586-2c8efcbf4669;["container_1_Consume_and_count_1"];3.25;1533766086.33375;100.5;1058.34;87.049949391;10;151
52;paravance-19.rennes.grid5000.fr;thermos-root-devel-WordCountTopology-0-0f49a002-e77d-46a4-9902-524440c7c28b;["topology_master"];3.25;1533766086.32643;5.95;13.28;0.16142096;9;117
52;paravance-36.rennes.grid5000.fr;thermos-root-devel-WordCountTopology-2-b2ed00b9-dfae-43fc-a1db-c16b76f0bae0;["container_2_Emit_random_words_2"];3.25;1533766086.32738;80.84;383.6;5.084630881;10;149
53;paravance-14.rennes.grid5000.fr;thermos-root-devel-WordCountTopology-1-6ba18d03-8eb4-4f6b-b586-2c8efcbf4669;["container_1_Consume_and_count_1"];3.25;1533766096.54979;101.77;1074.57;87.241188406;10;151
53;paravance-36.rennes.grid5000.fr;thermos-root-devel-WordCountTopology-2-b2ed00b9-dfae-43fc-a1db-c16b76f0bae0;["container_2_Emit_random_words_2"];3.25;1533766096.54541;81.97;389.31;5.084630881;10;149
53;paravance-19.rennes.grid5000.fr;thermos-root-devel-WordCountTopology-0-0f49a002-e77d-46a4-9902-524440c7c28b;["topology_master"];3.25;1533766096.54338;6.02;13.39;0.16142096;9;117
54;paravance-14.rennes.grid5000.fr;thermos-root-devel-WordCountTopology-1-6ba18d03-8eb4-4f6b-b586-2c8efcbf4669;["container_1_Consume_and_count_1"];3.25;1533766106.76514;103.08;1090.46;87.605038012;10;151
54;paravance-36.rennes.grid5000.fr;thermos-root-devel-WordCountTopology-2-b2ed00b9-dfae-43fc-a1db-c16b76f0bae0;["container_2_Emit_random_words_2"];3.25;1533766106.76047;83.08;394.6;5.084630881;10;149
54;paravance-19.rennes.grid5000.fr;thermos-root-devel-WordCountTopology-0-0f49a002-e77d-46a4-9902-524440c7c28b;["topology_master"];3.25;1533766106.75809;6.08;13.46;0.16142096;9;117
55;paravance-36.rennes.grid5000.fr;thermos-root-devel-WordCountTopology-2-b2ed00b9-dfae-43fc-a1db-c16b76f0bae0;["container_2_Emit_random_words_2"];3.25;1533766116.87753;84.06;399.45;5.110535956;10;149
55;paravance-14.rennes.grid5000.fr;thermos-root-devel-WordCountTopology-1-6ba18d03-8eb4-4f6b-b586-2c8efcbf4669;["container_1_Consume_and_count_1"];3.25;1533766116.98118;104.26;1106.01;87.998496924;10;151
55;paravance-19.rennes.grid5000.fr;thermos-root-devel-WordCountTopology-0-0f49a002-e77d-46a4-9902-524440c7c28b;["topology_master"];3.25;1533766116.97479;6.17;13.59;0.16142096;9;117
56;paravance-19.rennes.grid5000.fr;thermos-root-devel-WordCountTopology-0-0f49a002-e77d-46a4-9902-524440c7c28b;["topology_master"];3.25;1533766127.08963;6.2;13.61;0.16142096;9;117
56;paravance-14.rennes.grid5000.fr;thermos-root-devel-WordCountTopology-1-6ba18d03-8eb4-4f6b-b586-2c8efcbf4669;["container_1_Consume_and_count_1"];3.25;1533766127.19644;105.82;1122.92;88.245504052;10;151
56;paravance-36.rennes.grid5000.fr;thermos-root-devel-WordCountTopology-2-b2ed00b9-dfae-43fc-a1db-c16b76f0bae0;["container_2_Emit_random_words_2"];3.25;1533766127.19128;85.39;406.15;5.110535956;10;149
57;paravance-14.rennes.grid5000.fr;thermos-root-devel-WordCountTopology-1-6ba18d03-8eb4-4f6b-b586-2c8efcbf4669;["container_1_Consume_and_count_1"];3.25;1533766137.40867;107.47;1141.24;90.214517746;10;151
57;paravance-36.rennes.grid5000.fr;thermos-root-devel-WordCountTopology-2-b2ed00b9-dfae-43fc-a1db-c16b76f0bae0;["container_2_Emit_random_words_2"];3.25;1533766137.4061;86.87;412.82;5.110535956;10;149
57;paravance-19.rennes.grid5000.fr;thermos-root-devel-WordCountTopology-0-0f49a002-e77d-46a4-9902-524440c7c28b;["topology_master"];3.25;1533766137.40344;6.29;13.74;0.16142096;9;117
58;paravance-14.rennes.grid5000.fr;thermos-root-devel-WordCountTopology-1-6ba18d03-8eb4-4f6b-b586-2c8efcbf4669;["container_1_Consume_and_count_1"];3.25;1533766147.62392;108.38;1156.23;90.356213514;10;151
58;paravance-19.rennes.grid5000.fr;thermos-root-devel-WordCountTopology-0-0f49a002-e77d-46a4-9902-524440c7c28b;["topology_master"];3.25;1533766147.61848;6.35;13.82;0.16142096;9;117
58;paravance-36.rennes.grid5000.fr;thermos-root-devel-WordCountTopology-2-b2ed00b9-dfae-43fc-a1db-c16b76f0bae0;["container_2_Emit_random_words_2"];3.25;1533766147.62092;87.73;416.73;5.110535956;10;149
59;paravance-14.rennes.grid5000.fr;thermos-root-devel-WordCountTopology-1-6ba18d03-8eb4-4f6b-b586-2c8efcbf4669;["container_1_Consume_and_count_1"];3.25;1533766157.84159;109.88;1172.89;90.90431194;10;151
59;paravance-19.rennes.grid5000.fr;thermos-root-devel-WordCountTopology-0-0f49a002-e77d-46a4-9902-524440c7c28b;["topology_master"];3.25;1533766157.83343;6.42;13.92;0.16142096;9;117
59;paravance-36.rennes.grid5000.fr;thermos-root-devel-WordCountTopology-2-b2ed00b9-dfae-43fc-a1db-c16b76f0bae0;["container_2_Emit_random_words_2"];3.25;1533766157.83667;88.92;422.53;5.110535956;10;149
60;paravance-14.rennes.grid5000.fr;thermos-root-devel-WordCountTopology-1-6ba18d03-8eb4-4f6b-b586-2c8efcbf4669;["container_1_Consume_and_count_1"];3.25;1533766168.05697;111.26;1188.66;91.141472385;10;151
60;paravance-36.rennes.grid5000.fr;thermos-root-devel-WordCountTopology-2-b2ed00b9-dfae-43fc-a1db-c16b76f0bae0;["container_2_Emit_random_words_2"];3.25;1533766168.05145;90.01;428.29;5.193629687;10;149
60;paravance-19.rennes.grid5000.fr;thermos-root-devel-WordCountTopology-0-0f49a002-e77d-46a4-9902-524440c7c28b;["topology_master"];3.25;1533766168.05043;6.47;14.0;0.16142096;9;117
