mesure_id;slave_id;executor_id;heron_instances;cpus_limit;timestamp_A;cpus_system_time_secs_A;cpus_user_time_secs_A;cpus_throttled_time_secs_A;processes;threads
0;paravance-34.rennes.grid5000.fr;thermos-root-devel-WordCountTopology-1-1d0fb8dc-64a9-488f-a021-34ee27449b7e;["container_1_Consume_and_count_1"];2.25;1533728103.9692;41.52;157.2;201.059954382;10;151
0;paravance-5.rennes.grid5000.fr;thermos-root-devel-WordCountTopology-2-909acb73-9cbe-4f1b-92cb-8a743e0d2d93;["container_2_Emit_random_words_2"];2.25;1533728103.97106;23.69;95.82;18.626356651;10;149
0;paravance-35.rennes.grid5000.fr;thermos-root-devel-WordCountTopology-0-b81406a7-788d-425d-bac1-a5f1d6ae9ce1;["topology_master"];2.25;1533728103.9684;2.45;8.06;1.101280551;9;117
1;paravance-5.rennes.grid5000.fr;thermos-root-devel-WordCountTopology-2-909acb73-9cbe-4f1b-92cb-8a743e0d2d93;["container_2_Emit_random_words_2"];2.25;1533728114.18826;26.18;104.97;19.122331801;10;149
1;paravance-34.rennes.grid5000.fr;thermos-root-devel-WordCountTopology-1-1d0fb8dc-64a9-488f-a021-34ee27449b7e;["container_1_Consume_and_count_1"];2.25;1533728114.18755;46.13;174.34;224.3671629;10;151
1;paravance-35.rennes.grid5000.fr;thermos-root-devel-WordCountTopology-0-b81406a7-788d-425d-bac1-a5f1d6ae9ce1;["topology_master"];2.25;1533728114.18655;2.51;8.2;1.101280551;9;117
2;paravance-5.rennes.grid5000.fr;thermos-root-devel-WordCountTopology-2-909acb73-9cbe-4f1b-92cb-8a743e0d2d93;["container_2_Emit_random_words_2"];2.25;1533728124.40493;28.76;114.36;19.467833519;10;149
2;paravance-34.rennes.grid5000.fr;thermos-root-devel-WordCountTopology-1-1d0fb8dc-64a9-488f-a021-34ee27449b7e;["container_1_Consume_and_count_1"];2.25;1533728124.40358;50.83;191.39;245.556227514;10;151
2;paravance-35.rennes.grid5000.fr;thermos-root-devel-WordCountTopology-0-b81406a7-788d-425d-bac1-a5f1d6ae9ce1;["topology_master"];2.25;1533728124.40329;2.61;8.34;1.101280551;9;117
3;paravance-34.rennes.grid5000.fr;thermos-root-devel-WordCountTopology-1-1d0fb8dc-64a9-488f-a021-34ee27449b7e;["container_1_Consume_and_count_1"];2.25;1533728134.62145;55.12;208.63;271.631009971;10;151
3;paravance-5.rennes.grid5000.fr;thermos-root-devel-WordCountTopology-2-909acb73-9cbe-4f1b-92cb-8a743e0d2d93;["container_2_Emit_random_words_2"];2.25;1533728134.6223;31.07;122.65;19.856097184;10;149
3;paravance-35.rennes.grid5000.fr;thermos-root-devel-WordCountTopology-0-b81406a7-788d-425d-bac1-a5f1d6ae9ce1;["topology_master"];2.25;1533728134.62134;2.67;8.43;1.101280551;9;117
4;paravance-35.rennes.grid5000.fr;thermos-root-devel-WordCountTopology-0-b81406a7-788d-425d-bac1-a5f1d6ae9ce1;["topology_master"];2.25;1533728144.83779;2.73;8.51;1.101280551;9;117
4;paravance-34.rennes.grid5000.fr;thermos-root-devel-WordCountTopology-1-1d0fb8dc-64a9-488f-a021-34ee27449b7e;["container_1_Consume_and_count_1"];2.25;1533728144.83753;59.75;225.53;293.086276606;10;151
4;paravance-5.rennes.grid5000.fr;thermos-root-devel-WordCountTopology-2-909acb73-9cbe-4f1b-92cb-8a743e0d2d93;["container_2_Emit_random_words_2"];2.25;1533728144.83867;33.85;132.1;20.263506047;10;149
5;paravance-5.rennes.grid5000.fr;thermos-root-devel-WordCountTopology-2-909acb73-9cbe-4f1b-92cb-8a743e0d2d93;["container_2_Emit_random_words_2"];2.25;1533728155.05912;36.52;141.65;20.764353749;10;149
5;paravance-34.rennes.grid5000.fr;thermos-root-devel-WordCountTopology-1-1d0fb8dc-64a9-488f-a021-34ee27449b7e;["container_1_Consume_and_count_1"];2.25;1533728155.05743;64.63;242.27;312.583605536;10;151
5;paravance-35.rennes.grid5000.fr;thermos-root-devel-WordCountTopology-0-b81406a7-788d-425d-bac1-a5f1d6ae9ce1;["topology_master"];2.25;1533728155.05744;2.79;8.58;1.101280551;9;117
6;paravance-5.rennes.grid5000.fr;thermos-root-devel-WordCountTopology-2-909acb73-9cbe-4f1b-92cb-8a743e0d2d93;["container_2_Emit_random_words_2"];2.25;1533728165.27575;39.34;151.66;21.23296971;10;149
6;paravance-34.rennes.grid5000.fr;thermos-root-devel-WordCountTopology-1-1d0fb8dc-64a9-488f-a021-34ee27449b7e;["container_1_Consume_and_count_1"];2.25;1533728165.27498;69.22;259.43;334.028785149;10;151
6;paravance-35.rennes.grid5000.fr;thermos-root-devel-WordCountTopology-0-b81406a7-788d-425d-bac1-a5f1d6ae9ce1;["topology_master"];2.25;1533728165.27533;2.92;8.79;1.101280551;9;117
7;paravance-34.rennes.grid5000.fr;thermos-root-devel-WordCountTopology-1-1d0fb8dc-64a9-488f-a021-34ee27449b7e;["container_1_Consume_and_count_1"];2.25;1533728175.49248;73.83;276.57;354.933426205;10;151
7;paravance-5.rennes.grid5000.fr;thermos-root-devel-WordCountTopology-2-909acb73-9cbe-4f1b-92cb-8a743e0d2d93;["container_2_Emit_random_words_2"];2.25;1533728175.49398;41.83;160.94;21.470884091;10;149
7;paravance-35.rennes.grid5000.fr;thermos-root-devel-WordCountTopology-0-b81406a7-788d-425d-bac1-a5f1d6ae9ce1;["topology_master"];2.25;1533728175.49299;2.95;8.83;1.101280551;9;117
8;paravance-34.rennes.grid5000.fr;thermos-root-devel-WordCountTopology-1-1d0fb8dc-64a9-488f-a021-34ee27449b7e;["container_1_Consume_and_count_1"];2.25;1533728185.70852;78.27;293.73;376.453840098;10;151
8;paravance-35.rennes.grid5000.fr;thermos-root-devel-WordCountTopology-0-b81406a7-788d-425d-bac1-a5f1d6ae9ce1;["topology_master"];2.25;1533728185.70901;3.04;8.96;1.101280551;9;117
8;paravance-5.rennes.grid5000.fr;thermos-root-devel-WordCountTopology-2-909acb73-9cbe-4f1b-92cb-8a743e0d2d93;["container_2_Emit_random_words_2"];2.25;1533728185.71115;44.58;171.22;21.890029752;10;149
9;paravance-34.rennes.grid5000.fr;thermos-root-devel-WordCountTopology-1-1d0fb8dc-64a9-488f-a021-34ee27449b7e;["container_1_Consume_and_count_1"];2.25;1533728195.92652;82.9;310.68;397.883143956;10;151
9;paravance-35.rennes.grid5000.fr;thermos-root-devel-WordCountTopology-0-b81406a7-788d-425d-bac1-a5f1d6ae9ce1;["topology_master"];2.25;1533728195.92586;3.1;9.04;1.101280551;9;117
9;paravance-5.rennes.grid5000.fr;thermos-root-devel-WordCountTopology-2-909acb73-9cbe-4f1b-92cb-8a743e0d2d93;["container_2_Emit_random_words_2"];2.25;1533728195.92973;47.32;180.45;22.227092784;10;149
10;paravance-5.rennes.grid5000.fr;thermos-root-devel-WordCountTopology-2-909acb73-9cbe-4f1b-92cb-8a743e0d2d93;["container_2_Emit_random_words_2"];2.25;1533728206.14377;49.87;189.76;22.605654583;10;149
10;paravance-34.rennes.grid5000.fr;thermos-root-devel-WordCountTopology-1-1d0fb8dc-64a9-488f-a021-34ee27449b7e;["container_1_Consume_and_count_1"];2.25;1533728206.14377;87.48;327.68;419.419869089;10;151
10;paravance-35.rennes.grid5000.fr;thermos-root-devel-WordCountTopology-0-b81406a7-788d-425d-bac1-a5f1d6ae9ce1;["topology_master"];2.25;1533728206.14339;3.16;9.11;1.101280551;9;117
11;paravance-5.rennes.grid5000.fr;thermos-root-devel-WordCountTopology-2-909acb73-9cbe-4f1b-92cb-8a743e0d2d93;["container_2_Emit_random_words_2"];2.25;1533728216.36045;52.53;199.05;22.989068101;10;149
11;paravance-34.rennes.grid5000.fr;thermos-root-devel-WordCountTopology-1-1d0fb8dc-64a9-488f-a021-34ee27449b7e;["container_1_Consume_and_count_1"];2.25;1533728216.35951;92.04;344.76;441.085234595;10;151
11;paravance-35.rennes.grid5000.fr;thermos-root-devel-WordCountTopology-0-b81406a7-788d-425d-bac1-a5f1d6ae9ce1;["topology_master"];2.25;1533728216.35912;3.22;9.19;1.101280551;9;117
12;paravance-5.rennes.grid5000.fr;thermos-root-devel-WordCountTopology-2-909acb73-9cbe-4f1b-92cb-8a743e0d2d93;["container_2_Emit_random_words_2"];2.25;1533728226.57559;54.82;207.89;23.305321972;10;149
12;paravance-35.rennes.grid5000.fr;thermos-root-devel-WordCountTopology-0-b81406a7-788d-425d-bac1-a5f1d6ae9ce1;["topology_master"];2.25;1533728226.57434;3.34;9.47;1.101280551;9;117
12;paravance-34.rennes.grid5000.fr;thermos-root-devel-WordCountTopology-1-1d0fb8dc-64a9-488f-a021-34ee27449b7e;["container_1_Consume_and_count_1"];2.25;1533728226.57613;96.44;362.07;465.636551403;10;151
13;paravance-5.rennes.grid5000.fr;thermos-root-devel-WordCountTopology-2-909acb73-9cbe-4f1b-92cb-8a743e0d2d93;["container_2_Emit_random_words_2"];2.25;1533728236.79353;57.21;216.58;23.562724527;10;149
13;paravance-34.rennes.grid5000.fr;thermos-root-devel-WordCountTopology-1-1d0fb8dc-64a9-488f-a021-34ee27449b7e;["container_1_Consume_and_count_1"];2.25;1533728236.79217;100.78;379.54;489.865862228;10;151
13;paravance-35.rennes.grid5000.fr;thermos-root-devel-WordCountTopology-0-b81406a7-788d-425d-bac1-a5f1d6ae9ce1;["topology_master"];2.25;1533728236.7906;3.37;9.5;1.101280551;9;117
14;paravance-34.rennes.grid5000.fr;thermos-root-devel-WordCountTopology-1-1d0fb8dc-64a9-488f-a021-34ee27449b7e;["container_1_Consume_and_count_1"];2.25;1533728247.0089;105.2;396.83;511.605721924;10;151
14;paravance-5.rennes.grid5000.fr;thermos-root-devel-WordCountTopology-2-909acb73-9cbe-4f1b-92cb-8a743e0d2d93;["container_2_Emit_random_words_2"];2.25;1533728247.01107;59.91;226.09;24.221609878;10;149
14;paravance-35.rennes.grid5000.fr;thermos-root-devel-WordCountTopology-0-b81406a7-788d-425d-bac1-a5f1d6ae9ce1;["topology_master"];2.25;1533728247.00909;3.46;9.65;1.101280551;9;117
15;paravance-34.rennes.grid5000.fr;thermos-root-devel-WordCountTopology-1-1d0fb8dc-64a9-488f-a021-34ee27449b7e;["container_1_Consume_and_count_1"];2.25;1533728257.2261;109.52;414.23;535.308068924;10;151
15;paravance-5.rennes.grid5000.fr;thermos-root-devel-WordCountTopology-2-909acb73-9cbe-4f1b-92cb-8a743e0d2d93;["container_2_Emit_random_words_2"];2.25;1533728257.22779;62.37;234.71;24.608346035;10;149
15;paravance-35.rennes.grid5000.fr;thermos-root-devel-WordCountTopology-0-b81406a7-788d-425d-bac1-a5f1d6ae9ce1;["topology_master"];2.25;1533728257.22674;3.52;9.72;1.101280551;9;117
16;paravance-34.rennes.grid5000.fr;thermos-root-devel-WordCountTopology-1-1d0fb8dc-64a9-488f-a021-34ee27449b7e;["container_1_Consume_and_count_1"];2.25;1533728267.44289;113.9;431.43;559.167445972;10;151
16;paravance-5.rennes.grid5000.fr;thermos-root-devel-WordCountTopology-2-909acb73-9cbe-4f1b-92cb-8a743e0d2d93;["container_2_Emit_random_words_2"];2.25;1533728267.44649;64.75;243.33;24.938260654;10;149
16;paravance-35.rennes.grid5000.fr;thermos-root-devel-WordCountTopology-0-b81406a7-788d-425d-bac1-a5f1d6ae9ce1;["topology_master"];2.25;1533728267.4442;3.58;9.81;1.101280551;9;117
17;paravance-35.rennes.grid5000.fr;thermos-root-devel-WordCountTopology-0-b81406a7-788d-425d-bac1-a5f1d6ae9ce1;["topology_master"];2.25;1533728277.56049;3.64;9.88;1.101280551;9;117
17;paravance-5.rennes.grid5000.fr;thermos-root-devel-WordCountTopology-2-909acb73-9cbe-4f1b-92cb-8a743e0d2d93;["container_2_Emit_random_words_2"];2.25;1533728277.66165;66.94;251.11;25.253353324;10;149
17;paravance-34.rennes.grid5000.fr;thermos-root-devel-WordCountTopology-1-1d0fb8dc-64a9-488f-a021-34ee27449b7e;["container_1_Consume_and_count_1"];2.25;1533728277.65908;118.22;448.69;586.831079018;10;151
18;paravance-35.rennes.grid5000.fr;thermos-root-devel-WordCountTopology-0-b81406a7-788d-425d-bac1-a5f1d6ae9ce1;["topology_master"];2.25;1533728287.87569;3.76;10.1;1.101280551;9;117
18;paravance-5.rennes.grid5000.fr;thermos-root-devel-WordCountTopology-2-909acb73-9cbe-4f1b-92cb-8a743e0d2d93;["container_2_Emit_random_words_2"];2.25;1533728287.87743;69.33;259.16;25.759824922;10;149
18;paravance-34.rennes.grid5000.fr;thermos-root-devel-WordCountTopology-1-1d0fb8dc-64a9-488f-a021-34ee27449b7e;["container_1_Consume_and_count_1"];2.25;1533728287.87645;122.59;465.98;611.834377449;10;151
19;paravance-34.rennes.grid5000.fr;thermos-root-devel-WordCountTopology-1-1d0fb8dc-64a9-488f-a021-34ee27449b7e;["container_1_Consume_and_count_1"];2.25;1533728298.09573;126.91;483.39;635.931068981;10;151
19;paravance-5.rennes.grid5000.fr;thermos-root-devel-WordCountTopology-2-909acb73-9cbe-4f1b-92cb-8a743e0d2d93;["container_2_Emit_random_words_2"];2.25;1533728298.09666;71.53;267.55;25.951324238;10;149
19;paravance-35.rennes.grid5000.fr;thermos-root-devel-WordCountTopology-0-b81406a7-788d-425d-bac1-a5f1d6ae9ce1;["topology_master"];2.25;1533728298.09423;3.78;10.12;1.101280551;9;117
20;paravance-34.rennes.grid5000.fr;thermos-root-devel-WordCountTopology-1-1d0fb8dc-64a9-488f-a021-34ee27449b7e;["container_1_Consume_and_count_1"];2.25;1533728308.31359;131.38;500.56;658.809328634;10;151
20;paravance-35.rennes.grid5000.fr;thermos-root-devel-WordCountTopology-0-b81406a7-788d-425d-bac1-a5f1d6ae9ce1;["topology_master"];2.25;1533728308.3133;3.87;10.26;1.101280551;9;117
20;paravance-5.rennes.grid5000.fr;thermos-root-devel-WordCountTopology-2-909acb73-9cbe-4f1b-92cb-8a743e0d2d93;["container_2_Emit_random_words_2"];2.25;1533728308.31544;73.97;276.19;26.38328037;10;149
21;paravance-5.rennes.grid5000.fr;thermos-root-devel-WordCountTopology-2-909acb73-9cbe-4f1b-92cb-8a743e0d2d93;["container_2_Emit_random_words_2"];2.25;1533728318.53241;76.4;284.81;26.830428044;10;149
21;paravance-34.rennes.grid5000.fr;thermos-root-devel-WordCountTopology-1-1d0fb8dc-64a9-488f-a021-34ee27449b7e;["container_1_Consume_and_count_1"];2.25;1533728318.53144;135.71;517.89;680.826585869;10;151
21;paravance-35.rennes.grid5000.fr;thermos-root-devel-WordCountTopology-0-b81406a7-788d-425d-bac1-a5f1d6ae9ce1;["topology_master"];2.25;1533728318.53078;3.94;10.33;1.101280551;9;117
22;paravance-34.rennes.grid5000.fr;thermos-root-devel-WordCountTopology-1-1d0fb8dc-64a9-488f-a021-34ee27449b7e;["container_1_Consume_and_count_1"];2.25;1533728328.74783;140.15;535.05;703.261977645;10;151
22;paravance-5.rennes.grid5000.fr;thermos-root-devel-WordCountTopology-2-909acb73-9cbe-4f1b-92cb-8a743e0d2d93;["container_2_Emit_random_words_2"];2.25;1533728328.74963;78.8;293.5;27.448198977;10;149
22;paravance-35.rennes.grid5000.fr;thermos-root-devel-WordCountTopology-0-b81406a7-788d-425d-bac1-a5f1d6ae9ce1;["topology_master"];2.25;1533728328.74777;3.99;10.4;1.101280551;9;117
23;paravance-5.rennes.grid5000.fr;thermos-root-devel-WordCountTopology-2-909acb73-9cbe-4f1b-92cb-8a743e0d2d93;["container_2_Emit_random_words_2"];2.25;1533728338.96614;81.11;301.87;27.941293691;10;149
23;paravance-35.rennes.grid5000.fr;thermos-root-devel-WordCountTopology-0-b81406a7-788d-425d-bac1-a5f1d6ae9ce1;["topology_master"];2.25;1533728338.96456;4.05;10.47;1.101280551;9;117
23;paravance-34.rennes.grid5000.fr;thermos-root-devel-WordCountTopology-1-1d0fb8dc-64a9-488f-a021-34ee27449b7e;["container_1_Consume_and_count_1"];2.25;1533728338.96666;144.51;552.32;727.381563231;10;151
24;paravance-5.rennes.grid5000.fr;thermos-root-devel-WordCountTopology-2-909acb73-9cbe-4f1b-92cb-8a743e0d2d93;["container_2_Emit_random_words_2"];2.25;1533728349.18539;83.67;310.61;28.40864776;10;149
24;paravance-34.rennes.grid5000.fr;thermos-root-devel-WordCountTopology-1-1d0fb8dc-64a9-488f-a021-34ee27449b7e;["container_1_Consume_and_count_1"];2.25;1533728349.18439;149.01;569.51;751.366067645;10;151
24;paravance-35.rennes.grid5000.fr;thermos-root-devel-WordCountTopology-0-b81406a7-788d-425d-bac1-a5f1d6ae9ce1;["topology_master"];2.25;1533728349.18351;4.16;10.65;1.101280551;9;117
25;paravance-34.rennes.grid5000.fr;thermos-root-devel-WordCountTopology-1-1d0fb8dc-64a9-488f-a021-34ee27449b7e;["container_1_Consume_and_count_1"];2.25;1533728359.40309;153.61;586.7;775.089388002;10;151
25;paravance-5.rennes.grid5000.fr;thermos-root-devel-WordCountTopology-2-909acb73-9cbe-4f1b-92cb-8a743e0d2d93;["container_2_Emit_random_words_2"];2.25;1533728359.40624;86.47;319.69;28.686703926;10;149
25;paravance-35.rennes.grid5000.fr;thermos-root-devel-WordCountTopology-0-b81406a7-788d-425d-bac1-a5f1d6ae9ce1;["topology_master"];2.25;1533728359.4025;4.19;10.67;1.101280551;9;117
26;paravance-34.rennes.grid5000.fr;thermos-root-devel-WordCountTopology-1-1d0fb8dc-64a9-488f-a021-34ee27449b7e;["container_1_Consume_and_count_1"];2.25;1533728369.62162;158.13;603.88;798.401640448;10;151
26;paravance-5.rennes.grid5000.fr;thermos-root-devel-WordCountTopology-2-909acb73-9cbe-4f1b-92cb-8a743e0d2d93;["container_2_Emit_random_words_2"];2.25;1533728369.62409;89.03;328.45;28.927221757;10;149
26;paravance-35.rennes.grid5000.fr;thermos-root-devel-WordCountTopology-0-b81406a7-788d-425d-bac1-a5f1d6ae9ce1;["topology_master"];2.25;1533728369.62213;4.28;10.81;1.101280551;9;117
27;paravance-34.rennes.grid5000.fr;thermos-root-devel-WordCountTopology-1-1d0fb8dc-64a9-488f-a021-34ee27449b7e;["container_1_Consume_and_count_1"];2.25;1533728379.83979;162.63;621.06;821.931940667;10;151
27;paravance-35.rennes.grid5000.fr;thermos-root-devel-WordCountTopology-0-b81406a7-788d-425d-bac1-a5f1d6ae9ce1;["topology_master"];2.25;1533728379.84048;4.34;10.88;1.101280551;9;117
27;paravance-5.rennes.grid5000.fr;thermos-root-devel-WordCountTopology-2-909acb73-9cbe-4f1b-92cb-8a743e0d2d93;["container_2_Emit_random_words_2"];2.25;1533728379.84268;91.22;336.97;29.282091665;10;149
28;paravance-34.rennes.grid5000.fr;thermos-root-devel-WordCountTopology-1-1d0fb8dc-64a9-488f-a021-34ee27449b7e;["container_1_Consume_and_count_1"];2.25;1533728390.05836;167.17;638.22;844.608792991;10;151
28;paravance-5.rennes.grid5000.fr;thermos-root-devel-WordCountTopology-2-909acb73-9cbe-4f1b-92cb-8a743e0d2d93;["container_2_Emit_random_words_2"];2.25;1533728390.05941;93.49;345.06;29.595864942;10;149
28;paravance-35.rennes.grid5000.fr;thermos-root-devel-WordCountTopology-0-b81406a7-788d-425d-bac1-a5f1d6ae9ce1;["topology_master"];2.25;1533728390.05758;4.4;10.96;1.101280551;9;117
29;paravance-5.rennes.grid5000.fr;thermos-root-devel-WordCountTopology-2-909acb73-9cbe-4f1b-92cb-8a743e0d2d93;["container_2_Emit_random_words_2"];2.25;1533728400.17601;96.06;354.29;29.997255588;10;147
29;paravance-34.rennes.grid5000.fr;thermos-root-devel-WordCountTopology-1-1d0fb8dc-64a9-488f-a021-34ee27449b7e;["container_1_Consume_and_count_1"];2.25;1533728400.27514;171.6;655.54;866.610470864;10;151
29;paravance-35.rennes.grid5000.fr;thermos-root-devel-WordCountTopology-0-b81406a7-788d-425d-bac1-a5f1d6ae9ce1;["topology_master"];2.25;1533728400.27393;4.51;11.1;1.101280551;9;117
30;paravance-35.rennes.grid5000.fr;thermos-root-devel-WordCountTopology-0-b81406a7-788d-425d-bac1-a5f1d6ae9ce1;["topology_master"];2.25;1533728410.49197;4.57;11.24;1.101280551;9;117
30;paravance-34.rennes.grid5000.fr;thermos-root-devel-WordCountTopology-1-1d0fb8dc-64a9-488f-a021-34ee27449b7e;["container_1_Consume_and_count_1"];2.25;1533728410.49445;176.11;672.69;888.310513272;10;151
30;paravance-5.rennes.grid5000.fr;thermos-root-devel-WordCountTopology-2-909acb73-9cbe-4f1b-92cb-8a743e0d2d93;["container_2_Emit_random_words_2"];2.25;1533728410.49534;98.5;363.23;30.484244065;10;149
31;paravance-34.rennes.grid5000.fr;thermos-root-devel-WordCountTopology-1-1d0fb8dc-64a9-488f-a021-34ee27449b7e;["container_1_Consume_and_count_1"];2.25;1533728420.70908;180.6;689.95;910.742243518;10;151
31;paravance-5.rennes.grid5000.fr;thermos-root-devel-WordCountTopology-2-909acb73-9cbe-4f1b-92cb-8a743e0d2d93;["container_2_Emit_random_words_2"];2.25;1533728420.71247;100.77;371.54;30.784300891;10;149
31;paravance-35.rennes.grid5000.fr;thermos-root-devel-WordCountTopology-0-b81406a7-788d-425d-bac1-a5f1d6ae9ce1;["topology_master"];2.25;1533728420.70845;4.63;11.31;1.101280551;9;117
32;paravance-34.rennes.grid5000.fr;thermos-root-devel-WordCountTopology-1-1d0fb8dc-64a9-488f-a021-34ee27449b7e;["container_1_Consume_and_count_1"];2.25;1533728430.92788;185.07;707.06;932.691507095;10;151
32;paravance-35.rennes.grid5000.fr;thermos-root-devel-WordCountTopology-0-b81406a7-788d-425d-bac1-a5f1d6ae9ce1;["topology_master"];2.25;1533728430.92797;4.69;11.39;1.101280551;9;117
32;paravance-5.rennes.grid5000.fr;thermos-root-devel-WordCountTopology-2-909acb73-9cbe-4f1b-92cb-8a743e0d2d93;["container_2_Emit_random_words_2"];2.25;1533728430.93016;103.31;380.03;30.973273484;10;149
33;paravance-34.rennes.grid5000.fr;thermos-root-devel-WordCountTopology-1-1d0fb8dc-64a9-488f-a021-34ee27449b7e;["container_1_Consume_and_count_1"];2.25;1533728441.14257;189.57;724.3;957.423821571;10;151
33;paravance-5.rennes.grid5000.fr;thermos-root-devel-WordCountTopology-2-909acb73-9cbe-4f1b-92cb-8a743e0d2d93;["container_2_Emit_random_words_2"];2.25;1533728441.14394;105.53;387.36;31.027882603;10;149
33;paravance-35.rennes.grid5000.fr;thermos-root-devel-WordCountTopology-0-b81406a7-788d-425d-bac1-a5f1d6ae9ce1;["topology_master"];2.25;1533728441.14221;4.79;11.52;1.101280551;9;117
34;paravance-34.rennes.grid5000.fr;thermos-root-devel-WordCountTopology-1-1d0fb8dc-64a9-488f-a021-34ee27449b7e;["container_1_Consume_and_count_1"];2.25;1533728451.35945;193.86;741.67;981.154475549;10;151
34;paravance-35.rennes.grid5000.fr;thermos-root-devel-WordCountTopology-0-b81406a7-788d-425d-bac1-a5f1d6ae9ce1;["topology_master"];2.25;1533728451.35941;4.85;11.59;1.101280551;9;117
34;paravance-5.rennes.grid5000.fr;thermos-root-devel-WordCountTopology-2-909acb73-9cbe-4f1b-92cb-8a743e0d2d93;["container_2_Emit_random_words_2"];2.25;1533728451.36134;107.82;395.5;31.083975873;10;149
35;paravance-34.rennes.grid5000.fr;thermos-root-devel-WordCountTopology-1-1d0fb8dc-64a9-488f-a021-34ee27449b7e;["container_1_Consume_and_count_1"];2.25;1533728461.57881;198.14;759.26;1003.430211663;10;151
35;paravance-5.rennes.grid5000.fr;thermos-root-devel-WordCountTopology-2-909acb73-9cbe-4f1b-92cb-8a743e0d2d93;["container_2_Emit_random_words_2"];2.25;1533728461.58108;110.22;403.6;31.379950819;10;149
35;paravance-35.rennes.grid5000.fr;thermos-root-devel-WordCountTopology-0-b81406a7-788d-425d-bac1-a5f1d6ae9ce1;["topology_master"];2.25;1533728461.57875;4.91;11.68;1.101280551;9;117
36;paravance-34.rennes.grid5000.fr;thermos-root-devel-WordCountTopology-1-1d0fb8dc-64a9-488f-a021-34ee27449b7e;["container_1_Consume_and_count_1"];2.25;1533728471.79679;202.35;777.05;1026.275281859;10;151
36;paravance-35.rennes.grid5000.fr;thermos-root-devel-WordCountTopology-0-b81406a7-788d-425d-bac1-a5f1d6ae9ce1;["topology_master"];2.25;1533728471.79568;4.98;11.8;1.101280551;9;117
36;paravance-5.rennes.grid5000.fr;thermos-root-devel-WordCountTopology-2-909acb73-9cbe-4f1b-92cb-8a743e0d2d93;["container_2_Emit_random_words_2"];2.25;1533728471.79929;112.87;412.35;31.522418839;10;149
37;paravance-5.rennes.grid5000.fr;thermos-root-devel-WordCountTopology-2-909acb73-9cbe-4f1b-92cb-8a743e0d2d93;["container_2_Emit_random_words_2"];2.25;1533728481.91667;115.3;420.61;31.713365006;10;149
37;paravance-34.rennes.grid5000.fr;thermos-root-devel-WordCountTopology-1-1d0fb8dc-64a9-488f-a021-34ee27449b7e;["container_1_Consume_and_count_1"];2.25;1533728482.01477;206.79;794.51;1049.335019138;10;151
37;paravance-35.rennes.grid5000.fr;thermos-root-devel-WordCountTopology-0-b81406a7-788d-425d-bac1-a5f1d6ae9ce1;["topology_master"];2.25;1533728482.01308;5.07;11.92;1.101280551;9;117
38;paravance-5.rennes.grid5000.fr;thermos-root-devel-WordCountTopology-2-909acb73-9cbe-4f1b-92cb-8a743e0d2d93;["container_2_Emit_random_words_2"];2.25;1533728492.13392;117.75;428.75;31.818868247;10;149
38;paravance-34.rennes.grid5000.fr;thermos-root-devel-WordCountTopology-1-1d0fb8dc-64a9-488f-a021-34ee27449b7e;["container_1_Consume_and_count_1"];2.25;1533728492.2315;211.27;811.72;1072.074090957;10;151
38;paravance-35.rennes.grid5000.fr;thermos-root-devel-WordCountTopology-0-b81406a7-788d-425d-bac1-a5f1d6ae9ce1;["topology_master"];2.25;1533728492.23006;5.1;11.95;1.101280551;9;117
39;paravance-34.rennes.grid5000.fr;thermos-root-devel-WordCountTopology-1-1d0fb8dc-64a9-488f-a021-34ee27449b7e;["container_1_Consume_and_count_1"];2.25;1533728502.44982;215.77;828.95;1093.550955216;10;151
39;paravance-5.rennes.grid5000.fr;thermos-root-devel-WordCountTopology-2-909acb73-9cbe-4f1b-92cb-8a743e0d2d93;["container_2_Emit_random_words_2"];2.25;1533728502.45118;120.39;437.77;32.032128372;10;149
39;paravance-35.rennes.grid5000.fr;thermos-root-devel-WordCountTopology-0-b81406a7-788d-425d-bac1-a5f1d6ae9ce1;["topology_master"];2.25;1533728502.44894;5.19;12.08;1.101280551;9;117
40;paravance-5.rennes.grid5000.fr;thermos-root-devel-WordCountTopology-2-909acb73-9cbe-4f1b-92cb-8a743e0d2d93;["container_2_Emit_random_words_2"];2.25;1533728512.66751;122.99;446.54;32.121544031;10;149
40;paravance-34.rennes.grid5000.fr;thermos-root-devel-WordCountTopology-1-1d0fb8dc-64a9-488f-a021-34ee27449b7e;["container_1_Consume_and_count_1"];2.25;1533728512.66654;220.12;846.35;1115.875470273;10;151
40;paravance-35.rennes.grid5000.fr;thermos-root-devel-WordCountTopology-0-b81406a7-788d-425d-bac1-a5f1d6ae9ce1;["topology_master"];2.25;1533728512.66621;5.25;12.15;1.101280551;9;117
41;paravance-5.rennes.grid5000.fr;thermos-root-devel-WordCountTopology-2-909acb73-9cbe-4f1b-92cb-8a743e0d2d93;["container_2_Emit_random_words_2"];2.25;1533728522.88407;125.61;454.69;32.301036063;10;149
41;paravance-34.rennes.grid5000.fr;thermos-root-devel-WordCountTopology-1-1d0fb8dc-64a9-488f-a021-34ee27449b7e;["container_1_Consume_and_count_1"];2.25;1533728522.88358;224.59;863.69;1137.18942676;10;151
41;paravance-35.rennes.grid5000.fr;thermos-root-devel-WordCountTopology-0-b81406a7-788d-425d-bac1-a5f1d6ae9ce1;["topology_master"];2.25;1533728522.88336;5.32;12.24;1.101280551;9;117
42;paravance-34.rennes.grid5000.fr;thermos-root-devel-WordCountTopology-1-1d0fb8dc-64a9-488f-a021-34ee27449b7e;["container_1_Consume_and_count_1"];2.25;1533728533.10176;228.79;881.11;1163.108101293;10;151
42;paravance-35.rennes.grid5000.fr;thermos-root-devel-WordCountTopology-0-b81406a7-788d-425d-bac1-a5f1d6ae9ce1;["topology_master"];2.25;1533728533.10129;5.38;12.34;1.101280551;9;117
42;paravance-5.rennes.grid5000.fr;thermos-root-devel-WordCountTopology-2-909acb73-9cbe-4f1b-92cb-8a743e0d2d93;["container_2_Emit_random_words_2"];2.25;1533728533.10374;127.93;462.7;32.500747555;10;149
43;paravance-34.rennes.grid5000.fr;thermos-root-devel-WordCountTopology-1-1d0fb8dc-64a9-488f-a021-34ee27449b7e;["container_1_Consume_and_count_1"];2.25;1533728543.31979;233.1;898.48;1186.637001126;10;151
43;paravance-5.rennes.grid5000.fr;thermos-root-devel-WordCountTopology-2-909acb73-9cbe-4f1b-92cb-8a743e0d2d93;["container_2_Emit_random_words_2"];2.25;1533728543.32308;130.22;470.49;32.795714758;10;149
43;paravance-35.rennes.grid5000.fr;thermos-root-devel-WordCountTopology-0-b81406a7-788d-425d-bac1-a5f1d6ae9ce1;["topology_master"];2.25;1533728543.31895;5.47;12.47;1.101280551;9;117
44;paravance-34.rennes.grid5000.fr;thermos-root-devel-WordCountTopology-1-1d0fb8dc-64a9-488f-a021-34ee27449b7e;["container_1_Consume_and_count_1"];2.25;1533728553.53814;235.97;914.52;1199.766754538;10;151
44;paravance-5.rennes.grid5000.fr;thermos-root-devel-WordCountTopology-2-909acb73-9cbe-4f1b-92cb-8a743e0d2d93;["container_2_Emit_random_words_2"];2.25;1533728553.53979;131.88;476.35;32.848581704;10;149
44;paravance-35.rennes.grid5000.fr;thermos-root-devel-WordCountTopology-0-b81406a7-788d-425d-bac1-a5f1d6ae9ce1;["topology_master"];2.25;1533728553.53684;5.5;12.5;1.101280551;9;117
45;paravance-34.rennes.grid5000.fr;thermos-root-devel-WordCountTopology-1-1d0fb8dc-64a9-488f-a021-34ee27449b7e;["container_1_Consume_and_count_1"];2.25;1533728563.75509;238.86;931.01;1209.943419136;10;151
45;paravance-5.rennes.grid5000.fr;thermos-root-devel-WordCountTopology-2-909acb73-9cbe-4f1b-92cb-8a743e0d2d93;["container_2_Emit_random_words_2"];2.25;1533728563.75777;133.57;481.87;32.90513554;10;149
45;paravance-35.rennes.grid5000.fr;thermos-root-devel-WordCountTopology-0-b81406a7-788d-425d-bac1-a5f1d6ae9ce1;["topology_master"];2.25;1533728563.75491;5.59;12.61;1.101280551;9;117
46;paravance-35.rennes.grid5000.fr;thermos-root-devel-WordCountTopology-0-b81406a7-788d-425d-bac1-a5f1d6ae9ce1;["topology_master"];2.25;1533728573.97143;5.65;12.68;1.101280551;9;117
46;paravance-34.rennes.grid5000.fr;thermos-root-devel-WordCountTopology-1-1d0fb8dc-64a9-488f-a021-34ee27449b7e;["container_1_Consume_and_count_1"];2.25;1533728573.97285;241.78;947.68;1223.751829815;10;151
46;paravance-5.rennes.grid5000.fr;thermos-root-devel-WordCountTopology-2-909acb73-9cbe-4f1b-92cb-8a743e0d2d93;["container_2_Emit_random_words_2"];2.25;1533728573.97487;135.42;488.51;32.945690864;10;149
47;paravance-34.rennes.grid5000.fr;thermos-root-devel-WordCountTopology-1-1d0fb8dc-64a9-488f-a021-34ee27449b7e;["container_1_Consume_and_count_1"];2.25;1533728584.19041;244.7;964.33;1235.228839548;10;151
47;paravance-5.rennes.grid5000.fr;thermos-root-devel-WordCountTopology-2-909acb73-9cbe-4f1b-92cb-8a743e0d2d93;["container_2_Emit_random_words_2"];2.25;1533728584.19351;137.08;493.69;32.999711377;10;149
47;paravance-35.rennes.grid5000.fr;thermos-root-devel-WordCountTopology-0-b81406a7-788d-425d-bac1-a5f1d6ae9ce1;["topology_master"];2.25;1533728584.19029;5.71;12.77;1.101280551;9;117
48;paravance-34.rennes.grid5000.fr;thermos-root-devel-WordCountTopology-1-1d0fb8dc-64a9-488f-a021-34ee27449b7e;["container_1_Consume_and_count_1"];2.25;1533728594.408;247.47;981.15;1245.842585034;10;151
48;paravance-5.rennes.grid5000.fr;thermos-root-devel-WordCountTopology-2-909acb73-9cbe-4f1b-92cb-8a743e0d2d93;["container_2_Emit_random_words_2"];2.25;1533728594.41057;138.94;499.65;33.155544315;10;149
48;paravance-35.rennes.grid5000.fr;thermos-root-devel-WordCountTopology-0-b81406a7-788d-425d-bac1-a5f1d6ae9ce1;["topology_master"];2.25;1533728594.40936;5.77;12.89;1.101280551;9;117
49;paravance-34.rennes.grid5000.fr;thermos-root-devel-WordCountTopology-1-1d0fb8dc-64a9-488f-a021-34ee27449b7e;["container_1_Consume_and_count_1"];2.25;1533728604.62634;250.43;997.67;1258.020286822;10;151
49;paravance-35.rennes.grid5000.fr;thermos-root-devel-WordCountTopology-0-b81406a7-788d-425d-bac1-a5f1d6ae9ce1;["topology_master"];2.25;1533728604.62562;5.86;13.03;1.101280551;9;117
49;paravance-5.rennes.grid5000.fr;thermos-root-devel-WordCountTopology-2-909acb73-9cbe-4f1b-92cb-8a743e0d2d93;["container_2_Emit_random_words_2"];2.25;1533728604.6286;140.34;504.32;33.195475219;10;149
50;paravance-34.rennes.grid5000.fr;thermos-root-devel-WordCountTopology-1-1d0fb8dc-64a9-488f-a021-34ee27449b7e;["container_1_Consume_and_count_1"];2.25;1533728614.84361;253.3;1014.18;1268.360970373;10;151
50;paravance-5.rennes.grid5000.fr;thermos-root-devel-WordCountTopology-2-909acb73-9cbe-4f1b-92cb-8a743e0d2d93;["container_2_Emit_random_words_2"];2.25;1533728614.8473;141.95;510.08;33.216494951;10;149
50;paravance-35.rennes.grid5000.fr;thermos-root-devel-WordCountTopology-0-b81406a7-788d-425d-bac1-a5f1d6ae9ce1;["topology_master"];2.25;1533728614.84316;5.89;13.07;1.101280551;9;117
51;paravance-34.rennes.grid5000.fr;thermos-root-devel-WordCountTopology-1-1d0fb8dc-64a9-488f-a021-34ee27449b7e;["container_1_Consume_and_count_1"];2.25;1533728625.06096;256.32;1030.71;1280.003543322;10;151
51;paravance-35.rennes.grid5000.fr;thermos-root-devel-WordCountTopology-0-b81406a7-788d-425d-bac1-a5f1d6ae9ce1;["topology_master"];2.25;1533728625.06042;5.98;13.19;1.101280551;9;117
51;paravance-5.rennes.grid5000.fr;thermos-root-devel-WordCountTopology-2-909acb73-9cbe-4f1b-92cb-8a743e0d2d93;["container_2_Emit_random_words_2"];2.25;1533728625.06453;143.53;516.05;33.384320195;10;149
52;paravance-34.rennes.grid5000.fr;thermos-root-devel-WordCountTopology-1-1d0fb8dc-64a9-488f-a021-34ee27449b7e;["container_1_Consume_and_count_1"];2.25;1533728635.2746;259.36;1047.15;1289.579702698;10;151
52;paravance-35.rennes.grid5000.fr;thermos-root-devel-WordCountTopology-0-b81406a7-788d-425d-bac1-a5f1d6ae9ce1;["topology_master"];2.25;1533728635.27523;6.04;13.27;1.101280551;9;117
52;paravance-5.rennes.grid5000.fr;thermos-root-devel-WordCountTopology-2-909acb73-9cbe-4f1b-92cb-8a743e0d2d93;["container_2_Emit_random_words_2"];2.25;1533728635.27884;145.28;521.8;33.438273328;10;149
53;paravance-34.rennes.grid5000.fr;thermos-root-devel-WordCountTopology-1-1d0fb8dc-64a9-488f-a021-34ee27449b7e;["container_1_Consume_and_count_1"];2.25;1533728645.4915;262.67;1063.84;1303.874465975;10;151
53;paravance-35.rennes.grid5000.fr;thermos-root-devel-WordCountTopology-0-b81406a7-788d-425d-bac1-a5f1d6ae9ce1;["topology_master"];2.25;1533728645.49182;6.11;13.39;1.101280551;9;117
53;paravance-5.rennes.grid5000.fr;thermos-root-devel-WordCountTopology-2-909acb73-9cbe-4f1b-92cb-8a743e0d2d93;["container_2_Emit_random_words_2"];2.25;1533728645.4956;147.0;527.65;33.453157344;10;149
54;paravance-34.rennes.grid5000.fr;thermos-root-devel-WordCountTopology-1-1d0fb8dc-64a9-488f-a021-34ee27449b7e;["container_1_Consume_and_count_1"];2.25;1533728655.70886;265.9;1080.49;1316.055480937;10;151
54;paravance-5.rennes.grid5000.fr;thermos-root-devel-WordCountTopology-2-909acb73-9cbe-4f1b-92cb-8a743e0d2d93;["container_2_Emit_random_words_2"];2.25;1533728655.71077;148.67;533.49;33.515105588;10;149
54;paravance-35.rennes.grid5000.fr;thermos-root-devel-WordCountTopology-0-b81406a7-788d-425d-bac1-a5f1d6ae9ce1;["topology_master"];2.25;1533728655.71016;6.17;13.47;1.101280551;9;117
55;paravance-34.rennes.grid5000.fr;thermos-root-devel-WordCountTopology-1-1d0fb8dc-64a9-488f-a021-34ee27449b7e;["container_1_Consume_and_count_1"];2.25;1533728665.92566;268.99;1096.87;1328.224811656;10;151
55;paravance-35.rennes.grid5000.fr;thermos-root-devel-WordCountTopology-0-b81406a7-788d-425d-bac1-a5f1d6ae9ce1;["topology_master"];2.25;1533728665.92715;6.26;13.6;1.101280551;9;117
55;paravance-5.rennes.grid5000.fr;thermos-root-devel-WordCountTopology-2-909acb73-9cbe-4f1b-92cb-8a743e0d2d93;["container_2_Emit_random_words_2"];2.25;1533728665.92982;150.46;539.38;33.544220022;10;149
56;paravance-34.rennes.grid5000.fr;thermos-root-devel-WordCountTopology-1-1d0fb8dc-64a9-488f-a021-34ee27449b7e;["container_1_Consume_and_count_1"];2.25;1533728676.14598;271.85;1113.48;1339.903443709;10;151
56;paravance-5.rennes.grid5000.fr;thermos-root-devel-WordCountTopology-2-909acb73-9cbe-4f1b-92cb-8a743e0d2d93;["container_2_Emit_random_words_2"];2.25;1533728676.14833;152.02;544.53;33.554005818;10;149
56;paravance-35.rennes.grid5000.fr;thermos-root-devel-WordCountTopology-0-b81406a7-788d-425d-bac1-a5f1d6ae9ce1;["topology_master"];2.25;1533728676.14553;6.29;13.63;1.101280551;9;117
57;paravance-34.rennes.grid5000.fr;thermos-root-devel-WordCountTopology-1-1d0fb8dc-64a9-488f-a021-34ee27449b7e;["container_1_Consume_and_count_1"];2.25;1533728686.36336;274.75;1129.96;1352.036777955;10;151
57;paravance-5.rennes.grid5000.fr;thermos-root-devel-WordCountTopology-2-909acb73-9cbe-4f1b-92cb-8a743e0d2d93;["container_2_Emit_random_words_2"];2.25;1533728686.36677;153.72;550.19;33.574715494;10;149
57;paravance-35.rennes.grid5000.fr;thermos-root-devel-WordCountTopology-0-b81406a7-788d-425d-bac1-a5f1d6ae9ce1;["topology_master"];2.25;1533728686.3623;6.38;13.75;1.101280551;9;117
58;paravance-34.rennes.grid5000.fr;thermos-root-devel-WordCountTopology-1-1d0fb8dc-64a9-488f-a021-34ee27449b7e;["container_1_Consume_and_count_1"];2.25;1533728696.57773;277.64;1146.62;1362.790749262;10;151
58;paravance-5.rennes.grid5000.fr;thermos-root-devel-WordCountTopology-2-909acb73-9cbe-4f1b-92cb-8a743e0d2d93;["container_2_Emit_random_words_2"];2.25;1533728696.58061;155.56;556.72;33.592080633;10;149
58;paravance-35.rennes.grid5000.fr;thermos-root-devel-WordCountTopology-0-b81406a7-788d-425d-bac1-a5f1d6ae9ce1;["topology_master"];2.25;1533728696.5771;6.44;13.83;1.101280551;9;117
59;paravance-34.rennes.grid5000.fr;thermos-root-devel-WordCountTopology-1-1d0fb8dc-64a9-488f-a021-34ee27449b7e;["container_1_Consume_and_count_1"];2.25;1533728706.79279;280.69;1163.02;1374.695299952;10;151
59;paravance-5.rennes.grid5000.fr;thermos-root-devel-WordCountTopology-2-909acb73-9cbe-4f1b-92cb-8a743e0d2d93;["container_2_Emit_random_words_2"];2.25;1533728706.79478;157.22;562.27;33.607423335;10;149
59;paravance-35.rennes.grid5000.fr;thermos-root-devel-WordCountTopology-0-b81406a7-788d-425d-bac1-a5f1d6ae9ce1;["topology_master"];2.25;1533728706.792;6.51;13.94;1.101280551;9;117
60;paravance-34.rennes.grid5000.fr;thermos-root-devel-WordCountTopology-1-1d0fb8dc-64a9-488f-a021-34ee27449b7e;["container_1_Consume_and_count_1"];2.25;1533728717.00792;284.08;1179.77;1386.189295384;10;151
60;paravance-5.rennes.grid5000.fr;thermos-root-devel-WordCountTopology-2-909acb73-9cbe-4f1b-92cb-8a743e0d2d93;["container_2_Emit_random_words_2"];2.25;1533728717.01145;159.31;569.9;33.667154173;10;149
60;paravance-35.rennes.grid5000.fr;thermos-root-devel-WordCountTopology-0-b81406a7-788d-425d-bac1-a5f1d6ae9ce1;["topology_master"];2.25;1533728717.00864;6.57;14.02;1.101280551;9;117
