mesure_id;slave_id;executor_id;heron_instances;cpus_limit;timestamp_B;cpus_system_time_secs_B;cpus_user_time_secs_B;cpus_throttled_time_secs_B;processes;threads
0;paravance-14.rennes.grid5000.fr;thermos-root-devel-WordCountTopology-2-b14ebc8d-4f2a-49ec-8544-eba63fcdfcaa;["container_2_Emit_random_words_2"];3.25;1533807441.2572;16.64;184.41;6.886020805;10;149
0;paravance-13.rennes.grid5000.fr;thermos-root-devel-WordCountTopology-1-a0c765b3-38c4-4c0f-a712-3067bd679f5a;["container_1_Consume_and_count_1"];3.25;1533807441.24154;41.87;289.66;61.916815527;10;151
0;paravance-16.rennes.grid5000.fr;thermos-root-devel-WordCountTopology-0-fbc4f085-53e4-46e1-a8c9-5278260f3c82;["topology_master"];3.25;1533807441.30749;2.47;8.01;0.36546103;9;117
1;paravance-13.rennes.grid5000.fr;thermos-root-devel-WordCountTopology-1-a0c765b3-38c4-4c0f-a712-3067bd679f5a;["container_1_Consume_and_count_1"];3.25;1533807451.36058;45.98;316.48;68.416120686;10;151
1;paravance-14.rennes.grid5000.fr;thermos-root-devel-WordCountTopology-2-b14ebc8d-4f2a-49ec-8544-eba63fcdfcaa;["container_2_Emit_random_words_2"];3.25;1533807451.57369;18.15;202.15;6.886020805;10;149
1;paravance-16.rennes.grid5000.fr;thermos-root-devel-WordCountTopology-0-fbc4f085-53e4-46e1-a8c9-5278260f3c82;["topology_master"];3.25;1533807451.52451;2.56;8.15;0.36546103;9;117
2;paravance-13.rennes.grid5000.fr;thermos-root-devel-WordCountTopology-1-a0c765b3-38c4-4c0f-a712-3067bd679f5a;["container_1_Consume_and_count_1"];3.25;1533807461.676;48.9;343.33;79.255639217;10;151
2;paravance-16.rennes.grid5000.fr;thermos-root-devel-WordCountTopology-0-fbc4f085-53e4-46e1-a8c9-5278260f3c82;["topology_master"];3.25;1533807461.74212;2.59;8.19;0.36546103;9;117
2;paravance-14.rennes.grid5000.fr;thermos-root-devel-WordCountTopology-2-b14ebc8d-4f2a-49ec-8544-eba63fcdfcaa;["container_2_Emit_random_words_2"];3.25;1533807461.7913;19.28;215.66;6.914172832;10;149
3;paravance-13.rennes.grid5000.fr;thermos-root-devel-WordCountTopology-1-a0c765b3-38c4-4c0f-a712-3067bd679f5a;["container_1_Consume_and_count_1"];3.25;1533807471.79379;52.16;370.74;87.818014369;10;151
3;paravance-14.rennes.grid5000.fr;thermos-root-devel-WordCountTopology-2-b14ebc8d-4f2a-49ec-8544-eba63fcdfcaa;["container_2_Emit_random_words_2"];3.25;1533807472.00887;20.64;231.91;6.914172832;10;149
3;paravance-16.rennes.grid5000.fr;thermos-root-devel-WordCountTopology-0-fbc4f085-53e4-46e1-a8c9-5278260f3c82;["topology_master"];3.25;1533807471.95905;2.69;8.32;0.36546103;9;117
4;paravance-16.rennes.grid5000.fr;thermos-root-devel-WordCountTopology-0-fbc4f085-53e4-46e1-a8c9-5278260f3c82;["topology_master"];3.25;1533807482.07727;2.75;8.39;0.36546103;9;117
4;paravance-13.rennes.grid5000.fr;thermos-root-devel-WordCountTopology-1-a0c765b3-38c4-4c0f-a712-3067bd679f5a;["container_1_Consume_and_count_1"];3.25;1533807482.11352;56.75;396.32;88.049127466;10;151
4;paravance-14.rennes.grid5000.fr;thermos-root-devel-WordCountTopology-2-b14ebc8d-4f2a-49ec-8544-eba63fcdfcaa;["container_2_Emit_random_words_2"];3.25;1533807482.2272;22.22;250.88;6.914172832;10;149
5;paravance-16.rennes.grid5000.fr;thermos-root-devel-WordCountTopology-0-fbc4f085-53e4-46e1-a8c9-5278260f3c82;["topology_master"];3.25;1533807492.3933;2.85;8.56;0.36546103;9;117
5;paravance-13.rennes.grid5000.fr;thermos-root-devel-WordCountTopology-1-a0c765b3-38c4-4c0f-a712-3067bd679f5a;["container_1_Consume_and_count_1"];3.25;1533807492.32979;61.3;421.67;88.736597431;10;151
5;paravance-14.rennes.grid5000.fr;thermos-root-devel-WordCountTopology-2-b14ebc8d-4f2a-49ec-8544-eba63fcdfcaa;["container_2_Emit_random_words_2"];3.25;1533807492.44376;23.79;270.4;6.930233127;10;149
6;paravance-14.rennes.grid5000.fr;thermos-root-devel-WordCountTopology-2-b14ebc8d-4f2a-49ec-8544-eba63fcdfcaa;["container_2_Emit_random_words_2"];3.25;1533807502.66458;25.33;289.29;6.930233127;10;149
6;paravance-13.rennes.grid5000.fr;thermos-root-devel-WordCountTopology-1-a0c765b3-38c4-4c0f-a712-3067bd679f5a;["container_1_Consume_and_count_1"];3.25;1533807502.55062;66.04;447.56;89.250258285;10;151
6;paravance-16.rennes.grid5000.fr;thermos-root-devel-WordCountTopology-0-fbc4f085-53e4-46e1-a8c9-5278260f3c82;["topology_master"];3.25;1533807502.61668;2.9;8.65;0.36546103;9;117
7;paravance-13.rennes.grid5000.fr;thermos-root-devel-WordCountTopology-1-a0c765b3-38c4-4c0f-a712-3067bd679f5a;["container_1_Consume_and_count_1"];3.25;1533807512.77049;70.24;474.97;97.0554072;10;151
7;paravance-16.rennes.grid5000.fr;thermos-root-devel-WordCountTopology-0-fbc4f085-53e4-46e1-a8c9-5278260f3c82;["topology_master"];3.25;1533807512.83875;3.0;8.78;0.36546103;9;117
7;paravance-14.rennes.grid5000.fr;thermos-root-devel-WordCountTopology-2-b14ebc8d-4f2a-49ec-8544-eba63fcdfcaa;["container_2_Emit_random_words_2"];3.25;1533807512.88905;26.77;306.77;6.930233127;10;149
8;paravance-16.rennes.grid5000.fr;thermos-root-devel-WordCountTopology-0-fbc4f085-53e4-46e1-a8c9-5278260f3c82;["topology_master"];3.25;1533807523.05625;3.02;8.8;0.36546103;9;117
8;paravance-13.rennes.grid5000.fr;thermos-root-devel-WordCountTopology-1-a0c765b3-38c4-4c0f-a712-3067bd679f5a;["container_1_Consume_and_count_1"];3.25;1533807522.99211;73.62;502.95;107.283059208;10;151
8;paravance-14.rennes.grid5000.fr;thermos-root-devel-WordCountTopology-2-b14ebc8d-4f2a-49ec-8544-eba63fcdfcaa;["container_2_Emit_random_words_2"];3.25;1533807523.10614;27.97;321.13;6.930233127;10;149
9;paravance-13.rennes.grid5000.fr;thermos-root-devel-WordCountTopology-1-a0c765b3-38c4-4c0f-a712-3067bd679f5a;["container_1_Consume_and_count_1"];3.25;1533807533.20639;76.22;529.29;117.32793656;10;151
9;paravance-14.rennes.grid5000.fr;thermos-root-devel-WordCountTopology-2-b14ebc8d-4f2a-49ec-8544-eba63fcdfcaa;["container_2_Emit_random_words_2"];3.25;1533807533.32216;28.94;332.88;6.930233127;10;149
9;paravance-16.rennes.grid5000.fr;thermos-root-devel-WordCountTopology-0-fbc4f085-53e4-46e1-a8c9-5278260f3c82;["topology_master"];3.25;1533807533.27407;3.12;8.93;0.36546103;9;117
10;paravance-14.rennes.grid5000.fr;thermos-root-devel-WordCountTopology-2-b14ebc8d-4f2a-49ec-8544-eba63fcdfcaa;["container_2_Emit_random_words_2"];3.25;1533807543.53932;30.07;346.49;6.930233127;10;149
10;paravance-16.rennes.grid5000.fr;thermos-root-devel-WordCountTopology-0-fbc4f085-53e4-46e1-a8c9-5278260f3c82;["topology_master"];3.25;1533807543.4899;3.17;9.0;0.36546103;9;117
10;paravance-13.rennes.grid5000.fr;thermos-root-devel-WordCountTopology-1-a0c765b3-38c4-4c0f-a712-3067bd679f5a;["container_1_Consume_and_count_1"];3.25;1533807543.42561;79.4;557.55;127.295250375;10;151
11;paravance-13.rennes.grid5000.fr;thermos-root-devel-WordCountTopology-1-a0c765b3-38c4-4c0f-a712-3067bd679f5a;["container_1_Consume_and_count_1"];3.25;1533807553.64058;82.57;586.35;140.082348998;10;151
11;paravance-14.rennes.grid5000.fr;thermos-root-devel-WordCountTopology-2-b14ebc8d-4f2a-49ec-8544-eba63fcdfcaa;["container_2_Emit_random_words_2"];3.25;1533807553.75603;31.2;359.01;6.930233127;10;149
11;paravance-16.rennes.grid5000.fr;thermos-root-devel-WordCountTopology-0-fbc4f085-53e4-46e1-a8c9-5278260f3c82;["topology_master"];3.25;1533807553.70583;3.3;9.28;0.36546103;9;117
12;paravance-13.rennes.grid5000.fr;thermos-root-devel-WordCountTopology-1-a0c765b3-38c4-4c0f-a712-3067bd679f5a;["container_1_Consume_and_count_1"];3.25;1533807563.8643;85.82;614.58;151.249472452;10;151
12;paravance-16.rennes.grid5000.fr;thermos-root-devel-WordCountTopology-0-fbc4f085-53e4-46e1-a8c9-5278260f3c82;["topology_master"];3.25;1533807563.93065;3.32;9.3;0.36546103;9;117
12;paravance-14.rennes.grid5000.fr;thermos-root-devel-WordCountTopology-2-b14ebc8d-4f2a-49ec-8544-eba63fcdfcaa;["container_2_Emit_random_words_2"];3.25;1533807563.98269;32.42;373.88;6.930233127;10;149
13;paravance-13.rennes.grid5000.fr;thermos-root-devel-WordCountTopology-1-a0c765b3-38c4-4c0f-a712-3067bd679f5a;["container_1_Consume_and_count_1"];3.25;1533807574.09015;88.78;642.96;162.404826236;10;151
13;paravance-16.rennes.grid5000.fr;thermos-root-devel-WordCountTopology-0-fbc4f085-53e4-46e1-a8c9-5278260f3c82;["topology_master"];3.25;1533807574.15579;3.42;9.46;0.36546103;9;117
13;paravance-14.rennes.grid5000.fr;thermos-root-devel-WordCountTopology-2-b14ebc8d-4f2a-49ec-8544-eba63fcdfcaa;["container_2_Emit_random_words_2"];3.25;1533807574.20787;33.48;386.1;6.930233127;10;149
14;paravance-16.rennes.grid5000.fr;thermos-root-devel-WordCountTopology-0-fbc4f085-53e4-46e1-a8c9-5278260f3c82;["topology_master"];3.25;1533807584.38035;3.47;9.53;0.36546103;9;117
14;paravance-13.rennes.grid5000.fr;thermos-root-devel-WordCountTopology-1-a0c765b3-38c4-4c0f-a712-3067bd679f5a;["container_1_Consume_and_count_1"];3.25;1533807584.31584;92.04;671.4;170.646104782;10;151
14;paravance-14.rennes.grid5000.fr;thermos-root-devel-WordCountTopology-2-b14ebc8d-4f2a-49ec-8544-eba63fcdfcaa;["container_2_Emit_random_words_2"];3.25;1533807584.43152;34.21;394.19;6.930233127;10;149
15;paravance-13.rennes.grid5000.fr;thermos-root-devel-WordCountTopology-1-a0c765b3-38c4-4c0f-a712-3067bd679f5a;["container_1_Consume_and_count_1"];3.25;1533807594.53519;94.98;699.13;179.475144849;10;151
15;paravance-14.rennes.grid5000.fr;thermos-root-devel-WordCountTopology-2-b14ebc8d-4f2a-49ec-8544-eba63fcdfcaa;["container_2_Emit_random_words_2"];3.25;1533807594.65019;35.03;403.52;6.930233127;10;149
15;paravance-16.rennes.grid5000.fr;thermos-root-devel-WordCountTopology-0-fbc4f085-53e4-46e1-a8c9-5278260f3c82;["topology_master"];3.25;1533807594.60581;3.53;9.62;0.36546103;9;117
16;paravance-13.rennes.grid5000.fr;thermos-root-devel-WordCountTopology-1-a0c765b3-38c4-4c0f-a712-3067bd679f5a;["container_1_Consume_and_count_1"];3.25;1533807604.75366;97.94;728.28;192.601020154;10;151
16;paravance-14.rennes.grid5000.fr;thermos-root-devel-WordCountTopology-2-b14ebc8d-4f2a-49ec-8544-eba63fcdfcaa;["container_2_Emit_random_words_2"];3.25;1533807604.86852;36.18;417.01;6.930233127;10;149
16;paravance-16.rennes.grid5000.fr;thermos-root-devel-WordCountTopology-0-fbc4f085-53e4-46e1-a8c9-5278260f3c82;["topology_master"];3.25;1533807604.82061;3.59;9.7;0.36546103;9;117
17;paravance-13.rennes.grid5000.fr;thermos-root-devel-WordCountTopology-1-a0c765b3-38c4-4c0f-a712-3067bd679f5a;["container_1_Consume_and_count_1"];3.25;1533807614.97109;100.87;755.63;202.938930718;10;151
17;paravance-16.rennes.grid5000.fr;thermos-root-devel-WordCountTopology-0-fbc4f085-53e4-46e1-a8c9-5278260f3c82;["topology_master"];3.25;1533807615.03699;3.71;9.95;0.36546103;9;117
17;paravance-14.rennes.grid5000.fr;thermos-root-devel-WordCountTopology-2-b14ebc8d-4f2a-49ec-8544-eba63fcdfcaa;["container_2_Emit_random_words_2"];3.25;1533807615.0858;37.21;428.44;6.930233127;10;149
18;paravance-13.rennes.grid5000.fr;thermos-root-devel-WordCountTopology-1-a0c765b3-38c4-4c0f-a712-3067bd679f5a;["container_1_Consume_and_count_1"];3.25;1533807625.18794;103.3;783.28;214.003127275;10;151
18;paravance-16.rennes.grid5000.fr;thermos-root-devel-WordCountTopology-0-fbc4f085-53e4-46e1-a8c9-5278260f3c82;["topology_master"];3.25;1533807625.25377;3.74;9.98;0.36546103;9;117
18;paravance-14.rennes.grid5000.fr;thermos-root-devel-WordCountTopology-2-b14ebc8d-4f2a-49ec-8544-eba63fcdfcaa;["container_2_Emit_random_words_2"];3.25;1533807625.30386;38.18;440.32;6.930233127;10;149
19;paravance-13.rennes.grid5000.fr;thermos-root-devel-WordCountTopology-1-a0c765b3-38c4-4c0f-a712-3067bd679f5a;["container_1_Consume_and_count_1"];3.25;1533807635.40355;106.16;809.91;223.111872522;10;151
19;paravance-14.rennes.grid5000.fr;thermos-root-devel-WordCountTopology-2-b14ebc8d-4f2a-49ec-8544-eba63fcdfcaa;["container_2_Emit_random_words_2"];3.25;1533807635.51879;39.08;449.77;6.930233127;10;149
19;paravance-16.rennes.grid5000.fr;thermos-root-devel-WordCountTopology-0-fbc4f085-53e4-46e1-a8c9-5278260f3c82;["topology_master"];3.25;1533807635.46936;3.84;10.12;0.36546103;9;117
20;paravance-13.rennes.grid5000.fr;thermos-root-devel-WordCountTopology-1-a0c765b3-38c4-4c0f-a712-3067bd679f5a;["container_1_Consume_and_count_1"];3.25;1533807645.62551;109.47;838.09;232.706359871;10;151
20;paravance-14.rennes.grid5000.fr;thermos-root-devel-WordCountTopology-2-b14ebc8d-4f2a-49ec-8544-eba63fcdfcaa;["container_2_Emit_random_words_2"];3.25;1533807645.74025;40.44;465.3;6.930233127;10;149
20;paravance-16.rennes.grid5000.fr;thermos-root-devel-WordCountTopology-0-fbc4f085-53e4-46e1-a8c9-5278260f3c82;["topology_master"];3.25;1533807645.69484;3.9;10.2;0.36546103;9;117
21;paravance-16.rennes.grid5000.fr;thermos-root-devel-WordCountTopology-0-fbc4f085-53e4-46e1-a8c9-5278260f3c82;["topology_master"];3.25;1533807655.91076;3.96;10.27;0.36546103;9;117
21;paravance-13.rennes.grid5000.fr;thermos-root-devel-WordCountTopology-1-a0c765b3-38c4-4c0f-a712-3067bd679f5a;["container_1_Consume_and_count_1"];3.25;1533807655.84992;112.58;865.89;242.65669983;10;151
21;paravance-14.rennes.grid5000.fr;thermos-root-devel-WordCountTopology-2-b14ebc8d-4f2a-49ec-8544-eba63fcdfcaa;["container_2_Emit_random_words_2"];3.25;1533807655.96459;41.31;475.04;6.930233127;10;149
22;paravance-16.rennes.grid5000.fr;thermos-root-devel-WordCountTopology-0-fbc4f085-53e4-46e1-a8c9-5278260f3c82;["topology_master"];3.25;1533807666.1293;4.02;10.35;0.36546103;9;117
22;paravance-14.rennes.grid5000.fr;thermos-root-devel-WordCountTopology-2-b14ebc8d-4f2a-49ec-8544-eba63fcdfcaa;["container_2_Emit_random_words_2"];3.25;1533807666.18079;42.33;487.3;6.930233127;10;149
22;paravance-13.rennes.grid5000.fr;thermos-root-devel-WordCountTopology-1-a0c765b3-38c4-4c0f-a712-3067bd679f5a;["container_1_Consume_and_count_1"];3.25;1533807666.06725;115.51;893.29;253.760754317;10;151
23;paravance-13.rennes.grid5000.fr;thermos-root-devel-WordCountTopology-1-a0c765b3-38c4-4c0f-a712-3067bd679f5a;["container_1_Consume_and_count_1"];3.25;1533807676.28697;118.27;921.57;264.9592794;10;151
23;paravance-16.rennes.grid5000.fr;thermos-root-devel-WordCountTopology-0-fbc4f085-53e4-46e1-a8c9-5278260f3c82;["topology_master"];3.25;1533807676.35178;4.14;10.52;0.36546103;9;117
23;paravance-14.rennes.grid5000.fr;thermos-root-devel-WordCountTopology-2-b14ebc8d-4f2a-49ec-8544-eba63fcdfcaa;["container_2_Emit_random_words_2"];3.25;1533807676.40793;43.32;498.33;6.930233127;10;149
24;paravance-13.rennes.grid5000.fr;thermos-root-devel-WordCountTopology-1-a0c765b3-38c4-4c0f-a712-3067bd679f5a;["container_1_Consume_and_count_1"];3.25;1533807686.51398;121.71;950.09;276.728657493;10;151
24;paravance-14.rennes.grid5000.fr;thermos-root-devel-WordCountTopology-2-b14ebc8d-4f2a-49ec-8544-eba63fcdfcaa;["container_2_Emit_random_words_2"];3.25;1533807686.62908;44.45;511.49;6.930233127;10;149
24;paravance-16.rennes.grid5000.fr;thermos-root-devel-WordCountTopology-0-fbc4f085-53e4-46e1-a8c9-5278260f3c82;["topology_master"];3.25;1533807686.58184;4.17;10.55;0.36546103;9;117
25;paravance-16.rennes.grid5000.fr;thermos-root-devel-WordCountTopology-0-fbc4f085-53e4-46e1-a8c9-5278260f3c82;["topology_master"];3.25;1533807696.80307;4.26;10.69;0.36546103;9;117
25;paravance-14.rennes.grid5000.fr;thermos-root-devel-WordCountTopology-2-b14ebc8d-4f2a-49ec-8544-eba63fcdfcaa;["container_2_Emit_random_words_2"];3.25;1533807696.85516;45.52;523.33;6.930233127;10;149
25;paravance-13.rennes.grid5000.fr;thermos-root-devel-WordCountTopology-1-a0c765b3-38c4-4c0f-a712-3067bd679f5a;["container_1_Consume_and_count_1"];3.25;1533807696.74363;124.57;977.72;288.01127514;10;151
26;paravance-13.rennes.grid5000.fr;thermos-root-devel-WordCountTopology-1-a0c765b3-38c4-4c0f-a712-3067bd679f5a;["container_1_Consume_and_count_1"];3.25;1533807706.96385;127.75;1005.85;297.76306618;10;151
26;paravance-14.rennes.grid5000.fr;thermos-root-devel-WordCountTopology-2-b14ebc8d-4f2a-49ec-8544-eba63fcdfcaa;["container_2_Emit_random_words_2"];3.25;1533807707.08044;46.58;535.55;6.930233127;10;149
26;paravance-16.rennes.grid5000.fr;thermos-root-devel-WordCountTopology-0-fbc4f085-53e4-46e1-a8c9-5278260f3c82;["topology_master"];3.25;1533807707.03906;4.32;10.76;0.36546103;9;117
27;paravance-14.rennes.grid5000.fr;thermos-root-devel-WordCountTopology-2-b14ebc8d-4f2a-49ec-8544-eba63fcdfcaa;["container_2_Emit_random_words_2"];3.25;1533807717.30275;47.69;548.33;6.930233127;10;149
27;paravance-16.rennes.grid5000.fr;thermos-root-devel-WordCountTopology-0-fbc4f085-53e4-46e1-a8c9-5278260f3c82;["topology_master"];3.25;1533807717.25722;4.38;10.83;0.36546103;9;117
27;paravance-13.rennes.grid5000.fr;thermos-root-devel-WordCountTopology-1-a0c765b3-38c4-4c0f-a712-3067bd679f5a;["container_1_Consume_and_count_1"];3.25;1533807717.19605;131.12;1033.6;308.36020758;10;151
28;paravance-13.rennes.grid5000.fr;thermos-root-devel-WordCountTopology-1-a0c765b3-38c4-4c0f-a712-3067bd679f5a;["container_1_Consume_and_count_1"];3.25;1533807727.41786;134.26;1062.41;318.955241012;10;151
28;paravance-14.rennes.grid5000.fr;thermos-root-devel-WordCountTopology-2-b14ebc8d-4f2a-49ec-8544-eba63fcdfcaa;["container_2_Emit_random_words_2"];3.25;1533807727.5324;48.63;558.28;6.930233127;10;149
28;paravance-16.rennes.grid5000.fr;thermos-root-devel-WordCountTopology-0-fbc4f085-53e4-46e1-a8c9-5278260f3c82;["topology_master"];3.25;1533807727.4886;4.49;10.98;0.36546103;9;117
29;paravance-13.rennes.grid5000.fr;thermos-root-devel-WordCountTopology-1-a0c765b3-38c4-4c0f-a712-3067bd679f5a;["container_1_Consume_and_count_1"];3.25;1533807737.53735;137.36;1090.94;330.441957021;10;151
29;paravance-14.rennes.grid5000.fr;thermos-root-devel-WordCountTopology-2-b14ebc8d-4f2a-49ec-8544-eba63fcdfcaa;["container_2_Emit_random_words_2"];3.25;1533807737.74862;49.73;571.0;6.930233127;10;149
29;paravance-16.rennes.grid5000.fr;thermos-root-devel-WordCountTopology-0-fbc4f085-53e4-46e1-a8c9-5278260f3c82;["topology_master"];3.25;1533807737.70147;4.55;11.12;0.36546103;9;117
30;paravance-13.rennes.grid5000.fr;thermos-root-devel-WordCountTopology-1-a0c765b3-38c4-4c0f-a712-3067bd679f5a;["container_1_Consume_and_count_1"];3.25;1533807747.84959;140.64;1119.08;340.934238849;10;151
30;paravance-16.rennes.grid5000.fr;thermos-root-devel-WordCountTopology-0-fbc4f085-53e4-46e1-a8c9-5278260f3c82;["topology_master"];3.25;1533807747.91696;4.6;11.19;0.36546103;9;117
30;paravance-14.rennes.grid5000.fr;thermos-root-devel-WordCountTopology-2-b14ebc8d-4f2a-49ec-8544-eba63fcdfcaa;["container_2_Emit_random_words_2"];3.25;1533807747.96292;50.74;582.19;6.930233127;10;149
31;paravance-14.rennes.grid5000.fr;thermos-root-devel-WordCountTopology-2-b14ebc8d-4f2a-49ec-8544-eba63fcdfcaa;["container_2_Emit_random_words_2"];3.25;1533807758.18008;51.87;594.8;6.930233127;10;149
31;paravance-13.rennes.grid5000.fr;thermos-root-devel-WordCountTopology-1-a0c765b3-38c4-4c0f-a712-3067bd679f5a;["container_1_Consume_and_count_1"];3.25;1533807758.06667;143.88;1147.77;353.386292318;10;151
31;paravance-16.rennes.grid5000.fr;thermos-root-devel-WordCountTopology-0-fbc4f085-53e4-46e1-a8c9-5278260f3c82;["topology_master"];3.25;1533807758.13234;4.66;11.26;0.36546103;9;117
32;paravance-14.rennes.grid5000.fr;thermos-root-devel-WordCountTopology-2-b14ebc8d-4f2a-49ec-8544-eba63fcdfcaa;["container_2_Emit_random_words_2"];3.25;1533807768.39575;53.0;608.01;6.930233127;10;149
32;paravance-13.rennes.grid5000.fr;thermos-root-devel-WordCountTopology-1-a0c765b3-38c4-4c0f-a712-3067bd679f5a;["container_1_Consume_and_count_1"];3.25;1533807768.28235;147.28;1175.59;363.88876274;10;151
32;paravance-16.rennes.grid5000.fr;thermos-root-devel-WordCountTopology-0-fbc4f085-53e4-46e1-a8c9-5278260f3c82;["topology_master"];3.25;1533807768.3476;4.74;11.38;0.36546103;9;117
33;paravance-16.rennes.grid5000.fr;thermos-root-devel-WordCountTopology-0-fbc4f085-53e4-46e1-a8c9-5278260f3c82;["topology_master"];3.25;1533807778.46153;4.77;11.41;0.36546103;9;117
33;paravance-13.rennes.grid5000.fr;thermos-root-devel-WordCountTopology-1-a0c765b3-38c4-4c0f-a712-3067bd679f5a;["container_1_Consume_and_count_1"];3.25;1533807778.49786;150.06;1202.75;372.997218138;10;151
33;paravance-14.rennes.grid5000.fr;thermos-root-devel-WordCountTopology-2-b14ebc8d-4f2a-49ec-8544-eba63fcdfcaa;["container_2_Emit_random_words_2"];3.25;1533807778.61177;53.77;616.98;6.930233127;10;149
34;paravance-14.rennes.grid5000.fr;thermos-root-devel-WordCountTopology-2-b14ebc8d-4f2a-49ec-8544-eba63fcdfcaa;["container_2_Emit_random_words_2"];3.25;1533807788.82554;54.82;628.74;6.930233127;10;149
34;paravance-13.rennes.grid5000.fr;thermos-root-devel-WordCountTopology-1-a0c765b3-38c4-4c0f-a712-3067bd679f5a;["container_1_Consume_and_count_1"];3.25;1533807788.71221;153.48;1231.05;383.758051176;10;151
34;paravance-16.rennes.grid5000.fr;thermos-root-devel-WordCountTopology-0-fbc4f085-53e4-46e1-a8c9-5278260f3c82;["topology_master"];3.25;1533807788.77971;4.88;11.55;0.36546103;9;117
35;paravance-13.rennes.grid5000.fr;thermos-root-devel-WordCountTopology-1-a0c765b3-38c4-4c0f-a712-3067bd679f5a;["container_1_Consume_and_count_1"];3.25;1533807798.92591;156.05;1256.6;392.155620328;10;151
35;paravance-14.rennes.grid5000.fr;thermos-root-devel-WordCountTopology-2-b14ebc8d-4f2a-49ec-8544-eba63fcdfcaa;["container_2_Emit_random_words_2"];3.25;1533807799.04121;55.68;638.19;6.930233127;10;149
35;paravance-16.rennes.grid5000.fr;thermos-root-devel-WordCountTopology-0-fbc4f085-53e4-46e1-a8c9-5278260f3c82;["topology_master"];3.25;1533807798.99379;4.94;11.68;0.36546103;9;117
36;paravance-13.rennes.grid5000.fr;thermos-root-devel-WordCountTopology-1-a0c765b3-38c4-4c0f-a712-3067bd679f5a;["container_1_Consume_and_count_1"];3.25;1533807809.14227;158.83;1283.45;401.645347879;10;151
36;paravance-14.rennes.grid5000.fr;thermos-root-devel-WordCountTopology-2-b14ebc8d-4f2a-49ec-8544-eba63fcdfcaa;["container_2_Emit_random_words_2"];3.25;1533807809.25663;56.49;647.04;6.930233127;10;149
36;paravance-16.rennes.grid5000.fr;thermos-root-devel-WordCountTopology-0-fbc4f085-53e4-46e1-a8c9-5278260f3c82;["topology_master"];3.25;1533807809.21101;5.01;11.76;0.36546103;9;117
37;paravance-13.rennes.grid5000.fr;thermos-root-devel-WordCountTopology-1-a0c765b3-38c4-4c0f-a712-3067bd679f5a;["container_1_Consume_and_count_1"];3.25;1533807819.3601;161.76;1312.19;411.86475729;10;151
37;paravance-16.rennes.grid5000.fr;thermos-root-devel-WordCountTopology-0-fbc4f085-53e4-46e1-a8c9-5278260f3c82;["topology_master"];3.25;1533807819.42529;5.06;11.84;0.36546103;9;117
37;paravance-14.rennes.grid5000.fr;thermos-root-devel-WordCountTopology-2-b14ebc8d-4f2a-49ec-8544-eba63fcdfcaa;["container_2_Emit_random_words_2"];3.25;1533807819.47555;57.26;655.18;6.930233127;10;149
38;paravance-13.rennes.grid5000.fr;thermos-root-devel-WordCountTopology-1-a0c765b3-38c4-4c0f-a712-3067bd679f5a;["container_1_Consume_and_count_1"];3.25;1533807829.57576;164.75;1340.27;423.071317972;10;151
38;paravance-14.rennes.grid5000.fr;thermos-root-devel-WordCountTopology-2-b14ebc8d-4f2a-49ec-8544-eba63fcdfcaa;["container_2_Emit_random_words_2"];3.25;1533807829.69018;58.24;666.47;6.930233127;10;149
38;paravance-16.rennes.grid5000.fr;thermos-root-devel-WordCountTopology-0-fbc4f085-53e4-46e1-a8c9-5278260f3c82;["topology_master"];3.25;1533807829.64273;5.15;11.96;0.36546103;9;117
39;paravance-13.rennes.grid5000.fr;thermos-root-devel-WordCountTopology-1-a0c765b3-38c4-4c0f-a712-3067bd679f5a;["container_1_Consume_and_count_1"];3.25;1533807839.78938;168.04;1368.37;432.074274256;10;151
39;paravance-14.rennes.grid5000.fr;thermos-root-devel-WordCountTopology-2-b14ebc8d-4f2a-49ec-8544-eba63fcdfcaa;["container_2_Emit_random_words_2"];3.25;1533807839.90619;59.17;677.17;6.930233127;10;149
39;paravance-16.rennes.grid5000.fr;thermos-root-devel-WordCountTopology-0-fbc4f085-53e4-46e1-a8c9-5278260f3c82;["topology_master"];3.25;1533807839.85761;5.18;11.98;0.36546103;9;117
40;paravance-16.rennes.grid5000.fr;thermos-root-devel-WordCountTopology-0-fbc4f085-53e4-46e1-a8c9-5278260f3c82;["topology_master"];3.25;1533807849.97223;5.28;12.12;0.36546103;9;117
40;paravance-13.rennes.grid5000.fr;thermos-root-devel-WordCountTopology-1-a0c765b3-38c4-4c0f-a712-3067bd679f5a;["container_1_Consume_and_count_1"];3.25;1533807850.00456;171.14;1396.52;443.191922148;10;151
40;paravance-14.rennes.grid5000.fr;thermos-root-devel-WordCountTopology-2-b14ebc8d-4f2a-49ec-8544-eba63fcdfcaa;["container_2_Emit_random_words_2"];3.25;1533807850.12084;60.15;688.56;6.930233127;10;149
41;paravance-13.rennes.grid5000.fr;thermos-root-devel-WordCountTopology-1-a0c765b3-38c4-4c0f-a712-3067bd679f5a;["container_1_Consume_and_count_1"];3.25;1533807860.22289;174.2;1424.38;454.15632671;10;151
41;paravance-14.rennes.grid5000.fr;thermos-root-devel-WordCountTopology-2-b14ebc8d-4f2a-49ec-8544-eba63fcdfcaa;["container_2_Emit_random_words_2"];3.25;1533807860.33445;61.25;701.63;6.930233127;10;149
41;paravance-16.rennes.grid5000.fr;thermos-root-devel-WordCountTopology-0-fbc4f085-53e4-46e1-a8c9-5278260f3c82;["topology_master"];3.25;1533807860.28803;5.34;12.22;0.36546103;9;117
42;paravance-13.rennes.grid5000.fr;thermos-root-devel-WordCountTopology-1-a0c765b3-38c4-4c0f-a712-3067bd679f5a;["container_1_Consume_and_count_1"];3.25;1533807870.43631;176.9;1451.3;462.079221511;10;151
42;paravance-14.rennes.grid5000.fr;thermos-root-devel-WordCountTopology-2-b14ebc8d-4f2a-49ec-8544-eba63fcdfcaa;["container_2_Emit_random_words_2"];3.25;1533807870.5512;62.04;710.07;6.930233127;10;149
42;paravance-16.rennes.grid5000.fr;thermos-root-devel-WordCountTopology-0-fbc4f085-53e4-46e1-a8c9-5278260f3c82;["topology_master"];3.25;1533807870.50565;5.43;12.35;0.36546103;9;117
43;paravance-13.rennes.grid5000.fr;thermos-root-devel-WordCountTopology-1-a0c765b3-38c4-4c0f-a712-3067bd679f5a;["container_1_Consume_and_count_1"];3.25;1533807880.5529;179.72;1478.72;471.429030697;10;151
43;paravance-14.rennes.grid5000.fr;thermos-root-devel-WordCountTopology-2-b14ebc8d-4f2a-49ec-8544-eba63fcdfcaa;["container_2_Emit_random_words_2"];3.25;1533807880.77085;62.79;718.68;6.930233127;10;149
43;paravance-16.rennes.grid5000.fr;thermos-root-devel-WordCountTopology-0-fbc4f085-53e4-46e1-a8c9-5278260f3c82;["topology_master"];3.25;1533807880.72298;5.46;12.4;0.36546103;9;117
44;paravance-14.rennes.grid5000.fr;thermos-root-devel-WordCountTopology-2-b14ebc8d-4f2a-49ec-8544-eba63fcdfcaa;["container_2_Emit_random_words_2"];3.25;1533807890.98694;63.81;730.14;6.930233127;10;149
44;paravance-16.rennes.grid5000.fr;thermos-root-devel-WordCountTopology-0-fbc4f085-53e4-46e1-a8c9-5278260f3c82;["topology_master"];3.25;1533807890.93875;5.55;12.52;0.36546103;9;117
44;paravance-13.rennes.grid5000.fr;thermos-root-devel-WordCountTopology-1-a0c765b3-38c4-4c0f-a712-3067bd679f5a;["container_1_Consume_and_count_1"];3.25;1533807890.87459;182.75;1508.15;483.768552613;10;151
45;paravance-14.rennes.grid5000.fr;thermos-root-devel-WordCountTopology-2-b14ebc8d-4f2a-49ec-8544-eba63fcdfcaa;["container_2_Emit_random_words_2"];3.25;1533807901.20396;64.74;741.15;6.930233127;10;149
45;paravance-16.rennes.grid5000.fr;thermos-root-devel-WordCountTopology-0-fbc4f085-53e4-46e1-a8c9-5278260f3c82;["topology_master"];3.25;1533807901.15555;5.61;12.59;0.36546103;9;117
45;paravance-13.rennes.grid5000.fr;thermos-root-devel-WordCountTopology-1-a0c765b3-38c4-4c0f-a712-3067bd679f5a;["container_1_Consume_and_count_1"];3.25;1533807901.09138;185.75;1536.36;494.227549229;10;151
46;paravance-13.rennes.grid5000.fr;thermos-root-devel-WordCountTopology-1-a0c765b3-38c4-4c0f-a712-3067bd679f5a;["container_1_Consume_and_count_1"];3.25;1533807911.30623;189.0;1563.91;505.410583238;10;151
46;paravance-14.rennes.grid5000.fr;thermos-root-devel-WordCountTopology-2-b14ebc8d-4f2a-49ec-8544-eba63fcdfcaa;["container_2_Emit_random_words_2"];3.25;1533807911.42256;65.95;755.3;6.930233127;10;149
46;paravance-16.rennes.grid5000.fr;thermos-root-devel-WordCountTopology-0-fbc4f085-53e4-46e1-a8c9-5278260f3c82;["topology_master"];3.25;1533807911.37489;5.67;12.68;0.36546103;9;117
47;paravance-13.rennes.grid5000.fr;thermos-root-devel-WordCountTopology-1-a0c765b3-38c4-4c0f-a712-3067bd679f5a;["container_1_Consume_and_count_1"];3.25;1533807921.52294;192.37;1592.67;518.610290275;10;151
47;paravance-14.rennes.grid5000.fr;thermos-root-devel-WordCountTopology-2-b14ebc8d-4f2a-49ec-8544-eba63fcdfcaa;["container_2_Emit_random_words_2"];3.25;1533807921.6391;67.25;771.5;6.930233127;10;149
47;paravance-16.rennes.grid5000.fr;thermos-root-devel-WordCountTopology-0-fbc4f085-53e4-46e1-a8c9-5278260f3c82;["topology_master"];3.25;1533807921.59154;5.74;12.82;0.36546103;9;117
48;paravance-13.rennes.grid5000.fr;thermos-root-devel-WordCountTopology-1-a0c765b3-38c4-4c0f-a712-3067bd679f5a;["container_1_Consume_and_count_1"];3.25;1533807931.74104;195.69;1621.17;530.249168366;10;151
48;paravance-16.rennes.grid5000.fr;thermos-root-devel-WordCountTopology-0-fbc4f085-53e4-46e1-a8c9-5278260f3c82;["topology_master"];3.25;1533807931.80653;5.83;12.94;0.36546103;9;117
48;paravance-14.rennes.grid5000.fr;thermos-root-devel-WordCountTopology-2-b14ebc8d-4f2a-49ec-8544-eba63fcdfcaa;["container_2_Emit_random_words_2"];3.25;1533807931.85747;68.46;785.03;6.930233127;10;149
49;paravance-14.rennes.grid5000.fr;thermos-root-devel-WordCountTopology-2-b14ebc8d-4f2a-49ec-8544-eba63fcdfcaa;["container_2_Emit_random_words_2"];3.25;1533807942.06993;69.54;798.06;6.930233127;10;149
49;paravance-13.rennes.grid5000.fr;thermos-root-devel-WordCountTopology-1-a0c765b3-38c4-4c0f-a712-3067bd679f5a;["container_1_Consume_and_count_1"];3.25;1533807941.95856;198.63;1649.03;540.420760568;10;151
49;paravance-16.rennes.grid5000.fr;thermos-root-devel-WordCountTopology-0-fbc4f085-53e4-46e1-a8c9-5278260f3c82;["topology_master"];3.25;1533807942.02482;5.86;12.98;0.36546103;9;117
50;paravance-13.rennes.grid5000.fr;thermos-root-devel-WordCountTopology-1-a0c765b3-38c4-4c0f-a712-3067bd679f5a;["container_1_Consume_and_count_1"];3.25;1533807952.17456;201.67;1677.05;551.129800198;10;151
50;paravance-14.rennes.grid5000.fr;thermos-root-devel-WordCountTopology-2-b14ebc8d-4f2a-49ec-8544-eba63fcdfcaa;["container_2_Emit_random_words_2"];3.25;1533807952.28997;70.75;811.59;6.930233127;10;149
50;paravance-16.rennes.grid5000.fr;thermos-root-devel-WordCountTopology-0-fbc4f085-53e4-46e1-a8c9-5278260f3c82;["topology_master"];3.25;1533807952.2419;5.95;13.12;0.36546103;9;117
51;paravance-16.rennes.grid5000.fr;thermos-root-devel-WordCountTopology-0-fbc4f085-53e4-46e1-a8c9-5278260f3c82;["topology_master"];3.25;1533807962.35662;6.01;13.19;0.36546103;9;117
51;paravance-13.rennes.grid5000.fr;thermos-root-devel-WordCountTopology-1-a0c765b3-38c4-4c0f-a712-3067bd679f5a;["container_1_Consume_and_count_1"];3.25;1533807962.39185;204.54;1704.19;559.834512453;10;151
51;paravance-14.rennes.grid5000.fr;thermos-root-devel-WordCountTopology-2-b14ebc8d-4f2a-49ec-8544-eba63fcdfcaa;["container_2_Emit_random_words_2"];3.25;1533807962.50522;71.65;821.93;6.930233127;10;149
52;paravance-14.rennes.grid5000.fr;thermos-root-devel-WordCountTopology-2-b14ebc8d-4f2a-49ec-8544-eba63fcdfcaa;["container_2_Emit_random_words_2"];3.25;1533807972.62059;72.53;831.57;6.930233127;10;149
52;paravance-16.rennes.grid5000.fr;thermos-root-devel-WordCountTopology-0-fbc4f085-53e4-46e1-a8c9-5278260f3c82;["topology_master"];3.25;1533807972.67101;6.08;13.3;0.36546103;9;117
52;paravance-13.rennes.grid5000.fr;thermos-root-devel-WordCountTopology-1-a0c765b3-38c4-4c0f-a712-3067bd679f5a;["container_1_Consume_and_count_1"];3.25;1533807972.60602;207.3;1730.87;569.621231589;10;151
53;paravance-13.rennes.grid5000.fr;thermos-root-devel-WordCountTopology-1-a0c765b3-38c4-4c0f-a712-3067bd679f5a;["container_1_Consume_and_count_1"];3.25;1533807982.82153;210.26;1758.29;579.356606405;10;151
53;paravance-14.rennes.grid5000.fr;thermos-root-devel-WordCountTopology-2-b14ebc8d-4f2a-49ec-8544-eba63fcdfcaa;["container_2_Emit_random_words_2"];3.25;1533807982.93539;73.41;841.62;6.930233127;10;149
53;paravance-16.rennes.grid5000.fr;thermos-root-devel-WordCountTopology-0-fbc4f085-53e4-46e1-a8c9-5278260f3c82;["topology_master"];3.25;1533807982.88736;6.14;13.38;0.36546103;9;117
54;paravance-14.rennes.grid5000.fr;thermos-root-devel-WordCountTopology-2-b14ebc8d-4f2a-49ec-8544-eba63fcdfcaa;["container_2_Emit_random_words_2"];3.25;1533807993.15216;74.25;850.53;6.930233127;10;149
54;paravance-13.rennes.grid5000.fr;thermos-root-devel-WordCountTopology-1-a0c765b3-38c4-4c0f-a712-3067bd679f5a;["container_1_Consume_and_count_1"];3.25;1533807993.03799;213.11;1785.94;589.143683988;10;151
54;paravance-16.rennes.grid5000.fr;thermos-root-devel-WordCountTopology-0-fbc4f085-53e4-46e1-a8c9-5278260f3c82;["topology_master"];3.25;1533807993.10441;6.23;13.5;0.36546103;9;117
55;paravance-13.rennes.grid5000.fr;thermos-root-devel-WordCountTopology-1-a0c765b3-38c4-4c0f-a712-3067bd679f5a;["container_1_Consume_and_count_1"];3.25;1533808003.25029;216.63;1813.9;600.156394068;10;151
55;paravance-14.rennes.grid5000.fr;thermos-root-devel-WordCountTopology-2-b14ebc8d-4f2a-49ec-8544-eba63fcdfcaa;["container_2_Emit_random_words_2"];3.25;1533808003.36733;75.45;865.03;6.930233127;10;149
55;paravance-16.rennes.grid5000.fr;thermos-root-devel-WordCountTopology-0-fbc4f085-53e4-46e1-a8c9-5278260f3c82;["topology_master"];3.25;1533808003.31891;6.26;13.53;0.36546103;9;117
56;paravance-16.rennes.grid5000.fr;thermos-root-devel-WordCountTopology-0-fbc4f085-53e4-46e1-a8c9-5278260f3c82;["topology_master"];3.25;1533808013.43639;6.35;13.65;0.36546103;9;117
56;paravance-14.rennes.grid5000.fr;thermos-root-devel-WordCountTopology-2-b14ebc8d-4f2a-49ec-8544-eba63fcdfcaa;["container_2_Emit_random_words_2"];3.25;1533808013.5813;76.45;875.95;6.930233127;10;149
56;paravance-13.rennes.grid5000.fr;thermos-root-devel-WordCountTopology-1-a0c765b3-38c4-4c0f-a712-3067bd679f5a;["container_1_Consume_and_count_1"];3.25;1533808013.47171;219.49;1843.04;612.784297248;10;151
57;paravance-13.rennes.grid5000.fr;thermos-root-devel-WordCountTopology-1-a0c765b3-38c4-4c0f-a712-3067bd679f5a;["container_1_Consume_and_count_1"];3.25;1533808023.68911;223.06;1871.42;624.014568294;10;151
57;paravance-16.rennes.grid5000.fr;thermos-root-devel-WordCountTopology-0-fbc4f085-53e4-46e1-a8c9-5278260f3c82;["topology_master"];3.25;1533808023.75471;6.4;13.73;0.36546103;9;117
57;paravance-14.rennes.grid5000.fr;thermos-root-devel-WordCountTopology-2-b14ebc8d-4f2a-49ec-8544-eba63fcdfcaa;["container_2_Emit_random_words_2"];3.25;1533808023.80374;77.65;890.54;6.930233127;10;149
58;paravance-13.rennes.grid5000.fr;thermos-root-devel-WordCountTopology-1-a0c765b3-38c4-4c0f-a712-3067bd679f5a;["container_1_Consume_and_count_1"];3.25;1533808033.90534;225.72;1899.6;635.376676435;10;151
58;paravance-14.rennes.grid5000.fr;thermos-root-devel-WordCountTopology-2-b14ebc8d-4f2a-49ec-8544-eba63fcdfcaa;["container_2_Emit_random_words_2"];3.25;1533808034.01915;78.64;902.16;6.930233127;10;149
58;paravance-16.rennes.grid5000.fr;thermos-root-devel-WordCountTopology-0-fbc4f085-53e4-46e1-a8c9-5278260f3c82;["topology_master"];3.25;1533808033.97124;6.48;13.84;0.36546103;9;117
59;paravance-13.rennes.grid5000.fr;thermos-root-devel-WordCountTopology-1-a0c765b3-38c4-4c0f-a712-3067bd679f5a;["container_1_Consume_and_count_1"];3.25;1533808044.11948;229.6;1927.09;644.539438044;10;151
59;paravance-14.rennes.grid5000.fr;thermos-root-devel-WordCountTopology-2-b14ebc8d-4f2a-49ec-8544-eba63fcdfcaa;["container_2_Emit_random_words_2"];3.25;1533808044.23652;79.94;918.22;6.930233127;10;149
59;paravance-16.rennes.grid5000.fr;thermos-root-devel-WordCountTopology-0-fbc4f085-53e4-46e1-a8c9-5278260f3c82;["topology_master"];3.25;1533808044.18841;6.54;13.91;0.36546103;9;117
60;paravance-14.rennes.grid5000.fr;thermos-root-devel-WordCountTopology-2-b14ebc8d-4f2a-49ec-8544-eba63fcdfcaa;["container_2_Emit_random_words_2"];3.25;1533808054.45273;80.89;928.64;6.930233127;10;149
60;paravance-13.rennes.grid5000.fr;thermos-root-devel-WordCountTopology-1-a0c765b3-38c4-4c0f-a712-3067bd679f5a;["container_1_Consume_and_count_1"];3.25;1533808054.33834;232.13;1954.8;655.245149437;10;151
60;paravance-16.rennes.grid5000.fr;thermos-root-devel-WordCountTopology-0-fbc4f085-53e4-46e1-a8c9-5278260f3c82;["topology_master"];3.25;1533808054.40537;6.63;14.05;0.36546103;9;117
