mesure_id;slave_id;executor_id;heron_instances;cpus_limit;timestamp_A;cpus_system_time_secs_A;cpus_user_time_secs_A;cpus_throttled_time_secs_A;processes;threads
0;paravance-14.rennes.grid5000.fr;thermos-root-devel-WordCountTopology-2-b14ebc8d-4f2a-49ec-8544-eba63fcdfcaa;["container_2_Emit_random_words_2"];3.25;1533807431.24933;15.47;170.01;6.882002626;10;149
0;paravance-13.rennes.grid5000.fr;thermos-root-devel-WordCountTopology-1-a0c765b3-38c4-4c0f-a712-3067bd679f5a;["container_1_Consume_and_count_1"];3.25;1533807431.13562;38.96;260.69;48.82147798;10;151
0;paravance-16.rennes.grid5000.fr;thermos-root-devel-WordCountTopology-0-fbc4f085-53e4-46e1-a8c9-5278260f3c82;["topology_master"];3.25;1533807431.20046;2.41;7.88;0.36546103;9;117
1;paravance-13.rennes.grid5000.fr;thermos-root-devel-WordCountTopology-1-a0c765b3-38c4-4c0f-a712-3067bd679f5a;["container_1_Consume_and_count_1"];3.25;1533807441.25185;41.87;289.67;61.916815527;10;151
1;paravance-14.rennes.grid5000.fr;thermos-root-devel-WordCountTopology-2-b14ebc8d-4f2a-49ec-8544-eba63fcdfcaa;["container_2_Emit_random_words_2"];3.25;1533807441.46588;16.67;184.79;6.886020805;10;149
1;paravance-16.rennes.grid5000.fr;thermos-root-devel-WordCountTopology-0-fbc4f085-53e4-46e1-a8c9-5278260f3c82;["topology_master"];3.25;1533807441.41682;2.47;8.01;0.36546103;9;117
2;paravance-13.rennes.grid5000.fr;thermos-root-devel-WordCountTopology-1-a0c765b3-38c4-4c0f-a712-3067bd679f5a;["container_1_Consume_and_count_1"];3.25;1533807451.56964;46.08;317.02;68.416120686;10;151
2;paravance-16.rennes.grid5000.fr;thermos-root-devel-WordCountTopology-0-fbc4f085-53e4-46e1-a8c9-5278260f3c82;["topology_master"];3.25;1533807451.63487;2.56;8.15;0.36546103;9;117
2;paravance-14.rennes.grid5000.fr;thermos-root-devel-WordCountTopology-2-b14ebc8d-4f2a-49ec-8544-eba63fcdfcaa;["container_2_Emit_random_words_2"];3.25;1533807451.68451;18.17;202.35;6.886020805;10;149
3;paravance-13.rennes.grid5000.fr;thermos-root-devel-WordCountTopology-1-a0c765b3-38c4-4c0f-a712-3067bd679f5a;["container_1_Consume_and_count_1"];3.25;1533807461.687;48.9;343.37;79.255639217;10;151
3;paravance-14.rennes.grid5000.fr;thermos-root-devel-WordCountTopology-2-b14ebc8d-4f2a-49ec-8544-eba63fcdfcaa;["container_2_Emit_random_words_2"];3.25;1533807461.90126;19.29;215.86;6.914172832;10;149
3;paravance-16.rennes.grid5000.fr;thermos-root-devel-WordCountTopology-0-fbc4f085-53e4-46e1-a8c9-5278260f3c82;["topology_master"];3.25;1533807461.85123;2.59;8.19;0.36546103;9;117
4;paravance-16.rennes.grid5000.fr;thermos-root-devel-WordCountTopology-0-fbc4f085-53e4-46e1-a8c9-5278260f3c82;["topology_master"];3.25;1533807471.96923;2.69;8.32;0.36546103;9;117
4;paravance-13.rennes.grid5000.fr;thermos-root-devel-WordCountTopology-1-a0c765b3-38c4-4c0f-a712-3067bd679f5a;["container_1_Consume_and_count_1"];3.25;1533807472.00456;52.25;371.26;87.818014369;10;151
4;paravance-14.rennes.grid5000.fr;thermos-root-devel-WordCountTopology-2-b14ebc8d-4f2a-49ec-8544-eba63fcdfcaa;["container_2_Emit_random_words_2"];3.25;1533807472.11877;20.66;232.12;6.914172832;10;149
5;paravance-16.rennes.grid5000.fr;thermos-root-devel-WordCountTopology-0-fbc4f085-53e4-46e1-a8c9-5278260f3c82;["topology_master"];3.25;1533807482.28739;2.75;8.39;0.36546103;9;117
5;paravance-13.rennes.grid5000.fr;thermos-root-devel-WordCountTopology-1-a0c765b3-38c4-4c0f-a712-3067bd679f5a;["container_1_Consume_and_count_1"];3.25;1533807482.22435;56.8;396.56;88.049127466;10;151
5;paravance-14.rennes.grid5000.fr;thermos-root-devel-WordCountTopology-2-b14ebc8d-4f2a-49ec-8544-eba63fcdfcaa;["container_2_Emit_random_words_2"];3.25;1533807482.33748;22.24;251.09;6.914172832;10;149
6;paravance-14.rennes.grid5000.fr;thermos-root-devel-WordCountTopology-2-b14ebc8d-4f2a-49ec-8544-eba63fcdfcaa;["container_2_Emit_random_words_2"];3.25;1533807492.55834;23.81;270.6;6.930233127;10;149
6;paravance-13.rennes.grid5000.fr;thermos-root-devel-WordCountTopology-1-a0c765b3-38c4-4c0f-a712-3067bd679f5a;["container_1_Consume_and_count_1"];3.25;1533807492.44343;61.35;421.94;88.776499678;10;151
6;paravance-16.rennes.grid5000.fr;thermos-root-devel-WordCountTopology-0-fbc4f085-53e4-46e1-a8c9-5278260f3c82;["topology_master"];3.25;1533807492.50975;2.85;8.56;0.36546103;9;117
7;paravance-13.rennes.grid5000.fr;thermos-root-devel-WordCountTopology-1-a0c765b3-38c4-4c0f-a712-3067bd679f5a;["container_1_Consume_and_count_1"];3.25;1533807502.66524;66.09;447.84;89.260745588;10;151
7;paravance-16.rennes.grid5000.fr;thermos-root-devel-WordCountTopology-0-fbc4f085-53e4-46e1-a8c9-5278260f3c82;["topology_master"];3.25;1533807502.73207;2.91;8.65;0.36546103;9;117
7;paravance-14.rennes.grid5000.fr;thermos-root-devel-WordCountTopology-2-b14ebc8d-4f2a-49ec-8544-eba63fcdfcaa;["container_2_Emit_random_words_2"];3.25;1533807502.78235;25.34;289.5;6.930233127;10;149
8;paravance-16.rennes.grid5000.fr;thermos-root-devel-WordCountTopology-0-fbc4f085-53e4-46e1-a8c9-5278260f3c82;["topology_master"];3.25;1533807512.94874;3.0;8.78;0.36546103;9;117
8;paravance-13.rennes.grid5000.fr;thermos-root-devel-WordCountTopology-1-a0c765b3-38c4-4c0f-a712-3067bd679f5a;["container_1_Consume_and_count_1"];3.25;1533807512.88624;70.29;475.3;97.112888411;10;151
8;paravance-14.rennes.grid5000.fr;thermos-root-devel-WordCountTopology-2-b14ebc8d-4f2a-49ec-8544-eba63fcdfcaa;["container_2_Emit_random_words_2"];3.25;1533807512.99864;26.78;306.97;6.930233127;10;149
9;paravance-13.rennes.grid5000.fr;thermos-root-devel-WordCountTopology-1-a0c765b3-38c4-4c0f-a712-3067bd679f5a;["container_1_Consume_and_count_1"];3.25;1533807523.10154;73.64;503.24;107.307514567;10;151
9;paravance-14.rennes.grid5000.fr;thermos-root-devel-WordCountTopology-2-b14ebc8d-4f2a-49ec-8544-eba63fcdfcaa;["container_2_Emit_random_words_2"];3.25;1533807523.21565;27.97;321.13;6.930233127;10;149
9;paravance-16.rennes.grid5000.fr;thermos-root-devel-WordCountTopology-0-fbc4f085-53e4-46e1-a8c9-5278260f3c82;["topology_master"];3.25;1533807523.16631;3.05;8.84;0.36546103;9;117
10;paravance-14.rennes.grid5000.fr;thermos-root-devel-WordCountTopology-2-b14ebc8d-4f2a-49ec-8544-eba63fcdfcaa;["container_2_Emit_random_words_2"];3.25;1533807533.43259;28.95;332.99;6.930233127;10;149
10;paravance-16.rennes.grid5000.fr;thermos-root-devel-WordCountTopology-0-fbc4f085-53e4-46e1-a8c9-5278260f3c82;["topology_master"];3.25;1533807533.38293;3.12;8.93;0.36546103;9;117
10;paravance-13.rennes.grid5000.fr;thermos-root-devel-WordCountTopology-1-a0c765b3-38c4-4c0f-a712-3067bd679f5a;["container_1_Consume_and_count_1"];3.25;1533807533.31887;76.26;529.59;117.456947487;10;151
11;paravance-13.rennes.grid5000.fr;thermos-root-devel-WordCountTopology-1-a0c765b3-38c4-4c0f-a712-3067bd679f5a;["container_1_Consume_and_count_1"];3.25;1533807543.53528;79.44;557.95;127.299059722;10;151
11;paravance-14.rennes.grid5000.fr;thermos-root-devel-WordCountTopology-2-b14ebc8d-4f2a-49ec-8544-eba63fcdfcaa;["container_2_Emit_random_words_2"];3.25;1533807543.64938;30.09;346.7;6.930233127;10;149
11;paravance-16.rennes.grid5000.fr;thermos-root-devel-WordCountTopology-0-fbc4f085-53e4-46e1-a8c9-5278260f3c82;["topology_master"];3.25;1533807543.60081;3.17;9.0;0.36546103;9;117
12;paravance-13.rennes.grid5000.fr;thermos-root-devel-WordCountTopology-1-a0c765b3-38c4-4c0f-a712-3067bd679f5a;["container_1_Consume_and_count_1"];3.25;1533807553.75867;82.6;586.66;140.267727747;10;151
12;paravance-16.rennes.grid5000.fr;thermos-root-devel-WordCountTopology-0-fbc4f085-53e4-46e1-a8c9-5278260f3c82;["topology_master"];3.25;1533807553.8241;3.3;9.28;0.36546103;9;117
12;paravance-14.rennes.grid5000.fr;thermos-root-devel-WordCountTopology-2-b14ebc8d-4f2a-49ec-8544-eba63fcdfcaa;["container_2_Emit_random_words_2"];3.25;1533807553.87523;31.22;359.21;6.930233127;10;149
13;paravance-13.rennes.grid5000.fr;thermos-root-devel-WordCountTopology-1-a0c765b3-38c4-4c0f-a712-3067bd679f5a;["container_1_Consume_and_count_1"];3.25;1533807563.98385;85.86;614.94;151.345361201;10;151
13;paravance-16.rennes.grid5000.fr;thermos-root-devel-WordCountTopology-0-fbc4f085-53e4-46e1-a8c9-5278260f3c82;["topology_master"];3.25;1533807564.04963;3.32;9.3;0.36546103;9;117
13;paravance-14.rennes.grid5000.fr;thermos-root-devel-WordCountTopology-2-b14ebc8d-4f2a-49ec-8544-eba63fcdfcaa;["container_2_Emit_random_words_2"];3.25;1533807564.09848;32.42;373.88;6.930233127;10;149
14;paravance-16.rennes.grid5000.fr;thermos-root-devel-WordCountTopology-0-fbc4f085-53e4-46e1-a8c9-5278260f3c82;["topology_master"];3.25;1533807574.27405;3.42;9.46;0.36546103;9;117
14;paravance-13.rennes.grid5000.fr;thermos-root-devel-WordCountTopology-1-a0c765b3-38c4-4c0f-a712-3067bd679f5a;["container_1_Consume_and_count_1"];3.25;1533807574.2098;88.84;643.3;162.453545284;10;151
14;paravance-14.rennes.grid5000.fr;thermos-root-devel-WordCountTopology-2-b14ebc8d-4f2a-49ec-8544-eba63fcdfcaa;["container_2_Emit_random_words_2"];3.25;1533807574.32494;33.48;386.1;6.930233127;10;149
15;paravance-13.rennes.grid5000.fr;thermos-root-devel-WordCountTopology-1-a0c765b3-38c4-4c0f-a712-3067bd679f5a;["container_1_Consume_and_count_1"];3.25;1533807584.42935;92.06;671.74;170.725156261;10;151
15;paravance-14.rennes.grid5000.fr;thermos-root-devel-WordCountTopology-2-b14ebc8d-4f2a-49ec-8544-eba63fcdfcaa;["container_2_Emit_random_words_2"];3.25;1533807584.54348;34.22;394.39;6.930233127;10;149
15;paravance-16.rennes.grid5000.fr;thermos-root-devel-WordCountTopology-0-fbc4f085-53e4-46e1-a8c9-5278260f3c82;["topology_master"];3.25;1533807584.49841;3.47;9.53;0.36546103;9;117
16;paravance-13.rennes.grid5000.fr;thermos-root-devel-WordCountTopology-1-a0c765b3-38c4-4c0f-a712-3067bd679f5a;["container_1_Consume_and_count_1"];3.25;1533807594.64812;95.0;699.43;179.551398776;10;151
16;paravance-14.rennes.grid5000.fr;thermos-root-devel-WordCountTopology-2-b14ebc8d-4f2a-49ec-8544-eba63fcdfcaa;["container_2_Emit_random_words_2"];3.25;1533807594.76268;35.04;403.73;6.930233127;10;149
16;paravance-16.rennes.grid5000.fr;thermos-root-devel-WordCountTopology-0-fbc4f085-53e4-46e1-a8c9-5278260f3c82;["topology_master"];3.25;1533807594.71368;3.53;9.62;0.36546103;9;117
17;paravance-13.rennes.grid5000.fr;thermos-root-devel-WordCountTopology-1-a0c765b3-38c4-4c0f-a712-3067bd679f5a;["container_1_Consume_and_count_1"];3.25;1533807604.86496;97.97;728.62;192.817133828;10;151
17;paravance-16.rennes.grid5000.fr;thermos-root-devel-WordCountTopology-0-fbc4f085-53e4-46e1-a8c9-5278260f3c82;["topology_master"];3.25;1533807604.92985;3.59;9.7;0.36546103;9;117
17;paravance-14.rennes.grid5000.fr;thermos-root-devel-WordCountTopology-2-b14ebc8d-4f2a-49ec-8544-eba63fcdfcaa;["container_2_Emit_random_words_2"];3.25;1533807604.97847;36.19;417.21;6.930233127;10;149
18;paravance-13.rennes.grid5000.fr;thermos-root-devel-WordCountTopology-1-a0c765b3-38c4-4c0f-a712-3067bd679f5a;["container_1_Consume_and_count_1"];3.25;1533807615.08113;100.87;755.94;203.01693191;10;151
18;paravance-16.rennes.grid5000.fr;thermos-root-devel-WordCountTopology-0-fbc4f085-53e4-46e1-a8c9-5278260f3c82;["topology_master"];3.25;1533807615.1468;3.71;9.95;0.36546103;9;117
18;paravance-14.rennes.grid5000.fr;thermos-root-devel-WordCountTopology-2-b14ebc8d-4f2a-49ec-8544-eba63fcdfcaa;["container_2_Emit_random_words_2"];3.25;1533807615.19598;37.21;428.44;6.930233127;10;149
19;paravance-13.rennes.grid5000.fr;thermos-root-devel-WordCountTopology-1-a0c765b3-38c4-4c0f-a712-3067bd679f5a;["container_1_Consume_and_count_1"];3.25;1533807625.2995;103.33;783.57;214.129117295;10;151
19;paravance-14.rennes.grid5000.fr;thermos-root-devel-WordCountTopology-2-b14ebc8d-4f2a-49ec-8544-eba63fcdfcaa;["container_2_Emit_random_words_2"];3.25;1533807625.41191;38.2;440.52;6.930233127;10;149
19;paravance-16.rennes.grid5000.fr;thermos-root-devel-WordCountTopology-0-fbc4f085-53e4-46e1-a8c9-5278260f3c82;["topology_master"];3.25;1533807625.36317;3.74;9.98;0.36546103;9;117
20;paravance-13.rennes.grid5000.fr;thermos-root-devel-WordCountTopology-1-a0c765b3-38c4-4c0f-a712-3067bd679f5a;["container_1_Consume_and_count_1"];3.25;1533807635.52066;106.18;810.3;223.259259757;10;151
20;paravance-14.rennes.grid5000.fr;thermos-root-devel-WordCountTopology-2-b14ebc8d-4f2a-49ec-8544-eba63fcdfcaa;["container_2_Emit_random_words_2"];3.25;1533807635.63314;39.08;449.77;6.930233127;10;149
20;paravance-16.rennes.grid5000.fr;thermos-root-devel-WordCountTopology-0-fbc4f085-53e4-46e1-a8c9-5278260f3c82;["topology_master"];3.25;1533807635.58711;3.84;10.12;0.36546103;9;117
21;paravance-16.rennes.grid5000.fr;thermos-root-devel-WordCountTopology-0-fbc4f085-53e4-46e1-a8c9-5278260f3c82;["topology_master"];3.25;1533807645.80386;3.9;10.2;0.36546103;9;117
21;paravance-13.rennes.grid5000.fr;thermos-root-devel-WordCountTopology-1-a0c765b3-38c4-4c0f-a712-3067bd679f5a;["container_1_Consume_and_count_1"];3.25;1533807645.74343;109.53;838.35;232.75079648;10;151
21;paravance-14.rennes.grid5000.fr;thermos-root-devel-WordCountTopology-2-b14ebc8d-4f2a-49ec-8544-eba63fcdfcaa;["container_2_Emit_random_words_2"];3.25;1533807645.85647;40.44;465.3;6.930233127;10;149
22;paravance-16.rennes.grid5000.fr;thermos-root-devel-WordCountTopology-0-fbc4f085-53e4-46e1-a8c9-5278260f3c82;["topology_master"];3.25;1533807656.02234;3.97;10.27;0.36546103;9;117
22;paravance-14.rennes.grid5000.fr;thermos-root-devel-WordCountTopology-2-b14ebc8d-4f2a-49ec-8544-eba63fcdfcaa;["container_2_Emit_random_words_2"];3.25;1533807656.07439;41.33;475.24;6.930233127;10;149
22;paravance-13.rennes.grid5000.fr;thermos-root-devel-WordCountTopology-1-a0c765b3-38c4-4c0f-a712-3067bd679f5a;["container_1_Consume_and_count_1"];3.25;1533807655.96107;112.6;866.23;242.920457704;10;151
23;paravance-13.rennes.grid5000.fr;thermos-root-devel-WordCountTopology-1-a0c765b3-38c4-4c0f-a712-3067bd679f5a;["container_1_Consume_and_count_1"];3.25;1533807666.18054;115.53;893.59;253.760754317;10;151
23;paravance-16.rennes.grid5000.fr;thermos-root-devel-WordCountTopology-0-fbc4f085-53e4-46e1-a8c9-5278260f3c82;["topology_master"];3.25;1533807666.24476;4.02;10.35;0.36546103;9;117
23;paravance-14.rennes.grid5000.fr;thermos-root-devel-WordCountTopology-2-b14ebc8d-4f2a-49ec-8544-eba63fcdfcaa;["container_2_Emit_random_words_2"];3.25;1533807666.30012;42.33;487.3;6.930233127;10;149
24;paravance-13.rennes.grid5000.fr;thermos-root-devel-WordCountTopology-1-a0c765b3-38c4-4c0f-a712-3067bd679f5a;["container_1_Consume_and_count_1"];3.25;1533807676.40814;118.28;921.99;265.030458199;10;151
24;paravance-14.rennes.grid5000.fr;thermos-root-devel-WordCountTopology-2-b14ebc8d-4f2a-49ec-8544-eba63fcdfcaa;["container_2_Emit_random_words_2"];3.25;1533807676.52234;43.33;498.4;6.930233127;10;149
24;paravance-16.rennes.grid5000.fr;thermos-root-devel-WordCountTopology-0-fbc4f085-53e4-46e1-a8c9-5278260f3c82;["topology_master"];3.25;1533807676.47591;4.14;10.52;0.36546103;9;117
25;paravance-16.rennes.grid5000.fr;thermos-root-devel-WordCountTopology-0-fbc4f085-53e4-46e1-a8c9-5278260f3c82;["topology_master"];3.25;1533807686.69528;4.17;10.55;0.36546103;9;117
25;paravance-14.rennes.grid5000.fr;thermos-root-devel-WordCountTopology-2-b14ebc8d-4f2a-49ec-8544-eba63fcdfcaa;["container_2_Emit_random_words_2"];3.25;1533807686.74797;44.45;511.5;6.930233127;10;149
25;paravance-13.rennes.grid5000.fr;thermos-root-devel-WordCountTopology-1-a0c765b3-38c4-4c0f-a712-3067bd679f5a;["container_1_Consume_and_count_1"];3.25;1533807686.63807;121.75;950.41;276.851397156;10;151
26;paravance-13.rennes.grid5000.fr;thermos-root-devel-WordCountTopology-1-a0c765b3-38c4-4c0f-a712-3067bd679f5a;["container_1_Consume_and_count_1"];3.25;1533807696.85695;124.57;978.01;288.100271553;10;151
26;paravance-14.rennes.grid5000.fr;thermos-root-devel-WordCountTopology-2-b14ebc8d-4f2a-49ec-8544-eba63fcdfcaa;["container_2_Emit_random_words_2"];3.25;1533807696.97248;45.52;523.34;6.930233127;10;149
26;paravance-16.rennes.grid5000.fr;thermos-root-devel-WordCountTopology-0-fbc4f085-53e4-46e1-a8c9-5278260f3c82;["topology_master"];3.25;1533807696.93086;4.26;10.69;0.36546103;9;117
27;paravance-14.rennes.grid5000.fr;thermos-root-devel-WordCountTopology-2-b14ebc8d-4f2a-49ec-8544-eba63fcdfcaa;["container_2_Emit_random_words_2"];3.25;1533807707.19621;46.62;535.6;6.930233127;10;149
27;paravance-16.rennes.grid5000.fr;thermos-root-devel-WordCountTopology-0-fbc4f085-53e4-46e1-a8c9-5278260f3c82;["topology_master"];3.25;1533807707.14998;4.32;10.76;0.36546103;9;117
27;paravance-13.rennes.grid5000.fr;thermos-root-devel-WordCountTopology-1-a0c765b3-38c4-4c0f-a712-3067bd679f5a;["container_1_Consume_and_count_1"];3.25;1533807707.09079;127.78;1006.3;297.775558736;10;149
28;paravance-13.rennes.grid5000.fr;thermos-root-devel-WordCountTopology-1-a0c765b3-38c4-4c0f-a712-3067bd679f5a;["container_1_Consume_and_count_1"];3.25;1533807717.31144;131.17;1033.91;308.412774281;10;151
28;paravance-14.rennes.grid5000.fr;thermos-root-devel-WordCountTopology-2-b14ebc8d-4f2a-49ec-8544-eba63fcdfcaa;["container_2_Emit_random_words_2"];3.25;1533807717.4262;47.69;548.33;6.930233127;10;149
28;paravance-16.rennes.grid5000.fr;thermos-root-devel-WordCountTopology-0-fbc4f085-53e4-46e1-a8c9-5278260f3c82;["topology_master"];3.25;1533807717.38123;4.38;10.83;0.36546103;9;117
29;paravance-13.rennes.grid5000.fr;thermos-root-devel-WordCountTopology-1-a0c765b3-38c4-4c0f-a712-3067bd679f5a;["container_1_Consume_and_count_1"];3.25;1533807727.43064;134.26;1062.45;318.955241012;10;151
29;paravance-14.rennes.grid5000.fr;thermos-root-devel-WordCountTopology-2-b14ebc8d-4f2a-49ec-8544-eba63fcdfcaa;["container_2_Emit_random_words_2"];3.25;1533807727.64298;48.64;558.48;6.930233127;10;149
29;paravance-16.rennes.grid5000.fr;thermos-root-devel-WordCountTopology-0-fbc4f085-53e4-46e1-a8c9-5278260f3c82;["topology_master"];3.25;1533807727.59472;4.49;10.98;0.36546103;9;117
30;paravance-13.rennes.grid5000.fr;thermos-root-devel-WordCountTopology-1-a0c765b3-38c4-4c0f-a712-3067bd679f5a;["container_1_Consume_and_count_1"];3.25;1533807737.74341;137.4;1091.54;330.726805635;10;151
30;paravance-16.rennes.grid5000.fr;thermos-root-devel-WordCountTopology-0-fbc4f085-53e4-46e1-a8c9-5278260f3c82;["topology_master"];3.25;1533807737.81029;4.55;11.12;0.36546103;9;117
30;paravance-14.rennes.grid5000.fr;thermos-root-devel-WordCountTopology-2-b14ebc8d-4f2a-49ec-8544-eba63fcdfcaa;["container_2_Emit_random_words_2"];3.25;1533807737.85672;49.75;571.19;6.930233127;10;149
31;paravance-14.rennes.grid5000.fr;thermos-root-devel-WordCountTopology-2-b14ebc8d-4f2a-49ec-8544-eba63fcdfcaa;["container_2_Emit_random_words_2"];3.25;1533807748.07282;50.76;582.38;6.930233127;10;149
31;paravance-13.rennes.grid5000.fr;thermos-root-devel-WordCountTopology-1-a0c765b3-38c4-4c0f-a712-3067bd679f5a;["container_1_Consume_and_count_1"];3.25;1533807747.96015;140.66;1119.42;341.147132515;10;151
31;paravance-16.rennes.grid5000.fr;thermos-root-devel-WordCountTopology-0-fbc4f085-53e4-46e1-a8c9-5278260f3c82;["topology_master"];3.25;1533807748.0258;4.61;11.19;0.36546103;9;117
32;paravance-14.rennes.grid5000.fr;thermos-root-devel-WordCountTopology-2-b14ebc8d-4f2a-49ec-8544-eba63fcdfcaa;["container_2_Emit_random_words_2"];3.25;1533807758.29011;51.87;594.8;6.930233127;10;149
32;paravance-13.rennes.grid5000.fr;thermos-root-devel-WordCountTopology-1-a0c765b3-38c4-4c0f-a712-3067bd679f5a;["container_1_Consume_and_count_1"];3.25;1533807758.17531;143.89;1148.07;353.430527765;10;151
32;paravance-16.rennes.grid5000.fr;thermos-root-devel-WordCountTopology-0-fbc4f085-53e4-46e1-a8c9-5278260f3c82;["topology_master"];3.25;1533807758.24084;4.66;11.26;0.36546103;9;117
33;paravance-16.rennes.grid5000.fr;thermos-root-devel-WordCountTopology-0-fbc4f085-53e4-46e1-a8c9-5278260f3c82;["topology_master"];3.25;1533807768.45421;4.74;11.38;0.36546103;9;117
33;paravance-13.rennes.grid5000.fr;thermos-root-devel-WordCountTopology-1-a0c765b3-38c4-4c0f-a712-3067bd679f5a;["container_1_Consume_and_count_1"];3.25;1533807768.39054;147.28;1175.94;363.968925413;10;151
33;paravance-14.rennes.grid5000.fr;thermos-root-devel-WordCountTopology-2-b14ebc8d-4f2a-49ec-8544-eba63fcdfcaa;["container_2_Emit_random_words_2"];3.25;1533807768.50426;53.0;608.01;6.930233127;10;149
34;paravance-14.rennes.grid5000.fr;thermos-root-devel-WordCountTopology-2-b14ebc8d-4f2a-49ec-8544-eba63fcdfcaa;["container_2_Emit_random_words_2"];3.25;1533807778.7198;53.77;616.98;6.930233127;10;149
34;paravance-13.rennes.grid5000.fr;thermos-root-devel-WordCountTopology-1-a0c765b3-38c4-4c0f-a712-3067bd679f5a;["container_1_Consume_and_count_1"];3.25;1533807778.60655;150.09;1203.18;373.023149257;10;151
34;paravance-16.rennes.grid5000.fr;thermos-root-devel-WordCountTopology-0-fbc4f085-53e4-46e1-a8c9-5278260f3c82;["topology_master"];3.25;1533807778.67233;4.77;11.41;0.36546103;9;117
35;paravance-13.rennes.grid5000.fr;thermos-root-devel-WordCountTopology-1-a0c765b3-38c4-4c0f-a712-3067bd679f5a;["container_1_Consume_and_count_1"];3.25;1533807788.8204;153.5;1231.18;383.758051176;10;151
35;paravance-14.rennes.grid5000.fr;thermos-root-devel-WordCountTopology-2-b14ebc8d-4f2a-49ec-8544-eba63fcdfcaa;["container_2_Emit_random_words_2"];3.25;1533807788.93508;54.84;628.93;6.930233127;10;149
35;paravance-16.rennes.grid5000.fr;thermos-root-devel-WordCountTopology-0-fbc4f085-53e4-46e1-a8c9-5278260f3c82;["topology_master"];3.25;1533807788.88668;4.88;11.55;0.36546103;9;117
36;paravance-13.rennes.grid5000.fr;thermos-root-devel-WordCountTopology-1-a0c765b3-38c4-4c0f-a712-3067bd679f5a;["container_1_Consume_and_count_1"];3.25;1533807799.0362;156.07;1256.85;392.305699636;10;151
36;paravance-14.rennes.grid5000.fr;thermos-root-devel-WordCountTopology-2-b14ebc8d-4f2a-49ec-8544-eba63fcdfcaa;["container_2_Emit_random_words_2"];3.25;1533807799.15048;55.7;638.39;6.930233127;10;149
36;paravance-16.rennes.grid5000.fr;thermos-root-devel-WordCountTopology-0-fbc4f085-53e4-46e1-a8c9-5278260f3c82;["topology_master"];3.25;1533807799.10255;4.94;11.68;0.36546103;9;117
37;paravance-13.rennes.grid5000.fr;thermos-root-devel-WordCountTopology-1-a0c765b3-38c4-4c0f-a712-3067bd679f5a;["container_1_Consume_and_count_1"];3.25;1533807809.25403;158.83;1283.77;401.833491498;10;151
37;paravance-16.rennes.grid5000.fr;thermos-root-devel-WordCountTopology-0-fbc4f085-53e4-46e1-a8c9-5278260f3c82;["topology_master"];3.25;1533807809.31814;5.01;11.76;0.36546103;9;117
37;paravance-14.rennes.grid5000.fr;thermos-root-devel-WordCountTopology-2-b14ebc8d-4f2a-49ec-8544-eba63fcdfcaa;["container_2_Emit_random_words_2"];3.25;1533807809.36741;56.5;647.04;6.930233127;10;149
38;paravance-13.rennes.grid5000.fr;thermos-root-devel-WordCountTopology-1-a0c765b3-38c4-4c0f-a712-3067bd679f5a;["container_1_Consume_and_count_1"];3.25;1533807819.46876;161.8;1312.48;411.929733572;10;151
38;paravance-14.rennes.grid5000.fr;thermos-root-devel-WordCountTopology-2-b14ebc8d-4f2a-49ec-8544-eba63fcdfcaa;["container_2_Emit_random_words_2"];3.25;1533807819.58324;57.26;655.18;6.930233127;10;149
38;paravance-16.rennes.grid5000.fr;thermos-root-devel-WordCountTopology-0-fbc4f085-53e4-46e1-a8c9-5278260f3c82;["topology_master"];3.25;1533807819.53497;5.06;11.84;0.36546103;9;117
39;paravance-13.rennes.grid5000.fr;thermos-root-devel-WordCountTopology-1-a0c765b3-38c4-4c0f-a712-3067bd679f5a;["container_1_Consume_and_count_1"];3.25;1533807829.6845;164.76;1340.6;423.186997531;10;151
39;paravance-14.rennes.grid5000.fr;thermos-root-devel-WordCountTopology-2-b14ebc8d-4f2a-49ec-8544-eba63fcdfcaa;["container_2_Emit_random_words_2"];3.25;1533807829.80004;58.24;666.47;6.930233127;10;149
39;paravance-16.rennes.grid5000.fr;thermos-root-devel-WordCountTopology-0-fbc4f085-53e4-46e1-a8c9-5278260f3c82;["topology_master"];3.25;1533807829.7516;5.15;11.96;0.36546103;9;117
40;paravance-16.rennes.grid5000.fr;thermos-root-devel-WordCountTopology-0-fbc4f085-53e4-46e1-a8c9-5278260f3c82;["topology_master"];3.25;1533807839.86508;5.18;11.98;0.36546103;9;117
40;paravance-13.rennes.grid5000.fr;thermos-root-devel-WordCountTopology-1-a0c765b3-38c4-4c0f-a712-3067bd679f5a;["container_1_Consume_and_count_1"];3.25;1533807839.89806;168.06;1368.7;432.106331611;10;151
40;paravance-14.rennes.grid5000.fr;thermos-root-devel-WordCountTopology-2-b14ebc8d-4f2a-49ec-8544-eba63fcdfcaa;["container_2_Emit_random_words_2"];3.25;1533807840.01378;59.19;677.36;6.930233127;10;149
41;paravance-13.rennes.grid5000.fr;thermos-root-devel-WordCountTopology-1-a0c765b3-38c4-4c0f-a712-3067bd679f5a;["container_1_Consume_and_count_1"];3.25;1533807850.11553;171.2;1396.84;443.232905128;10;151
41;paravance-14.rennes.grid5000.fr;thermos-root-devel-WordCountTopology-2-b14ebc8d-4f2a-49ec-8544-eba63fcdfcaa;["container_2_Emit_random_words_2"];3.25;1533807850.22818;60.16;688.75;6.930233127;10;149
41;paravance-16.rennes.grid5000.fr;thermos-root-devel-WordCountTopology-0-fbc4f085-53e4-46e1-a8c9-5278260f3c82;["topology_master"];3.25;1533807850.18011;5.28;12.12;0.36546103;9;117
42;paravance-13.rennes.grid5000.fr;thermos-root-devel-WordCountTopology-1-a0c765b3-38c4-4c0f-a712-3067bd679f5a;["container_1_Consume_and_count_1"];3.25;1533807860.33049;174.25;1424.71;454.226913612;10;151
42;paravance-14.rennes.grid5000.fr;thermos-root-devel-WordCountTopology-2-b14ebc8d-4f2a-49ec-8544-eba63fcdfcaa;["container_2_Emit_random_words_2"];3.25;1533807860.44491;61.26;701.83;6.930233127;10;149
42;paravance-16.rennes.grid5000.fr;thermos-root-devel-WordCountTopology-0-fbc4f085-53e4-46e1-a8c9-5278260f3c82;["topology_master"];3.25;1533807860.39742;5.34;12.22;0.36546103;9;117
43;paravance-13.rennes.grid5000.fr;thermos-root-devel-WordCountTopology-1-a0c765b3-38c4-4c0f-a712-3067bd679f5a;["container_1_Consume_and_count_1"];3.25;1533807870.44745;176.9;1451.3;462.079221511;10;151
43;paravance-14.rennes.grid5000.fr;thermos-root-devel-WordCountTopology-2-b14ebc8d-4f2a-49ec-8544-eba63fcdfcaa;["container_2_Emit_random_words_2"];3.25;1533807870.66224;62.06;710.27;6.930233127;10;149
43;paravance-16.rennes.grid5000.fr;thermos-root-devel-WordCountTopology-0-fbc4f085-53e4-46e1-a8c9-5278260f3c82;["topology_master"];3.25;1533807870.61398;5.43;12.35;0.36546103;9;117
44;paravance-14.rennes.grid5000.fr;thermos-root-devel-WordCountTopology-2-b14ebc8d-4f2a-49ec-8544-eba63fcdfcaa;["container_2_Emit_random_words_2"];3.25;1533807880.87952;62.81;718.87;6.930233127;10;149
44;paravance-16.rennes.grid5000.fr;thermos-root-devel-WordCountTopology-0-fbc4f085-53e4-46e1-a8c9-5278260f3c82;["topology_master"];3.25;1533807880.83173;5.46;12.4;0.36546103;9;117
44;paravance-13.rennes.grid5000.fr;thermos-root-devel-WordCountTopology-1-a0c765b3-38c4-4c0f-a712-3067bd679f5a;["container_1_Consume_and_count_1"];3.25;1533807880.76702;179.77;1479.36;471.759087926;10;151
45;paravance-14.rennes.grid5000.fr;thermos-root-devel-WordCountTopology-2-b14ebc8d-4f2a-49ec-8544-eba63fcdfcaa;["container_2_Emit_random_words_2"];3.25;1533807891.0973;63.81;730.14;6.930233127;10;149
45;paravance-16.rennes.grid5000.fr;thermos-root-devel-WordCountTopology-0-fbc4f085-53e4-46e1-a8c9-5278260f3c82;["topology_master"];3.25;1533807891.04894;5.55;12.52;0.36546103;9;117
45;paravance-13.rennes.grid5000.fr;thermos-root-devel-WordCountTopology-1-a0c765b3-38c4-4c0f-a712-3067bd679f5a;["container_1_Consume_and_count_1"];3.25;1533807890.98312;182.77;1508.48;483.921713186;10;151
46;paravance-13.rennes.grid5000.fr;thermos-root-devel-WordCountTopology-1-a0c765b3-38c4-4c0f-a712-3067bd679f5a;["container_1_Consume_and_count_1"];3.25;1533807901.19985;185.77;1536.65;494.411784116;10;151
46;paravance-14.rennes.grid5000.fr;thermos-root-devel-WordCountTopology-2-b14ebc8d-4f2a-49ec-8544-eba63fcdfcaa;["container_2_Emit_random_words_2"];3.25;1533807901.31548;64.76;741.35;6.930233127;10;149
46;paravance-16.rennes.grid5000.fr;thermos-root-devel-WordCountTopology-0-fbc4f085-53e4-46e1-a8c9-5278260f3c82;["topology_master"];3.25;1533807901.26803;5.61;12.59;0.36546103;9;117
47;paravance-13.rennes.grid5000.fr;thermos-root-devel-WordCountTopology-1-a0c765b3-38c4-4c0f-a712-3067bd679f5a;["container_1_Consume_and_count_1"];3.25;1533807911.41754;189.04;1564.22;505.54539641;10;151
47;paravance-14.rennes.grid5000.fr;thermos-root-devel-WordCountTopology-2-b14ebc8d-4f2a-49ec-8544-eba63fcdfcaa;["container_2_Emit_random_words_2"];3.25;1533807911.53151;65.95;755.3;6.930233127;10;149
47;paravance-16.rennes.grid5000.fr;thermos-root-devel-WordCountTopology-0-fbc4f085-53e4-46e1-a8c9-5278260f3c82;["topology_master"];3.25;1533807911.48381;5.67;12.68;0.36546103;9;117
48;paravance-13.rennes.grid5000.fr;thermos-root-devel-WordCountTopology-1-a0c765b3-38c4-4c0f-a712-3067bd679f5a;["container_1_Consume_and_count_1"];3.25;1533807921.634;192.42;1592.92;518.727489455;10;151
48;paravance-16.rennes.grid5000.fr;thermos-root-devel-WordCountTopology-0-fbc4f085-53e4-46e1-a8c9-5278260f3c82;["topology_master"];3.25;1533807921.69964;5.74;12.82;0.36546103;9;117
48;paravance-14.rennes.grid5000.fr;thermos-root-devel-WordCountTopology-2-b14ebc8d-4f2a-49ec-8544-eba63fcdfcaa;["container_2_Emit_random_words_2"];3.25;1533807921.74797;67.26;771.69;6.930233127;10;149
49;paravance-14.rennes.grid5000.fr;thermos-root-devel-WordCountTopology-2-b14ebc8d-4f2a-49ec-8544-eba63fcdfcaa;["container_2_Emit_random_words_2"];3.25;1533807931.96487;68.47;785.22;6.930233127;10;149
49;paravance-13.rennes.grid5000.fr;thermos-root-devel-WordCountTopology-1-a0c765b3-38c4-4c0f-a712-3067bd679f5a;["container_1_Consume_and_count_1"];3.25;1533807931.85193;195.72;1621.35;530.249168366;10;151
49;paravance-16.rennes.grid5000.fr;thermos-root-devel-WordCountTopology-0-fbc4f085-53e4-46e1-a8c9-5278260f3c82;["topology_master"];3.25;1533807931.91797;5.83;12.94;0.36546103;9;117
50;paravance-13.rennes.grid5000.fr;thermos-root-devel-WordCountTopology-1-a0c765b3-38c4-4c0f-a712-3067bd679f5a;["container_1_Consume_and_count_1"];3.25;1533807942.06848;198.66;1649.37;540.58463441;10;151
50;paravance-14.rennes.grid5000.fr;thermos-root-devel-WordCountTopology-2-b14ebc8d-4f2a-49ec-8544-eba63fcdfcaa;["container_2_Emit_random_words_2"];3.25;1533807942.18247;69.56;798.26;6.930233127;10;149
50;paravance-16.rennes.grid5000.fr;thermos-root-devel-WordCountTopology-0-fbc4f085-53e4-46e1-a8c9-5278260f3c82;["topology_master"];3.25;1533807942.13428;5.86;12.99;0.36546103;9;117
51;paravance-16.rennes.grid5000.fr;thermos-root-devel-WordCountTopology-0-fbc4f085-53e4-46e1-a8c9-5278260f3c82;["topology_master"];3.25;1533807952.24983;5.95;13.12;0.36546103;9;117
51;paravance-13.rennes.grid5000.fr;thermos-root-devel-WordCountTopology-1-a0c765b3-38c4-4c0f-a712-3067bd679f5a;["container_1_Consume_and_count_1"];3.25;1533807952.28516;201.7;1677.38;551.172870307;10;151
51;paravance-14.rennes.grid5000.fr;thermos-root-devel-WordCountTopology-2-b14ebc8d-4f2a-49ec-8544-eba63fcdfcaa;["container_2_Emit_random_words_2"];3.25;1533807952.39836;70.75;811.59;6.930233127;10;149
52;paravance-14.rennes.grid5000.fr;thermos-root-devel-WordCountTopology-2-b14ebc8d-4f2a-49ec-8544-eba63fcdfcaa;["container_2_Emit_random_words_2"];3.25;1533807962.51398;71.65;821.94;6.930233127;10;149
52;paravance-16.rennes.grid5000.fr;thermos-root-devel-WordCountTopology-0-fbc4f085-53e4-46e1-a8c9-5278260f3c82;["topology_master"];3.25;1533807962.56447;6.01;13.2;0.36546103;9;117
52;paravance-13.rennes.grid5000.fr;thermos-root-devel-WordCountTopology-1-a0c765b3-38c4-4c0f-a712-3067bd679f5a;["container_1_Consume_and_count_1"];3.25;1533807962.4998;204.56;1704.53;559.969694283;10;151
53;paravance-13.rennes.grid5000.fr;thermos-root-devel-WordCountTopology-1-a0c765b3-38c4-4c0f-a712-3067bd679f5a;["container_1_Consume_and_count_1"];3.25;1533807972.71566;207.36;1731.21;569.75327;10;151
53;paravance-14.rennes.grid5000.fr;thermos-root-devel-WordCountTopology-2-b14ebc8d-4f2a-49ec-8544-eba63fcdfcaa;["container_2_Emit_random_words_2"];3.25;1533807972.8283;72.56;831.93;6.930233127;10;149
53;paravance-16.rennes.grid5000.fr;thermos-root-devel-WordCountTopology-0-fbc4f085-53e4-46e1-a8c9-5278260f3c82;["topology_master"];3.25;1533807972.77958;6.08;13.3;0.36546103;9;117
54;paravance-14.rennes.grid5000.fr;thermos-root-devel-WordCountTopology-2-b14ebc8d-4f2a-49ec-8544-eba63fcdfcaa;["container_2_Emit_random_words_2"];3.25;1533807983.04623;73.43;841.82;6.930233127;10;149
54;paravance-13.rennes.grid5000.fr;thermos-root-devel-WordCountTopology-1-a0c765b3-38c4-4c0f-a712-3067bd679f5a;["container_1_Consume_and_count_1"];3.25;1533807982.93163;210.28;1758.54;579.500719218;10;151
54;paravance-16.rennes.grid5000.fr;thermos-root-devel-WordCountTopology-0-fbc4f085-53e4-46e1-a8c9-5278260f3c82;["topology_master"];3.25;1533807982.9975;6.14;13.38;0.36546103;9;117
55;paravance-13.rennes.grid5000.fr;thermos-root-devel-WordCountTopology-1-a0c765b3-38c4-4c0f-a712-3067bd679f5a;["container_1_Consume_and_count_1"];3.25;1533807993.14469;213.16;1786.19;589.229023401;10;151
55;paravance-14.rennes.grid5000.fr;thermos-root-devel-WordCountTopology-2-b14ebc8d-4f2a-49ec-8544-eba63fcdfcaa;["container_2_Emit_random_words_2"];3.25;1533807993.25997;74.27;850.71;6.930233127;10;149
55;paravance-16.rennes.grid5000.fr;thermos-root-devel-WordCountTopology-0-fbc4f085-53e4-46e1-a8c9-5278260f3c82;["topology_master"];3.25;1533807993.21184;6.23;13.51;0.36546103;9;117
56;paravance-16.rennes.grid5000.fr;thermos-root-devel-WordCountTopology-0-fbc4f085-53e4-46e1-a8c9-5278260f3c82;["topology_master"];3.25;1533808003.4276;6.26;13.53;0.36546103;9;117
56;paravance-14.rennes.grid5000.fr;thermos-root-devel-WordCountTopology-2-b14ebc8d-4f2a-49ec-8544-eba63fcdfcaa;["container_2_Emit_random_words_2"];3.25;1533808003.47453;75.47;865.21;6.930233127;10;149
56;paravance-13.rennes.grid5000.fr;thermos-root-devel-WordCountTopology-1-a0c765b3-38c4-4c0f-a712-3067bd679f5a;["container_1_Consume_and_count_1"];3.25;1533808003.36259;216.66;1814.2;600.348698899;10;151
57;paravance-13.rennes.grid5000.fr;thermos-root-devel-WordCountTopology-1-a0c765b3-38c4-4c0f-a712-3067bd679f5a;["container_1_Consume_and_count_1"];3.25;1533808013.57949;219.53;1843.36;612.905843046;10;151
57;paravance-16.rennes.grid5000.fr;thermos-root-devel-WordCountTopology-0-fbc4f085-53e4-46e1-a8c9-5278260f3c82;["topology_master"];3.25;1533808013.6445;6.35;13.65;0.36546103;9;117
57;paravance-14.rennes.grid5000.fr;thermos-root-devel-WordCountTopology-2-b14ebc8d-4f2a-49ec-8544-eba63fcdfcaa;["container_2_Emit_random_words_2"];3.25;1533808013.69379;76.46;876.14;6.930233127;10;149
58;paravance-13.rennes.grid5000.fr;thermos-root-devel-WordCountTopology-1-a0c765b3-38c4-4c0f-a712-3067bd679f5a;["container_1_Consume_and_count_1"];3.25;1533808023.79843;223.1;1871.73;624.20316952;10;151
58;paravance-14.rennes.grid5000.fr;thermos-root-devel-WordCountTopology-2-b14ebc8d-4f2a-49ec-8544-eba63fcdfcaa;["container_2_Emit_random_words_2"];3.25;1533808023.91193;77.66;890.72;6.930233127;10;149
58;paravance-16.rennes.grid5000.fr;thermos-root-devel-WordCountTopology-0-fbc4f085-53e4-46e1-a8c9-5278260f3c82;["topology_master"];3.25;1533808023.86402;6.4;13.73;0.36546103;9;117
59;paravance-13.rennes.grid5000.fr;thermos-root-devel-WordCountTopology-1-a0c765b3-38c4-4c0f-a712-3067bd679f5a;["container_1_Consume_and_count_1"];3.25;1533808034.0141;225.76;1899.89;635.447418748;10;151
59;paravance-14.rennes.grid5000.fr;thermos-root-devel-WordCountTopology-2-b14ebc8d-4f2a-49ec-8544-eba63fcdfcaa;["container_2_Emit_random_words_2"];3.25;1533808034.12869;78.64;902.16;6.930233127;10;149
59;paravance-16.rennes.grid5000.fr;thermos-root-devel-WordCountTopology-0-fbc4f085-53e4-46e1-a8c9-5278260f3c82;["topology_master"];3.25;1533808034.08006;6.48;13.84;0.36546103;9;117
60;paravance-13.rennes.grid5000.fr;thermos-root-devel-WordCountTopology-1-a0c765b3-38c4-4c0f-a712-3067bd679f5a;["container_1_Consume_and_count_1"];3.25;1533808044.2292;229.6;1927.43;644.614763249;10;151
60;paravance-14.rennes.grid5000.fr;thermos-root-devel-WordCountTopology-2-b14ebc8d-4f2a-49ec-8544-eba63fcdfcaa;["container_2_Emit_random_words_2"];3.25;1533808044.3455;79.94;918.22;6.930233127;10;149
60;paravance-16.rennes.grid5000.fr;thermos-root-devel-WordCountTopology-0-fbc4f085-53e4-46e1-a8c9-5278260f3c82;["topology_master"];3.25;1533808044.29714;6.54;13.91;0.36546103;9;117
