mesure_id;slave_id;executor_id;heron_instances;cpus_limit;timestamp_A;cpus_system_time_secs_A;cpus_user_time_secs_A;cpus_throttled_time_secs_A;processes;threads
0;paravance-52.rennes.grid5000.fr;thermos-root-devel-WordCountTopology-2-850d8fba-9c96-4211-af0f-db42d6ee7c0b;["container_2_Emit_random_words_2"];4.25;1533750026.01258;9.92;219.95;1.991326807;10;149
0;paravance-50.rennes.grid5000.fr;thermos-root-devel-WordCountTopology-1-9e54ec3c-8f56-48d4-a5bf-5e4472dfe336;["container_1_Consume_and_count_1"];4.25;1533750026.00968;11.21;161.61;0.000108095;10;149
0;paravance-54.rennes.grid5000.fr;thermos-root-devel-WordCountTopology-0-c0e1af00-2bb3-42cc-a3ee-cacce54e2ebc;["topology_master"];4.25;1533750025.78548;2.48;8.25;0.0;9;117
1;paravance-52.rennes.grid5000.fr;thermos-root-devel-WordCountTopology-2-850d8fba-9c96-4211-af0f-db42d6ee7c0b;["container_2_Emit_random_words_2"];4.25;1533750036.23754;10.61;238.34;1.991326807;10;149
1;paravance-54.rennes.grid5000.fr;thermos-root-devel-WordCountTopology-0-c0e1af00-2bb3-42cc-a3ee-cacce54e2ebc;["topology_master"];4.25;1533750036.01071;2.55;8.42;0.0;9;117
1;paravance-50.rennes.grid5000.fr;thermos-root-devel-WordCountTopology-1-9e54ec3c-8f56-48d4-a5bf-5e4472dfe336;["container_1_Consume_and_count_1"];4.25;1533750036.23456;12.01;175.24;0.000108095;10;149
2;paravance-52.rennes.grid5000.fr;thermos-root-devel-WordCountTopology-2-850d8fba-9c96-4211-af0f-db42d6ee7c0b;["container_2_Emit_random_words_2"];4.25;1533750046.45793;11.31;256.7;1.991326807;10;149
2;paravance-54.rennes.grid5000.fr;thermos-root-devel-WordCountTopology-0-c0e1af00-2bb3-42cc-a3ee-cacce54e2ebc;["topology_master"];4.25;1533750046.23185;2.63;8.54;0.0;9;117
2;paravance-50.rennes.grid5000.fr;thermos-root-devel-WordCountTopology-1-9e54ec3c-8f56-48d4-a5bf-5e4472dfe336;["container_1_Consume_and_count_1"];4.25;1533750046.45361;12.81;188.83;0.000108095;10;149
3;paravance-52.rennes.grid5000.fr;thermos-root-devel-WordCountTopology-2-850d8fba-9c96-4211-af0f-db42d6ee7c0b;["container_2_Emit_random_words_2"];4.25;1533750056.679;11.95;274.93;1.991326807;10;149
3;paravance-54.rennes.grid5000.fr;thermos-root-devel-WordCountTopology-0-c0e1af00-2bb3-42cc-a3ee-cacce54e2ebc;["topology_master"];4.25;1533750056.45159;2.66;8.58;0.0;9;117
3;paravance-50.rennes.grid5000.fr;thermos-root-devel-WordCountTopology-1-9e54ec3c-8f56-48d4-a5bf-5e4472dfe336;["container_1_Consume_and_count_1"];4.25;1533750056.67418;13.56;202.0;0.000108095;10;149
4;paravance-54.rennes.grid5000.fr;thermos-root-devel-WordCountTopology-0-c0e1af00-2bb3-42cc-a3ee-cacce54e2ebc;["topology_master"];4.25;1533750066.67328;2.76;8.7;0.0;9;117
4;paravance-52.rennes.grid5000.fr;thermos-root-devel-WordCountTopology-2-850d8fba-9c96-4211-af0f-db42d6ee7c0b;["container_2_Emit_random_words_2"];4.25;1533750066.90208;12.65;293.28;1.991326807;10;149
4;paravance-50.rennes.grid5000.fr;thermos-root-devel-WordCountTopology-1-9e54ec3c-8f56-48d4-a5bf-5e4472dfe336;["container_1_Consume_and_count_1"];4.25;1533750066.89688;14.37;216.01;0.000108095;10;149
5;paravance-52.rennes.grid5000.fr;thermos-root-devel-WordCountTopology-2-850d8fba-9c96-4211-af0f-db42d6ee7c0b;["container_2_Emit_random_words_2"];4.25;1533750077.12199;13.32;311.62;1.991326807;10;149
5;paravance-50.rennes.grid5000.fr;thermos-root-devel-WordCountTopology-1-9e54ec3c-8f56-48d4-a5bf-5e4472dfe336;["container_1_Consume_and_count_1"];4.25;1533750077.1177;15.16;229.19;0.000108095;10;149
5;paravance-54.rennes.grid5000.fr;thermos-root-devel-WordCountTopology-0-c0e1af00-2bb3-42cc-a3ee-cacce54e2ebc;["topology_master"];4.25;1533750076.89554;2.81;8.78;0.0;9;117
6;paravance-52.rennes.grid5000.fr;thermos-root-devel-WordCountTopology-2-850d8fba-9c96-4211-af0f-db42d6ee7c0b;["container_2_Emit_random_words_2"];4.25;1533750087.34054;14.02;329.91;1.991326807;10;149
6;paravance-50.rennes.grid5000.fr;thermos-root-devel-WordCountTopology-1-9e54ec3c-8f56-48d4-a5bf-5e4472dfe336;["container_1_Consume_and_count_1"];4.25;1533750087.33611;15.97;243.17;0.000108095;10;149
6;paravance-54.rennes.grid5000.fr;thermos-root-devel-WordCountTopology-0-c0e1af00-2bb3-42cc-a3ee-cacce54e2ebc;["topology_master"];4.25;1533750087.11481;2.9;8.9;0.0;9;117
7;paravance-52.rennes.grid5000.fr;thermos-root-devel-WordCountTopology-2-850d8fba-9c96-4211-af0f-db42d6ee7c0b;["container_2_Emit_random_words_2"];4.25;1533750097.55825;14.71;348.4;1.991326807;10;149
7;paravance-50.rennes.grid5000.fr;thermos-root-devel-WordCountTopology-1-9e54ec3c-8f56-48d4-a5bf-5e4472dfe336;["container_1_Consume_and_count_1"];4.25;1533750097.55797;16.74;256.44;0.000108095;10;149
7;paravance-54.rennes.grid5000.fr;thermos-root-devel-WordCountTopology-0-c0e1af00-2bb3-42cc-a3ee-cacce54e2ebc;["topology_master"];4.25;1533750097.33597;2.97;9.04;0.0;9;117
8;paravance-52.rennes.grid5000.fr;thermos-root-devel-WordCountTopology-2-850d8fba-9c96-4211-af0f-db42d6ee7c0b;["container_2_Emit_random_words_2"];4.25;1533750107.77428;15.4;366.56;1.991326807;10;149
8;paravance-50.rennes.grid5000.fr;thermos-root-devel-WordCountTopology-1-9e54ec3c-8f56-48d4-a5bf-5e4472dfe336;["container_1_Consume_and_count_1"];4.25;1533750107.7793;17.55;270.23;0.000108095;10;149
8;paravance-54.rennes.grid5000.fr;thermos-root-devel-WordCountTopology-0-c0e1af00-2bb3-42cc-a3ee-cacce54e2ebc;["topology_master"];4.25;1533750107.55541;3.07;9.18;0.0;9;117
9;paravance-52.rennes.grid5000.fr;thermos-root-devel-WordCountTopology-2-850d8fba-9c96-4211-af0f-db42d6ee7c0b;["container_2_Emit_random_words_2"];4.25;1533750117.99125;16.03;384.78;1.991326807;10;149
9;paravance-54.rennes.grid5000.fr;thermos-root-devel-WordCountTopology-0-c0e1af00-2bb3-42cc-a3ee-cacce54e2ebc;["topology_master"];4.25;1533750117.77893;3.09;9.21;0.0;9;117
9;paravance-50.rennes.grid5000.fr;thermos-root-devel-WordCountTopology-1-9e54ec3c-8f56-48d4-a5bf-5e4472dfe336;["container_1_Consume_and_count_1"];4.25;1533750117.9963;18.31;284.57;0.000108095;10;149
10;paravance-52.rennes.grid5000.fr;thermos-root-devel-WordCountTopology-2-850d8fba-9c96-4211-af0f-db42d6ee7c0b;["container_2_Emit_random_words_2"];4.25;1533750128.20867;16.67;402.96;1.991326807;10;149
10;paravance-50.rennes.grid5000.fr;thermos-root-devel-WordCountTopology-1-9e54ec3c-8f56-48d4-a5bf-5e4472dfe336;["container_1_Consume_and_count_1"];4.25;1533750128.21313;19.11;298.67;0.000108095;10;149
10;paravance-54.rennes.grid5000.fr;thermos-root-devel-WordCountTopology-0-c0e1af00-2bb3-42cc-a3ee-cacce54e2ebc;["topology_master"];4.25;1533750128.00058;3.18;9.33;0.0;9;117
11;paravance-54.rennes.grid5000.fr;thermos-root-devel-WordCountTopology-0-c0e1af00-2bb3-42cc-a3ee-cacce54e2ebc;["topology_master"];4.25;1533750138.22201;3.24;9.4;0.0;9;117
11;paravance-52.rennes.grid5000.fr;thermos-root-devel-WordCountTopology-2-850d8fba-9c96-4211-af0f-db42d6ee7c0b;["container_2_Emit_random_words_2"];4.25;1533750138.4254;17.32;421.13;1.991326807;10;149
11;paravance-50.rennes.grid5000.fr;thermos-root-devel-WordCountTopology-1-9e54ec3c-8f56-48d4-a5bf-5e4472dfe336;["container_1_Consume_and_count_1"];4.25;1533750138.43045;19.88;312.18;0.000108095;10;149
12;paravance-52.rennes.grid5000.fr;thermos-root-devel-WordCountTopology-2-850d8fba-9c96-4211-af0f-db42d6ee7c0b;["container_2_Emit_random_words_2"];4.25;1533750148.64162;17.99;439.22;1.991326807;10;149
12;paravance-50.rennes.grid5000.fr;thermos-root-devel-WordCountTopology-1-9e54ec3c-8f56-48d4-a5bf-5e4472dfe336;["container_1_Consume_and_count_1"];4.25;1533750148.64639;20.68;325.69;0.000108095;10;149
12;paravance-54.rennes.grid5000.fr;thermos-root-devel-WordCountTopology-0-c0e1af00-2bb3-42cc-a3ee-cacce54e2ebc;["topology_master"];4.25;1533750148.44432;3.37;9.71;0.0;9;117
13;paravance-52.rennes.grid5000.fr;thermos-root-devel-WordCountTopology-2-850d8fba-9c96-4211-af0f-db42d6ee7c0b;["container_2_Emit_random_words_2"];4.25;1533750158.85756;18.64;457.49;1.991326807;10;149
13;paravance-50.rennes.grid5000.fr;thermos-root-devel-WordCountTopology-1-9e54ec3c-8f56-48d4-a5bf-5e4472dfe336;["container_1_Consume_and_count_1"];4.25;1533750158.86234;21.45;339.66;0.000108095;10;149
13;paravance-54.rennes.grid5000.fr;thermos-root-devel-WordCountTopology-0-c0e1af00-2bb3-42cc-a3ee-cacce54e2ebc;["topology_master"];4.25;1533750158.66573;3.39;9.74;0.0;9;117
14;paravance-52.rennes.grid5000.fr;thermos-root-devel-WordCountTopology-2-850d8fba-9c96-4211-af0f-db42d6ee7c0b;["container_2_Emit_random_words_2"];4.25;1533750169.07332;19.33;475.7;1.991326807;10;149
14;paravance-54.rennes.grid5000.fr;thermos-root-devel-WordCountTopology-0-c0e1af00-2bb3-42cc-a3ee-cacce54e2ebc;["topology_master"];4.25;1533750168.88654;3.48;9.87;0.0;9;117
14;paravance-50.rennes.grid5000.fr;thermos-root-devel-WordCountTopology-1-9e54ec3c-8f56-48d4-a5bf-5e4472dfe336;["container_1_Consume_and_count_1"];4.25;1533750169.07839;22.24;353.44;0.000108095;10;149
15;paravance-52.rennes.grid5000.fr;thermos-root-devel-WordCountTopology-2-850d8fba-9c96-4211-af0f-db42d6ee7c0b;["container_2_Emit_random_words_2"];4.25;1533750179.28936;19.99;493.98;1.991326807;10;149
15;paravance-54.rennes.grid5000.fr;thermos-root-devel-WordCountTopology-0-c0e1af00-2bb3-42cc-a3ee-cacce54e2ebc;["topology_master"];4.25;1533750179.10735;3.54;9.95;0.0;9;117
15;paravance-50.rennes.grid5000.fr;thermos-root-devel-WordCountTopology-1-9e54ec3c-8f56-48d4-a5bf-5e4472dfe336;["container_1_Consume_and_count_1"];4.25;1533750179.29448;23.02;367.38;0.000108095;10;149
16;paravance-52.rennes.grid5000.fr;thermos-root-devel-WordCountTopology-2-850d8fba-9c96-4211-af0f-db42d6ee7c0b;["container_2_Emit_random_words_2"];4.25;1533750189.50569;20.65;512.19;1.991326807;10;149
16;paravance-54.rennes.grid5000.fr;thermos-root-devel-WordCountTopology-0-c0e1af00-2bb3-42cc-a3ee-cacce54e2ebc;["topology_master"];4.25;1533750189.329;3.59;10.03;0.0;9;117
16;paravance-50.rennes.grid5000.fr;thermos-root-devel-WordCountTopology-1-9e54ec3c-8f56-48d4-a5bf-5e4472dfe336;["container_1_Consume_and_count_1"];4.25;1533750189.51073;23.8;381.19;0.000108095;10;149
17;paravance-50.rennes.grid5000.fr;thermos-root-devel-WordCountTopology-1-9e54ec3c-8f56-48d4-a5bf-5e4472dfe336;["container_1_Consume_and_count_1"];4.25;1533750199.7258;24.57;395.04;0.000108095;10;149
17;paravance-52.rennes.grid5000.fr;thermos-root-devel-WordCountTopology-2-850d8fba-9c96-4211-af0f-db42d6ee7c0b;["container_2_Emit_random_words_2"];4.25;1533750199.7218;21.31;530.37;1.991326807;10;149
17;paravance-54.rennes.grid5000.fr;thermos-root-devel-WordCountTopology-0-c0e1af00-2bb3-42cc-a3ee-cacce54e2ebc;["topology_master"];4.25;1533750199.5503;3.65;10.11;0.0;9;117
18;paravance-52.rennes.grid5000.fr;thermos-root-devel-WordCountTopology-2-850d8fba-9c96-4211-af0f-db42d6ee7c0b;["container_2_Emit_random_words_2"];4.25;1533750209.93827;22.02;548.84;1.991326807;10;149
18;paravance-54.rennes.grid5000.fr;thermos-root-devel-WordCountTopology-0-c0e1af00-2bb3-42cc-a3ee-cacce54e2ebc;["topology_master"];4.25;1533750209.77165;3.78;10.33;0.0;9;117
18;paravance-50.rennes.grid5000.fr;thermos-root-devel-WordCountTopology-1-9e54ec3c-8f56-48d4-a5bf-5e4472dfe336;["container_1_Consume_and_count_1"];4.25;1533750209.94255;25.41;409.1;0.000108095;10;149
19;paravance-52.rennes.grid5000.fr;thermos-root-devel-WordCountTopology-2-850d8fba-9c96-4211-af0f-db42d6ee7c0b;["container_2_Emit_random_words_2"];4.25;1533750220.15379;22.65;566.93;1.991326807;10;149
19;paravance-54.rennes.grid5000.fr;thermos-root-devel-WordCountTopology-0-c0e1af00-2bb3-42cc-a3ee-cacce54e2ebc;["topology_master"];4.25;1533750219.99259;3.8;10.36;0.0;9;117
19;paravance-50.rennes.grid5000.fr;thermos-root-devel-WordCountTopology-1-9e54ec3c-8f56-48d4-a5bf-5e4472dfe336;["container_1_Consume_and_count_1"];4.25;1533750220.15959;26.15;422.77;0.000108095;10;149
20;paravance-54.rennes.grid5000.fr;thermos-root-devel-WordCountTopology-0-c0e1af00-2bb3-42cc-a3ee-cacce54e2ebc;["topology_master"];4.25;1533750230.21359;3.89;10.49;0.0;9;117
20;paravance-52.rennes.grid5000.fr;thermos-root-devel-WordCountTopology-2-850d8fba-9c96-4211-af0f-db42d6ee7c0b;["container_2_Emit_random_words_2"];4.25;1533750230.37004;23.35;585.14;1.991326807;10;149
20;paravance-50.rennes.grid5000.fr;thermos-root-devel-WordCountTopology-1-9e54ec3c-8f56-48d4-a5bf-5e4472dfe336;["container_1_Consume_and_count_1"];4.25;1533750230.37484;26.96;436.43;0.000108095;10;149
21;paravance-52.rennes.grid5000.fr;thermos-root-devel-WordCountTopology-2-850d8fba-9c96-4211-af0f-db42d6ee7c0b;["container_2_Emit_random_words_2"];4.25;1533750240.58656;24.01;603.42;1.991326807;10;149
21;paravance-54.rennes.grid5000.fr;thermos-root-devel-WordCountTopology-0-c0e1af00-2bb3-42cc-a3ee-cacce54e2ebc;["topology_master"];4.25;1533750240.43581;3.95;10.57;0.0;9;117
21;paravance-50.rennes.grid5000.fr;thermos-root-devel-WordCountTopology-1-9e54ec3c-8f56-48d4-a5bf-5e4472dfe336;["container_1_Consume_and_count_1"];4.25;1533750240.59228;27.73;450.35;0.000108095;10;149
22;paravance-50.rennes.grid5000.fr;thermos-root-devel-WordCountTopology-1-9e54ec3c-8f56-48d4-a5bf-5e4472dfe336;["container_1_Consume_and_count_1"];4.25;1533750250.70728;28.5;464.02;0.000108095;10;149
22;paravance-52.rennes.grid5000.fr;thermos-root-devel-WordCountTopology-2-850d8fba-9c96-4211-af0f-db42d6ee7c0b;["container_2_Emit_random_words_2"];4.25;1533750250.80215;24.67;621.64;1.991326807;10;149
22;paravance-54.rennes.grid5000.fr;thermos-root-devel-WordCountTopology-0-c0e1af00-2bb3-42cc-a3ee-cacce54e2ebc;["topology_master"];4.25;1533750250.65696;4.01;10.64;0.0;9;117
23;paravance-52.rennes.grid5000.fr;thermos-root-devel-WordCountTopology-2-850d8fba-9c96-4211-af0f-db42d6ee7c0b;["container_2_Emit_random_words_2"];4.25;1533750261.0193;25.32;639.82;1.991326807;10;149
23;paravance-50.rennes.grid5000.fr;thermos-root-devel-WordCountTopology-1-9e54ec3c-8f56-48d4-a5bf-5e4472dfe336;["container_1_Consume_and_count_1"];4.25;1533750261.02386;29.28;477.67;0.000108095;10;149
23;paravance-54.rennes.grid5000.fr;thermos-root-devel-WordCountTopology-0-c0e1af00-2bb3-42cc-a3ee-cacce54e2ebc;["topology_master"];4.25;1533750260.87825;4.06;10.71;0.0;9;117
24;paravance-52.rennes.grid5000.fr;thermos-root-devel-WordCountTopology-2-850d8fba-9c96-4211-af0f-db42d6ee7c0b;["container_2_Emit_random_words_2"];4.25;1533750271.23383;26.02;658.05;1.991326807;10;149
24;paravance-50.rennes.grid5000.fr;thermos-root-devel-WordCountTopology-1-9e54ec3c-8f56-48d4-a5bf-5e4472dfe336;["container_1_Consume_and_count_1"];4.25;1533750271.24042;30.11;491.32;0.000108095;10;149
24;paravance-54.rennes.grid5000.fr;thermos-root-devel-WordCountTopology-0-c0e1af00-2bb3-42cc-a3ee-cacce54e2ebc;["topology_master"];4.25;1533750271.09987;4.17;10.9;0.0;9;117
25;paravance-54.rennes.grid5000.fr;thermos-root-devel-WordCountTopology-0-c0e1af00-2bb3-42cc-a3ee-cacce54e2ebc;["topology_master"];4.25;1533750281.32073;4.19;10.93;0.0;9;117
25;paravance-50.rennes.grid5000.fr;thermos-root-devel-WordCountTopology-1-9e54ec3c-8f56-48d4-a5bf-5e4472dfe336;["container_1_Consume_and_count_1"];4.25;1533750281.45875;30.87;505.18;0.000108095;10;149
25;paravance-52.rennes.grid5000.fr;thermos-root-devel-WordCountTopology-2-850d8fba-9c96-4211-af0f-db42d6ee7c0b;["container_2_Emit_random_words_2"];4.25;1533750281.45351;26.65;676.32;1.991326807;10;149
26;paravance-52.rennes.grid5000.fr;thermos-root-devel-WordCountTopology-2-850d8fba-9c96-4211-af0f-db42d6ee7c0b;["container_2_Emit_random_words_2"];4.25;1533750291.66847;27.33;694.59;1.991326807;10;149
26;paravance-50.rennes.grid5000.fr;thermos-root-devel-WordCountTopology-1-9e54ec3c-8f56-48d4-a5bf-5e4472dfe336;["container_1_Consume_and_count_1"];4.25;1533750291.67301;31.67;518.97;0.000108095;10;149
26;paravance-54.rennes.grid5000.fr;thermos-root-devel-WordCountTopology-0-c0e1af00-2bb3-42cc-a3ee-cacce54e2ebc;["topology_master"];4.25;1533750291.54261;4.28;11.05;0.0;9;117
27;paravance-52.rennes.grid5000.fr;thermos-root-devel-WordCountTopology-2-850d8fba-9c96-4211-af0f-db42d6ee7c0b;["container_2_Emit_random_words_2"];4.25;1533750301.88336;28.0;712.91;1.991326807;10;149
27;paravance-50.rennes.grid5000.fr;thermos-root-devel-WordCountTopology-1-9e54ec3c-8f56-48d4-a5bf-5e4472dfe336;["container_1_Consume_and_count_1"];4.25;1533750301.88832;32.44;532.86;0.000108095;10;149
27;paravance-54.rennes.grid5000.fr;thermos-root-devel-WordCountTopology-0-c0e1af00-2bb3-42cc-a3ee-cacce54e2ebc;["topology_master"];4.25;1533750301.76279;4.34;11.12;0.0;9;117
28;paravance-52.rennes.grid5000.fr;thermos-root-devel-WordCountTopology-2-850d8fba-9c96-4211-af0f-db42d6ee7c0b;["container_2_Emit_random_words_2"];4.25;1533750312.10235;28.68;731.29;1.991326807;10;149
28;paravance-50.rennes.grid5000.fr;thermos-root-devel-WordCountTopology-1-9e54ec3c-8f56-48d4-a5bf-5e4472dfe336;["container_1_Consume_and_count_1"];4.25;1533750312.10676;33.23;546.92;0.000108095;10;149
28;paravance-54.rennes.grid5000.fr;thermos-root-devel-WordCountTopology-0-c0e1af00-2bb3-42cc-a3ee-cacce54e2ebc;["topology_master"];4.25;1533750311.98694;4.39;11.19;0.0;9;117
29;paravance-52.rennes.grid5000.fr;thermos-root-devel-WordCountTopology-2-850d8fba-9c96-4211-af0f-db42d6ee7c0b;["container_2_Emit_random_words_2"];4.25;1533750322.31714;29.33;749.44;1.991326807;10;149
29;paravance-54.rennes.grid5000.fr;thermos-root-devel-WordCountTopology-0-c0e1af00-2bb3-42cc-a3ee-cacce54e2ebc;["topology_master"];4.25;1533750322.2048;4.48;11.3;0.0;9;115
29;paravance-50.rennes.grid5000.fr;thermos-root-devel-WordCountTopology-1-9e54ec3c-8f56-48d4-a5bf-5e4472dfe336;["container_1_Consume_and_count_1"];4.25;1533750322.32124;33.99;560.51;0.000108095;10;149
30;paravance-50.rennes.grid5000.fr;thermos-root-devel-WordCountTopology-1-9e54ec3c-8f56-48d4-a5bf-5e4472dfe336;["container_1_Consume_and_count_1"];4.25;1533750332.53614;34.81;574.37;0.000108095;10;149
30;paravance-52.rennes.grid5000.fr;thermos-root-devel-WordCountTopology-2-850d8fba-9c96-4211-af0f-db42d6ee7c0b;["container_2_Emit_random_words_2"];4.25;1533750332.53325;30.02;767.65;1.991326807;10;149
30;paravance-54.rennes.grid5000.fr;thermos-root-devel-WordCountTopology-0-c0e1af00-2bb3-42cc-a3ee-cacce54e2ebc;["topology_master"];4.25;1533750332.42667;4.56;11.44;0.0;9;117
31;paravance-52.rennes.grid5000.fr;thermos-root-devel-WordCountTopology-2-850d8fba-9c96-4211-af0f-db42d6ee7c0b;["container_2_Emit_random_words_2"];4.25;1533750342.74784;30.69;785.95;1.991326807;10;149
31;paravance-54.rennes.grid5000.fr;thermos-root-devel-WordCountTopology-0-c0e1af00-2bb3-42cc-a3ee-cacce54e2ebc;["topology_master"];4.25;1533750342.64702;4.62;11.52;0.0;9;117
31;paravance-50.rennes.grid5000.fr;thermos-root-devel-WordCountTopology-1-9e54ec3c-8f56-48d4-a5bf-5e4472dfe336;["container_1_Consume_and_count_1"];4.25;1533750342.75206;35.6;588.42;0.000108095;10;149
32;paravance-52.rennes.grid5000.fr;thermos-root-devel-WordCountTopology-2-850d8fba-9c96-4211-af0f-db42d6ee7c0b;["container_2_Emit_random_words_2"];4.25;1533750352.96398;31.35;804.32;1.991326807;10;149
32;paravance-50.rennes.grid5000.fr;thermos-root-devel-WordCountTopology-1-9e54ec3c-8f56-48d4-a5bf-5e4472dfe336;["container_1_Consume_and_count_1"];4.25;1533750352.96827;36.38;602.58;0.000108095;10;149
32;paravance-54.rennes.grid5000.fr;thermos-root-devel-WordCountTopology-0-c0e1af00-2bb3-42cc-a3ee-cacce54e2ebc;["topology_master"];4.25;1533750352.86845;4.68;11.59;0.0;9;117
33;paravance-50.rennes.grid5000.fr;thermos-root-devel-WordCountTopology-1-9e54ec3c-8f56-48d4-a5bf-5e4472dfe336;["container_1_Consume_and_count_1"];4.25;1533750363.18364;37.2;616.75;0.000108095;10;149
33;paravance-54.rennes.grid5000.fr;thermos-root-devel-WordCountTopology-0-c0e1af00-2bb3-42cc-a3ee-cacce54e2ebc;["topology_master"];4.25;1533750363.09002;4.77;11.71;0.0;9;117
33;paravance-52.rennes.grid5000.fr;thermos-root-devel-WordCountTopology-2-850d8fba-9c96-4211-af0f-db42d6ee7c0b;["container_2_Emit_random_words_2"];4.25;1533750363.18139;32.06;822.71;1.991326807;10;149
34;paravance-52.rennes.grid5000.fr;thermos-root-devel-WordCountTopology-2-850d8fba-9c96-4211-af0f-db42d6ee7c0b;["container_2_Emit_random_words_2"];4.25;1533750373.29563;32.7;840.76;1.991326807;10;149
34;paravance-54.rennes.grid5000.fr;thermos-root-devel-WordCountTopology-0-c0e1af00-2bb3-42cc-a3ee-cacce54e2ebc;["topology_master"];4.25;1533750373.31049;4.79;11.74;0.0;9;117
34;paravance-50.rennes.grid5000.fr;thermos-root-devel-WordCountTopology-1-9e54ec3c-8f56-48d4-a5bf-5e4472dfe336;["container_1_Consume_and_count_1"];4.25;1533750373.40016;37.95;630.62;0.000108095;10;149
35;paravance-52.rennes.grid5000.fr;thermos-root-devel-WordCountTopology-2-850d8fba-9c96-4211-af0f-db42d6ee7c0b;["container_2_Emit_random_words_2"];4.25;1533750383.61198;33.43;859.3;1.991326807;10;149
35;paravance-50.rennes.grid5000.fr;thermos-root-devel-WordCountTopology-1-9e54ec3c-8f56-48d4-a5bf-5e4472dfe336;["container_1_Consume_and_count_1"];4.25;1533750383.61589;38.78;644.76;0.000108095;10;149
35;paravance-54.rennes.grid5000.fr;thermos-root-devel-WordCountTopology-0-c0e1af00-2bb3-42cc-a3ee-cacce54e2ebc;["topology_master"];4.25;1533750383.53156;4.9;11.88;0.0;9;117
36;paravance-52.rennes.grid5000.fr;thermos-root-devel-WordCountTopology-2-850d8fba-9c96-4211-af0f-db42d6ee7c0b;["container_2_Emit_random_words_2"];4.25;1533750393.82791;34.1;877.69;1.991326807;10;149
36;paravance-54.rennes.grid5000.fr;thermos-root-devel-WordCountTopology-0-c0e1af00-2bb3-42cc-a3ee-cacce54e2ebc;["topology_master"];4.25;1533750393.7529;4.96;12.06;0.0;9;117
36;paravance-50.rennes.grid5000.fr;thermos-root-devel-WordCountTopology-1-9e54ec3c-8f56-48d4-a5bf-5e4472dfe336;["container_1_Consume_and_count_1"];4.25;1533750393.83217;39.55;658.54;0.000108095;10;149
37;paravance-54.rennes.grid5000.fr;thermos-root-devel-WordCountTopology-0-c0e1af00-2bb3-42cc-a3ee-cacce54e2ebc;["topology_master"];4.25;1533750403.97304;5.02;12.13;0.0;9;117
37;paravance-50.rennes.grid5000.fr;thermos-root-devel-WordCountTopology-1-9e54ec3c-8f56-48d4-a5bf-5e4472dfe336;["container_1_Consume_and_count_1"];4.25;1533750404.04868;40.33;672.36;0.000108095;10;149
37;paravance-52.rennes.grid5000.fr;thermos-root-devel-WordCountTopology-2-850d8fba-9c96-4211-af0f-db42d6ee7c0b;["container_2_Emit_random_words_2"];4.25;1533750404.04561;34.78;895.89;1.991326807;10;149
38;paravance-52.rennes.grid5000.fr;thermos-root-devel-WordCountTopology-2-850d8fba-9c96-4211-af0f-db42d6ee7c0b;["container_2_Emit_random_words_2"];4.25;1533750414.25991;35.45;914.26;1.991326807;10;149
38;paravance-50.rennes.grid5000.fr;thermos-root-devel-WordCountTopology-1-9e54ec3c-8f56-48d4-a5bf-5e4472dfe336;["container_1_Consume_and_count_1"];4.25;1533750414.2647;41.11;686.31;0.000108095;10;149
38;paravance-54.rennes.grid5000.fr;thermos-root-devel-WordCountTopology-0-c0e1af00-2bb3-42cc-a3ee-cacce54e2ebc;["topology_master"];4.25;1533750414.19495;5.07;12.21;0.0;9;117
39;paravance-52.rennes.grid5000.fr;thermos-root-devel-WordCountTopology-2-850d8fba-9c96-4211-af0f-db42d6ee7c0b;["container_2_Emit_random_words_2"];4.25;1533750424.4758;36.15;932.47;1.991326807;10;149
39;paravance-54.rennes.grid5000.fr;thermos-root-devel-WordCountTopology-0-c0e1af00-2bb3-42cc-a3ee-cacce54e2ebc;["topology_master"];4.25;1533750424.41629;5.16;12.33;0.0;9;117
39;paravance-50.rennes.grid5000.fr;thermos-root-devel-WordCountTopology-1-9e54ec3c-8f56-48d4-a5bf-5e4472dfe336;["container_1_Consume_and_count_1"];4.25;1533750424.48007;41.91;700.12;0.000108095;10;149
40;paravance-52.rennes.grid5000.fr;thermos-root-devel-WordCountTopology-2-850d8fba-9c96-4211-af0f-db42d6ee7c0b;["container_2_Emit_random_words_2"];4.25;1533750434.59012;36.77;950.53;1.991326807;10;149
40;paravance-50.rennes.grid5000.fr;thermos-root-devel-WordCountTopology-1-9e54ec3c-8f56-48d4-a5bf-5e4472dfe336;["container_1_Consume_and_count_1"];4.25;1533750434.7063;42.65;713.9;0.000108095;10;149
40;paravance-54.rennes.grid5000.fr;thermos-root-devel-WordCountTopology-0-c0e1af00-2bb3-42cc-a3ee-cacce54e2ebc;["topology_master"];4.25;1533750434.64713;5.19;12.35;0.0;9;117
41;paravance-52.rennes.grid5000.fr;thermos-root-devel-WordCountTopology-2-850d8fba-9c96-4211-af0f-db42d6ee7c0b;["container_2_Emit_random_words_2"];4.25;1533750444.91655;37.48;969.08;1.991326807;10;149
41;paravance-54.rennes.grid5000.fr;thermos-root-devel-WordCountTopology-0-c0e1af00-2bb3-42cc-a3ee-cacce54e2ebc;["topology_master"];4.25;1533750444.86746;5.29;12.49;0.0;9;117
41;paravance-50.rennes.grid5000.fr;thermos-root-devel-WordCountTopology-1-9e54ec3c-8f56-48d4-a5bf-5e4472dfe336;["container_1_Consume_and_count_1"];4.25;1533750444.92032;43.47;728.02;0.000108095;10;149
42;paravance-52.rennes.grid5000.fr;thermos-root-devel-WordCountTopology-2-850d8fba-9c96-4211-af0f-db42d6ee7c0b;["container_2_Emit_random_words_2"];4.25;1533750455.13218;38.16;987.42;1.991326807;10;149
42;paravance-50.rennes.grid5000.fr;thermos-root-devel-WordCountTopology-1-9e54ec3c-8f56-48d4-a5bf-5e4472dfe336;["container_1_Consume_and_count_1"];4.25;1533750455.13657;44.25;741.96;0.000108095;10;149
42;paravance-54.rennes.grid5000.fr;thermos-root-devel-WordCountTopology-0-c0e1af00-2bb3-42cc-a3ee-cacce54e2ebc;["topology_master"];4.25;1533750455.0877;5.35;12.62;0.0;9;117
43;paravance-54.rennes.grid5000.fr;thermos-root-devel-WordCountTopology-0-c0e1af00-2bb3-42cc-a3ee-cacce54e2ebc;["topology_master"];4.25;1533750465.30784;5.44;12.74;0.0;9;117
43;paravance-52.rennes.grid5000.fr;thermos-root-devel-WordCountTopology-2-850d8fba-9c96-4211-af0f-db42d6ee7c0b;["container_2_Emit_random_words_2"];4.25;1533750465.34897;38.86;1005.76;1.991326807;10;149
43;paravance-50.rennes.grid5000.fr;thermos-root-devel-WordCountTopology-1-9e54ec3c-8f56-48d4-a5bf-5e4472dfe336;["container_1_Consume_and_count_1"];4.25;1533750465.35202;45.05;755.88;0.000108095;10;149
44;paravance-52.rennes.grid5000.fr;thermos-root-devel-WordCountTopology-2-850d8fba-9c96-4211-af0f-db42d6ee7c0b;["container_2_Emit_random_words_2"];4.25;1533750475.56337;39.48;1024.0;1.991326807;10;149
44;paravance-50.rennes.grid5000.fr;thermos-root-devel-WordCountTopology-1-9e54ec3c-8f56-48d4-a5bf-5e4472dfe336;["container_1_Consume_and_count_1"];4.25;1533750475.56769;45.78;769.3;0.000108095;10;149
44;paravance-54.rennes.grid5000.fr;thermos-root-devel-WordCountTopology-0-c0e1af00-2bb3-42cc-a3ee-cacce54e2ebc;["topology_master"];4.25;1533750475.52916;5.46;12.76;0.0;9;117
45;paravance-54.rennes.grid5000.fr;thermos-root-devel-WordCountTopology-0-c0e1af00-2bb3-42cc-a3ee-cacce54e2ebc;["topology_master"];4.25;1533750485.64993;5.55;12.89;0.0;9;117
45;paravance-52.rennes.grid5000.fr;thermos-root-devel-WordCountTopology-2-850d8fba-9c96-4211-af0f-db42d6ee7c0b;["container_2_Emit_random_words_2"];4.25;1533750485.77983;40.14;1042.13;1.991326807;10;149
45;paravance-50.rennes.grid5000.fr;thermos-root-devel-WordCountTopology-1-9e54ec3c-8f56-48d4-a5bf-5e4472dfe336;["container_1_Consume_and_count_1"];4.25;1533750485.78374;46.57;782.71;0.000108095;10;149
46;paravance-52.rennes.grid5000.fr;thermos-root-devel-WordCountTopology-2-850d8fba-9c96-4211-af0f-db42d6ee7c0b;["container_2_Emit_random_words_2"];4.25;1533750495.99617;40.79;1060.29;1.991326807;10;149
46;paravance-54.rennes.grid5000.fr;thermos-root-devel-WordCountTopology-0-c0e1af00-2bb3-42cc-a3ee-cacce54e2ebc;["topology_master"];4.25;1533750495.97194;5.61;12.96;0.0;9;117
46;paravance-50.rennes.grid5000.fr;thermos-root-devel-WordCountTopology-1-9e54ec3c-8f56-48d4-a5bf-5e4472dfe336;["container_1_Consume_and_count_1"];4.25;1533750496.0002;47.34;796.43;0.000108095;10;149
47;paravance-52.rennes.grid5000.fr;thermos-root-devel-WordCountTopology-2-850d8fba-9c96-4211-af0f-db42d6ee7c0b;["container_2_Emit_random_words_2"];4.25;1533750506.21326;41.45;1078.68;1.991326807;10;149
47;paravance-50.rennes.grid5000.fr;thermos-root-devel-WordCountTopology-1-9e54ec3c-8f56-48d4-a5bf-5e4472dfe336;["container_1_Consume_and_count_1"];4.25;1533750506.21739;48.13;810.34;0.000108095;10;149
47;paravance-54.rennes.grid5000.fr;thermos-root-devel-WordCountTopology-0-c0e1af00-2bb3-42cc-a3ee-cacce54e2ebc;["topology_master"];4.25;1533750506.19409;5.67;13.05;0.0;9;117
48;paravance-52.rennes.grid5000.fr;thermos-root-devel-WordCountTopology-2-850d8fba-9c96-4211-af0f-db42d6ee7c0b;["container_2_Emit_random_words_2"];4.25;1533750516.42867;42.09;1097.04;1.991326807;10;149
48;paravance-50.rennes.grid5000.fr;thermos-root-devel-WordCountTopology-1-9e54ec3c-8f56-48d4-a5bf-5e4472dfe336;["container_1_Consume_and_count_1"];4.25;1533750516.43387;48.92;824.15;0.000108095;10;149
48;paravance-54.rennes.grid5000.fr;thermos-root-devel-WordCountTopology-0-c0e1af00-2bb3-42cc-a3ee-cacce54e2ebc;["topology_master"];4.25;1533750516.41611;5.74;13.2;0.0;9;117
49;paravance-52.rennes.grid5000.fr;thermos-root-devel-WordCountTopology-2-850d8fba-9c96-4211-af0f-db42d6ee7c0b;["container_2_Emit_random_words_2"];4.25;1533750526.6448;42.76;1115.17;1.991326807;10;149
49;paravance-50.rennes.grid5000.fr;thermos-root-devel-WordCountTopology-1-9e54ec3c-8f56-48d4-a5bf-5e4472dfe336;["container_1_Consume_and_count_1"];4.25;1533750526.64956;49.71;837.66;0.000108095;10;149
49;paravance-54.rennes.grid5000.fr;thermos-root-devel-WordCountTopology-0-c0e1af00-2bb3-42cc-a3ee-cacce54e2ebc;["topology_master"];4.25;1533750526.6367;5.83;13.32;0.0;9;117
50;paravance-52.rennes.grid5000.fr;thermos-root-devel-WordCountTopology-2-850d8fba-9c96-4211-af0f-db42d6ee7c0b;["container_2_Emit_random_words_2"];4.25;1533750536.86026;43.38;1133.36;1.991326807;10;149
50;paravance-54.rennes.grid5000.fr;thermos-root-devel-WordCountTopology-0-c0e1af00-2bb3-42cc-a3ee-cacce54e2ebc;["topology_master"];4.25;1533750536.85663;5.85;13.35;0.0;9;117
50;paravance-50.rennes.grid5000.fr;thermos-root-devel-WordCountTopology-1-9e54ec3c-8f56-48d4-a5bf-5e4472dfe336;["container_1_Consume_and_count_1"];4.25;1533750536.86437;50.46;851.29;0.000108095;10;149
51;paravance-52.rennes.grid5000.fr;thermos-root-devel-WordCountTopology-2-850d8fba-9c96-4211-af0f-db42d6ee7c0b;["container_2_Emit_random_words_2"];4.25;1533750547.07693;44.08;1151.6;1.991326807;10;149
51;paravance-54.rennes.grid5000.fr;thermos-root-devel-WordCountTopology-0-c0e1af00-2bb3-42cc-a3ee-cacce54e2ebc;["topology_master"];4.25;1533750547.07826;5.94;13.48;0.0;9;117
51;paravance-50.rennes.grid5000.fr;thermos-root-devel-WordCountTopology-1-9e54ec3c-8f56-48d4-a5bf-5e4472dfe336;["container_1_Consume_and_count_1"];4.25;1533750547.08067;51.25;864.96;0.000108095;10;149
52;paravance-52.rennes.grid5000.fr;thermos-root-devel-WordCountTopology-2-850d8fba-9c96-4211-af0f-db42d6ee7c0b;["container_2_Emit_random_words_2"];4.25;1533750557.29312;44.74;1169.79;1.991326807;10;149
52;paravance-50.rennes.grid5000.fr;thermos-root-devel-WordCountTopology-1-9e54ec3c-8f56-48d4-a5bf-5e4472dfe336;["container_1_Consume_and_count_1"];4.25;1533750557.29688;52.02;878.62;0.000108095;10;149
52;paravance-54.rennes.grid5000.fr;thermos-root-devel-WordCountTopology-0-c0e1af00-2bb3-42cc-a3ee-cacce54e2ebc;["topology_master"];4.25;1533750557.29826;6.0;13.55;0.0;9;117
53;paravance-52.rennes.grid5000.fr;thermos-root-devel-WordCountTopology-2-850d8fba-9c96-4211-af0f-db42d6ee7c0b;["container_2_Emit_random_words_2"];4.25;1533750567.50951;45.4;1188.07;1.991326807;10;149
53;paravance-54.rennes.grid5000.fr;thermos-root-devel-WordCountTopology-0-c0e1af00-2bb3-42cc-a3ee-cacce54e2ebc;["topology_master"];4.25;1533750567.5139;6.07;13.69;0.0;9;117
53;paravance-50.rennes.grid5000.fr;thermos-root-devel-WordCountTopology-1-9e54ec3c-8f56-48d4-a5bf-5e4472dfe336;["container_1_Consume_and_count_1"];4.25;1533750567.51353;52.79;892.11;0.000108095;10;149
54;paravance-52.rennes.grid5000.fr;thermos-root-devel-WordCountTopology-2-850d8fba-9c96-4211-af0f-db42d6ee7c0b;["container_2_Emit_random_words_2"];4.25;1533750577.72596;46.06;1206.39;1.991326807;10;149
54;paravance-54.rennes.grid5000.fr;thermos-root-devel-WordCountTopology-0-c0e1af00-2bb3-42cc-a3ee-cacce54e2ebc;["topology_master"];4.25;1533750577.73048;6.13;13.77;0.0;9;117
54;paravance-50.rennes.grid5000.fr;thermos-root-devel-WordCountTopology-1-9e54ec3c-8f56-48d4-a5bf-5e4472dfe336;["container_1_Consume_and_count_1"];4.25;1533750577.73081;53.56;905.87;0.000108095;10;149
55;paravance-50.rennes.grid5000.fr;thermos-root-devel-WordCountTopology-1-9e54ec3c-8f56-48d4-a5bf-5e4472dfe336;["container_1_Consume_and_count_1"];4.25;1533750587.84585;54.34;919.75;0.000108095;10;149
55;paravance-54.rennes.grid5000.fr;thermos-root-devel-WordCountTopology-0-c0e1af00-2bb3-42cc-a3ee-cacce54e2ebc;["topology_master"];4.25;1533750587.94573;6.22;13.89;0.0;9;117
55;paravance-52.rennes.grid5000.fr;thermos-root-devel-WordCountTopology-2-850d8fba-9c96-4211-af0f-db42d6ee7c0b;["container_2_Emit_random_words_2"];4.25;1533750587.94248;46.74;1224.96;1.991326807;10;149
56;paravance-52.rennes.grid5000.fr;thermos-root-devel-WordCountTopology-2-850d8fba-9c96-4211-af0f-db42d6ee7c0b;["container_2_Emit_random_words_2"];4.25;1533750598.15759;47.38;1243.74;1.991326807;10;149
56;paravance-54.rennes.grid5000.fr;thermos-root-devel-WordCountTopology-0-c0e1af00-2bb3-42cc-a3ee-cacce54e2ebc;["topology_master"];4.25;1533750598.16093;6.24;13.92;0.0;9;117
56;paravance-50.rennes.grid5000.fr;thermos-root-devel-WordCountTopology-1-9e54ec3c-8f56-48d4-a5bf-5e4472dfe336;["container_1_Consume_and_count_1"];4.25;1533750598.16093;55.11;933.97;0.000108095;10;149
57;paravance-52.rennes.grid5000.fr;thermos-root-devel-WordCountTopology-2-850d8fba-9c96-4211-af0f-db42d6ee7c0b;["container_2_Emit_random_words_2"];4.25;1533750608.37416;48.06;1262.44;1.991326807;10;149
57;paravance-54.rennes.grid5000.fr;thermos-root-devel-WordCountTopology-0-c0e1af00-2bb3-42cc-a3ee-cacce54e2ebc;["topology_master"];4.25;1533750608.37891;6.33;14.04;0.0;9;117
57;paravance-50.rennes.grid5000.fr;thermos-root-devel-WordCountTopology-1-9e54ec3c-8f56-48d4-a5bf-5e4472dfe336;["container_1_Consume_and_count_1"];4.25;1533750608.37843;55.93;948.08;0.000108095;10;149
58;paravance-52.rennes.grid5000.fr;thermos-root-devel-WordCountTopology-2-850d8fba-9c96-4211-af0f-db42d6ee7c0b;["container_2_Emit_random_words_2"];4.25;1533750618.59265;48.72;1281.17;1.991326807;10;149
58;paravance-50.rennes.grid5000.fr;thermos-root-devel-WordCountTopology-1-9e54ec3c-8f56-48d4-a5bf-5e4472dfe336;["container_1_Consume_and_count_1"];4.25;1533750618.59517;56.71;962.19;0.000108095;10;149
58;paravance-54.rennes.grid5000.fr;thermos-root-devel-WordCountTopology-0-c0e1af00-2bb3-42cc-a3ee-cacce54e2ebc;["topology_master"];4.25;1533750618.5955;6.39;14.11;0.0;9;117
59;paravance-52.rennes.grid5000.fr;thermos-root-devel-WordCountTopology-2-850d8fba-9c96-4211-af0f-db42d6ee7c0b;["container_2_Emit_random_words_2"];4.25;1533750628.80801;49.4;1300.04;1.991326807;10;149
59;paravance-50.rennes.grid5000.fr;thermos-root-devel-WordCountTopology-1-9e54ec3c-8f56-48d4-a5bf-5e4472dfe336;["container_1_Consume_and_count_1"];4.25;1533750628.81169;57.52;976.34;0.000108095;10;149
59;paravance-54.rennes.grid5000.fr;thermos-root-devel-WordCountTopology-0-c0e1af00-2bb3-42cc-a3ee-cacce54e2ebc;["topology_master"];4.25;1533750628.81268;6.46;14.23;0.0;9;117
60;paravance-52.rennes.grid5000.fr;thermos-root-devel-WordCountTopology-2-850d8fba-9c96-4211-af0f-db42d6ee7c0b;["container_2_Emit_random_words_2"];4.25;1533750638.92375;50.07;1318.69;1.991326807;10;149
60;paravance-50.rennes.grid5000.fr;thermos-root-devel-WordCountTopology-1-9e54ec3c-8f56-48d4-a5bf-5e4472dfe336;["container_1_Consume_and_count_1"];4.25;1533750639.0272;58.3;990.49;0.000108095;10;149
60;paravance-54.rennes.grid5000.fr;thermos-root-devel-WordCountTopology-0-c0e1af00-2bb3-42cc-a3ee-cacce54e2ebc;["topology_master"];4.25;1533750639.02799;6.52;14.3;0.0;9;117
