{
  "status": "success",
  "executiontime": 0.000186920166015625,
  "message": "",
  "result": {
    "bolts": {
      "Consume_and_count": [
        "container_1_Consume_and_count_1"
      ]
    },
    "instances": {
      "container_2_Emit_random_words_2": {
        "stmgrId": "stmgr-2",
        "logfile": "http://paravance-52.rennes.grid5000.fr:31944/file/log-files/container_2_Emit_random_words_2.log.0",
        "id": "container_2_Emit_random_words_2",
        "name": "Emit_random_words"
      },
      "container_1_Consume_and_count_1": {
        "stmgrId": "stmgr-1",
        "logfile": "http://paravance-53.rennes.grid5000.fr:31234/file/log-files/container_1_Consume_and_count_1.log.0",
        "id": "container_1_Consume_and_count_1",
        "name": "Consume_and_count"
      }
    },
    "instance_groups": {
      "container_1_Consume_and": [
        "container_1_Consume_and_count_1"
      ],
      "container_2_Emit_random": [
        "container_2_Emit_random_words_2"
      ]
    },
    "spouts": {
      "Emit_random_words": [
        "container_2_Emit_random_words_2"
      ]
    },
    "config": {
      "topology.message.timeout.secs": "30",
      "topology.team.environment": "devel",
      "topology.serializer.classname": "org.apache.heron.streamlet.impl.KryoSerializer",
      "topology.team.name": "root",
      "topology.debug": "false",
      "topology.max.spout.pending": "100",
      "topology.container.padding.percentage": "100",
      "topology.enable.message.timeouts": "true",
      "topology.component.parallelism": "1",
      "topology.name": "WordCountTopology",
      "topology.stmgrs": "2",
      "topology.reliability.mode": "ATMOST_ONCE"
    },
    "stmgrs": {
      "stmgr-1": {
        "cwd": "/var/lib/mesos/slaves/2c5e7d8a-baf1-4204-bc56-2857b8cf93bd-S1/frameworks/75deb08a-eb1b-415c-8b2c-e922be5f7d98-0000/executors/thermos-root-devel-WordCountTopology-1-a97e5568-6e7e-427f-8504-84adccc9a541/runs/6c8e6dff-12ee-461d-ad1d-813e39ec9d05/sandbox",
        "host": "paravance-53.rennes.grid5000.fr",
        "joburl": "http://paravance-53.rennes.grid5000.fr:31234/browse/",
        "shell_port": 31234,
        "logfiles": "http://paravance-53.rennes.grid5000.fr:31234/browse/log-files",
        "pid": 2856,
        "id": "stmgr-1",
        "instance_ids": [
          "container_1_Consume_and_count_1"
        ],
        "port": 31630
      },
      "stmgr-2": {
        "cwd": "/var/lib/mesos/slaves/2c5e7d8a-baf1-4204-bc56-2857b8cf93bd-S2/frameworks/75deb08a-eb1b-415c-8b2c-e922be5f7d98-0000/executors/thermos-root-devel-WordCountTopology-2-75497083-7c50-474a-89a8-20cb11f6e10a/runs/216b419b-09fd-48b0-838d-cfcbea586b03/sandbox",
        "host": "paravance-52.rennes.grid5000.fr",
        "joburl": "http://paravance-52.rennes.grid5000.fr:31944/browse/",
        "shell_port": 31944,
        "logfiles": "http://paravance-52.rennes.grid5000.fr:31944/browse/log-files",
        "pid": 2768,
        "id": "stmgr-2",
        "instance_ids": [
          "container_2_Emit_random_words_2"
        ],
        "port": 31287
      }
    }
  },
  "tracker_version": "0.17.8-61-gd7c8c62"
}