{
  "status": "success",
  "executiontime": 0.00018310546875,
  "message": "",
  "result": {
    "bolts": {
      "Consume_and_count": [
        "container_1_Consume_and_count_1"
      ]
    },
    "instances": {
      "container_2_Emit_random_words_2": {
        "stmgrId": "stmgr-2",
        "logfile": "http://paravance-19.rennes.grid5000.fr:31982/file/log-files/container_2_Emit_random_words_2.log.0",
        "id": "container_2_Emit_random_words_2",
        "name": "Emit_random_words"
      },
      "container_1_Consume_and_count_1": {
        "stmgrId": "stmgr-1",
        "logfile": "http://paravance-18.rennes.grid5000.fr:31390/file/log-files/container_1_Consume_and_count_1.log.0",
        "id": "container_1_Consume_and_count_1",
        "name": "Consume_and_count"
      }
    },
    "instance_groups": {
      "container_1_Consume_and": [
        "container_1_Consume_and_count_1"
      ],
      "container_2_Emit_random": [
        "container_2_Emit_random_words_2"
      ]
    },
    "spouts": {
      "Emit_random_words": [
        "container_2_Emit_random_words_2"
      ]
    },
    "config": {
      "topology.message.timeout.secs": "30",
      "topology.team.environment": "devel",
      "topology.serializer.classname": "org.apache.heron.streamlet.impl.KryoSerializer",
      "topology.team.name": "root",
      "topology.debug": "false",
      "topology.max.spout.pending": "100",
      "topology.container.padding.percentage": "300",
      "topology.enable.message.timeouts": "true",
      "topology.component.parallelism": "1",
      "topology.name": "WordCountTopology",
      "topology.stmgrs": "2",
      "topology.reliability.mode": "ATMOST_ONCE"
    },
    "stmgrs": {
      "stmgr-1": {
        "cwd": "/var/lib/mesos/slaves/e1ebead7-0927-4488-a2eb-ed86e7489fbc-S2/frameworks/75deb08a-eb1b-415c-8b2c-e922be5f7d98-0000/executors/thermos-root-devel-WordCountTopology-1-a77ad2b7-b5d9-433b-8f7d-5119cd5ad8d5/runs/587882ef-9958-4c18-8b17-c60716f057e8/sandbox",
        "host": "paravance-18.rennes.grid5000.fr",
        "joburl": "http://paravance-18.rennes.grid5000.fr:31390/browse/",
        "shell_port": 31390,
        "logfiles": "http://paravance-18.rennes.grid5000.fr:31390/browse/log-files",
        "pid": 2100,
        "id": "stmgr-1",
        "instance_ids": [
          "container_1_Consume_and_count_1"
        ],
        "port": 31458
      },
      "stmgr-2": {
        "cwd": "/var/lib/mesos/slaves/e1ebead7-0927-4488-a2eb-ed86e7489fbc-S1/frameworks/75deb08a-eb1b-415c-8b2c-e922be5f7d98-0000/executors/thermos-root-devel-WordCountTopology-2-0c5be520-9774-4c92-8669-df4df592988e/runs/91121007-cd0f-4034-95ee-28aeca9dce46/sandbox",
        "host": "paravance-19.rennes.grid5000.fr",
        "joburl": "http://paravance-19.rennes.grid5000.fr:31982/browse/",
        "shell_port": 31982,
        "logfiles": "http://paravance-19.rennes.grid5000.fr:31982/browse/log-files",
        "pid": 2142,
        "id": "stmgr-2",
        "instance_ids": [
          "container_2_Emit_random_words_2"
        ],
        "port": 31989
      }
    }
  },
  "tracker_version": "0.17.8-61-gd7c8c62"
}