mesure_id;slave_id;executor_id;heron_instances;cpus_limit;timestamp_B;cpus_system_time_secs_B;cpus_user_time_secs_B;cpus_throttled_time_secs_B;processes;threads
0;paravance-6.rennes.grid5000.fr;thermos-root-devel-WordCountTopology-0-bf7432c0-4a99-4aa0-9320-ac6d48fbea49;["topology_master"];4.25;1533748004.89289;2.55;8.31;0.0;9;117
0;paravance-10.rennes.grid5000.fr;thermos-root-devel-WordCountTopology-1-7954e732-cfa5-4240-a650-50495d8b0e6a;["container_1_Consume_and_count_1"];4.25;1533748004.9786;12.83;188.09;0.338610698;10;149
0;paravance-9.rennes.grid5000.fr;thermos-root-devel-WordCountTopology-2-d4abd4b8-844c-410b-89f8-323a52ec4ef7;["container_2_Emit_random_words_2"];4.25;1533748004.90549;10.64;239.01;1.096430429;10;149
1;paravance-10.rennes.grid5000.fr;thermos-root-devel-WordCountTopology-1-7954e732-cfa5-4240-a650-50495d8b0e6a;["container_1_Consume_and_count_1"];4.25;1533748015.08712;13.71;201.82;0.338610698;10;149
1;paravance-9.rennes.grid5000.fr;thermos-root-devel-WordCountTopology-2-d4abd4b8-844c-410b-89f8-323a52ec4ef7;["container_2_Emit_random_words_2"];4.25;1533748015.1246;11.33;257.12;1.096430429;10;149
1;paravance-6.rennes.grid5000.fr;thermos-root-devel-WordCountTopology-0-bf7432c0-4a99-4aa0-9320-ac6d48fbea49;["topology_master"];4.25;1533748015.11289;2.64;8.44;0.0;9;117
2;paravance-10.rennes.grid5000.fr;thermos-root-devel-WordCountTopology-1-7954e732-cfa5-4240-a650-50495d8b0e6a;["container_1_Consume_and_count_1"];4.25;1533748025.39378;14.55;215.31;0.338610698;10;149
2;paravance-6.rennes.grid5000.fr;thermos-root-devel-WordCountTopology-0-bf7432c0-4a99-4aa0-9320-ac6d48fbea49;["topology_master"];4.25;1533748025.33127;2.67;8.48;0.0;9;117
2;paravance-9.rennes.grid5000.fr;thermos-root-devel-WordCountTopology-2-d4abd4b8-844c-410b-89f8-323a52ec4ef7;["container_2_Emit_random_words_2"];4.25;1533748025.34056;11.97;275.34;1.096430429;10;149
3;paravance-9.rennes.grid5000.fr;thermos-root-devel-WordCountTopology-2-d4abd4b8-844c-410b-89f8-323a52ec4ef7;["container_2_Emit_random_words_2"];4.25;1533748035.45541;12.67;293.54;1.096430429;10;149
3;paravance-10.rennes.grid5000.fr;thermos-root-devel-WordCountTopology-1-7954e732-cfa5-4240-a650-50495d8b0e6a;["container_1_Consume_and_count_1"];4.25;1533748035.60511;15.44;229.67;0.338610698;10;149
3;paravance-6.rennes.grid5000.fr;thermos-root-devel-WordCountTopology-0-bf7432c0-4a99-4aa0-9320-ac6d48fbea49;["topology_master"];4.25;1533748035.55205;2.76;8.6;0.0;9;117
4;paravance-10.rennes.grid5000.fr;thermos-root-devel-WordCountTopology-1-7954e732-cfa5-4240-a650-50495d8b0e6a;["container_1_Consume_and_count_1"];4.25;1533748045.81502;16.3;243.44;0.338610698;10;149
4;paravance-6.rennes.grid5000.fr;thermos-root-devel-WordCountTopology-0-bf7432c0-4a99-4aa0-9320-ac6d48fbea49;["topology_master"];4.25;1533748045.7682;2.82;8.68;0.0;9;117
4;paravance-9.rennes.grid5000.fr;thermos-root-devel-WordCountTopology-2-d4abd4b8-844c-410b-89f8-323a52ec4ef7;["container_2_Emit_random_words_2"];4.25;1533748045.77184;13.35;312.05;1.096430429;10;149
5;paravance-10.rennes.grid5000.fr;thermos-root-devel-WordCountTopology-1-7954e732-cfa5-4240-a650-50495d8b0e6a;["container_1_Consume_and_count_1"];4.25;1533748056.02467;17.21;257.48;0.338610698;10;149
5;paravance-9.rennes.grid5000.fr;thermos-root-devel-WordCountTopology-2-d4abd4b8-844c-410b-89f8-323a52ec4ef7;["container_2_Emit_random_words_2"];4.25;1533748055.98616;14.05;330.34;1.096430429;10;149
5;paravance-6.rennes.grid5000.fr;thermos-root-devel-WordCountTopology-0-bf7432c0-4a99-4aa0-9320-ac6d48fbea49;["topology_master"];4.25;1533748055.98367;2.9;8.8;0.0;9;117
6;paravance-10.rennes.grid5000.fr;thermos-root-devel-WordCountTopology-1-7954e732-cfa5-4240-a650-50495d8b0e6a;["container_1_Consume_and_count_1"];4.25;1533748066.23488;18.06;271.67;0.338610698;10;149
6;paravance-9.rennes.grid5000.fr;thermos-root-devel-WordCountTopology-2-d4abd4b8-844c-410b-89f8-323a52ec4ef7;["container_2_Emit_random_words_2"];4.25;1533748066.20151;14.73;348.75;1.096430429;10;149
6;paravance-6.rennes.grid5000.fr;thermos-root-devel-WordCountTopology-0-bf7432c0-4a99-4aa0-9320-ac6d48fbea49;["topology_master"];4.25;1533748066.19859;2.97;8.93;0.0;9;117
7;paravance-10.rennes.grid5000.fr;thermos-root-devel-WordCountTopology-1-7954e732-cfa5-4240-a650-50495d8b0e6a;["container_1_Consume_and_count_1"];4.25;1533748076.44496;18.92;285.13;0.338610698;10;149
7;paravance-9.rennes.grid5000.fr;thermos-root-devel-WordCountTopology-2-d4abd4b8-844c-410b-89f8-323a52ec4ef7;["container_2_Emit_random_words_2"];4.25;1533748076.41651;15.43;366.96;1.096430429;10;149
7;paravance-6.rennes.grid5000.fr;thermos-root-devel-WordCountTopology-0-bf7432c0-4a99-4aa0-9320-ac6d48fbea49;["topology_master"];4.25;1533748076.41425;3.06;9.06;0.0;9;117
8;paravance-6.rennes.grid5000.fr;thermos-root-devel-WordCountTopology-0-bf7432c0-4a99-4aa0-9320-ac6d48fbea49;["topology_master"];4.25;1533748086.5311;3.08;9.08;0.0;9;117
8;paravance-9.rennes.grid5000.fr;thermos-root-devel-WordCountTopology-2-d4abd4b8-844c-410b-89f8-323a52ec4ef7;["container_2_Emit_random_words_2"];4.25;1533748086.63357;16.04;384.84;1.096430429;10;149
8;paravance-10.rennes.grid5000.fr;thermos-root-devel-WordCountTopology-1-7954e732-cfa5-4240-a650-50495d8b0e6a;["container_1_Consume_and_count_1"];4.25;1533748086.65912;19.72;298.65;0.338610698;10;149
9;paravance-10.rennes.grid5000.fr;thermos-root-devel-WordCountTopology-1-7954e732-cfa5-4240-a650-50495d8b0e6a;["container_1_Consume_and_count_1"];4.25;1533748096.86774;20.54;311.91;0.338610698;10;149
9;paravance-9.rennes.grid5000.fr;thermos-root-devel-WordCountTopology-2-d4abd4b8-844c-410b-89f8-323a52ec4ef7;["container_2_Emit_random_words_2"];4.25;1533748096.84994;16.72;403.04;1.096430429;10;149
9;paravance-6.rennes.grid5000.fr;thermos-root-devel-WordCountTopology-0-bf7432c0-4a99-4aa0-9320-ac6d48fbea49;["topology_master"];4.25;1533748096.84727;3.17;9.2;0.0;9;117
10;paravance-9.rennes.grid5000.fr;thermos-root-devel-WordCountTopology-2-d4abd4b8-844c-410b-89f8-323a52ec4ef7;["container_2_Emit_random_words_2"];4.25;1533748107.06357;17.37;421.16;1.096430429;10;149
10;paravance-6.rennes.grid5000.fr;thermos-root-devel-WordCountTopology-0-bf7432c0-4a99-4aa0-9320-ac6d48fbea49;["topology_master"];4.25;1533748107.06198;3.23;9.28;0.0;9;117
10;paravance-10.rennes.grid5000.fr;thermos-root-devel-WordCountTopology-1-7954e732-cfa5-4240-a650-50495d8b0e6a;["container_1_Consume_and_count_1"];4.25;1533748107.07976;21.39;325.74;0.338610698;10;149
11;paravance-10.rennes.grid5000.fr;thermos-root-devel-WordCountTopology-1-7954e732-cfa5-4240-a650-50495d8b0e6a;["container_1_Consume_and_count_1"];4.25;1533748117.28811;22.3;339.54;0.338610698;10;149
11;paravance-6.rennes.grid5000.fr;thermos-root-devel-WordCountTopology-0-bf7432c0-4a99-4aa0-9320-ac6d48fbea49;["topology_master"];4.25;1533748117.2762;3.31;9.38;0.0;9;117
11;paravance-9.rennes.grid5000.fr;thermos-root-devel-WordCountTopology-2-d4abd4b8-844c-410b-89f8-323a52ec4ef7;["container_2_Emit_random_words_2"];4.25;1533748117.27985;18.08;439.6;1.096430429;10;149
12;paravance-9.rennes.grid5000.fr;thermos-root-devel-WordCountTopology-2-d4abd4b8-844c-410b-89f8-323a52ec4ef7;["container_2_Emit_random_words_2"];4.25;1533748127.49439;18.7;457.8;1.096430429;10;149
12;paravance-6.rennes.grid5000.fr;thermos-root-devel-WordCountTopology-0-bf7432c0-4a99-4aa0-9320-ac6d48fbea49;["topology_master"];4.25;1533748127.4918;3.38;9.55;0.0;9;117
12;paravance-10.rennes.grid5000.fr;thermos-root-devel-WordCountTopology-1-7954e732-cfa5-4240-a650-50495d8b0e6a;["container_1_Consume_and_count_1"];4.25;1533748127.49965;23.13;353.2;0.338610698;10;149
13;paravance-10.rennes.grid5000.fr;thermos-root-devel-WordCountTopology-1-7954e732-cfa5-4240-a650-50495d8b0e6a;["container_1_Consume_and_count_1"];4.25;1533748137.70885;24.02;367.16;0.338610698;10;149
13;paravance-9.rennes.grid5000.fr;thermos-root-devel-WordCountTopology-2-d4abd4b8-844c-410b-89f8-323a52ec4ef7;["container_2_Emit_random_words_2"];4.25;1533748137.71042;19.4;476.06;1.096430429;10;149
13;paravance-6.rennes.grid5000.fr;thermos-root-devel-WordCountTopology-0-bf7432c0-4a99-4aa0-9320-ac6d48fbea49;["topology_master"];4.25;1533748137.70903;3.47;9.66;0.0;9;117
14;paravance-10.rennes.grid5000.fr;thermos-root-devel-WordCountTopology-1-7954e732-cfa5-4240-a650-50495d8b0e6a;["container_1_Consume_and_count_1"];4.25;1533748147.91896;24.84;380.33;0.338610698;10;149
14;paravance-9.rennes.grid5000.fr;thermos-root-devel-WordCountTopology-2-d4abd4b8-844c-410b-89f8-323a52ec4ef7;["container_2_Emit_random_words_2"];4.25;1533748147.92557;20.01;494.33;1.096430429;10;149
14;paravance-6.rennes.grid5000.fr;thermos-root-devel-WordCountTopology-0-bf7432c0-4a99-4aa0-9320-ac6d48fbea49;["topology_master"];4.25;1533748147.92394;3.5;9.7;0.0;9;117
15;paravance-6.rennes.grid5000.fr;thermos-root-devel-WordCountTopology-0-bf7432c0-4a99-4aa0-9320-ac6d48fbea49;["topology_master"];4.25;1533748158.13808;3.59;9.83;0.0;9;117
15;paravance-10.rennes.grid5000.fr;thermos-root-devel-WordCountTopology-1-7954e732-cfa5-4240-a650-50495d8b0e6a;["container_1_Consume_and_count_1"];4.25;1533748158.13077;25.61;394.94;0.338610698;10;149
15;paravance-9.rennes.grid5000.fr;thermos-root-devel-WordCountTopology-2-d4abd4b8-844c-410b-89f8-323a52ec4ef7;["container_2_Emit_random_words_2"];4.25;1533748158.14227;20.65;512.62;1.096430429;10;149
16;paravance-10.rennes.grid5000.fr;thermos-root-devel-WordCountTopology-1-7954e732-cfa5-4240-a650-50495d8b0e6a;["container_1_Consume_and_count_1"];4.25;1533748168.33874;26.44;407.88;0.338610698;10;149
16;paravance-9.rennes.grid5000.fr;thermos-root-devel-WordCountTopology-2-d4abd4b8-844c-410b-89f8-323a52ec4ef7;["container_2_Emit_random_words_2"];4.25;1533748168.3565;21.3;530.94;1.096430429;10;149
16;paravance-6.rennes.grid5000.fr;thermos-root-devel-WordCountTopology-0-bf7432c0-4a99-4aa0-9320-ac6d48fbea49;["topology_master"];4.25;1533748168.35507;3.65;9.9;0.0;9;117
17;paravance-10.rennes.grid5000.fr;thermos-root-devel-WordCountTopology-1-7954e732-cfa5-4240-a650-50495d8b0e6a;["container_1_Consume_and_count_1"];4.25;1533748178.54971;27.33;422.21;0.338610698;10;149
17;paravance-6.rennes.grid5000.fr;thermos-root-devel-WordCountTopology-0-bf7432c0-4a99-4aa0-9320-ac6d48fbea49;["topology_master"];4.25;1533748178.56972;3.74;10.1;0.0;9;117
17;paravance-9.rennes.grid5000.fr;thermos-root-devel-WordCountTopology-2-d4abd4b8-844c-410b-89f8-323a52ec4ef7;["container_2_Emit_random_words_2"];4.25;1533748178.57315;22.01;549.3;1.096430429;10;149
18;paravance-10.rennes.grid5000.fr;thermos-root-devel-WordCountTopology-1-7954e732-cfa5-4240-a650-50495d8b0e6a;["container_1_Consume_and_count_1"];4.25;1533748188.76059;28.09;435.36;0.338610698;10;149
18;paravance-9.rennes.grid5000.fr;thermos-root-devel-WordCountTopology-2-d4abd4b8-844c-410b-89f8-323a52ec4ef7;["container_2_Emit_random_words_2"];4.25;1533748188.78779;22.63;567.42;1.096430429;10;149
18;paravance-6.rennes.grid5000.fr;thermos-root-devel-WordCountTopology-0-bf7432c0-4a99-4aa0-9320-ac6d48fbea49;["topology_master"];4.25;1533748188.78568;3.79;10.18;0.0;9;117
19;paravance-9.rennes.grid5000.fr;thermos-root-devel-WordCountTopology-2-d4abd4b8-844c-410b-89f8-323a52ec4ef7;["container_2_Emit_random_words_2"];4.25;1533748199.00333;23.31;585.65;1.096430429;10;149
19;paravance-10.rennes.grid5000.fr;thermos-root-devel-WordCountTopology-1-7954e732-cfa5-4240-a650-50495d8b0e6a;["container_1_Consume_and_count_1"];4.25;1533748198.97291;28.92;449.08;0.338610698;10;149
19;paravance-6.rennes.grid5000.fr;thermos-root-devel-WordCountTopology-0-bf7432c0-4a99-4aa0-9320-ac6d48fbea49;["topology_master"];4.25;1533748199.00147;3.88;10.3;0.0;9;117
20;paravance-10.rennes.grid5000.fr;thermos-root-devel-WordCountTopology-1-7954e732-cfa5-4240-a650-50495d8b0e6a;["container_1_Consume_and_count_1"];4.25;1533748209.18202;29.78;462.79;0.338610698;10;149
20;paravance-6.rennes.grid5000.fr;thermos-root-devel-WordCountTopology-0-bf7432c0-4a99-4aa0-9320-ac6d48fbea49;["topology_master"];4.25;1533748209.21855;3.94;10.37;0.0;9;117
20;paravance-9.rennes.grid5000.fr;thermos-root-devel-WordCountTopology-2-d4abd4b8-844c-410b-89f8-323a52ec4ef7;["container_2_Emit_random_words_2"];4.25;1533748209.2212;23.97;603.96;1.096430429;10;149
21;paravance-10.rennes.grid5000.fr;thermos-root-devel-WordCountTopology-1-7954e732-cfa5-4240-a650-50495d8b0e6a;["container_1_Consume_and_count_1"];4.25;1533748219.39437;30.59;476.1;0.338610698;10;149
21;paravance-9.rennes.grid5000.fr;thermos-root-devel-WordCountTopology-2-d4abd4b8-844c-410b-89f8-323a52ec4ef7;["container_2_Emit_random_words_2"];4.25;1533748219.437;24.62;622.09;1.096430429;10;149
21;paravance-6.rennes.grid5000.fr;thermos-root-devel-WordCountTopology-0-bf7432c0-4a99-4aa0-9320-ac6d48fbea49;["topology_master"];4.25;1533748219.43406;4.0;10.45;0.0;9;117
22;paravance-10.rennes.grid5000.fr;thermos-root-devel-WordCountTopology-1-7954e732-cfa5-4240-a650-50495d8b0e6a;["container_1_Consume_and_count_1"];4.25;1533748229.60472;31.42;490.31;0.338610698;10;149
22;paravance-9.rennes.grid5000.fr;thermos-root-devel-WordCountTopology-2-d4abd4b8-844c-410b-89f8-323a52ec4ef7;["container_2_Emit_random_words_2"];4.25;1533748229.65223;25.28;640.34;1.096430429;10;149
22;paravance-6.rennes.grid5000.fr;thermos-root-devel-WordCountTopology-0-bf7432c0-4a99-4aa0-9320-ac6d48fbea49;["topology_master"];4.25;1533748229.65022;4.05;10.52;0.0;9;117
23;paravance-10.rennes.grid5000.fr;thermos-root-devel-WordCountTopology-1-7954e732-cfa5-4240-a650-50495d8b0e6a;["container_1_Consume_and_count_1"];4.25;1533748239.81458;32.31;503.94;0.338610698;10;149
23;paravance-9.rennes.grid5000.fr;thermos-root-devel-WordCountTopology-2-d4abd4b8-844c-410b-89f8-323a52ec4ef7;["container_2_Emit_random_words_2"];4.25;1533748239.8679;25.99;658.71;1.096430429;10;149
23;paravance-6.rennes.grid5000.fr;thermos-root-devel-WordCountTopology-0-bf7432c0-4a99-4aa0-9320-ac6d48fbea49;["topology_master"];4.25;1533748239.86645;4.16;10.7;0.0;9;117
24;paravance-10.rennes.grid5000.fr;thermos-root-devel-WordCountTopology-1-7954e732-cfa5-4240-a650-50495d8b0e6a;["container_1_Consume_and_count_1"];4.25;1533748250.0256;33.12;518.02;0.338610698;10;149
24;paravance-9.rennes.grid5000.fr;thermos-root-devel-WordCountTopology-2-d4abd4b8-844c-410b-89f8-323a52ec4ef7;["container_2_Emit_random_words_2"];4.25;1533748250.08441;26.61;676.86;1.096430429;10;149
24;paravance-6.rennes.grid5000.fr;thermos-root-devel-WordCountTopology-0-bf7432c0-4a99-4aa0-9320-ac6d48fbea49;["topology_master"];4.25;1533748250.08154;4.18;10.72;0.0;9;117
25;paravance-10.rennes.grid5000.fr;thermos-root-devel-WordCountTopology-1-7954e732-cfa5-4240-a650-50495d8b0e6a;["container_1_Consume_and_count_1"];4.25;1533748260.23352;34.01;531.89;0.338610698;10;149
25;paravance-9.rennes.grid5000.fr;thermos-root-devel-WordCountTopology-2-d4abd4b8-844c-410b-89f8-323a52ec4ef7;["container_2_Emit_random_words_2"];4.25;1533748260.29812;27.28;695.24;1.096430429;10;149
25;paravance-6.rennes.grid5000.fr;thermos-root-devel-WordCountTopology-0-bf7432c0-4a99-4aa0-9320-ac6d48fbea49;["topology_master"];4.25;1533748260.29486;4.28;10.84;0.0;9;117
26;paravance-9.rennes.grid5000.fr;thermos-root-devel-WordCountTopology-2-d4abd4b8-844c-410b-89f8-323a52ec4ef7;["container_2_Emit_random_words_2"];4.25;1533748270.51044;27.91;713.74;1.096430429;10;149
26;paravance-10.rennes.grid5000.fr;thermos-root-devel-WordCountTopology-1-7954e732-cfa5-4240-a650-50495d8b0e6a;["container_1_Consume_and_count_1"];4.25;1533748270.44463;34.84;545.53;0.338610698;10;149
26;paravance-6.rennes.grid5000.fr;thermos-root-devel-WordCountTopology-0-bf7432c0-4a99-4aa0-9320-ac6d48fbea49;["topology_master"];4.25;1533748270.50953;4.33;10.92;0.0;9;117
27;paravance-10.rennes.grid5000.fr;thermos-root-devel-WordCountTopology-1-7954e732-cfa5-4240-a650-50495d8b0e6a;["container_1_Consume_and_count_1"];4.25;1533748280.65353;35.61;560.62;0.338610698;10;149
27;paravance-9.rennes.grid5000.fr;thermos-root-devel-WordCountTopology-2-d4abd4b8-844c-410b-89f8-323a52ec4ef7;["container_2_Emit_random_words_2"];4.25;1533748280.7262;28.57;731.92;1.096430429;10;149
27;paravance-6.rennes.grid5000.fr;thermos-root-devel-WordCountTopology-0-bf7432c0-4a99-4aa0-9320-ac6d48fbea49;["topology_master"];4.25;1533748280.72409;4.4;11.0;0.0;9;117
28;paravance-9.rennes.grid5000.fr;thermos-root-devel-WordCountTopology-2-d4abd4b8-844c-410b-89f8-323a52ec4ef7;["container_2_Emit_random_words_2"];4.25;1533748290.9405;29.21;750.13;1.096430429;10;149
28;paravance-10.rennes.grid5000.fr;thermos-root-devel-WordCountTopology-1-7954e732-cfa5-4240-a650-50495d8b0e6a;["container_1_Consume_and_count_1"];4.25;1533748290.86308;36.34;574.85;0.338610698;10;149
28;paravance-6.rennes.grid5000.fr;thermos-root-devel-WordCountTopology-0-bf7432c0-4a99-4aa0-9320-ac6d48fbea49;["topology_master"];4.25;1533748290.93858;4.45;11.07;0.0;9;117
29;paravance-6.rennes.grid5000.fr;thermos-root-devel-WordCountTopology-0-bf7432c0-4a99-4aa0-9320-ac6d48fbea49;["topology_master"];4.25;1533748301.05172;4.56;11.26;0.0;9;117
29;paravance-10.rennes.grid5000.fr;thermos-root-devel-WordCountTopology-1-7954e732-cfa5-4240-a650-50495d8b0e6a;["container_1_Consume_and_count_1"];4.25;1533748301.07149;37.17;589.26;0.338610698;10;149
29;paravance-9.rennes.grid5000.fr;thermos-root-devel-WordCountTopology-2-d4abd4b8-844c-410b-89f8-323a52ec4ef7;["container_2_Emit_random_words_2"];4.25;1533748301.1548;29.92;768.4;1.096430429;10;149
30;paravance-9.rennes.grid5000.fr;thermos-root-devel-WordCountTopology-2-d4abd4b8-844c-410b-89f8-323a52ec4ef7;["container_2_Emit_random_words_2"];4.25;1533748311.36724;30.57;786.55;1.096430429;10;149
30;paravance-10.rennes.grid5000.fr;thermos-root-devel-WordCountTopology-1-7954e732-cfa5-4240-a650-50495d8b0e6a;["container_1_Consume_and_count_1"];4.25;1533748311.27953;37.94;603.08;0.338610698;10;147
30;paravance-6.rennes.grid5000.fr;thermos-root-devel-WordCountTopology-0-bf7432c0-4a99-4aa0-9320-ac6d48fbea49;["topology_master"];4.25;1533748311.3666;4.63;11.34;0.0;9;117
31;paravance-10.rennes.grid5000.fr;thermos-root-devel-WordCountTopology-1-7954e732-cfa5-4240-a650-50495d8b0e6a;["container_1_Consume_and_count_1"];4.25;1533748321.48908;38.82;617.36;0.338610698;10;149
31;paravance-9.rennes.grid5000.fr;thermos-root-devel-WordCountTopology-2-d4abd4b8-844c-410b-89f8-323a52ec4ef7;["container_2_Emit_random_words_2"];4.25;1533748321.5836;31.22;804.82;1.096430429;10;149
31;paravance-6.rennes.grid5000.fr;thermos-root-devel-WordCountTopology-0-bf7432c0-4a99-4aa0-9320-ac6d48fbea49;["topology_master"];4.25;1533748321.5817;4.68;11.41;0.0;9;117
32;paravance-9.rennes.grid5000.fr;thermos-root-devel-WordCountTopology-2-d4abd4b8-844c-410b-89f8-323a52ec4ef7;["container_2_Emit_random_words_2"];4.25;1533748331.79927;31.91;823.12;1.096430429;10;149
32;paravance-10.rennes.grid5000.fr;thermos-root-devel-WordCountTopology-1-7954e732-cfa5-4240-a650-50495d8b0e6a;["container_1_Consume_and_count_1"];4.25;1533748331.7022;39.69;631.43;0.338610698;10;149
32;paravance-6.rennes.grid5000.fr;thermos-root-devel-WordCountTopology-0-bf7432c0-4a99-4aa0-9320-ac6d48fbea49;["topology_master"];4.25;1533748331.7986;4.77;11.53;0.0;9;117
33;paravance-10.rennes.grid5000.fr;thermos-root-devel-WordCountTopology-1-7954e732-cfa5-4240-a650-50495d8b0e6a;["container_1_Consume_and_count_1"];4.25;1533748341.91181;40.5;645.04;0.338610698;10;149
33;paravance-9.rennes.grid5000.fr;thermos-root-devel-WordCountTopology-2-d4abd4b8-844c-410b-89f8-323a52ec4ef7;["container_2_Emit_random_words_2"];4.25;1533748342.01575;32.53;841.27;1.096430429;10;149
33;paravance-6.rennes.grid5000.fr;thermos-root-devel-WordCountTopology-0-bf7432c0-4a99-4aa0-9320-ac6d48fbea49;["topology_master"];4.25;1533748342.01386;4.8;11.56;0.0;9;117
34;paravance-9.rennes.grid5000.fr;thermos-root-devel-WordCountTopology-2-d4abd4b8-844c-410b-89f8-323a52ec4ef7;["container_2_Emit_random_words_2"];4.25;1533748352.23054;33.23;859.62;1.096430429;10;149
34;paravance-10.rennes.grid5000.fr;thermos-root-devel-WordCountTopology-1-7954e732-cfa5-4240-a650-50495d8b0e6a;["container_1_Consume_and_count_1"];4.25;1533748352.12311;41.38;659.51;0.338610698;10;149
34;paravance-6.rennes.grid5000.fr;thermos-root-devel-WordCountTopology-0-bf7432c0-4a99-4aa0-9320-ac6d48fbea49;["topology_master"];4.25;1533748352.22859;4.9;11.69;0.0;9;117
35;paravance-10.rennes.grid5000.fr;thermos-root-devel-WordCountTopology-1-7954e732-cfa5-4240-a650-50495d8b0e6a;["container_1_Consume_and_count_1"];4.25;1533748362.33229;42.23;672.95;0.338610698;10;149
35;paravance-9.rennes.grid5000.fr;thermos-root-devel-WordCountTopology-2-d4abd4b8-844c-410b-89f8-323a52ec4ef7;["container_2_Emit_random_words_2"];4.25;1533748362.44619;33.9;877.87;1.096430429;10;149
35;paravance-6.rennes.grid5000.fr;thermos-root-devel-WordCountTopology-0-bf7432c0-4a99-4aa0-9320-ac6d48fbea49;["topology_master"];4.25;1533748362.44396;4.97;11.86;0.0;9;117
36;paravance-9.rennes.grid5000.fr;thermos-root-devel-WordCountTopology-2-d4abd4b8-844c-410b-89f8-323a52ec4ef7;["container_2_Emit_random_words_2"];4.25;1533748372.66077;34.55;896.12;1.096430429;10;149
36;paravance-10.rennes.grid5000.fr;thermos-root-devel-WordCountTopology-1-7954e732-cfa5-4240-a650-50495d8b0e6a;["container_1_Consume_and_count_1"];4.25;1533748372.54279;43.06;687.34;0.338610698;10;149
36;paravance-6.rennes.grid5000.fr;thermos-root-devel-WordCountTopology-0-bf7432c0-4a99-4aa0-9320-ac6d48fbea49;["topology_master"];4.25;1533748372.65949;5.03;11.94;0.0;9;117
37;paravance-10.rennes.grid5000.fr;thermos-root-devel-WordCountTopology-1-7954e732-cfa5-4240-a650-50495d8b0e6a;["container_1_Consume_and_count_1"];4.25;1533748382.75237;43.94;700.76;0.338610698;10;149
37;paravance-9.rennes.grid5000.fr;thermos-root-devel-WordCountTopology-2-d4abd4b8-844c-410b-89f8-323a52ec4ef7;["container_2_Emit_random_words_2"];4.25;1533748382.87528;35.18;914.29;1.096430429;10;149
37;paravance-6.rennes.grid5000.fr;thermos-root-devel-WordCountTopology-0-bf7432c0-4a99-4aa0-9320-ac6d48fbea49;["topology_master"];4.25;1533748382.87376;5.09;12.01;0.0;9;117
38;paravance-6.rennes.grid5000.fr;thermos-root-devel-WordCountTopology-0-bf7432c0-4a99-4aa0-9320-ac6d48fbea49;["topology_master"];4.25;1533748393.08823;5.17;12.13;0.0;9;117
38;paravance-10.rennes.grid5000.fr;thermos-root-devel-WordCountTopology-1-7954e732-cfa5-4240-a650-50495d8b0e6a;["container_1_Consume_and_count_1"];4.25;1533748392.96924;44.81;714.15;0.338610698;10;149
38;paravance-9.rennes.grid5000.fr;thermos-root-devel-WordCountTopology-2-d4abd4b8-844c-410b-89f8-323a52ec4ef7;["container_2_Emit_random_words_2"];4.25;1533748393.09183;35.87;932.6;1.096430429;10;149
39;paravance-10.rennes.grid5000.fr;thermos-root-devel-WordCountTopology-1-7954e732-cfa5-4240-a650-50495d8b0e6a;["container_1_Consume_and_count_1"];4.25;1533748403.1836;45.66;727.37;0.338610698;10;149
39;paravance-9.rennes.grid5000.fr;thermos-root-devel-WordCountTopology-2-d4abd4b8-844c-410b-89f8-323a52ec4ef7;["container_2_Emit_random_words_2"];4.25;1533748403.30773;36.49;950.81;1.096430429;10;149
39;paravance-6.rennes.grid5000.fr;thermos-root-devel-WordCountTopology-0-bf7432c0-4a99-4aa0-9320-ac6d48fbea49;["topology_master"];4.25;1533748403.30425;5.2;12.15;0.0;9;117
40;paravance-10.rennes.grid5000.fr;thermos-root-devel-WordCountTopology-1-7954e732-cfa5-4240-a650-50495d8b0e6a;["container_1_Consume_and_count_1"];4.25;1533748413.40718;46.48;740.55;0.338610698;10;149
40;paravance-9.rennes.grid5000.fr;thermos-root-devel-WordCountTopology-2-d4abd4b8-844c-410b-89f8-323a52ec4ef7;["container_2_Emit_random_words_2"];4.25;1533748413.53122;37.17;969.08;1.096430429;10;149
40;paravance-6.rennes.grid5000.fr;thermos-root-devel-WordCountTopology-0-bf7432c0-4a99-4aa0-9320-ac6d48fbea49;["topology_master"];4.25;1533748413.53417;5.3;12.28;0.0;9;117
41;paravance-10.rennes.grid5000.fr;thermos-root-devel-WordCountTopology-1-7954e732-cfa5-4240-a650-50495d8b0e6a;["container_1_Consume_and_count_1"];4.25;1533748423.62866;47.31;754.0;0.338610698;10;149
41;paravance-9.rennes.grid5000.fr;thermos-root-devel-WordCountTopology-2-d4abd4b8-844c-410b-89f8-323a52ec4ef7;["container_2_Emit_random_words_2"];4.25;1533748423.75178;37.82;987.38;1.096430429;10;149
41;paravance-6.rennes.grid5000.fr;thermos-root-devel-WordCountTopology-0-bf7432c0-4a99-4aa0-9320-ac6d48fbea49;["topology_master"];4.25;1533748423.74955;5.36;12.39;0.0;9;117
42;paravance-10.rennes.grid5000.fr;thermos-root-devel-WordCountTopology-1-7954e732-cfa5-4240-a650-50495d8b0e6a;["container_1_Consume_and_count_1"];4.25;1533748433.84446;48.19;767.23;0.338610698;10;149
42;paravance-9.rennes.grid5000.fr;thermos-root-devel-WordCountTopology-2-d4abd4b8-844c-410b-89f8-323a52ec4ef7;["container_2_Emit_random_words_2"];4.25;1533748433.96826;38.5;1005.57;1.096430429;10;149
42;paravance-6.rennes.grid5000.fr;thermos-root-devel-WordCountTopology-0-bf7432c0-4a99-4aa0-9320-ac6d48fbea49;["topology_master"];4.25;1533748433.96417;5.42;12.47;0.0;9;117
43;paravance-10.rennes.grid5000.fr;thermos-root-devel-WordCountTopology-1-7954e732-cfa5-4240-a650-50495d8b0e6a;["container_1_Consume_and_count_1"];4.25;1533748444.05871;49.01;780.51;0.338610698;10;149
43;paravance-6.rennes.grid5000.fr;thermos-root-devel-WordCountTopology-0-bf7432c0-4a99-4aa0-9320-ac6d48fbea49;["topology_master"];4.25;1533748444.18053;5.48;12.53;0.0;9;117
43;paravance-9.rennes.grid5000.fr;thermos-root-devel-WordCountTopology-2-d4abd4b8-844c-410b-89f8-323a52ec4ef7;["container_2_Emit_random_words_2"];4.25;1533748444.18371;39.14;1023.81;1.096430429;10;149
44;paravance-10.rennes.grid5000.fr;thermos-root-devel-WordCountTopology-1-7954e732-cfa5-4240-a650-50495d8b0e6a;["container_1_Consume_and_count_1"];4.25;1533748454.27357;49.86;793.92;0.338610698;10;149
44;paravance-9.rennes.grid5000.fr;thermos-root-devel-WordCountTopology-2-d4abd4b8-844c-410b-89f8-323a52ec4ef7;["container_2_Emit_random_words_2"];4.25;1533748454.39824;39.82;1042.08;1.096430429;10;149
44;paravance-6.rennes.grid5000.fr;thermos-root-devel-WordCountTopology-0-bf7432c0-4a99-4aa0-9320-ac6d48fbea49;["topology_master"];4.25;1533748454.39558;5.57;12.66;0.0;9;117
45;paravance-10.rennes.grid5000.fr;thermos-root-devel-WordCountTopology-1-7954e732-cfa5-4240-a650-50495d8b0e6a;["container_1_Consume_and_count_1"];4.25;1533748464.48914;50.68;806.77;0.338610698;10;149
45;paravance-9.rennes.grid5000.fr;thermos-root-devel-WordCountTopology-2-d4abd4b8-844c-410b-89f8-323a52ec4ef7;["container_2_Emit_random_words_2"];4.25;1533748464.61264;40.46;1060.2;1.096430429;10;149
45;paravance-6.rennes.grid5000.fr;thermos-root-devel-WordCountTopology-0-bf7432c0-4a99-4aa0-9320-ac6d48fbea49;["topology_master"];4.25;1533748464.61173;5.59;12.68;0.0;9;117
46;paravance-6.rennes.grid5000.fr;thermos-root-devel-WordCountTopology-0-bf7432c0-4a99-4aa0-9320-ac6d48fbea49;["topology_master"];4.25;1533748474.82642;5.69;12.81;0.0;9;117
46;paravance-9.rennes.grid5000.fr;thermos-root-devel-WordCountTopology-2-d4abd4b8-844c-410b-89f8-323a52ec4ef7;["container_2_Emit_random_words_2"];4.25;1533748474.82827;41.12;1078.48;1.096430429;10;149
46;paravance-10.rennes.grid5000.fr;thermos-root-devel-WordCountTopology-1-7954e732-cfa5-4240-a650-50495d8b0e6a;["container_1_Consume_and_count_1"];4.25;1533748474.70674;51.52;819.89;0.338610698;10;149
47;paravance-10.rennes.grid5000.fr;thermos-root-devel-WordCountTopology-1-7954e732-cfa5-4240-a650-50495d8b0e6a;["container_1_Consume_and_count_1"];4.25;1533748484.92174;52.37;833.05;0.338610698;10;149
47;paravance-9.rennes.grid5000.fr;thermos-root-devel-WordCountTopology-2-d4abd4b8-844c-410b-89f8-323a52ec4ef7;["container_2_Emit_random_words_2"];4.25;1533748485.0456;41.77;1096.77;1.096430429;10;149
47;paravance-6.rennes.grid5000.fr;thermos-root-devel-WordCountTopology-0-bf7432c0-4a99-4aa0-9320-ac6d48fbea49;["topology_master"];4.25;1533748485.04373;5.76;12.95;0.0;9;117
48;paravance-10.rennes.grid5000.fr;thermos-root-devel-WordCountTopology-1-7954e732-cfa5-4240-a650-50495d8b0e6a;["container_1_Consume_and_count_1"];4.25;1533748495.03639;53.22;846.04;0.338610698;10;149
48;paravance-9.rennes.grid5000.fr;thermos-root-devel-WordCountTopology-2-d4abd4b8-844c-410b-89f8-323a52ec4ef7;["container_2_Emit_random_words_2"];4.25;1533748495.26082;42.44;1114.97;1.096430429;10;149
48;paravance-6.rennes.grid5000.fr;thermos-root-devel-WordCountTopology-0-bf7432c0-4a99-4aa0-9320-ac6d48fbea49;["topology_master"];4.25;1533748495.25858;5.82;13.03;0.0;9;117
49;paravance-10.rennes.grid5000.fr;thermos-root-devel-WordCountTopology-1-7954e732-cfa5-4240-a650-50495d8b0e6a;["container_1_Consume_and_count_1"];4.25;1533748505.35113;54.02;859.51;0.338610698;10;149
49;paravance-9.rennes.grid5000.fr;thermos-root-devel-WordCountTopology-2-d4abd4b8-844c-410b-89f8-323a52ec4ef7;["container_2_Emit_random_words_2"];4.25;1533748505.47584;43.07;1133.11;1.096430429;10;149
49;paravance-6.rennes.grid5000.fr;thermos-root-devel-WordCountTopology-0-bf7432c0-4a99-4aa0-9320-ac6d48fbea49;["topology_master"];4.25;1533748505.47383;5.87;13.1;0.0;9;117
50;paravance-10.rennes.grid5000.fr;thermos-root-devel-WordCountTopology-1-7954e732-cfa5-4240-a650-50495d8b0e6a;["container_1_Consume_and_count_1"];4.25;1533748515.56893;54.9;872.74;0.338610698;10;149
50;paravance-6.rennes.grid5000.fr;thermos-root-devel-WordCountTopology-0-bf7432c0-4a99-4aa0-9320-ac6d48fbea49;["topology_master"];4.25;1533748515.68876;5.96;13.22;0.0;9;117
50;paravance-9.rennes.grid5000.fr;thermos-root-devel-WordCountTopology-2-d4abd4b8-844c-410b-89f8-323a52ec4ef7;["container_2_Emit_random_words_2"];4.25;1533748515.69409;43.74;1151.27;1.096430429;10;149
51;paravance-10.rennes.grid5000.fr;thermos-root-devel-WordCountTopology-1-7954e732-cfa5-4240-a650-50495d8b0e6a;["container_1_Consume_and_count_1"];4.25;1533748525.78445;55.74;885.8;0.338610698;10;149
51;paravance-6.rennes.grid5000.fr;thermos-root-devel-WordCountTopology-0-bf7432c0-4a99-4aa0-9320-ac6d48fbea49;["topology_master"];4.25;1533748525.90562;6.01;13.3;0.0;9;117
51;paravance-9.rennes.grid5000.fr;thermos-root-devel-WordCountTopology-2-d4abd4b8-844c-410b-89f8-323a52ec4ef7;["container_2_Emit_random_words_2"];4.25;1533748525.90835;44.39;1169.39;1.096430429;10;149
52;paravance-10.rennes.grid5000.fr;thermos-root-devel-WordCountTopology-1-7954e732-cfa5-4240-a650-50495d8b0e6a;["container_1_Consume_and_count_1"];4.25;1533748535.99758;56.58;898.96;0.338610698;10;149
52;paravance-9.rennes.grid5000.fr;thermos-root-devel-WordCountTopology-2-d4abd4b8-844c-410b-89f8-323a52ec4ef7;["container_2_Emit_random_words_2"];4.25;1533748536.12214;45.03;1187.54;1.096430429;10;149
52;paravance-6.rennes.grid5000.fr;thermos-root-devel-WordCountTopology-0-bf7432c0-4a99-4aa0-9320-ac6d48fbea49;["topology_master"];4.25;1533748536.12058;6.09;13.39;0.0;9;117
53;paravance-9.rennes.grid5000.fr;thermos-root-devel-WordCountTopology-2-d4abd4b8-844c-410b-89f8-323a52ec4ef7;["container_2_Emit_random_words_2"];4.25;1533748546.24534;45.7;1205.62;1.096430429;10;149
53;paravance-6.rennes.grid5000.fr;thermos-root-devel-WordCountTopology-0-bf7432c0-4a99-4aa0-9320-ac6d48fbea49;["topology_master"];4.25;1533748546.33418;6.15;13.5;0.0;9;117
53;paravance-10.rennes.grid5000.fr;thermos-root-devel-WordCountTopology-1-7954e732-cfa5-4240-a650-50495d8b0e6a;["container_1_Consume_and_count_1"];4.25;1533748546.21466;57.43;912.14;0.338610698;10;149
54;paravance-10.rennes.grid5000.fr;thermos-root-devel-WordCountTopology-1-7954e732-cfa5-4240-a650-50495d8b0e6a;["container_1_Consume_and_count_1"];4.25;1533748556.42915;58.19;926.66;0.338610698;10;149
54;paravance-6.rennes.grid5000.fr;thermos-root-devel-WordCountTopology-0-bf7432c0-4a99-4aa0-9320-ac6d48fbea49;["topology_master"];4.25;1533748556.54994;6.23;13.62;0.0;9;117
54;paravance-9.rennes.grid5000.fr;thermos-root-devel-WordCountTopology-2-d4abd4b8-844c-410b-89f8-323a52ec4ef7;["container_2_Emit_random_words_2"];4.25;1533748556.55575;46.36;1223.73;1.096430429;10;149
55;paravance-10.rennes.grid5000.fr;thermos-root-devel-WordCountTopology-1-7954e732-cfa5-4240-a650-50495d8b0e6a;["container_1_Consume_and_count_1"];4.25;1533748566.64922;58.95;942.18;0.338610698;10;149
55;paravance-9.rennes.grid5000.fr;thermos-root-devel-WordCountTopology-2-d4abd4b8-844c-410b-89f8-323a52ec4ef7;["container_2_Emit_random_words_2"];4.25;1533748566.77356;47.01;1241.93;1.096430429;10;149
55;paravance-6.rennes.grid5000.fr;thermos-root-devel-WordCountTopology-0-bf7432c0-4a99-4aa0-9320-ac6d48fbea49;["topology_master"];4.25;1533748566.7719;6.26;13.64;0.0;9;117
56;paravance-9.rennes.grid5000.fr;thermos-root-devel-WordCountTopology-2-d4abd4b8-844c-410b-89f8-323a52ec4ef7;["container_2_Emit_random_words_2"];4.25;1533748576.98899;47.69;1260.01;1.096430429;10;149
56;paravance-10.rennes.grid5000.fr;thermos-root-devel-WordCountTopology-1-7954e732-cfa5-4240-a650-50495d8b0e6a;["container_1_Consume_and_count_1"];4.25;1533748576.86954;59.75;957.81;0.338610698;10;149
56;paravance-6.rennes.grid5000.fr;thermos-root-devel-WordCountTopology-0-bf7432c0-4a99-4aa0-9320-ac6d48fbea49;["topology_master"];4.25;1533748576.99344;6.34;13.76;0.0;9;117
57;paravance-6.rennes.grid5000.fr;thermos-root-devel-WordCountTopology-0-bf7432c0-4a99-4aa0-9320-ac6d48fbea49;["topology_master"];4.25;1533748587.10958;6.4;13.83;0.0;9;117
57;paravance-9.rennes.grid5000.fr;thermos-root-devel-WordCountTopology-2-d4abd4b8-844c-410b-89f8-323a52ec4ef7;["container_2_Emit_random_words_2"];4.25;1533748587.21075;48.33;1278.1;1.096430429;10;149
57;paravance-10.rennes.grid5000.fr;thermos-root-devel-WordCountTopology-1-7954e732-cfa5-4240-a650-50495d8b0e6a;["container_1_Consume_and_count_1"];4.25;1533748587.08877;60.49;971.16;0.338610698;10;149
58;paravance-9.rennes.grid5000.fr;thermos-root-devel-WordCountTopology-2-d4abd4b8-844c-410b-89f8-323a52ec4ef7;["container_2_Emit_random_words_2"];4.25;1533748597.42461;49.01;1296.4;1.096430429;10;149
58;paravance-10.rennes.grid5000.fr;thermos-root-devel-WordCountTopology-1-7954e732-cfa5-4240-a650-50495d8b0e6a;["container_1_Consume_and_count_1"];4.25;1533748597.30903;61.26;984.48;0.338610698;10;149
58;paravance-6.rennes.grid5000.fr;thermos-root-devel-WordCountTopology-0-bf7432c0-4a99-4aa0-9320-ac6d48fbea49;["topology_master"];4.25;1533748597.44945;6.47;13.93;0.0;9;117
59;paravance-9.rennes.grid5000.fr;thermos-root-devel-WordCountTopology-2-d4abd4b8-844c-410b-89f8-323a52ec4ef7;["container_2_Emit_random_words_2"];4.25;1533748607.56638;49.66;1314.47;1.096430429;10;149
59;paravance-6.rennes.grid5000.fr;thermos-root-devel-WordCountTopology-0-bf7432c0-4a99-4aa0-9320-ac6d48fbea49;["topology_master"];4.25;1533748607.66318;6.54;14.05;0.0;9;117
59;paravance-10.rennes.grid5000.fr;thermos-root-devel-WordCountTopology-1-7954e732-cfa5-4240-a650-50495d8b0e6a;["container_1_Consume_and_count_1"];4.25;1533748607.54495;62.03;998.2;0.338610698;10;149
60;paravance-9.rennes.grid5000.fr;thermos-root-devel-WordCountTopology-2-d4abd4b8-844c-410b-89f8-323a52ec4ef7;["container_2_Emit_random_words_2"];4.25;1533748617.8837;50.33;1332.73;1.096430429;10;149
60;paravance-6.rennes.grid5000.fr;thermos-root-devel-WordCountTopology-0-bf7432c0-4a99-4aa0-9320-ac6d48fbea49;["topology_master"];4.25;1533748617.88176;6.63;14.17;0.0;9;117
60;paravance-10.rennes.grid5000.fr;thermos-root-devel-WordCountTopology-1-7954e732-cfa5-4240-a650-50495d8b0e6a;["container_1_Consume_and_count_1"];4.25;1533748617.77152;62.86;1011.17;0.338610698;10;149
