mesure_id;slave_id;executor_id;heron_instances;cpus_limit;timestamp_A;cpus_system_time_secs_A;cpus_user_time_secs_A;cpus_throttled_time_secs_A;processes;threads
0;paravance-36.rennes.grid5000.fr;thermos-root-devel-WordCountTopology-1-8b690e05-d395-4829-9a42-6c1072afbf7a;["container_1_Consume_and_count_1"];4.25;1532986734.43435;70.47;256.74;11.700223934;10;151
0;paravance-35.rennes.grid5000.fr;thermos-root-devel-WordCountTopology-2-ed6b80d8-0a09-49ea-ad01-6caddf981f3f;["container_2_Emit_random_words_2"];4.25;1532986734.43754;38.96;162.36;4.401092937;10;149
0;paravance-5.rennes.grid5000.fr;thermos-root-devel-WordCountTopology-0-37bd83b6-fb8d-448f-90bc-9d573e3a6ad9;["topology_master"];4.25;1532986734.49461;2.42;7.96;0.0;9;117
1;paravance-35.rennes.grid5000.fr;thermos-root-devel-WordCountTopology-2-ed6b80d8-0a09-49ea-ad01-6caddf981f3f;["container_2_Emit_random_words_2"];4.25;1532986744.65999;43.42;180.13;4.401092937;10;149
1;paravance-5.rennes.grid5000.fr;thermos-root-devel-WordCountTopology-0-37bd83b6-fb8d-448f-90bc-9d573e3a6ad9;["topology_master"];4.25;1532986744.71528;2.48;8.09;0.0;9;117
1;paravance-36.rennes.grid5000.fr;thermos-root-devel-WordCountTopology-1-8b690e05-d395-4829-9a42-6c1072afbf7a;["container_1_Consume_and_count_1"];4.25;1532986744.66092;78.25;286.43;11.954155515;10;151
2;paravance-35.rennes.grid5000.fr;thermos-root-devel-WordCountTopology-2-ed6b80d8-0a09-49ea-ad01-6caddf981f3f;["container_2_Emit_random_words_2"];4.25;1532986754.88266;48.04;197.69;4.401092937;10;149
2;paravance-36.rennes.grid5000.fr;thermos-root-devel-WordCountTopology-1-8b690e05-d395-4829-9a42-6c1072afbf7a;["container_1_Consume_and_count_1"];4.25;1532986754.88424;86.54;314.3;12.003040137;10;151
2;paravance-5.rennes.grid5000.fr;thermos-root-devel-WordCountTopology-0-37bd83b6-fb8d-448f-90bc-9d573e3a6ad9;["topology_master"];4.25;1532986754.93828;2.58;8.25;0.0;9;117
3;paravance-5.rennes.grid5000.fr;thermos-root-devel-WordCountTopology-0-37bd83b6-fb8d-448f-90bc-9d573e3a6ad9;["topology_master"];4.25;1532986765.15852;2.64;8.34;0.0;9;117
3;paravance-35.rennes.grid5000.fr;thermos-root-devel-WordCountTopology-2-ed6b80d8-0a09-49ea-ad01-6caddf981f3f;["container_2_Emit_random_words_2"];4.25;1532986765.10308;52.59;215.36;4.401092937;10;149
3;paravance-36.rennes.grid5000.fr;thermos-root-devel-WordCountTopology-1-8b690e05-d395-4829-9a42-6c1072afbf7a;["container_1_Consume_and_count_1"];4.25;1532986765.10577;94.54;343.54;13.709458075;10;151
4;paravance-36.rennes.grid5000.fr;thermos-root-devel-WordCountTopology-1-8b690e05-d395-4829-9a42-6c1072afbf7a;["container_1_Consume_and_count_1"];4.25;1532986775.3222;101.51;376.66;18.422836315;10;151
4;paravance-35.rennes.grid5000.fr;thermos-root-devel-WordCountTopology-2-ed6b80d8-0a09-49ea-ad01-6caddf981f3f;["container_2_Emit_random_words_2"];4.25;1532986775.32377;56.38;230.28;4.401092937;10;149
4;paravance-5.rennes.grid5000.fr;thermos-root-devel-WordCountTopology-0-37bd83b6-fb8d-448f-90bc-9d573e3a6ad9;["topology_master"];4.25;1532986775.37891;2.71;8.41;0.0;9;117
5;paravance-35.rennes.grid5000.fr;thermos-root-devel-WordCountTopology-2-ed6b80d8-0a09-49ea-ad01-6caddf981f3f;["container_2_Emit_random_words_2"];4.25;1532986785.54458;60.7;247.93;4.401092937;10;149
5;paravance-36.rennes.grid5000.fr;thermos-root-devel-WordCountTopology-1-8b690e05-d395-4829-9a42-6c1072afbf7a;["container_1_Consume_and_count_1"];4.25;1532986785.54581;109.31;406.04;18.527515368;10;151
5;paravance-5.rennes.grid5000.fr;thermos-root-devel-WordCountTopology-0-37bd83b6-fb8d-448f-90bc-9d573e3a6ad9;["topology_master"];4.25;1532986785.59987;2.77;8.49;0.0;9;117
6;paravance-36.rennes.grid5000.fr;thermos-root-devel-WordCountTopology-1-8b690e05-d395-4829-9a42-6c1072afbf7a;["container_1_Consume_and_count_1"];4.25;1532986795.76516;117.32;435.04;18.855460804;10;151
6;paravance-35.rennes.grid5000.fr;thermos-root-devel-WordCountTopology-2-ed6b80d8-0a09-49ea-ad01-6caddf981f3f;["container_2_Emit_random_words_2"];4.25;1532986795.76546;65.07;265.7;4.401092937;10;149
6;paravance-5.rennes.grid5000.fr;thermos-root-devel-WordCountTopology-0-37bd83b6-fb8d-448f-90bc-9d573e3a6ad9;["topology_master"];4.25;1532986795.82043;2.9;8.71;0.0;9;117
7;paravance-35.rennes.grid5000.fr;thermos-root-devel-WordCountTopology-2-ed6b80d8-0a09-49ea-ad01-6caddf981f3f;["container_2_Emit_random_words_2"];4.25;1532986805.98582;69.47;283.22;4.401092937;10;149
7;paravance-5.rennes.grid5000.fr;thermos-root-devel-WordCountTopology-0-37bd83b6-fb8d-448f-90bc-9d573e3a6ad9;["topology_master"];4.25;1532986806.04118;2.93;8.75;0.0;9;117
7;paravance-36.rennes.grid5000.fr;thermos-root-devel-WordCountTopology-1-8b690e05-d395-4829-9a42-6c1072afbf7a;["container_1_Consume_and_count_1"];4.25;1532986805.98783;125.74;463.88;18.860148576;10;151
8;paravance-36.rennes.grid5000.fr;thermos-root-devel-WordCountTopology-1-8b690e05-d395-4829-9a42-6c1072afbf7a;["container_1_Consume_and_count_1"];4.25;1532986816.20526;133.94;492.93;18.976335979;10;151
8;paravance-35.rennes.grid5000.fr;thermos-root-devel-WordCountTopology-2-ed6b80d8-0a09-49ea-ad01-6caddf981f3f;["container_2_Emit_random_words_2"];4.25;1532986816.20543;73.79;300.87;4.401092937;10;149
8;paravance-5.rennes.grid5000.fr;thermos-root-devel-WordCountTopology-0-37bd83b6-fb8d-448f-90bc-9d573e3a6ad9;["topology_master"];4.25;1532986816.26041;3.02;8.88;0.0;9;117
9;paravance-36.rennes.grid5000.fr;thermos-root-devel-WordCountTopology-1-8b690e05-d395-4829-9a42-6c1072afbf7a;["container_1_Consume_and_count_1"];4.25;1532986826.42648;142.12;524.51;19.652179392;10;151
9;paravance-35.rennes.grid5000.fr;thermos-root-devel-WordCountTopology-2-ed6b80d8-0a09-49ea-ad01-6caddf981f3f;["container_2_Emit_random_words_2"];4.25;1532986826.42611;78.36;318.34;4.401092937;10;149
9;paravance-5.rennes.grid5000.fr;thermos-root-devel-WordCountTopology-0-37bd83b6-fb8d-448f-90bc-9d573e3a6ad9;["topology_master"];4.25;1532986826.48126;3.07;8.95;0.0;9;117
10;paravance-36.rennes.grid5000.fr;thermos-root-devel-WordCountTopology-1-8b690e05-d395-4829-9a42-6c1072afbf7a;["container_1_Consume_and_count_1"];4.25;1532986836.6457;150.12;554.86;20.068276483;10;151
10;paravance-5.rennes.grid5000.fr;thermos-root-devel-WordCountTopology-0-37bd83b6-fb8d-448f-90bc-9d573e3a6ad9;["topology_master"];4.25;1532986836.70014;3.13;9.03;0.0;9;117
10;paravance-35.rennes.grid5000.fr;thermos-root-devel-WordCountTopology-2-ed6b80d8-0a09-49ea-ad01-6caddf981f3f;["container_2_Emit_random_words_2"];4.25;1532986836.6456;82.86;335.78;4.401092937;10;149
11;paravance-36.rennes.grid5000.fr;thermos-root-devel-WordCountTopology-1-8b690e05-d395-4829-9a42-6c1072afbf7a;["container_1_Consume_and_count_1"];4.25;1532986846.8655;158.32;582.84;20.210128555;10;151
11;paravance-35.rennes.grid5000.fr;thermos-root-devel-WordCountTopology-2-ed6b80d8-0a09-49ea-ad01-6caddf981f3f;["container_2_Emit_random_words_2"];4.25;1532986846.8676;87.16;353.27;4.401092937;10;149
11;paravance-5.rennes.grid5000.fr;thermos-root-devel-WordCountTopology-0-37bd83b6-fb8d-448f-90bc-9d573e3a6ad9;["topology_master"];4.25;1532986846.92063;3.19;9.1;0.0;9;117
12;paravance-35.rennes.grid5000.fr;thermos-root-devel-WordCountTopology-2-ed6b80d8-0a09-49ea-ad01-6caddf981f3f;["container_2_Emit_random_words_2"];4.25;1532986857.08488;91.54;371.03;4.401092937;10;149
12;paravance-5.rennes.grid5000.fr;thermos-root-devel-WordCountTopology-0-37bd83b6-fb8d-448f-90bc-9d573e3a6ad9;["topology_master"];4.25;1532986857.14123;3.32;9.43;0.0;9;117
12;paravance-36.rennes.grid5000.fr;thermos-root-devel-WordCountTopology-1-8b690e05-d395-4829-9a42-6c1072afbf7a;["container_1_Consume_and_count_1"];4.25;1532986857.09018;166.79;610.59;20.260538615;10;151
13;paravance-5.rennes.grid5000.fr;thermos-root-devel-WordCountTopology-0-37bd83b6-fb8d-448f-90bc-9d573e3a6ad9;["topology_master"];4.25;1532986867.36244;3.35;9.46;0.0;9;117
13;paravance-36.rennes.grid5000.fr;thermos-root-devel-WordCountTopology-1-8b690e05-d395-4829-9a42-6c1072afbf7a;["container_1_Consume_and_count_1"];4.25;1532986867.30785;174.72;638.39;20.260538615;10;151
13;paravance-35.rennes.grid5000.fr;thermos-root-devel-WordCountTopology-2-ed6b80d8-0a09-49ea-ad01-6caddf981f3f;["container_2_Emit_random_words_2"];4.25;1532986867.30893;95.95;388.47;4.401092937;10;149
14;paravance-36.rennes.grid5000.fr;thermos-root-devel-WordCountTopology-1-8b690e05-d395-4829-9a42-6c1072afbf7a;["container_1_Consume_and_count_1"];4.25;1532986877.52477;182.99;666.43;20.320546351;10;151
14;paravance-5.rennes.grid5000.fr;thermos-root-devel-WordCountTopology-0-37bd83b6-fb8d-448f-90bc-9d573e3a6ad9;["topology_master"];4.25;1532986877.57982;3.44;9.61;0.0;9;117
14;paravance-35.rennes.grid5000.fr;thermos-root-devel-WordCountTopology-2-ed6b80d8-0a09-49ea-ad01-6caddf981f3f;["container_2_Emit_random_words_2"];4.25;1532986877.52527;100.32;405.94;4.401092937;10;149
15;paravance-5.rennes.grid5000.fr;thermos-root-devel-WordCountTopology-0-37bd83b6-fb8d-448f-90bc-9d573e3a6ad9;["topology_master"];4.25;1532986887.7984;3.5;9.68;0.0;9;117
15;paravance-36.rennes.grid5000.fr;thermos-root-devel-WordCountTopology-1-8b690e05-d395-4829-9a42-6c1072afbf7a;["container_1_Consume_and_count_1"];4.25;1532986887.74234;190.46;696.72;21.785055744;10;151
15;paravance-35.rennes.grid5000.fr;thermos-root-devel-WordCountTopology-2-ed6b80d8-0a09-49ea-ad01-6caddf981f3f;["container_2_Emit_random_words_2"];4.25;1532986887.74349;104.28;421.14;4.401092937;10;149
16;paravance-35.rennes.grid5000.fr;thermos-root-devel-WordCountTopology-2-ed6b80d8-0a09-49ea-ad01-6caddf981f3f;["container_2_Emit_random_words_2"];4.25;1532986897.95903;108.58;438.27;4.401092937;10;149
16;paravance-5.rennes.grid5000.fr;thermos-root-devel-WordCountTopology-0-37bd83b6-fb8d-448f-90bc-9d573e3a6ad9;["topology_master"];4.25;1532986898.01527;3.56;9.77;0.0;9;117
16;paravance-36.rennes.grid5000.fr;thermos-root-devel-WordCountTopology-1-8b690e05-d395-4829-9a42-6c1072afbf7a;["container_1_Consume_and_count_1"];4.25;1532986897.96083;198.75;724.99;22.767559223;10;151
17;paravance-5.rennes.grid5000.fr;thermos-root-devel-WordCountTopology-0-37bd83b6-fb8d-448f-90bc-9d573e3a6ad9;["topology_master"];4.25;1532986908.23196;3.62;9.85;0.0;9;117
17;paravance-35.rennes.grid5000.fr;thermos-root-devel-WordCountTopology-2-ed6b80d8-0a09-49ea-ad01-6caddf981f3f;["container_2_Emit_random_words_2"];4.25;1532986908.17834;113.08;455.5;4.401092937;10;149
17;paravance-36.rennes.grid5000.fr;thermos-root-devel-WordCountTopology-1-8b690e05-d395-4829-9a42-6c1072afbf7a;["container_1_Consume_and_count_1"];4.25;1532986908.179;207.27;752.25;22.815087105;10;151
18;paravance-36.rennes.grid5000.fr;thermos-root-devel-WordCountTopology-1-8b690e05-d395-4829-9a42-6c1072afbf7a;["container_1_Consume_and_count_1"];4.25;1532986918.39742;215.7;779.51;22.835073022;10;151
18;paravance-35.rennes.grid5000.fr;thermos-root-devel-WordCountTopology-2-ed6b80d8-0a09-49ea-ad01-6caddf981f3f;["container_2_Emit_random_words_2"];4.25;1532986918.39816;117.59;472.92;4.401092937;10;149
18;paravance-5.rennes.grid5000.fr;thermos-root-devel-WordCountTopology-0-37bd83b6-fb8d-448f-90bc-9d573e3a6ad9;["topology_master"];4.25;1532986918.45239;3.73;10.05;0.0;9;117
19;paravance-36.rennes.grid5000.fr;thermos-root-devel-WordCountTopology-1-8b690e05-d395-4829-9a42-6c1072afbf7a;["container_1_Consume_and_count_1"];4.25;1532986928.62061;223.77;806.92;22.838027925;10;151
19;paravance-35.rennes.grid5000.fr;thermos-root-devel-WordCountTopology-2-ed6b80d8-0a09-49ea-ad01-6caddf981f3f;["container_2_Emit_random_words_2"];4.25;1532986928.61905;121.65;490.1;4.401092937;10;149
19;paravance-5.rennes.grid5000.fr;thermos-root-devel-WordCountTopology-0-37bd83b6-fb8d-448f-90bc-9d573e3a6ad9;["topology_master"];4.25;1532986928.67581;3.76;10.08;0.0;9;117
20;paravance-35.rennes.grid5000.fr;thermos-root-devel-WordCountTopology-2-ed6b80d8-0a09-49ea-ad01-6caddf981f3f;["container_2_Emit_random_words_2"];4.25;1532986938.84122;126.15;507.27;4.401092937;10;149
20;paravance-5.rennes.grid5000.fr;thermos-root-devel-WordCountTopology-0-37bd83b6-fb8d-448f-90bc-9d573e3a6ad9;["topology_master"];4.25;1532986938.89636;3.86;10.22;0.0;9;117
20;paravance-36.rennes.grid5000.fr;thermos-root-devel-WordCountTopology-1-8b690e05-d395-4829-9a42-6c1072afbf7a;["container_1_Consume_and_count_1"];4.25;1532986938.84385;232.0;835.17;23.022717904;10;151
21;paravance-36.rennes.grid5000.fr;thermos-root-devel-WordCountTopology-1-8b690e05-d395-4829-9a42-6c1072afbf7a;["container_1_Consume_and_count_1"];4.25;1532986949.062;239.89;864.69;23.815548982;10;151
21;paravance-5.rennes.grid5000.fr;thermos-root-devel-WordCountTopology-0-37bd83b6-fb8d-448f-90bc-9d573e3a6ad9;["topology_master"];4.25;1532986949.11774;3.91;10.3;0.0;9;117
21;paravance-35.rennes.grid5000.fr;thermos-root-devel-WordCountTopology-2-ed6b80d8-0a09-49ea-ad01-6caddf981f3f;["container_2_Emit_random_words_2"];4.25;1532986949.06358;130.35;524.32;4.401092937;10;149
22;paravance-36.rennes.grid5000.fr;thermos-root-devel-WordCountTopology-1-8b690e05-d395-4829-9a42-6c1072afbf7a;["container_1_Consume_and_count_1"];4.25;1532986959.2799;247.95;894.06;24.100142086;10;151
22;paravance-35.rennes.grid5000.fr;thermos-root-devel-WordCountTopology-2-ed6b80d8-0a09-49ea-ad01-6caddf981f3f;["container_2_Emit_random_words_2"];4.25;1532986959.28054;134.92;541.72;4.401092937;10;149
22;paravance-5.rennes.grid5000.fr;thermos-root-devel-WordCountTopology-0-37bd83b6-fb8d-448f-90bc-9d573e3a6ad9;["topology_master"];4.25;1532986959.33552;3.97;10.37;0.0;9;117
23;paravance-35.rennes.grid5000.fr;thermos-root-devel-WordCountTopology-2-ed6b80d8-0a09-49ea-ad01-6caddf981f3f;["container_2_Emit_random_words_2"];4.25;1532986969.50136;139.56;559.06;4.401092937;10;149
23;paravance-36.rennes.grid5000.fr;thermos-root-devel-WordCountTopology-1-8b690e05-d395-4829-9a42-6c1072afbf7a;["container_1_Consume_and_count_1"];4.25;1532986969.50239;256.23;923.47;24.229149512;10;151
23;paravance-5.rennes.grid5000.fr;thermos-root-devel-WordCountTopology-0-37bd83b6-fb8d-448f-90bc-9d573e3a6ad9;["topology_master"];4.25;1532986969.55621;4.03;10.44;0.0;9;117
24;paravance-36.rennes.grid5000.fr;thermos-root-devel-WordCountTopology-1-8b690e05-d395-4829-9a42-6c1072afbf7a;["container_1_Consume_and_count_1"];4.25;1532986979.72227;264.55;951.8;24.320186752;10;151
24;paravance-35.rennes.grid5000.fr;thermos-root-devel-WordCountTopology-2-ed6b80d8-0a09-49ea-ad01-6caddf981f3f;["container_2_Emit_random_words_2"];4.25;1532986979.72163;144.03;576.63;4.401092937;10;149
24;paravance-5.rennes.grid5000.fr;thermos-root-devel-WordCountTopology-0-37bd83b6-fb8d-448f-90bc-9d573e3a6ad9;["topology_master"];4.25;1532986979.77703;4.14;10.62;0.0;9;117
25;paravance-36.rennes.grid5000.fr;thermos-root-devel-WordCountTopology-1-8b690e05-d395-4829-9a42-6c1072afbf7a;["container_1_Consume_and_count_1"];4.25;1532986989.94343;273.01;980.09;24.339266665;10;151
25;paravance-5.rennes.grid5000.fr;thermos-root-devel-WordCountTopology-0-37bd83b6-fb8d-448f-90bc-9d573e3a6ad9;["topology_master"];4.25;1532986989.99783;4.17;10.65;0.0;9;117
25;paravance-35.rennes.grid5000.fr;thermos-root-devel-WordCountTopology-2-ed6b80d8-0a09-49ea-ad01-6caddf981f3f;["container_2_Emit_random_words_2"];4.25;1532986989.94224;148.42;594.28;4.401092937;10;149
26;paravance-35.rennes.grid5000.fr;thermos-root-devel-WordCountTopology-2-ed6b80d8-0a09-49ea-ad01-6caddf981f3f;["container_2_Emit_random_words_2"];4.25;1532987000.16338;152.81;611.76;4.401092937;10;149
26;paravance-5.rennes.grid5000.fr;thermos-root-devel-WordCountTopology-0-37bd83b6-fb8d-448f-90bc-9d573e3a6ad9;["topology_master"];4.25;1532987000.21946;4.27;10.79;0.0;9;117
26;paravance-36.rennes.grid5000.fr;thermos-root-devel-WordCountTopology-1-8b690e05-d395-4829-9a42-6c1072afbf7a;["container_1_Consume_and_count_1"];4.25;1532987000.16523;281.47;1009.66;24.499937287;10;151
27;paravance-36.rennes.grid5000.fr;thermos-root-devel-WordCountTopology-1-8b690e05-d395-4829-9a42-6c1072afbf7a;["container_1_Consume_and_count_1"];4.25;1532987010.38639;289.83;1038.48;24.564750438;10;149
27;paravance-5.rennes.grid5000.fr;thermos-root-devel-WordCountTopology-0-37bd83b6-fb8d-448f-90bc-9d573e3a6ad9;["topology_master"];4.25;1532987010.44134;4.33;10.87;0.0;9;117
28;paravance-35.rennes.grid5000.fr;thermos-root-devel-WordCountTopology-2-ed6b80d8-0a09-49ea-ad01-6caddf981f3f;["container_2_Emit_random_words_2"];4.25;1532987020.60522;161.67;646.47;4.401092937;10;149
28;paravance-5.rennes.grid5000.fr;thermos-root-devel-WordCountTopology-0-37bd83b6-fb8d-448f-90bc-9d573e3a6ad9;["topology_master"];4.25;1532987020.66033;4.39;10.94;0.0;9;117
28;paravance-36.rennes.grid5000.fr;thermos-root-devel-WordCountTopology-1-8b690e05-d395-4829-9a42-6c1072afbf7a;["container_1_Consume_and_count_1"];4.25;1532987020.60538;298.15;1066.36;24.564785594;10;151
29;paravance-35.rennes.grid5000.fr;thermos-root-devel-WordCountTopology-2-ed6b80d8-0a09-49ea-ad01-6caddf981f3f;["container_2_Emit_random_words_2"];4.25;1532987030.82617;166.15;663.64;4.401092937;10;149
29;paravance-36.rennes.grid5000.fr;thermos-root-devel-WordCountTopology-1-8b690e05-d395-4829-9a42-6c1072afbf7a;["container_1_Consume_and_count_1"];4.25;1532987030.8274;306.33;1094.36;24.63934325;10;151
29;paravance-5.rennes.grid5000.fr;thermos-root-devel-WordCountTopology-0-37bd83b6-fb8d-448f-90bc-9d573e3a6ad9;["topology_master"];4.25;1532987030.88235;4.5;11.08;0.0;9;117
30;paravance-35.rennes.grid5000.fr;thermos-root-devel-WordCountTopology-2-ed6b80d8-0a09-49ea-ad01-6caddf981f3f;["container_2_Emit_random_words_2"];4.25;1532987041.04713;170.68;680.62;4.401092937;10;149
30;paravance-36.rennes.grid5000.fr;thermos-root-devel-WordCountTopology-1-8b690e05-d395-4829-9a42-6c1072afbf7a;["container_1_Consume_and_count_1"];4.25;1532987041.04808;314.32;1124.99;25.178990552;10;151
30;paravance-5.rennes.grid5000.fr;thermos-root-devel-WordCountTopology-0-37bd83b6-fb8d-448f-90bc-9d573e3a6ad9;["topology_master"];4.25;1532987041.10297;4.56;11.21;0.0;9;117
31;paravance-35.rennes.grid5000.fr;thermos-root-devel-WordCountTopology-2-ed6b80d8-0a09-49ea-ad01-6caddf981f3f;["container_2_Emit_random_words_2"];4.25;1532987051.26745;174.92;697.73;4.401092937;10;149
31;paravance-36.rennes.grid5000.fr;thermos-root-devel-WordCountTopology-1-8b690e05-d395-4829-9a42-6c1072afbf7a;["container_1_Consume_and_count_1"];4.25;1532987051.26885;322.45;1154.09;25.229606649;10;151
31;paravance-5.rennes.grid5000.fr;thermos-root-devel-WordCountTopology-0-37bd83b6-fb8d-448f-90bc-9d573e3a6ad9;["topology_master"];4.25;1532987051.32381;4.62;11.29;0.0;9;117
32;paravance-36.rennes.grid5000.fr;thermos-root-devel-WordCountTopology-1-8b690e05-d395-4829-9a42-6c1072afbf7a;["container_1_Consume_and_count_1"];4.25;1532987061.48709;330.75;1183.19;25.236179211;10;151
32;paravance-35.rennes.grid5000.fr;thermos-root-devel-WordCountTopology-2-ed6b80d8-0a09-49ea-ad01-6caddf981f3f;["container_2_Emit_random_words_2"];4.25;1532987061.48786;179.35;715.17;4.401092937;10;149
32;paravance-5.rennes.grid5000.fr;thermos-root-devel-WordCountTopology-0-37bd83b6-fb8d-448f-90bc-9d573e3a6ad9;["topology_master"];4.25;1532987061.54379;4.68;11.37;0.0;9;117
33;paravance-36.rennes.grid5000.fr;thermos-root-devel-WordCountTopology-1-8b690e05-d395-4829-9a42-6c1072afbf7a;["container_1_Consume_and_count_1"];4.25;1532987071.70612;338.98;1212.46;25.245711386;10;151
33;paravance-35.rennes.grid5000.fr;thermos-root-devel-WordCountTopology-2-ed6b80d8-0a09-49ea-ad01-6caddf981f3f;["container_2_Emit_random_words_2"];4.25;1532987071.70701;183.86;732.52;4.401092937;10;149
33;paravance-5.rennes.grid5000.fr;thermos-root-devel-WordCountTopology-0-37bd83b6-fb8d-448f-90bc-9d573e3a6ad9;["topology_master"];4.25;1532987071.76351;4.77;11.49;0.0;9;117
34;paravance-36.rennes.grid5000.fr;thermos-root-devel-WordCountTopology-1-8b690e05-d395-4829-9a42-6c1072afbf7a;["container_1_Consume_and_count_1"];4.25;1532987081.93037;346.84;1240.56;25.275626657;10;151
34;paravance-5.rennes.grid5000.fr;thermos-root-devel-WordCountTopology-0-37bd83b6-fb8d-448f-90bc-9d573e3a6ad9;["topology_master"];4.25;1532987081.98397;4.79;11.51;0.0;9;117
34;paravance-35.rennes.grid5000.fr;thermos-root-devel-WordCountTopology-2-ed6b80d8-0a09-49ea-ad01-6caddf981f3f;["container_2_Emit_random_words_2"];4.25;1532987081.92981;188.19;749.74;4.401092937;10;149
35;paravance-35.rennes.grid5000.fr;thermos-root-devel-WordCountTopology-2-ed6b80d8-0a09-49ea-ad01-6caddf981f3f;["container_2_Emit_random_words_2"];4.25;1532987092.14721;192.69;767.05;4.401092937;10;149
35;paravance-5.rennes.grid5000.fr;thermos-root-devel-WordCountTopology-0-37bd83b6-fb8d-448f-90bc-9d573e3a6ad9;["topology_master"];4.25;1532987092.20241;4.89;11.65;0.0;9;117
35;paravance-36.rennes.grid5000.fr;thermos-root-devel-WordCountTopology-1-8b690e05-d395-4829-9a42-6c1072afbf7a;["container_1_Consume_and_count_1"];4.25;1532987092.14898;355.04;1268.46;25.281158036;10;151
36;paravance-5.rennes.grid5000.fr;thermos-root-devel-WordCountTopology-0-37bd83b6-fb8d-448f-90bc-9d573e3a6ad9;["topology_master"];4.25;1532987102.42196;4.96;11.79;0.0;9;117
36;paravance-35.rennes.grid5000.fr;thermos-root-devel-WordCountTopology-2-ed6b80d8-0a09-49ea-ad01-6caddf981f3f;["container_2_Emit_random_words_2"];4.25;1532987102.366;197.08;784.39;4.401092937;10;149
36;paravance-36.rennes.grid5000.fr;thermos-root-devel-WordCountTopology-1-8b690e05-d395-4829-9a42-6c1072afbf7a;["container_1_Consume_and_count_1"];4.25;1532987102.36972;362.99;1296.99;25.348002563;10;151
37;paravance-36.rennes.grid5000.fr;thermos-root-devel-WordCountTopology-1-8b690e05-d395-4829-9a42-6c1072afbf7a;["container_1_Consume_and_count_1"];4.25;1532987112.58842;370.86;1324.85;25.366471992;10;151
37;paravance-5.rennes.grid5000.fr;thermos-root-devel-WordCountTopology-0-37bd83b6-fb8d-448f-90bc-9d573e3a6ad9;["topology_master"];4.25;1532987112.64224;5.05;11.91;0.0;9;117
37;paravance-35.rennes.grid5000.fr;thermos-root-devel-WordCountTopology-2-ed6b80d8-0a09-49ea-ad01-6caddf981f3f;["container_2_Emit_random_words_2"];4.25;1532987112.58652;201.34;801.74;4.401092937;10;149
38;paravance-36.rennes.grid5000.fr;thermos-root-devel-WordCountTopology-1-8b690e05-d395-4829-9a42-6c1072afbf7a;["container_1_Consume_and_count_1"];4.25;1532987122.80399;378.58;1353.12;25.393473492;10;151
38;paravance-35.rennes.grid5000.fr;thermos-root-devel-WordCountTopology-2-ed6b80d8-0a09-49ea-ad01-6caddf981f3f;["container_2_Emit_random_words_2"];4.25;1532987122.80518;205.77;819.05;4.401092937;10;149
38;paravance-5.rennes.grid5000.fr;thermos-root-devel-WordCountTopology-0-37bd83b6-fb8d-448f-90bc-9d573e3a6ad9;["topology_master"];4.25;1532987122.8608;5.08;11.94;0.0;9;117
39;paravance-35.rennes.grid5000.fr;thermos-root-devel-WordCountTopology-2-ed6b80d8-0a09-49ea-ad01-6caddf981f3f;["container_2_Emit_random_words_2"];4.25;1532987133.02316;209.89;835.97;4.401092937;10;149
39;paravance-36.rennes.grid5000.fr;thermos-root-devel-WordCountTopology-1-8b690e05-d395-4829-9a42-6c1072afbf7a;["container_1_Consume_and_count_1"];4.25;1532987133.02447;386.38;1379.57;25.393473492;10;151
39;paravance-5.rennes.grid5000.fr;thermos-root-devel-WordCountTopology-0-37bd83b6-fb8d-448f-90bc-9d573e3a6ad9;["topology_master"];4.25;1532987133.08106;5.17;12.07;0.0;9;117
40;paravance-35.rennes.grid5000.fr;thermos-root-devel-WordCountTopology-2-ed6b80d8-0a09-49ea-ad01-6caddf981f3f;["container_2_Emit_random_words_2"];4.25;1532987143.24256;214.28;853.37;4.401092937;10;149
40;paravance-5.rennes.grid5000.fr;thermos-root-devel-WordCountTopology-0-37bd83b6-fb8d-448f-90bc-9d573e3a6ad9;["topology_master"];4.25;1532987143.29803;5.23;12.14;0.0;9;117
40;paravance-36.rennes.grid5000.fr;thermos-root-devel-WordCountTopology-1-8b690e05-d395-4829-9a42-6c1072afbf7a;["container_1_Consume_and_count_1"];4.25;1532987143.24417;394.33;1407.34;25.567570639;10;151
41;paravance-36.rennes.grid5000.fr;thermos-root-devel-WordCountTopology-1-8b690e05-d395-4829-9a42-6c1072afbf7a;["container_1_Consume_and_count_1"];4.25;1532987153.46167;402.29;1439.68;27.61633729;10;151
41;paravance-5.rennes.grid5000.fr;thermos-root-devel-WordCountTopology-0-37bd83b6-fb8d-448f-90bc-9d573e3a6ad9;["topology_master"];4.25;1532987153.51675;5.3;12.22;0.0;9;117
41;paravance-35.rennes.grid5000.fr;thermos-root-devel-WordCountTopology-2-ed6b80d8-0a09-49ea-ad01-6caddf981f3f;["container_2_Emit_random_words_2"];4.25;1532987153.46055;218.73;870.38;4.401092937;10;149
42;paravance-36.rennes.grid5000.fr;thermos-root-devel-WordCountTopology-1-8b690e05-d395-4829-9a42-6c1072afbf7a;["container_1_Consume_and_count_1"];4.25;1532987163.68139;410.42;1467.63;27.679148163;10;151
42;paravance-35.rennes.grid5000.fr;thermos-root-devel-WordCountTopology-2-ed6b80d8-0a09-49ea-ad01-6caddf981f3f;["container_2_Emit_random_words_2"];4.25;1532987163.67948;223.14;888.33;4.401092937;10;149
42;paravance-5.rennes.grid5000.fr;thermos-root-devel-WordCountTopology-0-37bd83b6-fb8d-448f-90bc-9d573e3a6ad9;["topology_master"];4.25;1532987163.7353;5.37;12.35;0.0;9;117
43;paravance-36.rennes.grid5000.fr;thermos-root-devel-WordCountTopology-1-8b690e05-d395-4829-9a42-6c1072afbf7a;["container_1_Consume_and_count_1"];4.25;1532987173.8991;418.56;1498.23;28.316883442;10;151
43;paravance-35.rennes.grid5000.fr;thermos-root-devel-WordCountTopology-2-ed6b80d8-0a09-49ea-ad01-6caddf981f3f;["container_2_Emit_random_words_2"];4.25;1532987173.89939;227.72;905.93;4.401092937;10;149
43;paravance-5.rennes.grid5000.fr;thermos-root-devel-WordCountTopology-0-37bd83b6-fb8d-448f-90bc-9d573e3a6ad9;["topology_master"];4.25;1532987173.95508;5.46;12.48;0.0;9;117
44;paravance-36.rennes.grid5000.fr;thermos-root-devel-WordCountTopology-1-8b690e05-d395-4829-9a42-6c1072afbf7a;["container_1_Consume_and_count_1"];4.25;1532987184.11828;426.76;1527.92;28.324725372;10;151
44;paravance-35.rennes.grid5000.fr;thermos-root-devel-WordCountTopology-2-ed6b80d8-0a09-49ea-ad01-6caddf981f3f;["container_2_Emit_random_words_2"];4.25;1532987184.11852;232.08;923.62;4.401092937;10;149
44;paravance-5.rennes.grid5000.fr;thermos-root-devel-WordCountTopology-0-37bd83b6-fb8d-448f-90bc-9d573e3a6ad9;["topology_master"];4.25;1532987184.17379;5.49;12.52;0.0;9;117
45;paravance-36.rennes.grid5000.fr;thermos-root-devel-WordCountTopology-1-8b690e05-d395-4829-9a42-6c1072afbf7a;["container_1_Consume_and_count_1"];4.25;1532987194.33893;435.58;1557.7;28.576891049;10;151
45;paravance-5.rennes.grid5000.fr;thermos-root-devel-WordCountTopology-0-37bd83b6-fb8d-448f-90bc-9d573e3a6ad9;["topology_master"];4.25;1532987194.39422;5.59;12.65;0.0;9;117
45;paravance-35.rennes.grid5000.fr;thermos-root-devel-WordCountTopology-2-ed6b80d8-0a09-49ea-ad01-6caddf981f3f;["container_2_Emit_random_words_2"];4.25;1532987194.33926;236.66;940.82;4.401092937;10;149
46;paravance-35.rennes.grid5000.fr;thermos-root-devel-WordCountTopology-2-ed6b80d8-0a09-49ea-ad01-6caddf981f3f;["container_2_Emit_random_words_2"];4.25;1532987204.55832;240.93;958.0;4.401092937;10;149
46;paravance-5.rennes.grid5000.fr;thermos-root-devel-WordCountTopology-0-37bd83b6-fb8d-448f-90bc-9d573e3a6ad9;["topology_master"];4.25;1532987204.61407;5.65;12.73;0.0;9;117
46;paravance-36.rennes.grid5000.fr;thermos-root-devel-WordCountTopology-1-8b690e05-d395-4829-9a42-6c1072afbf7a;["container_1_Consume_and_count_1"];4.25;1532987204.55974;443.76;1586.73;28.610740522;10;151
47;paravance-35.rennes.grid5000.fr;thermos-root-devel-WordCountTopology-2-ed6b80d8-0a09-49ea-ad01-6caddf981f3f;["container_2_Emit_random_words_2"];4.25;1532987214.77881;245.45;975.34;4.401092937;10;149
47;paravance-5.rennes.grid5000.fr;thermos-root-devel-WordCountTopology-0-37bd83b6-fb8d-448f-90bc-9d573e3a6ad9;["topology_master"];4.25;1532987214.83398;5.72;12.82;0.0;9;117
47;paravance-36.rennes.grid5000.fr;thermos-root-devel-WordCountTopology-1-8b690e05-d395-4829-9a42-6c1072afbf7a;["container_1_Consume_and_count_1"];4.25;1532987214.7794;452.17;1615.48;28.657075519;10;151
48;paravance-36.rennes.grid5000.fr;thermos-root-devel-WordCountTopology-1-8b690e05-d395-4829-9a42-6c1072afbf7a;["container_1_Consume_and_count_1"];4.25;1532987224.99901;460.31;1644.69;28.665426224;10;151
48;paravance-35.rennes.grid5000.fr;thermos-root-devel-WordCountTopology-2-ed6b80d8-0a09-49ea-ad01-6caddf981f3f;["container_2_Emit_random_words_2"];4.25;1532987224.99853;249.89;992.88;4.401092937;10;149
48;paravance-5.rennes.grid5000.fr;thermos-root-devel-WordCountTopology-0-37bd83b6-fb8d-448f-90bc-9d573e3a6ad9;["topology_master"];4.25;1532987225.05367;5.79;12.95;0.0;9;117
49;paravance-36.rennes.grid5000.fr;thermos-root-devel-WordCountTopology-1-8b690e05-d395-4829-9a42-6c1072afbf7a;["container_1_Consume_and_count_1"];4.25;1532987235.21818;468.76;1674.05;28.736992935;10;151
49;paravance-5.rennes.grid5000.fr;thermos-root-devel-WordCountTopology-0-37bd83b6-fb8d-448f-90bc-9d573e3a6ad9;["topology_master"];4.25;1532987235.27335;5.88;13.08;0.0;9;117
49;paravance-35.rennes.grid5000.fr;thermos-root-devel-WordCountTopology-2-ed6b80d8-0a09-49ea-ad01-6caddf981f3f;["container_2_Emit_random_words_2"];4.25;1532987235.21858;254.33;1010.11;4.401092937;10;149
50;paravance-36.rennes.grid5000.fr;thermos-root-devel-WordCountTopology-1-8b690e05-d395-4829-9a42-6c1072afbf7a;["container_1_Consume_and_count_1"];4.25;1532987245.4375;476.94;1703.07;28.796963604;10;151
50;paravance-35.rennes.grid5000.fr;thermos-root-devel-WordCountTopology-2-ed6b80d8-0a09-49ea-ad01-6caddf981f3f;["container_2_Emit_random_words_2"];4.25;1532987245.4356;258.88;1027.15;4.401092937;10;149
50;paravance-5.rennes.grid5000.fr;thermos-root-devel-WordCountTopology-0-37bd83b6-fb8d-448f-90bc-9d573e3a6ad9;["topology_master"];4.25;1532987245.49125;5.91;13.11;0.0;9;117
51;paravance-36.rennes.grid5000.fr;thermos-root-devel-WordCountTopology-1-8b690e05-d395-4829-9a42-6c1072afbf7a;["container_1_Consume_and_count_1"];4.25;1532987255.65522;484.82;1730.33;28.857949479;10;151
51;paravance-35.rennes.grid5000.fr;thermos-root-devel-WordCountTopology-2-ed6b80d8-0a09-49ea-ad01-6caddf981f3f;["container_2_Emit_random_words_2"];4.25;1532987255.65418;263.34;1044.44;4.401092937;10;149
51;paravance-5.rennes.grid5000.fr;thermos-root-devel-WordCountTopology-0-37bd83b6-fb8d-448f-90bc-9d573e3a6ad9;["topology_master"];4.25;1532987255.70953;6.0;13.25;0.0;9;117
52;paravance-36.rennes.grid5000.fr;thermos-root-devel-WordCountTopology-1-8b690e05-d395-4829-9a42-6c1072afbf7a;["container_1_Consume_and_count_1"];4.25;1532987265.87319;493.3;1760.25;29.368259361;10;151
52;paravance-5.rennes.grid5000.fr;thermos-root-devel-WordCountTopology-0-37bd83b6-fb8d-448f-90bc-9d573e3a6ad9;["topology_master"];4.25;1532987265.92927;6.06;13.32;0.0;9;117
52;paravance-35.rennes.grid5000.fr;thermos-root-devel-WordCountTopology-2-ed6b80d8-0a09-49ea-ad01-6caddf981f3f;["container_2_Emit_random_words_2"];4.25;1532987265.87286;267.74;1061.58;4.401092937;10;149
53;paravance-36.rennes.grid5000.fr;thermos-root-devel-WordCountTopology-1-8b690e05-d395-4829-9a42-6c1072afbf7a;["container_1_Consume_and_count_1"];4.25;1532987276.09526;501.64;1789.2;29.398766049;10;151
53;paravance-35.rennes.grid5000.fr;thermos-root-devel-WordCountTopology-2-ed6b80d8-0a09-49ea-ad01-6caddf981f3f;["container_2_Emit_random_words_2"];4.25;1532987276.09336;272.26;1078.77;4.401092937;10;149
53;paravance-5.rennes.grid5000.fr;thermos-root-devel-WordCountTopology-0-37bd83b6-fb8d-448f-90bc-9d573e3a6ad9;["topology_master"];4.25;1532987276.14959;6.14;13.45;0.0;9;117
54;paravance-36.rennes.grid5000.fr;thermos-root-devel-WordCountTopology-1-8b690e05-d395-4829-9a42-6c1072afbf7a;["container_1_Consume_and_count_1"];4.25;1532987286.31446;509.79;1817.31;29.784588098;10;151
54;paravance-35.rennes.grid5000.fr;thermos-root-devel-WordCountTopology-2-ed6b80d8-0a09-49ea-ad01-6caddf981f3f;["container_2_Emit_random_words_2"];4.25;1532987286.31358;276.6;1095.99;4.401092937;10;149
54;paravance-5.rennes.grid5000.fr;thermos-root-devel-WordCountTopology-0-37bd83b6-fb8d-448f-90bc-9d573e3a6ad9;["topology_master"];4.25;1532987286.36931;6.2;13.53;0.0;9;117
55;paravance-35.rennes.grid5000.fr;thermos-root-devel-WordCountTopology-2-ed6b80d8-0a09-49ea-ad01-6caddf981f3f;["container_2_Emit_random_words_2"];4.25;1532987296.53512;281.01;1113.36;4.401092937;10;149
55;paravance-5.rennes.grid5000.fr;thermos-root-devel-WordCountTopology-0-37bd83b6-fb8d-448f-90bc-9d573e3a6ad9;["topology_master"];4.25;1532987296.59038;6.29;13.66;0.0;9;117
55;paravance-36.rennes.grid5000.fr;thermos-root-devel-WordCountTopology-1-8b690e05-d395-4829-9a42-6c1072afbf7a;["container_1_Consume_and_count_1"];4.25;1532987296.53781;517.93;1844.67;29.831451274;10;151
56;paravance-36.rennes.grid5000.fr;thermos-root-devel-WordCountTopology-1-8b690e05-d395-4829-9a42-6c1072afbf7a;["container_1_Consume_and_count_1"];4.25;1532987306.76517;526.0;1871.1;29.831517347;10;151
56;paravance-5.rennes.grid5000.fr;thermos-root-devel-WordCountTopology-0-37bd83b6-fb8d-448f-90bc-9d573e3a6ad9;["topology_master"];4.25;1532987306.82191;6.32;13.68;0.0;9;117
56;paravance-35.rennes.grid5000.fr;thermos-root-devel-WordCountTopology-2-ed6b80d8-0a09-49ea-ad01-6caddf981f3f;["container_2_Emit_random_words_2"];4.25;1532987306.76713;285.15;1130.76;4.401092937;10;149
57;paravance-35.rennes.grid5000.fr;thermos-root-devel-WordCountTopology-2-ed6b80d8-0a09-49ea-ad01-6caddf981f3f;["container_2_Emit_random_words_2"];4.25;1532987316.98377;289.61;1148.42;4.401092937;10;149
57;paravance-36.rennes.grid5000.fr;thermos-root-devel-WordCountTopology-1-8b690e05-d395-4829-9a42-6c1072afbf7a;["container_1_Consume_and_count_1"];4.25;1532987316.98516;534.49;1898.87;29.881840717;10;151
57;paravance-5.rennes.grid5000.fr;thermos-root-devel-WordCountTopology-0-37bd83b6-fb8d-448f-90bc-9d573e3a6ad9;["topology_master"];4.25;1532987317.03915;6.41;13.81;0.0;9;117
58;paravance-35.rennes.grid5000.fr;thermos-root-devel-WordCountTopology-2-ed6b80d8-0a09-49ea-ad01-6caddf981f3f;["container_2_Emit_random_words_2"];4.25;1532987327.20469;294.18;1165.93;4.401092937;10;149
58;paravance-5.rennes.grid5000.fr;thermos-root-devel-WordCountTopology-0-37bd83b6-fb8d-448f-90bc-9d573e3a6ad9;["topology_master"];4.25;1532987327.26019;6.47;13.89;0.0;9;117
58;paravance-36.rennes.grid5000.fr;thermos-root-devel-WordCountTopology-1-8b690e05-d395-4829-9a42-6c1072afbf7a;["container_1_Consume_and_count_1"];4.25;1532987327.20717;542.86;1927.1;30.013235523;10;151
59;paravance-5.rennes.grid5000.fr;thermos-root-devel-WordCountTopology-0-37bd83b6-fb8d-448f-90bc-9d573e3a6ad9;["topology_master"];4.25;1532987337.47876;6.54;14.0;0.0;9;117
59;paravance-35.rennes.grid5000.fr;thermos-root-devel-WordCountTopology-2-ed6b80d8-0a09-49ea-ad01-6caddf981f3f;["container_2_Emit_random_words_2"];4.25;1532987337.42442;298.52;1182.49;4.401092937;10;149
59;paravance-36.rennes.grid5000.fr;thermos-root-devel-WordCountTopology-1-8b690e05-d395-4829-9a42-6c1072afbf7a;["container_1_Consume_and_count_1"];4.25;1532987337.42543;550.59;1957.58;31.270541815;10;151
60;paravance-35.rennes.grid5000.fr;thermos-root-devel-WordCountTopology-2-ed6b80d8-0a09-49ea-ad01-6caddf981f3f;["container_2_Emit_random_words_2"];4.25;1532987347.6425;302.61;1199.95;4.401092937;10;149
60;paravance-5.rennes.grid5000.fr;thermos-root-devel-WordCountTopology-0-37bd83b6-fb8d-448f-90bc-9d573e3a6ad9;["topology_master"];4.25;1532987347.69862;6.6;14.08;0.0;9;117
60;paravance-36.rennes.grid5000.fr;thermos-root-devel-WordCountTopology-1-8b690e05-d395-4829-9a42-6c1072afbf7a;["container_1_Consume_and_count_1"];4.25;1532987347.64407;558.57;1983.99;31.270541815;10;151
