mesure_id;slave_id;executor_id;heron_instances;cpus_limit;timestamp_B;cpus_system_time_secs_B;cpus_user_time_secs_B;cpus_throttled_time_secs_B;word_size;throttle;run_id
0;graphene-89.nancy.grid5000.fr;thermos-root-devel-WordCountTopology-1-b24feaac-a051-4568-b286-34963b385e75;["container_1_Consume_and_count_1"];2.25;1532602349.66995;20.27;68.81;1.667443859;1500;0;1
0;graphene-39.nancy.grid5000.fr;thermos-root-devel-WordCountTopology-0-f402a235-0834-4e97-8717-c6d81892f414;["topology_master"];2.25;1532602349.52373;2.14;9.64;0.0;1500;0;1
0;graphene-88.nancy.grid5000.fr;thermos-root-devel-WordCountTopology-2-79e39764-a486-44ec-9a58-5ba5cebe9cbe;["container_2_Emit_random_words_2"];2.25;1532602349.9649;14.39;57.16;1.923199787;1500;0;1
1;graphene-88.nancy.grid5000.fr;thermos-root-devel-WordCountTopology-2-79e39764-a486-44ec-9a58-5ba5cebe9cbe;["container_2_Emit_random_words_2"];2.25;1532602360.07053;16.53;64.09;1.923199787;1500;0;1
1;graphene-89.nancy.grid5000.fr;thermos-root-devel-WordCountTopology-1-b24feaac-a051-4568-b286-34963b385e75;["container_1_Consume_and_count_1"];2.25;1532602359.94876;23.82;80.43;1.667443859;1500;0;1
1;graphene-39.nancy.grid5000.fr;thermos-root-devel-WordCountTopology-0-f402a235-0834-4e97-8717-c6d81892f414;["topology_master"];2.25;1532602359.80693;2.17;9.68;0.0;1500;0;1
2;graphene-89.nancy.grid5000.fr;thermos-root-devel-WordCountTopology-1-b24feaac-a051-4568-b286-34963b385e75;["container_1_Consume_and_count_1"];2.25;1532602370.15375;27.34;92.28;1.700063042;1500;0;1
2;graphene-39.nancy.grid5000.fr;thermos-root-devel-WordCountTopology-0-f402a235-0834-4e97-8717-c6d81892f414;["topology_master"];2.25;1532602370.02297;2.2;9.73;0.0;1500;0;1
2;graphene-88.nancy.grid5000.fr;thermos-root-devel-WordCountTopology-2-79e39764-a486-44ec-9a58-5ba5cebe9cbe;["container_2_Emit_random_words_2"];2.25;1532602370.41881;18.64;70.83;1.923199787;1500;0;1
3;graphene-89.nancy.grid5000.fr;thermos-root-devel-WordCountTopology-1-b24feaac-a051-4568-b286-34963b385e75;["container_1_Consume_and_count_1"];2.25;1532602380.36458;30.86;103.65;1.700063042;1500;0;1
3;graphene-39.nancy.grid5000.fr;thermos-root-devel-WordCountTopology-0-f402a235-0834-4e97-8717-c6d81892f414;["topology_master"];2.25;1532602380.24473;2.24;9.79;0.0;1500;0;1
3;graphene-88.nancy.grid5000.fr;thermos-root-devel-WordCountTopology-2-79e39764-a486-44ec-9a58-5ba5cebe9cbe;["container_2_Emit_random_words_2"];2.25;1532602380.62713;20.81;77.74;1.923199787;1500;0;1
4;graphene-39.nancy.grid5000.fr;thermos-root-devel-WordCountTopology-0-f402a235-0834-4e97-8717-c6d81892f414;["topology_master"];2.25;1532602390.46366;2.26;9.81;0.0;1500;0;1
4;graphene-88.nancy.grid5000.fr;thermos-root-devel-WordCountTopology-2-79e39764-a486-44ec-9a58-5ba5cebe9cbe;["container_2_Emit_random_words_2"];2.25;1532602390.83839;23.01;84.91;1.923199787;1500;0;1
4;graphene-89.nancy.grid5000.fr;thermos-root-devel-WordCountTopology-1-b24feaac-a051-4568-b286-34963b385e75;["container_1_Consume_and_count_1"];2.25;1532602390.5861;34.37;115.33;1.700063042;1500;0;1
5;graphene-89.nancy.grid5000.fr;thermos-root-devel-WordCountTopology-1-b24feaac-a051-4568-b286-34963b385e75;["container_1_Consume_and_count_1"];2.25;1532602400.7894;37.91;126.85;1.700063042;1500;0;1
5;graphene-39.nancy.grid5000.fr;thermos-root-devel-WordCountTopology-0-f402a235-0834-4e97-8717-c6d81892f414;["topology_master"];2.25;1532602400.69081;2.33;9.9;0.0;1500;0;1
5;graphene-88.nancy.grid5000.fr;thermos-root-devel-WordCountTopology-2-79e39764-a486-44ec-9a58-5ba5cebe9cbe;["container_2_Emit_random_words_2"];2.25;1532602401.0534;25.14;91.68;1.923199787;1500;0;1
6;graphene-89.nancy.grid5000.fr;thermos-root-devel-WordCountTopology-1-b24feaac-a051-4568-b286-34963b385e75;["container_1_Consume_and_count_1"];2.25;1532602410.99796;41.4;138.27;1.700063042;1500;0;1
6;graphene-39.nancy.grid5000.fr;thermos-root-devel-WordCountTopology-0-f402a235-0834-4e97-8717-c6d81892f414;["topology_master"];2.25;1532602410.90813;2.36;10.0;0.0;1500;0;1
6;graphene-88.nancy.grid5000.fr;thermos-root-devel-WordCountTopology-2-79e39764-a486-44ec-9a58-5ba5cebe9cbe;["container_2_Emit_random_words_2"];2.25;1532602411.25992;27.29;98.71;1.923199787;1500;0;1
7;graphene-89.nancy.grid5000.fr;thermos-root-devel-WordCountTopology-1-b24feaac-a051-4568-b286-34963b385e75;["container_1_Consume_and_count_1"];2.25;1532602421.206;44.89;149.79;1.700063042;1500;0;1
7;graphene-39.nancy.grid5000.fr;thermos-root-devel-WordCountTopology-0-f402a235-0834-4e97-8717-c6d81892f414;["topology_master"];2.25;1532602421.12541;2.39;10.04;0.0;1500;0;1
7;graphene-88.nancy.grid5000.fr;thermos-root-devel-WordCountTopology-2-79e39764-a486-44ec-9a58-5ba5cebe9cbe;["container_2_Emit_random_words_2"];2.25;1532602421.46684;29.47;105.81;1.923199787;1500;0;1
8;graphene-89.nancy.grid5000.fr;thermos-root-devel-WordCountTopology-1-b24feaac-a051-4568-b286-34963b385e75;["container_1_Consume_and_count_1"];2.25;1532602431.41134;48.3;161.57;1.700063042;1500;0;1
8;graphene-39.nancy.grid5000.fr;thermos-root-devel-WordCountTopology-0-f402a235-0834-4e97-8717-c6d81892f414;["topology_master"];2.25;1532602431.34292;2.42;10.08;0.0;1500;0;1
8;graphene-88.nancy.grid5000.fr;thermos-root-devel-WordCountTopology-2-79e39764-a486-44ec-9a58-5ba5cebe9cbe;["container_2_Emit_random_words_2"];2.25;1532602431.67691;31.55;112.53;1.923199787;1500;0;1
9;graphene-89.nancy.grid5000.fr;thermos-root-devel-WordCountTopology-1-b24feaac-a051-4568-b286-34963b385e75;["container_1_Consume_and_count_1"];2.25;1532602441.62282;51.76;173.12;1.700063042;1500;0;1
9;graphene-39.nancy.grid5000.fr;thermos-root-devel-WordCountTopology-0-f402a235-0834-4e97-8717-c6d81892f414;["topology_master"];2.25;1532602441.56366;2.46;10.14;0.0;1500;0;1
9;graphene-88.nancy.grid5000.fr;thermos-root-devel-WordCountTopology-2-79e39764-a486-44ec-9a58-5ba5cebe9cbe;["container_2_Emit_random_words_2"];2.25;1532602441.88514;33.7;119.52;1.923199787;1500;0;1
10;graphene-89.nancy.grid5000.fr;thermos-root-devel-WordCountTopology-1-b24feaac-a051-4568-b286-34963b385e75;["container_1_Consume_and_count_1"];2.25;1532602451.83494;55.26;184.4;1.700063042;1500;0;1
10;graphene-88.nancy.grid5000.fr;thermos-root-devel-WordCountTopology-2-79e39764-a486-44ec-9a58-5ba5cebe9cbe;["container_2_Emit_random_words_2"];2.25;1532602452.09105;35.88;126.63;1.923199787;1500;0;1
10;graphene-39.nancy.grid5000.fr;thermos-root-devel-WordCountTopology-0-f402a235-0834-4e97-8717-c6d81892f414;["topology_master"];2.25;1532602451.78194;2.49;10.18;0.0;1500;0;1
11;graphene-89.nancy.grid5000.fr;thermos-root-devel-WordCountTopology-1-b24feaac-a051-4568-b286-34963b385e75;["container_1_Consume_and_count_1"];2.25;1532602462.04646;58.79;196.11;1.700063042;1500;0;1
11;graphene-88.nancy.grid5000.fr;thermos-root-devel-WordCountTopology-2-79e39764-a486-44ec-9a58-5ba5cebe9cbe;["container_2_Emit_random_words_2"];2.25;1532602462.29747;38.02;133.41;1.923199787;1500;0;1
11;graphene-39.nancy.grid5000.fr;thermos-root-devel-WordCountTopology-0-f402a235-0834-4e97-8717-c6d81892f414;["topology_master"];2.25;1532602462.00026;2.54;10.25;0.0;1500;0;1
12;graphene-89.nancy.grid5000.fr;thermos-root-devel-WordCountTopology-1-b24feaac-a051-4568-b286-34963b385e75;["container_1_Consume_and_count_1"];2.25;1532602472.25979;62.3;207.68;1.700063042;1500;0;1
12;graphene-39.nancy.grid5000.fr;thermos-root-devel-WordCountTopology-0-f402a235-0834-4e97-8717-c6d81892f414;["topology_master"];2.25;1532602472.21685;2.58;10.36;0.0;1500;0;1
12;graphene-88.nancy.grid5000.fr;thermos-root-devel-WordCountTopology-2-79e39764-a486-44ec-9a58-5ba5cebe9cbe;["container_2_Emit_random_words_2"];2.25;1532602472.50815;40.18;140.48;1.927193847;1500;0;1
13;graphene-88.nancy.grid5000.fr;thermos-root-devel-WordCountTopology-2-79e39764-a486-44ec-9a58-5ba5cebe9cbe;["container_2_Emit_random_words_2"];2.25;1532602482.61212;42.37;147.53;1.927193847;1500;0;1
13;graphene-89.nancy.grid5000.fr;thermos-root-devel-WordCountTopology-1-b24feaac-a051-4568-b286-34963b385e75;["container_1_Consume_and_count_1"];2.25;1532602482.47381;65.83;219.27;1.700063042;1500;0;1
13;graphene-39.nancy.grid5000.fr;thermos-root-devel-WordCountTopology-0-f402a235-0834-4e97-8717-c6d81892f414;["topology_master"];2.25;1532602482.4377;2.62;10.43;0.0;1500;0;1
14;graphene-89.nancy.grid5000.fr;thermos-root-devel-WordCountTopology-1-b24feaac-a051-4568-b286-34963b385e75;["container_1_Consume_and_count_1"];2.25;1532602492.6878;69.4;230.68;1.700063042;1500;0;1
14;graphene-39.nancy.grid5000.fr;thermos-root-devel-WordCountTopology-0-f402a235-0834-4e97-8717-c6d81892f414;["topology_master"];2.25;1532602492.65419;2.64;10.45;0.0;1500;0;1
14;graphene-88.nancy.grid5000.fr;thermos-root-devel-WordCountTopology-2-79e39764-a486-44ec-9a58-5ba5cebe9cbe;["container_2_Emit_random_words_2"];2.25;1532602492.92706;44.55;154.33;1.927193847;1500;0;1
15;graphene-89.nancy.grid5000.fr;thermos-root-devel-WordCountTopology-1-b24feaac-a051-4568-b286-34963b385e75;["container_1_Consume_and_count_1"];2.25;1532602502.80386;72.92;242.0;1.700063042;1500;0;1
15;graphene-39.nancy.grid5000.fr;thermos-root-devel-WordCountTopology-0-f402a235-0834-4e97-8717-c6d81892f414;["topology_master"];2.25;1532602502.8748;2.68;10.51;0.0;1500;0;1
15;graphene-88.nancy.grid5000.fr;thermos-root-devel-WordCountTopology-2-79e39764-a486-44ec-9a58-5ba5cebe9cbe;["container_2_Emit_random_words_2"];2.25;1532602503.13745;46.72;161.21;1.927193847;1500;0;1
16;graphene-88.nancy.grid5000.fr;thermos-root-devel-WordCountTopology-2-79e39764-a486-44ec-9a58-5ba5cebe9cbe;["container_2_Emit_random_words_2"];2.25;1532602513.34429;48.92;168.27;1.927193847;1500;0;1
16;graphene-89.nancy.grid5000.fr;thermos-root-devel-WordCountTopology-1-b24feaac-a051-4568-b286-34963b385e75;["container_1_Consume_and_count_1"];2.25;1532602513.15171;76.49;253.86;1.700063042;1500;0;1
16;graphene-39.nancy.grid5000.fr;thermos-root-devel-WordCountTopology-0-f402a235-0834-4e97-8717-c6d81892f414;["topology_master"];2.25;1532602513.12711;2.71;10.55;0.0;1500;0;1
17;graphene-89.nancy.grid5000.fr;thermos-root-devel-WordCountTopology-1-b24feaac-a051-4568-b286-34963b385e75;["container_1_Consume_and_count_1"];2.25;1532602523.36351;79.99;265.26;1.700063042;1500;0;1
17;graphene-39.nancy.grid5000.fr;thermos-root-devel-WordCountTopology-0-f402a235-0834-4e97-8717-c6d81892f414;["topology_master"];2.25;1532602523.34381;2.78;10.61;0.0;1500;0;1
17;graphene-88.nancy.grid5000.fr;thermos-root-devel-WordCountTopology-2-79e39764-a486-44ec-9a58-5ba5cebe9cbe;["container_2_Emit_random_words_2"];2.25;1532602523.5842;51.2;175.43;1.928487678;1500;0;1
18;graphene-89.nancy.grid5000.fr;thermos-root-devel-WordCountTopology-1-b24feaac-a051-4568-b286-34963b385e75;["container_1_Consume_and_count_1"];2.25;1532602533.47642;83.41;276.75;1.710059559;1500;0;1
18;graphene-39.nancy.grid5000.fr;thermos-root-devel-WordCountTopology-0-f402a235-0834-4e97-8717-c6d81892f414;["topology_master"];2.25;1532602533.56321;2.82;10.72;0.0;1500;0;1
18;graphene-88.nancy.grid5000.fr;thermos-root-devel-WordCountTopology-2-79e39764-a486-44ec-9a58-5ba5cebe9cbe;["container_2_Emit_random_words_2"];2.25;1532602533.79498;53.33;182.25;1.928487678;1500;0;1
19;graphene-89.nancy.grid5000.fr;thermos-root-devel-WordCountTopology-1-b24feaac-a051-4568-b286-34963b385e75;["container_1_Consume_and_count_1"];2.25;1532602543.79172;86.95;288.65;1.710059559;1500;0;1
19;graphene-39.nancy.grid5000.fr;thermos-root-devel-WordCountTopology-0-f402a235-0834-4e97-8717-c6d81892f414;["topology_master"];2.25;1532602543.78391;2.86;10.78;0.0;1500;0;1
19;graphene-88.nancy.grid5000.fr;thermos-root-devel-WordCountTopology-2-79e39764-a486-44ec-9a58-5ba5cebe9cbe;["container_2_Emit_random_words_2"];2.25;1532602544.00246;55.52;189.15;1.928487678;1500;0;1
20;graphene-89.nancy.grid5000.fr;thermos-root-devel-WordCountTopology-1-b24feaac-a051-4568-b286-34963b385e75;["container_1_Consume_and_count_1"];2.25;1532602554.00524;90.35;300.73;1.720869464;1500;0;1
20;graphene-88.nancy.grid5000.fr;thermos-root-devel-WordCountTopology-2-79e39764-a486-44ec-9a58-5ba5cebe9cbe;["container_2_Emit_random_words_2"];2.25;1532602554.20714;57.71;196.23;1.928487678;1500;0;1
20;graphene-39.nancy.grid5000.fr;thermos-root-devel-WordCountTopology-0-f402a235-0834-4e97-8717-c6d81892f414;["topology_master"];2.25;1532602554.00151;2.88;10.8;0.0;1500;0;1
21;graphene-89.nancy.grid5000.fr;thermos-root-devel-WordCountTopology-1-b24feaac-a051-4568-b286-34963b385e75;["container_1_Consume_and_count_1"];2.25;1532602564.21524;93.68;313.7;1.764485747;1500;0;1
21;graphene-88.nancy.grid5000.fr;thermos-root-devel-WordCountTopology-2-79e39764-a486-44ec-9a58-5ba5cebe9cbe;["container_2_Emit_random_words_2"];2.25;1532602564.41567;59.95;203.27;1.928487678;1500;0;1
21;graphene-39.nancy.grid5000.fr;thermos-root-devel-WordCountTopology-0-f402a235-0834-4e97-8717-c6d81892f414;["topology_master"];2.25;1532602564.21868;2.92;10.86;0.0;1500;0;1
22;graphene-89.nancy.grid5000.fr;thermos-root-devel-WordCountTopology-1-b24feaac-a051-4568-b286-34963b385e75;["container_1_Consume_and_count_1"];2.25;1532602574.42726;96.93;327.4;1.827206983;1500;0;1
22;graphene-39.nancy.grid5000.fr;thermos-root-devel-WordCountTopology-0-f402a235-0834-4e97-8717-c6d81892f414;["topology_master"];2.25;1532602574.43529;2.95;10.9;0.0;1500;0;1
22;graphene-88.nancy.grid5000.fr;thermos-root-devel-WordCountTopology-2-79e39764-a486-44ec-9a58-5ba5cebe9cbe;["container_2_Emit_random_words_2"];2.25;1532602574.62585;62.1;210.0;1.93182075;1500;0;1
23;graphene-39.nancy.grid5000.fr;thermos-root-devel-WordCountTopology-0-f402a235-0834-4e97-8717-c6d81892f414;["topology_master"];2.25;1532602584.55653;3.01;10.96;0.0;1500;0;1
23;graphene-89.nancy.grid5000.fr;thermos-root-devel-WordCountTopology-1-b24feaac-a051-4568-b286-34963b385e75;["container_1_Consume_and_count_1"];2.25;1532602584.6438;100.18;341.6;1.905099685;1500;0;1
23;graphene-88.nancy.grid5000.fr;thermos-root-devel-WordCountTopology-2-79e39764-a486-44ec-9a58-5ba5cebe9cbe;["container_2_Emit_random_words_2"];2.25;1532602584.83276;64.3;216.92;1.93182075;1500;0;1
24;graphene-88.nancy.grid5000.fr;thermos-root-devel-WordCountTopology-2-79e39764-a486-44ec-9a58-5ba5cebe9cbe;["container_2_Emit_random_words_2"];2.25;1532602594.93652;66.46;223.83;1.93182075;1500;0;1
24;graphene-89.nancy.grid5000.fr;thermos-root-devel-WordCountTopology-1-b24feaac-a051-4568-b286-34963b385e75;["container_1_Consume_and_count_1"];2.25;1532602594.855;103.31;356.59;2.099212361;1500;0;1
24;graphene-39.nancy.grid5000.fr;thermos-root-devel-WordCountTopology-0-f402a235-0834-4e97-8717-c6d81892f414;["topology_master"];2.25;1532602594.87236;3.04;11.13;0.0;1500;0;1
25;graphene-89.nancy.grid5000.fr;thermos-root-devel-WordCountTopology-1-b24feaac-a051-4568-b286-34963b385e75;["container_1_Consume_and_count_1"];2.25;1532602605.06475;106.43;371.68;2.156234575;1500;0;1
25;graphene-39.nancy.grid5000.fr;thermos-root-devel-WordCountTopology-0-f402a235-0834-4e97-8717-c6d81892f414;["topology_master"];2.25;1532602605.08927;3.08;11.18;0.0;1500;0;1
25;graphene-88.nancy.grid5000.fr;thermos-root-devel-WordCountTopology-2-79e39764-a486-44ec-9a58-5ba5cebe9cbe;["container_2_Emit_random_words_2"];2.25;1532602605.24473;68.74;231.0;1.93182075;1500;0;1
26;graphene-88.nancy.grid5000.fr;thermos-root-devel-WordCountTopology-2-79e39764-a486-44ec-9a58-5ba5cebe9cbe;["container_2_Emit_random_words_2"];2.25;1532602615.45209;71.0;238.1;1.93182075;1500;0;1
26;graphene-39.nancy.grid5000.fr;thermos-root-devel-WordCountTopology-0-f402a235-0834-4e97-8717-c6d81892f414;["topology_master"];2.25;1532602615.30834;3.1;11.21;0.0;1500;0;1
26;graphene-89.nancy.grid5000.fr;thermos-root-devel-WordCountTopology-1-b24feaac-a051-4568-b286-34963b385e75;["container_1_Consume_and_count_1"];2.25;1532602615.29116;109.48;387.11;2.230774144;1500;0;1
27;graphene-89.nancy.grid5000.fr;thermos-root-devel-WordCountTopology-1-b24feaac-a051-4568-b286-34963b385e75;["container_1_Consume_and_count_1"];2.25;1532602625.49976;112.58;402.12;2.349833334;1500;0;1
27;graphene-39.nancy.grid5000.fr;thermos-root-devel-WordCountTopology-0-f402a235-0834-4e97-8717-c6d81892f414;["topology_master"];2.25;1532602625.53323;3.15;11.27;0.0;1500;0;1
27;graphene-88.nancy.grid5000.fr;thermos-root-devel-WordCountTopology-2-79e39764-a486-44ec-9a58-5ba5cebe9cbe;["container_2_Emit_random_words_2"];2.25;1532602625.67093;73.2;244.94;1.93182075;1500;0;1
28;graphene-89.nancy.grid5000.fr;thermos-root-devel-WordCountTopology-1-b24feaac-a051-4568-b286-34963b385e75;["container_1_Consume_and_count_1"];2.25;1532602635.71492;115.65;417.6;2.390642564;1500;0;1
28;graphene-39.nancy.grid5000.fr;thermos-root-devel-WordCountTopology-0-f402a235-0834-4e97-8717-c6d81892f414;["topology_master"];2.25;1532602635.75285;3.19;11.31;0.0;1500;0;1
28;graphene-88.nancy.grid5000.fr;thermos-root-devel-WordCountTopology-2-79e39764-a486-44ec-9a58-5ba5cebe9cbe;["container_2_Emit_random_words_2"];2.25;1532602635.88069;75.35;251.68;1.93182075;1500;0;1
29;graphene-89.nancy.grid5000.fr;thermos-root-devel-WordCountTopology-1-b24feaac-a051-4568-b286-34963b385e75;["container_1_Consume_and_count_1"];2.25;1532602645.82777;118.74;432.7;2.444238573;1500;0;1
29;graphene-88.nancy.grid5000.fr;thermos-root-devel-WordCountTopology-2-79e39764-a486-44ec-9a58-5ba5cebe9cbe;["container_2_Emit_random_words_2"];2.25;1532602646.08671;77.62;258.74;1.93182075;1500;0;1
29;graphene-39.nancy.grid5000.fr;thermos-root-devel-WordCountTopology-0-f402a235-0834-4e97-8717-c6d81892f414;["topology_master"];2.25;1532602645.98784;3.24;11.37;0.0;1500;0;1
30;graphene-39.nancy.grid5000.fr;thermos-root-devel-WordCountTopology-0-f402a235-0834-4e97-8717-c6d81892f414;["topology_master"];2.25;1532602656.15972;3.27;11.48;0.0;1500;0;1
30;graphene-89.nancy.grid5000.fr;thermos-root-devel-WordCountTopology-1-b24feaac-a051-4568-b286-34963b385e75;["container_1_Consume_and_count_1"];2.25;1532602656.15583;121.87;448.29;2.558967553;1500;0;1
30;graphene-88.nancy.grid5000.fr;thermos-root-devel-WordCountTopology-2-79e39764-a486-44ec-9a58-5ba5cebe9cbe;["container_2_Emit_random_words_2"];2.25;1532602656.30879;79.89;266.03;1.932110113;1500;0;1
31;graphene-89.nancy.grid5000.fr;thermos-root-devel-WordCountTopology-1-b24feaac-a051-4568-b286-34963b385e75;["container_1_Consume_and_count_1"];2.25;1532602666.36726;124.99;463.44;2.657837908;1500;0;1
31;graphene-39.nancy.grid5000.fr;thermos-root-devel-WordCountTopology-0-f402a235-0834-4e97-8717-c6d81892f414;["topology_master"];2.25;1532602666.4217;3.31;11.54;0.0;1500;0;1
31;graphene-88.nancy.grid5000.fr;thermos-root-devel-WordCountTopology-2-79e39764-a486-44ec-9a58-5ba5cebe9cbe;["container_2_Emit_random_words_2"];2.25;1532602666.51999;82.08;272.79;1.932110113;1500;0;1
32;graphene-89.nancy.grid5000.fr;thermos-root-devel-WordCountTopology-1-b24feaac-a051-4568-b286-34963b385e75;["container_1_Consume_and_count_1"];2.25;1532602676.58336;128.09;478.79;2.752201907;1500;0;1
32;graphene-39.nancy.grid5000.fr;thermos-root-devel-WordCountTopology-0-f402a235-0834-4e97-8717-c6d81892f414;["topology_master"];2.25;1532602676.64179;3.34;11.58;0.0;1500;0;1
32;graphene-88.nancy.grid5000.fr;thermos-root-devel-WordCountTopology-2-79e39764-a486-44ec-9a58-5ba5cebe9cbe;["container_2_Emit_random_words_2"];2.25;1532602676.72802;84.27;279.52;1.932110113;1500;0;1
33;graphene-89.nancy.grid5000.fr;thermos-root-devel-WordCountTopology-1-b24feaac-a051-4568-b286-34963b385e75;["container_1_Consume_and_count_1"];2.25;1532602686.79585;131.19;494.29;2.851513873;1500;0;1
33;graphene-39.nancy.grid5000.fr;thermos-root-devel-WordCountTopology-0-f402a235-0834-4e97-8717-c6d81892f414;["topology_master"];2.25;1532602686.86012;3.37;11.62;0.0;1500;0;1
33;graphene-88.nancy.grid5000.fr;thermos-root-devel-WordCountTopology-2-79e39764-a486-44ec-9a58-5ba5cebe9cbe;["container_2_Emit_random_words_2"];2.25;1532602686.93463;86.53;286.63;1.934222083;1500;0;1
34;graphene-89.nancy.grid5000.fr;thermos-root-devel-WordCountTopology-1-b24feaac-a051-4568-b286-34963b385e75;["container_1_Consume_and_count_1"];2.25;1532602697.00854;134.25;509.44;2.929408382;1500;0;1
34;graphene-88.nancy.grid5000.fr;thermos-root-devel-WordCountTopology-2-79e39764-a486-44ec-9a58-5ba5cebe9cbe;["container_2_Emit_random_words_2"];2.25;1532602697.14014;88.8;293.75;1.934222083;1500;0;1
34;graphene-39.nancy.grid5000.fr;thermos-root-devel-WordCountTopology-0-f402a235-0834-4e97-8717-c6d81892f414;["topology_master"];2.25;1532602697.07783;3.43;11.7;0.0;1500;0;1
35;graphene-88.nancy.grid5000.fr;thermos-root-devel-WordCountTopology-2-79e39764-a486-44ec-9a58-5ba5cebe9cbe;["container_2_Emit_random_words_2"];2.25;1532602707.2478;90.99;300.61;1.934222083;1500;0;1
35;graphene-89.nancy.grid5000.fr;thermos-root-devel-WordCountTopology-1-b24feaac-a051-4568-b286-34963b385e75;["container_1_Consume_and_count_1"];2.25;1532602707.22108;137.33;524.49;3.097270528;1500;0;1
35;graphene-39.nancy.grid5000.fr;thermos-root-devel-WordCountTopology-0-f402a235-0834-4e97-8717-c6d81892f414;["topology_master"];2.25;1532602707.29446;3.46;11.74;0.0;1500;0;1
36;graphene-89.nancy.grid5000.fr;thermos-root-devel-WordCountTopology-1-b24feaac-a051-4568-b286-34963b385e75;["container_1_Consume_and_count_1"];2.25;1532602717.4313;140.46;539.59;3.215922649;1500;0;1
36;graphene-39.nancy.grid5000.fr;thermos-root-devel-WordCountTopology-0-f402a235-0834-4e97-8717-c6d81892f414;["topology_master"];2.25;1532602717.50962;3.5;11.81;0.0;1500;0;1
36;graphene-88.nancy.grid5000.fr;thermos-root-devel-WordCountTopology-2-79e39764-a486-44ec-9a58-5ba5cebe9cbe;["container_2_Emit_random_words_2"];2.25;1532602717.55683;93.14;307.34;1.934222083;1500;0;1
37;graphene-89.nancy.grid5000.fr;thermos-root-devel-WordCountTopology-1-b24feaac-a051-4568-b286-34963b385e75;["container_1_Consume_and_count_1"];2.25;1532602727.64633;143.57;554.79;3.262004155;1500;0;1
37;graphene-88.nancy.grid5000.fr;thermos-root-devel-WordCountTopology-2-79e39764-a486-44ec-9a58-5ba5cebe9cbe;["container_2_Emit_random_words_2"];2.25;1532602727.76256;95.4;314.39;1.934222083;1500;0;1
37;graphene-39.nancy.grid5000.fr;thermos-root-devel-WordCountTopology-0-f402a235-0834-4e97-8717-c6d81892f414;["topology_master"];2.25;1532602727.7302;3.53;11.85;0.0;1500;0;1
38;graphene-89.nancy.grid5000.fr;thermos-root-devel-WordCountTopology-1-b24feaac-a051-4568-b286-34963b385e75;["container_1_Consume_and_count_1"];2.25;1532602737.86448;146.65;569.87;3.388889846;1500;0;1
38;graphene-39.nancy.grid5000.fr;thermos-root-devel-WordCountTopology-0-f402a235-0834-4e97-8717-c6d81892f414;["topology_master"];2.25;1532602737.95307;3.57;11.91;0.0;1500;0;1
38;graphene-88.nancy.grid5000.fr;thermos-root-devel-WordCountTopology-2-79e39764-a486-44ec-9a58-5ba5cebe9cbe;["container_2_Emit_random_words_2"];2.25;1532602737.97817;97.66;320.93;1.934222083;1500;0;1
39;graphene-89.nancy.grid5000.fr;thermos-root-devel-WordCountTopology-1-b24feaac-a051-4568-b286-34963b385e75;["container_1_Consume_and_count_1"];2.25;1532602748.07746;149.79;585.03;3.443482978;1500;0;1
39;graphene-39.nancy.grid5000.fr;thermos-root-devel-WordCountTopology-0-f402a235-0834-4e97-8717-c6d81892f414;["topology_master"];2.25;1532602748.17267;3.6;11.93;0.0;1500;0;1
39;graphene-88.nancy.grid5000.fr;thermos-root-devel-WordCountTopology-2-79e39764-a486-44ec-9a58-5ba5cebe9cbe;["container_2_Emit_random_words_2"];2.25;1532602748.18824;99.8;327.11;1.934222083;1500;0;1
40;graphene-89.nancy.grid5000.fr;thermos-root-devel-WordCountTopology-1-b24feaac-a051-4568-b286-34963b385e75;["container_1_Consume_and_count_1"];2.25;1532602758.29305;152.9;600.17;3.597018376;1500;0;1
40;graphene-39.nancy.grid5000.fr;thermos-root-devel-WordCountTopology-0-f402a235-0834-4e97-8717-c6d81892f414;["topology_master"];2.25;1532602758.39168;3.66;12.01;0.0;1500;0;1
40;graphene-88.nancy.grid5000.fr;thermos-root-devel-WordCountTopology-2-79e39764-a486-44ec-9a58-5ba5cebe9cbe;["container_2_Emit_random_words_2"];2.25;1532602758.50843;102.04;333.54;1.934222083;1500;0;1
41;graphene-89.nancy.grid5000.fr;thermos-root-devel-WordCountTopology-1-b24feaac-a051-4568-b286-34963b385e75;["container_1_Consume_and_count_1"];2.25;1532602768.51749;156.05;615.37;3.686115721;1500;0;1
41;graphene-88.nancy.grid5000.fr;thermos-root-devel-WordCountTopology-2-79e39764-a486-44ec-9a58-5ba5cebe9cbe;["container_2_Emit_random_words_2"];2.25;1532602768.71223;104.32;340.21;1.934222083;1500;0;1
41;graphene-39.nancy.grid5000.fr;thermos-root-devel-WordCountTopology-0-f402a235-0834-4e97-8717-c6d81892f414;["topology_master"];2.25;1532602768.72238;3.7;12.13;0.0;1500;0;1
42;graphene-89.nancy.grid5000.fr;thermos-root-devel-WordCountTopology-1-b24feaac-a051-4568-b286-34963b385e75;["container_1_Consume_and_count_1"];2.25;1532602778.82899;159.12;631.06;3.742450787;1500;0;1
42;graphene-39.nancy.grid5000.fr;thermos-root-devel-WordCountTopology-0-f402a235-0834-4e97-8717-c6d81892f414;["topology_master"];2.25;1532602778.93887;3.73;12.17;0.0;1500;0;1
42;graphene-88.nancy.grid5000.fr;thermos-root-devel-WordCountTopology-2-79e39764-a486-44ec-9a58-5ba5cebe9cbe;["container_2_Emit_random_words_2"];2.25;1532602778.9231;106.56;346.73;1.934222083;1500;0;1
43;graphene-89.nancy.grid5000.fr;thermos-root-devel-WordCountTopology-1-b24feaac-a051-4568-b286-34963b385e75;["container_1_Consume_and_count_1"];2.25;1532602789.04433;162.21;646.47;3.773391398;1500;0;1
43;graphene-39.nancy.grid5000.fr;thermos-root-devel-WordCountTopology-0-f402a235-0834-4e97-8717-c6d81892f414;["topology_master"];2.25;1532602789.15945;3.76;12.21;0.0;1500;0;1
43;graphene-88.nancy.grid5000.fr;thermos-root-devel-WordCountTopology-2-79e39764-a486-44ec-9a58-5ba5cebe9cbe;["container_2_Emit_random_words_2"];2.25;1532602789.13192;108.73;352.99;1.934222083;1500;0;1
44;graphene-89.nancy.grid5000.fr;thermos-root-devel-WordCountTopology-1-b24feaac-a051-4568-b286-34963b385e75;["container_1_Consume_and_count_1"];2.25;1532602799.15843;165.29;661.2;3.821041788;1500;0;1
44;graphene-39.nancy.grid5000.fr;thermos-root-devel-WordCountTopology-0-f402a235-0834-4e97-8717-c6d81892f414;["topology_master"];2.25;1532602799.37694;3.8;12.26;0.0;1500;0;1
44;graphene-88.nancy.grid5000.fr;thermos-root-devel-WordCountTopology-2-79e39764-a486-44ec-9a58-5ba5cebe9cbe;["container_2_Emit_random_words_2"];2.25;1532602799.3408;110.95;359.39;1.934222083;1500;0;1
45;graphene-39.nancy.grid5000.fr;thermos-root-devel-WordCountTopology-0-f402a235-0834-4e97-8717-c6d81892f414;["topology_master"];2.25;1532602809.49694;3.82;12.29;0.0;1500;0;1
45;graphene-89.nancy.grid5000.fr;thermos-root-devel-WordCountTopology-1-b24feaac-a051-4568-b286-34963b385e75;["container_1_Consume_and_count_1"];2.25;1532602809.47063;168.44;676.66;3.87020431;1500;0;1
45;graphene-88.nancy.grid5000.fr;thermos-root-devel-WordCountTopology-2-79e39764-a486-44ec-9a58-5ba5cebe9cbe;["container_2_Emit_random_words_2"];2.25;1532602809.54684;113.2;365.97;1.934222083;1500;0;1
46;graphene-89.nancy.grid5000.fr;thermos-root-devel-WordCountTopology-1-b24feaac-a051-4568-b286-34963b385e75;["container_1_Consume_and_count_1"];2.25;1532602819.68279;171.53;692.06;3.912791194;1500;0;1
46;graphene-39.nancy.grid5000.fr;thermos-root-devel-WordCountTopology-0-f402a235-0834-4e97-8717-c6d81892f414;["topology_master"];2.25;1532602819.81095;3.87;12.37;0.0;1500;0;1
46;graphene-88.nancy.grid5000.fr;thermos-root-devel-WordCountTopology-2-79e39764-a486-44ec-9a58-5ba5cebe9cbe;["container_2_Emit_random_words_2"];2.25;1532602819.75607;115.47;372.56;1.934222083;1500;0;1
47;graphene-89.nancy.grid5000.fr;thermos-root-devel-WordCountTopology-1-b24feaac-a051-4568-b286-34963b385e75;["container_1_Consume_and_count_1"];2.25;1532602829.89793;174.56;707.39;3.980744522;1500;0;1
47;graphene-39.nancy.grid5000.fr;thermos-root-devel-WordCountTopology-0-f402a235-0834-4e97-8717-c6d81892f414;["topology_master"];2.25;1532602830.0252;3.91;12.44;0.0;1500;0;1
47;graphene-88.nancy.grid5000.fr;thermos-root-devel-WordCountTopology-2-79e39764-a486-44ec-9a58-5ba5cebe9cbe;["container_2_Emit_random_words_2"];2.25;1532602829.96599;117.63;378.82;1.934222083;1500;0;1
48;graphene-89.nancy.grid5000.fr;thermos-root-devel-WordCountTopology-1-b24feaac-a051-4568-b286-34963b385e75;["container_1_Consume_and_count_1"];2.25;1532602840.11172;177.63;722.94;4.019584718;1500;0;1
48;graphene-39.nancy.grid5000.fr;thermos-root-devel-WordCountTopology-0-f402a235-0834-4e97-8717-c6d81892f414;["topology_master"];2.25;1532602840.24009;3.94;12.48;0.0;1500;0;1
48;graphene-88.nancy.grid5000.fr;thermos-root-devel-WordCountTopology-2-79e39764-a486-44ec-9a58-5ba5cebe9cbe;["container_2_Emit_random_words_2"];2.25;1532602840.17561;119.85;385.17;1.934222083;1500;0;1
49;graphene-39.nancy.grid5000.fr;thermos-root-devel-WordCountTopology-0-f402a235-0834-4e97-8717-c6d81892f414;["topology_master"];2.25;1532602850.35339;3.97;12.52;0.0;1500;0;1
49;graphene-89.nancy.grid5000.fr;thermos-root-devel-WordCountTopology-1-b24feaac-a051-4568-b286-34963b385e75;["container_1_Consume_and_count_1"];2.25;1532602850.3262;180.69;738.4;4.082310283;1500;0;1
49;graphene-88.nancy.grid5000.fr;thermos-root-devel-WordCountTopology-2-79e39764-a486-44ec-9a58-5ba5cebe9cbe;["container_2_Emit_random_words_2"];2.25;1532602850.38122;122.13;391.88;1.934222083;1500;0;1
50;graphene-88.nancy.grid5000.fr;thermos-root-devel-WordCountTopology-2-79e39764-a486-44ec-9a58-5ba5cebe9cbe;["container_2_Emit_random_words_2"];2.25;1532602860.48924;124.32;398.34;1.934222083;1500;0;1
50;graphene-89.nancy.grid5000.fr;thermos-root-devel-WordCountTopology-1-b24feaac-a051-4568-b286-34963b385e75;["container_1_Consume_and_count_1"];2.25;1532602860.53794;183.76;753.5;4.112928736;1500;0;1
50;graphene-39.nancy.grid5000.fr;thermos-root-devel-WordCountTopology-0-f402a235-0834-4e97-8717-c6d81892f414;["topology_master"];2.25;1532602860.66558;4.01;12.57;0.0;1500;0;1
51;graphene-89.nancy.grid5000.fr;thermos-root-devel-WordCountTopology-1-b24feaac-a051-4568-b286-34963b385e75;["container_1_Consume_and_count_1"];2.25;1532602870.75118;186.89;768.82;4.169227615;1500;0;1
51;graphene-39.nancy.grid5000.fr;thermos-root-devel-WordCountTopology-0-f402a235-0834-4e97-8717-c6d81892f414;["topology_master"];2.25;1532602870.87794;4.03;12.59;0.0;1500;0;1
51;graphene-88.nancy.grid5000.fr;thermos-root-devel-WordCountTopology-2-79e39764-a486-44ec-9a58-5ba5cebe9cbe;["container_2_Emit_random_words_2"];2.25;1532602870.79851;126.49;404.59;1.934222083;1500;0;1
52;graphene-89.nancy.grid5000.fr;thermos-root-devel-WordCountTopology-1-b24feaac-a051-4568-b286-34963b385e75;["container_1_Consume_and_count_1"];2.25;1532602880.96538;190.06;784.06;4.209341552;1500;0;1
52;graphene-88.nancy.grid5000.fr;thermos-root-devel-WordCountTopology-2-79e39764-a486-44ec-9a58-5ba5cebe9cbe;["container_2_Emit_random_words_2"];2.25;1532602881.00493;128.74;411.13;1.934222083;1500;0;1
52;graphene-39.nancy.grid5000.fr;thermos-root-devel-WordCountTopology-0-f402a235-0834-4e97-8717-c6d81892f414;["topology_master"];2.25;1532602881.09327;4.08;12.66;0.0;1500;0;1
53;graphene-89.nancy.grid5000.fr;thermos-root-devel-WordCountTopology-1-b24feaac-a051-4568-b286-34963b385e75;["container_1_Consume_and_count_1"];2.25;1532602891.17751;193.12;799.44;4.289041618;1500;0;1
53;graphene-88.nancy.grid5000.fr;thermos-root-devel-WordCountTopology-2-79e39764-a486-44ec-9a58-5ba5cebe9cbe;["container_2_Emit_random_words_2"];2.25;1532602891.21034;130.99;417.74;1.934222083;1500;0;1
53;graphene-39.nancy.grid5000.fr;thermos-root-devel-WordCountTopology-0-f402a235-0834-4e97-8717-c6d81892f414;["topology_master"];2.25;1532602891.30496;4.11;12.73;0.0;1500;0;1
54;graphene-89.nancy.grid5000.fr;thermos-root-devel-WordCountTopology-1-b24feaac-a051-4568-b286-34963b385e75;["container_1_Consume_and_count_1"];2.25;1532602901.38984;196.31;814.47;4.330213852;1500;0;1
54;graphene-39.nancy.grid5000.fr;thermos-root-devel-WordCountTopology-0-f402a235-0834-4e97-8717-c6d81892f414;["topology_master"];2.25;1532602901.51707;4.14;12.77;0.0;1500;0;1
54;graphene-88.nancy.grid5000.fr;thermos-root-devel-WordCountTopology-2-79e39764-a486-44ec-9a58-5ba5cebe9cbe;["container_2_Emit_random_words_2"];2.25;1532602901.42219;133.19;424.06;1.934222083;1500;0;1
55;graphene-88.nancy.grid5000.fr;thermos-root-devel-WordCountTopology-2-79e39764-a486-44ec-9a58-5ba5cebe9cbe;["container_2_Emit_random_words_2"];2.25;1532602911.63059;135.36;430.31;1.934222083;1500;0;1
55;graphene-89.nancy.grid5000.fr;thermos-root-devel-WordCountTopology-1-b24feaac-a051-4568-b286-34963b385e75;["container_1_Consume_and_count_1"];2.25;1532602911.62722;199.35;829.91;4.361604661;1500;0;1
55;graphene-39.nancy.grid5000.fr;thermos-root-devel-WordCountTopology-0-f402a235-0834-4e97-8717-c6d81892f414;["topology_master"];2.25;1532602911.75349;4.17;12.81;0.0;1500;0;1
56;graphene-89.nancy.grid5000.fr;thermos-root-devel-WordCountTopology-1-b24feaac-a051-4568-b286-34963b385e75;["container_1_Consume_and_count_1"];2.25;1532602921.8381;202.42;845.31;4.440725156;1500;0;1
56;graphene-88.nancy.grid5000.fr;thermos-root-devel-WordCountTopology-2-79e39764-a486-44ec-9a58-5ba5cebe9cbe;["container_2_Emit_random_words_2"];2.25;1532602921.85737;137.65;436.95;1.934222083;1500;0;1
56;graphene-39.nancy.grid5000.fr;thermos-root-devel-WordCountTopology-0-f402a235-0834-4e97-8717-c6d81892f414;["topology_master"];2.25;1532602921.96564;4.21;12.87;0.0;1500;0;1
57;graphene-89.nancy.grid5000.fr;thermos-root-devel-WordCountTopology-1-b24feaac-a051-4568-b286-34963b385e75;["container_1_Consume_and_count_1"];2.25;1532602932.04932;205.52;860.66;4.529405198;1500;0;1
57;graphene-88.nancy.grid5000.fr;thermos-root-devel-WordCountTopology-2-79e39764-a486-44ec-9a58-5ba5cebe9cbe;["container_2_Emit_random_words_2"];2.25;1532602932.06267;139.91;443.51;1.934222083;1500;0;1
57;graphene-39.nancy.grid5000.fr;thermos-root-devel-WordCountTopology-0-f402a235-0834-4e97-8717-c6d81892f414;["topology_master"];2.25;1532602932.18053;4.23;12.9;0.0;1500;0;1
58;graphene-89.nancy.grid5000.fr;thermos-root-devel-WordCountTopology-1-b24feaac-a051-4568-b286-34963b385e75;["container_1_Consume_and_count_1"];2.25;1532602942.27041;208.61;875.74;4.590490668;1500;0;1
58;graphene-39.nancy.grid5000.fr;thermos-root-devel-WordCountTopology-0-f402a235-0834-4e97-8717-c6d81892f414;["topology_master"];2.25;1532602942.40039;4.28;12.96;0.0;1500;0;1
58;graphene-88.nancy.grid5000.fr;thermos-root-devel-WordCountTopology-2-79e39764-a486-44ec-9a58-5ba5cebe9cbe;["container_2_Emit_random_words_2"];2.25;1532602942.28406;142.04;449.67;1.934222083;1500;0;1
59;graphene-88.nancy.grid5000.fr;thermos-root-devel-WordCountTopology-2-79e39764-a486-44ec-9a58-5ba5cebe9cbe;["container_2_Emit_random_words_2"];2.25;1532602952.39384;144.24;456.06;1.934222083;1500;0;1
59;graphene-89.nancy.grid5000.fr;thermos-root-devel-WordCountTopology-1-b24feaac-a051-4568-b286-34963b385e75;["container_1_Consume_and_count_1"];2.25;1532602952.48605;211.72;891.13;4.655484671;1500;0;1
59;graphene-39.nancy.grid5000.fr;thermos-root-devel-WordCountTopology-0-f402a235-0834-4e97-8717-c6d81892f414;["topology_master"];2.25;1532602952.61526;4.32;13.1;0.0;1500;0;1
60;graphene-88.nancy.grid5000.fr;thermos-root-devel-WordCountTopology-2-79e39764-a486-44ec-9a58-5ba5cebe9cbe;["container_2_Emit_random_words_2"];2.25;1532602962.70063;146.51;462.75;1.934222083;1500;0;1
60;graphene-39.nancy.grid5000.fr;thermos-root-devel-WordCountTopology-0-f402a235-0834-4e97-8717-c6d81892f414;["topology_master"];2.25;1532602962.8336;4.35;13.14;0.0;1500;0;1
60;graphene-89.nancy.grid5000.fr;thermos-root-devel-WordCountTopology-1-b24feaac-a051-4568-b286-34963b385e75;["container_1_Consume_and_count_1"];2.25;1532602962.70872;214.77;906.48;4.709192937;1500;0;1
