mesure_id;slave_id;executor_id;heron_instances;cpus_limit;timestamp_A;cpus_system_time_secs_A;cpus_user_time_secs_A;cpus_throttled_time_secs_A;processes;threads
0;paravance-20.rennes.grid5000.fr;thermos-root-devel-WordCountTopology-2-9da6d294-7ca8-4f3c-b30e-81eb076eb27d;["container_2_Emit_random_words_2"];2.25;1533223679.22837;27.72;106.0;24.354747356;10;149
0;paravance-11.rennes.grid5000.fr;thermos-root-devel-WordCountTopology-1-961ce8e3-2b35-4369-afa5-bec242c6818f;["container_1_Consume_and_count_1"];2.25;1533223679.22263;45.46;166.48;187.055058718;10;152
0;paravance-36.rennes.grid5000.fr;thermos-root-devel-WordCountTopology-0-053c5fe9-0319-4ec7-9de0-f94542ac46aa;["topology_master"];2.25;1533223679.28594;2.41;8.01;1.418500798;9;117
1;paravance-11.rennes.grid5000.fr;thermos-root-devel-WordCountTopology-1-961ce8e3-2b35-4369-afa5-bec242c6818f;["container_1_Consume_and_count_1"];2.25;1533223689.43943;50.14;183.53;207.408362508;10;152
1;paravance-20.rennes.grid5000.fr;thermos-root-devel-WordCountTopology-2-9da6d294-7ca8-4f3c-b30e-81eb076eb27d;["container_2_Emit_random_words_2"];2.25;1533223689.44726;30.3;115.62;24.654108605;10;149
1;paravance-36.rennes.grid5000.fr;thermos-root-devel-WordCountTopology-0-053c5fe9-0319-4ec7-9de0-f94542ac46aa;["topology_master"];2.25;1533223689.5023;2.47;8.14;1.418500798;9;117
2;paravance-11.rennes.grid5000.fr;thermos-root-devel-WordCountTopology-1-961ce8e3-2b35-4369-afa5-bec242c6818f;["container_1_Consume_and_count_1"];2.25;1533223699.65607;54.77;200.7;226.320533662;10;151
2;paravance-36.rennes.grid5000.fr;thermos-root-devel-WordCountTopology-0-053c5fe9-0319-4ec7-9de0-f94542ac46aa;["topology_master"];2.25;1533223699.71805;2.56;8.27;1.418500798;9;117
2;paravance-20.rennes.grid5000.fr;thermos-root-devel-WordCountTopology-2-9da6d294-7ca8-4f3c-b30e-81eb076eb27d;["container_2_Emit_random_words_2"];2.25;1533223699.66341;33.17;125.52;25.063304724;10;149
3;paravance-11.rennes.grid5000.fr;thermos-root-devel-WordCountTopology-1-961ce8e3-2b35-4369-afa5-bec242c6818f;["container_1_Consume_and_count_1"];2.25;1533223709.87576;59.32;217.87;246.064708558;10;151
3;paravance-20.rennes.grid5000.fr;thermos-root-devel-WordCountTopology-2-9da6d294-7ca8-4f3c-b30e-81eb076eb27d;["container_2_Emit_random_words_2"];2.25;1533223709.78197;35.76;134.95;25.503729571;10;149
3;paravance-36.rennes.grid5000.fr;thermos-root-devel-WordCountTopology-0-053c5fe9-0319-4ec7-9de0-f94542ac46aa;["topology_master"];2.25;1533223709.93805;2.59;8.32;1.418500798;9;117
4;paravance-20.rennes.grid5000.fr;thermos-root-devel-WordCountTopology-2-9da6d294-7ca8-4f3c-b30e-81eb076eb27d;["container_2_Emit_random_words_2"];2.25;1533223720.09995;38.67;144.95;26.066793811;10;149
4;paravance-36.rennes.grid5000.fr;thermos-root-devel-WordCountTopology-0-053c5fe9-0319-4ec7-9de0-f94542ac46aa;["topology_master"];2.25;1533223720.15465;2.67;8.45;1.418500798;9;117
5;paravance-11.rennes.grid5000.fr;thermos-root-devel-WordCountTopology-1-961ce8e3-2b35-4369-afa5-bec242c6818f;["container_1_Consume_and_count_1"];2.25;1533223730.30922;68.87;251.69;286.112580961;10;151
5;paravance-20.rennes.grid5000.fr;thermos-root-devel-WordCountTopology-2-9da6d294-7ca8-4f3c-b30e-81eb076eb27d;["container_2_Emit_random_words_2"];2.25;1533223730.31775;41.37;153.72;26.441225755;10;149
5;paravance-36.rennes.grid5000.fr;thermos-root-devel-WordCountTopology-0-053c5fe9-0319-4ec7-9de0-f94542ac46aa;["topology_master"];2.25;1533223730.3716;2.73;8.52;1.418500798;9;117
6;paravance-11.rennes.grid5000.fr;thermos-root-devel-WordCountTopology-1-961ce8e3-2b35-4369-afa5-bec242c6818f;["container_1_Consume_and_count_1"];2.25;1533223740.42774;73.39;268.56;305.48009618;10;151
6;paravance-20.rennes.grid5000.fr;thermos-root-devel-WordCountTopology-2-9da6d294-7ca8-4f3c-b30e-81eb076eb27d;["container_2_Emit_random_words_2"];2.25;1533223740.53503;44.27;163.68;26.911967661;10;149
6;paravance-36.rennes.grid5000.fr;thermos-root-devel-WordCountTopology-0-053c5fe9-0319-4ec7-9de0-f94542ac46aa;["topology_master"];2.25;1533223740.59002;2.81;8.67;1.418500798;9;117
7;paravance-36.rennes.grid5000.fr;thermos-root-devel-WordCountTopology-0-053c5fe9-0319-4ec7-9de0-f94542ac46aa;["topology_master"];2.25;1533223750.80602;2.87;8.75;1.418500798;9;117
7;paravance-20.rennes.grid5000.fr;thermos-root-devel-WordCountTopology-2-9da6d294-7ca8-4f3c-b30e-81eb076eb27d;["container_2_Emit_random_words_2"];2.25;1533223750.75202;46.89;173.0;27.403777445;10;149
7;paravance-11.rennes.grid5000.fr;thermos-root-devel-WordCountTopology-1-961ce8e3-2b35-4369-afa5-bec242c6818f;["container_1_Consume_and_count_1"];2.25;1533223750.74627;78.05;285.81;326.663495774;10;151
8;paravance-36.rennes.grid5000.fr;thermos-root-devel-WordCountTopology-0-053c5fe9-0319-4ec7-9de0-f94542ac46aa;["topology_master"];2.25;1533223761.02367;2.96;8.89;1.418500798;9;117
8;paravance-20.rennes.grid5000.fr;thermos-root-devel-WordCountTopology-2-9da6d294-7ca8-4f3c-b30e-81eb076eb27d;["container_2_Emit_random_words_2"];2.25;1533223760.97088;49.5;181.95;27.72628899;10;149
8;paravance-11.rennes.grid5000.fr;thermos-root-devel-WordCountTopology-1-961ce8e3-2b35-4369-afa5-bec242c6818f;["container_1_Consume_and_count_1"];2.25;1533223760.96391;82.69;302.96;347.389808141;10;151
9;paravance-11.rennes.grid5000.fr;thermos-root-devel-WordCountTopology-1-961ce8e3-2b35-4369-afa5-bec242c6818f;["container_1_Consume_and_count_1"];2.25;1533223771.1822;87.29;320.03;367.827799751;10;151
9;paravance-36.rennes.grid5000.fr;thermos-root-devel-WordCountTopology-0-053c5fe9-0319-4ec7-9de0-f94542ac46aa;["topology_master"];2.25;1533223771.24416;3.0;8.93;1.418500798;9;117
9;paravance-20.rennes.grid5000.fr;thermos-root-devel-WordCountTopology-2-9da6d294-7ca8-4f3c-b30e-81eb076eb27d;["container_2_Emit_random_words_2"];2.25;1533223771.19007;51.98;190.68;28.00292979;10;149
10;paravance-11.rennes.grid5000.fr;thermos-root-devel-WordCountTopology-1-961ce8e3-2b35-4369-afa5-bec242c6818f;["container_1_Consume_and_count_1"];2.25;1533223781.40055;91.74;337.21;387.893780446;10;151
10;paravance-36.rennes.grid5000.fr;thermos-root-devel-WordCountTopology-0-053c5fe9-0319-4ec7-9de0-f94542ac46aa;["topology_master"];2.25;1533223781.46215;3.09;9.04;1.418500798;9;117
10;paravance-20.rennes.grid5000.fr;thermos-root-devel-WordCountTopology-2-9da6d294-7ca8-4f3c-b30e-81eb076eb27d;["container_2_Emit_random_words_2"];2.25;1533223781.40888;54.63;200.58;28.675833853;10;149
11;paravance-36.rennes.grid5000.fr;thermos-root-devel-WordCountTopology-0-053c5fe9-0319-4ec7-9de0-f94542ac46aa;["topology_master"];2.25;1533223791.67981;3.15;9.11;1.418500798;9;117
11;paravance-20.rennes.grid5000.fr;thermos-root-devel-WordCountTopology-2-9da6d294-7ca8-4f3c-b30e-81eb076eb27d;["container_2_Emit_random_words_2"];2.25;1533223791.62566;57.2;209.54;28.918815233;10;149
11;paravance-11.rennes.grid5000.fr;thermos-root-devel-WordCountTopology-1-961ce8e3-2b35-4369-afa5-bec242c6818f;["container_1_Consume_and_count_1"];2.25;1533223791.61885;96.07;354.6;410.452160248;10;151
12;paravance-11.rennes.grid5000.fr;thermos-root-devel-WordCountTopology-1-961ce8e3-2b35-4369-afa5-bec242c6818f;["container_1_Consume_and_count_1"];2.25;1533223801.83774;100.5;371.89;432.318103208;10;151
12;paravance-36.rennes.grid5000.fr;thermos-root-devel-WordCountTopology-0-053c5fe9-0319-4ec7-9de0-f94542ac46aa;["topology_master"];2.25;1533223801.89981;3.27;9.43;1.418500798;9;117
12;paravance-20.rennes.grid5000.fr;thermos-root-devel-WordCountTopology-2-9da6d294-7ca8-4f3c-b30e-81eb076eb27d;["container_2_Emit_random_words_2"];2.25;1533223801.84548;59.79;218.51;29.221831724;10;149
13;paravance-11.rennes.grid5000.fr;thermos-root-devel-WordCountTopology-1-961ce8e3-2b35-4369-afa5-bec242c6818f;["container_1_Consume_and_count_1"];2.25;1533223812.05616;105.01;389.04;452.389687781;10;151
13;paravance-36.rennes.grid5000.fr;thermos-root-devel-WordCountTopology-0-053c5fe9-0319-4ec7-9de0-f94542ac46aa;["topology_master"];2.25;1533223812.1177;3.3;9.46;1.418500798;9;117
13;paravance-20.rennes.grid5000.fr;thermos-root-devel-WordCountTopology-2-9da6d294-7ca8-4f3c-b30e-81eb076eb27d;["container_2_Emit_random_words_2"];2.25;1533223812.06447;62.42;227.34;29.532606184;10;149
14;paravance-11.rennes.grid5000.fr;thermos-root-devel-WordCountTopology-1-961ce8e3-2b35-4369-afa5-bec242c6818f;["container_1_Consume_and_count_1"];2.25;1533223822.27055;109.46;406.19;474.323325519;10;151
14;paravance-36.rennes.grid5000.fr;thermos-root-devel-WordCountTopology-0-053c5fe9-0319-4ec7-9de0-f94542ac46aa;["topology_master"];2.25;1533223822.33168;3.4;9.6;1.418500798;9;117
14;paravance-20.rennes.grid5000.fr;thermos-root-devel-WordCountTopology-2-9da6d294-7ca8-4f3c-b30e-81eb076eb27d;["container_2_Emit_random_words_2"];2.25;1533223822.27763;65.03;236.69;29.96977342;10;149
15;paravance-11.rennes.grid5000.fr;thermos-root-devel-WordCountTopology-1-961ce8e3-2b35-4369-afa5-bec242c6818f;["container_1_Consume_and_count_1"];2.25;1533223832.48538;113.87;423.64;494.83495035;10;151
15;paravance-36.rennes.grid5000.fr;thermos-root-devel-WordCountTopology-0-053c5fe9-0319-4ec7-9de0-f94542ac46aa;["topology_master"];2.25;1533223832.54842;3.46;9.68;1.418500798;9;117
15;paravance-20.rennes.grid5000.fr;thermos-root-devel-WordCountTopology-2-9da6d294-7ca8-4f3c-b30e-81eb076eb27d;["container_2_Emit_random_words_2"];2.25;1533223832.49565;67.58;245.54;30.359000123;10;149
16;paravance-11.rennes.grid5000.fr;thermos-root-devel-WordCountTopology-1-961ce8e3-2b35-4369-afa5-bec242c6818f;["container_1_Consume_and_count_1"];2.25;1533223842.70353;118.2;441.09;518.082790067;10;151
16;paravance-20.rennes.grid5000.fr;thermos-root-devel-WordCountTopology-2-9da6d294-7ca8-4f3c-b30e-81eb076eb27d;["container_2_Emit_random_words_2"];2.25;1533223842.7116;70.14;254.16;30.650152875;10;149
16;paravance-36.rennes.grid5000.fr;thermos-root-devel-WordCountTopology-0-053c5fe9-0319-4ec7-9de0-f94542ac46aa;["topology_master"];2.25;1533223842.76498;3.52;9.77;1.418500798;9;117
17;paravance-20.rennes.grid5000.fr;thermos-root-devel-WordCountTopology-2-9da6d294-7ca8-4f3c-b30e-81eb076eb27d;["container_2_Emit_random_words_2"];2.25;1533223852.92948;72.57;263.04;30.971644167;10;149
17;paravance-36.rennes.grid5000.fr;thermos-root-devel-WordCountTopology-0-053c5fe9-0319-4ec7-9de0-f94542ac46aa;["topology_master"];2.25;1533223852.98462;3.57;9.84;1.418500798;9;117
17;paravance-11.rennes.grid5000.fr;thermos-root-devel-WordCountTopology-1-961ce8e3-2b35-4369-afa5-bec242c6818f;["container_1_Consume_and_count_1"];2.25;1533223852.92222;122.55;458.43;539.807271145;10;151
18;paravance-36.rennes.grid5000.fr;thermos-root-devel-WordCountTopology-0-053c5fe9-0319-4ec7-9de0-f94542ac46aa;["topology_master"];2.25;1533223863.2014;3.68;10.04;1.418500798;9;117
18;paravance-20.rennes.grid5000.fr;thermos-root-devel-WordCountTopology-2-9da6d294-7ca8-4f3c-b30e-81eb076eb27d;["container_2_Emit_random_words_2"];2.25;1533223863.14842;75.12;271.33;31.32379353;10;149
18;paravance-11.rennes.grid5000.fr;thermos-root-devel-WordCountTopology-1-961ce8e3-2b35-4369-afa5-bec242c6818f;["container_1_Consume_and_count_1"];2.25;1533223863.14299;126.96;475.85;560.816149018;10;151
19;paravance-11.rennes.grid5000.fr;thermos-root-devel-WordCountTopology-1-961ce8e3-2b35-4369-afa5-bec242c6818f;["container_1_Consume_and_count_1"];2.25;1533223873.35794;131.44;493.17;581.13632348;10;151
19;paravance-36.rennes.grid5000.fr;thermos-root-devel-WordCountTopology-0-053c5fe9-0319-4ec7-9de0-f94542ac46aa;["topology_master"];2.25;1533223873.41969;3.71;10.07;1.418500798;9;117
19;paravance-20.rennes.grid5000.fr;thermos-root-devel-WordCountTopology-2-9da6d294-7ca8-4f3c-b30e-81eb076eb27d;["container_2_Emit_random_words_2"];2.25;1533223873.36631;77.54;280.25;31.668977108;10;149
20;paravance-11.rennes.grid5000.fr;thermos-root-devel-WordCountTopology-1-961ce8e3-2b35-4369-afa5-bec242c6818f;["container_1_Consume_and_count_1"];2.25;1533223883.57402;135.97;510.45;602.522300902;10;151
20;paravance-20.rennes.grid5000.fr;thermos-root-devel-WordCountTopology-2-9da6d294-7ca8-4f3c-b30e-81eb076eb27d;["container_2_Emit_random_words_2"];2.25;1533223883.58359;80.16;289.48;32.052603444;10;149
20;paravance-36.rennes.grid5000.fr;thermos-root-devel-WordCountTopology-0-053c5fe9-0319-4ec7-9de0-f94542ac46aa;["topology_master"];2.25;1533223883.6379;3.8;10.2;1.418500798;9;117
21;paravance-20.rennes.grid5000.fr;thermos-root-devel-WordCountTopology-2-9da6d294-7ca8-4f3c-b30e-81eb076eb27d;["container_2_Emit_random_words_2"];2.25;1533223893.80031;82.74;298.62;32.364528134;10;149
21;paravance-11.rennes.grid5000.fr;thermos-root-devel-WordCountTopology-1-961ce8e3-2b35-4369-afa5-bec242c6818f;["container_1_Consume_and_count_1"];2.25;1533223893.79334;140.34;527.82;624.015617692;10;151
21;paravance-36.rennes.grid5000.fr;thermos-root-devel-WordCountTopology-0-053c5fe9-0319-4ec7-9de0-f94542ac46aa;["topology_master"];2.25;1533223893.85454;3.85;10.26;1.418500798;9;117
22;paravance-11.rennes.grid5000.fr;thermos-root-devel-WordCountTopology-1-961ce8e3-2b35-4369-afa5-bec242c6818f;["container_1_Consume_and_count_1"];2.25;1533223904.01213;144.67;545.11;647.482334182;10;151
22;paravance-20.rennes.grid5000.fr;thermos-root-devel-WordCountTopology-2-9da6d294-7ca8-4f3c-b30e-81eb076eb27d;["container_2_Emit_random_words_2"];2.25;1533223904.01842;85.03;306.68;32.673155729;10;149
22;paravance-36.rennes.grid5000.fr;thermos-root-devel-WordCountTopology-0-053c5fe9-0319-4ec7-9de0-f94542ac46aa;["topology_master"];2.25;1533223904.07231;3.91;10.34;1.418500798;9;117
23;paravance-11.rennes.grid5000.fr;thermos-root-devel-WordCountTopology-1-961ce8e3-2b35-4369-afa5-bec242c6818f;["container_1_Consume_and_count_1"];2.25;1533223914.22722;148.98;562.46;671.054658462;10;151
23;paravance-36.rennes.grid5000.fr;thermos-root-devel-WordCountTopology-0-053c5fe9-0319-4ec7-9de0-f94542ac46aa;["topology_master"];2.25;1533223914.29002;3.97;10.4;1.418500798;9;117
23;paravance-20.rennes.grid5000.fr;thermos-root-devel-WordCountTopology-2-9da6d294-7ca8-4f3c-b30e-81eb076eb27d;["container_2_Emit_random_words_2"];2.25;1533223914.23708;87.42;315.08;33.146971301;10;149
24;paravance-11.rennes.grid5000.fr;thermos-root-devel-WordCountTopology-1-961ce8e3-2b35-4369-afa5-bec242c6818f;["container_1_Consume_and_count_1"];2.25;1533223924.44376;153.34;579.81;693.825696855;10;151
24;paravance-36.rennes.grid5000.fr;thermos-root-devel-WordCountTopology-0-053c5fe9-0319-4ec7-9de0-f94542ac46aa;["topology_master"];2.25;1533223924.50534;4.08;10.58;1.418500798;9;117
24;paravance-20.rennes.grid5000.fr;thermos-root-devel-WordCountTopology-2-9da6d294-7ca8-4f3c-b30e-81eb076eb27d;["container_2_Emit_random_words_2"];2.25;1533223924.45238;89.98;324.13;33.482570885;10;149
25;paravance-11.rennes.grid5000.fr;thermos-root-devel-WordCountTopology-1-961ce8e3-2b35-4369-afa5-bec242c6818f;["container_1_Consume_and_count_1"];2.25;1533223934.66068;157.59;597.46;715.8796498;10;151
25;paravance-20.rennes.grid5000.fr;thermos-root-devel-WordCountTopology-2-9da6d294-7ca8-4f3c-b30e-81eb076eb27d;["container_2_Emit_random_words_2"];2.25;1533223934.6696;92.55;333.24;33.794561628;10;149
25;paravance-36.rennes.grid5000.fr;thermos-root-devel-WordCountTopology-0-053c5fe9-0319-4ec7-9de0-f94542ac46aa;["topology_master"];2.25;1533223934.72283;4.11;10.61;1.418500798;9;117
26;paravance-36.rennes.grid5000.fr;thermos-root-devel-WordCountTopology-0-053c5fe9-0319-4ec7-9de0-f94542ac46aa;["topology_master"];2.25;1533223944.94014;4.19;10.73;1.418500798;9;117
26;paravance-20.rennes.grid5000.fr;thermos-root-devel-WordCountTopology-2-9da6d294-7ca8-4f3c-b30e-81eb076eb27d;["container_2_Emit_random_words_2"];2.25;1533223944.88737;95.08;342.32;34.070748208;10;149
26;paravance-11.rennes.grid5000.fr;thermos-root-devel-WordCountTopology-1-961ce8e3-2b35-4369-afa5-bec242c6818f;["container_1_Consume_and_count_1"];2.25;1533223944.87924;162.03;614.75;737.663205685;10;151
27;paravance-11.rennes.grid5000.fr;thermos-root-devel-WordCountTopology-1-961ce8e3-2b35-4369-afa5-bec242c6818f;["container_1_Consume_and_count_1"];2.25;1533223955.09399;165.55;631.73;756.621269666;10;151
27;paravance-36.rennes.grid5000.fr;thermos-root-devel-WordCountTopology-0-053c5fe9-0319-4ec7-9de0-f94542ac46aa;["topology_master"];2.25;1533223955.15702;4.24;10.79;1.418500798;9;117
27;paravance-20.rennes.grid5000.fr;thermos-root-devel-WordCountTopology-2-9da6d294-7ca8-4f3c-b30e-81eb076eb27d;["container_2_Emit_random_words_2"];2.25;1533223955.10341;97.09;349.77;34.45289733;10;149
28;paravance-11.rennes.grid5000.fr;thermos-root-devel-WordCountTopology-1-961ce8e3-2b35-4369-afa5-bec242c6818f;["container_1_Consume_and_count_1"];2.25;1533223965.30942;168.37;647.6;766.930280085;10;151
28;paravance-20.rennes.grid5000.fr;thermos-root-devel-WordCountTopology-2-9da6d294-7ca8-4f3c-b30e-81eb076eb27d;["container_2_Emit_random_words_2"];2.25;1533223965.3206;98.64;355.41;34.542388032;10;149
28;paravance-36.rennes.grid5000.fr;thermos-root-devel-WordCountTopology-0-053c5fe9-0319-4ec7-9de0-f94542ac46aa;["topology_master"];2.25;1533223965.37244;4.31;10.88;1.418500798;9;117
29;paravance-11.rennes.grid5000.fr;thermos-root-devel-WordCountTopology-1-961ce8e3-2b35-4369-afa5-bec242c6818f;["container_1_Consume_and_count_1"];2.25;1533223975.52883;171.02;663.85;776.379190244;10;151
29;paravance-36.rennes.grid5000.fr;thermos-root-devel-WordCountTopology-0-053c5fe9-0319-4ec7-9de0-f94542ac46aa;["topology_master"];2.25;1533223975.59106;4.42;11.02;1.418500798;9;117
29;paravance-20.rennes.grid5000.fr;thermos-root-devel-WordCountTopology-2-9da6d294-7ca8-4f3c-b30e-81eb076eb27d;["container_2_Emit_random_words_2"];2.25;1533223975.53803;100.38;361.58;34.929523992;10;149
30;paravance-20.rennes.grid5000.fr;thermos-root-devel-WordCountTopology-2-9da6d294-7ca8-4f3c-b30e-81eb076eb27d;["container_2_Emit_random_words_2"];2.25;1533223985.75588;102.39;368.29;35.188231416;10;149
30;paravance-36.rennes.grid5000.fr;thermos-root-devel-WordCountTopology-0-053c5fe9-0319-4ec7-9de0-f94542ac46aa;["topology_master"];2.25;1533223985.80879;4.48;11.14;1.418500798;9;117
30;paravance-11.rennes.grid5000.fr;thermos-root-devel-WordCountTopology-1-961ce8e3-2b35-4369-afa5-bec242c6818f;["container_1_Consume_and_count_1"];2.25;1533223985.74649;174.01;680.94;790.024317686;10;151
31;paravance-11.rennes.grid5000.fr;thermos-root-devel-WordCountTopology-1-961ce8e3-2b35-4369-afa5-bec242c6818f;["container_1_Consume_and_count_1"];2.25;1533223995.96454;177.14;697.55;802.604129005;10;151
31;paravance-20.rennes.grid5000.fr;thermos-root-devel-WordCountTopology-2-9da6d294-7ca8-4f3c-b30e-81eb076eb27d;["container_2_Emit_random_words_2"];2.25;1533223995.97402;104.34;375.6;35.474894061;10;149
31;paravance-36.rennes.grid5000.fr;thermos-root-devel-WordCountTopology-0-053c5fe9-0319-4ec7-9de0-f94542ac46aa;["topology_master"];2.25;1533223996.02707;4.54;11.22;1.418500798;9;117
32;paravance-20.rennes.grid5000.fr;thermos-root-devel-WordCountTopology-2-9da6d294-7ca8-4f3c-b30e-81eb076eb27d;["container_2_Emit_random_words_2"];2.25;1533224006.19162;105.92;381.26;35.575238959;10;149
32;paravance-36.rennes.grid5000.fr;thermos-root-devel-WordCountTopology-0-053c5fe9-0319-4ec7-9de0-f94542ac46aa;["topology_master"];2.25;1533224006.24434;4.59;11.3;1.418500798;9;117
32;paravance-11.rennes.grid5000.fr;thermos-root-devel-WordCountTopology-1-961ce8e3-2b35-4369-afa5-bec242c6818f;["container_1_Consume_and_count_1"];2.25;1533224006.18195;179.96;714.3;813.35702566;10;151
33;paravance-11.rennes.grid5000.fr;thermos-root-devel-WordCountTopology-1-961ce8e3-2b35-4369-afa5-bec242c6818f;["container_1_Consume_and_count_1"];2.25;1533224016.39942;183.11;730.85;825.043961076;10;151
33;paravance-36.rennes.grid5000.fr;thermos-root-devel-WordCountTopology-0-053c5fe9-0319-4ec7-9de0-f94542ac46aa;["topology_master"];2.25;1533224016.46136;4.68;11.42;1.418500798;9;117
33;paravance-20.rennes.grid5000.fr;thermos-root-devel-WordCountTopology-2-9da6d294-7ca8-4f3c-b30e-81eb076eb27d;["container_2_Emit_random_words_2"];2.25;1533224016.40961;107.72;386.95;35.591818485;10;149
34;paravance-20.rennes.grid5000.fr;thermos-root-devel-WordCountTopology-2-9da6d294-7ca8-4f3c-b30e-81eb076eb27d;["container_2_Emit_random_words_2"];2.25;1533224026.62611;109.6;393.1;35.617691712;10;149
34;paravance-36.rennes.grid5000.fr;thermos-root-devel-WordCountTopology-0-053c5fe9-0319-4ec7-9de0-f94542ac46aa;["topology_master"];2.25;1533224026.67906;4.71;11.44;1.418500798;9;117
34;paravance-11.rennes.grid5000.fr;thermos-root-devel-WordCountTopology-1-961ce8e3-2b35-4369-afa5-bec242c6818f;["container_1_Consume_and_count_1"];2.25;1533224026.6178;186.21;747.67;838.6976254;10;151
35;paravance-11.rennes.grid5000.fr;thermos-root-devel-WordCountTopology-1-961ce8e3-2b35-4369-afa5-bec242c6818f;["container_1_Consume_and_count_1"];2.25;1533224036.83455;189.1;764.47;852.020845053;10;151
35;paravance-20.rennes.grid5000.fr;thermos-root-devel-WordCountTopology-2-9da6d294-7ca8-4f3c-b30e-81eb076eb27d;["container_2_Emit_random_words_2"];2.25;1533224036.84535;111.17;398.54;35.761913867;10;149
35;paravance-36.rennes.grid5000.fr;thermos-root-devel-WordCountTopology-0-053c5fe9-0319-4ec7-9de0-f94542ac46aa;["topology_master"];2.25;1533224036.89784;4.8;11.57;1.418500798;9;117
36;paravance-20.rennes.grid5000.fr;thermos-root-devel-WordCountTopology-2-9da6d294-7ca8-4f3c-b30e-81eb076eb27d;["container_2_Emit_random_words_2"];2.25;1533224046.96257;113.15;405.21;35.811926519;10;149
36;paravance-11.rennes.grid5000.fr;thermos-root-devel-WordCountTopology-1-961ce8e3-2b35-4369-afa5-bec242c6818f;["container_1_Consume_and_count_1"];2.25;1533224047.05312;192.26;781.4;865.025092741;10;151
36;paravance-36.rennes.grid5000.fr;thermos-root-devel-WordCountTopology-0-053c5fe9-0319-4ec7-9de0-f94542ac46aa;["topology_master"];2.25;1533224047.11451;4.86;11.7;1.418500798;9;117
37;paravance-11.rennes.grid5000.fr;thermos-root-devel-WordCountTopology-1-961ce8e3-2b35-4369-afa5-bec242c6818f;["container_1_Consume_and_count_1"];2.25;1533224057.16872;195.2;797.92;877.457646341;10;151
37;paravance-20.rennes.grid5000.fr;thermos-root-devel-WordCountTopology-2-9da6d294-7ca8-4f3c-b30e-81eb076eb27d;["container_2_Emit_random_words_2"];2.25;1533224057.27927;114.79;410.3;35.838161016;10;149
37;paravance-36.rennes.grid5000.fr;thermos-root-devel-WordCountTopology-0-053c5fe9-0319-4ec7-9de0-f94542ac46aa;["topology_master"];2.25;1533224057.33118;4.92;11.77;1.418500798;9;117
38;paravance-11.rennes.grid5000.fr;thermos-root-devel-WordCountTopology-1-961ce8e3-2b35-4369-afa5-bec242c6818f;["container_1_Consume_and_count_1"];2.25;1533224067.48536;198.03;814.61;889.205055749;10;151
38;paravance-20.rennes.grid5000.fr;thermos-root-devel-WordCountTopology-2-9da6d294-7ca8-4f3c-b30e-81eb076eb27d;["container_2_Emit_random_words_2"];2.25;1533224067.49606;116.59;416.41;35.993068088;10;149
38;paravance-36.rennes.grid5000.fr;thermos-root-devel-WordCountTopology-0-053c5fe9-0319-4ec7-9de0-f94542ac46aa;["topology_master"];2.25;1533224067.54804;4.98;11.85;1.418500798;9;117
39;paravance-11.rennes.grid5000.fr;thermos-root-devel-WordCountTopology-1-961ce8e3-2b35-4369-afa5-bec242c6818f;["container_1_Consume_and_count_1"];2.25;1533224077.703;200.97;830.91;901.322613191;10;151
39;paravance-36.rennes.grid5000.fr;thermos-root-devel-WordCountTopology-0-053c5fe9-0319-4ec7-9de0-f94542ac46aa;["topology_master"];2.25;1533224077.76461;5.07;11.96;1.418500798;9;117
39;paravance-20.rennes.grid5000.fr;thermos-root-devel-WordCountTopology-2-9da6d294-7ca8-4f3c-b30e-81eb076eb27d;["container_2_Emit_random_words_2"];2.25;1533224077.71291;118.36;422.21;36.073308641;10;149
40;paravance-20.rennes.grid5000.fr;thermos-root-devel-WordCountTopology-2-9da6d294-7ca8-4f3c-b30e-81eb076eb27d;["container_2_Emit_random_words_2"];2.25;1533224087.92983;120.01;427.51;36.105427361;10;149
40;paravance-11.rennes.grid5000.fr;thermos-root-devel-WordCountTopology-1-961ce8e3-2b35-4369-afa5-bec242c6818f;["container_1_Consume_and_count_1"];2.25;1533224087.92231;203.83;847.22;911.926114474;10;151
40;paravance-36.rennes.grid5000.fr;thermos-root-devel-WordCountTopology-0-053c5fe9-0319-4ec7-9de0-f94542ac46aa;["topology_master"];2.25;1533224087.98226;5.09;11.99;1.418500798;9;117
41;paravance-11.rennes.grid5000.fr;thermos-root-devel-WordCountTopology-1-961ce8e3-2b35-4369-afa5-bec242c6818f;["container_1_Consume_and_count_1"];2.25;1533224098.13627;206.86;863.81;923.936156229;10;151
41;paravance-20.rennes.grid5000.fr;thermos-root-devel-WordCountTopology-2-9da6d294-7ca8-4f3c-b30e-81eb076eb27d;["container_2_Emit_random_words_2"];2.25;1533224098.14638;121.9;433.41;36.271050582;10;149
41;paravance-36.rennes.grid5000.fr;thermos-root-devel-WordCountTopology-0-053c5fe9-0319-4ec7-9de0-f94542ac46aa;["topology_master"];2.25;1533224098.19954;5.19;12.12;1.418500798;9;117
42;paravance-11.rennes.grid5000.fr;thermos-root-devel-WordCountTopology-1-961ce8e3-2b35-4369-afa5-bec242c6818f;["container_1_Consume_and_count_1"];2.25;1533224108.35222;209.91;880.51;936.724882032;10;151
42;paravance-20.rennes.grid5000.fr;thermos-root-devel-WordCountTopology-2-9da6d294-7ca8-4f3c-b30e-81eb076eb27d;["container_2_Emit_random_words_2"];2.25;1533224108.3628;123.57;438.85;36.304031897;10;149
42;paravance-36.rennes.grid5000.fr;thermos-root-devel-WordCountTopology-0-053c5fe9-0319-4ec7-9de0-f94542ac46aa;["topology_master"];2.25;1533224108.41468;5.25;12.22;1.418500798;9;117
43;paravance-11.rennes.grid5000.fr;thermos-root-devel-WordCountTopology-1-961ce8e3-2b35-4369-afa5-bec242c6818f;["container_1_Consume_and_count_1"];2.25;1533224118.56797;212.79;897.23;947.973570474;10;151
43;paravance-20.rennes.grid5000.fr;thermos-root-devel-WordCountTopology-2-9da6d294-7ca8-4f3c-b30e-81eb076eb27d;["container_2_Emit_random_words_2"];2.25;1533224118.5799;125.23;444.21;36.329767999;10;149
43;paravance-36.rennes.grid5000.fr;thermos-root-devel-WordCountTopology-0-053c5fe9-0319-4ec7-9de0-f94542ac46aa;["topology_master"];2.25;1533224118.63141;5.34;12.33;1.418500798;9;117
44;paravance-20.rennes.grid5000.fr;thermos-root-devel-WordCountTopology-2-9da6d294-7ca8-4f3c-b30e-81eb076eb27d;["container_2_Emit_random_words_2"];2.25;1533224128.7952;126.91;449.64;36.34909441;10;149
44;paravance-11.rennes.grid5000.fr;thermos-root-devel-WordCountTopology-1-961ce8e3-2b35-4369-afa5-bec242c6818f;["container_1_Consume_and_count_1"];2.25;1533224128.7827;215.66;914.2;960.348407746;10;151
44;paravance-36.rennes.grid5000.fr;thermos-root-devel-WordCountTopology-0-053c5fe9-0319-4ec7-9de0-f94542ac46aa;["topology_master"];2.25;1533224128.8461;5.37;12.37;1.418500798;9;117
45;paravance-20.rennes.grid5000.fr;thermos-root-devel-WordCountTopology-2-9da6d294-7ca8-4f3c-b30e-81eb076eb27d;["container_2_Emit_random_words_2"];2.25;1533224138.90873;128.76;455.87;36.353428602;10;149
45;paravance-11.rennes.grid5000.fr;thermos-root-devel-WordCountTopology-1-961ce8e3-2b35-4369-afa5-bec242c6818f;["container_1_Consume_and_count_1"];2.25;1533224138.99826;218.76;930.63;972.2523802;10;151
45;paravance-36.rennes.grid5000.fr;thermos-root-devel-WordCountTopology-0-053c5fe9-0319-4ec7-9de0-f94542ac46aa;["topology_master"];2.25;1533224139.05992;5.45;12.48;1.418500798;9;117
46;paravance-11.rennes.grid5000.fr;thermos-root-devel-WordCountTopology-1-961ce8e3-2b35-4369-afa5-bec242c6818f;["container_1_Consume_and_count_1"];2.25;1533224149.21216;221.65;947.16;982.999278119;10;151
46;paravance-36.rennes.grid5000.fr;thermos-root-devel-WordCountTopology-0-053c5fe9-0319-4ec7-9de0-f94542ac46aa;["topology_master"];2.25;1533224149.27409;5.51;12.55;1.418500798;9;117
46;paravance-20.rennes.grid5000.fr;thermos-root-devel-WordCountTopology-2-9da6d294-7ca8-4f3c-b30e-81eb076eb27d;["container_2_Emit_random_words_2"];2.25;1533224149.22418;130.34;461.4;36.364595502;10;149
47;paravance-11.rennes.grid5000.fr;thermos-root-devel-WordCountTopology-1-961ce8e3-2b35-4369-afa5-bec242c6818f;["container_1_Consume_and_count_1"];2.25;1533224159.43025;224.63;963.98;994.07996661;10;151
47;paravance-36.rennes.grid5000.fr;thermos-root-devel-WordCountTopology-0-053c5fe9-0319-4ec7-9de0-f94542ac46aa;["topology_master"];2.25;1533224159.48995;5.58;12.64;1.418500798;9;117
47;paravance-20.rennes.grid5000.fr;thermos-root-devel-WordCountTopology-2-9da6d294-7ca8-4f3c-b30e-81eb076eb27d;["container_2_Emit_random_words_2"];2.25;1533224159.43932;131.94;466.59;36.377771803;10;149
48;paravance-11.rennes.grid5000.fr;thermos-root-devel-WordCountTopology-1-961ce8e3-2b35-4369-afa5-bec242c6818f;["container_1_Consume_and_count_1"];2.25;1533224169.64528;227.74;980.75;1007.332870866;10;151
48;paravance-36.rennes.grid5000.fr;thermos-root-devel-WordCountTopology-0-053c5fe9-0319-4ec7-9de0-f94542ac46aa;["topology_master"];2.25;1533224169.70769;5.64;12.79;1.418500798;9;117
48;paravance-20.rennes.grid5000.fr;thermos-root-devel-WordCountTopology-2-9da6d294-7ca8-4f3c-b30e-81eb076eb27d;["container_2_Emit_random_words_2"];2.25;1533224169.65742;133.71;472.47;36.4565244;10;149
49;paravance-36.rennes.grid5000.fr;thermos-root-devel-WordCountTopology-0-053c5fe9-0319-4ec7-9de0-f94542ac46aa;["topology_master"];2.25;1533224179.82229;5.73;12.92;1.418500798;9;117
49;paravance-11.rennes.grid5000.fr;thermos-root-devel-WordCountTopology-1-961ce8e3-2b35-4369-afa5-bec242c6818f;["container_1_Consume_and_count_1"];2.25;1533224179.86067;230.9;997.66;1020.034783455;10;151
49;paravance-20.rennes.grid5000.fr;thermos-root-devel-WordCountTopology-2-9da6d294-7ca8-4f3c-b30e-81eb076eb27d;["container_2_Emit_random_words_2"];2.25;1533224179.87169;135.72;478.97;36.619574478;10;149
50;paravance-20.rennes.grid5000.fr;thermos-root-devel-WordCountTopology-2-9da6d294-7ca8-4f3c-b30e-81eb076eb27d;["container_2_Emit_random_words_2"];2.25;1533224190.08771;137.48;484.57;36.651736609;10;149
50;paravance-11.rennes.grid5000.fr;thermos-root-devel-WordCountTopology-1-961ce8e3-2b35-4369-afa5-bec242c6818f;["container_1_Consume_and_count_1"];2.25;1533224190.07683;234.01;1014.46;1030.61100553;10;151
50;paravance-36.rennes.grid5000.fr;thermos-root-devel-WordCountTopology-0-053c5fe9-0319-4ec7-9de0-f94542ac46aa;["topology_master"];2.25;1533224190.13925;5.76;12.95;1.418500798;9;117
51;paravance-11.rennes.grid5000.fr;thermos-root-devel-WordCountTopology-1-961ce8e3-2b35-4369-afa5-bec242c6818f;["container_1_Consume_and_count_1"];2.25;1533224200.29132;237.55;1031.09;1043.567943789;10;151
51;paravance-36.rennes.grid5000.fr;thermos-root-devel-WordCountTopology-0-053c5fe9-0319-4ec7-9de0-f94542ac46aa;["topology_master"];2.25;1533224200.35393;5.85;13.08;1.418500798;9;117
51;paravance-20.rennes.grid5000.fr;thermos-root-devel-WordCountTopology-2-9da6d294-7ca8-4f3c-b30e-81eb076eb27d;["container_2_Emit_random_words_2"];2.25;1533224200.30315;139.56;491.49;36.80583902;10;149
52;paravance-11.rennes.grid5000.fr;thermos-root-devel-WordCountTopology-1-961ce8e3-2b35-4369-afa5-bec242c6818f;["container_1_Consume_and_count_1"];2.25;1533224210.50723;240.6;1048.09;1056.189900497;10;151
52;paravance-36.rennes.grid5000.fr;thermos-root-devel-WordCountTopology-0-053c5fe9-0319-4ec7-9de0-f94542ac46aa;["topology_master"];2.25;1533224210.57033;5.9;13.15;1.418500798;9;117
52;paravance-20.rennes.grid5000.fr;thermos-root-devel-WordCountTopology-2-9da6d294-7ca8-4f3c-b30e-81eb076eb27d;["container_2_Emit_random_words_2"];2.25;1533224210.51942;141.32;497.24;36.881028652;10;149
53;paravance-11.rennes.grid5000.fr;thermos-root-devel-WordCountTopology-1-961ce8e3-2b35-4369-afa5-bec242c6818f;["container_1_Consume_and_count_1"];2.25;1533224220.72606;243.62;1064.73;1069.058445795;10;151
53;paravance-36.rennes.grid5000.fr;thermos-root-devel-WordCountTopology-0-053c5fe9-0319-4ec7-9de0-f94542ac46aa;["topology_master"];2.25;1533224220.78683;5.98;13.27;1.418500798;9;117
53;paravance-20.rennes.grid5000.fr;thermos-root-devel-WordCountTopology-2-9da6d294-7ca8-4f3c-b30e-81eb076eb27d;["container_2_Emit_random_words_2"];2.25;1533224220.73547;143.22;503.88;36.96958538;10;149
54;paravance-11.rennes.grid5000.fr;thermos-root-devel-WordCountTopology-1-961ce8e3-2b35-4369-afa5-bec242c6818f;["container_1_Consume_and_count_1"];2.25;1533224230.94286;246.43;1081.24;1078.570671188;10;151
54;paravance-20.rennes.grid5000.fr;thermos-root-devel-WordCountTopology-2-9da6d294-7ca8-4f3c-b30e-81eb076eb27d;["container_2_Emit_random_words_2"];2.25;1533224230.95282;144.94;509.32;37.061624851;10;149
54;paravance-36.rennes.grid5000.fr;thermos-root-devel-WordCountTopology-0-053c5fe9-0319-4ec7-9de0-f94542ac46aa;["topology_master"];2.25;1533224231.00443;6.03;13.33;1.418500798;9;117
55;paravance-11.rennes.grid5000.fr;thermos-root-devel-WordCountTopology-1-961ce8e3-2b35-4369-afa5-bec242c6818f;["container_1_Consume_and_count_1"];2.25;1533224241.15736;249.43;1097.76;1090.620701593;10;151
55;paravance-36.rennes.grid5000.fr;thermos-root-devel-WordCountTopology-0-053c5fe9-0319-4ec7-9de0-f94542ac46aa;["topology_master"];2.25;1533224241.22081;6.12;13.46;1.418500798;9;117
55;paravance-20.rennes.grid5000.fr;thermos-root-devel-WordCountTopology-2-9da6d294-7ca8-4f3c-b30e-81eb076eb27d;["container_2_Emit_random_words_2"];2.25;1533224241.16951;146.99;515.77;37.147432397;10;149
56;paravance-11.rennes.grid5000.fr;thermos-root-devel-WordCountTopology-1-961ce8e3-2b35-4369-afa5-bec242c6818f;["container_1_Consume_and_count_1"];2.25;1533224251.37593;253.03;1114.63;1105.433232273;10;151
56;paravance-20.rennes.grid5000.fr;thermos-root-devel-WordCountTopology-2-9da6d294-7ca8-4f3c-b30e-81eb076eb27d;["container_2_Emit_random_words_2"];2.25;1533224251.38797;148.88;521.66;37.184451834;10;149
56;paravance-36.rennes.grid5000.fr;thermos-root-devel-WordCountTopology-0-053c5fe9-0319-4ec7-9de0-f94542ac46aa;["topology_master"];2.25;1533224251.43731;6.15;13.48;1.418500798;9;117
57;paravance-11.rennes.grid5000.fr;thermos-root-devel-WordCountTopology-1-961ce8e3-2b35-4369-afa5-bec242c6818f;["container_1_Consume_and_count_1"];2.25;1533224261.59357;257.57;1131.73;1125.157294779;10;151
57;paravance-36.rennes.grid5000.fr;thermos-root-devel-WordCountTopology-0-053c5fe9-0319-4ec7-9de0-f94542ac46aa;["topology_master"];2.25;1533224261.65535;6.24;13.6;1.418500798;9;117
57;paravance-20.rennes.grid5000.fr;thermos-root-devel-WordCountTopology-2-9da6d294-7ca8-4f3c-b30e-81eb076eb27d;["container_2_Emit_random_words_2"];2.25;1533224261.60412;151.51;530.3;37.397320729;10;149
58;paravance-11.rennes.grid5000.fr;thermos-root-devel-WordCountTopology-1-961ce8e3-2b35-4369-afa5-bec242c6818f;["container_1_Consume_and_count_1"];2.25;1533224271.80974;262.09;1148.76;1145.37505113;10;151
58;paravance-36.rennes.grid5000.fr;thermos-root-devel-WordCountTopology-0-053c5fe9-0319-4ec7-9de0-f94542ac46aa;["topology_master"];2.25;1533224271.87307;6.29;13.68;1.418500798;9;117
58;paravance-20.rennes.grid5000.fr;thermos-root-devel-WordCountTopology-2-9da6d294-7ca8-4f3c-b30e-81eb076eb27d;["container_2_Emit_random_words_2"];2.25;1533224271.82233;154.08;538.35;37.499995901;10;149
59;paravance-36.rennes.grid5000.fr;thermos-root-devel-WordCountTopology-0-053c5fe9-0319-4ec7-9de0-f94542ac46aa;["topology_master"];2.25;1533224282.08825;6.36;13.78;1.418500798;9;117
59;paravance-20.rennes.grid5000.fr;thermos-root-devel-WordCountTopology-2-9da6d294-7ca8-4f3c-b30e-81eb076eb27d;["container_2_Emit_random_words_2"];2.25;1533224282.03793;156.78;547.57;37.57870577;10;149
59;paravance-11.rennes.grid5000.fr;thermos-root-devel-WordCountTopology-1-961ce8e3-2b35-4369-afa5-bec242c6818f;["container_1_Consume_and_count_1"];2.25;1533224282.02933;266.61;1165.96;1166.599829096;10;151
60;paravance-11.rennes.grid5000.fr;thermos-root-devel-WordCountTopology-1-961ce8e3-2b35-4369-afa5-bec242c6818f;["container_1_Consume_and_count_1"];2.25;1533224292.24417;271.15;1183.28;1187.165126054;10;151
60;paravance-20.rennes.grid5000.fr;thermos-root-devel-WordCountTopology-2-9da6d294-7ca8-4f3c-b30e-81eb076eb27d;["container_2_Emit_random_words_2"];2.25;1533224292.25574;159.51;556.8;37.722780253;10;149
60;paravance-36.rennes.grid5000.fr;thermos-root-devel-WordCountTopology-0-053c5fe9-0319-4ec7-9de0-f94542ac46aa;["topology_master"];2.25;1533224292.30621;6.42;13.85;1.418500798;9;117
