mesure_id;slave_id;executor_id;heron_instances;cpus_limit;timestamp_A;cpus_system_time_secs_A;cpus_user_time_secs_A;cpus_throttled_time_secs_A;processes;threads
0;paravance-36.rennes.grid5000.fr;thermos-root-devel-WordCountTopology-2-467602ac-c031-4eb9-8291-2de9139c242b;["container_2_Emit_random_words_2"];2.25;1533338414.71834;22.41;187.67;16.434068131;10;149
0;paravance-1.rennes.grid5000.fr;thermos-root-devel-WordCountTopology-1-88b7e5c8-6d76-40a8-af9a-cb37ce2c2d1e;["container_1_Consume_and_count_1"];2.25;1533338414.79229;32.94;211.6;55.041652641;10;149
0;paravance-6.rennes.grid5000.fr;thermos-root-devel-WordCountTopology-0-906549c2-1ee0-4e6b-b6e0-fca0e567c670;["topology_master"];2.25;1533338414.72157;2.44;8.06;0.214006685;9;117
1;paravance-6.rennes.grid5000.fr;thermos-root-devel-WordCountTopology-0-906549c2-1ee0-4e6b-b6e0-fca0e567c670;["topology_master"];2.25;1533338424.93404;2.51;8.23;0.214006685;9;117
1;paravance-36.rennes.grid5000.fr;thermos-root-devel-WordCountTopology-2-467602ac-c031-4eb9-8291-2de9139c242b;["container_2_Emit_random_words_2"];2.25;1533338424.93154;24.29;203.73;16.668154609;10;149
1;paravance-1.rennes.grid5000.fr;thermos-root-devel-WordCountTopology-1-88b7e5c8-6d76-40a8-af9a-cb37ce2c2d1e;["container_1_Consume_and_count_1"];2.25;1533338425.00708;35.61;229.73;59.408875769;10;149
2;paravance-1.rennes.grid5000.fr;thermos-root-devel-WordCountTopology-1-88b7e5c8-6d76-40a8-af9a-cb37ce2c2d1e;["container_1_Consume_and_count_1"];2.25;1533338435.21572;38.56;247.94;63.918547996;10;149
2;paravance-6.rennes.grid5000.fr;thermos-root-devel-WordCountTopology-0-906549c2-1ee0-4e6b-b6e0-fca0e567c670;["topology_master"];2.25;1533338435.14427;2.6;8.36;0.214006685;9;117
2;paravance-36.rennes.grid5000.fr;thermos-root-devel-WordCountTopology-2-467602ac-c031-4eb9-8291-2de9139c242b;["container_2_Emit_random_words_2"];2.25;1533338435.14165;26.23;220.17;16.941928865;10;149
3;paravance-1.rennes.grid5000.fr;thermos-root-devel-WordCountTopology-1-88b7e5c8-6d76-40a8-af9a-cb37ce2c2d1e;["container_1_Consume_and_count_1"];2.25;1533338445.42581;41.37;266.1;67.484249077;10;149
3;paravance-6.rennes.grid5000.fr;thermos-root-devel-WordCountTopology-0-906549c2-1ee0-4e6b-b6e0-fca0e567c670;["topology_master"];2.25;1533338445.35413;2.63;8.38;0.214006685;9;117
3;paravance-36.rennes.grid5000.fr;thermos-root-devel-WordCountTopology-2-467602ac-c031-4eb9-8291-2de9139c242b;["container_2_Emit_random_words_2"];2.25;1533338445.35322;28.06;236.73;17.05011384;10;149
4;paravance-1.rennes.grid5000.fr;thermos-root-devel-WordCountTopology-1-88b7e5c8-6d76-40a8-af9a-cb37ce2c2d1e;["container_1_Consume_and_count_1"];2.25;1533338455.63329;44.19;284.35;71.699973552;10;149
4;paravance-36.rennes.grid5000.fr;thermos-root-devel-WordCountTopology-2-467602ac-c031-4eb9-8291-2de9139c242b;["container_2_Emit_random_words_2"];2.25;1533338455.561;29.89;252.52;17.271767792;10;149
4;paravance-6.rennes.grid5000.fr;thermos-root-devel-WordCountTopology-0-906549c2-1ee0-4e6b-b6e0-fca0e567c670;["topology_master"];2.25;1533338455.56303;2.72;8.52;0.214006685;9;117
5;paravance-1.rennes.grid5000.fr;thermos-root-devel-WordCountTopology-1-88b7e5c8-6d76-40a8-af9a-cb37ce2c2d1e;["container_1_Consume_and_count_1"];2.25;1533338465.84408;46.87;302.21;75.693518114;10;149
5;paravance-36.rennes.grid5000.fr;thermos-root-devel-WordCountTopology-2-467602ac-c031-4eb9-8291-2de9139c242b;["container_2_Emit_random_words_2"];2.25;1533338465.77039;31.5;266.66;17.336606127;10;149
5;paravance-6.rennes.grid5000.fr;thermos-root-devel-WordCountTopology-0-906549c2-1ee0-4e6b-b6e0-fca0e567c670;["topology_master"];2.25;1533338465.77141;2.78;8.59;0.214006685;9;117
6;paravance-1.rennes.grid5000.fr;thermos-root-devel-WordCountTopology-1-88b7e5c8-6d76-40a8-af9a-cb37ce2c2d1e;["container_1_Consume_and_count_1"];2.25;1533338476.05404;49.61;320.2;81.007861761;10;149
6;paravance-36.rennes.grid5000.fr;thermos-root-devel-WordCountTopology-2-467602ac-c031-4eb9-8291-2de9139c242b;["container_2_Emit_random_words_2"];2.25;1533338475.97858;33.18;281.09;17.633525845;10;149
6;paravance-6.rennes.grid5000.fr;thermos-root-devel-WordCountTopology-0-906549c2-1ee0-4e6b-b6e0-fca0e567c670;["topology_master"];2.25;1533338475.98188;2.88;8.73;0.214006685;9;117
7;paravance-1.rennes.grid5000.fr;thermos-root-devel-WordCountTopology-1-88b7e5c8-6d76-40a8-af9a-cb37ce2c2d1e;["container_1_Consume_and_count_1"];2.25;1533338486.26491;52.4;338.58;85.958367227;10;149
7;paravance-6.rennes.grid5000.fr;thermos-root-devel-WordCountTopology-0-906549c2-1ee0-4e6b-b6e0-fca0e567c670;["topology_master"];2.25;1533338486.19243;2.94;8.92;0.214006685;9;117
7;paravance-36.rennes.grid5000.fr;thermos-root-devel-WordCountTopology-2-467602ac-c031-4eb9-8291-2de9139c242b;["container_2_Emit_random_words_2"];2.25;1533338486.19018;34.92;297.46;18.383218226;10;149
8;paravance-1.rennes.grid5000.fr;thermos-root-devel-WordCountTopology-1-88b7e5c8-6d76-40a8-af9a-cb37ce2c2d1e;["container_1_Consume_and_count_1"];2.25;1533338496.47449;55.23;356.57;91.176358332;10;149
8;paravance-36.rennes.grid5000.fr;thermos-root-devel-WordCountTopology-2-467602ac-c031-4eb9-8291-2de9139c242b;["container_2_Emit_random_words_2"];2.25;1533338496.40048;36.77;313.88;18.74975075;10;149
8;paravance-6.rennes.grid5000.fr;thermos-root-devel-WordCountTopology-0-906549c2-1ee0-4e6b-b6e0-fca0e567c670;["topology_master"];2.25;1533338496.4022;3.03;9.05;0.214006685;9;117
9;paravance-6.rennes.grid5000.fr;thermos-root-devel-WordCountTopology-0-906549c2-1ee0-4e6b-b6e0-fca0e567c670;["topology_master"];2.25;1533338506.61269;3.09;9.12;0.214006685;9;117
9;paravance-1.rennes.grid5000.fr;thermos-root-devel-WordCountTopology-1-88b7e5c8-6d76-40a8-af9a-cb37ce2c2d1e;["container_1_Consume_and_count_1"];2.25;1533338506.68598;57.92;375.09;95.833926018;10;149
9;paravance-36.rennes.grid5000.fr;thermos-root-devel-WordCountTopology-2-467602ac-c031-4eb9-8291-2de9139c242b;["container_2_Emit_random_words_2"];2.25;1533338506.6109;38.51;330.03;19.050018835;10;149
10;paravance-6.rennes.grid5000.fr;thermos-root-devel-WordCountTopology-0-906549c2-1ee0-4e6b-b6e0-fca0e567c670;["topology_master"];2.25;1533338516.82266;3.15;9.2;0.214006685;9;117
10;paravance-1.rennes.grid5000.fr;thermos-root-devel-WordCountTopology-1-88b7e5c8-6d76-40a8-af9a-cb37ce2c2d1e;["container_1_Consume_and_count_1"];2.25;1533338516.89594;60.78;393.55;100.052903783;10;149
10;paravance-36.rennes.grid5000.fr;thermos-root-devel-WordCountTopology-2-467602ac-c031-4eb9-8291-2de9139c242b;["container_2_Emit_random_words_2"];2.25;1533338516.82114;40.4;347.62;19.415599347;10;149
11;paravance-6.rennes.grid5000.fr;thermos-root-devel-WordCountTopology-0-906549c2-1ee0-4e6b-b6e0-fca0e567c670;["topology_master"];2.25;1533338527.03342;3.21;9.27;0.214006685;9;117
11;paravance-36.rennes.grid5000.fr;thermos-root-devel-WordCountTopology-2-467602ac-c031-4eb9-8291-2de9139c242b;["container_2_Emit_random_words_2"];2.25;1533338527.03167;42.15;363.69;19.681891586;10;149
11;paravance-1.rennes.grid5000.fr;thermos-root-devel-WordCountTopology-1-88b7e5c8-6d76-40a8-af9a-cb37ce2c2d1e;["container_1_Consume_and_count_1"];2.25;1533338527.10679;63.51;411.81;104.068260187;10;149
12;paravance-36.rennes.grid5000.fr;thermos-root-devel-WordCountTopology-2-467602ac-c031-4eb9-8291-2de9139c242b;["container_2_Emit_random_words_2"];2.25;1533338537.24238;43.99;379.84;19.953747512;10;149
12;paravance-1.rennes.grid5000.fr;thermos-root-devel-WordCountTopology-1-88b7e5c8-6d76-40a8-af9a-cb37ce2c2d1e;["container_1_Consume_and_count_1"];2.25;1533338537.31722;66.27;430.16;108.007917953;10;149
12;paravance-6.rennes.grid5000.fr;thermos-root-devel-WordCountTopology-0-906549c2-1ee0-4e6b-b6e0-fca0e567c670;["topology_master"];2.25;1533338537.24562;3.34;9.5;0.214006685;9;117
13;paravance-36.rennes.grid5000.fr;thermos-root-devel-WordCountTopology-2-467602ac-c031-4eb9-8291-2de9139c242b;["container_2_Emit_random_words_2"];2.25;1533338547.45311;45.77;395.69;20.075695411;10;149
13;paravance-1.rennes.grid5000.fr;thermos-root-devel-WordCountTopology-1-88b7e5c8-6d76-40a8-af9a-cb37ce2c2d1e;["container_1_Consume_and_count_1"];2.25;1533338547.52875;69.24;447.9;111.592690693;10;149
13;paravance-6.rennes.grid5000.fr;thermos-root-devel-WordCountTopology-0-906549c2-1ee0-4e6b-b6e0-fca0e567c670;["topology_master"];2.25;1533338547.4556;3.37;9.52;0.214006685;9;117
14;paravance-6.rennes.grid5000.fr;thermos-root-devel-WordCountTopology-0-906549c2-1ee0-4e6b-b6e0-fca0e567c670;["topology_master"];2.25;1533338557.6663;3.46;9.65;0.214006685;9;117
14;paravance-36.rennes.grid5000.fr;thermos-root-devel-WordCountTopology-2-467602ac-c031-4eb9-8291-2de9139c242b;["container_2_Emit_random_words_2"];2.25;1533338557.66433;47.56;411.53;20.306515562;10;149
14;paravance-1.rennes.grid5000.fr;thermos-root-devel-WordCountTopology-1-88b7e5c8-6d76-40a8-af9a-cb37ce2c2d1e;["container_1_Consume_and_count_1"];2.25;1533338557.73964;72.12;465.82;115.593455139;10;149
15;paravance-1.rennes.grid5000.fr;thermos-root-devel-WordCountTopology-1-88b7e5c8-6d76-40a8-af9a-cb37ce2c2d1e;["container_1_Consume_and_count_1"];2.25;1533338567.95056;74.75;483.98;119.84181851;10;149
15;paravance-6.rennes.grid5000.fr;thermos-root-devel-WordCountTopology-0-906549c2-1ee0-4e6b-b6e0-fca0e567c670;["topology_master"];2.25;1533338567.87705;3.51;9.73;0.214006685;9;117
15;paravance-36.rennes.grid5000.fr;thermos-root-devel-WordCountTopology-2-467602ac-c031-4eb9-8291-2de9139c242b;["container_2_Emit_random_words_2"];2.25;1533338567.87516;49.28;426.31;20.335569841;10;149
16;paravance-1.rennes.grid5000.fr;thermos-root-devel-WordCountTopology-1-88b7e5c8-6d76-40a8-af9a-cb37ce2c2d1e;["container_1_Consume_and_count_1"];2.25;1533338578.06036;77.46;501.98;124.356610701;10;149
16;paravance-36.rennes.grid5000.fr;thermos-root-devel-WordCountTopology-2-467602ac-c031-4eb9-8291-2de9139c242b;["container_2_Emit_random_words_2"];2.25;1533338578.08427;51.08;441.64;20.4760911;10;149
16;paravance-6.rennes.grid5000.fr;thermos-root-devel-WordCountTopology-0-906549c2-1ee0-4e6b-b6e0-fca0e567c670;["topology_master"];2.25;1533338578.08705;3.57;9.81;0.214006685;9;117
17;paravance-36.rennes.grid5000.fr;thermos-root-devel-WordCountTopology-2-467602ac-c031-4eb9-8291-2de9139c242b;["container_2_Emit_random_words_2"];2.25;1533338588.29407;52.87;457.64;20.659779826;10;149
17;paravance-1.rennes.grid5000.fr;thermos-root-devel-WordCountTopology-1-88b7e5c8-6d76-40a8-af9a-cb37ce2c2d1e;["container_1_Consume_and_count_1"];2.25;1533338588.36878;80.13;520.42;128.971297746;10;149
17;paravance-6.rennes.grid5000.fr;thermos-root-devel-WordCountTopology-0-906549c2-1ee0-4e6b-b6e0-fca0e567c670;["topology_master"];2.25;1533338588.29741;3.62;9.88;0.214006685;9;117
18;paravance-1.rennes.grid5000.fr;thermos-root-devel-WordCountTopology-1-88b7e5c8-6d76-40a8-af9a-cb37ce2c2d1e;["container_1_Consume_and_count_1"];2.25;1533338598.58063;82.95;538.81;133.579123088;10;149
18;paravance-6.rennes.grid5000.fr;thermos-root-devel-WordCountTopology-0-906549c2-1ee0-4e6b-b6e0-fca0e567c670;["topology_master"];2.25;1533338598.50742;3.75;10.1;0.214006685;9;117
18;paravance-36.rennes.grid5000.fr;thermos-root-devel-WordCountTopology-2-467602ac-c031-4eb9-8291-2de9139c242b;["container_2_Emit_random_words_2"];2.25;1533338598.50507;54.74;474.36;21.202160798;10;149
19;paravance-6.rennes.grid5000.fr;thermos-root-devel-WordCountTopology-0-906549c2-1ee0-4e6b-b6e0-fca0e567c670;["topology_master"];2.25;1533338608.71721;3.78;10.13;0.214006685;9;117
19;paravance-36.rennes.grid5000.fr;thermos-root-devel-WordCountTopology-2-467602ac-c031-4eb9-8291-2de9139c242b;["container_2_Emit_random_words_2"];2.25;1533338608.71527;56.73;492.75;21.343453332;10;149
19;paravance-1.rennes.grid5000.fr;thermos-root-devel-WordCountTopology-1-88b7e5c8-6d76-40a8-af9a-cb37ce2c2d1e;["container_1_Consume_and_count_1"];2.25;1533338608.79267;85.85;557.3;137.59818956;10;149
20;paravance-36.rennes.grid5000.fr;thermos-root-devel-WordCountTopology-2-467602ac-c031-4eb9-8291-2de9139c242b;["container_2_Emit_random_words_2"];2.25;1533338618.92591;58.7;509.43;21.546395955;10;149
20;paravance-1.rennes.grid5000.fr;thermos-root-devel-WordCountTopology-1-88b7e5c8-6d76-40a8-af9a-cb37ce2c2d1e;["container_1_Consume_and_count_1"];2.25;1533338619.00137;88.83;576.02;141.919075807;10;149
20;paravance-6.rennes.grid5000.fr;thermos-root-devel-WordCountTopology-0-906549c2-1ee0-4e6b-b6e0-fca0e567c670;["topology_master"];2.25;1533338618.92868;3.87;10.27;0.214006685;9;117
21;paravance-6.rennes.grid5000.fr;thermos-root-devel-WordCountTopology-0-906549c2-1ee0-4e6b-b6e0-fca0e567c670;["topology_master"];2.25;1533338629.13871;3.93;10.34;0.214006685;9;117
21;paravance-1.rennes.grid5000.fr;thermos-root-devel-WordCountTopology-1-88b7e5c8-6d76-40a8-af9a-cb37ce2c2d1e;["container_1_Consume_and_count_1"];2.25;1533338629.2126;91.52;594.27;145.751627499;10;149
21;paravance-36.rennes.grid5000.fr;thermos-root-devel-WordCountTopology-2-467602ac-c031-4eb9-8291-2de9139c242b;["container_2_Emit_random_words_2"];2.25;1533338629.13523;60.51;524.74;21.603976211;10;149
22;paravance-1.rennes.grid5000.fr;thermos-root-devel-WordCountTopology-1-88b7e5c8-6d76-40a8-af9a-cb37ce2c2d1e;["container_1_Consume_and_count_1"];2.25;1533338639.42268;94.34;612.77;150.422525227;10;149
22;paravance-6.rennes.grid5000.fr;thermos-root-devel-WordCountTopology-0-906549c2-1ee0-4e6b-b6e0-fca0e567c670;["topology_master"];2.25;1533338639.34868;3.98;10.41;0.214006685;9;117
22;paravance-36.rennes.grid5000.fr;thermos-root-devel-WordCountTopology-2-467602ac-c031-4eb9-8291-2de9139c242b;["container_2_Emit_random_words_2"];2.25;1533338639.34592;62.28;540.87;21.718935823;10;149
23;paravance-6.rennes.grid5000.fr;thermos-root-devel-WordCountTopology-0-906549c2-1ee0-4e6b-b6e0-fca0e567c670;["topology_master"];2.25;1533338649.55985;4.04;10.48;0.214006685;9;117
23;paravance-36.rennes.grid5000.fr;thermos-root-devel-WordCountTopology-2-467602ac-c031-4eb9-8291-2de9139c242b;["container_2_Emit_random_words_2"];2.25;1533338649.55831;64.01;556.06;21.855400039;10;149
23;paravance-1.rennes.grid5000.fr;thermos-root-devel-WordCountTopology-1-88b7e5c8-6d76-40a8-af9a-cb37ce2c2d1e;["container_1_Consume_and_count_1"];2.25;1533338649.63376;96.88;630.98;154.665541025;10;149
24;paravance-36.rennes.grid5000.fr;thermos-root-devel-WordCountTopology-2-467602ac-c031-4eb9-8291-2de9139c242b;["container_2_Emit_random_words_2"];2.25;1533338659.76833;65.85;571.72;22.140789475;10;149
24;paravance-6.rennes.grid5000.fr;thermos-root-devel-WordCountTopology-0-906549c2-1ee0-4e6b-b6e0-fca0e567c670;["topology_master"];2.25;1533338659.77146;4.15;10.69;0.214006685;9;117
24;paravance-1.rennes.grid5000.fr;thermos-root-devel-WordCountTopology-1-88b7e5c8-6d76-40a8-af9a-cb37ce2c2d1e;["container_1_Consume_and_count_1"];2.25;1533338659.84505;99.67;649.36;158.67855887;10;149
25;paravance-6.rennes.grid5000.fr;thermos-root-devel-WordCountTopology-0-906549c2-1ee0-4e6b-b6e0-fca0e567c670;["topology_master"];2.25;1533338669.88262;4.18;10.71;0.214006685;9;117
25;paravance-1.rennes.grid5000.fr;thermos-root-devel-WordCountTopology-1-88b7e5c8-6d76-40a8-af9a-cb37ce2c2d1e;["container_1_Consume_and_count_1"];2.25;1533338670.05596;102.35;667.84;163.168904887;10;149
25;paravance-36.rennes.grid5000.fr;thermos-root-devel-WordCountTopology-2-467602ac-c031-4eb9-8291-2de9139c242b;["container_2_Emit_random_words_2"];2.25;1533338669.97986;67.55;586.62;22.206204555;10;149
26;paravance-1.rennes.grid5000.fr;thermos-root-devel-WordCountTopology-1-88b7e5c8-6d76-40a8-af9a-cb37ce2c2d1e;["container_1_Consume_and_count_1"];2.25;1533338680.26477;105.09;686.19;168.248242219;10;149
26;paravance-36.rennes.grid5000.fr;thermos-root-devel-WordCountTopology-2-467602ac-c031-4eb9-8291-2de9139c242b;["container_2_Emit_random_words_2"];2.25;1533338680.19008;69.39;603.09;22.448096108;10;149
26;paravance-6.rennes.grid5000.fr;thermos-root-devel-WordCountTopology-0-906549c2-1ee0-4e6b-b6e0-fca0e567c670;["topology_master"];2.25;1533338680.19436;4.27;10.83;0.214006685;9;117
27;paravance-1.rennes.grid5000.fr;thermos-root-devel-WordCountTopology-1-88b7e5c8-6d76-40a8-af9a-cb37ce2c2d1e;["container_1_Consume_and_count_1"];2.25;1533338690.47674;107.79;704.61;172.083636126;10;149
27;paravance-6.rennes.grid5000.fr;thermos-root-devel-WordCountTopology-0-906549c2-1ee0-4e6b-b6e0-fca0e567c670;["topology_master"];2.25;1533338690.40233;4.33;10.91;0.214006685;9;117
27;paravance-36.rennes.grid5000.fr;thermos-root-devel-WordCountTopology-2-467602ac-c031-4eb9-8291-2de9139c242b;["container_2_Emit_random_words_2"];2.25;1533338690.40116;71.21;619.83;22.583659666;10;149
28;paravance-36.rennes.grid5000.fr;thermos-root-devel-WordCountTopology-2-467602ac-c031-4eb9-8291-2de9139c242b;["container_2_Emit_random_words_2"];2.25;1533338700.60846;73.0;635.62;22.679195789;10;149
28;paravance-1.rennes.grid5000.fr;thermos-root-devel-WordCountTopology-1-88b7e5c8-6d76-40a8-af9a-cb37ce2c2d1e;["container_1_Consume_and_count_1"];2.25;1533338700.68456;110.57;723.08;176.307724264;10;149
28;paravance-6.rennes.grid5000.fr;thermos-root-devel-WordCountTopology-0-906549c2-1ee0-4e6b-b6e0-fca0e567c670;["topology_master"];2.25;1533338700.61192;4.38;10.98;0.214006685;9;117
29;paravance-1.rennes.grid5000.fr;thermos-root-devel-WordCountTopology-1-88b7e5c8-6d76-40a8-af9a-cb37ce2c2d1e;["container_1_Consume_and_count_1"];2.25;1533338710.89403;113.32;741.47;180.286478009;10;149
29;paravance-36.rennes.grid5000.fr;thermos-root-devel-WordCountTopology-2-467602ac-c031-4eb9-8291-2de9139c242b;["container_2_Emit_random_words_2"];2.25;1533338710.81698;74.71;650.88;22.791036908;10;149
29;paravance-6.rennes.grid5000.fr;thermos-root-devel-WordCountTopology-0-906549c2-1ee0-4e6b-b6e0-fca0e567c670;["topology_master"];2.25;1533338710.8201;4.44;11.06;0.214006685;9;117
30;paravance-1.rennes.grid5000.fr;thermos-root-devel-WordCountTopology-1-88b7e5c8-6d76-40a8-af9a-cb37ce2c2d1e;["container_1_Consume_and_count_1"];2.25;1533338721.10217;116.01;759.79;184.80817511;10;149
30;paravance-36.rennes.grid5000.fr;thermos-root-devel-WordCountTopology-2-467602ac-c031-4eb9-8291-2de9139c242b;["container_2_Emit_random_words_2"];2.25;1533338721.02717;76.54;666.05;23.057828231;10;149
30;paravance-6.rennes.grid5000.fr;thermos-root-devel-WordCountTopology-0-906549c2-1ee0-4e6b-b6e0-fca0e567c670;["topology_master"];2.25;1533338721.03103;4.56;11.23;0.214006685;9;117
31;paravance-1.rennes.grid5000.fr;thermos-root-devel-WordCountTopology-1-88b7e5c8-6d76-40a8-af9a-cb37ce2c2d1e;["container_1_Consume_and_count_1"];2.25;1533338731.3145;118.72;778.25;188.519003239;10;149
31;paravance-6.rennes.grid5000.fr;thermos-root-devel-WordCountTopology-0-906549c2-1ee0-4e6b-b6e0-fca0e567c670;["topology_master"];2.25;1533338731.24095;4.59;11.27;0.214006685;9;115
31;paravance-36.rennes.grid5000.fr;thermos-root-devel-WordCountTopology-2-467602ac-c031-4eb9-8291-2de9139c242b;["container_2_Emit_random_words_2"];2.25;1533338731.23758;78.36;682.79;23.362793431;10;147
32;paravance-6.rennes.grid5000.fr;thermos-root-devel-WordCountTopology-0-906549c2-1ee0-4e6b-b6e0-fca0e567c670;["topology_master"];2.25;1533338741.44884;4.67;11.38;0.214006685;9;117
32;paravance-36.rennes.grid5000.fr;thermos-root-devel-WordCountTopology-2-467602ac-c031-4eb9-8291-2de9139c242b;["container_2_Emit_random_words_2"];2.25;1533338741.44633;80.26;700.2;23.899345568;10;149
32;paravance-1.rennes.grid5000.fr;thermos-root-devel-WordCountTopology-1-88b7e5c8-6d76-40a8-af9a-cb37ce2c2d1e;["container_1_Consume_and_count_1"];2.25;1533338741.5228;121.6;796.92;192.059902994;10;149
33;paravance-1.rennes.grid5000.fr;thermos-root-devel-WordCountTopology-1-88b7e5c8-6d76-40a8-af9a-cb37ce2c2d1e;["container_1_Consume_and_count_1"];2.25;1533338751.73305;124.31;814.72;195.364292417;10;149
33;paravance-6.rennes.grid5000.fr;thermos-root-devel-WordCountTopology-0-906549c2-1ee0-4e6b-b6e0-fca0e567c670;["topology_master"];2.25;1533338751.65891;4.76;11.5;0.214006685;9;117
33;paravance-36.rennes.grid5000.fr;thermos-root-devel-WordCountTopology-2-467602ac-c031-4eb9-8291-2de9139c242b;["container_2_Emit_random_words_2"];2.25;1533338751.65633;82.12;716.02;24.153488241;10;149
34;paravance-36.rennes.grid5000.fr;thermos-root-devel-WordCountTopology-2-467602ac-c031-4eb9-8291-2de9139c242b;["container_2_Emit_random_words_2"];2.25;1533338761.76471;83.79;730.64;24.233331797;10;149
34;paravance-1.rennes.grid5000.fr;thermos-root-devel-WordCountTopology-1-88b7e5c8-6d76-40a8-af9a-cb37ce2c2d1e;["container_1_Consume_and_count_1"];2.25;1533338761.9397;126.8;832.49;199.032080248;10;149
34;paravance-6.rennes.grid5000.fr;thermos-root-devel-WordCountTopology-0-906549c2-1ee0-4e6b-b6e0-fca0e567c670;["topology_master"];2.25;1533338761.86683;4.78;11.53;0.214006685;9;117
35;paravance-6.rennes.grid5000.fr;thermos-root-devel-WordCountTopology-0-906549c2-1ee0-4e6b-b6e0-fca0e567c670;["topology_master"];2.25;1533338771.9769;4.88;11.67;0.214006685;9;117
35;paravance-1.rennes.grid5000.fr;thermos-root-devel-WordCountTopology-1-88b7e5c8-6d76-40a8-af9a-cb37ce2c2d1e;["container_1_Consume_and_count_1"];2.25;1533338772.15097;129.61;850.37;201.861540629;10;149
35;paravance-36.rennes.grid5000.fr;thermos-root-devel-WordCountTopology-2-467602ac-c031-4eb9-8291-2de9139c242b;["container_2_Emit_random_words_2"];2.25;1533338772.07413;85.81;747.71;24.874967803;10;149
36;paravance-6.rennes.grid5000.fr;thermos-root-devel-WordCountTopology-0-906549c2-1ee0-4e6b-b6e0-fca0e567c670;["topology_master"];2.25;1533338782.2863;4.95;11.83;0.214006685;9;117
36;paravance-1.rennes.grid5000.fr;thermos-root-devel-WordCountTopology-1-88b7e5c8-6d76-40a8-af9a-cb37ce2c2d1e;["container_1_Consume_and_count_1"];2.25;1533338782.36062;132.2;868.71;205.838908356;10;149
36;paravance-36.rennes.grid5000.fr;thermos-root-devel-WordCountTopology-2-467602ac-c031-4eb9-8291-2de9139c242b;["container_2_Emit_random_words_2"];2.25;1533338782.28362;87.69;764.79;25.282649313;10;149
37;paravance-1.rennes.grid5000.fr;thermos-root-devel-WordCountTopology-1-88b7e5c8-6d76-40a8-af9a-cb37ce2c2d1e;["container_1_Consume_and_count_1"];2.25;1533338792.56962;135.05;887.1;210.456986015;10;149
37;paravance-36.rennes.grid5000.fr;thermos-root-devel-WordCountTopology-2-467602ac-c031-4eb9-8291-2de9139c242b;["container_2_Emit_random_words_2"];2.25;1533338792.49298;89.64;782.23;25.559854911;10;149
37;paravance-6.rennes.grid5000.fr;thermos-root-devel-WordCountTopology-0-906549c2-1ee0-4e6b-b6e0-fca0e567c670;["topology_master"];2.25;1533338792.4973;5.01;11.91;0.214006685;9;117
38;paravance-36.rennes.grid5000.fr;thermos-root-devel-WordCountTopology-2-467602ac-c031-4eb9-8291-2de9139c242b;["container_2_Emit_random_words_2"];2.25;1533338802.60222;91.46;798.34;25.967889566;10;149
38;paravance-1.rennes.grid5000.fr;thermos-root-devel-WordCountTopology-1-88b7e5c8-6d76-40a8-af9a-cb37ce2c2d1e;["container_1_Consume_and_count_1"];2.25;1533338802.77785;137.78;904.9;213.936321804;10;149
38;paravance-6.rennes.grid5000.fr;thermos-root-devel-WordCountTopology-0-906549c2-1ee0-4e6b-b6e0-fca0e567c670;["topology_master"];2.25;1533338802.70475;5.07;11.98;0.214006685;9;117
39;paravance-1.rennes.grid5000.fr;thermos-root-devel-WordCountTopology-1-88b7e5c8-6d76-40a8-af9a-cb37ce2c2d1e;["container_1_Consume_and_count_1"];2.25;1533338812.98859;140.71;922.66;218.31332712;10;149
39;paravance-6.rennes.grid5000.fr;thermos-root-devel-WordCountTopology-0-906549c2-1ee0-4e6b-b6e0-fca0e567c670;["topology_master"];2.25;1533338812.91431;5.16;12.11;0.214006685;9;117
39;paravance-36.rennes.grid5000.fr;thermos-root-devel-WordCountTopology-2-467602ac-c031-4eb9-8291-2de9139c242b;["container_2_Emit_random_words_2"];2.25;1533338812.91211;93.27;814.53;26.246005975;10;149
40;paravance-1.rennes.grid5000.fr;thermos-root-devel-WordCountTopology-1-88b7e5c8-6d76-40a8-af9a-cb37ce2c2d1e;["container_1_Consume_and_count_1"];2.25;1533338823.19771;143.53;940.78;222.214349583;10;149
40;paravance-6.rennes.grid5000.fr;thermos-root-devel-WordCountTopology-0-906549c2-1ee0-4e6b-b6e0-fca0e567c670;["topology_master"];2.25;1533338823.12574;5.19;12.13;0.214006685;9;117
40;paravance-36.rennes.grid5000.fr;thermos-root-devel-WordCountTopology-2-467602ac-c031-4eb9-8291-2de9139c242b;["container_2_Emit_random_words_2"];2.25;1533338823.13796;95.03;830.7;26.550059018;10;149
41;paravance-36.rennes.grid5000.fr;thermos-root-devel-WordCountTopology-2-467602ac-c031-4eb9-8291-2de9139c242b;["container_2_Emit_random_words_2"];2.25;1533338833.34684;96.98;848.44;27.003245492;10;149
41;paravance-1.rennes.grid5000.fr;thermos-root-devel-WordCountTopology-1-88b7e5c8-6d76-40a8-af9a-cb37ce2c2d1e;["container_1_Consume_and_count_1"];2.25;1533338833.42279;146.57;959.21;225.759785353;10;149
41;paravance-6.rennes.grid5000.fr;thermos-root-devel-WordCountTopology-0-906549c2-1ee0-4e6b-b6e0-fca0e567c670;["topology_master"];2.25;1533338833.34953;5.29;12.28;0.214006685;9;117
42;paravance-1.rennes.grid5000.fr;thermos-root-devel-WordCountTopology-1-88b7e5c8-6d76-40a8-af9a-cb37ce2c2d1e;["container_1_Consume_and_count_1"];2.25;1533338843.63491;149.54;977.52;230.331101541;10;149
42;paravance-36.rennes.grid5000.fr;thermos-root-devel-WordCountTopology-2-467602ac-c031-4eb9-8291-2de9139c242b;["container_2_Emit_random_words_2"];2.25;1533338843.55668;98.82;864.73;27.322965794;10;149
42;paravance-6.rennes.grid5000.fr;thermos-root-devel-WordCountTopology-0-906549c2-1ee0-4e6b-b6e0-fca0e567c670;["topology_master"];2.25;1533338843.55964;5.36;12.39;0.214006685;9;117
43;paravance-1.rennes.grid5000.fr;thermos-root-devel-WordCountTopology-1-88b7e5c8-6d76-40a8-af9a-cb37ce2c2d1e;["container_1_Consume_and_count_1"];2.25;1533338853.8436;152.47;995.95;235.551269926;10;149
43;paravance-6.rennes.grid5000.fr;thermos-root-devel-WordCountTopology-0-906549c2-1ee0-4e6b-b6e0-fca0e567c670;["topology_master"];2.25;1533338853.77098;5.45;12.52;0.214006685;9;117
43;paravance-36.rennes.grid5000.fr;thermos-root-devel-WordCountTopology-2-467602ac-c031-4eb9-8291-2de9139c242b;["container_2_Emit_random_words_2"];2.25;1533338853.76822;100.75;881.71;27.468952292;10;149
44;paravance-1.rennes.grid5000.fr;thermos-root-devel-WordCountTopology-1-88b7e5c8-6d76-40a8-af9a-cb37ce2c2d1e;["container_1_Consume_and_count_1"];2.25;1533338864.0539;155.3;1014.19;240.909939785;10;149
44;paravance-6.rennes.grid5000.fr;thermos-root-devel-WordCountTopology-0-906549c2-1ee0-4e6b-b6e0-fca0e567c670;["topology_master"];2.25;1533338863.98111;5.47;12.54;0.214006685;9;117
44;paravance-36.rennes.grid5000.fr;thermos-root-devel-WordCountTopology-2-467602ac-c031-4eb9-8291-2de9139c242b;["container_2_Emit_random_words_2"];2.25;1533338863.9778;102.63;898.72;27.517263752;10;149
45;paravance-1.rennes.grid5000.fr;thermos-root-devel-WordCountTopology-1-88b7e5c8-6d76-40a8-af9a-cb37ce2c2d1e;["container_1_Consume_and_count_1"];2.25;1533338874.26471;157.99;1032.39;246.004445101;10;149
45;paravance-6.rennes.grid5000.fr;thermos-root-devel-WordCountTopology-0-906549c2-1ee0-4e6b-b6e0-fca0e567c670;["topology_master"];2.25;1533338874.19037;5.56;12.66;0.214006685;9;117
45;paravance-36.rennes.grid5000.fr;thermos-root-devel-WordCountTopology-2-467602ac-c031-4eb9-8291-2de9139c242b;["container_2_Emit_random_words_2"];2.25;1533338874.18773;104.45;914.48;27.756504754;10;149
46;paravance-6.rennes.grid5000.fr;thermos-root-devel-WordCountTopology-0-906549c2-1ee0-4e6b-b6e0-fca0e567c670;["topology_master"];2.25;1533338884.40152;5.61;12.72;0.214006685;9;117
46;paravance-1.rennes.grid5000.fr;thermos-root-devel-WordCountTopology-1-88b7e5c8-6d76-40a8-af9a-cb37ce2c2d1e;["container_1_Consume_and_count_1"];2.25;1533338884.47649;160.64;1051.05;251.043889677;10;149
46;paravance-36.rennes.grid5000.fr;thermos-root-devel-WordCountTopology-2-467602ac-c031-4eb9-8291-2de9139c242b;["container_2_Emit_random_words_2"];2.25;1533338884.39916;106.25;930.09;27.878307248;10;149
47;paravance-1.rennes.grid5000.fr;thermos-root-devel-WordCountTopology-1-88b7e5c8-6d76-40a8-af9a-cb37ce2c2d1e;["container_1_Consume_and_count_1"];2.25;1533338894.68506;163.56;1069.13;256.152167487;10;149
47;paravance-6.rennes.grid5000.fr;thermos-root-devel-WordCountTopology-0-906549c2-1ee0-4e6b-b6e0-fca0e567c670;["topology_master"];2.25;1533338894.61283;5.67;12.81;0.214006685;9;117
47;paravance-36.rennes.grid5000.fr;thermos-root-devel-WordCountTopology-2-467602ac-c031-4eb9-8291-2de9139c242b;["container_2_Emit_random_words_2"];2.25;1533338894.60854;108.09;946.41;28.04728388;10;149
48;paravance-1.rennes.grid5000.fr;thermos-root-devel-WordCountTopology-1-88b7e5c8-6d76-40a8-af9a-cb37ce2c2d1e;["container_1_Consume_and_count_1"];2.25;1533338904.89584;166.27;1087.51;260.425722162;10;149
48;paravance-6.rennes.grid5000.fr;thermos-root-devel-WordCountTopology-0-906549c2-1ee0-4e6b-b6e0-fca0e567c670;["topology_master"];2.25;1533338904.82222;5.74;12.95;0.214006685;9;117
48;paravance-36.rennes.grid5000.fr;thermos-root-devel-WordCountTopology-2-467602ac-c031-4eb9-8291-2de9139c242b;["container_2_Emit_random_words_2"];2.25;1533338904.81863;109.91;963.19;28.251492682;10;149
49;paravance-36.rennes.grid5000.fr;thermos-root-devel-WordCountTopology-2-467602ac-c031-4eb9-8291-2de9139c242b;["container_2_Emit_random_words_2"];2.25;1533338915.03069;111.75;979.6;28.442413653;10;149
49;paravance-6.rennes.grid5000.fr;thermos-root-devel-WordCountTopology-0-906549c2-1ee0-4e6b-b6e0-fca0e567c670;["topology_master"];2.25;1533338915.03302;5.83;13.07;0.214006685;9;117
49;paravance-1.rennes.grid5000.fr;thermos-root-devel-WordCountTopology-1-88b7e5c8-6d76-40a8-af9a-cb37ce2c2d1e;["container_1_Consume_and_count_1"];2.25;1533338915.10811;169.11;1105.73;264.928458759;10;149
50;paravance-1.rennes.grid5000.fr;thermos-root-devel-WordCountTopology-1-88b7e5c8-6d76-40a8-af9a-cb37ce2c2d1e;["container_1_Consume_and_count_1"];2.25;1533338925.31834;171.89;1124.03;269.463015902;10;149
50;paravance-6.rennes.grid5000.fr;thermos-root-devel-WordCountTopology-0-906549c2-1ee0-4e6b-b6e0-fca0e567c670;["topology_master"];2.25;1533338925.24406;5.86;13.1;0.214006685;9;117
50;paravance-36.rennes.grid5000.fr;thermos-root-devel-WordCountTopology-2-467602ac-c031-4eb9-8291-2de9139c242b;["container_2_Emit_random_words_2"];2.25;1533338925.24116;113.5;995.63;28.541273329;10;149
51;paravance-1.rennes.grid5000.fr;thermos-root-devel-WordCountTopology-1-88b7e5c8-6d76-40a8-af9a-cb37ce2c2d1e;["container_1_Consume_and_count_1"];2.25;1533338935.52905;174.85;1142.4;274.781200762;10;149
51;paravance-6.rennes.grid5000.fr;thermos-root-devel-WordCountTopology-0-906549c2-1ee0-4e6b-b6e0-fca0e567c670;["topology_master"];2.25;1533338935.45461;5.95;13.23;0.214006685;9;117
51;paravance-36.rennes.grid5000.fr;thermos-root-devel-WordCountTopology-2-467602ac-c031-4eb9-8291-2de9139c242b;["container_2_Emit_random_words_2"];2.25;1533338935.45218;115.33;1012.01;28.660307236;10;149
52;paravance-1.rennes.grid5000.fr;thermos-root-devel-WordCountTopology-1-88b7e5c8-6d76-40a8-af9a-cb37ce2c2d1e;["container_1_Consume_and_count_1"];2.25;1533338945.74056;177.77;1160.76;278.188243292;10;149
52;paravance-36.rennes.grid5000.fr;thermos-root-devel-WordCountTopology-2-467602ac-c031-4eb9-8291-2de9139c242b;["container_2_Emit_random_words_2"];2.25;1533338945.66283;117.22;1028.87;28.782068075;10;149
52;paravance-6.rennes.grid5000.fr;thermos-root-devel-WordCountTopology-0-906549c2-1ee0-4e6b-b6e0-fca0e567c670;["topology_master"];2.25;1533338945.6657;6.01;13.3;0.214006685;9;117
53;paravance-1.rennes.grid5000.fr;thermos-root-devel-WordCountTopology-1-88b7e5c8-6d76-40a8-af9a-cb37ce2c2d1e;["container_1_Consume_and_count_1"];2.25;1533338955.95071;180.4;1178.98;282.922441216;10;149
53;paravance-36.rennes.grid5000.fr;thermos-root-devel-WordCountTopology-2-467602ac-c031-4eb9-8291-2de9139c242b;["container_2_Emit_random_words_2"];2.25;1533338955.87402;118.94;1043.93;28.915058743;10;149
53;paravance-6.rennes.grid5000.fr;thermos-root-devel-WordCountTopology-0-906549c2-1ee0-4e6b-b6e0-fca0e567c670;["topology_master"];2.25;1533338955.87801;6.08;13.4;0.214006685;9;117
54;paravance-1.rennes.grid5000.fr;thermos-root-devel-WordCountTopology-1-88b7e5c8-6d76-40a8-af9a-cb37ce2c2d1e;["container_1_Consume_and_count_1"];2.25;1533338966.16428;183.39;1197.18;287.751025375;10;149
54;paravance-36.rennes.grid5000.fr;thermos-root-devel-WordCountTopology-2-467602ac-c031-4eb9-8291-2de9139c242b;["container_2_Emit_random_words_2"];2.25;1533338966.08662;120.87;1061.17;29.036502316;10;149
54;paravance-6.rennes.grid5000.fr;thermos-root-devel-WordCountTopology-0-906549c2-1ee0-4e6b-b6e0-fca0e567c670;["topology_master"];2.25;1533338966.09077;6.14;13.51;0.214006685;9;117
55;paravance-1.rennes.grid5000.fr;thermos-root-devel-WordCountTopology-1-88b7e5c8-6d76-40a8-af9a-cb37ce2c2d1e;["container_1_Consume_and_count_1"];2.25;1533338976.37633;186.19;1215.48;292.054734359;10;149
55;paravance-6.rennes.grid5000.fr;thermos-root-devel-WordCountTopology-0-906549c2-1ee0-4e6b-b6e0-fca0e567c670;["topology_master"];2.25;1533338976.30178;6.23;13.64;0.214006685;9;117
55;paravance-36.rennes.grid5000.fr;thermos-root-devel-WordCountTopology-2-467602ac-c031-4eb9-8291-2de9139c242b;["container_2_Emit_random_words_2"];2.25;1533338976.29875;122.66;1077.31;29.33407724;10;149
56;paravance-1.rennes.grid5000.fr;thermos-root-devel-WordCountTopology-1-88b7e5c8-6d76-40a8-af9a-cb37ce2c2d1e;["container_1_Consume_and_count_1"];2.25;1533338986.58629;188.75;1233.33;295.822477227;10;149
56;paravance-6.rennes.grid5000.fr;thermos-root-devel-WordCountTopology-0-906549c2-1ee0-4e6b-b6e0-fca0e567c670;["topology_master"];2.25;1533338986.512;6.26;13.66;0.214006685;9;117
56;paravance-36.rennes.grid5000.fr;thermos-root-devel-WordCountTopology-2-467602ac-c031-4eb9-8291-2de9139c242b;["container_2_Emit_random_words_2"];2.25;1533338986.50971;124.25;1091.15;29.340301148;10;149
57;paravance-1.rennes.grid5000.fr;thermos-root-devel-WordCountTopology-1-88b7e5c8-6d76-40a8-af9a-cb37ce2c2d1e;["container_1_Consume_and_count_1"];2.25;1533338996.79768;191.7;1251.52;299.907286153;10;149
57;paravance-6.rennes.grid5000.fr;thermos-root-devel-WordCountTopology-0-906549c2-1ee0-4e6b-b6e0-fca0e567c670;["topology_master"];2.25;1533338996.72392;6.34;13.78;0.214006685;9;117
57;paravance-36.rennes.grid5000.fr;thermos-root-devel-WordCountTopology-2-467602ac-c031-4eb9-8291-2de9139c242b;["container_2_Emit_random_words_2"];2.25;1533338996.72058;126.08;1107.93;29.556977713;10;149
58;paravance-1.rennes.grid5000.fr;thermos-root-devel-WordCountTopology-1-88b7e5c8-6d76-40a8-af9a-cb37ce2c2d1e;["container_1_Consume_and_count_1"];2.25;1533339007.00604;194.7;1270.02;305.252896305;10;149
58;paravance-36.rennes.grid5000.fr;thermos-root-devel-WordCountTopology-2-467602ac-c031-4eb9-8291-2de9139c242b;["container_2_Emit_random_words_2"];2.25;1533339006.93102;127.94;1124.92;29.61129175;10;149
58;paravance-6.rennes.grid5000.fr;thermos-root-devel-WordCountTopology-0-906549c2-1ee0-4e6b-b6e0-fca0e567c670;["topology_master"];2.25;1533339006.93443;6.4;13.85;0.214006685;9;117
59;paravance-1.rennes.grid5000.fr;thermos-root-devel-WordCountTopology-1-88b7e5c8-6d76-40a8-af9a-cb37ce2c2d1e;["container_1_Consume_and_count_1"];2.25;1533339017.22151;197.63;1288.54;309.338619978;10;149
59;paravance-36.rennes.grid5000.fr;thermos-root-devel-WordCountTopology-2-467602ac-c031-4eb9-8291-2de9139c242b;["container_2_Emit_random_words_2"];2.25;1533339017.14157;129.75;1141.43;29.848712336;10;149
59;paravance-6.rennes.grid5000.fr;thermos-root-devel-WordCountTopology-0-906549c2-1ee0-4e6b-b6e0-fca0e567c670;["topology_master"];2.25;1533339017.14695;6.48;13.99;0.214006685;9;117
60;paravance-1.rennes.grid5000.fr;thermos-root-devel-WordCountTopology-1-88b7e5c8-6d76-40a8-af9a-cb37ce2c2d1e;["container_1_Consume_and_count_1"];2.25;1533339027.4325;200.46;1306.6;314.371544108;10;149
60;paravance-36.rennes.grid5000.fr;thermos-root-devel-WordCountTopology-2-467602ac-c031-4eb9-8291-2de9139c242b;["container_2_Emit_random_words_2"];2.25;1533339027.35436;131.66;1157.98;30.006962189;10;149
60;paravance-6.rennes.grid5000.fr;thermos-root-devel-WordCountTopology-0-906549c2-1ee0-4e6b-b6e0-fca0e567c670;["topology_master"];2.25;1533339027.35797;6.54;14.08;0.214006685;9;117
