mesure_id;slave_id;executor_id;heron_instances;cpus_limit;timestamp_B;cpus_system_time_secs_B;cpus_user_time_secs_B;cpus_throttled_time_secs_B;processes;threads
0;paravance-56.rennes.grid5000.fr;thermos-root-devel-WordCountTopology-2-0ea1f07a-dbf9-407f-8beb-08e3196d5323;["container_2_Emit_random_words_2"];6.25;1533238838.08001;30.67;124.48;0.281511888;10;149
0;paravance-54.rennes.grid5000.fr;thermos-root-devel-WordCountTopology-0-338b4c47-5f17-4d35-b1d5-927b18ba87f4;["topology_master"];6.25;1533238837.79291;2.47;8.14;0.0;9;117
0;paravance-67.rennes.grid5000.fr;thermos-root-devel-WordCountTopology-1-e32e8a77-d399-4545-b5b7-8760e011dcdf;["container_1_Consume_and_count_1"];6.25;1533238837.75768;37.99;254.9;0.022835341;10;149
1;paravance-54.rennes.grid5000.fr;thermos-root-devel-WordCountTopology-0-338b4c47-5f17-4d35-b1d5-927b18ba87f4;["topology_master"];6.25;1533238847.91568;2.56;8.28;0.0;9;117
1;paravance-67.rennes.grid5000.fr;thermos-root-devel-WordCountTopology-1-e32e8a77-d399-4545-b5b7-8760e011dcdf;["container_1_Consume_and_count_1"];6.25;1533238847.97618;40.82;274.76;0.022835341;10;149
1;paravance-56.rennes.grid5000.fr;thermos-root-devel-WordCountTopology-2-0ea1f07a-dbf9-407f-8beb-08e3196d5323;["container_2_Emit_random_words_2"];6.25;1533238848.2996;32.83;132.88;0.281511888;10;149
2;paravance-56.rennes.grid5000.fr;thermos-root-devel-WordCountTopology-2-0ea1f07a-dbf9-407f-8beb-08e3196d5323;["container_2_Emit_random_words_2"];6.25;1533238858.51302;34.75;140.38;0.281511888;10;149
2;paravance-67.rennes.grid5000.fr;thermos-root-devel-WordCountTopology-1-e32e8a77-d399-4545-b5b7-8760e011dcdf;["container_1_Consume_and_count_1"];6.25;1533238858.19698;43.31;294.18;0.022835341;10;149
2;paravance-54.rennes.grid5000.fr;thermos-root-devel-WordCountTopology-0-338b4c47-5f17-4d35-b1d5-927b18ba87f4;["topology_master"];6.25;1533238858.23567;2.59;8.31;0.0;9;117
3;paravance-67.rennes.grid5000.fr;thermos-root-devel-WordCountTopology-1-e32e8a77-d399-4545-b5b7-8760e011dcdf;["container_1_Consume_and_count_1"];6.25;1533238868.41742;46.09;313.85;0.022835341;10;149
3;paravance-54.rennes.grid5000.fr;thermos-root-devel-WordCountTopology-0-338b4c47-5f17-4d35-b1d5-927b18ba87f4;["topology_master"];6.25;1533238868.45692;2.68;8.44;0.0;9;117
3;paravance-56.rennes.grid5000.fr;thermos-root-devel-WordCountTopology-2-0ea1f07a-dbf9-407f-8beb-08e3196d5323;["container_2_Emit_random_words_2"];6.25;1533238868.73014;36.73;148.02;0.281511888;10;149
4;paravance-67.rennes.grid5000.fr;thermos-root-devel-WordCountTopology-1-e32e8a77-d399-4545-b5b7-8760e011dcdf;["container_1_Consume_and_count_1"];6.25;1533238878.63775;48.9;333.19;0.022835341;10;149
4;paravance-56.rennes.grid5000.fr;thermos-root-devel-WordCountTopology-2-0ea1f07a-dbf9-407f-8beb-08e3196d5323;["container_2_Emit_random_words_2"];6.25;1533238878.94665;38.86;156.4;0.281511888;10;149
4;paravance-54.rennes.grid5000.fr;thermos-root-devel-WordCountTopology-0-338b4c47-5f17-4d35-b1d5-927b18ba87f4;["topology_master"];6.25;1533238878.67939;2.73;8.51;0.0;9;117
5;paravance-67.rennes.grid5000.fr;thermos-root-devel-WordCountTopology-1-e32e8a77-d399-4545-b5b7-8760e011dcdf;["container_1_Consume_and_count_1"];6.25;1533238888.86067;51.68;353.19;0.022835341;10;149
5;paravance-56.rennes.grid5000.fr;thermos-root-devel-WordCountTopology-2-0ea1f07a-dbf9-407f-8beb-08e3196d5323;["container_2_Emit_random_words_2"];6.25;1533238889.16278;41.06;164.7;0.281511888;10;149
5;paravance-54.rennes.grid5000.fr;thermos-root-devel-WordCountTopology-0-338b4c47-5f17-4d35-b1d5-927b18ba87f4;["topology_master"];6.25;1533238888.90073;2.85;8.68;0.0;9;117
6;paravance-67.rennes.grid5000.fr;thermos-root-devel-WordCountTopology-1-e32e8a77-d399-4545-b5b7-8760e011dcdf;["container_1_Consume_and_count_1"];6.25;1533238899.07915;54.55;372.96;0.022835341;10;149
6;paravance-56.rennes.grid5000.fr;thermos-root-devel-WordCountTopology-2-0ea1f07a-dbf9-407f-8beb-08e3196d5323;["container_2_Emit_random_words_2"];6.25;1533238899.37762;43.24;173.37;0.281511888;10;149
6;paravance-54.rennes.grid5000.fr;thermos-root-devel-WordCountTopology-0-338b4c47-5f17-4d35-b1d5-927b18ba87f4;["topology_master"];6.25;1533238899.12134;2.89;8.77;0.0;9;117
7;paravance-54.rennes.grid5000.fr;thermos-root-devel-WordCountTopology-0-338b4c47-5f17-4d35-b1d5-927b18ba87f4;["topology_master"];6.25;1533238909.23982;2.99;8.9;0.0;9;117
7;paravance-67.rennes.grid5000.fr;thermos-root-devel-WordCountTopology-1-e32e8a77-d399-4545-b5b7-8760e011dcdf;["container_1_Consume_and_count_1"];6.25;1533238909.29983;57.38;392.79;0.022835341;10;149
7;paravance-56.rennes.grid5000.fr;thermos-root-devel-WordCountTopology-2-0ea1f07a-dbf9-407f-8beb-08e3196d5323;["container_2_Emit_random_words_2"];6.25;1533238909.59287;45.5;182.05;0.281511888;10;149
8;paravance-67.rennes.grid5000.fr;thermos-root-devel-WordCountTopology-1-e32e8a77-d399-4545-b5b7-8760e011dcdf;["container_1_Consume_and_count_1"];6.25;1533238919.51816;60.1;412.66;0.022835341;10;149
8;paravance-56.rennes.grid5000.fr;thermos-root-devel-WordCountTopology-2-0ea1f07a-dbf9-407f-8beb-08e3196d5323;["container_2_Emit_random_words_2"];6.25;1533238919.80614;47.46;189.89;0.281511888;10;149
8;paravance-54.rennes.grid5000.fr;thermos-root-devel-WordCountTopology-0-338b4c47-5f17-4d35-b1d5-927b18ba87f4;["topology_master"];6.25;1533238919.55961;3.05;8.98;0.0;9;117
9;paravance-67.rennes.grid5000.fr;thermos-root-devel-WordCountTopology-1-e32e8a77-d399-4545-b5b7-8760e011dcdf;["container_1_Consume_and_count_1"];6.25;1533238929.73878;62.71;431.96;0.022835341;10;149
9;paravance-54.rennes.grid5000.fr;thermos-root-devel-WordCountTopology-0-338b4c47-5f17-4d35-b1d5-927b18ba87f4;["topology_master"];6.25;1533238929.77912;3.1;9.05;0.0;9;117
9;paravance-56.rennes.grid5000.fr;thermos-root-devel-WordCountTopology-2-0ea1f07a-dbf9-407f-8beb-08e3196d5323;["container_2_Emit_random_words_2"];6.25;1533238930.02173;49.45;197.71;0.281511888;10;149
10;paravance-67.rennes.grid5000.fr;thermos-root-devel-WordCountTopology-1-e32e8a77-d399-4545-b5b7-8760e011dcdf;["container_1_Consume_and_count_1"];6.25;1533238939.95823;65.15;451.27;0.022835341;10;149
10;paravance-56.rennes.grid5000.fr;thermos-root-devel-WordCountTopology-2-0ea1f07a-dbf9-407f-8beb-08e3196d5323;["container_2_Emit_random_words_2"];6.25;1533238940.23607;51.37;205.21;0.281511888;10;149
10;paravance-54.rennes.grid5000.fr;thermos-root-devel-WordCountTopology-0-338b4c47-5f17-4d35-b1d5-927b18ba87f4;["topology_master"];6.25;1533238940.00024;3.15;9.12;0.0;9;117
11;paravance-67.rennes.grid5000.fr;thermos-root-devel-WordCountTopology-1-e32e8a77-d399-4545-b5b7-8760e011dcdf;["container_1_Consume_and_count_1"];6.25;1533238950.18033;67.71;470.74;0.022835341;10;149
11;paravance-56.rennes.grid5000.fr;thermos-root-devel-WordCountTopology-2-0ea1f07a-dbf9-407f-8beb-08e3196d5323;["container_2_Emit_random_words_2"];6.25;1533238950.45181;53.39;213.16;0.281511888;10;149
11;paravance-54.rennes.grid5000.fr;thermos-root-devel-WordCountTopology-0-338b4c47-5f17-4d35-b1d5-927b18ba87f4;["topology_master"];6.25;1533238950.21961;3.28;9.35;0.0;9;117
12;paravance-67.rennes.grid5000.fr;thermos-root-devel-WordCountTopology-1-e32e8a77-d399-4545-b5b7-8760e011dcdf;["container_1_Consume_and_count_1"];6.25;1533238960.39982;70.0;489.6;0.022835341;10;149
12;paravance-56.rennes.grid5000.fr;thermos-root-devel-WordCountTopology-2-0ea1f07a-dbf9-407f-8beb-08e3196d5323;["container_2_Emit_random_words_2"];6.25;1533238960.66548;55.13;220.1;0.281511888;10;149
12;paravance-54.rennes.grid5000.fr;thermos-root-devel-WordCountTopology-0-338b4c47-5f17-4d35-b1d5-927b18ba87f4;["topology_master"];6.25;1533238960.44037;3.3;9.37;0.0;9;117
13;paravance-67.rennes.grid5000.fr;thermos-root-devel-WordCountTopology-1-e32e8a77-d399-4545-b5b7-8760e011dcdf;["container_1_Consume_and_count_1"];6.25;1533238970.62129;72.52;509.16;0.022835341;10;149
13;paravance-56.rennes.grid5000.fr;thermos-root-devel-WordCountTopology-2-0ea1f07a-dbf9-407f-8beb-08e3196d5323;["container_2_Emit_random_words_2"];6.25;1533238970.8819;57.07;227.52;0.281511888;10;149
13;paravance-54.rennes.grid5000.fr;thermos-root-devel-WordCountTopology-0-338b4c47-5f17-4d35-b1d5-927b18ba87f4;["topology_master"];6.25;1533238970.66099;3.39;9.5;0.0;9;117
14;paravance-67.rennes.grid5000.fr;thermos-root-devel-WordCountTopology-1-e32e8a77-d399-4545-b5b7-8760e011dcdf;["container_1_Consume_and_count_1"];6.25;1533238980.84089;75.04;528.55;0.022835341;10;149
14;paravance-56.rennes.grid5000.fr;thermos-root-devel-WordCountTopology-2-0ea1f07a-dbf9-407f-8beb-08e3196d5323;["container_2_Emit_random_words_2"];6.25;1533238981.09919;58.93;234.97;0.281511888;10;149
14;paravance-54.rennes.grid5000.fr;thermos-root-devel-WordCountTopology-0-338b4c47-5f17-4d35-b1d5-927b18ba87f4;["topology_master"];6.25;1533238980.88208;3.44;9.57;0.0;9;117
15;paravance-67.rennes.grid5000.fr;thermos-root-devel-WordCountTopology-1-e32e8a77-d399-4545-b5b7-8760e011dcdf;["container_1_Consume_and_count_1"];6.25;1533238991.06086;77.74;547.98;0.022835341;10;149
15;paravance-54.rennes.grid5000.fr;thermos-root-devel-WordCountTopology-0-338b4c47-5f17-4d35-b1d5-927b18ba87f4;["topology_master"];6.25;1533238991.10318;3.5;9.65;0.0;9;117
15;paravance-56.rennes.grid5000.fr;thermos-root-devel-WordCountTopology-2-0ea1f07a-dbf9-407f-8beb-08e3196d5323;["container_2_Emit_random_words_2"];6.25;1533238991.31522;60.92;242.72;0.281511888;10;149
16;paravance-67.rennes.grid5000.fr;thermos-root-devel-WordCountTopology-1-e32e8a77-d399-4545-b5b7-8760e011dcdf;["container_1_Consume_and_count_1"];6.25;1533239001.28292;80.22;566.93;0.022835341;10;149
16;paravance-56.rennes.grid5000.fr;thermos-root-devel-WordCountTopology-2-0ea1f07a-dbf9-407f-8beb-08e3196d5323;["container_2_Emit_random_words_2"];6.25;1533239001.52978;62.71;249.6;0.281511888;10;149
16;paravance-54.rennes.grid5000.fr;thermos-root-devel-WordCountTopology-0-338b4c47-5f17-4d35-b1d5-927b18ba87f4;["topology_master"];6.25;1533239001.32387;3.55;9.73;0.0;9;117
17;paravance-67.rennes.grid5000.fr;thermos-root-devel-WordCountTopology-1-e32e8a77-d399-4545-b5b7-8760e011dcdf;["container_1_Consume_and_count_1"];6.25;1533239011.50399;82.97;586.31;0.022835341;10;149
17;paravance-56.rennes.grid5000.fr;thermos-root-devel-WordCountTopology-2-0ea1f07a-dbf9-407f-8beb-08e3196d5323;["container_2_Emit_random_words_2"];6.25;1533239011.74504;64.71;257.44;0.281511888;10;149
17;paravance-54.rennes.grid5000.fr;thermos-root-devel-WordCountTopology-0-338b4c47-5f17-4d35-b1d5-927b18ba87f4;["topology_master"];6.25;1533239011.5447;3.68;9.99;0.0;9;117
18;paravance-67.rennes.grid5000.fr;thermos-root-devel-WordCountTopology-1-e32e8a77-d399-4545-b5b7-8760e011dcdf;["container_1_Consume_and_count_1"];6.25;1533239021.72339;85.77;605.61;0.022835341;10;149
18;paravance-56.rennes.grid5000.fr;thermos-root-devel-WordCountTopology-2-0ea1f07a-dbf9-407f-8beb-08e3196d5323;["container_2_Emit_random_words_2"];6.25;1533239021.95967;66.76;265.42;0.281511888;10;149
18;paravance-54.rennes.grid5000.fr;thermos-root-devel-WordCountTopology-0-338b4c47-5f17-4d35-b1d5-927b18ba87f4;["topology_master"];6.25;1533239021.76396;3.7;10.02;0.0;9;117
19;paravance-67.rennes.grid5000.fr;thermos-root-devel-WordCountTopology-1-e32e8a77-d399-4545-b5b7-8760e011dcdf;["container_1_Consume_and_count_1"];6.25;1533239031.94348;88.44;625.27;0.022835341;10;149
19;paravance-56.rennes.grid5000.fr;thermos-root-devel-WordCountTopology-2-0ea1f07a-dbf9-407f-8beb-08e3196d5323;["container_2_Emit_random_words_2"];6.25;1533239032.17502;68.89;273.8;0.281511888;10;149
19;paravance-54.rennes.grid5000.fr;thermos-root-devel-WordCountTopology-0-338b4c47-5f17-4d35-b1d5-927b18ba87f4;["topology_master"];6.25;1533239031.98527;3.79;10.14;0.0;9;117
20;paravance-67.rennes.grid5000.fr;thermos-root-devel-WordCountTopology-1-e32e8a77-d399-4545-b5b7-8760e011dcdf;["container_1_Consume_and_count_1"];6.25;1533239042.16522;90.97;645.06;0.022835341;10;149
20;paravance-56.rennes.grid5000.fr;thermos-root-devel-WordCountTopology-2-0ea1f07a-dbf9-407f-8beb-08e3196d5323;["container_2_Emit_random_words_2"];6.25;1533239042.39059;70.9;281.62;0.281511888;10;149
20;paravance-54.rennes.grid5000.fr;thermos-root-devel-WordCountTopology-0-338b4c47-5f17-4d35-b1d5-927b18ba87f4;["topology_master"];6.25;1533239042.2061;3.85;10.21;0.0;9;117
21;paravance-56.rennes.grid5000.fr;thermos-root-devel-WordCountTopology-2-0ea1f07a-dbf9-407f-8beb-08e3196d5323;["container_2_Emit_random_words_2"];6.25;1533239052.60656;72.92;289.33;0.281511888;10;149
21;paravance-67.rennes.grid5000.fr;thermos-root-devel-WordCountTopology-1-e32e8a77-d399-4545-b5b7-8760e011dcdf;["container_1_Consume_and_count_1"];6.25;1533239052.38735;93.56;664.54;0.022835341;10;149
21;paravance-54.rennes.grid5000.fr;thermos-root-devel-WordCountTopology-0-338b4c47-5f17-4d35-b1d5-927b18ba87f4;["topology_master"];6.25;1533239052.427;3.91;10.29;0.0;9;117
22;paravance-67.rennes.grid5000.fr;thermos-root-devel-WordCountTopology-1-e32e8a77-d399-4545-b5b7-8760e011dcdf;["container_1_Consume_and_count_1"];6.25;1533239062.60762;95.93;683.81;0.022835341;10;149
22;paravance-56.rennes.grid5000.fr;thermos-root-devel-WordCountTopology-2-0ea1f07a-dbf9-407f-8beb-08e3196d5323;["container_2_Emit_random_words_2"];6.25;1533239062.821;74.61;296.37;0.281511888;10;149
22;paravance-54.rennes.grid5000.fr;thermos-root-devel-WordCountTopology-0-338b4c47-5f17-4d35-b1d5-927b18ba87f4;["topology_master"];6.25;1533239062.64696;3.96;10.36;0.0;9;117
23;paravance-67.rennes.grid5000.fr;thermos-root-devel-WordCountTopology-1-e32e8a77-d399-4545-b5b7-8760e011dcdf;["container_1_Consume_and_count_1"];6.25;1533239072.82685;98.66;703.51;0.022835341;10;149
23;paravance-56.rennes.grid5000.fr;thermos-root-devel-WordCountTopology-2-0ea1f07a-dbf9-407f-8beb-08e3196d5323;["container_2_Emit_random_words_2"];6.25;1533239073.03714;76.78;305.12;0.281511888;10;149
23;paravance-54.rennes.grid5000.fr;thermos-root-devel-WordCountTopology-0-338b4c47-5f17-4d35-b1d5-927b18ba87f4;["topology_master"];6.25;1533239072.86962;4.07;10.55;0.0;9;117
24;paravance-67.rennes.grid5000.fr;thermos-root-devel-WordCountTopology-1-e32e8a77-d399-4545-b5b7-8760e011dcdf;["container_1_Consume_and_count_1"];6.25;1533239083.04862;101.4;722.83;0.022835341;10;149
24;paravance-56.rennes.grid5000.fr;thermos-root-devel-WordCountTopology-2-0ea1f07a-dbf9-407f-8beb-08e3196d5323;["container_2_Emit_random_words_2"];6.25;1533239083.25286;78.76;313.45;0.281511888;10;149
24;paravance-54.rennes.grid5000.fr;thermos-root-devel-WordCountTopology-0-338b4c47-5f17-4d35-b1d5-927b18ba87f4;["topology_master"];6.25;1533239083.08886;4.1;10.57;0.0;9;117
25;paravance-67.rennes.grid5000.fr;thermos-root-devel-WordCountTopology-1-e32e8a77-d399-4545-b5b7-8760e011dcdf;["container_1_Consume_and_count_1"];6.25;1533239093.26941;104.04;742.14;0.022835341;10;149
25;paravance-56.rennes.grid5000.fr;thermos-root-devel-WordCountTopology-2-0ea1f07a-dbf9-407f-8beb-08e3196d5323;["container_2_Emit_random_words_2"];6.25;1533239093.46974;80.76;321.24;0.281511888;10;149
25;paravance-54.rennes.grid5000.fr;thermos-root-devel-WordCountTopology-0-338b4c47-5f17-4d35-b1d5-927b18ba87f4;["topology_master"];6.25;1533239093.30921;4.18;10.69;0.0;9;117
26;paravance-56.rennes.grid5000.fr;thermos-root-devel-WordCountTopology-2-0ea1f07a-dbf9-407f-8beb-08e3196d5323;["container_2_Emit_random_words_2"];6.25;1533239103.68358;82.81;329.56;0.281511888;10;149
26;paravance-54.rennes.grid5000.fr;thermos-root-devel-WordCountTopology-0-338b4c47-5f17-4d35-b1d5-927b18ba87f4;["topology_master"];6.25;1533239103.5292;4.24;10.76;0.0;9;117
26;paravance-67.rennes.grid5000.fr;thermos-root-devel-WordCountTopology-1-e32e8a77-d399-4545-b5b7-8760e011dcdf;["container_1_Consume_and_count_1"];6.25;1533239103.49134;106.7;761.53;0.022835341;10;149
27;paravance-56.rennes.grid5000.fr;thermos-root-devel-WordCountTopology-2-0ea1f07a-dbf9-407f-8beb-08e3196d5323;["container_2_Emit_random_words_2"];6.25;1533239113.89905;84.86;337.84;0.281511888;10;149
27;paravance-67.rennes.grid5000.fr;thermos-root-devel-WordCountTopology-1-e32e8a77-d399-4545-b5b7-8760e011dcdf;["container_1_Consume_and_count_1"];6.25;1533239113.71058;109.42;780.63;0.022835341;10;149
27;paravance-54.rennes.grid5000.fr;thermos-root-devel-WordCountTopology-0-338b4c47-5f17-4d35-b1d5-927b18ba87f4;["topology_master"];6.25;1533239113.75005;4.29;10.84;0.0;9;117
28;paravance-67.rennes.grid5000.fr;thermos-root-devel-WordCountTopology-1-e32e8a77-d399-4545-b5b7-8760e011dcdf;["container_1_Consume_and_count_1"];6.25;1533239123.93073;112.18;800.3;0.022835341;10;149
28;paravance-56.rennes.grid5000.fr;thermos-root-devel-WordCountTopology-2-0ea1f07a-dbf9-407f-8beb-08e3196d5323;["container_2_Emit_random_words_2"];6.25;1533239124.11573;87.01;346.37;0.281511888;10;149
28;paravance-54.rennes.grid5000.fr;thermos-root-devel-WordCountTopology-0-338b4c47-5f17-4d35-b1d5-927b18ba87f4;["topology_master"];6.25;1533239123.97163;4.35;10.91;0.0;9;117
29;paravance-67.rennes.grid5000.fr;thermos-root-devel-WordCountTopology-1-e32e8a77-d399-4545-b5b7-8760e011dcdf;["container_1_Consume_and_count_1"];6.25;1533239134.15128;114.84;819.91;0.022835341;10;149
29;paravance-54.rennes.grid5000.fr;thermos-root-devel-WordCountTopology-0-338b4c47-5f17-4d35-b1d5-927b18ba87f4;["topology_master"];6.25;1533239134.19161;4.45;11.08;0.0;9;117
29;paravance-56.rennes.grid5000.fr;thermos-root-devel-WordCountTopology-2-0ea1f07a-dbf9-407f-8beb-08e3196d5323;["container_2_Emit_random_words_2"];6.25;1533239134.33115;89.04;354.06;0.281511888;10;149
30;paravance-67.rennes.grid5000.fr;thermos-root-devel-WordCountTopology-1-e32e8a77-d399-4545-b5b7-8760e011dcdf;["container_1_Consume_and_count_1"];6.25;1533239144.37128;117.49;839.41;0.022835341;10;149
30;paravance-56.rennes.grid5000.fr;thermos-root-devel-WordCountTopology-2-0ea1f07a-dbf9-407f-8beb-08e3196d5323;["container_2_Emit_random_words_2"];6.25;1533239144.54575;91.09;361.88;0.281511888;10;147
30;paravance-54.rennes.grid5000.fr;thermos-root-devel-WordCountTopology-0-338b4c47-5f17-4d35-b1d5-927b18ba87f4;["topology_master"];6.25;1533239144.41205;4.52;11.16;0.0;9;117
31;paravance-67.rennes.grid5000.fr;thermos-root-devel-WordCountTopology-1-e32e8a77-d399-4545-b5b7-8760e011dcdf;["container_1_Consume_and_count_1"];6.25;1533239154.59338;120.14;859.02;0.022835341;10;149
31;paravance-56.rennes.grid5000.fr;thermos-root-devel-WordCountTopology-2-0ea1f07a-dbf9-407f-8beb-08e3196d5323;["container_2_Emit_random_words_2"];6.25;1533239154.76219;93.08;369.26;0.281511888;10;149
31;paravance-54.rennes.grid5000.fr;thermos-root-devel-WordCountTopology-0-338b4c47-5f17-4d35-b1d5-927b18ba87f4;["topology_master"];6.25;1533239154.63315;4.57;11.23;0.0;9;117
32;paravance-67.rennes.grid5000.fr;thermos-root-devel-WordCountTopology-1-e32e8a77-d399-4545-b5b7-8760e011dcdf;["container_1_Consume_and_count_1"];6.25;1533239164.81305;122.79;878.38;0.022835341;10;149
32;paravance-56.rennes.grid5000.fr;thermos-root-devel-WordCountTopology-2-0ea1f07a-dbf9-407f-8beb-08e3196d5323;["container_2_Emit_random_words_2"];6.25;1533239164.97741;95.14;377.36;0.281511888;10;149
32;paravance-54.rennes.grid5000.fr;thermos-root-devel-WordCountTopology-0-338b4c47-5f17-4d35-b1d5-927b18ba87f4;["topology_master"];6.25;1533239164.85335;4.66;11.35;0.0;9;117
33;paravance-56.rennes.grid5000.fr;thermos-root-devel-WordCountTopology-2-0ea1f07a-dbf9-407f-8beb-08e3196d5323;["container_2_Emit_random_words_2"];6.25;1533239175.19176;96.93;384.18;0.281511888;10;149
33;paravance-54.rennes.grid5000.fr;thermos-root-devel-WordCountTopology-0-338b4c47-5f17-4d35-b1d5-927b18ba87f4;["topology_master"];6.25;1533239175.07412;4.69;11.37;0.0;9;117
33;paravance-67.rennes.grid5000.fr;thermos-root-devel-WordCountTopology-1-e32e8a77-d399-4545-b5b7-8760e011dcdf;["container_1_Consume_and_count_1"];6.25;1533239175.03577;125.16;896.95;0.022835341;10;149
34;paravance-67.rennes.grid5000.fr;thermos-root-devel-WordCountTopology-1-e32e8a77-d399-4545-b5b7-8760e011dcdf;["container_1_Consume_and_count_1"];6.25;1533239185.25543;127.81;916.34;0.022835341;10;149
34;paravance-54.rennes.grid5000.fr;thermos-root-devel-WordCountTopology-0-338b4c47-5f17-4d35-b1d5-927b18ba87f4;["topology_master"];6.25;1533239185.29502;4.79;11.51;0.0;9;117
34;paravance-56.rennes.grid5000.fr;thermos-root-devel-WordCountTopology-2-0ea1f07a-dbf9-407f-8beb-08e3196d5323;["container_2_Emit_random_words_2"];6.25;1533239185.41018;98.92;391.31;0.281511888;10;149
35;paravance-67.rennes.grid5000.fr;thermos-root-devel-WordCountTopology-1-e32e8a77-d399-4545-b5b7-8760e011dcdf;["container_1_Consume_and_count_1"];6.25;1533239195.47619;130.27;935.32;0.022835341;10;149
35;paravance-56.rennes.grid5000.fr;thermos-root-devel-WordCountTopology-2-0ea1f07a-dbf9-407f-8beb-08e3196d5323;["container_2_Emit_random_words_2"];6.25;1533239195.62421;100.8;398.41;0.281511888;10;149
35;paravance-54.rennes.grid5000.fr;thermos-root-devel-WordCountTopology-0-338b4c47-5f17-4d35-b1d5-927b18ba87f4;["topology_master"];6.25;1533239195.51585;4.85;11.68;0.0;9;117
36;paravance-67.rennes.grid5000.fr;thermos-root-devel-WordCountTopology-1-e32e8a77-d399-4545-b5b7-8760e011dcdf;["container_1_Consume_and_count_1"];6.25;1533239205.6952;132.88;954.3;0.022835341;10;149
36;paravance-54.rennes.grid5000.fr;thermos-root-devel-WordCountTopology-0-338b4c47-5f17-4d35-b1d5-927b18ba87f4;["topology_master"];6.25;1533239205.73508;4.94;11.8;0.0;9;117
36;paravance-56.rennes.grid5000.fr;thermos-root-devel-WordCountTopology-2-0ea1f07a-dbf9-407f-8beb-08e3196d5323;["container_2_Emit_random_words_2"];6.25;1533239205.84021;102.76;405.43;0.281511888;10;149
37;paravance-67.rennes.grid5000.fr;thermos-root-devel-WordCountTopology-1-e32e8a77-d399-4545-b5b7-8760e011dcdf;["container_1_Consume_and_count_1"];6.25;1533239215.91507;135.41;973.7;0.022835341;10;149
37;paravance-54.rennes.grid5000.fr;thermos-root-devel-WordCountTopology-0-338b4c47-5f17-4d35-b1d5-927b18ba87f4;["topology_master"];6.25;1533239215.9563;4.96;11.82;0.0;9;117
37;paravance-56.rennes.grid5000.fr;thermos-root-devel-WordCountTopology-2-0ea1f07a-dbf9-407f-8beb-08e3196d5323;["container_2_Emit_random_words_2"];6.25;1533239216.05518;104.79;412.51;0.281511888;10;149
38;paravance-67.rennes.grid5000.fr;thermos-root-devel-WordCountTopology-1-e32e8a77-d399-4545-b5b7-8760e011dcdf;["container_1_Consume_and_count_1"];6.25;1533239226.13619;138.23;993.12;0.022835341;10;149
38;paravance-54.rennes.grid5000.fr;thermos-root-devel-WordCountTopology-0-338b4c47-5f17-4d35-b1d5-927b18ba87f4;["topology_master"];6.25;1533239226.1764;5.05;11.94;0.0;9;117
38;paravance-56.rennes.grid5000.fr;thermos-root-devel-WordCountTopology-2-0ea1f07a-dbf9-407f-8beb-08e3196d5323;["container_2_Emit_random_words_2"];6.25;1533239226.27088;106.96;420.91;0.281511888;10;149
39;paravance-67.rennes.grid5000.fr;thermos-root-devel-WordCountTopology-1-e32e8a77-d399-4545-b5b7-8760e011dcdf;["container_1_Consume_and_count_1"];6.25;1533239236.35906;140.64;1011.94;0.022835341;10;149
39;paravance-54.rennes.grid5000.fr;thermos-root-devel-WordCountTopology-0-338b4c47-5f17-4d35-b1d5-927b18ba87f4;["topology_master"];6.25;1533239236.39768;5.1;12.01;0.0;9;117
39;paravance-56.rennes.grid5000.fr;thermos-root-devel-WordCountTopology-2-0ea1f07a-dbf9-407f-8beb-08e3196d5323;["container_2_Emit_random_words_2"];6.25;1533239236.48586;108.78;427.39;0.281511888;10;149
40;paravance-67.rennes.grid5000.fr;thermos-root-devel-WordCountTopology-1-e32e8a77-d399-4545-b5b7-8760e011dcdf;["container_1_Consume_and_count_1"];6.25;1533239246.59142;143.06;1031.05;0.022835341;10;149
40;paravance-56.rennes.grid5000.fr;thermos-root-devel-WordCountTopology-2-0ea1f07a-dbf9-407f-8beb-08e3196d5323;["container_2_Emit_random_words_2"];6.25;1533239246.71449;110.61;434.24;0.281511888;10;149
40;paravance-54.rennes.grid5000.fr;thermos-root-devel-WordCountTopology-0-338b4c47-5f17-4d35-b1d5-927b18ba87f4;["topology_master"];6.25;1533239246.63569;5.17;12.09;0.0;9;117
41;paravance-54.rennes.grid5000.fr;thermos-root-devel-WordCountTopology-0-338b4c47-5f17-4d35-b1d5-927b18ba87f4;["topology_master"];6.25;1533239256.85531;5.24;12.21;0.0;9;117
41;paravance-67.rennes.grid5000.fr;thermos-root-devel-WordCountTopology-1-e32e8a77-d399-4545-b5b7-8760e011dcdf;["container_1_Consume_and_count_1"];6.25;1533239256.81694;145.62;1049.93;0.022835341;10;149
41;paravance-56.rennes.grid5000.fr;thermos-root-devel-WordCountTopology-2-0ea1f07a-dbf9-407f-8beb-08e3196d5323;["container_2_Emit_random_words_2"];6.25;1533239256.93325;112.45;441.26;0.281511888;10;149
42;paravance-56.rennes.grid5000.fr;thermos-root-devel-WordCountTopology-2-0ea1f07a-dbf9-407f-8beb-08e3196d5323;["container_2_Emit_random_words_2"];6.25;1533239267.148;114.53;449.09;0.281511888;10;149
42;paravance-67.rennes.grid5000.fr;thermos-root-devel-WordCountTopology-1-e32e8a77-d399-4545-b5b7-8760e011dcdf;["container_1_Consume_and_count_1"];6.25;1533239267.03628;148.39;1069.75;0.022835341;10;149
42;paravance-54.rennes.grid5000.fr;thermos-root-devel-WordCountTopology-0-338b4c47-5f17-4d35-b1d5-927b18ba87f4;["topology_master"];6.25;1533239267.07686;5.32;12.33;0.0;9;117
43;paravance-67.rennes.grid5000.fr;thermos-root-devel-WordCountTopology-1-e32e8a77-d399-4545-b5b7-8760e011dcdf;["container_1_Consume_and_count_1"];6.25;1533239277.25602;150.93;1089.09;0.022835341;10;149
43;paravance-56.rennes.grid5000.fr;thermos-root-devel-WordCountTopology-2-0ea1f07a-dbf9-407f-8beb-08e3196d5323;["container_2_Emit_random_words_2"];6.25;1533239277.36375;116.47;456.41;0.281511888;10;149
43;paravance-54.rennes.grid5000.fr;thermos-root-devel-WordCountTopology-0-338b4c47-5f17-4d35-b1d5-927b18ba87f4;["topology_master"];6.25;1533239277.29707;5.35;12.36;0.0;9;117
44;paravance-67.rennes.grid5000.fr;thermos-root-devel-WordCountTopology-1-e32e8a77-d399-4545-b5b7-8760e011dcdf;["container_1_Consume_and_count_1"];6.25;1533239287.47664;153.61;1108.55;0.022835341;10;149
44;paravance-56.rennes.grid5000.fr;thermos-root-devel-WordCountTopology-2-0ea1f07a-dbf9-407f-8beb-08e3196d5323;["container_2_Emit_random_words_2"];6.25;1533239287.58065;118.6;464.45;0.281511888;10;149
44;paravance-54.rennes.grid5000.fr;thermos-root-devel-WordCountTopology-0-338b4c47-5f17-4d35-b1d5-927b18ba87f4;["topology_master"];6.25;1533239287.5181;5.44;12.48;0.0;9;117
45;paravance-67.rennes.grid5000.fr;thermos-root-devel-WordCountTopology-1-e32e8a77-d399-4545-b5b7-8760e011dcdf;["container_1_Consume_and_count_1"];6.25;1533239297.6984;156.31;1128.0;0.022835341;10;149
45;paravance-56.rennes.grid5000.fr;thermos-root-devel-WordCountTopology-2-0ea1f07a-dbf9-407f-8beb-08e3196d5323;["container_2_Emit_random_words_2"];6.25;1533239297.79463;120.65;472.09;0.281511888;10;149
45;paravance-54.rennes.grid5000.fr;thermos-root-devel-WordCountTopology-0-338b4c47-5f17-4d35-b1d5-927b18ba87f4;["topology_master"];6.25;1533239297.73827;5.49;12.55;0.0;9;117
46;paravance-67.rennes.grid5000.fr;thermos-root-devel-WordCountTopology-1-e32e8a77-d399-4545-b5b7-8760e011dcdf;["container_1_Consume_and_count_1"];6.25;1533239307.91901;158.68;1146.81;0.022835341;10;149
46;paravance-56.rennes.grid5000.fr;thermos-root-devel-WordCountTopology-2-0ea1f07a-dbf9-407f-8beb-08e3196d5323;["container_2_Emit_random_words_2"];6.25;1533239308.00928;122.45;478.57;0.281511888;10;149
46;paravance-54.rennes.grid5000.fr;thermos-root-devel-WordCountTopology-0-338b4c47-5f17-4d35-b1d5-927b18ba87f4;["topology_master"];6.25;1533239307.9584;5.56;12.64;0.0;9;117
47;paravance-67.rennes.grid5000.fr;thermos-root-devel-WordCountTopology-1-e32e8a77-d399-4545-b5b7-8760e011dcdf;["container_1_Consume_and_count_1"];6.25;1533239318.13816;161.07;1166.32;0.022835341;10;149
47;paravance-54.rennes.grid5000.fr;thermos-root-devel-WordCountTopology-0-338b4c47-5f17-4d35-b1d5-927b18ba87f4;["topology_master"];6.25;1533239318.17848;5.62;12.78;0.0;9;117
47;paravance-56.rennes.grid5000.fr;thermos-root-devel-WordCountTopology-2-0ea1f07a-dbf9-407f-8beb-08e3196d5323;["container_2_Emit_random_words_2"];6.25;1533239318.22616;124.37;485.33;0.281511888;10;149
48;paravance-54.rennes.grid5000.fr;thermos-root-devel-WordCountTopology-0-338b4c47-5f17-4d35-b1d5-927b18ba87f4;["topology_master"];6.25;1533239328.39822;5.71;12.9;0.0;9;117
48;paravance-67.rennes.grid5000.fr;thermos-root-devel-WordCountTopology-1-e32e8a77-d399-4545-b5b7-8760e011dcdf;["container_1_Consume_and_count_1"];6.25;1533239328.36004;163.67;1186.02;0.022835341;10;149
48;paravance-56.rennes.grid5000.fr;thermos-root-devel-WordCountTopology-2-0ea1f07a-dbf9-407f-8beb-08e3196d5323;["container_2_Emit_random_words_2"];6.25;1533239328.44005;126.41;493.08;0.281511888;10;149
49;paravance-67.rennes.grid5000.fr;thermos-root-devel-WordCountTopology-1-e32e8a77-d399-4545-b5b7-8760e011dcdf;["container_1_Consume_and_count_1"];6.25;1533239338.57864;166.32;1205.28;0.022835341;10;149
49;paravance-56.rennes.grid5000.fr;thermos-root-devel-WordCountTopology-2-0ea1f07a-dbf9-407f-8beb-08e3196d5323;["container_2_Emit_random_words_2"];6.25;1533239338.6559;128.56;500.91;0.281511888;10;149
49;paravance-54.rennes.grid5000.fr;thermos-root-devel-WordCountTopology-0-338b4c47-5f17-4d35-b1d5-927b18ba87f4;["topology_master"];6.25;1533239338.62041;5.74;12.93;0.0;9;117
50;paravance-67.rennes.grid5000.fr;thermos-root-devel-WordCountTopology-1-e32e8a77-d399-4545-b5b7-8760e011dcdf;["container_1_Consume_and_count_1"];6.25;1533239348.80148;168.88;1224.73;0.022835341;10;149
50;paravance-56.rennes.grid5000.fr;thermos-root-devel-WordCountTopology-2-0ea1f07a-dbf9-407f-8beb-08e3196d5323;["container_2_Emit_random_words_2"];6.25;1533239348.87117;130.61;508.23;0.281511888;10;149
50;paravance-54.rennes.grid5000.fr;thermos-root-devel-WordCountTopology-0-338b4c47-5f17-4d35-b1d5-927b18ba87f4;["topology_master"];6.25;1533239348.84127;5.83;13.06;0.0;9;117
51;paravance-67.rennes.grid5000.fr;thermos-root-devel-WordCountTopology-1-e32e8a77-d399-4545-b5b7-8760e011dcdf;["container_1_Consume_and_count_1"];6.25;1533239359.02153;171.45;1244.4;0.022835341;10;149
51;paravance-56.rennes.grid5000.fr;thermos-root-devel-WordCountTopology-2-0ea1f07a-dbf9-407f-8beb-08e3196d5323;["container_2_Emit_random_words_2"];6.25;1533239359.08954;132.7;515.73;0.281511888;10;149
51;paravance-54.rennes.grid5000.fr;thermos-root-devel-WordCountTopology-0-338b4c47-5f17-4d35-b1d5-927b18ba87f4;["topology_master"];6.25;1533239359.0637;5.88;13.13;0.0;9;117
52;paravance-67.rennes.grid5000.fr;thermos-root-devel-WordCountTopology-1-e32e8a77-d399-4545-b5b7-8760e011dcdf;["container_1_Consume_and_count_1"];6.25;1533239369.24282;174.01;1263.56;0.022835341;10;149
52;paravance-56.rennes.grid5000.fr;thermos-root-devel-WordCountTopology-2-0ea1f07a-dbf9-407f-8beb-08e3196d5323;["container_2_Emit_random_words_2"];6.25;1533239369.30666;134.83;523.39;0.281511888;10;149
52;paravance-54.rennes.grid5000.fr;thermos-root-devel-WordCountTopology-0-338b4c47-5f17-4d35-b1d5-927b18ba87f4;["topology_master"];6.25;1533239369.28476;5.95;13.25;0.0;9;117
53;paravance-56.rennes.grid5000.fr;thermos-root-devel-WordCountTopology-2-0ea1f07a-dbf9-407f-8beb-08e3196d5323;["container_2_Emit_random_words_2"];6.25;1533239379.52148;136.76;530.2;0.281511888;10;149
53;paravance-54.rennes.grid5000.fr;thermos-root-devel-WordCountTopology-0-338b4c47-5f17-4d35-b1d5-927b18ba87f4;["topology_master"];6.25;1533239379.50598;6.01;13.33;0.0;9;117
53;paravance-67.rennes.grid5000.fr;thermos-root-devel-WordCountTopology-1-e32e8a77-d399-4545-b5b7-8760e011dcdf;["container_1_Consume_and_count_1"];6.25;1533239379.46639;176.37;1282.29;0.022835341;10;149
54;paravance-56.rennes.grid5000.fr;thermos-root-devel-WordCountTopology-2-0ea1f07a-dbf9-407f-8beb-08e3196d5323;["container_2_Emit_random_words_2"];6.25;1533239389.73785;138.9;538.01;0.281511888;10;149
54;paravance-54.rennes.grid5000.fr;thermos-root-devel-WordCountTopology-0-338b4c47-5f17-4d35-b1d5-927b18ba87f4;["topology_master"];6.25;1533239389.72717;6.1;13.46;0.0;9;117
54;paravance-67.rennes.grid5000.fr;thermos-root-devel-WordCountTopology-1-e32e8a77-d399-4545-b5b7-8760e011dcdf;["container_1_Consume_and_count_1"];6.25;1533239389.68944;178.98;1301.73;0.022835341;10;149
55;paravance-56.rennes.grid5000.fr;thermos-root-devel-WordCountTopology-2-0ea1f07a-dbf9-407f-8beb-08e3196d5323;["container_2_Emit_random_words_2"];6.25;1533239399.85425;140.87;545.6;0.281511888;10;149
55;paravance-67.rennes.grid5000.fr;thermos-root-devel-WordCountTopology-1-e32e8a77-d399-4545-b5b7-8760e011dcdf;["container_1_Consume_and_count_1"];6.25;1533239399.90761;181.6;1321.32;0.022835341;10;149
55;paravance-54.rennes.grid5000.fr;thermos-root-devel-WordCountTopology-0-338b4c47-5f17-4d35-b1d5-927b18ba87f4;["topology_master"];6.25;1533239399.94847;6.13;13.48;0.0;9;117
56;paravance-67.rennes.grid5000.fr;thermos-root-devel-WordCountTopology-1-e32e8a77-d399-4545-b5b7-8760e011dcdf;["container_1_Consume_and_count_1"];6.25;1533239410.13054;184.01;1340.45;0.022835341;10;149
56;paravance-56.rennes.grid5000.fr;thermos-root-devel-WordCountTopology-2-0ea1f07a-dbf9-407f-8beb-08e3196d5323;["container_2_Emit_random_words_2"];6.25;1533239410.17009;142.76;552.59;0.281511888;10;149
56;paravance-54.rennes.grid5000.fr;thermos-root-devel-WordCountTopology-0-338b4c47-5f17-4d35-b1d5-927b18ba87f4;["topology_master"];6.25;1533239410.17081;6.21;13.6;0.0;9;117
57;paravance-56.rennes.grid5000.fr;thermos-root-devel-WordCountTopology-2-0ea1f07a-dbf9-407f-8beb-08e3196d5323;["container_2_Emit_random_words_2"];6.25;1533239420.38733;144.92;560.48;0.281511888;10;149
57;paravance-67.rennes.grid5000.fr;thermos-root-devel-WordCountTopology-1-e32e8a77-d399-4545-b5b7-8760e011dcdf;["container_1_Consume_and_count_1"];6.25;1533239420.35375;186.63;1359.95;0.022835341;10;149
57;paravance-54.rennes.grid5000.fr;thermos-root-devel-WordCountTopology-0-338b4c47-5f17-4d35-b1d5-927b18ba87f4;["topology_master"];6.25;1533239420.3924;6.27;13.68;0.0;9;117
58;paravance-67.rennes.grid5000.fr;thermos-root-devel-WordCountTopology-1-e32e8a77-d399-4545-b5b7-8760e011dcdf;["container_1_Consume_and_count_1"];6.25;1533239430.57258;189.28;1379.47;0.022835341;10;149
58;paravance-54.rennes.grid5000.fr;thermos-root-devel-WordCountTopology-0-338b4c47-5f17-4d35-b1d5-927b18ba87f4;["topology_master"];6.25;1533239430.6121;6.35;13.81;0.0;9;117
58;paravance-56.rennes.grid5000.fr;thermos-root-devel-WordCountTopology-2-0ea1f07a-dbf9-407f-8beb-08e3196d5323;["container_2_Emit_random_words_2"];6.25;1533239430.60444;146.99;568.1;0.281511888;10;149
59;paravance-67.rennes.grid5000.fr;thermos-root-devel-WordCountTopology-1-e32e8a77-d399-4545-b5b7-8760e011dcdf;["container_1_Consume_and_count_1"];6.25;1533239440.79432;191.81;1398.66;0.022835341;10;149
59;paravance-54.rennes.grid5000.fr;thermos-root-devel-WordCountTopology-0-338b4c47-5f17-4d35-b1d5-927b18ba87f4;["topology_master"];6.25;1533239440.83313;6.41;13.88;0.0;9;117
59;paravance-56.rennes.grid5000.fr;thermos-root-devel-WordCountTopology-2-0ea1f07a-dbf9-407f-8beb-08e3196d5323;["container_2_Emit_random_words_2"];6.25;1533239440.82021;149.0;575.47;0.281511888;10;149
60;paravance-67.rennes.grid5000.fr;thermos-root-devel-WordCountTopology-1-e32e8a77-d399-4545-b5b7-8760e011dcdf;["container_1_Consume_and_count_1"];6.25;1533239451.01197;194.52;1417.76;0.022835341;10;149
60;paravance-56.rennes.grid5000.fr;thermos-root-devel-WordCountTopology-2-0ea1f07a-dbf9-407f-8beb-08e3196d5323;["container_2_Emit_random_words_2"];6.25;1533239451.03435;151.25;583.7;0.281511888;10;149
60;paravance-54.rennes.grid5000.fr;thermos-root-devel-WordCountTopology-0-338b4c47-5f17-4d35-b1d5-927b18ba87f4;["topology_master"];6.25;1533239451.05492;6.49;14.01;0.0;9;117
