{
  "status": "success",
  "executiontime": 0.00020694732666015625,
  "message": "",
  "result": {
    "bolts": {
      "Consume_and_count": [
        "container_1_Consume_and_count_1"
      ]
    },
    "instances": {
      "container_2_Emit_random_words_2": {
        "stmgrId": "stmgr-2",
        "logfile": "http://paravance-9.rennes.grid5000.fr:31659/file/log-files/container_2_Emit_random_words_2.log.0",
        "id": "container_2_Emit_random_words_2",
        "name": "Emit_random_words"
      },
      "container_1_Consume_and_count_1": {
        "stmgrId": "stmgr-1",
        "logfile": "http://paravance-26.rennes.grid5000.fr:31507/file/log-files/container_1_Consume_and_count_1.log.0",
        "id": "container_1_Consume_and_count_1",
        "name": "Consume_and_count"
      }
    },
    "instance_groups": {
      "container_1_Consume_and": [
        "container_1_Consume_and_count_1"
      ],
      "container_2_Emit_random": [
        "container_2_Emit_random_words_2"
      ]
    },
    "spouts": {
      "Emit_random_words": [
        "container_2_Emit_random_words_2"
      ]
    },
    "config": {
      "topology.message.timeout.secs": "30",
      "topology.team.environment": "devel",
      "topology.serializer.classname": "org.apache.heron.streamlet.impl.KryoSerializer",
      "topology.team.name": "root",
      "topology.debug": "false",
      "topology.max.spout.pending": "100",
      "topology.container.padding.percentage": "300",
      "topology.enable.message.timeouts": "true",
      "topology.component.parallelism": "1",
      "topology.name": "WordCountTopology",
      "topology.stmgrs": "2",
      "topology.reliability.mode": "ATMOST_ONCE"
    },
    "stmgrs": {
      "stmgr-1": {
        "cwd": "/var/lib/mesos/slaves/ad3cb46c-e3d6-41ee-87c2-3887b1c91141-S2/frameworks/75deb08a-eb1b-415c-8b2c-e922be5f7d98-0000/executors/thermos-root-devel-WordCountTopology-1-9285785d-68bd-4793-ae9f-654f3fa501a3/runs/6ce971c2-5545-431e-b710-eb78b1e5dc9c/sandbox",
        "host": "paravance-26.rennes.grid5000.fr",
        "joburl": "http://paravance-26.rennes.grid5000.fr:31507/browse/",
        "shell_port": 31507,
        "logfiles": "http://paravance-26.rennes.grid5000.fr:31507/browse/log-files",
        "pid": 2840,
        "id": "stmgr-1",
        "instance_ids": [
          "container_1_Consume_and_count_1"
        ],
        "port": 31519
      },
      "stmgr-2": {
        "cwd": "/var/lib/mesos/slaves/ad3cb46c-e3d6-41ee-87c2-3887b1c91141-S1/frameworks/75deb08a-eb1b-415c-8b2c-e922be5f7d98-0000/executors/thermos-root-devel-WordCountTopology-2-8d39126b-f322-4303-87af-85a5c0369a3d/runs/ad237d28-6d99-439f-852f-e4f1152f0f5e/sandbox",
        "host": "paravance-9.rennes.grid5000.fr",
        "joburl": "http://paravance-9.rennes.grid5000.fr:31659/browse/",
        "shell_port": 31659,
        "logfiles": "http://paravance-9.rennes.grid5000.fr:31659/browse/log-files",
        "pid": 2765,
        "id": "stmgr-2",
        "instance_ids": [
          "container_2_Emit_random_words_2"
        ],
        "port": 31034
      }
    }
  },
  "tracker_version": "0.17.8-61-gd7c8c62"
}