mesure_id;slave_id;executor_id;heron_instances;cpus_limit;timestamp_A;cpus_system_time_secs_A;cpus_user_time_secs_A;cpus_throttled_time_secs_A;processes;threads
0;paravance-64.rennes.grid5000.fr;thermos-root-devel-WordCountTopology-2-caf30543-0691-4433-ba37-ec728cd3bd93;["container_2_Emit_random_words_2"];1.25;1533044965.24174;22.81;88.73;123.174312112;10;149
0;paravance-61.rennes.grid5000.fr;thermos-root-devel-WordCountTopology-1-3918e8cf-aee3-4e83-b4f5-1d068dce8ac6;["container_1_Consume_and_count_1"];1.25;1533044965.14309;32.15;106.97;311.82662704;10;151
0;paravance-62.rennes.grid5000.fr;thermos-root-devel-WordCountTopology-0-97f828b9-8829-48ba-98fe-2d0ac8b6104e;["topology_master"];1.25;1533044965.14518;2.47;8.25;7.439638118;9;117
1;paravance-62.rennes.grid5000.fr;thermos-root-devel-WordCountTopology-0-97f828b9-8829-48ba-98fe-2d0ac8b6104e;["topology_master"];1.25;1533044975.36133;2.54;8.42;7.439638118;9;117
1;paravance-61.rennes.grid5000.fr;thermos-root-devel-WordCountTopology-1-3918e8cf-aee3-4e83-b4f5-1d068dce8ac6;["container_1_Consume_and_count_1"];1.25;1533044975.36015;35.01;115.95;338.142234935;10;151
1;paravance-64.rennes.grid5000.fr;thermos-root-devel-WordCountTopology-2-caf30543-0691-4433-ba37-ec728cd3bd93;["container_2_Emit_random_words_2"];1.25;1533044975.46163;24.72;95.57;130.320307572;10;149
2;paravance-61.rennes.grid5000.fr;thermos-root-devel-WordCountTopology-1-3918e8cf-aee3-4e83-b4f5-1d068dce8ac6;["container_1_Consume_and_count_1"];1.25;1533044985.57676;37.82;124.98;363.938508268;10;151
2;paravance-64.rennes.grid5000.fr;thermos-root-devel-WordCountTopology-2-caf30543-0691-4433-ba37-ec728cd3bd93;["container_2_Emit_random_words_2"];1.25;1533044985.6779;26.93;102.81;137.961258296;10;149
2;paravance-62.rennes.grid5000.fr;thermos-root-devel-WordCountTopology-0-97f828b9-8829-48ba-98fe-2d0ac8b6104e;["topology_master"];1.25;1533044985.57978;2.62;8.54;7.455677776;9;117
3;paravance-61.rennes.grid5000.fr;thermos-root-devel-WordCountTopology-1-3918e8cf-aee3-4e83-b4f5-1d068dce8ac6;["container_1_Consume_and_count_1"];1.25;1533044995.79456;40.6;133.92;388.133145384;10;151
3;paravance-62.rennes.grid5000.fr;thermos-root-devel-WordCountTopology-0-97f828b9-8829-48ba-98fe-2d0ac8b6104e;["topology_master"];1.25;1533044995.79625;2.65;8.58;7.455677776;9;117
3;paravance-64.rennes.grid5000.fr;thermos-root-devel-WordCountTopology-2-caf30543-0691-4433-ba37-ec728cd3bd93;["container_2_Emit_random_words_2"];1.25;1533044995.89562;29.1;110.27;146.185368378;10;149
4;paravance-61.rennes.grid5000.fr;thermos-root-devel-WordCountTopology-1-3918e8cf-aee3-4e83-b4f5-1d068dce8ac6;["container_1_Consume_and_count_1"];1.25;1533045006.01715;43.41;142.8;411.6726924;10;151
4;paravance-64.rennes.grid5000.fr;thermos-root-devel-WordCountTopology-2-caf30543-0691-4433-ba37-ec728cd3bd93;["container_2_Emit_random_words_2"];1.25;1533045006.11724;31.34;117.87;154.0774342;10;149
4;paravance-62.rennes.grid5000.fr;thermos-root-devel-WordCountTopology-0-97f828b9-8829-48ba-98fe-2d0ac8b6104e;["topology_master"];1.25;1533045006.01929;2.75;8.7;7.455677776;9;117
5;paravance-62.rennes.grid5000.fr;thermos-root-devel-WordCountTopology-0-97f828b9-8829-48ba-98fe-2d0ac8b6104e;["topology_master"];1.25;1533045016.23801;2.8;8.78;7.455677776;9;117
5;paravance-61.rennes.grid5000.fr;thermos-root-devel-WordCountTopology-1-3918e8cf-aee3-4e83-b4f5-1d068dce8ac6;["container_1_Consume_and_count_1"];1.25;1533045016.23635;46.02;152.01;440.221453561;10;151
5;paravance-64.rennes.grid5000.fr;thermos-root-devel-WordCountTopology-2-caf30543-0691-4433-ba37-ec728cd3bd93;["container_2_Emit_random_words_2"];1.25;1533045016.33664;33.4;124.87;161.233879393;10;149
6;paravance-61.rennes.grid5000.fr;thermos-root-devel-WordCountTopology-1-3918e8cf-aee3-4e83-b4f5-1d068dce8ac6;["container_1_Consume_and_count_1"];1.25;1533045026.45514;48.89;160.99;464.593803215;10;151
6;paravance-62.rennes.grid5000.fr;thermos-root-devel-WordCountTopology-0-97f828b9-8829-48ba-98fe-2d0ac8b6104e;["topology_master"];1.25;1533045026.45774;2.89;8.9;7.459704689;9;117
6;paravance-64.rennes.grid5000.fr;thermos-root-devel-WordCountTopology-2-caf30543-0691-4433-ba37-ec728cd3bd93;["container_2_Emit_random_words_2"];1.25;1533045026.55627;35.28;131.58;167.347226787;10;150
7;paravance-61.rennes.grid5000.fr;thermos-root-devel-WordCountTopology-1-3918e8cf-aee3-4e83-b4f5-1d068dce8ac6;["container_1_Consume_and_count_1"];1.25;1533045036.67269;51.71;169.89;489.503901259;10;151
7;paravance-64.rennes.grid5000.fr;thermos-root-devel-WordCountTopology-2-caf30543-0691-4433-ba37-ec728cd3bd93;["container_2_Emit_random_words_2"];1.25;1533045036.77283;37.14;138.42;174.815578767;10;150
7;paravance-62.rennes.grid5000.fr;thermos-root-devel-WordCountTopology-0-97f828b9-8829-48ba-98fe-2d0ac8b6104e;["topology_master"];1.25;1533045036.67509;2.96;9.06;7.459704689;9;117
8;paravance-62.rennes.grid5000.fr;thermos-root-devel-WordCountTopology-0-97f828b9-8829-48ba-98fe-2d0ac8b6104e;["topology_master"];1.25;1533045046.89373;3.05;9.2;7.459704689;9;117
8;paravance-64.rennes.grid5000.fr;thermos-root-devel-WordCountTopology-2-caf30543-0691-4433-ba37-ec728cd3bd93;["container_2_Emit_random_words_2"];1.25;1533045046.99313;39.04;145.33;181.1897359;10;149
8;paravance-61.rennes.grid5000.fr;thermos-root-devel-WordCountTopology-1-3918e8cf-aee3-4e83-b4f5-1d068dce8ac6;["container_1_Consume_and_count_1"];1.25;1533045046.89208;54.55;178.84;514.973566514;10;151
9;paravance-64.rennes.grid5000.fr;thermos-root-devel-WordCountTopology-2-caf30543-0691-4433-ba37-ec728cd3bd93;["container_2_Emit_random_words_2"];1.25;1533045057.20746;40.89;152.36;188.173970989;10;149
9;paravance-61.rennes.grid5000.fr;thermos-root-devel-WordCountTopology-1-3918e8cf-aee3-4e83-b4f5-1d068dce8ac6;["container_1_Consume_and_count_1"];1.25;1533045057.10704;57.32;187.91;540.458796572;10;151
9;paravance-62.rennes.grid5000.fr;thermos-root-devel-WordCountTopology-0-97f828b9-8829-48ba-98fe-2d0ac8b6104e;["topology_master"];1.25;1533045057.10947;3.11;9.27;7.459704689;9;117
10;paravance-64.rennes.grid5000.fr;thermos-root-devel-WordCountTopology-2-caf30543-0691-4433-ba37-ec728cd3bd93;["container_2_Emit_random_words_2"];1.25;1533045067.42327;42.82;159.27;195.352390308;10;149
10;paravance-62.rennes.grid5000.fr;thermos-root-devel-WordCountTopology-0-97f828b9-8829-48ba-98fe-2d0ac8b6104e;["topology_master"];1.25;1533045067.32555;3.17;9.34;7.459704689;9;117
10;paravance-61.rennes.grid5000.fr;thermos-root-devel-WordCountTopology-1-3918e8cf-aee3-4e83-b4f5-1d068dce8ac6;["container_1_Consume_and_count_1"];1.25;1533045067.3233;60.15;196.94;566.516790238;10;151
11;paravance-62.rennes.grid5000.fr;thermos-root-devel-WordCountTopology-0-97f828b9-8829-48ba-98fe-2d0ac8b6104e;["topology_master"];1.25;1533045077.54014;3.23;9.41;7.459704689;9;117
11;paravance-64.rennes.grid5000.fr;thermos-root-devel-WordCountTopology-2-caf30543-0691-4433-ba37-ec728cd3bd93;["container_2_Emit_random_words_2"];1.25;1533045077.63886;44.79;166.4;202.62948369;10;149
11;paravance-61.rennes.grid5000.fr;thermos-root-devel-WordCountTopology-1-3918e8cf-aee3-4e83-b4f5-1d068dce8ac6;["container_1_Consume_and_count_1"];1.25;1533045077.53811;62.99;206.02;591.617648826;10;151
12;paravance-61.rennes.grid5000.fr;thermos-root-devel-WordCountTopology-1-3918e8cf-aee3-4e83-b4f5-1d068dce8ac6;["container_1_Consume_and_count_1"];1.25;1533045087.75574;65.76;215.07;617.41155631;10;151
12;paravance-62.rennes.grid5000.fr;thermos-root-devel-WordCountTopology-0-97f828b9-8829-48ba-98fe-2d0ac8b6104e;["topology_master"];1.25;1533045087.75733;3.36;9.65;7.463736514;9;117
12;paravance-64.rennes.grid5000.fr;thermos-root-devel-WordCountTopology-2-caf30543-0691-4433-ba37-ec728cd3bd93;["container_2_Emit_random_words_2"];1.25;1533045087.85599;46.74;173.43;209.292645054;10;150
13;paravance-64.rennes.grid5000.fr;thermos-root-devel-WordCountTopology-2-caf30543-0691-4433-ba37-ec728cd3bd93;["container_2_Emit_random_words_2"];1.25;1533045098.07335;48.62;180.2;215.811216721;10;150
13;paravance-61.rennes.grid5000.fr;thermos-root-devel-WordCountTopology-1-3918e8cf-aee3-4e83-b4f5-1d068dce8ac6;["container_1_Consume_and_count_1"];1.25;1533045097.97361;68.4;224.25;646.476892148;10;151
13;paravance-62.rennes.grid5000.fr;thermos-root-devel-WordCountTopology-0-97f828b9-8829-48ba-98fe-2d0ac8b6104e;["topology_master"];1.25;1533045097.97629;3.39;9.74;7.463736514;9;117
14;paravance-61.rennes.grid5000.fr;thermos-root-devel-WordCountTopology-1-3918e8cf-aee3-4e83-b4f5-1d068dce8ac6;["container_1_Consume_and_count_1"];1.25;1533045108.19188;71.19;233.21;674.11559995;10;151
14;paravance-62.rennes.grid5000.fr;thermos-root-devel-WordCountTopology-0-97f828b9-8829-48ba-98fe-2d0ac8b6104e;["topology_master"];1.25;1533045108.19396;3.48;9.87;7.463736514;9;117
14;paravance-64.rennes.grid5000.fr;thermos-root-devel-WordCountTopology-2-caf30543-0691-4433-ba37-ec728cd3bd93;["container_2_Emit_random_words_2"];1.25;1533045108.29272;50.58;187.5;223.667476135;10;149
15;paravance-64.rennes.grid5000.fr;thermos-root-devel-WordCountTopology-2-caf30543-0691-4433-ba37-ec728cd3bd93;["container_2_Emit_random_words_2"];1.25;1533045118.51111;52.2;193.64;228.926340601;10;149
15;paravance-61.rennes.grid5000.fr;thermos-root-devel-WordCountTopology-1-3918e8cf-aee3-4e83-b4f5-1d068dce8ac6;["container_1_Consume_and_count_1"];1.25;1533045118.41056;73.85;242.4;701.975496539;10;151
15;paravance-62.rennes.grid5000.fr;thermos-root-devel-WordCountTopology-0-97f828b9-8829-48ba-98fe-2d0ac8b6104e;["topology_master"];1.25;1533045118.41306;3.54;9.93;7.463736514;9;117
16;paravance-64.rennes.grid5000.fr;thermos-root-devel-WordCountTopology-2-caf30543-0691-4433-ba37-ec728cd3bd93;["container_2_Emit_random_words_2"];1.25;1533045128.7308;53.99;200.18;235.575746424;10;149
16;paravance-62.rennes.grid5000.fr;thermos-root-devel-WordCountTopology-0-97f828b9-8829-48ba-98fe-2d0ac8b6104e;["topology_master"];1.25;1533045128.63121;3.6;10.01;7.463736514;9;117
16;paravance-61.rennes.grid5000.fr;thermos-root-devel-WordCountTopology-1-3918e8cf-aee3-4e83-b4f5-1d068dce8ac6;["container_1_Consume_and_count_1"];1.25;1533045128.63087;76.54;251.42;730.845390882;10;151
17;paravance-62.rennes.grid5000.fr;thermos-root-devel-WordCountTopology-0-97f828b9-8829-48ba-98fe-2d0ac8b6104e;["topology_master"];1.25;1533045138.84884;3.66;10.09;7.463736514;9;117
17;paravance-61.rennes.grid5000.fr;thermos-root-devel-WordCountTopology-1-3918e8cf-aee3-4e83-b4f5-1d068dce8ac6;["container_1_Consume_and_count_1"];1.25;1533045138.84826;79.26;260.53;757.7330977;10;151
17;paravance-64.rennes.grid5000.fr;thermos-root-devel-WordCountTopology-2-caf30543-0691-4433-ba37-ec728cd3bd93;["container_2_Emit_random_words_2"];1.25;1533045138.9485;55.77;207.07;242.443716704;10;149
18;paravance-61.rennes.grid5000.fr;thermos-root-devel-WordCountTopology-1-3918e8cf-aee3-4e83-b4f5-1d068dce8ac6;["container_1_Consume_and_count_1"];1.25;1533045149.06638;81.83;269.75;784.961993668;10;151
18;paravance-62.rennes.grid5000.fr;thermos-root-devel-WordCountTopology-0-97f828b9-8829-48ba-98fe-2d0ac8b6104e;["topology_master"];1.25;1533045149.06866;3.78;10.31;7.463736514;9;117
18;paravance-64.rennes.grid5000.fr;thermos-root-devel-WordCountTopology-2-caf30543-0691-4433-ba37-ec728cd3bd93;["container_2_Emit_random_words_2"];1.25;1533045149.16695;57.57;213.79;249.279681597;10;149
19;paravance-64.rennes.grid5000.fr;thermos-root-devel-WordCountTopology-2-caf30543-0691-4433-ba37-ec728cd3bd93;["container_2_Emit_random_words_2"];1.25;1533045159.38505;59.24;220.11;254.937171886;10;149
19;paravance-61.rennes.grid5000.fr;thermos-root-devel-WordCountTopology-1-3918e8cf-aee3-4e83-b4f5-1d068dce8ac6;["container_1_Consume_and_count_1"];1.25;1533045159.28506;84.51;278.84;813.113567772;10;151
19;paravance-62.rennes.grid5000.fr;thermos-root-devel-WordCountTopology-0-97f828b9-8829-48ba-98fe-2d0ac8b6104e;["topology_master"];1.25;1533045159.28786;3.81;10.34;7.463736514;9;117
20;paravance-64.rennes.grid5000.fr;thermos-root-devel-WordCountTopology-2-caf30543-0691-4433-ba37-ec728cd3bd93;["container_2_Emit_random_words_2"];1.25;1533045169.60301;61.19;227.08;262.446644708;10;149
20;paravance-62.rennes.grid5000.fr;thermos-root-devel-WordCountTopology-0-97f828b9-8829-48ba-98fe-2d0ac8b6104e;["topology_master"];1.25;1533045169.50456;3.9;10.47;7.463736514;9;117
20;paravance-61.rennes.grid5000.fr;thermos-root-devel-WordCountTopology-1-3918e8cf-aee3-4e83-b4f5-1d068dce8ac6;["container_1_Consume_and_count_1"];1.25;1533045169.50398;87.29;287.89;841.123344023;10;151
21;paravance-61.rennes.grid5000.fr;thermos-root-devel-WordCountTopology-1-3918e8cf-aee3-4e83-b4f5-1d068dce8ac6;["container_1_Consume_and_count_1"];1.25;1533045179.71976;90.01;296.89;867.26545345;10;151
21;paravance-62.rennes.grid5000.fr;thermos-root-devel-WordCountTopology-0-97f828b9-8829-48ba-98fe-2d0ac8b6104e;["topology_master"];1.25;1533045179.72134;3.95;10.54;7.463736514;9;117
21;paravance-64.rennes.grid5000.fr;thermos-root-devel-WordCountTopology-2-caf30543-0691-4433-ba37-ec728cd3bd93;["container_2_Emit_random_words_2"];1.25;1533045179.82051;63.04;234.59;269.29696609;10;149
22;paravance-61.rennes.grid5000.fr;thermos-root-devel-WordCountTopology-1-3918e8cf-aee3-4e83-b4f5-1d068dce8ac6;["container_1_Consume_and_count_1"];1.25;1533045189.93666;92.64;306.09;894.980941374;10;151
22;paravance-62.rennes.grid5000.fr;thermos-root-devel-WordCountTopology-0-97f828b9-8829-48ba-98fe-2d0ac8b6104e;["topology_master"];1.25;1533045189.94079;4.01;10.61;7.463736514;9;117
22;paravance-64.rennes.grid5000.fr;thermos-root-devel-WordCountTopology-2-caf30543-0691-4433-ba37-ec728cd3bd93;["container_2_Emit_random_words_2"];1.25;1533045190.03869;64.86;241.42;275.925327768;10;149
23;paravance-62.rennes.grid5000.fr;thermos-root-devel-WordCountTopology-0-97f828b9-8829-48ba-98fe-2d0ac8b6104e;["topology_master"];1.25;1533045200.1578;4.07;10.69;7.463736514;9;117
23;paravance-61.rennes.grid5000.fr;thermos-root-devel-WordCountTopology-1-3918e8cf-aee3-4e83-b4f5-1d068dce8ac6;["container_1_Consume_and_count_1"];1.25;1533045200.15565;95.25;315.33;921.639301311;10;151
23;paravance-64.rennes.grid5000.fr;thermos-root-devel-WordCountTopology-2-caf30543-0691-4433-ba37-ec728cd3bd93;["container_2_Emit_random_words_2"];1.25;1533045200.25751;66.69;248.54;282.653344223;10;149
24;paravance-62.rennes.grid5000.fr;thermos-root-devel-WordCountTopology-0-97f828b9-8829-48ba-98fe-2d0ac8b6104e;["topology_master"];1.25;1533045210.37644;4.17;10.87;7.463736514;9;117
24;paravance-64.rennes.grid5000.fr;thermos-root-devel-WordCountTopology-2-caf30543-0691-4433-ba37-ec728cd3bd93;["container_2_Emit_random_words_2"];1.25;1533045210.47506;68.68;255.89;290.138505028;10;149
24;paravance-61.rennes.grid5000.fr;thermos-root-devel-WordCountTopology-1-3918e8cf-aee3-4e83-b4f5-1d068dce8ac6;["container_1_Consume_and_count_1"];1.25;1533045210.37422;97.8;324.59;949.098947533;10;151
25;paravance-64.rennes.grid5000.fr;thermos-root-devel-WordCountTopology-2-caf30543-0691-4433-ba37-ec728cd3bd93;["container_2_Emit_random_words_2"];1.25;1533045220.69357;70.48;262.5;296.30402041;10;149
25;paravance-62.rennes.grid5000.fr;thermos-root-devel-WordCountTopology-0-97f828b9-8829-48ba-98fe-2d0ac8b6104e;["topology_master"];1.25;1533045220.59534;4.2;10.89;7.463736514;9;117
25;paravance-61.rennes.grid5000.fr;thermos-root-devel-WordCountTopology-1-3918e8cf-aee3-4e83-b4f5-1d068dce8ac6;["container_1_Consume_and_count_1"];1.25;1533045220.59362;100.47;333.72;974.839870432;10;151
26;paravance-62.rennes.grid5000.fr;thermos-root-devel-WordCountTopology-0-97f828b9-8829-48ba-98fe-2d0ac8b6104e;["topology_master"];1.25;1533045230.81362;4.29;11.02;7.463736514;9;117
26;paravance-64.rennes.grid5000.fr;thermos-root-devel-WordCountTopology-2-caf30543-0691-4433-ba37-ec728cd3bd93;["container_2_Emit_random_words_2"];1.25;1533045230.91301;72.35;269.61;303.626770942;10;149
26;paravance-61.rennes.grid5000.fr;thermos-root-devel-WordCountTopology-1-3918e8cf-aee3-4e83-b4f5-1d068dce8ac6;["container_1_Consume_and_count_1"];1.25;1533045230.81179;103.16;342.83;1001.538619932;10;151
27;paravance-64.rennes.grid5000.fr;thermos-root-devel-WordCountTopology-2-caf30543-0691-4433-ba37-ec728cd3bd93;["container_2_Emit_random_words_2"];1.25;1533045241.13139;74.17;276.33;310.222987826;10;149
27;paravance-62.rennes.grid5000.fr;thermos-root-devel-WordCountTopology-0-97f828b9-8829-48ba-98fe-2d0ac8b6104e;["topology_master"];1.25;1533045241.03324;4.35;11.09;7.463736514;9;117
27;paravance-61.rennes.grid5000.fr;thermos-root-devel-WordCountTopology-1-3918e8cf-aee3-4e83-b4f5-1d068dce8ac6;["container_1_Consume_and_count_1"];1.25;1533045241.03072;105.82;351.9;1029.496218;10;151
28;paravance-62.rennes.grid5000.fr;thermos-root-devel-WordCountTopology-0-97f828b9-8829-48ba-98fe-2d0ac8b6104e;["topology_master"];1.25;1533045251.24853;4.41;11.16;7.463736514;9;117
28;paravance-61.rennes.grid5000.fr;thermos-root-devel-WordCountTopology-1-3918e8cf-aee3-4e83-b4f5-1d068dce8ac6;["container_1_Consume_and_count_1"];1.25;1533045251.24663;108.53;360.97;1055.713091683;10;151
28;paravance-64.rennes.grid5000.fr;thermos-root-devel-WordCountTopology-2-caf30543-0691-4433-ba37-ec728cd3bd93;["container_2_Emit_random_words_2"];1.25;1533045251.34686;76.01;282.99;316.85189815;10;149
29;paravance-61.rennes.grid5000.fr;thermos-root-devel-WordCountTopology-1-3918e8cf-aee3-4e83-b4f5-1d068dce8ac6;["container_1_Consume_and_count_1"];1.25;1533045261.46518;111.33;369.9;1080.64865414;10;151
29;paravance-62.rennes.grid5000.fr;thermos-root-devel-WordCountTopology-0-97f828b9-8829-48ba-98fe-2d0ac8b6104e;["topology_master"];1.25;1533045261.46739;4.46;11.23;7.463736514;9;117
29;paravance-64.rennes.grid5000.fr;thermos-root-devel-WordCountTopology-2-caf30543-0691-4433-ba37-ec728cd3bd93;["container_2_Emit_random_words_2"];1.25;1533045261.56509;77.9;289.96;323.610832361;10;149
30;paravance-62.rennes.grid5000.fr;thermos-root-devel-WordCountTopology-0-97f828b9-8829-48ba-98fe-2d0ac8b6104e;["topology_master"];1.25;1533045271.68423;4.57;11.41;7.463736514;9;117
30;paravance-61.rennes.grid5000.fr;thermos-root-devel-WordCountTopology-1-3918e8cf-aee3-4e83-b4f5-1d068dce8ac6;["container_1_Consume_and_count_1"];1.25;1533045271.68274;113.85;379.32;1108.474305667;10;151
30;paravance-64.rennes.grid5000.fr;thermos-root-devel-WordCountTopology-2-caf30543-0691-4433-ba37-ec728cd3bd93;["container_2_Emit_random_words_2"];1.25;1533045271.78411;79.81;296.77;330.608598434;10;149
31;paravance-62.rennes.grid5000.fr;thermos-root-devel-WordCountTopology-0-97f828b9-8829-48ba-98fe-2d0ac8b6104e;["topology_master"];1.25;1533045281.90239;4.63;11.48;7.463736514;9;117
31;paravance-64.rennes.grid5000.fr;thermos-root-devel-WordCountTopology-2-caf30543-0691-4433-ba37-ec728cd3bd93;["container_2_Emit_random_words_2"];1.25;1533045282.00058;81.88;304.18;338.19791628;10;149
31;paravance-61.rennes.grid5000.fr;thermos-root-devel-WordCountTopology-1-3918e8cf-aee3-4e83-b4f5-1d068dce8ac6;["container_1_Consume_and_count_1"];1.25;1533045281.90072;116.49;388.45;1135.046900732;10;151
32;paravance-62.rennes.grid5000.fr;thermos-root-devel-WordCountTopology-0-97f828b9-8829-48ba-98fe-2d0ac8b6104e;["topology_master"];1.25;1533045292.1209;4.69;11.56;7.463736514;9;117
32;paravance-64.rennes.grid5000.fr;thermos-root-devel-WordCountTopology-2-caf30543-0691-4433-ba37-ec728cd3bd93;["container_2_Emit_random_words_2"];1.25;1533045292.22011;83.72;310.98;344.914619345;10;149
32;paravance-61.rennes.grid5000.fr;thermos-root-devel-WordCountTopology-1-3918e8cf-aee3-4e83-b4f5-1d068dce8ac6;["container_1_Consume_and_count_1"];1.25;1533045292.11849;119.11;397.61;1162.878920254;10;151
33;paravance-62.rennes.grid5000.fr;thermos-root-devel-WordCountTopology-0-97f828b9-8829-48ba-98fe-2d0ac8b6104e;["topology_master"];1.25;1533045302.33897;4.78;11.68;7.463736514;9;117
33;paravance-64.rennes.grid5000.fr;thermos-root-devel-WordCountTopology-2-caf30543-0691-4433-ba37-ec728cd3bd93;["container_2_Emit_random_words_2"];1.25;1533045302.43814;85.62;318.02;351.281928127;10;147
33;paravance-61.rennes.grid5000.fr;thermos-root-devel-WordCountTopology-1-3918e8cf-aee3-4e83-b4f5-1d068dce8ac6;["container_1_Consume_and_count_1"];1.25;1533045302.3375;121.79;406.67;1189.291076105;10;149
34;paravance-61.rennes.grid5000.fr;thermos-root-devel-WordCountTopology-1-3918e8cf-aee3-4e83-b4f5-1d068dce8ac6;["container_1_Consume_and_count_1"];1.25;1533045312.55531;124.44;415.88;1216.816218818;10;151
34;paravance-62.rennes.grid5000.fr;thermos-root-devel-WordCountTopology-0-97f828b9-8829-48ba-98fe-2d0ac8b6104e;["topology_master"];1.25;1533045312.55836;4.8;11.7;7.463736514;9;117
34;paravance-64.rennes.grid5000.fr;thermos-root-devel-WordCountTopology-2-caf30543-0691-4433-ba37-ec728cd3bd93;["container_2_Emit_random_words_2"];1.25;1533045312.65939;87.45;325.02;357.777695815;10;149
35;paravance-61.rennes.grid5000.fr;thermos-root-devel-WordCountTopology-1-3918e8cf-aee3-4e83-b4f5-1d068dce8ac6;["container_1_Consume_and_count_1"];1.25;1533045322.77064;126.92;425.25;1245.016585093;10;151
35;paravance-62.rennes.grid5000.fr;thermos-root-devel-WordCountTopology-0-97f828b9-8829-48ba-98fe-2d0ac8b6104e;["topology_master"];1.25;1533045322.77499;4.91;11.85;7.463736514;9;117
35;paravance-64.rennes.grid5000.fr;thermos-root-devel-WordCountTopology-2-caf30543-0691-4433-ba37-ec728cd3bd93;["container_2_Emit_random_words_2"];1.25;1533045322.87304;89.2;331.5;364.368818717;10;149
36;paravance-61.rennes.grid5000.fr;thermos-root-devel-WordCountTopology-1-3918e8cf-aee3-4e83-b4f5-1d068dce8ac6;["container_1_Consume_and_count_1"];1.25;1533045332.98758;129.42;434.53;1271.260860381;10;151
36;paravance-64.rennes.grid5000.fr;thermos-root-devel-WordCountTopology-2-caf30543-0691-4433-ba37-ec728cd3bd93;["container_2_Emit_random_words_2"];1.25;1533045333.08977;91.0;338.16;371.111371197;10;149
36;paravance-62.rennes.grid5000.fr;thermos-root-devel-WordCountTopology-0-97f828b9-8829-48ba-98fe-2d0ac8b6104e;["topology_master"];1.25;1533045332.99105;4.98;12.01;7.463736514;9;117
37;paravance-64.rennes.grid5000.fr;thermos-root-devel-WordCountTopology-2-caf30543-0691-4433-ba37-ec728cd3bd93;["container_2_Emit_random_words_2"];1.25;1533045343.30726;92.91;345.1;378.687284964;10;149
37;paravance-62.rennes.grid5000.fr;thermos-root-devel-WordCountTopology-0-97f828b9-8829-48ba-98fe-2d0ac8b6104e;["topology_master"];1.25;1533045343.20813;5.04;12.08;7.463736514;9;117
37;paravance-61.rennes.grid5000.fr;thermos-root-devel-WordCountTopology-1-3918e8cf-aee3-4e83-b4f5-1d068dce8ac6;["container_1_Consume_and_count_1"];1.25;1533045343.20572;132.06;443.72;1296.909775151;10;151
38;paravance-61.rennes.grid5000.fr;thermos-root-devel-WordCountTopology-1-3918e8cf-aee3-4e83-b4f5-1d068dce8ac6;["container_1_Consume_and_count_1"];1.25;1533045353.42359;134.49;453.17;1324.602964207;10;151
38;paravance-62.rennes.grid5000.fr;thermos-root-devel-WordCountTopology-0-97f828b9-8829-48ba-98fe-2d0ac8b6104e;["topology_master"];1.25;1533045353.42818;5.09;12.15;7.463736514;9;117
38;paravance-64.rennes.grid5000.fr;thermos-root-devel-WordCountTopology-2-caf30543-0691-4433-ba37-ec728cd3bd93;["container_2_Emit_random_words_2"];1.25;1533045353.52634;94.62;351.45;384.3872092;10;149
39;paravance-61.rennes.grid5000.fr;thermos-root-devel-WordCountTopology-1-3918e8cf-aee3-4e83-b4f5-1d068dce8ac6;["container_1_Consume_and_count_1"];1.25;1533045363.64061;137.08;462.38;1350.98772614;10;151
39;paravance-62.rennes.grid5000.fr;thermos-root-devel-WordCountTopology-0-97f828b9-8829-48ba-98fe-2d0ac8b6104e;["topology_master"];1.25;1533045363.64312;5.18;12.27;7.463736514;9;117
39;paravance-64.rennes.grid5000.fr;thermos-root-devel-WordCountTopology-2-caf30543-0691-4433-ba37-ec728cd3bd93;["container_2_Emit_random_words_2"];1.25;1533045363.74219;96.46;358.18;390.719446003;10;149
40;paravance-61.rennes.grid5000.fr;thermos-root-devel-WordCountTopology-1-3918e8cf-aee3-4e83-b4f5-1d068dce8ac6;["container_1_Consume_and_count_1"];1.25;1533045373.86026;139.68;471.62;1377.764040968;10;151
40;paravance-62.rennes.grid5000.fr;thermos-root-devel-WordCountTopology-0-97f828b9-8829-48ba-98fe-2d0ac8b6104e;["topology_master"];1.25;1533045373.863;5.21;12.3;7.463736514;9;117
40;paravance-64.rennes.grid5000.fr;thermos-root-devel-WordCountTopology-2-caf30543-0691-4433-ba37-ec728cd3bd93;["container_2_Emit_random_words_2"];1.25;1533045373.96231;98.2;364.79;396.85754679;10;149
41;paravance-64.rennes.grid5000.fr;thermos-root-devel-WordCountTopology-2-caf30543-0691-4433-ba37-ec728cd3bd93;["container_2_Emit_random_words_2"];1.25;1533045384.17703;99.93;371.02;403.130260754;10;149
41;paravance-62.rennes.grid5000.fr;thermos-root-devel-WordCountTopology-0-97f828b9-8829-48ba-98fe-2d0ac8b6104e;["topology_master"];1.25;1533045384.07837;5.31;12.43;7.463736514;9;117
41;paravance-61.rennes.grid5000.fr;thermos-root-devel-WordCountTopology-1-3918e8cf-aee3-4e83-b4f5-1d068dce8ac6;["container_1_Consume_and_count_1"];1.25;1533045384.07619;142.34;480.75;1405.418224788;10;151
42;paravance-64.rennes.grid5000.fr;thermos-root-devel-WordCountTopology-2-caf30543-0691-4433-ba37-ec728cd3bd93;["container_2_Emit_random_words_2"];1.25;1533045394.39445;101.85;378.26;409.807399108;10;149
42;paravance-61.rennes.grid5000.fr;thermos-root-devel-WordCountTopology-1-3918e8cf-aee3-4e83-b4f5-1d068dce8ac6;["container_1_Consume_and_count_1"];1.25;1533045394.29466;144.98;489.78;1432.680904503;10;151
42;paravance-62.rennes.grid5000.fr;thermos-root-devel-WordCountTopology-0-97f828b9-8829-48ba-98fe-2d0ac8b6104e;["topology_master"];1.25;1533045394.29759;5.37;12.54;7.463736514;9;117
43;paravance-62.rennes.grid5000.fr;thermos-root-devel-WordCountTopology-0-97f828b9-8829-48ba-98fe-2d0ac8b6104e;["topology_master"];1.25;1533045404.51477;5.46;12.66;7.463736514;9;117
43;paravance-61.rennes.grid5000.fr;thermos-root-devel-WordCountTopology-1-3918e8cf-aee3-4e83-b4f5-1d068dce8ac6;["container_1_Consume_and_count_1"];1.25;1533045404.51221;147.64;498.92;1458.399612983;10;151
43;paravance-64.rennes.grid5000.fr;thermos-root-devel-WordCountTopology-2-caf30543-0691-4433-ba37-ec728cd3bd93;["container_2_Emit_random_words_2"];1.25;1533045404.61528;103.88;385.82;416.830536251;10;149
44;paravance-62.rennes.grid5000.fr;thermos-root-devel-WordCountTopology-0-97f828b9-8829-48ba-98fe-2d0ac8b6104e;["topology_master"];1.25;1533045414.63322;5.48;12.69;7.463736514;9;117
44;paravance-61.rennes.grid5000.fr;thermos-root-devel-WordCountTopology-1-3918e8cf-aee3-4e83-b4f5-1d068dce8ac6;["container_1_Consume_and_count_1"];1.25;1533045414.73071;150.23;508.08;1484.365735186;10;151
44;paravance-64.rennes.grid5000.fr;thermos-root-devel-WordCountTopology-2-caf30543-0691-4433-ba37-ec728cd3bd93;["container_2_Emit_random_words_2"];1.25;1533045414.83203;105.88;393.39;424.305782123;10;149
45;paravance-64.rennes.grid5000.fr;thermos-root-devel-WordCountTopology-2-caf30543-0691-4433-ba37-ec728cd3bd93;["container_2_Emit_random_words_2"];1.25;1533045425.0486;107.65;399.74;429.880608982;10;149
45;paravance-61.rennes.grid5000.fr;thermos-root-devel-WordCountTopology-1-3918e8cf-aee3-4e83-b4f5-1d068dce8ac6;["container_1_Consume_and_count_1"];1.25;1533045424.9479;152.98;517.16;1511.907274363;10;151
45;paravance-62.rennes.grid5000.fr;thermos-root-devel-WordCountTopology-0-97f828b9-8829-48ba-98fe-2d0ac8b6104e;["topology_master"];1.25;1533045424.95047;5.57;12.81;7.463736514;9;117
46;paravance-62.rennes.grid5000.fr;thermos-root-devel-WordCountTopology-0-97f828b9-8829-48ba-98fe-2d0ac8b6104e;["topology_master"];1.25;1533045435.16946;5.63;12.88;7.463736514;9;117
46;paravance-64.rennes.grid5000.fr;thermos-root-devel-WordCountTopology-2-caf30543-0691-4433-ba37-ec728cd3bd93;["container_2_Emit_random_words_2"];1.25;1533045435.26857;109.63;407.25;436.624445288;10;149
46;paravance-61.rennes.grid5000.fr;thermos-root-devel-WordCountTopology-1-3918e8cf-aee3-4e83-b4f5-1d068dce8ac6;["container_1_Consume_and_count_1"];1.25;1533045435.16732;155.61;526.3;1538.664703065;10;151
47;paravance-62.rennes.grid5000.fr;thermos-root-devel-WordCountTopology-0-97f828b9-8829-48ba-98fe-2d0ac8b6104e;["topology_master"];1.25;1533045445.38632;5.69;12.96;7.463736514;9;117
47;paravance-61.rennes.grid5000.fr;thermos-root-devel-WordCountTopology-1-3918e8cf-aee3-4e83-b4f5-1d068dce8ac6;["container_1_Consume_and_count_1"];1.25;1533045445.38371;158.31;535.47;1564.364810346;10;151
47;paravance-64.rennes.grid5000.fr;thermos-root-devel-WordCountTopology-2-caf30543-0691-4433-ba37-ec728cd3bd93;["container_2_Emit_random_words_2"];1.25;1533045445.48607;111.45;414.08;443.648413026;10;149
48;paravance-62.rennes.grid5000.fr;thermos-root-devel-WordCountTopology-0-97f828b9-8829-48ba-98fe-2d0ac8b6104e;["topology_master"];1.25;1533045455.60311;5.76;13.09;7.463736514;9;117
48;paravance-61.rennes.grid5000.fr;thermos-root-devel-WordCountTopology-1-3918e8cf-aee3-4e83-b4f5-1d068dce8ac6;["container_1_Consume_and_count_1"];1.25;1533045455.60121;160.97;544.66;1592.109076627;10;151
48;paravance-64.rennes.grid5000.fr;thermos-root-devel-WordCountTopology-2-caf30543-0691-4433-ba37-ec728cd3bd93;["container_2_Emit_random_words_2"];1.25;1533045455.7018;113.27;420.86;450.190146395;10;149
49;paravance-62.rennes.grid5000.fr;thermos-root-devel-WordCountTopology-0-97f828b9-8829-48ba-98fe-2d0ac8b6104e;["topology_master"];1.25;1533045465.82265;5.85;13.22;7.463736514;9;117
49;paravance-61.rennes.grid5000.fr;thermos-root-devel-WordCountTopology-1-3918e8cf-aee3-4e83-b4f5-1d068dce8ac6;["container_1_Consume_and_count_1"];1.25;1533045465.82049;163.66;553.79;1618.143266301;10;151
49;paravance-64.rennes.grid5000.fr;thermos-root-devel-WordCountTopology-2-caf30543-0691-4433-ba37-ec728cd3bd93;["container_2_Emit_random_words_2"];1.25;1533045465.92176;115.21;428.36;458.047740109;10;149
50;paravance-61.rennes.grid5000.fr;thermos-root-devel-WordCountTopology-1-3918e8cf-aee3-4e83-b4f5-1d068dce8ac6;["container_1_Consume_and_count_1"];1.25;1533045476.03672;166.28;563.11;1643.947682751;10;151
50;paravance-64.rennes.grid5000.fr;thermos-root-devel-WordCountTopology-2-caf30543-0691-4433-ba37-ec728cd3bd93;["container_2_Emit_random_words_2"];1.25;1533045476.13861;117.15;435.65;465.419538457;10;149
50;paravance-62.rennes.grid5000.fr;thermos-root-devel-WordCountTopology-0-97f828b9-8829-48ba-98fe-2d0ac8b6104e;["topology_master"];1.25;1533045476.04108;5.87;13.24;7.463736514;9;117
51;paravance-62.rennes.grid5000.fr;thermos-root-devel-WordCountTopology-0-97f828b9-8829-48ba-98fe-2d0ac8b6104e;["topology_master"];1.25;1533045486.25732;5.97;13.37;7.463736514;9;117
51;paravance-61.rennes.grid5000.fr;thermos-root-devel-WordCountTopology-1-3918e8cf-aee3-4e83-b4f5-1d068dce8ac6;["container_1_Consume_and_count_1"];1.25;1533045486.25487;168.95;572.26;1668.458881128;10;151
51;paravance-64.rennes.grid5000.fr;thermos-root-devel-WordCountTopology-2-caf30543-0691-4433-ba37-ec728cd3bd93;["container_2_Emit_random_words_2"];1.25;1533045486.3571;119.14;442.9;472.536882817;10;149
52;paravance-61.rennes.grid5000.fr;thermos-root-devel-WordCountTopology-1-3918e8cf-aee3-4e83-b4f5-1d068dce8ac6;["container_1_Consume_and_count_1"];1.25;1533045496.47143;171.3;581.66;1702.440934053;10;151
52;paravance-62.rennes.grid5000.fr;thermos-root-devel-WordCountTopology-0-97f828b9-8829-48ba-98fe-2d0ac8b6104e;["topology_master"];1.25;1533045496.47509;6.02;13.45;7.463736514;9;117
52;paravance-64.rennes.grid5000.fr;thermos-root-devel-WordCountTopology-2-caf30543-0691-4433-ba37-ec728cd3bd93;["container_2_Emit_random_words_2"];1.25;1533045496.57477;120.55;448.08;477.07799822;10;149
53;paravance-62.rennes.grid5000.fr;thermos-root-devel-WordCountTopology-0-97f828b9-8829-48ba-98fe-2d0ac8b6104e;["topology_master"];1.25;1533045506.69443;6.09;13.54;7.463736514;9;117
53;paravance-61.rennes.grid5000.fr;thermos-root-devel-WordCountTopology-1-3918e8cf-aee3-4e83-b4f5-1d068dce8ac6;["container_1_Consume_and_count_1"];1.25;1533045506.69081;173.86;590.98;1729.256397056;10;151
53;paravance-64.rennes.grid5000.fr;thermos-root-devel-WordCountTopology-2-caf30543-0691-4433-ba37-ec728cd3bd93;["container_2_Emit_random_words_2"];1.25;1533045506.79305;122.43;454.97;483.815589065;10;149
54;paravance-64.rennes.grid5000.fr;thermos-root-devel-WordCountTopology-2-caf30543-0691-4433-ba37-ec728cd3bd93;["container_2_Emit_random_words_2"];1.25;1533045517.00883;124.37;462.42;490.795352829;10;149
54;paravance-62.rennes.grid5000.fr;thermos-root-devel-WordCountTopology-0-97f828b9-8829-48ba-98fe-2d0ac8b6104e;["topology_master"];1.25;1533045516.91232;6.14;13.64;7.463736514;9;117
54;paravance-61.rennes.grid5000.fr;thermos-root-devel-WordCountTopology-1-3918e8cf-aee3-4e83-b4f5-1d068dce8ac6;["container_1_Consume_and_count_1"];1.25;1533045516.90903;176.6;600.15;1754.241019707;10;151
55;paravance-61.rennes.grid5000.fr;thermos-root-devel-WordCountTopology-1-3918e8cf-aee3-4e83-b4f5-1d068dce8ac6;["container_1_Consume_and_count_1"];1.25;1533045527.12569;179.31;609.28;1780.994511357;10;151
55;paravance-64.rennes.grid5000.fr;thermos-root-devel-WordCountTopology-2-caf30543-0691-4433-ba37-ec728cd3bd93;["container_2_Emit_random_words_2"];1.25;1533045527.22753;126.21;469.26;496.73701546;10;149
55;paravance-62.rennes.grid5000.fr;thermos-root-devel-WordCountTopology-0-97f828b9-8829-48ba-98fe-2d0ac8b6104e;["topology_master"];1.25;1533045527.12791;6.23;13.76;7.463736514;9;117
56;paravance-64.rennes.grid5000.fr;thermos-root-devel-WordCountTopology-2-caf30543-0691-4433-ba37-ec728cd3bd93;["container_2_Emit_random_words_2"];1.25;1533045537.44536;128.09;476.2;503.316538033;10;149
56;paravance-61.rennes.grid5000.fr;thermos-root-devel-WordCountTopology-1-3918e8cf-aee3-4e83-b4f5-1d068dce8ac6;["container_1_Consume_and_count_1"];1.25;1533045537.34452;181.97;618.4;1806.622734494;10;151
56;paravance-62.rennes.grid5000.fr;thermos-root-devel-WordCountTopology-0-97f828b9-8829-48ba-98fe-2d0ac8b6104e;["topology_master"];1.25;1533045537.34604;6.26;13.78;7.463736514;9;117
57;paravance-62.rennes.grid5000.fr;thermos-root-devel-WordCountTopology-0-97f828b9-8829-48ba-98fe-2d0ac8b6104e;["topology_master"];1.25;1533045547.56472;6.34;13.9;7.463736514;9;117
57;paravance-61.rennes.grid5000.fr;thermos-root-devel-WordCountTopology-1-3918e8cf-aee3-4e83-b4f5-1d068dce8ac6;["container_1_Consume_and_count_1"];1.25;1533045547.56159;184.71;627.49;1829.720302122;10;151
57;paravance-64.rennes.grid5000.fr;thermos-root-devel-WordCountTopology-2-caf30543-0691-4433-ba37-ec728cd3bd93;["container_2_Emit_random_words_2"];1.25;1533045547.66456;130.38;483.13;509.521924027;10;149
58;paravance-61.rennes.grid5000.fr;thermos-root-devel-WordCountTopology-1-3918e8cf-aee3-4e83-b4f5-1d068dce8ac6;["container_1_Consume_and_count_1"];1.25;1533045557.77918;187.31;636.72;1857.658659331;10;151
58;paravance-64.rennes.grid5000.fr;thermos-root-devel-WordCountTopology-2-caf30543-0691-4433-ba37-ec728cd3bd93;["container_2_Emit_random_words_2"];1.25;1533045557.88018;132.22;489.57;514.783821955;10;149
58;paravance-62.rennes.grid5000.fr;thermos-root-devel-WordCountTopology-0-97f828b9-8829-48ba-98fe-2d0ac8b6104e;["topology_master"];1.25;1533045557.78183;6.4;13.97;7.463736514;9;117
59;paravance-64.rennes.grid5000.fr;thermos-root-devel-WordCountTopology-2-caf30543-0691-4433-ba37-ec728cd3bd93;["container_2_Emit_random_words_2"];1.25;1533045568.09726;133.97;495.82;520.608150638;10;149
59;paravance-62.rennes.grid5000.fr;thermos-root-devel-WordCountTopology-0-97f828b9-8829-48ba-98fe-2d0ac8b6104e;["topology_master"];1.25;1533045567.99797;6.48;14.11;7.463736514;9;117
59;paravance-61.rennes.grid5000.fr;thermos-root-devel-WordCountTopology-1-3918e8cf-aee3-4e83-b4f5-1d068dce8ac6;["container_1_Consume_and_count_1"];1.25;1533045567.99562;189.95;645.85;1883.275547967;10;151
60;paravance-61.rennes.grid5000.fr;thermos-root-devel-WordCountTopology-1-3918e8cf-aee3-4e83-b4f5-1d068dce8ac6;["container_1_Consume_and_count_1"];1.25;1533045578.21337;192.69;654.74;1909.583129072;10;151
60;paravance-62.rennes.grid5000.fr;thermos-root-devel-WordCountTopology-0-97f828b9-8829-48ba-98fe-2d0ac8b6104e;["topology_master"];1.25;1533045578.21628;6.54;14.19;7.463736514;9;117
60;paravance-64.rennes.grid5000.fr;thermos-root-devel-WordCountTopology-2-caf30543-0691-4433-ba37-ec728cd3bd93;["container_2_Emit_random_words_2"];1.25;1533045578.31515;135.73;502.33;526.810976153;10;149
