{
  "status": "success",
  "executiontime": 0.00017213821411132812,
  "message": "",
  "result": {
    "bolts": {
      "Consume_and_count": [
        "container_1_Consume_and_count_1"
      ]
    },
    "instances": {
      "container_2_Emit_random_words_2": {
        "stmgrId": "stmgr-2",
        "logfile": "http://paravance-3.rennes.grid5000.fr:31989/file/log-files/container_2_Emit_random_words_2.log.0",
        "id": "container_2_Emit_random_words_2",
        "name": "Emit_random_words"
      },
      "container_1_Consume_and_count_1": {
        "stmgrId": "stmgr-1",
        "logfile": "http://paravance-29.rennes.grid5000.fr:31965/file/log-files/container_1_Consume_and_count_1.log.0",
        "id": "container_1_Consume_and_count_1",
        "name": "Consume_and_count"
      }
    },
    "instance_groups": {
      "container_1_Consume_and": [
        "container_1_Consume_and_count_1"
      ],
      "container_2_Emit_random": [
        "container_2_Emit_random_words_2"
      ]
    },
    "spouts": {
      "Emit_random_words": [
        "container_2_Emit_random_words_2"
      ]
    },
    "config": {
      "topology.message.timeout.secs": "30",
      "topology.team.environment": "devel",
      "topology.serializer.classname": "org.apache.heron.streamlet.impl.KryoSerializer",
      "topology.team.name": "root",
      "topology.debug": "false",
      "topology.max.spout.pending": "100",
      "topology.container.padding.percentage": "200",
      "topology.enable.message.timeouts": "true",
      "topology.component.parallelism": "1",
      "topology.name": "WordCountTopology",
      "topology.stmgrs": "2",
      "topology.reliability.mode": "ATMOST_ONCE"
    },
    "stmgrs": {
      "stmgr-1": {
        "cwd": "/var/lib/mesos/slaves/13350d15-a80a-4c3e-8711-942e9d35e3a1-S1/frameworks/75deb08a-eb1b-415c-8b2c-e922be5f7d98-0000/executors/thermos-root-devel-WordCountTopology-1-d16acb71-9cfc-4b79-8d09-0a902450057d/runs/df3c1313-5ac4-45db-a89e-a6d78a627c84/sandbox",
        "host": "paravance-29.rennes.grid5000.fr",
        "joburl": "http://paravance-29.rennes.grid5000.fr:31965/browse/",
        "shell_port": 31965,
        "logfiles": "http://paravance-29.rennes.grid5000.fr:31965/browse/log-files",
        "pid": 2106,
        "id": "stmgr-1",
        "instance_ids": [
          "container_1_Consume_and_count_1"
        ],
        "port": 31368
      },
      "stmgr-2": {
        "cwd": "/var/lib/mesos/slaves/13350d15-a80a-4c3e-8711-942e9d35e3a1-S2/frameworks/75deb08a-eb1b-415c-8b2c-e922be5f7d98-0000/executors/thermos-root-devel-WordCountTopology-2-90dd0f00-b35a-44bc-84db-03addac7584c/runs/92cb3978-e101-4213-836b-691b0156f9bd/sandbox",
        "host": "paravance-3.rennes.grid5000.fr",
        "joburl": "http://paravance-3.rennes.grid5000.fr:31989/browse/",
        "shell_port": 31989,
        "logfiles": "http://paravance-3.rennes.grid5000.fr:31989/browse/log-files",
        "pid": 2163,
        "id": "stmgr-2",
        "instance_ids": [
          "container_2_Emit_random_words_2"
        ],
        "port": 31566
      }
    }
  },
  "tracker_version": "0.17.8-61-gd7c8c62"
}