mesure_id;slave_id;executor_id;heron_instances;cpus_limit;timestamp_A;cpus_system_time_secs_A;cpus_user_time_secs_A;cpus_throttled_time_secs_A;processes;threads
0;paravance-71.rennes.grid5000.fr;thermos-root-devel-WordCountTopology-1-536b2efa-aeab-4322-96cf-9ade982c5221;["container_1_Consume_and_count_1"];2.25;1533225307.94758;30.31;196.55;69.952979756;10;149
0;paravance-17.rennes.grid5000.fr;thermos-root-devel-WordCountTopology-0-e4343aa5-998d-4d90-802d-3e651974f051;["topology_master"];2.25;1533225308.15204;2.49;8.06;0.080077888;9;117
0;paravance-12.rennes.grid5000.fr;thermos-root-devel-WordCountTopology-2-39c67545-aa11-4f0c-8b57-91580d854e7d;["container_2_Emit_random_words_2"];2.25;1533225308.14992;24.6;99.61;18.035559721;10;149
1;paravance-71.rennes.grid5000.fr;thermos-root-devel-WordCountTopology-1-536b2efa-aeab-4322-96cf-9ade982c5221;["container_1_Consume_and_count_1"];2.25;1533225318.18709;32.71;213.46;76.072626803;10;149
1;paravance-17.rennes.grid5000.fr;thermos-root-devel-WordCountTopology-0-e4343aa5-998d-4d90-802d-3e651974f051;["topology_master"];2.25;1533225318.36943;2.56;8.22;0.080077888;9;117
1;paravance-12.rennes.grid5000.fr;thermos-root-devel-WordCountTopology-2-39c67545-aa11-4f0c-8b57-91580d854e7d;["container_2_Emit_random_words_2"];2.25;1533225318.36793;26.47;106.74;18.558838947;10;149
2;paravance-71.rennes.grid5000.fr;thermos-root-devel-WordCountTopology-1-536b2efa-aeab-4322-96cf-9ade982c5221;["container_1_Consume_and_count_1"];2.25;1533225328.4054;35.41;230.78;80.751727289;10;149
2;paravance-12.rennes.grid5000.fr;thermos-root-devel-WordCountTopology-2-39c67545-aa11-4f0c-8b57-91580d854e7d;["container_2_Emit_random_words_2"];2.25;1533225328.58207;28.84;115.4;19.182689977;10;149
2;paravance-17.rennes.grid5000.fr;thermos-root-devel-WordCountTopology-0-e4343aa5-998d-4d90-802d-3e651974f051;["topology_master"];2.25;1533225328.5843;2.65;8.35;0.080077888;9;117
3;paravance-71.rennes.grid5000.fr;thermos-root-devel-WordCountTopology-1-536b2efa-aeab-4322-96cf-9ade982c5221;["container_1_Consume_and_count_1"];2.25;1533225338.62569;37.88;248.18;85.934756882;10;149
3;paravance-17.rennes.grid5000.fr;thermos-root-devel-WordCountTopology-0-e4343aa5-998d-4d90-802d-3e651974f051;["topology_master"];2.25;1533225338.80058;2.68;8.39;0.080077888;9;117
3;paravance-12.rennes.grid5000.fr;thermos-root-devel-WordCountTopology-2-39c67545-aa11-4f0c-8b57-91580d854e7d;["container_2_Emit_random_words_2"];2.25;1533225338.79755;30.89;123.43;19.612384387;10;149
4;paravance-17.rennes.grid5000.fr;thermos-root-devel-WordCountTopology-0-e4343aa5-998d-4d90-802d-3e651974f051;["topology_master"];2.25;1533225349.016;2.77;8.51;0.080077888;9;117
4;paravance-12.rennes.grid5000.fr;thermos-root-devel-WordCountTopology-2-39c67545-aa11-4f0c-8b57-91580d854e7d;["container_2_Emit_random_words_2"];2.25;1533225349.01312;32.95;131.27;19.895467822;10;149
4;paravance-71.rennes.grid5000.fr;thermos-root-devel-WordCountTopology-1-536b2efa-aeab-4322-96cf-9ade982c5221;["container_1_Consume_and_count_1"];2.25;1533225348.84558;40.44;265.2;91.320804284;10;149
5;paravance-71.rennes.grid5000.fr;thermos-root-devel-WordCountTopology-1-536b2efa-aeab-4322-96cf-9ade982c5221;["container_1_Consume_and_count_1"];2.25;1533225359.06731;43.03;282.38;96.539282015;10;149
5;paravance-12.rennes.grid5000.fr;thermos-root-devel-WordCountTopology-2-39c67545-aa11-4f0c-8b57-91580d854e7d;["container_2_Emit_random_words_2"];2.25;1533225359.23025;34.97;138.5;20.137724339;10;149
5;paravance-17.rennes.grid5000.fr;thermos-root-devel-WordCountTopology-0-e4343aa5-998d-4d90-802d-3e651974f051;["topology_master"];2.25;1533225359.23235;2.83;8.58;0.080077888;9;117
6;paravance-12.rennes.grid5000.fr;thermos-root-devel-WordCountTopology-2-39c67545-aa11-4f0c-8b57-91580d854e7d;["container_2_Emit_random_words_2"];2.25;1533225369.44285;37.16;146.75;20.480990812;10;149
6;paravance-71.rennes.grid5000.fr;thermos-root-devel-WordCountTopology-1-536b2efa-aeab-4322-96cf-9ade982c5221;["container_1_Consume_and_count_1"];2.25;1533225369.28735;45.64;299.41;102.245209199;10;149
6;paravance-17.rennes.grid5000.fr;thermos-root-devel-WordCountTopology-0-e4343aa5-998d-4d90-802d-3e651974f051;["topology_master"];2.25;1533225369.44721;2.94;8.75;0.080077888;9;117
7;paravance-71.rennes.grid5000.fr;thermos-root-devel-WordCountTopology-1-536b2efa-aeab-4322-96cf-9ade982c5221;["container_1_Consume_and_count_1"];2.25;1533225379.50817;48.18;316.52;107.594024445;10;149
7;paravance-12.rennes.grid5000.fr;thermos-root-devel-WordCountTopology-2-39c67545-aa11-4f0c-8b57-91580d854e7d;["container_2_Emit_random_words_2"];2.25;1533225379.65989;39.24;154.69;21.033185706;10;149
7;paravance-17.rennes.grid5000.fr;thermos-root-devel-WordCountTopology-0-e4343aa5-998d-4d90-802d-3e651974f051;["topology_master"];2.25;1533225379.66164;2.98;8.87;0.080077888;9;117
8;paravance-17.rennes.grid5000.fr;thermos-root-devel-WordCountTopology-0-e4343aa5-998d-4d90-802d-3e651974f051;["topology_master"];2.25;1533225389.87636;3.08;9.01;0.080077888;9;117
8;paravance-71.rennes.grid5000.fr;thermos-root-devel-WordCountTopology-1-536b2efa-aeab-4322-96cf-9ade982c5221;["container_1_Consume_and_count_1"];2.25;1533225389.72887;50.63;333.62;113.976978742;10;149
8;paravance-12.rennes.grid5000.fr;thermos-root-devel-WordCountTopology-2-39c67545-aa11-4f0c-8b57-91580d854e7d;["container_2_Emit_random_words_2"];2.25;1533225389.87448;41.08;161.6;21.433707346;10;149
9;paravance-71.rennes.grid5000.fr;thermos-root-devel-WordCountTopology-1-536b2efa-aeab-4322-96cf-9ade982c5221;["container_1_Consume_and_count_1"];2.25;1533225399.94852;53.06;350.38;119.236848303;10;149
9;paravance-17.rennes.grid5000.fr;thermos-root-devel-WordCountTopology-0-e4343aa5-998d-4d90-802d-3e651974f051;["topology_master"];2.25;1533225400.0919;3.13;9.08;0.080077888;9;117
9;paravance-12.rennes.grid5000.fr;thermos-root-devel-WordCountTopology-2-39c67545-aa11-4f0c-8b57-91580d854e7d;["container_2_Emit_random_words_2"];2.25;1533225400.09031;43.03;168.69;21.664004022;10;149
10;paravance-12.rennes.grid5000.fr;thermos-root-devel-WordCountTopology-2-39c67545-aa11-4f0c-8b57-91580d854e7d;["container_2_Emit_random_words_2"];2.25;1533225410.30597;45.19;176.6;22.026593541;10;149
10;paravance-71.rennes.grid5000.fr;thermos-root-devel-WordCountTopology-1-536b2efa-aeab-4322-96cf-9ade982c5221;["container_1_Consume_and_count_1"];2.25;1533225410.16948;55.76;367.61;124.091981416;10;149
10;paravance-17.rennes.grid5000.fr;thermos-root-devel-WordCountTopology-0-e4343aa5-998d-4d90-802d-3e651974f051;["topology_master"];2.25;1533225410.30746;3.19;9.16;0.080077888;9;117
11;paravance-71.rennes.grid5000.fr;thermos-root-devel-WordCountTopology-1-536b2efa-aeab-4322-96cf-9ade982c5221;["container_1_Consume_and_count_1"];2.25;1533225420.38956;58.11;384.71;128.964604023;10;149
11;paravance-12.rennes.grid5000.fr;thermos-root-devel-WordCountTopology-2-39c67545-aa11-4f0c-8b57-91580d854e7d;["container_2_Emit_random_words_2"];2.25;1533225420.52076;47.03;183.28;22.202456177;10;149
11;paravance-17.rennes.grid5000.fr;thermos-root-devel-WordCountTopology-0-e4343aa5-998d-4d90-802d-3e651974f051;["topology_master"];2.25;1533225420.52247;3.25;9.23;0.080077888;9;117
12;paravance-71.rennes.grid5000.fr;thermos-root-devel-WordCountTopology-1-536b2efa-aeab-4322-96cf-9ade982c5221;["container_1_Consume_and_count_1"];2.25;1533225430.60986;60.64;401.75;133.976838186;10;149
12;paravance-17.rennes.grid5000.fr;thermos-root-devel-WordCountTopology-0-e4343aa5-998d-4d90-802d-3e651974f051;["topology_master"];2.25;1533225430.73856;3.38;9.46;0.080077888;9;117
12;paravance-12.rennes.grid5000.fr;thermos-root-devel-WordCountTopology-2-39c67545-aa11-4f0c-8b57-91580d854e7d;["container_2_Emit_random_words_2"];2.25;1533225430.73573;49.04;190.84;22.488300239;10;149
13;paravance-17.rennes.grid5000.fr;thermos-root-devel-WordCountTopology-0-e4343aa5-998d-4d90-802d-3e651974f051;["topology_master"];2.25;1533225440.96546;3.41;9.49;0.080077888;9;117
13;paravance-12.rennes.grid5000.fr;thermos-root-devel-WordCountTopology-2-39c67545-aa11-4f0c-8b57-91580d854e7d;["container_2_Emit_random_words_2"];2.25;1533225440.96359;50.69;197.22;22.642760985;10;149
13;paravance-71.rennes.grid5000.fr;thermos-root-devel-WordCountTopology-1-536b2efa-aeab-4322-96cf-9ade982c5221;["container_1_Consume_and_count_1"];2.25;1533225440.8439;63.04;418.32;139.520001999;10;149
14;paravance-71.rennes.grid5000.fr;thermos-root-devel-WordCountTopology-1-536b2efa-aeab-4322-96cf-9ade982c5221;["container_1_Consume_and_count_1"];2.25;1533225451.06414;65.51;435.45;145.966899295;10;149
14;paravance-12.rennes.grid5000.fr;thermos-root-devel-WordCountTopology-2-39c67545-aa11-4f0c-8b57-91580d854e7d;["container_2_Emit_random_words_2"];2.25;1533225451.18021;52.81;204.59;22.974683732;10;149
14;paravance-17.rennes.grid5000.fr;thermos-root-devel-WordCountTopology-0-e4343aa5-998d-4d90-802d-3e651974f051;["topology_master"];2.25;1533225451.18234;3.5;9.62;0.080077888;9;117
15;paravance-17.rennes.grid5000.fr;thermos-root-devel-WordCountTopology-0-e4343aa5-998d-4d90-802d-3e651974f051;["topology_master"];2.25;1533225461.39656;3.55;9.68;0.080077888;9;117
15;paravance-71.rennes.grid5000.fr;thermos-root-devel-WordCountTopology-1-536b2efa-aeab-4322-96cf-9ade982c5221;["container_1_Consume_and_count_1"];2.25;1533225461.28545;67.73;452.69;151.208792924;10;149
15;paravance-12.rennes.grid5000.fr;thermos-root-devel-WordCountTopology-2-39c67545-aa11-4f0c-8b57-91580d854e7d;["container_2_Emit_random_words_2"];2.25;1533225461.39524;54.67;211.2;23.146707002;10;149
16;paravance-71.rennes.grid5000.fr;thermos-root-devel-WordCountTopology-1-536b2efa-aeab-4322-96cf-9ade982c5221;["container_1_Consume_and_count_1"];2.25;1533225471.50614;70.05;469.73;157.205699796;10;149
16;paravance-12.rennes.grid5000.fr;thermos-root-devel-WordCountTopology-2-39c67545-aa11-4f0c-8b57-91580d854e7d;["container_2_Emit_random_words_2"];2.25;1533225471.61227;56.49;218.17;23.461607126;10;149
16;paravance-17.rennes.grid5000.fr;thermos-root-devel-WordCountTopology-0-e4343aa5-998d-4d90-802d-3e651974f051;["topology_master"];2.25;1533225471.61428;3.61;9.77;0.080077888;9;117
17;paravance-71.rennes.grid5000.fr;thermos-root-devel-WordCountTopology-1-536b2efa-aeab-4322-96cf-9ade982c5221;["container_1_Consume_and_count_1"];2.25;1533225481.72696;72.25;486.86;162.590449929;10;149
17;paravance-12.rennes.grid5000.fr;thermos-root-devel-WordCountTopology-2-39c67545-aa11-4f0c-8b57-91580d854e7d;["container_2_Emit_random_words_2"];2.25;1533225481.82784;58.3;224.75;23.896401325;10;149
17;paravance-17.rennes.grid5000.fr;thermos-root-devel-WordCountTopology-0-e4343aa5-998d-4d90-802d-3e651974f051;["topology_master"];2.25;1533225481.83102;3.67;9.84;0.080077888;9;117
18;paravance-71.rennes.grid5000.fr;thermos-root-devel-WordCountTopology-1-536b2efa-aeab-4322-96cf-9ade982c5221;["container_1_Consume_and_count_1"];2.25;1533225491.94762;74.65;503.99;168.412123795;10;149
18;paravance-12.rennes.grid5000.fr;thermos-root-devel-WordCountTopology-2-39c67545-aa11-4f0c-8b57-91580d854e7d;["container_2_Emit_random_words_2"];2.25;1533225492.04339;60.25;231.98;24.118172629;10;149
18;paravance-17.rennes.grid5000.fr;thermos-root-devel-WordCountTopology-0-e4343aa5-998d-4d90-802d-3e651974f051;["topology_master"];2.25;1533225492.04453;3.79;10.05;0.080077888;9;117
19;paravance-71.rennes.grid5000.fr;thermos-root-devel-WordCountTopology-1-536b2efa-aeab-4322-96cf-9ade982c5221;["container_1_Consume_and_count_1"];2.25;1533225502.16865;76.92;520.92;173.888301828;10;149
19;paravance-12.rennes.grid5000.fr;thermos-root-devel-WordCountTopology-2-39c67545-aa11-4f0c-8b57-91580d854e7d;["container_2_Emit_random_words_2"];2.25;1533225502.25919;62.11;238.86;24.423690311;10;149
19;paravance-17.rennes.grid5000.fr;thermos-root-devel-WordCountTopology-0-e4343aa5-998d-4d90-802d-3e651974f051;["topology_master"];2.25;1533225502.26142;3.82;10.08;0.080077888;9;117
20;paravance-71.rennes.grid5000.fr;thermos-root-devel-WordCountTopology-1-536b2efa-aeab-4322-96cf-9ade982c5221;["container_1_Consume_and_count_1"];2.25;1533225512.38881;79.15;537.69;178.850828321;10;149
20;paravance-12.rennes.grid5000.fr;thermos-root-devel-WordCountTopology-2-39c67545-aa11-4f0c-8b57-91580d854e7d;["container_2_Emit_random_words_2"];2.25;1533225512.47492;63.82;245.19;24.68977822;10;149
20;paravance-17.rennes.grid5000.fr;thermos-root-devel-WordCountTopology-0-e4343aa5-998d-4d90-802d-3e651974f051;["topology_master"];2.25;1533225512.47604;3.91;10.21;0.080077888;9;117
21;paravance-71.rennes.grid5000.fr;thermos-root-devel-WordCountTopology-1-536b2efa-aeab-4322-96cf-9ade982c5221;["container_1_Consume_and_count_1"];2.25;1533225522.61024;81.51;554.77;184.666183782;10;149
21;paravance-17.rennes.grid5000.fr;thermos-root-devel-WordCountTopology-0-e4343aa5-998d-4d90-802d-3e651974f051;["topology_master"];2.25;1533225522.69159;3.97;10.28;0.080077888;9;117
21;paravance-12.rennes.grid5000.fr;thermos-root-devel-WordCountTopology-2-39c67545-aa11-4f0c-8b57-91580d854e7d;["container_2_Emit_random_words_2"];2.25;1533225522.69015;65.7;252.37;24.960008044;10;149
22;paravance-71.rennes.grid5000.fr;thermos-root-devel-WordCountTopology-1-536b2efa-aeab-4322-96cf-9ade982c5221;["container_1_Consume_and_count_1"];2.25;1533225532.82999;83.79;570.98;189.810056384;10;149
22;paravance-12.rennes.grid5000.fr;thermos-root-devel-WordCountTopology-2-39c67545-aa11-4f0c-8b57-91580d854e7d;["container_2_Emit_random_words_2"];2.25;1533225532.90664;67.31;258.28;25.257820701;10;149
22;paravance-17.rennes.grid5000.fr;thermos-root-devel-WordCountTopology-0-e4343aa5-998d-4d90-802d-3e651974f051;["topology_master"];2.25;1533225532.90864;4.02;10.35;0.080077888;9;117
23;paravance-71.rennes.grid5000.fr;thermos-root-devel-WordCountTopology-1-536b2efa-aeab-4322-96cf-9ade982c5221;["container_1_Consume_and_count_1"];2.25;1533225543.05254;86.19;587.66;195.120915259;10;149
23;paravance-12.rennes.grid5000.fr;thermos-root-devel-WordCountTopology-2-39c67545-aa11-4f0c-8b57-91580d854e7d;["container_2_Emit_random_words_2"];2.25;1533225543.12237;69.25;265.42;25.508175107;10;149
23;paravance-17.rennes.grid5000.fr;thermos-root-devel-WordCountTopology-0-e4343aa5-998d-4d90-802d-3e651974f051;["topology_master"];2.25;1533225543.12372;4.08;10.43;0.080077888;9;117
24;paravance-12.rennes.grid5000.fr;thermos-root-devel-WordCountTopology-2-39c67545-aa11-4f0c-8b57-91580d854e7d;["container_2_Emit_random_words_2"];2.25;1533225553.3363;71.24;272.78;25.973999549;10;149
24;paravance-71.rennes.grid5000.fr;thermos-root-devel-WordCountTopology-1-536b2efa-aeab-4322-96cf-9ade982c5221;["container_1_Consume_and_count_1"];2.25;1533225553.27294;88.68;604.77;200.956115969;10;149
24;paravance-17.rennes.grid5000.fr;thermos-root-devel-WordCountTopology-0-e4343aa5-998d-4d90-802d-3e651974f051;["topology_master"];2.25;1533225553.33905;4.19;10.61;0.080077888;9;117
25;paravance-12.rennes.grid5000.fr;thermos-root-devel-WordCountTopology-2-39c67545-aa11-4f0c-8b57-91580d854e7d;["container_2_Emit_random_words_2"];2.25;1533225563.55241;72.95;278.9;26.165128028;10;149
25;paravance-71.rennes.grid5000.fr;thermos-root-devel-WordCountTopology-1-536b2efa-aeab-4322-96cf-9ade982c5221;["container_1_Consume_and_count_1"];2.25;1533225563.49359;90.9;621.65;205.328185976;10;149
25;paravance-17.rennes.grid5000.fr;thermos-root-devel-WordCountTopology-0-e4343aa5-998d-4d90-802d-3e651974f051;["topology_master"];2.25;1533225563.55399;4.21;10.64;0.080077888;9;117
26;paravance-71.rennes.grid5000.fr;thermos-root-devel-WordCountTopology-1-536b2efa-aeab-4322-96cf-9ade982c5221;["container_1_Consume_and_count_1"];2.25;1533225573.71273;93.11;638.36;210.997489218;10;149
26;paravance-17.rennes.grid5000.fr;thermos-root-devel-WordCountTopology-0-e4343aa5-998d-4d90-802d-3e651974f051;["topology_master"];2.25;1533225573.77103;4.3;10.76;0.080077888;9;117
26;paravance-12.rennes.grid5000.fr;thermos-root-devel-WordCountTopology-2-39c67545-aa11-4f0c-8b57-91580d854e7d;["container_2_Emit_random_words_2"];2.25;1533225573.76958;74.68;285.06;26.493059395;10;149
27;paravance-12.rennes.grid5000.fr;thermos-root-devel-WordCountTopology-2-39c67545-aa11-4f0c-8b57-91580d854e7d;["container_2_Emit_random_words_2"];2.25;1533225583.98393;76.44;291.9;26.699757624;10;149
27;paravance-17.rennes.grid5000.fr;thermos-root-devel-WordCountTopology-0-e4343aa5-998d-4d90-802d-3e651974f051;["topology_master"];2.25;1533225583.98629;4.36;10.83;0.080077888;9;117
27;paravance-71.rennes.grid5000.fr;thermos-root-devel-WordCountTopology-1-536b2efa-aeab-4322-96cf-9ade982c5221;["container_1_Consume_and_count_1"];2.25;1533225583.93583;95.52;654.98;216.135224669;10;149
28;paravance-71.rennes.grid5000.fr;thermos-root-devel-WordCountTopology-1-536b2efa-aeab-4322-96cf-9ade982c5221;["container_1_Consume_and_count_1"];2.25;1533225594.15511;97.8;671.36;221.033258473;10;149
28;paravance-17.rennes.grid5000.fr;thermos-root-devel-WordCountTopology-0-e4343aa5-998d-4d90-802d-3e651974f051;["topology_master"];2.25;1533225594.2023;4.43;10.91;0.080077888;9;117
28;paravance-12.rennes.grid5000.fr;thermos-root-devel-WordCountTopology-2-39c67545-aa11-4f0c-8b57-91580d854e7d;["container_2_Emit_random_words_2"];2.25;1533225594.20095;78.07;298.01;26.958626059;10;149
29;paravance-71.rennes.grid5000.fr;thermos-root-devel-WordCountTopology-1-536b2efa-aeab-4322-96cf-9ade982c5221;["container_1_Consume_and_count_1"];2.25;1533225604.37542;100.08;688.17;225.973122958;10;149
29;paravance-17.rennes.grid5000.fr;thermos-root-devel-WordCountTopology-0-e4343aa5-998d-4d90-802d-3e651974f051;["topology_master"];2.25;1533225604.41719;4.48;10.98;0.080077888;9;117
29;paravance-12.rennes.grid5000.fr;thermos-root-devel-WordCountTopology-2-39c67545-aa11-4f0c-8b57-91580d854e7d;["container_2_Emit_random_words_2"];2.25;1533225604.41636;79.84;304.87;27.178099305;10;149
30;paravance-71.rennes.grid5000.fr;thermos-root-devel-WordCountTopology-1-536b2efa-aeab-4322-96cf-9ade982c5221;["container_1_Consume_and_count_1"];2.25;1533225614.59673;102.43;705.27;231.259202458;10;149
30;paravance-17.rennes.grid5000.fr;thermos-root-devel-WordCountTopology-0-e4343aa5-998d-4d90-802d-3e651974f051;["topology_master"];2.25;1533225614.63221;4.59;11.15;0.080077888;9;117
30;paravance-12.rennes.grid5000.fr;thermos-root-devel-WordCountTopology-2-39c67545-aa11-4f0c-8b57-91580d854e7d;["container_2_Emit_random_words_2"];2.25;1533225614.63219;81.74;311.83;27.514754412;10;149
31;paravance-17.rennes.grid5000.fr;thermos-root-devel-WordCountTopology-0-e4343aa5-998d-4d90-802d-3e651974f051;["topology_master"];2.25;1533225624.74819;4.65;11.23;0.080077888;9;117
31;paravance-71.rennes.grid5000.fr;thermos-root-devel-WordCountTopology-1-536b2efa-aeab-4322-96cf-9ade982c5221;["container_1_Consume_and_count_1"];2.25;1533225624.81633;104.88;722.27;236.601873289;10;149
31;paravance-12.rennes.grid5000.fr;thermos-root-devel-WordCountTopology-2-39c67545-aa11-4f0c-8b57-91580d854e7d;["container_2_Emit_random_words_2"];2.25;1533225624.84645;83.67;318.54;27.622518852;10;149
32;paravance-71.rennes.grid5000.fr;thermos-root-devel-WordCountTopology-1-536b2efa-aeab-4322-96cf-9ade982c5221;["container_1_Consume_and_count_1"];2.25;1533225635.0348;107.25;739.26;242.361472309;10;149
32;paravance-17.rennes.grid5000.fr;thermos-root-devel-WordCountTopology-0-e4343aa5-998d-4d90-802d-3e651974f051;["topology_master"];2.25;1533225635.0612;4.7;11.3;0.080077888;9;117
32;paravance-12.rennes.grid5000.fr;thermos-root-devel-WordCountTopology-2-39c67545-aa11-4f0c-8b57-91580d854e7d;["container_2_Emit_random_words_2"];2.25;1533225635.06123;85.66;325.55;27.736172974;10;149
33;paravance-71.rennes.grid5000.fr;thermos-root-devel-WordCountTopology-1-536b2efa-aeab-4322-96cf-9ade982c5221;["container_1_Consume_and_count_1"];2.25;1533225645.25628;109.5;756.14;247.879505867;10;149
33;paravance-12.rennes.grid5000.fr;thermos-root-devel-WordCountTopology-2-39c67545-aa11-4f0c-8b57-91580d854e7d;["container_2_Emit_random_words_2"];2.25;1533225645.27502;87.58;332.11;27.841509261;10;149
33;paravance-17.rennes.grid5000.fr;thermos-root-devel-WordCountTopology-0-e4343aa5-998d-4d90-802d-3e651974f051;["topology_master"];2.25;1533225645.27588;4.79;11.42;0.080077888;9;117
34;paravance-71.rennes.grid5000.fr;thermos-root-devel-WordCountTopology-1-536b2efa-aeab-4322-96cf-9ade982c5221;["container_1_Consume_and_count_1"];2.25;1533225655.47419;111.76;773.08;252.607702223;10;149
34;paravance-12.rennes.grid5000.fr;thermos-root-devel-WordCountTopology-2-39c67545-aa11-4f0c-8b57-91580d854e7d;["container_2_Emit_random_words_2"];2.25;1533225655.48939;89.41;338.07;27.913255903;10;149
34;paravance-17.rennes.grid5000.fr;thermos-root-devel-WordCountTopology-0-e4343aa5-998d-4d90-802d-3e651974f051;["topology_master"];2.25;1533225655.4921;4.82;11.45;0.080077888;9;117
35;paravance-12.rennes.grid5000.fr;thermos-root-devel-WordCountTopology-2-39c67545-aa11-4f0c-8b57-91580d854e7d;["container_2_Emit_random_words_2"];2.25;1533225665.70377;91.3;344.47;27.972653202;10;149
35;paravance-71.rennes.grid5000.fr;thermos-root-devel-WordCountTopology-1-536b2efa-aeab-4322-96cf-9ade982c5221;["container_1_Consume_and_count_1"];2.25;1533225665.69486;114.11;790.25;257.996351479;10;149
35;paravance-17.rennes.grid5000.fr;thermos-root-devel-WordCountTopology-0-e4343aa5-998d-4d90-802d-3e651974f051;["topology_master"];2.25;1533225665.70547;4.92;11.58;0.080077888;9;117
36;paravance-71.rennes.grid5000.fr;thermos-root-devel-WordCountTopology-1-536b2efa-aeab-4322-96cf-9ade982c5221;["container_1_Consume_and_count_1"];2.25;1533225675.91532;116.45;807.31;263.481653446;10;149
36;paravance-17.rennes.grid5000.fr;thermos-root-devel-WordCountTopology-0-e4343aa5-998d-4d90-802d-3e651974f051;["topology_master"];2.25;1533225675.92206;4.99;11.75;0.080077888;9;117
36;paravance-12.rennes.grid5000.fr;thermos-root-devel-WordCountTopology-2-39c67545-aa11-4f0c-8b57-91580d854e7d;["container_2_Emit_random_words_2"];2.25;1533225675.92167;93.14;350.95;28.103395029;10;149
37;paravance-71.rennes.grid5000.fr;thermos-root-devel-WordCountTopology-1-536b2efa-aeab-4322-96cf-9ade982c5221;["container_1_Consume_and_count_1"];2.25;1533225686.1347;118.64;824.09;268.905066638;10;149
37;paravance-12.rennes.grid5000.fr;thermos-root-devel-WordCountTopology-2-39c67545-aa11-4f0c-8b57-91580d854e7d;["container_2_Emit_random_words_2"];2.25;1533225686.13571;94.83;356.85;28.274922917;10;149
37;paravance-17.rennes.grid5000.fr;thermos-root-devel-WordCountTopology-0-e4343aa5-998d-4d90-802d-3e651974f051;["topology_master"];2.25;1533225686.13728;5.05;11.82;0.080077888;9;117
38;paravance-71.rennes.grid5000.fr;thermos-root-devel-WordCountTopology-1-536b2efa-aeab-4322-96cf-9ade982c5221;["container_1_Consume_and_count_1"];2.25;1533225696.3561;121.15;841.03;274.755588471;10;149
38;paravance-12.rennes.grid5000.fr;thermos-root-devel-WordCountTopology-2-39c67545-aa11-4f0c-8b57-91580d854e7d;["container_2_Emit_random_words_2"];2.25;1533225696.35076;96.81;364.01;28.463333463;10;149
38;paravance-17.rennes.grid5000.fr;thermos-root-devel-WordCountTopology-0-e4343aa5-998d-4d90-802d-3e651974f051;["topology_master"];2.25;1533225696.3528;5.1;11.89;0.080077888;9;117
39;paravance-71.rennes.grid5000.fr;thermos-root-devel-WordCountTopology-1-536b2efa-aeab-4322-96cf-9ade982c5221;["container_1_Consume_and_count_1"];2.25;1533225706.57638;123.56;858.19;280.249469515;10;149
39;paravance-17.rennes.grid5000.fr;thermos-root-devel-WordCountTopology-0-e4343aa5-998d-4d90-802d-3e651974f051;["topology_master"];2.25;1533225706.56758;5.19;12.01;0.080077888;9;117
39;paravance-12.rennes.grid5000.fr;thermos-root-devel-WordCountTopology-2-39c67545-aa11-4f0c-8b57-91580d854e7d;["container_2_Emit_random_words_2"];2.25;1533225706.56721;98.79;370.63;28.513569469;10;149
40;paravance-71.rennes.grid5000.fr;thermos-root-devel-WordCountTopology-1-536b2efa-aeab-4322-96cf-9ade982c5221;["container_1_Consume_and_count_1"];2.25;1533225716.79802;125.79;874.74;284.897973739;10;149
40;paravance-12.rennes.grid5000.fr;thermos-root-devel-WordCountTopology-2-39c67545-aa11-4f0c-8b57-91580d854e7d;["container_2_Emit_random_words_2"];2.25;1533225716.78196;100.64;376.77;28.53091476;10;149
40;paravance-17.rennes.grid5000.fr;thermos-root-devel-WordCountTopology-0-e4343aa5-998d-4d90-802d-3e651974f051;["topology_master"];2.25;1533225716.79892;5.24;12.08;0.080077888;9;117
41;paravance-12.rennes.grid5000.fr;thermos-root-devel-WordCountTopology-2-39c67545-aa11-4f0c-8b57-91580d854e7d;["container_2_Emit_random_words_2"];2.25;1533225727.01306;102.33;382.47;28.566571643;10;149
41;paravance-71.rennes.grid5000.fr;thermos-root-devel-WordCountTopology-1-536b2efa-aeab-4322-96cf-9ade982c5221;["container_1_Consume_and_count_1"];2.25;1533225727.0334;128.1;891.65;291.085774776;10;149
41;paravance-17.rennes.grid5000.fr;thermos-root-devel-WordCountTopology-0-e4343aa5-998d-4d90-802d-3e651974f051;["topology_master"];2.25;1533225727.01395;5.31;12.17;0.080077888;9;117
42;paravance-71.rennes.grid5000.fr;thermos-root-devel-WordCountTopology-1-536b2efa-aeab-4322-96cf-9ade982c5221;["container_1_Consume_and_count_1"];2.25;1533225737.2537;130.6;908.64;296.570954376;10;149
42;paravance-17.rennes.grid5000.fr;thermos-root-devel-WordCountTopology-0-e4343aa5-998d-4d90-802d-3e651974f051;["topology_master"];2.25;1533225737.2299;5.37;12.28;0.080077888;9;117
42;paravance-12.rennes.grid5000.fr;thermos-root-devel-WordCountTopology-2-39c67545-aa11-4f0c-8b57-91580d854e7d;["container_2_Emit_random_words_2"];2.25;1533225737.22894;104.45;389.8;28.609713899;10;149
43;paravance-12.rennes.grid5000.fr;thermos-root-devel-WordCountTopology-2-39c67545-aa11-4f0c-8b57-91580d854e7d;["container_2_Emit_random_words_2"];2.25;1533225747.34204;106.26;396.02;28.708914983;10;149
43;paravance-17.rennes.grid5000.fr;thermos-root-devel-WordCountTopology-0-e4343aa5-998d-4d90-802d-3e651974f051;["topology_master"];2.25;1533225747.44224;5.46;12.4;0.080077888;9;117
43;paravance-71.rennes.grid5000.fr;thermos-root-devel-WordCountTopology-1-536b2efa-aeab-4322-96cf-9ade982c5221;["container_1_Consume_and_count_1"];2.25;1533225747.47356;132.9;925.33;301.98761185;10;149
44;paravance-71.rennes.grid5000.fr;thermos-root-devel-WordCountTopology-1-536b2efa-aeab-4322-96cf-9ade982c5221;["container_1_Consume_and_count_1"];2.25;1533225757.69291;135.21;942.3;307.431225466;10;149
44;paravance-12.rennes.grid5000.fr;thermos-root-devel-WordCountTopology-2-39c67545-aa11-4f0c-8b57-91580d854e7d;["container_2_Emit_random_words_2"];2.25;1533225757.65746;108.15;402.52;28.740138779;10;149
44;paravance-17.rennes.grid5000.fr;thermos-root-devel-WordCountTopology-0-e4343aa5-998d-4d90-802d-3e651974f051;["topology_master"];2.25;1533225757.65817;5.49;12.43;0.080077888;9;117
45;paravance-12.rennes.grid5000.fr;thermos-root-devel-WordCountTopology-2-39c67545-aa11-4f0c-8b57-91580d854e7d;["container_2_Emit_random_words_2"];2.25;1533225767.87301;110.08;408.77;28.886938667;10;149
45;paravance-71.rennes.grid5000.fr;thermos-root-devel-WordCountTopology-1-536b2efa-aeab-4322-96cf-9ade982c5221;["container_1_Consume_and_count_1"];2.25;1533225767.91383;137.55;959.25;312.811415557;10;149
45;paravance-17.rennes.grid5000.fr;thermos-root-devel-WordCountTopology-0-e4343aa5-998d-4d90-802d-3e651974f051;["topology_master"];2.25;1533225767.87462;5.58;12.55;0.080077888;9;117
46;paravance-71.rennes.grid5000.fr;thermos-root-devel-WordCountTopology-1-536b2efa-aeab-4322-96cf-9ade982c5221;["container_1_Consume_and_count_1"];2.25;1533225778.13457;139.97;976.4;317.837219543;10;149
46;paravance-17.rennes.grid5000.fr;thermos-root-devel-WordCountTopology-0-e4343aa5-998d-4d90-802d-3e651974f051;["topology_master"];2.25;1533225778.09008;5.63;12.62;0.080077888;9;117
46;paravance-12.rennes.grid5000.fr;thermos-root-devel-WordCountTopology-2-39c67545-aa11-4f0c-8b57-91580d854e7d;["container_2_Emit_random_words_2"];2.25;1533225778.08896;112.15;415.71;28.960113458;10;149
47;paravance-71.rennes.grid5000.fr;thermos-root-devel-WordCountTopology-1-536b2efa-aeab-4322-96cf-9ade982c5221;["container_1_Consume_and_count_1"];2.25;1533225788.35623;142.42;993.19;323.589363393;10;150
47;paravance-12.rennes.grid5000.fr;thermos-root-devel-WordCountTopology-2-39c67545-aa11-4f0c-8b57-91580d854e7d;["container_2_Emit_random_words_2"];2.25;1533225788.30504;113.99;422.2;29.005195048;10;149
47;paravance-17.rennes.grid5000.fr;thermos-root-devel-WordCountTopology-0-e4343aa5-998d-4d90-802d-3e651974f051;["topology_master"];2.25;1533225788.30633;5.7;12.7;0.080077888;9;117
48;paravance-12.rennes.grid5000.fr;thermos-root-devel-WordCountTopology-2-39c67545-aa11-4f0c-8b57-91580d854e7d;["container_2_Emit_random_words_2"];2.25;1533225798.4224;115.86;428.5;29.113472651;10;149
48;paravance-71.rennes.grid5000.fr;thermos-root-devel-WordCountTopology-1-536b2efa-aeab-4322-96cf-9ade982c5221;["container_1_Consume_and_count_1"];2.25;1533225798.57761;144.75;1010.09;329.109858311;10;150
48;paravance-17.rennes.grid5000.fr;thermos-root-devel-WordCountTopology-0-e4343aa5-998d-4d90-802d-3e651974f051;["topology_master"];2.25;1533225798.5234;5.76;12.84;0.080077888;9;117
49;paravance-71.rennes.grid5000.fr;thermos-root-devel-WordCountTopology-1-536b2efa-aeab-4322-96cf-9ade982c5221;["container_1_Consume_and_count_1"];2.25;1533225808.69903;147.04;1026.84;334.828389449;10;149
49;paravance-17.rennes.grid5000.fr;thermos-root-devel-WordCountTopology-0-e4343aa5-998d-4d90-802d-3e651974f051;["topology_master"];2.25;1533225808.73714;5.85;12.96;0.080077888;9;117
49;paravance-12.rennes.grid5000.fr;thermos-root-devel-WordCountTopology-2-39c67545-aa11-4f0c-8b57-91580d854e7d;["container_2_Emit_random_words_2"];2.25;1533225808.73545;117.64;434.69;29.224304544;10;149
50;paravance-71.rennes.grid5000.fr;thermos-root-devel-WordCountTopology-1-536b2efa-aeab-4322-96cf-9ade982c5221;["container_1_Consume_and_count_1"];2.25;1533225819.01487;149.53;1043.85;340.65202456;10;149
50;paravance-17.rennes.grid5000.fr;thermos-root-devel-WordCountTopology-0-e4343aa5-998d-4d90-802d-3e651974f051;["topology_master"];2.25;1533225818.95326;5.88;12.99;0.080077888;9;117
50;paravance-12.rennes.grid5000.fr;thermos-root-devel-WordCountTopology-2-39c67545-aa11-4f0c-8b57-91580d854e7d;["container_2_Emit_random_words_2"];2.25;1533225818.95217;119.6;441.32;29.279857242;10;149
51;paravance-71.rennes.grid5000.fr;thermos-root-devel-WordCountTopology-1-536b2efa-aeab-4322-96cf-9ade982c5221;["container_1_Consume_and_count_1"];2.25;1533225829.23125;151.83;1060.56;346.259809688;10;149
51;paravance-12.rennes.grid5000.fr;thermos-root-devel-WordCountTopology-2-39c67545-aa11-4f0c-8b57-91580d854e7d;["container_2_Emit_random_words_2"];2.25;1533225829.16855;121.52;447.73;29.295762949;10;149
51;paravance-17.rennes.grid5000.fr;thermos-root-devel-WordCountTopology-0-e4343aa5-998d-4d90-802d-3e651974f051;["topology_master"];2.25;1533225829.169;5.97;13.12;0.080077888;9;117
52;paravance-71.rennes.grid5000.fr;thermos-root-devel-WordCountTopology-1-536b2efa-aeab-4322-96cf-9ade982c5221;["container_1_Consume_and_count_1"];2.25;1533225839.44551;154.18;1077.16;351.854121809;10;149
52;paravance-12.rennes.grid5000.fr;thermos-root-devel-WordCountTopology-2-39c67545-aa11-4f0c-8b57-91580d854e7d;["container_2_Emit_random_words_2"];2.25;1533225839.38542;123.31;453.91;29.412405256;10;149
52;paravance-17.rennes.grid5000.fr;thermos-root-devel-WordCountTopology-0-e4343aa5-998d-4d90-802d-3e651974f051;["topology_master"];2.25;1533225839.3873;6.02;13.19;0.080077888;9;117
53;paravance-71.rennes.grid5000.fr;thermos-root-devel-WordCountTopology-1-536b2efa-aeab-4322-96cf-9ade982c5221;["container_1_Consume_and_count_1"];2.25;1533225849.66188;156.51;1094.23;357.238346546;10;149
53;paravance-12.rennes.grid5000.fr;thermos-root-devel-WordCountTopology-2-39c67545-aa11-4f0c-8b57-91580d854e7d;["container_2_Emit_random_words_2"];2.25;1533225849.60119;125.26;460.25;29.437618267;10;149
53;paravance-17.rennes.grid5000.fr;thermos-root-devel-WordCountTopology-0-e4343aa5-998d-4d90-802d-3e651974f051;["topology_master"];2.25;1533225849.60246;6.09;13.3;0.080077888;9;117
54;paravance-71.rennes.grid5000.fr;thermos-root-devel-WordCountTopology-1-536b2efa-aeab-4322-96cf-9ade982c5221;["container_1_Consume_and_count_1"];2.25;1533225859.87906;158.92;1111.44;363.419712496;10;149
54;paravance-12.rennes.grid5000.fr;thermos-root-devel-WordCountTopology-2-39c67545-aa11-4f0c-8b57-91580d854e7d;["container_2_Emit_random_words_2"];2.25;1533225859.81707;127.25;466.77;29.514771571;10;149
54;paravance-17.rennes.grid5000.fr;thermos-root-devel-WordCountTopology-0-e4343aa5-998d-4d90-802d-3e651974f051;["topology_master"];2.25;1533225859.81791;6.15;13.44;0.080077888;9;117
55;paravance-71.rennes.grid5000.fr;thermos-root-devel-WordCountTopology-1-536b2efa-aeab-4322-96cf-9ade982c5221;["container_1_Consume_and_count_1"];2.25;1533225870.09592;161.25;1128.12;368.516118363;10;149
55;paravance-12.rennes.grid5000.fr;thermos-root-devel-WordCountTopology-2-39c67545-aa11-4f0c-8b57-91580d854e7d;["container_2_Emit_random_words_2"];2.25;1533225870.03378;129.08;473.05;29.543794622;10;149
55;paravance-17.rennes.grid5000.fr;thermos-root-devel-WordCountTopology-0-e4343aa5-998d-4d90-802d-3e651974f051;["topology_master"];2.25;1533225870.03442;6.24;13.56;0.080077888;9;117
56;paravance-71.rennes.grid5000.fr;thermos-root-devel-WordCountTopology-1-536b2efa-aeab-4322-96cf-9ade982c5221;["container_1_Consume_and_count_1"];2.25;1533225880.3106;163.63;1144.99;373.605725036;10;149
56;paravance-17.rennes.grid5000.fr;thermos-root-devel-WordCountTopology-0-e4343aa5-998d-4d90-802d-3e651974f051;["topology_master"];2.25;1533225880.24937;6.27;13.58;0.080077888;9;117
56;paravance-12.rennes.grid5000.fr;thermos-root-devel-WordCountTopology-2-39c67545-aa11-4f0c-8b57-91580d854e7d;["container_2_Emit_random_words_2"];2.25;1533225880.24987;130.9;479.17;29.564522693;10;149
57;paravance-71.rennes.grid5000.fr;thermos-root-devel-WordCountTopology-1-536b2efa-aeab-4322-96cf-9ade982c5221;["container_1_Consume_and_count_1"];2.25;1533225890.52885;165.93;1161.89;379.364457806;10;149
57;paravance-12.rennes.grid5000.fr;thermos-root-devel-WordCountTopology-2-39c67545-aa11-4f0c-8b57-91580d854e7d;["container_2_Emit_random_words_2"];2.25;1533225890.46741;132.66;485.24;29.590773002;10;149
57;paravance-17.rennes.grid5000.fr;thermos-root-devel-WordCountTopology-0-e4343aa5-998d-4d90-802d-3e651974f051;["topology_master"];2.25;1533225890.46762;6.36;13.71;0.080077888;9;117
58;paravance-71.rennes.grid5000.fr;thermos-root-devel-WordCountTopology-1-536b2efa-aeab-4322-96cf-9ade982c5221;["container_1_Consume_and_count_1"];2.25;1533225900.74591;168.34;1178.63;384.416473573;10;149
58;paravance-17.rennes.grid5000.fr;thermos-root-devel-WordCountTopology-0-e4343aa5-998d-4d90-802d-3e651974f051;["topology_master"];2.25;1533225900.68514;6.42;13.78;0.080077888;9;117
58;paravance-12.rennes.grid5000.fr;thermos-root-devel-WordCountTopology-2-39c67545-aa11-4f0c-8b57-91580d854e7d;["container_2_Emit_random_words_2"];2.25;1533225900.68447;134.51;491.62;29.642774109;10;149
59;paravance-17.rennes.grid5000.fr;thermos-root-devel-WordCountTopology-0-e4343aa5-998d-4d90-802d-3e651974f051;["topology_master"];2.25;1533225910.8989;6.49;13.9;0.080077888;9;117
59;paravance-71.rennes.grid5000.fr;thermos-root-devel-WordCountTopology-1-536b2efa-aeab-4322-96cf-9ade982c5221;["container_1_Consume_and_count_1"];2.25;1533225910.96121;170.7;1195.53;389.865662974;10;149
59;paravance-12.rennes.grid5000.fr;thermos-root-devel-WordCountTopology-2-39c67545-aa11-4f0c-8b57-91580d854e7d;["container_2_Emit_random_words_2"];2.25;1533225910.89829;136.39;497.74;29.657918081;10;149
60;paravance-71.rennes.grid5000.fr;thermos-root-devel-WordCountTopology-1-536b2efa-aeab-4322-96cf-9ade982c5221;["container_1_Consume_and_count_1"];2.25;1533225921.17718;173.22;1212.63;394.926711839;10;149
60;paravance-17.rennes.grid5000.fr;thermos-root-devel-WordCountTopology-0-e4343aa5-998d-4d90-802d-3e651974f051;["topology_master"];2.25;1533225921.12525;6.55;13.98;0.080077888;9;117
60;paravance-12.rennes.grid5000.fr;thermos-root-devel-WordCountTopology-2-39c67545-aa11-4f0c-8b57-91580d854e7d;["container_2_Emit_random_words_2"];2.25;1533225921.12493;138.42;504.79;29.762030898;10;149
