mesure_id;slave_id;executor_id;heron_instances;cpus_limit;timestamp_A;cpus_system_time_secs_A;cpus_user_time_secs_A;cpus_throttled_time_secs_A;processes;threads
0;paravance-53.rennes.grid5000.fr;thermos-root-devel-WordCountTopology-2-d9de8f00-08a8-4153-a2c8-59be77e51180;["container_2_Emit_random_words_2"];1.25;1533253096.96555;27.18;109.94;149.772549325;10;149
0;paravance-52.rennes.grid5000.fr;thermos-root-devel-WordCountTopology-0-326ee73d-22ad-477a-ac1a-520e9af10d6a;["topology_master"];1.25;1533253097.37486;2.56;8.55;4.203816244;9;117
0;paravance-51.rennes.grid5000.fr;thermos-root-devel-WordCountTopology-1-c6492c1f-4356-442b-955f-4510d62ee8a7;["container_1_Consume_and_count_1"];1.25;1533253097.37316;30.52;107.22;131.185928278;10;149
1;paravance-51.rennes.grid5000.fr;thermos-root-devel-WordCountTopology-1-c6492c1f-4356-442b-955f-4510d62ee8a7;["container_1_Consume_and_count_1"];1.25;1533253107.58586;32.72;116.95;147.609244103;10;149
1;paravance-53.rennes.grid5000.fr;thermos-root-devel-WordCountTopology-2-d9de8f00-08a8-4153-a2c8-59be77e51180;["container_2_Emit_random_words_2"];1.25;1533253107.19128;29.09;117.41;157.753586745;10;149
1;paravance-52.rennes.grid5000.fr;thermos-root-devel-WordCountTopology-0-326ee73d-22ad-477a-ac1a-520e9af10d6a;["topology_master"];1.25;1533253107.58944;2.63;8.72;4.203816244;9;117
2;paravance-52.rennes.grid5000.fr;thermos-root-devel-WordCountTopology-0-326ee73d-22ad-477a-ac1a-520e9af10d6a;["topology_master"];1.25;1533253117.80218;2.72;8.85;4.203816244;9;117
2;paravance-53.rennes.grid5000.fr;thermos-root-devel-WordCountTopology-2-d9de8f00-08a8-4153-a2c8-59be77e51180;["container_2_Emit_random_words_2"];1.25;1533253117.41447;31.57;126.81;166.689856819;10;149
2;paravance-51.rennes.grid5000.fr;thermos-root-devel-WordCountTopology-1-c6492c1f-4356-442b-955f-4510d62ee8a7;["container_1_Consume_and_count_1"];1.25;1533253117.80016;35.47;125.91;153.022218299;10;149
3;paravance-52.rennes.grid5000.fr;thermos-root-devel-WordCountTopology-0-326ee73d-22ad-477a-ac1a-520e9af10d6a;["topology_master"];1.25;1533253128.01326;2.75;8.88;4.203816244;9;117
3;paravance-53.rennes.grid5000.fr;thermos-root-devel-WordCountTopology-2-d9de8f00-08a8-4153-a2c8-59be77e51180;["container_2_Emit_random_words_2"];1.25;1533253127.63638;33.95;136.36;176.184331082;10;149
3;paravance-51.rennes.grid5000.fr;thermos-root-devel-WordCountTopology-1-c6492c1f-4356-442b-955f-4510d62ee8a7;["container_1_Consume_and_count_1"];1.25;1533253128.01229;38.26;134.62;155.746710943;10;149
4;paravance-51.rennes.grid5000.fr;thermos-root-devel-WordCountTopology-1-c6492c1f-4356-442b-955f-4510d62ee8a7;["container_1_Consume_and_count_1"];1.25;1533253138.22311;41.14;143.41;162.587611743;10;149
4;paravance-52.rennes.grid5000.fr;thermos-root-devel-WordCountTopology-0-326ee73d-22ad-477a-ac1a-520e9af10d6a;["topology_master"];1.25;1533253138.22542;2.84;9.0;4.203816244;9;117
4;paravance-53.rennes.grid5000.fr;thermos-root-devel-WordCountTopology-2-d9de8f00-08a8-4153-a2c8-59be77e51180;["container_2_Emit_random_words_2"];1.25;1533253137.85804;36.35;145.93;185.649778968;10;149
5;paravance-51.rennes.grid5000.fr;thermos-root-devel-WordCountTopology-1-c6492c1f-4356-442b-955f-4510d62ee8a7;["container_1_Consume_and_count_1"];1.25;1533253148.43187;43.93;152.5;173.805629041;10;149
5;paravance-53.rennes.grid5000.fr;thermos-root-devel-WordCountTopology-2-d9de8f00-08a8-4153-a2c8-59be77e51180;["container_2_Emit_random_words_2"];1.25;1533253148.07876;38.75;155.47;195.597438102;10;149
5;paravance-52.rennes.grid5000.fr;thermos-root-devel-WordCountTopology-0-326ee73d-22ad-477a-ac1a-520e9af10d6a;["topology_master"];1.25;1533253148.43612;2.89;9.08;4.203816244;9;117
6;paravance-51.rennes.grid5000.fr;thermos-root-devel-WordCountTopology-1-c6492c1f-4356-442b-955f-4510d62ee8a7;["container_1_Consume_and_count_1"];1.25;1533253158.64207;46.53;161.9;190.28355507;10;149
6;paravance-53.rennes.grid5000.fr;thermos-root-devel-WordCountTopology-2-d9de8f00-08a8-4153-a2c8-59be77e51180;["container_2_Emit_random_words_2"];1.25;1533253158.29872;41.04;164.37;204.858258284;10;149
6;paravance-52.rennes.grid5000.fr;thermos-root-devel-WordCountTopology-0-326ee73d-22ad-477a-ac1a-520e9af10d6a;["topology_master"];1.25;1533253158.64596;2.97;9.17;4.203816244;9;117
7;paravance-51.rennes.grid5000.fr;thermos-root-devel-WordCountTopology-1-c6492c1f-4356-442b-955f-4510d62ee8a7;["container_1_Consume_and_count_1"];1.25;1533253168.85257;49.3;170.94;196.807592074;10;149
7;paravance-52.rennes.grid5000.fr;thermos-root-devel-WordCountTopology-0-326ee73d-22ad-477a-ac1a-520e9af10d6a;["topology_master"];1.25;1533253168.85659;3.04;9.35;4.203816244;9;117
7;paravance-53.rennes.grid5000.fr;thermos-root-devel-WordCountTopology-2-d9de8f00-08a8-4153-a2c8-59be77e51180;["container_2_Emit_random_words_2"];1.25;1533253168.51957;43.47;173.84;213.727924595;10;149
8;paravance-53.rennes.grid5000.fr;thermos-root-devel-WordCountTopology-2-d9de8f00-08a8-4153-a2c8-59be77e51180;["container_2_Emit_random_words_2"];1.25;1533253178.74055;45.93;183.31;223.212553058;10;149
8;paravance-51.rennes.grid5000.fr;thermos-root-devel-WordCountTopology-1-c6492c1f-4356-442b-955f-4510d62ee8a7;["container_1_Consume_and_count_1"];1.25;1533253179.06503;52.11;180.01;200.366974863;10;149
8;paravance-52.rennes.grid5000.fr;thermos-root-devel-WordCountTopology-0-326ee73d-22ad-477a-ac1a-520e9af10d6a;["topology_master"];1.25;1533253179.06635;3.13;9.48;4.203816244;9;117
9;paravance-51.rennes.grid5000.fr;thermos-root-devel-WordCountTopology-1-c6492c1f-4356-442b-955f-4510d62ee8a7;["container_1_Consume_and_count_1"];1.25;1533253189.27647;54.9;189.27;204.569686488;10;149
9;paravance-53.rennes.grid5000.fr;thermos-root-devel-WordCountTopology-2-d9de8f00-08a8-4153-a2c8-59be77e51180;["container_2_Emit_random_words_2"];1.25;1533253188.96291;48.4;192.89;232.54139791;10;149
9;paravance-52.rennes.grid5000.fr;thermos-root-devel-WordCountTopology-0-326ee73d-22ad-477a-ac1a-520e9af10d6a;["topology_master"];1.25;1533253189.27931;3.16;9.5;4.203816244;9;117
10;paravance-51.rennes.grid5000.fr;thermos-root-devel-WordCountTopology-1-c6492c1f-4356-442b-955f-4510d62ee8a7;["container_1_Consume_and_count_1"];1.25;1533253199.48471;57.58;198.24;207.832255739;10;149
10;paravance-53.rennes.grid5000.fr;thermos-root-devel-WordCountTopology-2-d9de8f00-08a8-4153-a2c8-59be77e51180;["container_2_Emit_random_words_2"];1.25;1533253199.1808;50.84;202.43;241.561280491;10;149
10;paravance-52.rennes.grid5000.fr;thermos-root-devel-WordCountTopology-0-326ee73d-22ad-477a-ac1a-520e9af10d6a;["topology_master"];1.25;1533253199.48722;3.24;9.63;4.203816244;9;117
11;paravance-51.rennes.grid5000.fr;thermos-root-devel-WordCountTopology-1-c6492c1f-4356-442b-955f-4510d62ee8a7;["container_1_Consume_and_count_1"];1.25;1533253209.69463;60.32;207.48;212.757820547;10;149
11;paravance-53.rennes.grid5000.fr;thermos-root-devel-WordCountTopology-2-d9de8f00-08a8-4153-a2c8-59be77e51180;["container_2_Emit_random_words_2"];1.25;1533253209.4011;53.27;211.89;251.099438504;10;149
11;paravance-52.rennes.grid5000.fr;thermos-root-devel-WordCountTopology-0-326ee73d-22ad-477a-ac1a-520e9af10d6a;["topology_master"];1.25;1533253209.69775;3.3;9.7;4.203816244;9;117
12;paravance-52.rennes.grid5000.fr;thermos-root-devel-WordCountTopology-0-326ee73d-22ad-477a-ac1a-520e9af10d6a;["topology_master"];1.25;1533253219.90804;3.41;9.85;4.203816244;9;117
12;paravance-51.rennes.grid5000.fr;thermos-root-devel-WordCountTopology-1-c6492c1f-4356-442b-955f-4510d62ee8a7;["container_1_Consume_and_count_1"];1.25;1533253219.90638;63.07;216.84;223.049968311;10;149
12;paravance-53.rennes.grid5000.fr;thermos-root-devel-WordCountTopology-2-d9de8f00-08a8-4153-a2c8-59be77e51180;["container_2_Emit_random_words_2"];1.25;1533253219.62272;55.69;221.35;259.736492801;10;149
13;paravance-53.rennes.grid5000.fr;thermos-root-devel-WordCountTopology-2-d9de8f00-08a8-4153-a2c8-59be77e51180;["container_2_Emit_random_words_2"];1.25;1533253229.84418;58.13;230.83;269.049905487;10;149
13;paravance-51.rennes.grid5000.fr;thermos-root-devel-WordCountTopology-1-c6492c1f-4356-442b-955f-4510d62ee8a7;["container_1_Consume_and_count_1"];1.25;1533253230.11819;65.83;226.13;237.215339714;10;149
13;paravance-52.rennes.grid5000.fr;thermos-root-devel-WordCountTopology-0-326ee73d-22ad-477a-ac1a-520e9af10d6a;["topology_master"];1.25;1533253230.12057;3.45;9.94;4.203816244;9;117
14;paravance-51.rennes.grid5000.fr;thermos-root-devel-WordCountTopology-1-c6492c1f-4356-442b-955f-4510d62ee8a7;["container_1_Consume_and_count_1"];1.25;1533253240.32628;68.66;235.47;254.740284896;10;149
14;paravance-52.rennes.grid5000.fr;thermos-root-devel-WordCountTopology-0-326ee73d-22ad-477a-ac1a-520e9af10d6a;["topology_master"];1.25;1533253240.32842;3.54;10.07;4.203816244;9;117
14;paravance-53.rennes.grid5000.fr;thermos-root-devel-WordCountTopology-2-d9de8f00-08a8-4153-a2c8-59be77e51180;["container_2_Emit_random_words_2"];1.25;1533253240.06374;60.62;240.27;278.214477452;10;149
15;paravance-52.rennes.grid5000.fr;thermos-root-devel-WordCountTopology-0-326ee73d-22ad-477a-ac1a-520e9af10d6a;["topology_master"];1.25;1533253250.53875;3.6;10.15;4.203816244;9;117
15;paravance-53.rennes.grid5000.fr;thermos-root-devel-WordCountTopology-2-d9de8f00-08a8-4153-a2c8-59be77e51180;["container_2_Emit_random_words_2"];1.25;1533253250.28353;62.67;248.31;285.44052257;10;149
15;paravance-51.rennes.grid5000.fr;thermos-root-devel-WordCountTopology-1-c6492c1f-4356-442b-955f-4510d62ee8a7;["container_1_Consume_and_count_1"];1.25;1533253250.5376;71.15;245.03;272.57174404;10;149
16;paravance-51.rennes.grid5000.fr;thermos-root-devel-WordCountTopology-1-c6492c1f-4356-442b-955f-4510d62ee8a7;["container_1_Consume_and_count_1"];1.25;1533253260.7467;73.68;254.61;290.066550899;10;149
16;paravance-52.rennes.grid5000.fr;thermos-root-devel-WordCountTopology-0-326ee73d-22ad-477a-ac1a-520e9af10d6a;["topology_master"];1.25;1533253260.75077;3.65;10.22;4.203816244;9;117
16;paravance-53.rennes.grid5000.fr;thermos-root-devel-WordCountTopology-2-d9de8f00-08a8-4153-a2c8-59be77e51180;["container_2_Emit_random_words_2"];1.25;1533253260.5089;64.74;256.14;292.381325958;10;149
17;paravance-52.rennes.grid5000.fr;thermos-root-devel-WordCountTopology-0-326ee73d-22ad-477a-ac1a-520e9af10d6a;["topology_master"];1.25;1533253270.96355;3.71;10.3;4.203816244;9;117
17;paravance-51.rennes.grid5000.fr;thermos-root-devel-WordCountTopology-1-c6492c1f-4356-442b-955f-4510d62ee8a7;["container_1_Consume_and_count_1"];1.25;1533253270.96224;76.06;264.27;310.349049155;10;149
17;paravance-53.rennes.grid5000.fr;thermos-root-devel-WordCountTopology-2-d9de8f00-08a8-4153-a2c8-59be77e51180;["container_2_Emit_random_words_2"];1.25;1533253270.72926;66.75;263.95;299.603483863;10;149
18;paravance-51.rennes.grid5000.fr;thermos-root-devel-WordCountTopology-1-c6492c1f-4356-442b-955f-4510d62ee8a7;["container_1_Consume_and_count_1"];1.25;1533253281.17087;78.81;273.48;318.122202277;10;149
18;paravance-52.rennes.grid5000.fr;thermos-root-devel-WordCountTopology-0-326ee73d-22ad-477a-ac1a-520e9af10d6a;["topology_master"];1.25;1533253281.17283;3.82;10.45;4.203816244;9;117
18;paravance-53.rennes.grid5000.fr;thermos-root-devel-WordCountTopology-2-d9de8f00-08a8-4153-a2c8-59be77e51180;["container_2_Emit_random_words_2"];1.25;1533253280.94774;69.02;272.55;308.09180092;10;149
19;paravance-51.rennes.grid5000.fr;thermos-root-devel-WordCountTopology-1-c6492c1f-4356-442b-955f-4510d62ee8a7;["container_1_Consume_and_count_1"];1.25;1533253291.37909;81.58;282.74;323.05599381;10;149
19;paravance-52.rennes.grid5000.fr;thermos-root-devel-WordCountTopology-0-326ee73d-22ad-477a-ac1a-520e9af10d6a;["topology_master"];1.25;1533253291.3829;3.86;10.56;4.203816244;9;117
19;paravance-53.rennes.grid5000.fr;thermos-root-devel-WordCountTopology-2-d9de8f00-08a8-4153-a2c8-59be77e51180;["container_2_Emit_random_words_2"];1.25;1533253291.16834;71.46;282.07;317.60262085;10;149
20;paravance-53.rennes.grid5000.fr;thermos-root-devel-WordCountTopology-2-d9de8f00-08a8-4153-a2c8-59be77e51180;["container_2_Emit_random_words_2"];1.25;1533253301.3879;73.91;291.56;326.783469264;10;149
20;paravance-51.rennes.grid5000.fr;thermos-root-devel-WordCountTopology-1-c6492c1f-4356-442b-955f-4510d62ee8a7;["container_1_Consume_and_count_1"];1.25;1533253301.59047;84.33;292.04;328.260974311;10;149
20;paravance-52.rennes.grid5000.fr;thermos-root-devel-WordCountTopology-0-326ee73d-22ad-477a-ac1a-520e9af10d6a;["topology_master"];1.25;1533253301.59314;3.94;10.68;4.203816244;9;117
21;paravance-52.rennes.grid5000.fr;thermos-root-devel-WordCountTopology-0-326ee73d-22ad-477a-ac1a-520e9af10d6a;["topology_master"];1.25;1533253311.8039;4.0;10.75;4.203816244;9;117
21;paravance-51.rennes.grid5000.fr;thermos-root-devel-WordCountTopology-1-c6492c1f-4356-442b-955f-4510d62ee8a7;["container_1_Consume_and_count_1"];1.25;1533253311.80156;87.05;301.52;335.764032247;10;149
21;paravance-53.rennes.grid5000.fr;thermos-root-devel-WordCountTopology-2-d9de8f00-08a8-4153-a2c8-59be77e51180;["container_2_Emit_random_words_2"];1.25;1533253311.61106;76.42;300.85;335.974507085;10;149
22;paravance-51.rennes.grid5000.fr;thermos-root-devel-WordCountTopology-1-c6492c1f-4356-442b-955f-4510d62ee8a7;["container_1_Consume_and_count_1"];1.25;1533253322.01164;89.8;310.74;345.981915687;10;149
22;paravance-52.rennes.grid5000.fr;thermos-root-devel-WordCountTopology-0-326ee73d-22ad-477a-ac1a-520e9af10d6a;["topology_master"];1.25;1533253322.01591;4.06;10.82;4.203816244;9;117
22;paravance-53.rennes.grid5000.fr;thermos-root-devel-WordCountTopology-2-d9de8f00-08a8-4153-a2c8-59be77e51180;["container_2_Emit_random_words_2"];1.25;1533253321.83073;78.95;310.17;345.216875943;10;149
23;paravance-51.rennes.grid5000.fr;thermos-root-devel-WordCountTopology-1-c6492c1f-4356-442b-955f-4510d62ee8a7;["container_1_Consume_and_count_1"];1.25;1533253332.22365;92.56;319.93;356.909954313;10;149
23;paravance-53.rennes.grid5000.fr;thermos-root-devel-WordCountTopology-2-d9de8f00-08a8-4153-a2c8-59be77e51180;["container_2_Emit_random_words_2"];1.25;1533253332.05174;81.39;319.68;354.778824408;10;149
23;paravance-52.rennes.grid5000.fr;thermos-root-devel-WordCountTopology-0-326ee73d-22ad-477a-ac1a-520e9af10d6a;["topology_master"];1.25;1533253332.2273;4.11;10.89;4.203816244;9;117
24;paravance-51.rennes.grid5000.fr;thermos-root-devel-WordCountTopology-1-c6492c1f-4356-442b-955f-4510d62ee8a7;["container_1_Consume_and_count_1"];1.25;1533253342.4339;95.37;329.03;367.520408686;10;149
24;paravance-53.rennes.grid5000.fr;thermos-root-devel-WordCountTopology-2-d9de8f00-08a8-4153-a2c8-59be77e51180;["container_2_Emit_random_words_2"];1.25;1533253342.27201;83.77;329.23;364.457765411;10;149
24;paravance-52.rennes.grid5000.fr;thermos-root-devel-WordCountTopology-0-326ee73d-22ad-477a-ac1a-520e9af10d6a;["topology_master"];1.25;1533253342.43742;4.21;11.14;4.203816244;9;117
25;paravance-51.rennes.grid5000.fr;thermos-root-devel-WordCountTopology-1-c6492c1f-4356-442b-955f-4510d62ee8a7;["container_1_Consume_and_count_1"];1.25;1533253352.64513;98.01;338.37;387.158684986;10;149
25;paravance-52.rennes.grid5000.fr;thermos-root-devel-WordCountTopology-0-326ee73d-22ad-477a-ac1a-520e9af10d6a;["topology_master"];1.25;1533253352.6475;4.24;11.16;4.203816244;9;117
25;paravance-53.rennes.grid5000.fr;thermos-root-devel-WordCountTopology-2-d9de8f00-08a8-4153-a2c8-59be77e51180;["container_2_Emit_random_words_2"];1.25;1533253352.49319;86.18;338.82;373.550923577;10;149
26;paravance-51.rennes.grid5000.fr;thermos-root-devel-WordCountTopology-1-c6492c1f-4356-442b-955f-4510d62ee8a7;["container_1_Consume_and_count_1"];1.25;1533253362.85558;100.52;347.88;402.826208702;10;149
26;paravance-52.rennes.grid5000.fr;thermos-root-devel-WordCountTopology-0-326ee73d-22ad-477a-ac1a-520e9af10d6a;["topology_master"];1.25;1533253362.8594;4.32;11.28;4.203816244;9;117
26;paravance-53.rennes.grid5000.fr;thermos-root-devel-WordCountTopology-2-d9de8f00-08a8-4153-a2c8-59be77e51180;["container_2_Emit_random_words_2"];1.25;1533253362.71506;88.27;346.71;381.20724211;10;149
27;paravance-51.rennes.grid5000.fr;thermos-root-devel-WordCountTopology-1-c6492c1f-4356-442b-955f-4510d62ee8a7;["container_1_Consume_and_count_1"];1.25;1533253373.06609;103.31;357.1;408.538550411;10;149
27;paravance-53.rennes.grid5000.fr;thermos-root-devel-WordCountTopology-2-d9de8f00-08a8-4153-a2c8-59be77e51180;["container_2_Emit_random_words_2"];1.25;1533253372.93526;90.8;356.08;390.541181039;10;149
27;paravance-52.rennes.grid5000.fr;thermos-root-devel-WordCountTopology-0-326ee73d-22ad-477a-ac1a-520e9af10d6a;["topology_master"];1.25;1533253373.06951;4.38;11.35;4.203816244;9;117
28;paravance-53.rennes.grid5000.fr;thermos-root-devel-WordCountTopology-2-d9de8f00-08a8-4153-a2c8-59be77e51180;["container_2_Emit_random_words_2"];1.25;1533253383.15591;93.31;365.47;400.902943062;10;149
28;paravance-51.rennes.grid5000.fr;thermos-root-devel-WordCountTopology-1-c6492c1f-4356-442b-955f-4510d62ee8a7;["container_1_Consume_and_count_1"];1.25;1533253383.28211;106.04;366.25;414.657347397;10;149
28;paravance-52.rennes.grid5000.fr;thermos-root-devel-WordCountTopology-0-326ee73d-22ad-477a-ac1a-520e9af10d6a;["topology_master"];1.25;1533253383.28521;4.44;11.43;4.203816244;9;117
29;paravance-51.rennes.grid5000.fr;thermos-root-devel-WordCountTopology-1-c6492c1f-4356-442b-955f-4510d62ee8a7;["container_1_Consume_and_count_1"];1.25;1533253393.49925;108.81;375.57;419.230207488;10;149
29;paravance-53.rennes.grid5000.fr;thermos-root-devel-WordCountTopology-2-d9de8f00-08a8-4153-a2c8-59be77e51180;["container_2_Emit_random_words_2"];1.25;1533253393.37719;95.74;374.93;410.332923107;10;149
29;paravance-52.rennes.grid5000.fr;thermos-root-devel-WordCountTopology-0-326ee73d-22ad-477a-ac1a-520e9af10d6a;["topology_master"];1.25;1533253393.50153;4.49;11.5;4.203816244;9;117
30;paravance-51.rennes.grid5000.fr;thermos-root-devel-WordCountTopology-1-c6492c1f-4356-442b-955f-4510d62ee8a7;["container_1_Consume_and_count_1"];1.25;1533253403.71443;111.58;384.82;424.634468367;10;149
30;paravance-53.rennes.grid5000.fr;thermos-root-devel-WordCountTopology-2-d9de8f00-08a8-4153-a2c8-59be77e51180;["container_2_Emit_random_words_2"];1.25;1533253403.59855;98.08;383.95;418.75829513;10;149
30;paravance-52.rennes.grid5000.fr;thermos-root-devel-WordCountTopology-0-326ee73d-22ad-477a-ac1a-520e9af10d6a;["topology_master"];1.25;1533253403.71765;4.6;11.67;4.203816244;9;117
31;paravance-51.rennes.grid5000.fr;thermos-root-devel-WordCountTopology-1-c6492c1f-4356-442b-955f-4510d62ee8a7;["container_1_Consume_and_count_1"];1.25;1533253413.92974;114.35;394.11;429.279791964;10;149
31;paravance-52.rennes.grid5000.fr;thermos-root-devel-WordCountTopology-0-326ee73d-22ad-477a-ac1a-520e9af10d6a;["topology_master"];1.25;1533253413.93232;4.64;11.69;4.203816244;9;117
31;paravance-53.rennes.grid5000.fr;thermos-root-devel-WordCountTopology-2-d9de8f00-08a8-4153-a2c8-59be77e51180;["container_2_Emit_random_words_2"];1.25;1533253413.81893;100.55;393.3;428.56292933;10;149
32;paravance-53.rennes.grid5000.fr;thermos-root-devel-WordCountTopology-2-d9de8f00-08a8-4153-a2c8-59be77e51180;["container_2_Emit_random_words_2"];1.25;1533253424.03927;103.03;402.8;439.161806846;10;149
32;paravance-51.rennes.grid5000.fr;thermos-root-devel-WordCountTopology-1-c6492c1f-4356-442b-955f-4510d62ee8a7;["container_1_Consume_and_count_1"];1.25;1533253424.14521;117.1;403.3;434.370505385;10;149
32;paravance-52.rennes.grid5000.fr;thermos-root-devel-WordCountTopology-0-326ee73d-22ad-477a-ac1a-520e9af10d6a;["topology_master"];1.25;1533253424.14886;4.72;11.81;4.203816244;9;117
33;paravance-51.rennes.grid5000.fr;thermos-root-devel-WordCountTopology-1-c6492c1f-4356-442b-955f-4510d62ee8a7;["container_1_Consume_and_count_1"];1.25;1533253434.35977;119.83;412.42;438.258673156;10;149
33;paravance-52.rennes.grid5000.fr;thermos-root-devel-WordCountTopology-0-326ee73d-22ad-477a-ac1a-520e9af10d6a;["topology_master"];1.25;1533253434.36452;4.78;11.88;4.203816244;9;117
33;paravance-53.rennes.grid5000.fr;thermos-root-devel-WordCountTopology-2-d9de8f00-08a8-4153-a2c8-59be77e51180;["container_2_Emit_random_words_2"];1.25;1533253434.25994;105.58;412.19;449.354449237;10;149
34;paravance-52.rennes.grid5000.fr;thermos-root-devel-WordCountTopology-0-326ee73d-22ad-477a-ac1a-520e9af10d6a;["topology_master"];1.25;1533253444.57826;4.83;11.96;4.203816244;9;117
34;paravance-53.rennes.grid5000.fr;thermos-root-devel-WordCountTopology-2-d9de8f00-08a8-4153-a2c8-59be77e51180;["container_2_Emit_random_words_2"];1.25;1533253444.4795;108.05;421.61;459.610050789;10;149
34;paravance-51.rennes.grid5000.fr;thermos-root-devel-WordCountTopology-1-c6492c1f-4356-442b-955f-4510d62ee8a7;["container_1_Consume_and_count_1"];1.25;1533253444.57544;122.59;421.55;442.176742627;10;149
35;paravance-51.rennes.grid5000.fr;thermos-root-devel-WordCountTopology-1-c6492c1f-4356-442b-955f-4510d62ee8a7;["container_1_Consume_and_count_1"];1.25;1533253454.79045;125.36;430.7;449.037577964;10;150
35;paravance-53.rennes.grid5000.fr;thermos-root-devel-WordCountTopology-2-d9de8f00-08a8-4153-a2c8-59be77e51180;["container_2_Emit_random_words_2"];1.25;1533253454.70085;110.57;431.01;468.883317932;10;149
35;paravance-52.rennes.grid5000.fr;thermos-root-devel-WordCountTopology-0-326ee73d-22ad-477a-ac1a-520e9af10d6a;["topology_master"];1.25;1533253454.79427;4.94;12.1;4.203816244;9;117
36;paravance-52.rennes.grid5000.fr;thermos-root-devel-WordCountTopology-0-326ee73d-22ad-477a-ac1a-520e9af10d6a;["topology_master"];1.25;1533253465.0098;5.0;12.25;4.203816244;9;117
36;paravance-51.rennes.grid5000.fr;thermos-root-devel-WordCountTopology-1-c6492c1f-4356-442b-955f-4510d62ee8a7;["container_1_Consume_and_count_1"];1.25;1533253465.00821;128.01;440.12;460.635683701;10;149
36;paravance-53.rennes.grid5000.fr;thermos-root-devel-WordCountTopology-2-d9de8f00-08a8-4153-a2c8-59be77e51180;["container_2_Emit_random_words_2"];1.25;1533253464.92244;112.99;440.42;478.278794823;10;149
37;paravance-51.rennes.grid5000.fr;thermos-root-devel-WordCountTopology-1-c6492c1f-4356-442b-955f-4510d62ee8a7;["container_1_Consume_and_count_1"];1.25;1533253475.22342;130.76;449.43;473.017934926;10;147
37;paravance-52.rennes.grid5000.fr;thermos-root-devel-WordCountTopology-0-326ee73d-22ad-477a-ac1a-520e9af10d6a;["topology_master"];1.25;1533253475.22679;5.06;12.33;4.203816244;9;117
37;paravance-53.rennes.grid5000.fr;thermos-root-devel-WordCountTopology-2-d9de8f00-08a8-4153-a2c8-59be77e51180;["container_2_Emit_random_words_2"];1.25;1533253475.14312;115.35;449.41;486.849550483;10;149
38;paravance-53.rennes.grid5000.fr;thermos-root-devel-WordCountTopology-2-d9de8f00-08a8-4153-a2c8-59be77e51180;["container_2_Emit_random_words_2"];1.25;1533253485.36516;117.5;457.51;494.948655657;10;149
38;paravance-51.rennes.grid5000.fr;thermos-root-devel-WordCountTopology-1-c6492c1f-4356-442b-955f-4510d62ee8a7;["container_1_Consume_and_count_1"];1.25;1533253485.44012;133.37;458.82;491.494774036;10;149
38;paravance-52.rennes.grid5000.fr;thermos-root-devel-WordCountTopology-0-326ee73d-22ad-477a-ac1a-520e9af10d6a;["topology_master"];1.25;1533253485.44423;5.12;12.4;4.203816244;9;117
39;paravance-52.rennes.grid5000.fr;thermos-root-devel-WordCountTopology-0-326ee73d-22ad-477a-ac1a-520e9af10d6a;["topology_master"];1.25;1533253495.65856;5.2;12.52;4.203816244;9;117
39;paravance-53.rennes.grid5000.fr;thermos-root-devel-WordCountTopology-2-d9de8f00-08a8-4153-a2c8-59be77e51180;["container_2_Emit_random_words_2"];1.25;1533253495.58602;119.95;466.95;504.274263089;10;149
39;paravance-51.rennes.grid5000.fr;thermos-root-devel-WordCountTopology-1-c6492c1f-4356-442b-955f-4510d62ee8a7;["container_1_Consume_and_count_1"];1.25;1533253495.65556;136.15;468.06;508.202265783;10;149
40;paravance-51.rennes.grid5000.fr;thermos-root-devel-WordCountTopology-1-c6492c1f-4356-442b-955f-4510d62ee8a7;["container_1_Consume_and_count_1"];1.25;1533253505.87106;138.84;477.48;527.516847543;10;149
40;paravance-53.rennes.grid5000.fr;thermos-root-devel-WordCountTopology-2-d9de8f00-08a8-4153-a2c8-59be77e51180;["container_2_Emit_random_words_2"];1.25;1533253505.80681;122.02;474.75;511.31820837;10;149
40;paravance-52.rennes.grid5000.fr;thermos-root-devel-WordCountTopology-0-326ee73d-22ad-477a-ac1a-520e9af10d6a;["topology_master"];1.25;1533253505.89166;5.23;12.54;4.203816244;9;117
41;paravance-51.rennes.grid5000.fr;thermos-root-devel-WordCountTopology-1-c6492c1f-4356-442b-955f-4510d62ee8a7;["container_1_Consume_and_count_1"];1.25;1533253516.10402;141.38;487.05;544.728000581;10;149
41;paravance-52.rennes.grid5000.fr;thermos-root-devel-WordCountTopology-0-326ee73d-22ad-477a-ac1a-520e9af10d6a;["topology_master"];1.25;1533253516.109;5.32;12.67;4.203816244;9;117
41;paravance-53.rennes.grid5000.fr;thermos-root-devel-WordCountTopology-2-d9de8f00-08a8-4153-a2c8-59be77e51180;["container_2_Emit_random_words_2"];1.25;1533253516.04445;124.08;482.58;518.644583329;10;149
42;paravance-51.rennes.grid5000.fr;thermos-root-devel-WordCountTopology-1-c6492c1f-4356-442b-955f-4510d62ee8a7;["container_1_Consume_and_count_1"];1.25;1533253526.31945;143.94;496.56;561.841049377;10;149
42;paravance-52.rennes.grid5000.fr;thermos-root-devel-WordCountTopology-0-326ee73d-22ad-477a-ac1a-520e9af10d6a;["topology_master"];1.25;1533253526.32377;5.38;12.79;4.203816244;9;117
42;paravance-53.rennes.grid5000.fr;thermos-root-devel-WordCountTopology-2-d9de8f00-08a8-4153-a2c8-59be77e51180;["container_2_Emit_random_words_2"];1.25;1533253526.26664;126.16;490.49;526.289172587;10;149
43;paravance-51.rennes.grid5000.fr;thermos-root-devel-WordCountTopology-1-c6492c1f-4356-442b-955f-4510d62ee8a7;["container_1_Consume_and_count_1"];1.25;1533253536.53522;146.43;506.11;580.998405754;10;149
43;paravance-53.rennes.grid5000.fr;thermos-root-devel-WordCountTopology-2-d9de8f00-08a8-4153-a2c8-59be77e51180;["container_2_Emit_random_words_2"];1.25;1533253536.48576;128.31;498.92;533.700617572;10;149
43;paravance-52.rennes.grid5000.fr;thermos-root-devel-WordCountTopology-0-326ee73d-22ad-477a-ac1a-520e9af10d6a;["topology_master"];1.25;1533253536.53999;5.44;12.87;4.203816244;9;117
44;paravance-51.rennes.grid5000.fr;thermos-root-devel-WordCountTopology-1-c6492c1f-4356-442b-955f-4510d62ee8a7;["container_1_Consume_and_count_1"];1.25;1533253546.74901;148.9;515.69;600.242367471;10;149
44;paravance-53.rennes.grid5000.fr;thermos-root-devel-WordCountTopology-2-d9de8f00-08a8-4153-a2c8-59be77e51180;["container_2_Emit_random_words_2"];1.25;1533253546.70481;130.37;506.9;540.852284569;10;149
44;paravance-52.rennes.grid5000.fr;thermos-root-devel-WordCountTopology-0-326ee73d-22ad-477a-ac1a-520e9af10d6a;["topology_master"];1.25;1533253546.75346;5.5;12.94;4.203816244;9;117
45;paravance-52.rennes.grid5000.fr;thermos-root-devel-WordCountTopology-0-326ee73d-22ad-477a-ac1a-520e9af10d6a;["topology_master"];1.25;1533253556.96832;5.58;13.05;4.203816244;9;117
45;paravance-51.rennes.grid5000.fr;thermos-root-devel-WordCountTopology-1-c6492c1f-4356-442b-955f-4510d62ee8a7;["container_1_Consume_and_count_1"];1.25;1533253556.96557;151.26;525.33;618.563115534;10;149
45;paravance-53.rennes.grid5000.fr;thermos-root-devel-WordCountTopology-2-d9de8f00-08a8-4153-a2c8-59be77e51180;["container_2_Emit_random_words_2"];1.25;1533253556.92571;132.35;514.41;547.746148191;10;149
46;paravance-51.rennes.grid5000.fr;thermos-root-devel-WordCountTopology-1-c6492c1f-4356-442b-955f-4510d62ee8a7;["container_1_Consume_and_count_1"];1.25;1533253567.17884;154.02;534.44;624.865441836;10;149
46;paravance-53.rennes.grid5000.fr;thermos-root-devel-WordCountTopology-2-d9de8f00-08a8-4153-a2c8-59be77e51180;["container_2_Emit_random_words_2"];1.25;1533253567.14375;134.77;523.93;557.4920386;10;149
46;paravance-52.rennes.grid5000.fr;thermos-root-devel-WordCountTopology-0-326ee73d-22ad-477a-ac1a-520e9af10d6a;["topology_master"];1.25;1533253567.18286;5.64;13.12;4.203816244;9;117
47;paravance-52.rennes.grid5000.fr;thermos-root-devel-WordCountTopology-0-326ee73d-22ad-477a-ac1a-520e9af10d6a;["topology_master"];1.25;1533253577.39816;5.7;13.21;4.203816244;9;117
47;paravance-53.rennes.grid5000.fr;thermos-root-devel-WordCountTopology-2-d9de8f00-08a8-4153-a2c8-59be77e51180;["container_2_Emit_random_words_2"];1.25;1533253577.36563;137.16;533.08;566.321111666;10;149
47;paravance-51.rennes.grid5000.fr;thermos-root-devel-WordCountTopology-1-c6492c1f-4356-442b-955f-4510d62ee8a7;["container_1_Consume_and_count_1"];1.25;1533253577.3966;156.86;543.53;630.586437399;10;149
48;paravance-53.rennes.grid5000.fr;thermos-root-devel-WordCountTopology-2-d9de8f00-08a8-4153-a2c8-59be77e51180;["container_2_Emit_random_words_2"];1.25;1533253587.58677;139.5;542.22;574.939309051;10;149
48;paravance-52.rennes.grid5000.fr;thermos-root-devel-WordCountTopology-0-326ee73d-22ad-477a-ac1a-520e9af10d6a;["topology_master"];1.25;1533253587.61454;5.76;13.33;4.203816244;9;117
48;paravance-51.rennes.grid5000.fr;thermos-root-devel-WordCountTopology-1-c6492c1f-4356-442b-955f-4510d62ee8a7;["container_1_Consume_and_count_1"];1.25;1533253587.61078;159.63;552.62;635.953131122;10;149
49;paravance-53.rennes.grid5000.fr;thermos-root-devel-WordCountTopology-2-d9de8f00-08a8-4153-a2c8-59be77e51180;["container_2_Emit_random_words_2"];1.25;1533253597.80745;141.84;551.33;583.845762609;10;149
49;paravance-51.rennes.grid5000.fr;thermos-root-devel-WordCountTopology-1-c6492c1f-4356-442b-955f-4510d62ee8a7;["container_1_Consume_and_count_1"];1.25;1533253597.82866;162.42;561.76;641.524133316;10;149
49;paravance-52.rennes.grid5000.fr;thermos-root-devel-WordCountTopology-0-326ee73d-22ad-477a-ac1a-520e9af10d6a;["topology_master"];1.25;1533253597.83119;5.85;13.45;4.203816244;9;117
50;paravance-52.rennes.grid5000.fr;thermos-root-devel-WordCountTopology-0-326ee73d-22ad-477a-ac1a-520e9af10d6a;["topology_master"];1.25;1533253608.04699;5.88;13.48;4.203816244;9;117
50;paravance-51.rennes.grid5000.fr;thermos-root-devel-WordCountTopology-1-c6492c1f-4356-442b-955f-4510d62ee8a7;["container_1_Consume_and_count_1"];1.25;1533253608.04427;165.2;570.94;647.232278515;10;149
50;paravance-53.rennes.grid5000.fr;thermos-root-devel-WordCountTopology-2-d9de8f00-08a8-4153-a2c8-59be77e51180;["container_2_Emit_random_words_2"];1.25;1533253608.03084;144.26;560.46;591.9751906;10;149
51;paravance-53.rennes.grid5000.fr;thermos-root-devel-WordCountTopology-2-d9de8f00-08a8-4153-a2c8-59be77e51180;["container_2_Emit_random_words_2"];1.25;1533253618.25113;146.65;569.6;601.129746063;10;149
51;paravance-51.rennes.grid5000.fr;thermos-root-devel-WordCountTopology-1-c6492c1f-4356-442b-955f-4510d62ee8a7;["container_1_Consume_and_count_1"];1.25;1533253618.2619;167.94;580.04;653.089650092;10;149
51;paravance-52.rennes.grid5000.fr;thermos-root-devel-WordCountTopology-0-326ee73d-22ad-477a-ac1a-520e9af10d6a;["topology_master"];1.25;1533253618.26374;5.97;13.61;4.203816244;9;117
52;paravance-51.rennes.grid5000.fr;thermos-root-devel-WordCountTopology-1-c6492c1f-4356-442b-955f-4510d62ee8a7;["container_1_Consume_and_count_1"];1.25;1533253628.47704;170.7;589.44;657.650755112;10;149
52;paravance-53.rennes.grid5000.fr;thermos-root-devel-WordCountTopology-2-d9de8f00-08a8-4153-a2c8-59be77e51180;["container_2_Emit_random_words_2"];1.25;1533253628.47246;149.16;579.01;610.840338502;10;149
52;paravance-52.rennes.grid5000.fr;thermos-root-devel-WordCountTopology-0-326ee73d-22ad-477a-ac1a-520e9af10d6a;["topology_master"];1.25;1533253628.48137;6.02;13.68;4.203816244;9;117
53;paravance-53.rennes.grid5000.fr;thermos-root-devel-WordCountTopology-2-d9de8f00-08a8-4153-a2c8-59be77e51180;["container_2_Emit_random_words_2"];1.25;1533253638.69239;151.64;588.49;620.504671174;10;149
53;paravance-51.rennes.grid5000.fr;thermos-root-devel-WordCountTopology-1-c6492c1f-4356-442b-955f-4510d62ee8a7;["container_1_Consume_and_count_1"];1.25;1533253638.69206;173.47;598.66;662.362219953;10;149
53;paravance-52.rennes.grid5000.fr;thermos-root-devel-WordCountTopology-0-326ee73d-22ad-477a-ac1a-520e9af10d6a;["topology_master"];1.25;1533253638.69606;6.1;13.77;4.203816244;9;117
54;paravance-52.rennes.grid5000.fr;thermos-root-devel-WordCountTopology-0-326ee73d-22ad-477a-ac1a-520e9af10d6a;["topology_master"];1.25;1533253648.91215;6.16;13.91;4.203816244;9;117
54;paravance-51.rennes.grid5000.fr;thermos-root-devel-WordCountTopology-1-c6492c1f-4356-442b-955f-4510d62ee8a7;["container_1_Consume_and_count_1"];1.25;1533253648.90904;176.21;607.92;669.146135563;10;149
54;paravance-53.rennes.grid5000.fr;thermos-root-devel-WordCountTopology-2-d9de8f00-08a8-4153-a2c8-59be77e51180;["container_2_Emit_random_words_2"];1.25;1533253648.91492;154.1;597.94;629.110830744;10;149
55;paravance-53.rennes.grid5000.fr;thermos-root-devel-WordCountTopology-2-d9de8f00-08a8-4153-a2c8-59be77e51180;["container_2_Emit_random_words_2"];1.25;1533253659.03694;156.6;607.32;638.217786223;10;149
55;paravance-52.rennes.grid5000.fr;thermos-root-devel-WordCountTopology-0-326ee73d-22ad-477a-ac1a-520e9af10d6a;["topology_master"];1.25;1533253659.12933;6.24;14.03;4.203816244;9;117
55;paravance-51.rennes.grid5000.fr;thermos-root-devel-WordCountTopology-1-c6492c1f-4356-442b-955f-4510d62ee8a7;["container_1_Consume_and_count_1"];1.25;1533253659.12705;178.94;617.23;678.657699513;10;149
56;paravance-51.rennes.grid5000.fr;thermos-root-devel-WordCountTopology-1-c6492c1f-4356-442b-955f-4510d62ee8a7;["container_1_Consume_and_count_1"];1.25;1533253669.34023;181.71;626.46;688.394080349;10;149
56;paravance-52.rennes.grid5000.fr;thermos-root-devel-WordCountTopology-0-326ee73d-22ad-477a-ac1a-520e9af10d6a;["topology_master"];1.25;1533253669.34585;6.27;14.05;4.203816244;9;117
56;paravance-53.rennes.grid5000.fr;thermos-root-devel-WordCountTopology-2-d9de8f00-08a8-4153-a2c8-59be77e51180;["container_2_Emit_random_words_2"];1.25;1533253669.35869;159.17;616.92;647.717222212;10;149
57;paravance-52.rennes.grid5000.fr;thermos-root-devel-WordCountTopology-0-326ee73d-22ad-477a-ac1a-520e9af10d6a;["topology_master"];1.25;1533253679.56042;6.36;14.17;4.203816244;9;117
57;paravance-51.rennes.grid5000.fr;thermos-root-devel-WordCountTopology-1-c6492c1f-4356-442b-955f-4510d62ee8a7;["container_1_Consume_and_count_1"];1.25;1533253679.55778;184.49;635.7;697.882272411;10;149
57;paravance-53.rennes.grid5000.fr;thermos-root-devel-WordCountTopology-2-d9de8f00-08a8-4153-a2c8-59be77e51180;["container_2_Emit_random_words_2"];1.25;1533253679.57933;161.63;626.46;657.042436172;10;149
58;paravance-51.rennes.grid5000.fr;thermos-root-devel-WordCountTopology-1-c6492c1f-4356-442b-955f-4510d62ee8a7;["container_1_Consume_and_count_1"];1.25;1533253689.77333;187.3;645.07;711.231365143;10;149
58;paravance-52.rennes.grid5000.fr;thermos-root-devel-WordCountTopology-0-326ee73d-22ad-477a-ac1a-520e9af10d6a;["topology_master"];1.25;1533253689.77805;6.41;14.24;4.203816244;9;117
58;paravance-53.rennes.grid5000.fr;thermos-root-devel-WordCountTopology-2-d9de8f00-08a8-4153-a2c8-59be77e51180;["container_2_Emit_random_words_2"];1.25;1533253689.79921;164.07;635.91;665.414895435;10;149
59;paravance-53.rennes.grid5000.fr;thermos-root-devel-WordCountTopology-2-d9de8f00-08a8-4153-a2c8-59be77e51180;["container_2_Emit_random_words_2"];1.25;1533253700.02177;166.1;643.37;672.809491927;10;149
59;paravance-52.rennes.grid5000.fr;thermos-root-devel-WordCountTopology-0-326ee73d-22ad-477a-ac1a-520e9af10d6a;["topology_master"];1.25;1533253699.99404;6.49;14.34;4.203816244;9;117
59;paravance-51.rennes.grid5000.fr;thermos-root-devel-WordCountTopology-1-c6492c1f-4356-442b-955f-4510d62ee8a7;["container_1_Consume_and_count_1"];1.25;1533253699.99135;189.77;654.67;729.140339673;10;149
60;paravance-51.rennes.grid5000.fr;thermos-root-devel-WordCountTopology-1-c6492c1f-4356-442b-955f-4510d62ee8a7;["container_1_Consume_and_count_1"];1.25;1533253710.20778;192.33;664.18;751.454071275;10;149
60;paravance-52.rennes.grid5000.fr;thermos-root-devel-WordCountTopology-0-326ee73d-22ad-477a-ac1a-520e9af10d6a;["topology_master"];1.25;1533253710.21195;6.55;14.44;4.203816244;9;117
60;paravance-53.rennes.grid5000.fr;thermos-root-devel-WordCountTopology-2-d9de8f00-08a8-4153-a2c8-59be77e51180;["container_2_Emit_random_words_2"];1.25;1533253710.24384;167.94;650.34;679.404491436;10;149
