{
  "status": "success",
  "executiontime": 0.00017905235290527344,
  "message": "",
  "result": {
    "bolts": {
      "Consume_and_count": [
        "container_1_Consume_and_count_1"
      ]
    },
    "instances": {
      "container_2_Emit_random_words_2": {
        "stmgrId": "stmgr-2",
        "logfile": "http://paravance-7.rennes.grid5000.fr:31094/file/log-files/container_2_Emit_random_words_2.log.0",
        "id": "container_2_Emit_random_words_2",
        "name": "Emit_random_words"
      },
      "container_1_Consume_and_count_1": {
        "stmgrId": "stmgr-1",
        "logfile": "http://paravance-8.rennes.grid5000.fr:31711/file/log-files/container_1_Consume_and_count_1.log.0",
        "id": "container_1_Consume_and_count_1",
        "name": "Consume_and_count"
      }
    },
    "instance_groups": {
      "container_1_Consume_and": [
        "container_1_Consume_and_count_1"
      ],
      "container_2_Emit_random": [
        "container_2_Emit_random_words_2"
      ]
    },
    "spouts": {
      "Emit_random_words": [
        "container_2_Emit_random_words_2"
      ]
    },
    "config": {
      "topology.message.timeout.secs": "30",
      "topology.team.environment": "devel",
      "topology.serializer.classname": "org.apache.heron.streamlet.impl.KryoSerializer",
      "topology.team.name": "root",
      "topology.debug": "false",
      "topology.max.spout.pending": "100",
      "topology.container.padding.percentage": "400",
      "topology.enable.message.timeouts": "true",
      "topology.component.parallelism": "1",
      "topology.name": "WordCountTopology",
      "topology.stmgrs": "2",
      "topology.reliability.mode": "ATMOST_ONCE"
    },
    "stmgrs": {
      "stmgr-1": {
        "cwd": "/var/lib/mesos/slaves/3723af1b-2394-44d4-8bda-53b41e89cf57-S0/frameworks/75deb08a-eb1b-415c-8b2c-e922be5f7d98-0000/executors/thermos-root-devel-WordCountTopology-1-4258133e-d34a-4f16-a683-0a54de03fed1/runs/629fb1d3-f590-4d59-8661-1675376f1be9/sandbox",
        "host": "paravance-8.rennes.grid5000.fr",
        "joburl": "http://paravance-8.rennes.grid5000.fr:31711/browse/",
        "shell_port": 31711,
        "logfiles": "http://paravance-8.rennes.grid5000.fr:31711/browse/log-files",
        "pid": 2728,
        "id": "stmgr-1",
        "instance_ids": [
          "container_1_Consume_and_count_1"
        ],
        "port": 31368
      },
      "stmgr-2": {
        "cwd": "/var/lib/mesos/slaves/3723af1b-2394-44d4-8bda-53b41e89cf57-S2/frameworks/75deb08a-eb1b-415c-8b2c-e922be5f7d98-0000/executors/thermos-root-devel-WordCountTopology-2-303424ac-e86a-4180-9c66-4f8d8fc3514b/runs/d49effde-6a26-4296-b62f-84e4c8b574d6/sandbox",
        "host": "paravance-7.rennes.grid5000.fr",
        "joburl": "http://paravance-7.rennes.grid5000.fr:31094/browse/",
        "shell_port": 31094,
        "logfiles": "http://paravance-7.rennes.grid5000.fr:31094/browse/log-files",
        "pid": 2810,
        "id": "stmgr-2",
        "instance_ids": [
          "container_2_Emit_random_words_2"
        ],
        "port": 31777
      }
    }
  },
  "tracker_version": "0.17.8-61-gd7c8c62"
}