mesure_id;slave_id;executor_id;heron_instances;cpus_limit;timestamp_B;cpus_system_time_secs_B;cpus_user_time_secs_B;cpus_throttled_time_secs_B;processes;threads
0;paravance-42.rennes.grid5000.fr;thermos-root-devel-WordCountTopology-1-fc62a765-fd7a-476f-8de8-8e74ec5082bb;["container_1_Consume_and_count_1"];2.25;1533750098.97019;12.52;179.03;7.745027556;10;149
0;paravance-39.rennes.grid5000.fr;thermos-root-devel-WordCountTopology-2-04541e24-597c-479a-a29f-59e4659330c4;["container_2_Emit_random_words_2"];2.25;1533750098.94529;10.4;233.47;10.840746092;10;149
0;paravance-40.rennes.grid5000.fr;thermos-root-devel-WordCountTopology-0-44428682-32dc-47b1-8bcc-a8e2526ad574;["topology_master"];2.25;1533750098.99293;2.52;8.28;0.305002815;9;117
1;paravance-42.rennes.grid5000.fr;thermos-root-devel-WordCountTopology-1-fc62a765-fd7a-476f-8de8-8e74ec5082bb;["container_1_Consume_and_count_1"];2.25;1533750109.18479;13.39;193.42;7.776657862;10;149
1;paravance-39.rennes.grid5000.fr;thermos-root-devel-WordCountTopology-2-04541e24-597c-479a-a29f-59e4659330c4;["container_2_Emit_random_words_2"];2.25;1533750109.16468;11.1;251.72;10.869003492;10;149
1;paravance-40.rennes.grid5000.fr;thermos-root-devel-WordCountTopology-0-44428682-32dc-47b1-8bcc-a8e2526ad574;["topology_master"];2.25;1533750109.21332;2.61;8.41;0.305002815;9;117
2;paravance-39.rennes.grid5000.fr;thermos-root-devel-WordCountTopology-2-04541e24-597c-479a-a29f-59e4659330c4;["container_2_Emit_random_words_2"];2.25;1533750119.38599;11.75;269.94;10.869003492;10;149
2;paravance-40.rennes.grid5000.fr;thermos-root-devel-WordCountTopology-0-44428682-32dc-47b1-8bcc-a8e2526ad574;["topology_master"];2.25;1533750119.43266;2.64;8.44;0.305002815;9;117
2;paravance-42.rennes.grid5000.fr;thermos-root-devel-WordCountTopology-1-fc62a765-fd7a-476f-8de8-8e74ec5082bb;["container_1_Consume_and_count_1"];2.25;1533750119.40351;14.21;207.58;7.776657862;10;149
3;paravance-42.rennes.grid5000.fr;thermos-root-devel-WordCountTopology-1-fc62a765-fd7a-476f-8de8-8e74ec5082bb;["container_1_Consume_and_count_1"];2.25;1533750129.61685;15.07;221.8;7.776657862;10;149
3;paravance-39.rennes.grid5000.fr;thermos-root-devel-WordCountTopology-2-04541e24-597c-479a-a29f-59e4659330c4;["container_2_Emit_random_words_2"];2.25;1533750129.60498;12.45;288.15;10.901205043;10;149
3;paravance-40.rennes.grid5000.fr;thermos-root-devel-WordCountTopology-0-44428682-32dc-47b1-8bcc-a8e2526ad574;["topology_master"];2.25;1533750129.65297;2.73;8.56;0.305002815;9;117
4;paravance-42.rennes.grid5000.fr;thermos-root-devel-WordCountTopology-1-fc62a765-fd7a-476f-8de8-8e74ec5082bb;["container_1_Consume_and_count_1"];2.25;1533750139.83171;15.9;236.07;7.776657862;10;149
4;paravance-40.rennes.grid5000.fr;thermos-root-devel-WordCountTopology-0-44428682-32dc-47b1-8bcc-a8e2526ad574;["topology_master"];2.25;1533750139.8725;2.78;8.64;0.305002815;9;117
4;paravance-39.rennes.grid5000.fr;thermos-root-devel-WordCountTopology-2-04541e24-597c-479a-a29f-59e4659330c4;["container_2_Emit_random_words_2"];2.25;1533750139.82695;13.13;306.39;10.901205043;10;149
5;paravance-42.rennes.grid5000.fr;thermos-root-devel-WordCountTopology-1-fc62a765-fd7a-476f-8de8-8e74ec5082bb;["container_1_Consume_and_count_1"];2.25;1533750150.04626;16.76;250.37;7.880594698;10;149
5;paravance-39.rennes.grid5000.fr;thermos-root-devel-WordCountTopology-2-04541e24-597c-479a-a29f-59e4659330c4;["container_2_Emit_random_words_2"];2.25;1533750150.04622;13.84;324.63;10.974818075;10;149
5;paravance-40.rennes.grid5000.fr;thermos-root-devel-WordCountTopology-0-44428682-32dc-47b1-8bcc-a8e2526ad574;["topology_master"];2.25;1533750150.09325;2.87;8.76;0.305002815;9;117
6;paravance-42.rennes.grid5000.fr;thermos-root-devel-WordCountTopology-1-fc62a765-fd7a-476f-8de8-8e74ec5082bb;["container_1_Consume_and_count_1"];2.25;1533750160.26274;17.62;264.78;7.916703655;10;149
6;paravance-39.rennes.grid5000.fr;thermos-root-devel-WordCountTopology-2-04541e24-597c-479a-a29f-59e4659330c4;["container_2_Emit_random_words_2"];2.25;1533750160.26642;14.48;342.87;11.118138613;10;149
6;paravance-40.rennes.grid5000.fr;thermos-root-devel-WordCountTopology-0-44428682-32dc-47b1-8bcc-a8e2526ad574;["topology_master"];2.25;1533750160.31325;2.93;8.92;0.305002815;9;117
7;paravance-42.rennes.grid5000.fr;thermos-root-devel-WordCountTopology-1-fc62a765-fd7a-476f-8de8-8e74ec5082bb;["container_1_Consume_and_count_1"];2.25;1533750170.47774;18.46;279.31;8.45636266;10;149
7;paravance-39.rennes.grid5000.fr;thermos-root-devel-WordCountTopology-2-04541e24-597c-479a-a29f-59e4659330c4;["container_2_Emit_random_words_2"];2.25;1533750170.48676;15.19;361.1;11.13837328;10;149
7;paravance-40.rennes.grid5000.fr;thermos-root-devel-WordCountTopology-0-44428682-32dc-47b1-8bcc-a8e2526ad574;["topology_master"];2.25;1533750170.53439;3.02;9.05;0.305002815;9;117
8;paravance-40.rennes.grid5000.fr;thermos-root-devel-WordCountTopology-0-44428682-32dc-47b1-8bcc-a8e2526ad574;["topology_master"];2.25;1533750180.75441;3.08;9.12;0.305002815;9;117
8;paravance-42.rennes.grid5000.fr;thermos-root-devel-WordCountTopology-1-fc62a765-fd7a-476f-8de8-8e74ec5082bb;["container_1_Consume_and_count_1"];2.25;1533750180.69518;19.31;292.67;8.45636266;10;149
8;paravance-39.rennes.grid5000.fr;thermos-root-devel-WordCountTopology-2-04541e24-597c-479a-a29f-59e4659330c4;["container_2_Emit_random_words_2"];2.25;1533750180.70896;15.86;379.35;11.152776099;10;149
9;paravance-40.rennes.grid5000.fr;thermos-root-devel-WordCountTopology-0-44428682-32dc-47b1-8bcc-a8e2526ad574;["topology_master"];2.25;1533750190.97644;3.14;9.2;0.305002815;9;117
9;paravance-39.rennes.grid5000.fr;thermos-root-devel-WordCountTopology-2-04541e24-597c-479a-a29f-59e4659330c4;["container_2_Emit_random_words_2"];2.25;1533750190.92999;16.54;397.56;11.188202636;10;149
9;paravance-42.rennes.grid5000.fr;thermos-root-devel-WordCountTopology-1-fc62a765-fd7a-476f-8de8-8e74ec5082bb;["container_1_Consume_and_count_1"];2.25;1533750190.91059;20.17;305.53;8.45636266;10;149
10;paravance-42.rennes.grid5000.fr;thermos-root-devel-WordCountTopology-1-fc62a765-fd7a-476f-8de8-8e74ec5082bb;["container_1_Consume_and_count_1"];2.25;1533750201.12484;21.01;319.39;8.53371475;10;149
10;paravance-39.rennes.grid5000.fr;thermos-root-devel-WordCountTopology-2-04541e24-597c-479a-a29f-59e4659330c4;["container_2_Emit_random_words_2"];2.25;1533750201.1488;17.19;415.68;11.200364636;10;149
10;paravance-40.rennes.grid5000.fr;thermos-root-devel-WordCountTopology-0-44428682-32dc-47b1-8bcc-a8e2526ad574;["topology_master"];2.25;1533750201.19746;3.2;9.27;0.305002815;9;117
11;paravance-42.rennes.grid5000.fr;thermos-root-devel-WordCountTopology-1-fc62a765-fd7a-476f-8de8-8e74ec5082bb;["container_1_Consume_and_count_1"];2.25;1533750211.23985;21.89;333.2;8.624108706;10;149
11;paravance-40.rennes.grid5000.fr;thermos-root-devel-WordCountTopology-0-44428682-32dc-47b1-8bcc-a8e2526ad574;["topology_master"];2.25;1533750211.41711;3.32;9.52;0.305002815;9;117
11;paravance-39.rennes.grid5000.fr;thermos-root-devel-WordCountTopology-2-04541e24-597c-479a-a29f-59e4659330c4;["container_2_Emit_random_words_2"];2.25;1533750211.36972;17.87;433.73;11.252631855;10;149
12;paravance-42.rennes.grid5000.fr;thermos-root-devel-WordCountTopology-1-fc62a765-fd7a-476f-8de8-8e74ec5082bb;["container_1_Consume_and_count_1"];2.25;1533750221.5556;22.75;347.54;8.684319789;10;149
12;paravance-40.rennes.grid5000.fr;thermos-root-devel-WordCountTopology-0-44428682-32dc-47b1-8bcc-a8e2526ad574;["topology_master"];2.25;1533750221.63619;3.35;9.55;0.305002815;9;117
12;paravance-39.rennes.grid5000.fr;thermos-root-devel-WordCountTopology-2-04541e24-597c-479a-a29f-59e4659330c4;["container_2_Emit_random_words_2"];2.25;1533750221.58973;18.48;452.01;11.346397506;10;149
13;paravance-42.rennes.grid5000.fr;thermos-root-devel-WordCountTopology-1-fc62a765-fd7a-476f-8de8-8e74ec5082bb;["container_1_Consume_and_count_1"];2.25;1533750231.77066;23.62;361.62;8.684319789;10;149
13;paravance-39.rennes.grid5000.fr;thermos-root-devel-WordCountTopology-2-04541e24-597c-479a-a29f-59e4659330c4;["container_2_Emit_random_words_2"];2.25;1533750231.8098;19.16;470.12;11.426781945;10;149
13;paravance-40.rennes.grid5000.fr;thermos-root-devel-WordCountTopology-0-44428682-32dc-47b1-8bcc-a8e2526ad574;["topology_master"];2.25;1533750231.85664;3.44;9.68;0.305002815;9;117
14;paravance-39.rennes.grid5000.fr;thermos-root-devel-WordCountTopology-2-04541e24-597c-479a-a29f-59e4659330c4;["container_2_Emit_random_words_2"];2.25;1533750242.0304;19.81;488.29;11.466788967;10;149
14;paravance-42.rennes.grid5000.fr;thermos-root-devel-WordCountTopology-1-fc62a765-fd7a-476f-8de8-8e74ec5082bb;["container_1_Consume_and_count_1"];2.25;1533750241.98687;24.45;375.72;8.684319789;10;149
14;paravance-40.rennes.grid5000.fr;thermos-root-devel-WordCountTopology-0-44428682-32dc-47b1-8bcc-a8e2526ad574;["topology_master"];2.25;1533750242.07392;3.5;9.76;0.305002815;9;117
15;paravance-42.rennes.grid5000.fr;thermos-root-devel-WordCountTopology-1-fc62a765-fd7a-476f-8de8-8e74ec5082bb;["container_1_Consume_and_count_1"];2.25;1533750252.2011;25.36;389.77;8.722081398;10;149
15;paravance-39.rennes.grid5000.fr;thermos-root-devel-WordCountTopology-2-04541e24-597c-479a-a29f-59e4659330c4;["container_2_Emit_random_words_2"];2.25;1533750252.25116;20.46;506.38;11.50292309;10;149
15;paravance-40.rennes.grid5000.fr;thermos-root-devel-WordCountTopology-0-44428682-32dc-47b1-8bcc-a8e2526ad574;["topology_master"];2.25;1533750252.28878;3.56;9.84;0.305002815;9;117
16;paravance-40.rennes.grid5000.fr;thermos-root-devel-WordCountTopology-0-44428682-32dc-47b1-8bcc-a8e2526ad574;["topology_master"];2.25;1533750262.50296;3.62;9.91;0.305002815;9;117
16;paravance-42.rennes.grid5000.fr;thermos-root-devel-WordCountTopology-1-fc62a765-fd7a-476f-8de8-8e74ec5082bb;["container_1_Consume_and_count_1"];2.25;1533750262.41936;26.16;403.4;8.804895001;10;149
16;paravance-39.rennes.grid5000.fr;thermos-root-devel-WordCountTopology-2-04541e24-597c-479a-a29f-59e4659330c4;["container_2_Emit_random_words_2"];2.25;1533750262.47242;21.1;524.0;11.516646573;10;149
17;paravance-42.rennes.grid5000.fr;thermos-root-devel-WordCountTopology-1-fc62a765-fd7a-476f-8de8-8e74ec5082bb;["container_1_Consume_and_count_1"];2.25;1533750272.6313;27.03;417.5;9.014133856;10;149
17;paravance-39.rennes.grid5000.fr;thermos-root-devel-WordCountTopology-2-04541e24-597c-479a-a29f-59e4659330c4;["container_2_Emit_random_words_2"];2.25;1533750272.69379;21.8;542.13;11.561875543;10;149
17;paravance-40.rennes.grid5000.fr;thermos-root-devel-WordCountTopology-0-44428682-32dc-47b1-8bcc-a8e2526ad574;["topology_master"];2.25;1533750272.72134;3.73;10.12;0.305002815;9;117
18;paravance-42.rennes.grid5000.fr;thermos-root-devel-WordCountTopology-1-fc62a765-fd7a-476f-8de8-8e74ec5082bb;["container_1_Consume_and_count_1"];2.25;1533750282.8551;27.8;431.14;9.014133856;10;149
18;paravance-39.rennes.grid5000.fr;thermos-root-devel-WordCountTopology-2-04541e24-597c-479a-a29f-59e4659330c4;["container_2_Emit_random_words_2"];2.25;1533750282.92133;22.42;560.29;11.561875543;10;149
18;paravance-40.rennes.grid5000.fr;thermos-root-devel-WordCountTopology-0-44428682-32dc-47b1-8bcc-a8e2526ad574;["topology_master"];2.25;1533750282.94329;3.76;10.15;0.305002815;9;117
19;paravance-39.rennes.grid5000.fr;thermos-root-devel-WordCountTopology-2-04541e24-597c-479a-a29f-59e4659330c4;["container_2_Emit_random_words_2"];2.25;1533750293.0426;23.11;578.21;11.6277642;10;149
19;paravance-42.rennes.grid5000.fr;thermos-root-devel-WordCountTopology-1-fc62a765-fd7a-476f-8de8-8e74ec5082bb;["container_1_Consume_and_count_1"];2.25;1533750293.07304;28.7;444.94;9.061043188;10;149
19;paravance-40.rennes.grid5000.fr;thermos-root-devel-WordCountTopology-0-44428682-32dc-47b1-8bcc-a8e2526ad574;["topology_master"];2.25;1533750293.15924;3.85;10.27;0.305002815;9;117
20;paravance-40.rennes.grid5000.fr;thermos-root-devel-WordCountTopology-0-44428682-32dc-47b1-8bcc-a8e2526ad574;["topology_master"];2.25;1533750303.27465;3.91;10.35;0.305002815;9;117
20;paravance-42.rennes.grid5000.fr;thermos-root-devel-WordCountTopology-1-fc62a765-fd7a-476f-8de8-8e74ec5082bb;["container_1_Consume_and_count_1"];2.25;1533750303.28799;29.52;458.65;9.061043188;10;149
20;paravance-39.rennes.grid5000.fr;thermos-root-devel-WordCountTopology-2-04541e24-597c-479a-a29f-59e4659330c4;["container_2_Emit_random_words_2"];2.25;1533750303.36201;23.76;596.51;11.675791698;10;149
21;paravance-40.rennes.grid5000.fr;thermos-root-devel-WordCountTopology-0-44428682-32dc-47b1-8bcc-a8e2526ad574;["topology_master"];2.25;1533750313.48774;3.97;10.42;0.305002815;9;117
21;paravance-42.rennes.grid5000.fr;thermos-root-devel-WordCountTopology-1-fc62a765-fd7a-476f-8de8-8e74ec5082bb;["container_1_Consume_and_count_1"];2.25;1533750313.50248;30.4;472.82;9.061043188;10;149
21;paravance-39.rennes.grid5000.fr;thermos-root-devel-WordCountTopology-2-04541e24-597c-479a-a29f-59e4659330c4;["container_2_Emit_random_words_2"];2.25;1533750313.58143;24.43;614.7;11.700838041;10;149
22;paravance-39.rennes.grid5000.fr;thermos-root-devel-WordCountTopology-2-04541e24-597c-479a-a29f-59e4659330c4;["container_2_Emit_random_words_2"];2.25;1533750323.6999;25.07;632.57;11.712953741;10;149
22;paravance-42.rennes.grid5000.fr;thermos-root-devel-WordCountTopology-1-fc62a765-fd7a-476f-8de8-8e74ec5082bb;["container_1_Consume_and_count_1"];2.25;1533750323.71881;31.17;486.56;9.061043188;10;149
22;paravance-40.rennes.grid5000.fr;thermos-root-devel-WordCountTopology-0-44428682-32dc-47b1-8bcc-a8e2526ad574;["topology_master"];2.25;1533750323.80323;4.03;10.49;0.305002815;9;117
23;paravance-42.rennes.grid5000.fr;thermos-root-devel-WordCountTopology-1-fc62a765-fd7a-476f-8de8-8e74ec5082bb;["container_1_Consume_and_count_1"];2.25;1533750333.92931;32.06;500.2;9.077271312;10;149
23;paravance-39.rennes.grid5000.fr;thermos-root-devel-WordCountTopology-2-04541e24-597c-479a-a29f-59e4659330c4;["container_2_Emit_random_words_2"];2.25;1533750334.0127;25.78;650.96;11.78060633;10;149
23;paravance-40.rennes.grid5000.fr;thermos-root-devel-WordCountTopology-0-44428682-32dc-47b1-8bcc-a8e2526ad574;["topology_master"];2.25;1533750334.01764;4.15;10.69;0.305002815;9;117
24;paravance-42.rennes.grid5000.fr;thermos-root-devel-WordCountTopology-1-fc62a765-fd7a-476f-8de8-8e74ec5082bb;["container_1_Consume_and_count_1"];2.25;1533750344.14815;32.87;513.56;9.077271312;10;149
24;paravance-40.rennes.grid5000.fr;thermos-root-devel-WordCountTopology-0-44428682-32dc-47b1-8bcc-a8e2526ad574;["topology_master"];2.25;1533750344.23239;4.17;10.71;0.305002815;9;117
24;paravance-39.rennes.grid5000.fr;thermos-root-devel-WordCountTopology-2-04541e24-597c-479a-a29f-59e4659330c4;["container_2_Emit_random_words_2"];2.25;1533750344.22925;26.39;669.0;11.78060633;10;149
25;paravance-39.rennes.grid5000.fr;thermos-root-devel-WordCountTopology-2-04541e24-597c-479a-a29f-59e4659330c4;["container_2_Emit_random_words_2"];2.25;1533750354.44381;27.07;687.09;11.823822303;10;149
25;paravance-42.rennes.grid5000.fr;thermos-root-devel-WordCountTopology-1-fc62a765-fd7a-476f-8de8-8e74ec5082bb;["container_1_Consume_and_count_1"];2.25;1533750354.36333;33.73;526.95;9.077271312;10;149
25;paravance-40.rennes.grid5000.fr;thermos-root-devel-WordCountTopology-0-44428682-32dc-47b1-8bcc-a8e2526ad574;["topology_master"];2.25;1533750354.44887;4.27;10.84;0.305002815;9;117
26;paravance-39.rennes.grid5000.fr;thermos-root-devel-WordCountTopology-2-04541e24-597c-479a-a29f-59e4659330c4;["container_2_Emit_random_words_2"];2.25;1533750364.65792;27.72;705.12;11.843909253;10;149
26;paravance-40.rennes.grid5000.fr;thermos-root-devel-WordCountTopology-0-44428682-32dc-47b1-8bcc-a8e2526ad574;["topology_master"];2.25;1533750364.66227;4.32;10.91;0.305002815;9;117
26;paravance-42.rennes.grid5000.fr;thermos-root-devel-WordCountTopology-1-fc62a765-fd7a-476f-8de8-8e74ec5082bb;["container_1_Consume_and_count_1"];2.25;1533750364.57805;34.56;540.26;9.077271312;10;149
27;paravance-42.rennes.grid5000.fr;thermos-root-devel-WordCountTopology-1-fc62a765-fd7a-476f-8de8-8e74ec5082bb;["container_1_Consume_and_count_1"];2.25;1533750374.79256;35.41;554.26;9.122681557;10;149
27;paravance-39.rennes.grid5000.fr;thermos-root-devel-WordCountTopology-2-04541e24-597c-479a-a29f-59e4659330c4;["container_2_Emit_random_words_2"];2.25;1533750374.87265;28.37;723.26;11.855982199;10;149
27;paravance-40.rennes.grid5000.fr;thermos-root-devel-WordCountTopology-0-44428682-32dc-47b1-8bcc-a8e2526ad574;["topology_master"];2.25;1533750374.87802;4.39;10.99;0.305002815;9;117
28;paravance-40.rennes.grid5000.fr;thermos-root-devel-WordCountTopology-0-44428682-32dc-47b1-8bcc-a8e2526ad574;["topology_master"];2.25;1533750385.0921;4.45;11.07;0.305002815;9;117
28;paravance-42.rennes.grid5000.fr;thermos-root-devel-WordCountTopology-1-fc62a765-fd7a-476f-8de8-8e74ec5082bb;["container_1_Consume_and_count_1"];2.25;1533750385.0078;36.26;568.36;9.122681557;10;149
28;paravance-39.rennes.grid5000.fr;thermos-root-devel-WordCountTopology-2-04541e24-597c-479a-a29f-59e4659330c4;["container_2_Emit_random_words_2"];2.25;1533750385.09014;29.03;741.45;11.876715949;10;149
29;paravance-42.rennes.grid5000.fr;thermos-root-devel-WordCountTopology-1-fc62a765-fd7a-476f-8de8-8e74ec5082bb;["container_1_Consume_and_count_1"];2.25;1533750395.22387;37.15;582.27;9.150830441;10;149
29;paravance-39.rennes.grid5000.fr;thermos-root-devel-WordCountTopology-2-04541e24-597c-479a-a29f-59e4659330c4;["container_2_Emit_random_words_2"];2.25;1533750395.30451;29.72;759.7;11.934621525;10;149
29;paravance-40.rennes.grid5000.fr;thermos-root-devel-WordCountTopology-0-44428682-32dc-47b1-8bcc-a8e2526ad574;["topology_master"];2.25;1533750395.30986;4.56;11.25;0.305002815;9;117
30;paravance-42.rennes.grid5000.fr;thermos-root-devel-WordCountTopology-1-fc62a765-fd7a-476f-8de8-8e74ec5082bb;["container_1_Consume_and_count_1"];2.25;1533750405.4395;37.96;595.35;9.150830441;10;149
30;paravance-39.rennes.grid5000.fr;thermos-root-devel-WordCountTopology-2-04541e24-597c-479a-a29f-59e4659330c4;["container_2_Emit_random_words_2"];2.25;1533750405.52008;30.38;777.89;11.952927095;10;149
30;paravance-40.rennes.grid5000.fr;thermos-root-devel-WordCountTopology-0-44428682-32dc-47b1-8bcc-a8e2526ad574;["topology_master"];2.25;1533750405.52514;4.62;11.33;0.305002815;9;117
31;paravance-42.rennes.grid5000.fr;thermos-root-devel-WordCountTopology-1-fc62a765-fd7a-476f-8de8-8e74ec5082bb;["container_1_Consume_and_count_1"];2.25;1533750415.65559;38.85;609.48;9.188058793;10;149
31;paravance-39.rennes.grid5000.fr;thermos-root-devel-WordCountTopology-2-04541e24-597c-479a-a29f-59e4659330c4;["container_2_Emit_random_words_2"];2.25;1533750415.73652;31.04;796.16;11.962593959;10;149
31;paravance-40.rennes.grid5000.fr;thermos-root-devel-WordCountTopology-0-44428682-32dc-47b1-8bcc-a8e2526ad574;["topology_master"];2.25;1533750415.7411;4.68;11.4;0.305002815;9;117
32;paravance-39.rennes.grid5000.fr;thermos-root-devel-WordCountTopology-2-04541e24-597c-479a-a29f-59e4659330c4;["container_2_Emit_random_words_2"];2.25;1533750425.951;31.73;814.24;12.011729752;10;149
32;paravance-42.rennes.grid5000.fr;thermos-root-devel-WordCountTopology-1-fc62a765-fd7a-476f-8de8-8e74ec5082bb;["container_1_Consume_and_count_1"];2.25;1533750425.87023;39.67;623.54;9.188058793;10;149
32;paravance-40.rennes.grid5000.fr;thermos-root-devel-WordCountTopology-0-44428682-32dc-47b1-8bcc-a8e2526ad574;["topology_master"];2.25;1533750425.95622;4.76;11.52;0.305002815;9;117
33;paravance-42.rennes.grid5000.fr;thermos-root-devel-WordCountTopology-1-fc62a765-fd7a-476f-8de8-8e74ec5082bb;["container_1_Consume_and_count_1"];2.25;1533750436.08457;40.49;636.81;9.188058793;10;149
33;paravance-40.rennes.grid5000.fr;thermos-root-devel-WordCountTopology-0-44428682-32dc-47b1-8bcc-a8e2526ad574;["topology_master"];2.25;1533750436.17106;4.79;11.54;0.305002815;9;117
33;paravance-39.rennes.grid5000.fr;thermos-root-devel-WordCountTopology-2-04541e24-597c-479a-a29f-59e4659330c4;["container_2_Emit_random_words_2"];2.25;1533750436.16687;32.37;832.41;12.011729752;10;149
34;paravance-42.rennes.grid5000.fr;thermos-root-devel-WordCountTopology-1-fc62a765-fd7a-476f-8de8-8e74ec5082bb;["container_1_Consume_and_count_1"];2.25;1533750446.29937;41.36;650.02;9.188058793;10;149
34;paravance-40.rennes.grid5000.fr;thermos-root-devel-WordCountTopology-0-44428682-32dc-47b1-8bcc-a8e2526ad574;["topology_master"];2.25;1533750446.38455;4.89;11.67;0.305002815;9;117
34;paravance-39.rennes.grid5000.fr;thermos-root-devel-WordCountTopology-2-04541e24-597c-479a-a29f-59e4659330c4;["container_2_Emit_random_words_2"];2.25;1533750446.37968;33.08;850.79;12.089770702;10;149
35;paravance-40.rennes.grid5000.fr;thermos-root-devel-WordCountTopology-0-44428682-32dc-47b1-8bcc-a8e2526ad574;["topology_master"];2.25;1533750456.59959;4.95;11.86;0.305002815;9;117
35;paravance-42.rennes.grid5000.fr;thermos-root-devel-WordCountTopology-1-fc62a765-fd7a-476f-8de8-8e74ec5082bb;["container_1_Consume_and_count_1"];2.25;1533750456.51555;42.25;664.18;9.188058793;10;149
35;paravance-39.rennes.grid5000.fr;thermos-root-devel-WordCountTopology-2-04541e24-597c-479a-a29f-59e4659330c4;["container_2_Emit_random_words_2"];2.25;1533750456.59685;33.77;869.11;12.133073181;10;149
36;paravance-42.rennes.grid5000.fr;thermos-root-devel-WordCountTopology-1-fc62a765-fd7a-476f-8de8-8e74ec5082bb;["container_1_Consume_and_count_1"];2.25;1533750466.73091;43.12;678.16;9.228161494;10;149
36;paravance-39.rennes.grid5000.fr;thermos-root-devel-WordCountTopology-2-04541e24-597c-479a-a29f-59e4659330c4;["container_2_Emit_random_words_2"];2.25;1533750466.8116;34.45;887.37;12.155724031;10;149
36;paravance-40.rennes.grid5000.fr;thermos-root-devel-WordCountTopology-0-44428682-32dc-47b1-8bcc-a8e2526ad574;["topology_master"];2.25;1533750466.81673;5.01;11.93;0.305002815;9;117
37;paravance-42.rennes.grid5000.fr;thermos-root-devel-WordCountTopology-1-fc62a765-fd7a-476f-8de8-8e74ec5082bb;["container_1_Consume_and_count_1"];2.25;1533750476.94566;43.97;692.53;9.294079857;10;149
37;paravance-39.rennes.grid5000.fr;thermos-root-devel-WordCountTopology-2-04541e24-597c-479a-a29f-59e4659330c4;["container_2_Emit_random_words_2"];2.25;1533750477.02563;35.13;905.58;12.194010953;10;149
37;paravance-40.rennes.grid5000.fr;thermos-root-devel-WordCountTopology-0-44428682-32dc-47b1-8bcc-a8e2526ad574;["topology_master"];2.25;1533750477.03087;5.07;12.0;0.305002815;9;117
38;paravance-42.rennes.grid5000.fr;thermos-root-devel-WordCountTopology-1-fc62a765-fd7a-476f-8de8-8e74ec5082bb;["container_1_Consume_and_count_1"];2.25;1533750487.15941;44.83;706.59;9.294079857;10;149
38;paravance-39.rennes.grid5000.fr;thermos-root-devel-WordCountTopology-2-04541e24-597c-479a-a29f-59e4659330c4;["container_2_Emit_random_words_2"];2.25;1533750487.23993;35.85;923.72;12.226182532;10;149
38;paravance-40.rennes.grid5000.fr;thermos-root-devel-WordCountTopology-0-44428682-32dc-47b1-8bcc-a8e2526ad574;["topology_master"];2.25;1533750487.24557;5.16;12.12;0.305002815;9;117
39;paravance-39.rennes.grid5000.fr;thermos-root-devel-WordCountTopology-2-04541e24-597c-479a-a29f-59e4659330c4;["container_2_Emit_random_words_2"];2.25;1533750497.4546;36.53;941.97;12.234237447;10;149
39;paravance-42.rennes.grid5000.fr;thermos-root-devel-WordCountTopology-1-fc62a765-fd7a-476f-8de8-8e74ec5082bb;["container_1_Consume_and_count_1"];2.25;1533750497.37546;45.67;721.04;9.294101847;10;149
39;paravance-40.rennes.grid5000.fr;thermos-root-devel-WordCountTopology-0-44428682-32dc-47b1-8bcc-a8e2526ad574;["topology_master"];2.25;1533750497.46025;5.21;12.19;0.305002815;9;117
40;paravance-42.rennes.grid5000.fr;thermos-root-devel-WordCountTopology-1-fc62a765-fd7a-476f-8de8-8e74ec5082bb;["container_1_Consume_and_count_1"];2.25;1533750507.61035;46.53;735.37;9.345644587;10;149
40;paravance-40.rennes.grid5000.fr;thermos-root-devel-WordCountTopology-0-44428682-32dc-47b1-8bcc-a8e2526ad574;["topology_master"];2.25;1533750507.70076;5.28;12.28;0.305002815;9;117
40;paravance-39.rennes.grid5000.fr;thermos-root-devel-WordCountTopology-2-04541e24-597c-479a-a29f-59e4659330c4;["container_2_Emit_random_words_2"];2.25;1533750507.69716;37.22;960.26;12.283817046;10;149
41;paravance-42.rennes.grid5000.fr;thermos-root-devel-WordCountTopology-1-fc62a765-fd7a-476f-8de8-8e74ec5082bb;["container_1_Consume_and_count_1"];2.25;1533750517.83273;47.38;749.81;9.350482447;10;149
41;paravance-39.rennes.grid5000.fr;thermos-root-devel-WordCountTopology-2-04541e24-597c-479a-a29f-59e4659330c4;["container_2_Emit_random_words_2"];2.25;1533750517.91376;37.89;978.48;12.336187036;10;149
41;paravance-40.rennes.grid5000.fr;thermos-root-devel-WordCountTopology-0-44428682-32dc-47b1-8bcc-a8e2526ad574;["topology_master"];2.25;1533750517.91881;5.34;12.39;0.305002815;9;117
42;paravance-42.rennes.grid5000.fr;thermos-root-devel-WordCountTopology-1-fc62a765-fd7a-476f-8de8-8e74ec5082bb;["container_1_Consume_and_count_1"];2.25;1533750528.04707;48.26;764.33;9.350507396;10;149
42;paravance-39.rennes.grid5000.fr;thermos-root-devel-WordCountTopology-2-04541e24-597c-479a-a29f-59e4659330c4;["container_2_Emit_random_words_2"];2.25;1533750528.12852;38.6;996.72;12.367822868;10;149
42;paravance-40.rennes.grid5000.fr;thermos-root-devel-WordCountTopology-0-44428682-32dc-47b1-8bcc-a8e2526ad574;["topology_master"];2.25;1533750528.1346;5.43;12.5;0.305002815;9;117
43;paravance-40.rennes.grid5000.fr;thermos-root-devel-WordCountTopology-0-44428682-32dc-47b1-8bcc-a8e2526ad574;["topology_master"];2.25;1533750538.24935;5.46;12.53;0.305002815;9;117
43;paravance-42.rennes.grid5000.fr;thermos-root-devel-WordCountTopology-1-fc62a765-fd7a-476f-8de8-8e74ec5082bb;["container_1_Consume_and_count_1"];2.25;1533750538.26266;49.05;777.34;9.350507396;10;149
43;paravance-39.rennes.grid5000.fr;thermos-root-devel-WordCountTopology-2-04541e24-597c-479a-a29f-59e4659330c4;["container_2_Emit_random_words_2"];2.25;1533750538.34319;39.25;1014.88;12.367822868;10;149
44;paravance-42.rennes.grid5000.fr;thermos-root-devel-WordCountTopology-1-fc62a765-fd7a-476f-8de8-8e74ec5082bb;["container_1_Consume_and_count_1"];2.25;1533750548.47889;49.87;790.93;9.382323694;10;149
44;paravance-40.rennes.grid5000.fr;thermos-root-devel-WordCountTopology-0-44428682-32dc-47b1-8bcc-a8e2526ad574;["topology_master"];2.25;1533750548.56409;5.55;12.65;0.305002815;9;117
44;paravance-39.rennes.grid5000.fr;thermos-root-devel-WordCountTopology-2-04541e24-597c-479a-a29f-59e4659330c4;["container_2_Emit_random_words_2"];2.25;1533750548.56043;39.95;1033.18;12.414493547;10;149
45;paravance-40.rennes.grid5000.fr;thermos-root-devel-WordCountTopology-0-44428682-32dc-47b1-8bcc-a8e2526ad574;["topology_master"];2.25;1533750558.77985;5.6;12.72;0.305002815;9;117
45;paravance-42.rennes.grid5000.fr;thermos-root-devel-WordCountTopology-1-fc62a765-fd7a-476f-8de8-8e74ec5082bb;["container_1_Consume_and_count_1"];2.25;1533750558.6966;50.7;805.38;9.414410331;10;149
45;paravance-39.rennes.grid5000.fr;thermos-root-devel-WordCountTopology-2-04541e24-597c-479a-a29f-59e4659330c4;["container_2_Emit_random_words_2"];2.25;1533750558.77627;40.63;1051.42;12.418584705;10;149
46;paravance-39.rennes.grid5000.fr;thermos-root-devel-WordCountTopology-2-04541e24-597c-479a-a29f-59e4659330c4;["container_2_Emit_random_words_2"];2.25;1533750568.99129;41.31;1069.6;12.443435131;10;149
46;paravance-42.rennes.grid5000.fr;thermos-root-devel-WordCountTopology-1-fc62a765-fd7a-476f-8de8-8e74ec5082bb;["container_1_Consume_and_count_1"];2.25;1533750568.9131;51.51;819.96;9.606772318;10;149
46;paravance-40.rennes.grid5000.fr;thermos-root-devel-WordCountTopology-0-44428682-32dc-47b1-8bcc-a8e2526ad574;["topology_master"];2.25;1533750568.99731;5.67;12.81;0.305002815;9;117
47;paravance-42.rennes.grid5000.fr;thermos-root-devel-WordCountTopology-1-fc62a765-fd7a-476f-8de8-8e74ec5082bb;["container_1_Consume_and_count_1"];2.25;1533750579.12756;52.35;835.93;10.545938919;10;149
47;paravance-39.rennes.grid5000.fr;thermos-root-devel-WordCountTopology-2-04541e24-597c-479a-a29f-59e4659330c4;["container_2_Emit_random_words_2"];2.25;1533750579.20718;42.0;1087.81;12.458286555;10;149
47;paravance-40.rennes.grid5000.fr;thermos-root-devel-WordCountTopology-0-44428682-32dc-47b1-8bcc-a8e2526ad574;["topology_master"];2.25;1533750579.21292;5.73;12.95;0.305002815;9;117
48;paravance-42.rennes.grid5000.fr;thermos-root-devel-WordCountTopology-1-fc62a765-fd7a-476f-8de8-8e74ec5082bb;["container_1_Consume_and_count_1"];2.25;1533750589.34193;53.22;852.79;12.031919365;10;149
48;paravance-40.rennes.grid5000.fr;thermos-root-devel-WordCountTopology-0-44428682-32dc-47b1-8bcc-a8e2526ad574;["topology_master"];2.25;1533750589.42732;5.82;13.07;0.305002815;9;117
48;paravance-39.rennes.grid5000.fr;thermos-root-devel-WordCountTopology-2-04541e24-597c-479a-a29f-59e4659330c4;["container_2_Emit_random_words_2"];2.25;1533750589.42146;42.71;1105.83;12.480015859;10;149
49;paravance-42.rennes.grid5000.fr;thermos-root-devel-WordCountTopology-1-fc62a765-fd7a-476f-8de8-8e74ec5082bb;["container_1_Consume_and_count_1"];2.25;1533750599.558;54.05;868.45;12.579132391;10;149
49;paravance-40.rennes.grid5000.fr;thermos-root-devel-WordCountTopology-0-44428682-32dc-47b1-8bcc-a8e2526ad574;["topology_master"];2.25;1533750599.64236;5.85;13.1;0.305002815;9;117
49;paravance-39.rennes.grid5000.fr;thermos-root-devel-WordCountTopology-2-04541e24-597c-479a-a29f-59e4659330c4;["container_2_Emit_random_words_2"];2.25;1533750599.63745;43.36;1124.01;12.480015859;10;149
50;paravance-39.rennes.grid5000.fr;thermos-root-devel-WordCountTopology-2-04541e24-597c-479a-a29f-59e4659330c4;["container_2_Emit_random_words_2"];2.25;1533750609.85231;44.07;1142.23;12.520257486;10;149
50;paravance-40.rennes.grid5000.fr;thermos-root-devel-WordCountTopology-0-44428682-32dc-47b1-8bcc-a8e2526ad574;["topology_master"];2.25;1533750609.85819;5.94;13.22;0.305002815;9;117
50;paravance-42.rennes.grid5000.fr;thermos-root-devel-WordCountTopology-1-fc62a765-fd7a-476f-8de8-8e74ec5082bb;["container_1_Consume_and_count_1"];2.25;1533750609.77493;54.91;882.37;12.579132391;10;149
51;paravance-42.rennes.grid5000.fr;thermos-root-devel-WordCountTopology-1-fc62a765-fd7a-476f-8de8-8e74ec5082bb;["container_1_Consume_and_count_1"];2.25;1533750619.99052;55.73;896.57;12.579132391;10;149
51;paravance-39.rennes.grid5000.fr;thermos-root-devel-WordCountTopology-2-04541e24-597c-479a-a29f-59e4659330c4;["container_2_Emit_random_words_2"];2.25;1533750620.06942;44.72;1160.4;12.540186156;10;149
51;paravance-40.rennes.grid5000.fr;thermos-root-devel-WordCountTopology-0-44428682-32dc-47b1-8bcc-a8e2526ad574;["topology_master"];2.25;1533750620.07555;6.0;13.3;0.305002815;9;117
52;paravance-42.rennes.grid5000.fr;thermos-root-devel-WordCountTopology-1-fc62a765-fd7a-476f-8de8-8e74ec5082bb;["container_1_Consume_and_count_1"];2.25;1533750630.2054;56.55;910.89;12.579132391;10;149
52;paravance-39.rennes.grid5000.fr;thermos-root-devel-WordCountTopology-2-04541e24-597c-479a-a29f-59e4659330c4;["container_2_Emit_random_words_2"];2.25;1533750630.28627;45.41;1178.6;12.561262338;10;149
52;paravance-40.rennes.grid5000.fr;thermos-root-devel-WordCountTopology-0-44428682-32dc-47b1-8bcc-a8e2526ad574;["topology_master"];2.25;1533750630.29243;6.07;13.41;0.305002815;9;117
53;paravance-42.rennes.grid5000.fr;thermos-root-devel-WordCountTopology-1-fc62a765-fd7a-476f-8de8-8e74ec5082bb;["container_1_Consume_and_count_1"];2.25;1533750640.42167;57.34;924.35;12.61526039;10;149
53;paravance-39.rennes.grid5000.fr;thermos-root-devel-WordCountTopology-2-04541e24-597c-479a-a29f-59e4659330c4;["container_2_Emit_random_words_2"];2.25;1533750640.50162;46.08;1196.78;12.59493234;10;149
53;paravance-40.rennes.grid5000.fr;thermos-root-devel-WordCountTopology-0-44428682-32dc-47b1-8bcc-a8e2526ad574;["topology_master"];2.25;1533750640.50851;6.13;13.53;0.305002815;9;117
54;paravance-42.rennes.grid5000.fr;thermos-root-devel-WordCountTopology-1-fc62a765-fd7a-476f-8de8-8e74ec5082bb;["container_1_Consume_and_count_1"];2.25;1533750650.63597;58.21;938.13;12.61526039;10;149
54;paravance-39.rennes.grid5000.fr;thermos-root-devel-WordCountTopology-2-04541e24-597c-479a-a29f-59e4659330c4;["container_2_Emit_random_words_2"];2.25;1533750650.71672;46.79;1215.04;12.616845405;10;149
54;paravance-40.rennes.grid5000.fr;thermos-root-devel-WordCountTopology-0-44428682-32dc-47b1-8bcc-a8e2526ad574;["topology_master"];2.25;1533750650.72357;6.22;13.65;0.305002815;9;117
55;paravance-40.rennes.grid5000.fr;thermos-root-devel-WordCountTopology-0-44428682-32dc-47b1-8bcc-a8e2526ad574;["topology_master"];2.25;1533750660.83776;6.24;13.67;0.305002815;9;117
55;paravance-39.rennes.grid5000.fr;thermos-root-devel-WordCountTopology-2-04541e24-597c-479a-a29f-59e4659330c4;["container_2_Emit_random_words_2"];2.25;1533750660.9306;47.43;1233.21;12.616845405;10;149
55;paravance-42.rennes.grid5000.fr;thermos-root-devel-WordCountTopology-1-fc62a765-fd7a-476f-8de8-8e74ec5082bb;["container_1_Consume_and_count_1"];2.25;1533750660.85221;59.04;952.4;12.61526039;10;149
56;paravance-42.rennes.grid5000.fr;thermos-root-devel-WordCountTopology-1-fc62a765-fd7a-476f-8de8-8e74ec5082bb;["container_1_Consume_and_count_1"];2.25;1533750671.06758;59.9;966.3;12.662992963;10;149
56;paravance-40.rennes.grid5000.fr;thermos-root-devel-WordCountTopology-0-44428682-32dc-47b1-8bcc-a8e2526ad574;["topology_master"];2.25;1533750671.15108;6.33;13.8;0.305002815;9;117
56;paravance-39.rennes.grid5000.fr;thermos-root-devel-WordCountTopology-2-04541e24-597c-479a-a29f-59e4659330c4;["container_2_Emit_random_words_2"];2.25;1533750671.14631;48.15;1251.31;12.655467519;10;149
57;paravance-39.rennes.grid5000.fr;thermos-root-devel-WordCountTopology-2-04541e24-597c-479a-a29f-59e4659330c4;["container_2_Emit_random_words_2"];2.25;1533750681.36004;48.82;1269.49;12.683615666;10;149
57;paravance-40.rennes.grid5000.fr;thermos-root-devel-WordCountTopology-0-44428682-32dc-47b1-8bcc-a8e2526ad574;["topology_master"];2.25;1533750681.36597;6.39;13.87;0.305002815;9;117
57;paravance-42.rennes.grid5000.fr;thermos-root-devel-WordCountTopology-1-fc62a765-fd7a-476f-8de8-8e74ec5082bb;["container_1_Consume_and_count_1"];2.25;1533750681.2834;60.74;980.07;12.662992963;10;149
58;paravance-42.rennes.grid5000.fr;thermos-root-devel-WordCountTopology-1-fc62a765-fd7a-476f-8de8-8e74ec5082bb;["container_1_Consume_and_count_1"];2.25;1533750691.49936;61.58;993.58;12.701190766;10;149
58;paravance-39.rennes.grid5000.fr;thermos-root-devel-WordCountTopology-2-04541e24-597c-479a-a29f-59e4659330c4;["container_2_Emit_random_words_2"];2.25;1533750691.57701;49.5;1287.55;12.739775716;10;149
58;paravance-40.rennes.grid5000.fr;thermos-root-devel-WordCountTopology-0-44428682-32dc-47b1-8bcc-a8e2526ad574;["topology_master"];2.25;1533750691.58357;6.47;13.99;0.305002815;9;117
59;paravance-42.rennes.grid5000.fr;thermos-root-devel-WordCountTopology-1-fc62a765-fd7a-476f-8de8-8e74ec5082bb;["container_1_Consume_and_count_1"];2.25;1533750701.71603;62.43;1007.87;12.701190766;10;149
59;paravance-39.rennes.grid5000.fr;thermos-root-devel-WordCountTopology-2-04541e24-597c-479a-a29f-59e4659330c4;["container_2_Emit_random_words_2"];2.25;1533750701.79348;50.19;1305.81;12.80504885;10;149
59;paravance-40.rennes.grid5000.fr;thermos-root-devel-WordCountTopology-0-44428682-32dc-47b1-8bcc-a8e2526ad574;["topology_master"];2.25;1533750701.80069;6.52;14.06;0.305002815;9;117
60;paravance-42.rennes.grid5000.fr;thermos-root-devel-WordCountTopology-1-fc62a765-fd7a-476f-8de8-8e74ec5082bb;["container_1_Consume_and_count_1"];2.25;1533750711.93131;63.31;1022.08;12.701190766;10;149
60;paravance-39.rennes.grid5000.fr;thermos-root-devel-WordCountTopology-2-04541e24-597c-479a-a29f-59e4659330c4;["container_2_Emit_random_words_2"];2.25;1533750712.00933;50.88;1324.01;12.845208466;10;149
60;paravance-40.rennes.grid5000.fr;thermos-root-devel-WordCountTopology-0-44428682-32dc-47b1-8bcc-a8e2526ad574;["topology_master"];2.25;1533750712.01617;6.61;14.18;0.305002815;9;117
