{
  "status": "success",
  "executiontime": 0.0001819133758544922,
  "message": "",
  "result": {
    "bolts": {
      "Consume_and_count": [
        "container_1_Consume_and_count_1"
      ]
    },
    "instances": {
      "container_2_Emit_random_words_2": {
        "stmgrId": "stmgr-2",
        "logfile": "http://paravance-49.rennes.grid5000.fr:31449/file/log-files/container_2_Emit_random_words_2.log.0",
        "id": "container_2_Emit_random_words_2",
        "name": "Emit_random_words"
      },
      "container_1_Consume_and_count_1": {
        "stmgrId": "stmgr-1",
        "logfile": "http://paravance-24.rennes.grid5000.fr:31367/file/log-files/container_1_Consume_and_count_1.log.0",
        "id": "container_1_Consume_and_count_1",
        "name": "Consume_and_count"
      }
    },
    "instance_groups": {
      "container_1_Consume_and": [
        "container_1_Consume_and_count_1"
      ],
      "container_2_Emit_random": [
        "container_2_Emit_random_words_2"
      ]
    },
    "spouts": {
      "Emit_random_words": [
        "container_2_Emit_random_words_2"
      ]
    },
    "config": {
      "topology.message.timeout.secs": "30",
      "topology.team.environment": "devel",
      "topology.serializer.classname": "org.apache.heron.streamlet.impl.KryoSerializer",
      "topology.team.name": "root",
      "topology.debug": "false",
      "topology.max.spout.pending": "100",
      "topology.container.padding.percentage": "100",
      "topology.enable.message.timeouts": "true",
      "topology.component.parallelism": "1",
      "topology.name": "WordCountTopology",
      "topology.stmgrs": "2",
      "topology.reliability.mode": "ATMOST_ONCE"
    },
    "stmgrs": {
      "stmgr-1": {
        "cwd": "/var/lib/mesos/slaves/844ef678-a888-467c-a683-5126a9998c70-S0/frameworks/75deb08a-eb1b-415c-8b2c-e922be5f7d98-0000/executors/thermos-root-devel-WordCountTopology-1-be06eb32-7af0-4232-9d4a-48d6a6f9d5aa/runs/69a3516c-4fa8-4432-a61d-ceb42c4f3c5c/sandbox",
        "host": "paravance-24.rennes.grid5000.fr",
        "joburl": "http://paravance-24.rennes.grid5000.fr:31367/browse/",
        "shell_port": 31367,
        "logfiles": "http://paravance-24.rennes.grid5000.fr:31367/browse/log-files",
        "pid": 2759,
        "id": "stmgr-1",
        "instance_ids": [
          "container_1_Consume_and_count_1"
        ],
        "port": 31921
      },
      "stmgr-2": {
        "cwd": "/var/lib/mesos/slaves/844ef678-a888-467c-a683-5126a9998c70-S1/frameworks/75deb08a-eb1b-415c-8b2c-e922be5f7d98-0000/executors/thermos-root-devel-WordCountTopology-2-ccec3081-729a-40a9-8104-3ce9854a183d/runs/a164a99a-ada6-4135-a27d-8a9e15c3c026/sandbox",
        "host": "paravance-49.rennes.grid5000.fr",
        "joburl": "http://paravance-49.rennes.grid5000.fr:31449/browse/",
        "shell_port": 31449,
        "logfiles": "http://paravance-49.rennes.grid5000.fr:31449/browse/log-files",
        "pid": 2801,
        "id": "stmgr-2",
        "instance_ids": [
          "container_2_Emit_random_words_2"
        ],
        "port": 31405
      }
    }
  },
  "tracker_version": "0.17.8-61-gd7c8c62"
}