{
  "status": "success",
  "executiontime": 0.0002579689025878906,
  "message": "",
  "result": {
    "bolts": {
      "Consume_and_count": [
        "container_1_Consume_and_count_1"
      ]
    },
    "instances": {
      "container_2_Emit_random_words_2": {
        "stmgrId": "stmgr-2",
        "logfile": "http://paravance-55.rennes.grid5000.fr:31680/file/log-files/container_2_Emit_random_words_2.log.0",
        "id": "container_2_Emit_random_words_2",
        "name": "Emit_random_words"
      },
      "container_1_Consume_and_count_1": {
        "stmgrId": "stmgr-1",
        "logfile": "http://paravance-59.rennes.grid5000.fr:31308/file/log-files/container_1_Consume_and_count_1.log.0",
        "id": "container_1_Consume_and_count_1",
        "name": "Consume_and_count"
      }
    },
    "instance_groups": {
      "container_1_Consume_and": [
        "container_1_Consume_and_count_1"
      ],
      "container_2_Emit_random": [
        "container_2_Emit_random_words_2"
      ]
    },
    "spouts": {
      "Emit_random_words": [
        "container_2_Emit_random_words_2"
      ]
    },
    "config": {
      "topology.message.timeout.secs": "30",
      "topology.team.environment": "devel",
      "topology.serializer.classname": "org.apache.heron.streamlet.impl.KryoSerializer",
      "topology.team.name": "root",
      "topology.debug": "false",
      "topology.max.spout.pending": "100",
      "topology.container.padding.percentage": "400",
      "topology.enable.message.timeouts": "true",
      "topology.component.parallelism": "1",
      "topology.name": "WordCountTopology",
      "topology.stmgrs": "2",
      "topology.reliability.mode": "ATMOST_ONCE"
    },
    "stmgrs": {
      "stmgr-1": {
        "cwd": "/var/lib/mesos/slaves/013d4ee2-882d-4c38-95b3-5d9ac1cae07d-S2/frameworks/75deb08a-eb1b-415c-8b2c-e922be5f7d98-0000/executors/thermos-root-devel-WordCountTopology-1-78ab92e1-b9f7-402c-8ac7-0a88fca59719/runs/110e9669-fed7-4f80-855e-b60e3ed44385/sandbox",
        "host": "paravance-59.rennes.grid5000.fr",
        "joburl": "http://paravance-59.rennes.grid5000.fr:31308/browse/",
        "shell_port": 31308,
        "logfiles": "http://paravance-59.rennes.grid5000.fr:31308/browse/log-files",
        "pid": 2855,
        "id": "stmgr-1",
        "instance_ids": [
          "container_1_Consume_and_count_1"
        ],
        "port": 31872
      },
      "stmgr-2": {
        "cwd": "/var/lib/mesos/slaves/013d4ee2-882d-4c38-95b3-5d9ac1cae07d-S1/frameworks/75deb08a-eb1b-415c-8b2c-e922be5f7d98-0000/executors/thermos-root-devel-WordCountTopology-2-ce563e88-e24a-496a-b055-e95597e21138/runs/8e54df5d-a0de-43ab-b815-7d0f0279e4f7/sandbox",
        "host": "paravance-55.rennes.grid5000.fr",
        "joburl": "http://paravance-55.rennes.grid5000.fr:31680/browse/",
        "shell_port": 31680,
        "logfiles": "http://paravance-55.rennes.grid5000.fr:31680/browse/log-files",
        "pid": 2772,
        "id": "stmgr-2",
        "instance_ids": [
          "container_2_Emit_random_words_2"
        ],
        "port": 31477
      }
    }
  },
  "tracker_version": "0.17.8-61-gd7c8c62"
}