mesure_id;slave_id;executor_id;heron_instances;cpus_limit;timestamp_B;cpus_system_time_secs_B;cpus_user_time_secs_B;cpus_throttled_time_secs_B;processes;threads
0;paravance-4.rennes.grid5000.fr;thermos-root-devel-WordCountTopology-1-1bce1a52-9323-4ccd-b703-31940db8b27c;["container_1_Consume_and_count_1"];1.25;1533076032.02524;8.21;104.47;27.972278566;10;149
0;paravance-5.rennes.grid5000.fr;thermos-root-devel-WordCountTopology-0-3d3ebe66-d693-47b1-a872-082722b2ae4d;["topology_master"];1.25;1533076031.77326;2.61;8.92;4.470114486;9;117
0;paravance-35.rennes.grid5000.fr;thermos-root-devel-WordCountTopology-2-38411ed3-85c3-4be0-b867-b6574dbfc980;["container_2_Emit_random_words_2"];1.25;1533076031.77457;7.82;146.87;128.549130891;10;149
1;paravance-4.rennes.grid5000.fr;thermos-root-devel-WordCountTopology-1-1bce1a52-9323-4ccd-b703-31940db8b27c;["container_1_Consume_and_count_1"];1.25;1533076042.23966;8.78;113.77;29.209572603;10;149
1;paravance-5.rennes.grid5000.fr;thermos-root-devel-WordCountTopology-0-3d3ebe66-d693-47b1-a872-082722b2ae4d;["topology_master"];1.25;1533076041.98781;2.7;9.05;4.470114486;9;117
1;paravance-35.rennes.grid5000.fr;thermos-root-devel-WordCountTopology-2-38411ed3-85c3-4be0-b867-b6574dbfc980;["container_2_Emit_random_words_2"];1.25;1533076041.98469;8.31;158.5;137.090338755;10;149
2;paravance-5.rennes.grid5000.fr;thermos-root-devel-WordCountTopology-0-3d3ebe66-d693-47b1-a872-082722b2ae4d;["topology_master"];1.25;1533076052.19906;2.73;9.09;4.470114486;9;117
2;paravance-35.rennes.grid5000.fr;thermos-root-devel-WordCountTopology-2-38411ed3-85c3-4be0-b867-b6574dbfc980;["container_2_Emit_random_words_2"];1.25;1533076052.19718;8.72;170.16;144.474001602;10;149
2;paravance-4.rennes.grid5000.fr;thermos-root-devel-WordCountTopology-1-1bce1a52-9323-4ccd-b703-31940db8b27c;["container_1_Consume_and_count_1"];1.25;1533076052.45337;9.24;122.38;29.867743588;10;149
3;paravance-5.rennes.grid5000.fr;thermos-root-devel-WordCountTopology-0-3d3ebe66-d693-47b1-a872-082722b2ae4d;["topology_master"];1.25;1533076062.41147;2.82;9.21;4.470114486;9;117
3;paravance-35.rennes.grid5000.fr;thermos-root-devel-WordCountTopology-2-38411ed3-85c3-4be0-b867-b6574dbfc980;["container_2_Emit_random_words_2"];1.25;1533076062.40882;9.24;181.65;151.735016899;10;149
3;paravance-4.rennes.grid5000.fr;thermos-root-devel-WordCountTopology-1-1bce1a52-9323-4ccd-b703-31940db8b27c;["container_1_Consume_and_count_1"];1.25;1533076062.66506;9.73;130.45;30.290238888;10;149
4;paravance-35.rennes.grid5000.fr;thermos-root-devel-WordCountTopology-2-38411ed3-85c3-4be0-b867-b6574dbfc980;["container_2_Emit_random_words_2"];1.25;1533076072.61894;9.71;193.2;158.867598659;10;149
4;paravance-4.rennes.grid5000.fr;thermos-root-devel-WordCountTopology-1-1bce1a52-9323-4ccd-b703-31940db8b27c;["container_1_Consume_and_count_1"];1.25;1533076072.87546;10.18;138.29;30.728886076;10;149
4;paravance-5.rennes.grid5000.fr;thermos-root-devel-WordCountTopology-0-3d3ebe66-d693-47b1-a872-082722b2ae4d;["topology_master"];1.25;1533076072.62346;2.87;9.29;4.470114486;9;117
5;paravance-35.rennes.grid5000.fr;thermos-root-devel-WordCountTopology-2-38411ed3-85c3-4be0-b867-b6574dbfc980;["container_2_Emit_random_words_2"];1.25;1533076082.82911;10.17;204.77;166.172534456;10;149
5;paravance-5.rennes.grid5000.fr;thermos-root-devel-WordCountTopology-0-3d3ebe66-d693-47b1-a872-082722b2ae4d;["topology_master"];1.25;1533076082.834;2.96;9.39;4.470114486;9;117
5;paravance-4.rennes.grid5000.fr;thermos-root-devel-WordCountTopology-1-1bce1a52-9323-4ccd-b703-31940db8b27c;["container_1_Consume_and_count_1"];1.25;1533076083.08644;10.65;146.28;31.263383467;10;149
6;paravance-35.rennes.grid5000.fr;thermos-root-devel-WordCountTopology-2-38411ed3-85c3-4be0-b867-b6574dbfc980;["container_2_Emit_random_words_2"];1.25;1533076092.94004;10.65;216.23;174.564934162;10;149
6;paravance-4.rennes.grid5000.fr;thermos-root-devel-WordCountTopology-1-1bce1a52-9323-4ccd-b703-31940db8b27c;["container_1_Consume_and_count_1"];1.25;1533076093.29704;11.14;154.76;33.139488967;10;149
6;paravance-5.rennes.grid5000.fr;thermos-root-devel-WordCountTopology-0-3d3ebe66-d693-47b1-a872-082722b2ae4d;["topology_master"];1.25;1533076093.04577;3.02;9.54;4.470114486;9;117
7;paravance-35.rennes.grid5000.fr;thermos-root-devel-WordCountTopology-2-38411ed3-85c3-4be0-b867-b6574dbfc980;["container_2_Emit_random_words_2"];1.25;1533076103.15185;11.13;227.79;183.124074991;10;149
7;paravance-4.rennes.grid5000.fr;thermos-root-devel-WordCountTopology-1-1bce1a52-9323-4ccd-b703-31940db8b27c;["container_1_Consume_and_count_1"];1.25;1533076103.5068;11.68;163.22;33.723237092;10;149
7;paravance-5.rennes.grid5000.fr;thermos-root-devel-WordCountTopology-0-3d3ebe66-d693-47b1-a872-082722b2ae4d;["topology_master"];1.25;1533076103.25514;3.12;9.67;4.470114486;9;117
8;paravance-35.rennes.grid5000.fr;thermos-root-devel-WordCountTopology-2-38411ed3-85c3-4be0-b867-b6574dbfc980;["container_2_Emit_random_words_2"];1.25;1533076113.46154;11.55;239.54;191.4778942;10;149
8;paravance-5.rennes.grid5000.fr;thermos-root-devel-WordCountTopology-0-3d3ebe66-d693-47b1-a872-082722b2ae4d;["topology_master"];1.25;1533076113.47683;3.15;9.7;4.470114486;9;117
8;paravance-4.rennes.grid5000.fr;thermos-root-devel-WordCountTopology-1-1bce1a52-9323-4ccd-b703-31940db8b27c;["container_1_Consume_and_count_1"];1.25;1533076113.73311;12.17;172.04;34.441794928;10;149
9;paravance-35.rennes.grid5000.fr;thermos-root-devel-WordCountTopology-2-38411ed3-85c3-4be0-b867-b6574dbfc980;["container_2_Emit_random_words_2"];1.25;1533076123.69329;12.04;251.19;200.579364848;10;149
9;paravance-5.rennes.grid5000.fr;thermos-root-devel-WordCountTopology-0-3d3ebe66-d693-47b1-a872-082722b2ae4d;["topology_master"];1.25;1533076123.69193;3.23;9.82;4.470114486;9;117
9;paravance-4.rennes.grid5000.fr;thermos-root-devel-WordCountTopology-1-1bce1a52-9323-4ccd-b703-31940db8b27c;["container_1_Consume_and_count_1"];1.25;1533076123.9438;12.72;181.03;35.628649101;10;149
10;paravance-35.rennes.grid5000.fr;thermos-root-devel-WordCountTopology-2-38411ed3-85c3-4be0-b867-b6574dbfc980;["container_2_Emit_random_words_2"];1.25;1533076133.90877;12.47;262.76;208.690642634;10;149
10;paravance-5.rennes.grid5000.fr;thermos-root-devel-WordCountTopology-0-3d3ebe66-d693-47b1-a872-082722b2ae4d;["topology_master"];1.25;1533076133.90823;3.29;9.89;4.470114486;9;117
10;paravance-4.rennes.grid5000.fr;thermos-root-devel-WordCountTopology-1-1bce1a52-9323-4ccd-b703-31940db8b27c;["container_1_Consume_and_count_1"];1.25;1533076134.15403;13.25;189.81;36.28710249;10;149
11;paravance-5.rennes.grid5000.fr;thermos-root-devel-WordCountTopology-0-3d3ebe66-d693-47b1-a872-082722b2ae4d;["topology_master"];1.25;1533076144.124;3.38;10.01;4.470114486;9;117
11;paravance-35.rennes.grid5000.fr;thermos-root-devel-WordCountTopology-2-38411ed3-85c3-4be0-b867-b6574dbfc980;["container_2_Emit_random_words_2"];1.25;1533076144.12568;12.95;274.32;216.406042499;10;149
11;paravance-4.rennes.grid5000.fr;thermos-root-devel-WordCountTopology-1-1bce1a52-9323-4ccd-b703-31940db8b27c;["container_1_Consume_and_count_1"];1.25;1533076144.36538;13.77;198.33;37.063336395;10;149
12;paravance-4.rennes.grid5000.fr;thermos-root-devel-WordCountTopology-1-1bce1a52-9323-4ccd-b703-31940db8b27c;["container_1_Consume_and_count_1"];1.25;1533076154.57633;14.26;206.51;38.092212209;10;149
12;paravance-5.rennes.grid5000.fr;thermos-root-devel-WordCountTopology-0-3d3ebe66-d693-47b1-a872-082722b2ae4d;["topology_master"];1.25;1533076154.34158;3.46;10.17;4.470114486;9;117
12;paravance-35.rennes.grid5000.fr;thermos-root-devel-WordCountTopology-2-38411ed3-85c3-4be0-b867-b6574dbfc980;["container_2_Emit_random_words_2"];1.25;1533076154.3423;13.39;286.02;223.372961313;10;149
13;paravance-35.rennes.grid5000.fr;thermos-root-devel-WordCountTopology-2-38411ed3-85c3-4be0-b867-b6574dbfc980;["container_2_Emit_random_words_2"];1.25;1533076164.55936;13.85;297.58;231.878090674;10;149
13;paravance-5.rennes.grid5000.fr;thermos-root-devel-WordCountTopology-0-3d3ebe66-d693-47b1-a872-082722b2ae4d;["topology_master"];1.25;1533076164.55848;3.54;10.29;4.470114486;9;117
13;paravance-4.rennes.grid5000.fr;thermos-root-devel-WordCountTopology-1-1bce1a52-9323-4ccd-b703-31940db8b27c;["container_1_Consume_and_count_1"];1.25;1533076164.78874;14.81;215.29;39.660029731;10;149
14;paravance-4.rennes.grid5000.fr;thermos-root-devel-WordCountTopology-1-1bce1a52-9323-4ccd-b703-31940db8b27c;["container_1_Consume_and_count_1"];1.25;1533076174.99965;15.29;223.58;40.940800221;10;149
14;paravance-5.rennes.grid5000.fr;thermos-root-devel-WordCountTopology-0-3d3ebe66-d693-47b1-a872-082722b2ae4d;["topology_master"];1.25;1533076174.77533;3.6;10.37;4.470114486;9;117
14;paravance-35.rennes.grid5000.fr;thermos-root-devel-WordCountTopology-2-38411ed3-85c3-4be0-b867-b6574dbfc980;["container_2_Emit_random_words_2"];1.25;1533076174.77604;14.25;309.3;239.293862604;10;149
15;paravance-5.rennes.grid5000.fr;thermos-root-devel-WordCountTopology-0-3d3ebe66-d693-47b1-a872-082722b2ae4d;["topology_master"];1.25;1533076184.99082;3.66;10.45;4.470114486;9;117
15;paravance-35.rennes.grid5000.fr;thermos-root-devel-WordCountTopology-2-38411ed3-85c3-4be0-b867-b6574dbfc980;["container_2_Emit_random_words_2"];1.25;1533076184.99249;14.74;320.87;246.079803895;10;149
15;paravance-4.rennes.grid5000.fr;thermos-root-devel-WordCountTopology-1-1bce1a52-9323-4ccd-b703-31940db8b27c;["container_1_Consume_and_count_1"];1.25;1533076185.21143;15.79;231.72;41.789769336;10;149
16;paravance-35.rennes.grid5000.fr;thermos-root-devel-WordCountTopology-2-38411ed3-85c3-4be0-b867-b6574dbfc980;["container_2_Emit_random_words_2"];1.25;1533076195.20826;15.21;332.37;252.979162419;10;149
16;paravance-5.rennes.grid5000.fr;thermos-root-devel-WordCountTopology-0-3d3ebe66-d693-47b1-a872-082722b2ae4d;["topology_master"];1.25;1533076195.20787;3.72;10.53;4.470114486;9;117
16;paravance-4.rennes.grid5000.fr;thermos-root-devel-WordCountTopology-1-1bce1a52-9323-4ccd-b703-31940db8b27c;["container_1_Consume_and_count_1"];1.25;1533076195.42306;16.25;239.6;42.453964295;10;149
17;paravance-35.rennes.grid5000.fr;thermos-root-devel-WordCountTopology-2-38411ed3-85c3-4be0-b867-b6574dbfc980;["container_2_Emit_random_words_2"];1.25;1533076205.42379;15.69;343.85;260.59925682;10;149
17;paravance-5.rennes.grid5000.fr;thermos-root-devel-WordCountTopology-0-3d3ebe66-d693-47b1-a872-082722b2ae4d;["topology_master"];1.25;1533076205.42415;3.85;10.78;4.470114486;9;117
17;paravance-4.rennes.grid5000.fr;thermos-root-devel-WordCountTopology-1-1bce1a52-9323-4ccd-b703-31940db8b27c;["container_1_Consume_and_count_1"];1.25;1533076205.63397;16.79;247.93;43.82425707;10;149
18;paravance-35.rennes.grid5000.fr;thermos-root-devel-WordCountTopology-2-38411ed3-85c3-4be0-b867-b6574dbfc980;["container_2_Emit_random_words_2"];1.25;1533076215.63838;16.17;355.37;268.995627652;10;149
18;paravance-5.rennes.grid5000.fr;thermos-root-devel-WordCountTopology-0-3d3ebe66-d693-47b1-a872-082722b2ae4d;["topology_master"];1.25;1533076215.63984;3.88;10.81;4.470114486;9;117
18;paravance-4.rennes.grid5000.fr;thermos-root-devel-WordCountTopology-1-1bce1a52-9323-4ccd-b703-31940db8b27c;["container_1_Consume_and_count_1"];1.25;1533076215.84513;17.24;256.05;44.587676744;10;149
19;paravance-35.rennes.grid5000.fr;thermos-root-devel-WordCountTopology-2-38411ed3-85c3-4be0-b867-b6574dbfc980;["container_2_Emit_random_words_2"];1.25;1533076225.85681;16.68;366.9;277.178084327;10;149
19;paravance-5.rennes.grid5000.fr;thermos-root-devel-WordCountTopology-0-3d3ebe66-d693-47b1-a872-082722b2ae4d;["topology_master"];1.25;1533076225.85634;3.97;10.94;4.470114486;9;117
19;paravance-4.rennes.grid5000.fr;thermos-root-devel-WordCountTopology-1-1bce1a52-9323-4ccd-b703-31940db8b27c;["container_1_Consume_and_count_1"];1.25;1533076226.05598;17.79;264.77;45.667284525;10;149
20;paravance-4.rennes.grid5000.fr;thermos-root-devel-WordCountTopology-1-1bce1a52-9323-4ccd-b703-31940db8b27c;["container_1_Consume_and_count_1"];1.25;1533076236.26639;18.33;274.03;46.976970213;10;149
20;paravance-5.rennes.grid5000.fr;thermos-root-devel-WordCountTopology-0-3d3ebe66-d693-47b1-a872-082722b2ae4d;["topology_master"];1.25;1533076236.07378;4.03;11.01;4.470114486;9;117
20;paravance-35.rennes.grid5000.fr;thermos-root-devel-WordCountTopology-2-38411ed3-85c3-4be0-b867-b6574dbfc980;["container_2_Emit_random_words_2"];1.25;1533076236.07536;17.12;378.55;285.398746887;10;149
21;paravance-35.rennes.grid5000.fr;thermos-root-devel-WordCountTopology-2-38411ed3-85c3-4be0-b867-b6574dbfc980;["container_2_Emit_random_words_2"];1.25;1533076246.28893;17.62;390.07;293.840950404;10;149
21;paravance-5.rennes.grid5000.fr;thermos-root-devel-WordCountTopology-0-3d3ebe66-d693-47b1-a872-082722b2ae4d;["topology_master"];1.25;1533076246.28853;4.09;11.08;4.470114486;9;117
21;paravance-4.rennes.grid5000.fr;thermos-root-devel-WordCountTopology-1-1bce1a52-9323-4ccd-b703-31940db8b27c;["container_1_Consume_and_count_1"];1.25;1533076246.478;18.85;282.82;48.040442836;10;149
22;paravance-35.rennes.grid5000.fr;thermos-root-devel-WordCountTopology-2-38411ed3-85c3-4be0-b867-b6574dbfc980;["container_2_Emit_random_words_2"];1.25;1533076256.50219;18.06;401.61;302.601709492;10;149
22;paravance-5.rennes.grid5000.fr;thermos-root-devel-WordCountTopology-0-3d3ebe66-d693-47b1-a872-082722b2ae4d;["topology_master"];1.25;1533076256.50275;4.15;11.16;4.470114486;9;117
22;paravance-4.rennes.grid5000.fr;thermos-root-devel-WordCountTopology-1-1bce1a52-9323-4ccd-b703-31940db8b27c;["container_1_Consume_and_count_1"];1.25;1533076256.6875;19.36;291.52;48.739661697;10;149
23;paravance-35.rennes.grid5000.fr;thermos-root-devel-WordCountTopology-2-38411ed3-85c3-4be0-b867-b6574dbfc980;["container_2_Emit_random_words_2"];1.25;1533076266.7195;18.55;413.12;311.296311409;10;149
23;paravance-5.rennes.grid5000.fr;thermos-root-devel-WordCountTopology-0-3d3ebe66-d693-47b1-a872-082722b2ae4d;["topology_master"];1.25;1533076266.71915;4.25;11.33;4.470114486;9;117
23;paravance-4.rennes.grid5000.fr;thermos-root-devel-WordCountTopology-1-1bce1a52-9323-4ccd-b703-31940db8b27c;["container_1_Consume_and_count_1"];1.25;1533076266.89867;19.93;300.28;49.590743502;10;149
24;paravance-4.rennes.grid5000.fr;thermos-root-devel-WordCountTopology-1-1bce1a52-9323-4ccd-b703-31940db8b27c;["container_1_Consume_and_count_1"];1.25;1533076277.00667;20.41;308.86;50.446783754;10;149
24;paravance-35.rennes.grid5000.fr;thermos-root-devel-WordCountTopology-2-38411ed3-85c3-4be0-b867-b6574dbfc980;["container_2_Emit_random_words_2"];1.25;1533076276.93359;19.02;424.71;319.371125677;10;149
24;paravance-5.rennes.grid5000.fr;thermos-root-devel-WordCountTopology-0-3d3ebe66-d693-47b1-a872-082722b2ae4d;["topology_master"];1.25;1533076276.93315;4.28;11.36;4.470114486;9;117
25;paravance-5.rennes.grid5000.fr;thermos-root-devel-WordCountTopology-0-3d3ebe66-d693-47b1-a872-082722b2ae4d;["topology_master"];1.25;1533076287.14693;4.36;11.48;4.470114486;9;117
25;paravance-35.rennes.grid5000.fr;thermos-root-devel-WordCountTopology-2-38411ed3-85c3-4be0-b867-b6574dbfc980;["container_2_Emit_random_words_2"];1.25;1533076287.14728;19.48;436.34;327.912757928;10;149
25;paravance-4.rennes.grid5000.fr;thermos-root-devel-WordCountTopology-1-1bce1a52-9323-4ccd-b703-31940db8b27c;["container_1_Consume_and_count_1"];1.25;1533076287.3167;20.96;317.73;51.244272239;10;149
26;paravance-5.rennes.grid5000.fr;thermos-root-devel-WordCountTopology-0-3d3ebe66-d693-47b1-a872-082722b2ae4d;["topology_master"];1.25;1533076297.36282;4.42;11.55;4.470114486;9;117
26;paravance-4.rennes.grid5000.fr;thermos-root-devel-WordCountTopology-1-1bce1a52-9323-4ccd-b703-31940db8b27c;["container_1_Consume_and_count_1"];1.25;1533076297.52722;21.48;326.71;51.907780472;10;149
26;paravance-35.rennes.grid5000.fr;thermos-root-devel-WordCountTopology-2-38411ed3-85c3-4be0-b867-b6574dbfc980;["container_2_Emit_random_words_2"];1.25;1533076297.3649;19.88;448.03;335.281349408;10;149
27;paravance-35.rennes.grid5000.fr;thermos-root-devel-WordCountTopology-2-38411ed3-85c3-4be0-b867-b6574dbfc980;["container_2_Emit_random_words_2"];1.25;1533076307.58094;20.33;459.55;343.783374489;10;149
27;paravance-5.rennes.grid5000.fr;thermos-root-devel-WordCountTopology-0-3d3ebe66-d693-47b1-a872-082722b2ae4d;["topology_master"];1.25;1533076307.57975;4.48;11.63;4.470114486;9;117
27;paravance-4.rennes.grid5000.fr;thermos-root-devel-WordCountTopology-1-1bce1a52-9323-4ccd-b703-31940db8b27c;["container_1_Consume_and_count_1"];1.25;1533076307.73831;22.0;335.41;52.195452486;10;149
28;paravance-4.rennes.grid5000.fr;thermos-root-devel-WordCountTopology-1-1bce1a52-9323-4ccd-b703-31940db8b27c;["container_1_Consume_and_count_1"];1.25;1533076317.94932;22.49;343.7;52.63075815;10;149
28;paravance-35.rennes.grid5000.fr;thermos-root-devel-WordCountTopology-2-38411ed3-85c3-4be0-b867-b6574dbfc980;["container_2_Emit_random_words_2"];1.25;1533076317.79671;20.75;471.1;351.364268924;10;149
28;paravance-5.rennes.grid5000.fr;thermos-root-devel-WordCountTopology-0-3d3ebe66-d693-47b1-a872-082722b2ae4d;["topology_master"];1.25;1533076317.79684;4.54;11.7;4.470114486;9;117
29;paravance-35.rennes.grid5000.fr;thermos-root-devel-WordCountTopology-2-38411ed3-85c3-4be0-b867-b6574dbfc980;["container_2_Emit_random_words_2"];1.25;1533076328.01287;21.2;482.67;359.315948567;10;149
29;paravance-4.rennes.grid5000.fr;thermos-root-devel-WordCountTopology-1-1bce1a52-9323-4ccd-b703-31940db8b27c;["container_1_Consume_and_count_1"];1.25;1533076328.16106;23.03;352.37;53.753055915;10;149
29;paravance-5.rennes.grid5000.fr;thermos-root-devel-WordCountTopology-0-3d3ebe66-d693-47b1-a872-082722b2ae4d;["topology_master"];1.25;1533076328.01483;4.64;11.89;4.470114486;9;117
30;paravance-4.rennes.grid5000.fr;thermos-root-devel-WordCountTopology-1-1bce1a52-9323-4ccd-b703-31940db8b27c;["container_1_Consume_and_count_1"];1.25;1533076338.37314;23.56;361.73;55.03973621;10;149
30;paravance-35.rennes.grid5000.fr;thermos-root-devel-WordCountTopology-2-38411ed3-85c3-4be0-b867-b6574dbfc980;["container_2_Emit_random_words_2"];1.25;1533076338.23224;21.62;494.24;367.25870735;10;149
30;paravance-5.rennes.grid5000.fr;thermos-root-devel-WordCountTopology-0-3d3ebe66-d693-47b1-a872-082722b2ae4d;["topology_master"];1.25;1533076338.23203;4.67;11.91;4.470114486;9;117
31;paravance-5.rennes.grid5000.fr;thermos-root-devel-WordCountTopology-0-3d3ebe66-d693-47b1-a872-082722b2ae4d;["topology_master"];1.25;1533076348.34617;4.76;12.04;4.470114486;9;117
31;paravance-35.rennes.grid5000.fr;thermos-root-devel-WordCountTopology-2-38411ed3-85c3-4be0-b867-b6574dbfc980;["container_2_Emit_random_words_2"];1.25;1533076348.44566;22.08;505.74;374.886495748;10;149
31;paravance-4.rennes.grid5000.fr;thermos-root-devel-WordCountTopology-1-1bce1a52-9323-4ccd-b703-31940db8b27c;["container_1_Consume_and_count_1"];1.25;1533076348.58421;24.09;370.26;56.057902758;10;149
32;paravance-35.rennes.grid5000.fr;thermos-root-devel-WordCountTopology-2-38411ed3-85c3-4be0-b867-b6574dbfc980;["container_2_Emit_random_words_2"];1.25;1533076358.66209;22.51;517.29;382.535324895;10;149
32;paravance-4.rennes.grid5000.fr;thermos-root-devel-WordCountTopology-1-1bce1a52-9323-4ccd-b703-31940db8b27c;["container_1_Consume_and_count_1"];1.25;1533076358.79492;24.6;378.95;56.926601915;10;149
32;paravance-5.rennes.grid5000.fr;thermos-root-devel-WordCountTopology-0-3d3ebe66-d693-47b1-a872-082722b2ae4d;["topology_master"];1.25;1533076358.66176;4.82;12.11;4.470114486;9;117
33;paravance-35.rennes.grid5000.fr;thermos-root-devel-WordCountTopology-2-38411ed3-85c3-4be0-b867-b6574dbfc980;["container_2_Emit_random_words_2"];1.25;1533076368.87815;22.93;528.85;389.595946392;10;149
33;paravance-5.rennes.grid5000.fr;thermos-root-devel-WordCountTopology-0-3d3ebe66-d693-47b1-a872-082722b2ae4d;["topology_master"];1.25;1533076368.8787;4.88;12.19;4.470114486;9;117
33;paravance-4.rennes.grid5000.fr;thermos-root-devel-WordCountTopology-1-1bce1a52-9323-4ccd-b703-31940db8b27c;["container_1_Consume_and_count_1"];1.25;1533076369.00619;25.06;386.92;57.889414659;10;149
34;paravance-35.rennes.grid5000.fr;thermos-root-devel-WordCountTopology-2-38411ed3-85c3-4be0-b867-b6574dbfc980;["container_2_Emit_random_words_2"];1.25;1533076379.09466;23.38;540.45;395.96272409;10;147
34;paravance-4.rennes.grid5000.fr;thermos-root-devel-WordCountTopology-1-1bce1a52-9323-4ccd-b703-31940db8b27c;["container_1_Consume_and_count_1"];1.25;1533076379.21667;25.57;395.4;59.328832365;10;147
34;paravance-5.rennes.grid5000.fr;thermos-root-devel-WordCountTopology-0-3d3ebe66-d693-47b1-a872-082722b2ae4d;["topology_master"];1.25;1533076379.09489;4.97;12.32;4.470114486;9;117
35;paravance-35.rennes.grid5000.fr;thermos-root-devel-WordCountTopology-2-38411ed3-85c3-4be0-b867-b6574dbfc980;["container_2_Emit_random_words_2"];1.25;1533076389.31112;23.83;551.96;404.277441274;10;149
35;paravance-5.rennes.grid5000.fr;thermos-root-devel-WordCountTopology-0-3d3ebe66-d693-47b1-a872-082722b2ae4d;["topology_master"];1.25;1533076389.31013;5.04;12.49;4.470114486;9;117
35;paravance-4.rennes.grid5000.fr;thermos-root-devel-WordCountTopology-1-1bce1a52-9323-4ccd-b703-31940db8b27c;["container_1_Consume_and_count_1"];1.25;1533076389.42808;26.09;403.91;60.46478858;10;149
36;paravance-4.rennes.grid5000.fr;thermos-root-devel-WordCountTopology-1-1bce1a52-9323-4ccd-b703-31940db8b27c;["container_1_Consume_and_count_1"];1.25;1533076399.63824;26.57;412.43;61.331763263;10;149
36;paravance-35.rennes.grid5000.fr;thermos-root-devel-WordCountTopology-2-38411ed3-85c3-4be0-b867-b6574dbfc980;["container_2_Emit_random_words_2"];1.25;1533076399.52789;24.26;563.51;411.831859911;10;149
36;paravance-5.rennes.grid5000.fr;thermos-root-devel-WordCountTopology-0-3d3ebe66-d693-47b1-a872-082722b2ae4d;["topology_master"];1.25;1533076399.52831;5.1;12.56;4.470114486;9;117
37;paravance-35.rennes.grid5000.fr;thermos-root-devel-WordCountTopology-2-38411ed3-85c3-4be0-b867-b6574dbfc980;["container_2_Emit_random_words_2"];1.25;1533076409.74414;24.7;575.12;419.995991177;10;149
37;paravance-5.rennes.grid5000.fr;thermos-root-devel-WordCountTopology-0-3d3ebe66-d693-47b1-a872-082722b2ae4d;["topology_master"];1.25;1533076409.74278;5.16;12.63;4.470114486;9;117
37;paravance-4.rennes.grid5000.fr;thermos-root-devel-WordCountTopology-1-1bce1a52-9323-4ccd-b703-31940db8b27c;["container_1_Consume_and_count_1"];1.25;1533076409.85188;27.1;421.1;62.676691402;10;149
38;paravance-4.rennes.grid5000.fr;thermos-root-devel-WordCountTopology-1-1bce1a52-9323-4ccd-b703-31940db8b27c;["container_1_Consume_and_count_1"];1.25;1533076420.06122;27.63;429.71;63.834466236;10;149
38;paravance-35.rennes.grid5000.fr;thermos-root-devel-WordCountTopology-2-38411ed3-85c3-4be0-b867-b6574dbfc980;["container_2_Emit_random_words_2"];1.25;1533076419.96063;25.16;586.76;428.171035602;10;149
38;paravance-5.rennes.grid5000.fr;thermos-root-devel-WordCountTopology-0-3d3ebe66-d693-47b1-a872-082722b2ae4d;["topology_master"];1.25;1533076419.9603;5.24;12.76;4.470114486;9;117
39;paravance-4.rennes.grid5000.fr;thermos-root-devel-WordCountTopology-1-1bce1a52-9323-4ccd-b703-31940db8b27c;["container_1_Consume_and_count_1"];1.25;1533076430.27212;28.08;437.91;64.196201719;10;149
39;paravance-5.rennes.grid5000.fr;thermos-root-devel-WordCountTopology-0-3d3ebe66-d693-47b1-a872-082722b2ae4d;["topology_master"];1.25;1533076430.17579;5.27;12.78;4.470114486;9;117
39;paravance-35.rennes.grid5000.fr;thermos-root-devel-WordCountTopology-2-38411ed3-85c3-4be0-b867-b6574dbfc980;["container_2_Emit_random_words_2"];1.25;1533076430.1766;25.56;598.35;435.190234912;10;149
40;paravance-35.rennes.grid5000.fr;thermos-root-devel-WordCountTopology-2-38411ed3-85c3-4be0-b867-b6574dbfc980;["container_2_Emit_random_words_2"];1.25;1533076440.40211;26.02;609.96;442.480880469;10;149
40;paravance-5.rennes.grid5000.fr;thermos-root-devel-WordCountTopology-0-3d3ebe66-d693-47b1-a872-082722b2ae4d;["topology_master"];1.25;1533076440.40544;5.37;12.92;4.470114486;9;117
40;paravance-4.rennes.grid5000.fr;thermos-root-devel-WordCountTopology-1-1bce1a52-9323-4ccd-b703-31940db8b27c;["container_1_Consume_and_count_1"];1.25;1533076440.50016;28.59;445.94;64.752175624;10;149
41;paravance-35.rennes.grid5000.fr;thermos-root-devel-WordCountTopology-2-38411ed3-85c3-4be0-b867-b6574dbfc980;["container_2_Emit_random_words_2"];1.25;1533076450.6213;26.46;621.47;450.405230291;10;149
41;paravance-5.rennes.grid5000.fr;thermos-root-devel-WordCountTopology-0-3d3ebe66-d693-47b1-a872-082722b2ae4d;["topology_master"];1.25;1533076450.62328;5.44;13.04;4.470114486;9;117
41;paravance-4.rennes.grid5000.fr;thermos-root-devel-WordCountTopology-1-1bce1a52-9323-4ccd-b703-31940db8b27c;["container_1_Consume_and_count_1"];1.25;1533076450.71031;29.11;454.54;65.762114003;10;149
42;paravance-35.rennes.grid5000.fr;thermos-root-devel-WordCountTopology-2-38411ed3-85c3-4be0-b867-b6574dbfc980;["container_2_Emit_random_words_2"];1.25;1533076460.83897;26.89;633.04;457.441196196;10;149
42;paravance-4.rennes.grid5000.fr;thermos-root-devel-WordCountTopology-1-1bce1a52-9323-4ccd-b703-31940db8b27c;["container_1_Consume_and_count_1"];1.25;1533076460.92067;29.59;462.62;66.305107832;10;149
42;paravance-5.rennes.grid5000.fr;thermos-root-devel-WordCountTopology-0-3d3ebe66-d693-47b1-a872-082722b2ae4d;["topology_master"];1.25;1533076460.83929;5.49;13.11;4.470114486;9;117
43;paravance-4.rennes.grid5000.fr;thermos-root-devel-WordCountTopology-1-1bce1a52-9323-4ccd-b703-31940db8b27c;["container_1_Consume_and_count_1"];1.25;1533076471.13052;30.05;470.62;66.749327332;10;149
43;paravance-35.rennes.grid5000.fr;thermos-root-devel-WordCountTopology-2-38411ed3-85c3-4be0-b867-b6574dbfc980;["container_2_Emit_random_words_2"];1.25;1533076471.05544;27.3;644.61;463.970344315;10;149
43;paravance-5.rennes.grid5000.fr;thermos-root-devel-WordCountTopology-0-3d3ebe66-d693-47b1-a872-082722b2ae4d;["topology_master"];1.25;1533076471.05471;5.55;13.18;4.470114486;9;117
44;paravance-5.rennes.grid5000.fr;thermos-root-devel-WordCountTopology-0-3d3ebe66-d693-47b1-a872-082722b2ae4d;["topology_master"];1.25;1533076481.27108;5.63;13.3;4.470114486;9;117
44;paravance-35.rennes.grid5000.fr;thermos-root-devel-WordCountTopology-2-38411ed3-85c3-4be0-b867-b6574dbfc980;["container_2_Emit_random_words_2"];1.25;1533076481.27333;27.76;656.2;470.494659279;10;149
44;paravance-4.rennes.grid5000.fr;thermos-root-devel-WordCountTopology-1-1bce1a52-9323-4ccd-b703-31940db8b27c;["container_1_Consume_and_count_1"];1.25;1533076481.34423;30.55;478.62;67.398379422;10;149
45;paravance-4.rennes.grid5000.fr;thermos-root-devel-WordCountTopology-1-1bce1a52-9323-4ccd-b703-31940db8b27c;["container_1_Consume_and_count_1"];1.25;1533076491.55425;31.04;487.06;67.685250891;10;149
45;paravance-35.rennes.grid5000.fr;thermos-root-devel-WordCountTopology-2-38411ed3-85c3-4be0-b867-b6574dbfc980;["container_2_Emit_random_words_2"];1.25;1533076491.49026;28.16;667.77;477.930166333;10;149
45;paravance-5.rennes.grid5000.fr;thermos-root-devel-WordCountTopology-0-3d3ebe66-d693-47b1-a872-082722b2ae4d;["topology_master"];1.25;1533076491.4892;5.68;13.36;4.470114486;9;117
46;paravance-4.rennes.grid5000.fr;thermos-root-devel-WordCountTopology-1-1bce1a52-9323-4ccd-b703-31940db8b27c;["container_1_Consume_and_count_1"];1.25;1533076501.76612;31.6;496.07;68.720649336;10;149
46;paravance-35.rennes.grid5000.fr;thermos-root-devel-WordCountTopology-2-38411ed3-85c3-4be0-b867-b6574dbfc980;["container_2_Emit_random_words_2"];1.25;1533076501.70598;28.62;679.35;486.661695444;10;149
46;paravance-5.rennes.grid5000.fr;thermos-root-devel-WordCountTopology-0-3d3ebe66-d693-47b1-a872-082722b2ae4d;["topology_master"];1.25;1533076501.70428;5.76;13.46;4.470114486;9;117
47;paravance-35.rennes.grid5000.fr;thermos-root-devel-WordCountTopology-2-38411ed3-85c3-4be0-b867-b6574dbfc980;["container_2_Emit_random_words_2"];1.25;1533076511.9219;29.04;691.04;492.788268646;10;149
47;paravance-4.rennes.grid5000.fr;thermos-root-devel-WordCountTopology-1-1bce1a52-9323-4ccd-b703-31940db8b27c;["container_1_Consume_and_count_1"];1.25;1533076511.97816;32.09;504.46;69.090811248;10;149
47;paravance-5.rennes.grid5000.fr;thermos-root-devel-WordCountTopology-0-3d3ebe66-d693-47b1-a872-082722b2ae4d;["topology_master"];1.25;1533076511.92181;5.83;13.6;4.470114486;9;117
48;paravance-5.rennes.grid5000.fr;thermos-root-devel-WordCountTopology-0-3d3ebe66-d693-47b1-a872-082722b2ae4d;["topology_master"];1.25;1533076522.13976;5.91;13.72;4.470114486;9;117
48;paravance-35.rennes.grid5000.fr;thermos-root-devel-WordCountTopology-2-38411ed3-85c3-4be0-b867-b6574dbfc980;["container_2_Emit_random_words_2"];1.25;1533076522.14058;29.46;702.75;499.587769653;10;149
48;paravance-4.rennes.grid5000.fr;thermos-root-devel-WordCountTopology-1-1bce1a52-9323-4ccd-b703-31940db8b27c;["container_1_Consume_and_count_1"];1.25;1533076522.19143;32.56;512.52;69.402800691;10;149
49;paravance-35.rennes.grid5000.fr;thermos-root-devel-WordCountTopology-2-38411ed3-85c3-4be0-b867-b6574dbfc980;["container_2_Emit_random_words_2"];1.25;1533076532.35692;29.88;714.46;506.260646829;10;149
49;paravance-5.rennes.grid5000.fr;thermos-root-devel-WordCountTopology-0-3d3ebe66-d693-47b1-a872-082722b2ae4d;["topology_master"];1.25;1533076532.35614;5.94;13.75;4.470114486;9;117
49;paravance-4.rennes.grid5000.fr;thermos-root-devel-WordCountTopology-1-1bce1a52-9323-4ccd-b703-31940db8b27c;["container_1_Consume_and_count_1"];1.25;1533076532.40289;33.02;520.63;69.865179797;10;149
50;paravance-5.rennes.grid5000.fr;thermos-root-devel-WordCountTopology-0-3d3ebe66-d693-47b1-a872-082722b2ae4d;["topology_master"];1.25;1533076542.57183;6.03;13.88;4.470114486;9;117
50;paravance-4.rennes.grid5000.fr;thermos-root-devel-WordCountTopology-1-1bce1a52-9323-4ccd-b703-31940db8b27c;["container_1_Consume_and_count_1"];1.25;1533076542.61269;33.52;528.48;70.105481956;10;149
50;paravance-35.rennes.grid5000.fr;thermos-root-devel-WordCountTopology-2-38411ed3-85c3-4be0-b867-b6574dbfc980;["container_2_Emit_random_words_2"];1.25;1533076542.57304;30.33;726.08;512.988906584;10;149
51;paravance-35.rennes.grid5000.fr;thermos-root-devel-WordCountTopology-2-38411ed3-85c3-4be0-b867-b6574dbfc980;["container_2_Emit_random_words_2"];1.25;1533076552.78763;30.72;737.73;519.284312036;10;149
51;paravance-5.rennes.grid5000.fr;thermos-root-devel-WordCountTopology-0-3d3ebe66-d693-47b1-a872-082722b2ae4d;["topology_master"];1.25;1533076552.78866;6.09;13.95;4.470114486;9;117
51;paravance-4.rennes.grid5000.fr;thermos-root-devel-WordCountTopology-1-1bce1a52-9323-4ccd-b703-31940db8b27c;["container_1_Consume_and_count_1"];1.25;1533076552.82395;33.95;536.51;70.703018594;10;149
52;paravance-35.rennes.grid5000.fr;thermos-root-devel-WordCountTopology-2-38411ed3-85c3-4be0-b867-b6574dbfc980;["container_2_Emit_random_words_2"];1.25;1533076563.00531;31.2;749.34;525.864097245;10;149
52;paravance-5.rennes.grid5000.fr;thermos-root-devel-WordCountTopology-0-3d3ebe66-d693-47b1-a872-082722b2ae4d;["topology_master"];1.25;1533076563.00592;6.16;14.05;4.470114486;9;117
52;paravance-4.rennes.grid5000.fr;thermos-root-devel-WordCountTopology-1-1bce1a52-9323-4ccd-b703-31940db8b27c;["container_1_Consume_and_count_1"];1.25;1533076563.03775;34.44;544.31;71.503521598;10;149
53;paravance-35.rennes.grid5000.fr;thermos-root-devel-WordCountTopology-2-38411ed3-85c3-4be0-b867-b6574dbfc980;["container_2_Emit_random_words_2"];1.25;1533076573.22238;31.62;760.89;532.091557077;10;149
53;paravance-4.rennes.grid5000.fr;thermos-root-devel-WordCountTopology-1-1bce1a52-9323-4ccd-b703-31940db8b27c;["container_1_Consume_and_count_1"];1.25;1533076573.24741;34.9;552.34;72.375133955;10;149
53;paravance-5.rennes.grid5000.fr;thermos-root-devel-WordCountTopology-0-3d3ebe66-d693-47b1-a872-082722b2ae4d;["topology_master"];1.25;1533076573.22286;6.22;14.16;4.470114486;9;117
54;paravance-5.rennes.grid5000.fr;thermos-root-devel-WordCountTopology-0-3d3ebe66-d693-47b1-a872-082722b2ae4d;["topology_master"];1.25;1533076583.43724;6.31;14.28;4.470114486;9;117
54;paravance-35.rennes.grid5000.fr;thermos-root-devel-WordCountTopology-2-38411ed3-85c3-4be0-b867-b6574dbfc980;["container_2_Emit_random_words_2"];1.25;1533076583.4378;32.05;772.49;538.864248867;10;149
54;paravance-4.rennes.grid5000.fr;thermos-root-devel-WordCountTopology-1-1bce1a52-9323-4ccd-b703-31940db8b27c;["container_1_Consume_and_count_1"];1.25;1533076583.45854;35.39;560.32;73.091263865;10;149
55;paravance-35.rennes.grid5000.fr;thermos-root-devel-WordCountTopology-2-38411ed3-85c3-4be0-b867-b6574dbfc980;["container_2_Emit_random_words_2"];1.25;1533076593.65392;32.49;784.11;546.359343081;10;149
55;paravance-4.rennes.grid5000.fr;thermos-root-devel-WordCountTopology-1-1bce1a52-9323-4ccd-b703-31940db8b27c;["container_1_Consume_and_count_1"];1.25;1533076593.6679;35.85;568.74;74.093748209;10;149
55;paravance-5.rennes.grid5000.fr;thermos-root-devel-WordCountTopology-0-3d3ebe66-d693-47b1-a872-082722b2ae4d;["topology_master"];1.25;1533076593.65291;6.34;14.31;4.470114486;9;117
56;paravance-35.rennes.grid5000.fr;thermos-root-devel-WordCountTopology-2-38411ed3-85c3-4be0-b867-b6574dbfc980;["container_2_Emit_random_words_2"];1.25;1533076603.86969;32.95;795.67;554.381938138;10;149
56;paravance-5.rennes.grid5000.fr;thermos-root-devel-WordCountTopology-0-3d3ebe66-d693-47b1-a872-082722b2ae4d;["topology_master"];1.25;1533076603.8696;6.43;14.43;4.470114486;9;117
56;paravance-4.rennes.grid5000.fr;thermos-root-devel-WordCountTopology-1-1bce1a52-9323-4ccd-b703-31940db8b27c;["container_1_Consume_and_count_1"];1.25;1533076603.8799;36.39;577.54;75.724410189;10;149
57;paravance-35.rennes.grid5000.fr;thermos-root-devel-WordCountTopology-2-38411ed3-85c3-4be0-b867-b6574dbfc980;["container_2_Emit_random_words_2"];1.25;1533076614.08634;33.35;807.24;562.114760349;10;149
57;paravance-4.rennes.grid5000.fr;thermos-root-devel-WordCountTopology-1-1bce1a52-9323-4ccd-b703-31940db8b27c;["container_1_Consume_and_count_1"];1.25;1533076614.09127;36.9;586.23;76.71262809;10;149
57;paravance-5.rennes.grid5000.fr;thermos-root-devel-WordCountTopology-0-3d3ebe66-d693-47b1-a872-082722b2ae4d;["topology_master"];1.25;1533076614.08681;6.49;14.5;4.470114486;9;117
58;paravance-35.rennes.grid5000.fr;thermos-root-devel-WordCountTopology-2-38411ed3-85c3-4be0-b867-b6574dbfc980;["container_2_Emit_random_words_2"];1.25;1533076624.30293;33.82;818.77;569.463318315;10;149
58;paravance-5.rennes.grid5000.fr;thermos-root-devel-WordCountTopology-0-3d3ebe66-d693-47b1-a872-082722b2ae4d;["topology_master"];1.25;1533076624.30278;6.56;14.6;4.470114486;9;117
58;paravance-4.rennes.grid5000.fr;thermos-root-devel-WordCountTopology-1-1bce1a52-9323-4ccd-b703-31940db8b27c;["container_1_Consume_and_count_1"];1.25;1533076624.30298;37.38;594.25;77.257875593;10;149
59;paravance-35.rennes.grid5000.fr;thermos-root-devel-WordCountTopology-2-38411ed3-85c3-4be0-b867-b6574dbfc980;["container_2_Emit_random_words_2"];1.25;1533076634.51847;34.25;830.26;578.096742444;10;149
59;paravance-4.rennes.grid5000.fr;thermos-root-devel-WordCountTopology-1-1bce1a52-9323-4ccd-b703-31940db8b27c;["container_1_Consume_and_count_1"];1.25;1533076634.51776;37.88;602.77;77.969818669;10;149
59;paravance-5.rennes.grid5000.fr;thermos-root-devel-WordCountTopology-0-3d3ebe66-d693-47b1-a872-082722b2ae4d;["topology_master"];1.25;1533076634.51854;6.62;14.71;4.470114486;9;117
60;paravance-35.rennes.grid5000.fr;thermos-root-devel-WordCountTopology-2-38411ed3-85c3-4be0-b867-b6574dbfc980;["container_2_Emit_random_words_2"];1.25;1533076644.73424;34.67;841.79;585.675105357;10;149
60;paravance-4.rennes.grid5000.fr;thermos-root-devel-WordCountTopology-1-1bce1a52-9323-4ccd-b703-31940db8b27c;["container_1_Consume_and_count_1"];1.25;1533076644.73343;38.4;611.03;78.895869224;10;149
60;paravance-5.rennes.grid5000.fr;thermos-root-devel-WordCountTopology-0-3d3ebe66-d693-47b1-a872-082722b2ae4d;["topology_master"];1.25;1533076644.73502;6.71;14.84;4.470114486;9;117
