mesure_id;slave_id;executor_id;heron_instances;cpus_limit;timestamp_A;cpus_system_time_secs_A;cpus_user_time_secs_A;cpus_throttled_time_secs_A;processes;threads
0;paravance-6.rennes.grid5000.fr;thermos-root-devel-WordCountTopology-1-17b37294-c410-4db2-a120-b0c8d85e3c63;["container_1_Consume_and_count_1"];5.25;1533066550.88545;68.77;243.9;2.099015421;10;151
0;paravance-9.rennes.grid5000.fr;thermos-root-devel-WordCountTopology-2-0869c6ab-813d-4a5b-bceb-5bd072f0866f;["container_2_Emit_random_words_2"];5.25;1533066550.88241;38.5;167.65;2.61107828;10;149
0;paravance-8.rennes.grid5000.fr;thermos-root-devel-WordCountTopology-0-3a54f3cc-08ed-4754-bda3-63a5b282750f;["topology_master"];5.25;1533066551.00514;2.37;7.93;0.0;9;117
1;paravance-6.rennes.grid5000.fr;thermos-root-devel-WordCountTopology-1-17b37294-c410-4db2-a120-b0c8d85e3c63;["container_1_Consume_and_count_1"];5.25;1533066561.00291;76.12;269.9;2.099015421;10;151
1;paravance-9.rennes.grid5000.fr;thermos-root-devel-WordCountTopology-2-0869c6ab-813d-4a5b-bceb-5bd072f0866f;["container_2_Emit_random_words_2"];5.25;1533066561.10031;42.7;185.84;2.61107828;10;149
1;paravance-8.rennes.grid5000.fr;thermos-root-devel-WordCountTopology-0-3a54f3cc-08ed-4754-bda3-63a5b282750f;["topology_master"];5.25;1533066561.22264;2.43;8.08;0.0;9;117
2;paravance-6.rennes.grid5000.fr;thermos-root-devel-WordCountTopology-1-17b37294-c410-4db2-a120-b0c8d85e3c63;["container_1_Consume_and_count_1"];5.25;1533066571.22001;84.29;300.07;2.099015421;10;151
2;paravance-9.rennes.grid5000.fr;thermos-root-devel-WordCountTopology-2-0869c6ab-813d-4a5b-bceb-5bd072f0866f;["container_2_Emit_random_words_2"];5.25;1533066571.31759;47.03;204.12;2.61107828;10;149
2;paravance-8.rennes.grid5000.fr;thermos-root-devel-WordCountTopology-0-3a54f3cc-08ed-4754-bda3-63a5b282750f;["topology_master"];5.25;1533066571.43948;2.52;8.21;0.0;9;117
3;paravance-9.rennes.grid5000.fr;thermos-root-devel-WordCountTopology-2-0869c6ab-813d-4a5b-bceb-5bd072f0866f;["container_2_Emit_random_words_2"];5.25;1533066581.53193;51.25;222.05;2.61107828;10;149
3;paravance-6.rennes.grid5000.fr;thermos-root-devel-WordCountTopology-1-17b37294-c410-4db2-a120-b0c8d85e3c63;["container_1_Consume_and_count_1"];5.25;1533066581.53581;92.65;330.82;2.099015421;10;151
3;paravance-8.rennes.grid5000.fr;thermos-root-devel-WordCountTopology-0-3a54f3cc-08ed-4754-bda3-63a5b282750f;["topology_master"];5.25;1533066581.65484;2.59;8.3;0.0;9;117
4;paravance-8.rennes.grid5000.fr;thermos-root-devel-WordCountTopology-0-3a54f3cc-08ed-4754-bda3-63a5b282750f;["topology_master"];5.25;1533066591.87252;2.65;8.38;0.0;9;117
4;paravance-6.rennes.grid5000.fr;thermos-root-devel-WordCountTopology-1-17b37294-c410-4db2-a120-b0c8d85e3c63;["container_1_Consume_and_count_1"];5.25;1533066591.75164;100.03;357.35;2.099015421;10;151
4;paravance-9.rennes.grid5000.fr;thermos-root-devel-WordCountTopology-2-0869c6ab-813d-4a5b-bceb-5bd072f0866f;["container_2_Emit_random_words_2"];5.25;1533066591.74856;55.38;240.04;2.61107828;10;149
5;paravance-6.rennes.grid5000.fr;thermos-root-devel-WordCountTopology-1-17b37294-c410-4db2-a120-b0c8d85e3c63;["container_1_Consume_and_count_1"];5.25;1533066601.97105;107.76;385.63;2.099015421;10;151
5;paravance-9.rennes.grid5000.fr;thermos-root-devel-WordCountTopology-2-0869c6ab-813d-4a5b-bceb-5bd072f0866f;["container_2_Emit_random_words_2"];5.25;1533066601.96655;59.67;258.28;2.61107828;10;149
5;paravance-8.rennes.grid5000.fr;thermos-root-devel-WordCountTopology-0-3a54f3cc-08ed-4754-bda3-63a5b282750f;["topology_master"];5.25;1533066602.08993;2.7;8.45;0.0;9;117
6;paravance-6.rennes.grid5000.fr;thermos-root-devel-WordCountTopology-1-17b37294-c410-4db2-a120-b0c8d85e3c63;["container_1_Consume_and_count_1"];5.25;1533066612.18759;115.98;414.17;2.101166005;10;151
6;paravance-9.rennes.grid5000.fr;thermos-root-devel-WordCountTopology-2-0869c6ab-813d-4a5b-bceb-5bd072f0866f;["container_2_Emit_random_words_2"];5.25;1533066612.18499;63.92;276.19;2.61107828;10;149
6;paravance-8.rennes.grid5000.fr;thermos-root-devel-WordCountTopology-0-3a54f3cc-08ed-4754-bda3-63a5b282750f;["topology_master"];5.25;1533066612.30829;2.82;8.65;0.0;9;117
7;paravance-6.rennes.grid5000.fr;thermos-root-devel-WordCountTopology-1-17b37294-c410-4db2-a120-b0c8d85e3c63;["container_1_Consume_and_count_1"];5.25;1533066622.40245;124.03;441.52;2.101166005;10;151
7;paravance-8.rennes.grid5000.fr;thermos-root-devel-WordCountTopology-0-3a54f3cc-08ed-4754-bda3-63a5b282750f;["topology_master"];5.25;1533066622.52305;2.85;8.68;0.0;9;117
7;paravance-9.rennes.grid5000.fr;thermos-root-devel-WordCountTopology-2-0869c6ab-813d-4a5b-bceb-5bd072f0866f;["container_2_Emit_random_words_2"];5.25;1533066622.40169;68.22;294.24;2.61107828;10;149
8;paravance-9.rennes.grid5000.fr;thermos-root-devel-WordCountTopology-2-0869c6ab-813d-4a5b-bceb-5bd072f0866f;["container_2_Emit_random_words_2"];5.25;1533066632.61832;72.52;312.36;2.61107828;10;149
8;paravance-6.rennes.grid5000.fr;thermos-root-devel-WordCountTopology-1-17b37294-c410-4db2-a120-b0c8d85e3c63;["container_1_Consume_and_count_1"];5.25;1533066632.62139;131.51;468.75;2.101166005;10;151
8;paravance-8.rennes.grid5000.fr;thermos-root-devel-WordCountTopology-0-3a54f3cc-08ed-4754-bda3-63a5b282750f;["topology_master"];5.25;1533066632.74169;2.94;8.81;0.0;9;117
9;paravance-9.rennes.grid5000.fr;thermos-root-devel-WordCountTopology-2-0869c6ab-813d-4a5b-bceb-5bd072f0866f;["container_2_Emit_random_words_2"];5.25;1533066642.83416;76.34;327.78;2.61107828;10;149
9;paravance-6.rennes.grid5000.fr;thermos-root-devel-WordCountTopology-1-17b37294-c410-4db2-a120-b0c8d85e3c63;["container_1_Consume_and_count_1"];5.25;1533066642.83796;138.88;499.44;2.114075166;10;151
9;paravance-8.rennes.grid5000.fr;thermos-root-devel-WordCountTopology-0-3a54f3cc-08ed-4754-bda3-63a5b282750f;["topology_master"];5.25;1533066642.95783;3.0;8.89;0.0;9;117
10;paravance-9.rennes.grid5000.fr;thermos-root-devel-WordCountTopology-2-0869c6ab-813d-4a5b-bceb-5bd072f0866f;["container_2_Emit_random_words_2"];5.25;1533066653.0538;80.61;345.53;2.61107828;10;149
10;paravance-8.rennes.grid5000.fr;thermos-root-devel-WordCountTopology-0-3a54f3cc-08ed-4754-bda3-63a5b282750f;["topology_master"];5.25;1533066653.17495;3.06;8.97;0.0;9;117
10;paravance-6.rennes.grid5000.fr;thermos-root-devel-WordCountTopology-1-17b37294-c410-4db2-a120-b0c8d85e3c63;["container_1_Consume_and_count_1"];5.25;1533066653.05648;147.52;528.47;2.114075166;10;151
11;paravance-9.rennes.grid5000.fr;thermos-root-devel-WordCountTopology-2-0869c6ab-813d-4a5b-bceb-5bd072f0866f;["container_2_Emit_random_words_2"];5.25;1533066663.27024;84.97;363.18;2.61107828;10;149
11;paravance-6.rennes.grid5000.fr;thermos-root-devel-WordCountTopology-1-17b37294-c410-4db2-a120-b0c8d85e3c63;["container_1_Consume_and_count_1"];5.25;1533066663.27555;155.94;558.41;2.114075166;10;151
11;paravance-8.rennes.grid5000.fr;thermos-root-devel-WordCountTopology-0-3a54f3cc-08ed-4754-bda3-63a5b282750f;["topology_master"];5.25;1533066663.39537;3.12;9.05;0.0;9;117
12;paravance-8.rennes.grid5000.fr;thermos-root-devel-WordCountTopology-0-3a54f3cc-08ed-4754-bda3-63a5b282750f;["topology_master"];5.25;1533066673.51125;3.24;9.37;0.0;9;117
12;paravance-9.rennes.grid5000.fr;thermos-root-devel-WordCountTopology-2-0869c6ab-813d-4a5b-bceb-5bd072f0866f;["container_2_Emit_random_words_2"];5.25;1533066673.48905;89.12;381.07;2.61107828;10;149
12;paravance-6.rennes.grid5000.fr;thermos-root-devel-WordCountTopology-1-17b37294-c410-4db2-a120-b0c8d85e3c63;["container_1_Consume_and_count_1"];5.25;1533066673.49226;164.12;586.33;2.114075166;10;151
13;paravance-8.rennes.grid5000.fr;thermos-root-devel-WordCountTopology-0-3a54f3cc-08ed-4754-bda3-63a5b282750f;["topology_master"];5.25;1533066683.82872;3.27;9.4;0.0;9;117
13;paravance-6.rennes.grid5000.fr;thermos-root-devel-WordCountTopology-1-17b37294-c410-4db2-a120-b0c8d85e3c63;["container_1_Consume_and_count_1"];5.25;1533066683.71089;172.56;613.72;2.114075166;10;151
13;paravance-9.rennes.grid5000.fr;thermos-root-devel-WordCountTopology-2-0869c6ab-813d-4a5b-bceb-5bd072f0866f;["container_2_Emit_random_words_2"];5.25;1533066683.70599;93.4;398.65;2.61107828;10;149
14;paravance-8.rennes.grid5000.fr;thermos-root-devel-WordCountTopology-0-3a54f3cc-08ed-4754-bda3-63a5b282750f;["topology_master"];5.25;1533066693.95006;3.37;9.57;0.0;9;117
14;paravance-9.rennes.grid5000.fr;thermos-root-devel-WordCountTopology-2-0869c6ab-813d-4a5b-bceb-5bd072f0866f;["container_2_Emit_random_words_2"];5.25;1533066693.92738;97.57;416.67;2.61107828;10;149
14;paravance-6.rennes.grid5000.fr;thermos-root-devel-WordCountTopology-1-17b37294-c410-4db2-a120-b0c8d85e3c63;["container_1_Consume_and_count_1"];5.25;1533066693.93149;180.61;640.48;2.114075166;10;151
15;paravance-9.rennes.grid5000.fr;thermos-root-devel-WordCountTopology-2-0869c6ab-813d-4a5b-bceb-5bd072f0866f;["container_2_Emit_random_words_2"];5.25;1533066704.14108;101.9;434.47;2.61107828;10;149
15;paravance-6.rennes.grid5000.fr;thermos-root-devel-WordCountTopology-1-17b37294-c410-4db2-a120-b0c8d85e3c63;["container_1_Consume_and_count_1"];5.25;1533066704.14545;189.17;668.41;2.114075166;10;151
15;paravance-8.rennes.grid5000.fr;thermos-root-devel-WordCountTopology-0-3a54f3cc-08ed-4754-bda3-63a5b282750f;["topology_master"];5.25;1533066704.26397;3.43;9.64;0.0;9;117
16;paravance-9.rennes.grid5000.fr;thermos-root-devel-WordCountTopology-2-0869c6ab-813d-4a5b-bceb-5bd072f0866f;["container_2_Emit_random_words_2"];5.25;1533066714.35959;106.09;452.65;2.61107828;10;149
16;paravance-8.rennes.grid5000.fr;thermos-root-devel-WordCountTopology-0-3a54f3cc-08ed-4754-bda3-63a5b282750f;["topology_master"];5.25;1533066714.48141;3.49;9.74;0.0;9;117
16;paravance-6.rennes.grid5000.fr;thermos-root-devel-WordCountTopology-1-17b37294-c410-4db2-a120-b0c8d85e3c63;["container_1_Consume_and_count_1"];5.25;1533066714.36381;197.19;695.63;2.114075166;10;151
17;paravance-9.rennes.grid5000.fr;thermos-root-devel-WordCountTopology-2-0869c6ab-813d-4a5b-bceb-5bd072f0866f;["container_2_Emit_random_words_2"];5.25;1533066724.57714;110.43;470.46;2.61107828;10;149
17;paravance-6.rennes.grid5000.fr;thermos-root-devel-WordCountTopology-1-17b37294-c410-4db2-a120-b0c8d85e3c63;["container_1_Consume_and_count_1"];5.25;1533066724.58139;205.31;722.92;2.114075166;10;151
17;paravance-8.rennes.grid5000.fr;thermos-root-devel-WordCountTopology-0-3a54f3cc-08ed-4754-bda3-63a5b282750f;["topology_master"];5.25;1533066724.69942;3.55;9.82;0.0;9;117
18;paravance-6.rennes.grid5000.fr;thermos-root-devel-WordCountTopology-1-17b37294-c410-4db2-a120-b0c8d85e3c63;["container_1_Consume_and_count_1"];5.25;1533066734.7961;213.79;750.71;2.114075166;10;151
18;paravance-9.rennes.grid5000.fr;thermos-root-devel-WordCountTopology-2-0869c6ab-813d-4a5b-bceb-5bd072f0866f;["container_2_Emit_random_words_2"];5.25;1533066734.79177;114.76;488.34;2.61107828;10;149
18;paravance-8.rennes.grid5000.fr;thermos-root-devel-WordCountTopology-0-3a54f3cc-08ed-4754-bda3-63a5b282750f;["topology_master"];5.25;1533066734.91488;3.67;10.02;0.0;9;117
19;paravance-6.rennes.grid5000.fr;thermos-root-devel-WordCountTopology-1-17b37294-c410-4db2-a120-b0c8d85e3c63;["container_1_Consume_and_count_1"];5.25;1533066745.00955;221.25;785.13;2.132831581;10;151
19;paravance-8.rennes.grid5000.fr;thermos-root-devel-WordCountTopology-0-3a54f3cc-08ed-4754-bda3-63a5b282750f;["topology_master"];5.25;1533066745.12999;3.7;10.05;0.0;9;117
19;paravance-9.rennes.grid5000.fr;thermos-root-devel-WordCountTopology-2-0869c6ab-813d-4a5b-bceb-5bd072f0866f;["container_2_Emit_random_words_2"];5.25;1533066745.00811;118.61;505.11;2.61107828;10;149
20;paravance-6.rennes.grid5000.fr;thermos-root-devel-WordCountTopology-1-17b37294-c410-4db2-a120-b0c8d85e3c63;["container_1_Consume_and_count_1"];5.25;1533066755.22745;229.56;818.52;2.132831581;10;151
20;paravance-8.rennes.grid5000.fr;thermos-root-devel-WordCountTopology-0-3a54f3cc-08ed-4754-bda3-63a5b282750f;["topology_master"];5.25;1533066755.34723;3.79;10.18;0.0;9;117
20;paravance-9.rennes.grid5000.fr;thermos-root-devel-WordCountTopology-2-0869c6ab-813d-4a5b-bceb-5bd072f0866f;["container_2_Emit_random_words_2"];5.25;1533066755.22369;123.04;522.91;2.61107828;10;149
21;paravance-6.rennes.grid5000.fr;thermos-root-devel-WordCountTopology-1-17b37294-c410-4db2-a120-b0c8d85e3c63;["container_1_Consume_and_count_1"];5.25;1533066765.44462;237.55;848.0;2.132831581;10;151
21;paravance-9.rennes.grid5000.fr;thermos-root-devel-WordCountTopology-2-0869c6ab-813d-4a5b-bceb-5bd072f0866f;["container_2_Emit_random_words_2"];5.25;1533066765.4417;127.35;540.75;2.61107828;10;149
21;paravance-8.rennes.grid5000.fr;thermos-root-devel-WordCountTopology-0-3a54f3cc-08ed-4754-bda3-63a5b282750f;["topology_master"];5.25;1533066765.56374;3.85;10.25;0.0;9;117
22;paravance-6.rennes.grid5000.fr;thermos-root-devel-WordCountTopology-1-17b37294-c410-4db2-a120-b0c8d85e3c63;["container_1_Consume_and_count_1"];5.25;1533066775.66388;245.6;875.52;2.132831581;10;151
22;paravance-9.rennes.grid5000.fr;thermos-root-devel-WordCountTopology-2-0869c6ab-813d-4a5b-bceb-5bd072f0866f;["container_2_Emit_random_words_2"];5.25;1533066775.66002;131.66;558.35;2.61107828;10;149
22;paravance-8.rennes.grid5000.fr;thermos-root-devel-WordCountTopology-0-3a54f3cc-08ed-4754-bda3-63a5b282750f;["topology_master"];5.25;1533066775.78151;3.91;10.33;0.0;9;117
23;paravance-6.rennes.grid5000.fr;thermos-root-devel-WordCountTopology-1-17b37294-c410-4db2-a120-b0c8d85e3c63;["container_1_Consume_and_count_1"];5.25;1533066785.87804;253.52;904.28;2.132831581;10;151
23;paravance-9.rennes.grid5000.fr;thermos-root-devel-WordCountTopology-2-0869c6ab-813d-4a5b-bceb-5bd072f0866f;["container_2_Emit_random_words_2"];5.25;1533066785.87464;136.08;575.98;2.61107828;10;149
23;paravance-8.rennes.grid5000.fr;thermos-root-devel-WordCountTopology-0-3a54f3cc-08ed-4754-bda3-63a5b282750f;["topology_master"];5.25;1533066785.99656;3.97;10.4;0.0;9;117
24;paravance-6.rennes.grid5000.fr;thermos-root-devel-WordCountTopology-1-17b37294-c410-4db2-a120-b0c8d85e3c63;["container_1_Consume_and_count_1"];5.25;1533066796.09511;261.59;932.71;2.132831581;10;151
24;paravance-9.rennes.grid5000.fr;thermos-root-devel-WordCountTopology-2-0869c6ab-813d-4a5b-bceb-5bd072f0866f;["container_2_Emit_random_words_2"];5.25;1533066796.09151;140.17;593.87;2.61107828;10;149
24;paravance-8.rennes.grid5000.fr;thermos-root-devel-WordCountTopology-0-3a54f3cc-08ed-4754-bda3-63a5b282750f;["topology_master"];5.25;1533066796.21421;4.08;10.57;0.0;9;117
25;paravance-9.rennes.grid5000.fr;thermos-root-devel-WordCountTopology-2-0869c6ab-813d-4a5b-bceb-5bd072f0866f;["container_2_Emit_random_words_2"];5.25;1533066806.30839;144.53;611.5;2.61107828;10;149
25;paravance-6.rennes.grid5000.fr;thermos-root-devel-WordCountTopology-1-17b37294-c410-4db2-a120-b0c8d85e3c63;["container_1_Consume_and_count_1"];5.25;1533066806.31169;270.07;964.28;2.133985758;10;151
25;paravance-8.rennes.grid5000.fr;thermos-root-devel-WordCountTopology-0-3a54f3cc-08ed-4754-bda3-63a5b282750f;["topology_master"];5.25;1533066806.43067;4.1;10.6;0.0;9;117
26;paravance-6.rennes.grid5000.fr;thermos-root-devel-WordCountTopology-1-17b37294-c410-4db2-a120-b0c8d85e3c63;["container_1_Consume_and_count_1"];5.25;1533066816.52811;278.61;993.46;2.133985758;10;151
26;paravance-9.rennes.grid5000.fr;thermos-root-devel-WordCountTopology-2-0869c6ab-813d-4a5b-bceb-5bd072f0866f;["container_2_Emit_random_words_2"];5.25;1533066816.5248;148.52;629.15;2.61107828;10;149
26;paravance-8.rennes.grid5000.fr;thermos-root-devel-WordCountTopology-0-3a54f3cc-08ed-4754-bda3-63a5b282750f;["topology_master"];5.25;1533066816.64708;4.2;10.73;0.0;9;117
27;paravance-6.rennes.grid5000.fr;thermos-root-devel-WordCountTopology-1-17b37294-c410-4db2-a120-b0c8d85e3c63;["container_1_Consume_and_count_1"];5.25;1533066826.74574;286.71;1021.64;2.133985758;10;151
27;paravance-9.rennes.grid5000.fr;thermos-root-devel-WordCountTopology-2-0869c6ab-813d-4a5b-bceb-5bd072f0866f;["container_2_Emit_random_words_2"];5.25;1533066826.74284;152.58;646.56;2.61107828;10;149
27;paravance-8.rennes.grid5000.fr;thermos-root-devel-WordCountTopology-0-3a54f3cc-08ed-4754-bda3-63a5b282750f;["topology_master"];5.25;1533066826.86458;4.26;10.8;0.0;9;117
28;paravance-6.rennes.grid5000.fr;thermos-root-devel-WordCountTopology-1-17b37294-c410-4db2-a120-b0c8d85e3c63;["container_1_Consume_and_count_1"];5.25;1533066836.96274;294.81;1050.18;2.157571255;10;151
28;paravance-8.rennes.grid5000.fr;thermos-root-devel-WordCountTopology-0-3a54f3cc-08ed-4754-bda3-63a5b282750f;["topology_master"];5.25;1533066837.08205;4.32;10.89;0.0;9;117
28;paravance-9.rennes.grid5000.fr;thermos-root-devel-WordCountTopology-2-0869c6ab-813d-4a5b-bceb-5bd072f0866f;["container_2_Emit_random_words_2"];5.25;1533066836.95878;156.72;664.45;2.61107828;10;149
29;paravance-9.rennes.grid5000.fr;thermos-root-devel-WordCountTopology-2-0869c6ab-813d-4a5b-bceb-5bd072f0866f;["container_2_Emit_random_words_2"];5.25;1533066847.1761;160.45;679.73;2.61107828;10;149
29;paravance-6.rennes.grid5000.fr;thermos-root-devel-WordCountTopology-1-17b37294-c410-4db2-a120-b0c8d85e3c63;["container_1_Consume_and_count_1"];5.25;1533066847.18057;301.95;1085.47;2.176357958;10;151
29;paravance-8.rennes.grid5000.fr;thermos-root-devel-WordCountTopology-0-3a54f3cc-08ed-4754-bda3-63a5b282750f;["topology_master"];5.25;1533066847.29859;4.43;11.03;0.0;9;117
30;paravance-9.rennes.grid5000.fr;thermos-root-devel-WordCountTopology-2-0869c6ab-813d-4a5b-bceb-5bd072f0866f;["container_2_Emit_random_words_2"];5.25;1533066857.39372;164.39;696.04;2.61107828;10;149
30;paravance-6.rennes.grid5000.fr;thermos-root-devel-WordCountTopology-1-17b37294-c410-4db2-a120-b0c8d85e3c63;["container_1_Consume_and_count_1"];5.25;1533066857.3993;309.24;1121.17;2.225842882;10;151
30;paravance-8.rennes.grid5000.fr;thermos-root-devel-WordCountTopology-0-3a54f3cc-08ed-4754-bda3-63a5b282750f;["topology_master"];5.25;1533066857.51685;4.49;11.17;0.0;9;117
31;paravance-6.rennes.grid5000.fr;thermos-root-devel-WordCountTopology-1-17b37294-c410-4db2-a120-b0c8d85e3c63;["container_1_Consume_and_count_1"];5.25;1533066867.61526;316.79;1155.44;2.243859358;10;151
31;paravance-8.rennes.grid5000.fr;thermos-root-devel-WordCountTopology-0-3a54f3cc-08ed-4754-bda3-63a5b282750f;["topology_master"];5.25;1533066867.73431;4.55;11.24;0.0;9;117
31;paravance-9.rennes.grid5000.fr;thermos-root-devel-WordCountTopology-2-0869c6ab-813d-4a5b-bceb-5bd072f0866f;["container_2_Emit_random_words_2"];5.25;1533066867.61079;168.36;712.23;2.61107828;10;149
32;paravance-9.rennes.grid5000.fr;thermos-root-devel-WordCountTopology-2-0869c6ab-813d-4a5b-bceb-5bd072f0866f;["container_2_Emit_random_words_2"];5.25;1533066877.82796;172.53;728.96;2.61107828;10;149
32;paravance-6.rennes.grid5000.fr;thermos-root-devel-WordCountTopology-1-17b37294-c410-4db2-a120-b0c8d85e3c63;["container_1_Consume_and_count_1"];5.25;1533066877.83147;324.85;1188.11;2.247373721;10;151
32;paravance-8.rennes.grid5000.fr;thermos-root-devel-WordCountTopology-0-3a54f3cc-08ed-4754-bda3-63a5b282750f;["topology_master"];5.25;1533066877.95048;4.62;11.33;0.0;9;117
33;paravance-6.rennes.grid5000.fr;thermos-root-devel-WordCountTopology-1-17b37294-c410-4db2-a120-b0c8d85e3c63;["container_1_Consume_and_count_1"];5.25;1533066888.04846;332.54;1215.63;2.247447101;10;151
33;paravance-9.rennes.grid5000.fr;thermos-root-devel-WordCountTopology-2-0869c6ab-813d-4a5b-bceb-5bd072f0866f;["container_2_Emit_random_words_2"];5.25;1533066888.04492;176.76;746.19;2.61107828;10;149
33;paravance-8.rennes.grid5000.fr;thermos-root-devel-WordCountTopology-0-3a54f3cc-08ed-4754-bda3-63a5b282750f;["topology_master"];5.25;1533066888.16779;4.71;11.45;0.0;9;117
34;paravance-6.rennes.grid5000.fr;thermos-root-devel-WordCountTopology-1-17b37294-c410-4db2-a120-b0c8d85e3c63;["container_1_Consume_and_count_1"];5.25;1533066898.26555;340.92;1244.73;2.247447101;10;151
34;paravance-9.rennes.grid5000.fr;thermos-root-devel-WordCountTopology-2-0869c6ab-813d-4a5b-bceb-5bd072f0866f;["container_2_Emit_random_words_2"];5.25;1533066898.26206;181.14;763.72;2.61107828;10;149
34;paravance-8.rennes.grid5000.fr;thermos-root-devel-WordCountTopology-0-3a54f3cc-08ed-4754-bda3-63a5b282750f;["topology_master"];5.25;1533066898.38405;4.73;11.48;0.0;9;117
35;paravance-6.rennes.grid5000.fr;thermos-root-devel-WordCountTopology-1-17b37294-c410-4db2-a120-b0c8d85e3c63;["container_1_Consume_and_count_1"];5.25;1533066908.48175;349.24;1273.68;2.247447101;10;151
35;paravance-9.rennes.grid5000.fr;thermos-root-devel-WordCountTopology-2-0869c6ab-813d-4a5b-bceb-5bd072f0866f;["container_2_Emit_random_words_2"];5.25;1533066908.47764;185.5;781.41;2.61107828;10;149
35;paravance-8.rennes.grid5000.fr;thermos-root-devel-WordCountTopology-0-3a54f3cc-08ed-4754-bda3-63a5b282750f;["topology_master"];5.25;1533066908.60054;4.83;11.61;0.0;9;117
36;paravance-6.rennes.grid5000.fr;thermos-root-devel-WordCountTopology-1-17b37294-c410-4db2-a120-b0c8d85e3c63;["container_1_Consume_and_count_1"];5.25;1533066918.6988;357.62;1303.42;2.247447101;10;151
36;paravance-9.rennes.grid5000.fr;thermos-root-devel-WordCountTopology-2-0869c6ab-813d-4a5b-bceb-5bd072f0866f;["container_2_Emit_random_words_2"];5.25;1533066918.69664;189.86;799.01;2.61107828;10;149
36;paravance-8.rennes.grid5000.fr;thermos-root-devel-WordCountTopology-0-3a54f3cc-08ed-4754-bda3-63a5b282750f;["topology_master"];5.25;1533066918.81869;4.9;11.74;0.0;9;117
37;paravance-9.rennes.grid5000.fr;thermos-root-devel-WordCountTopology-2-0869c6ab-813d-4a5b-bceb-5bd072f0866f;["container_2_Emit_random_words_2"];5.25;1533066928.81131;194.2;816.51;2.61107828;10;149
37;paravance-6.rennes.grid5000.fr;thermos-root-devel-WordCountTopology-1-17b37294-c410-4db2-a120-b0c8d85e3c63;["container_1_Consume_and_count_1"];5.25;1533066928.91459;366.0;1333.98;2.247447101;10;151
37;paravance-8.rennes.grid5000.fr;thermos-root-devel-WordCountTopology-0-3a54f3cc-08ed-4754-bda3-63a5b282750f;["topology_master"];5.25;1533066929.03354;4.99;11.86;0.0;9;117
38;paravance-6.rennes.grid5000.fr;thermos-root-devel-WordCountTopology-1-17b37294-c410-4db2-a120-b0c8d85e3c63;["container_1_Consume_and_count_1"];5.25;1533066939.12946;374.61;1363.43;2.247447101;10;151
38;paravance-9.rennes.grid5000.fr;thermos-root-devel-WordCountTopology-2-0869c6ab-813d-4a5b-bceb-5bd072f0866f;["container_2_Emit_random_words_2"];5.25;1533066939.12616;198.63;834.42;2.61107828;10;149
38;paravance-8.rennes.grid5000.fr;thermos-root-devel-WordCountTopology-0-3a54f3cc-08ed-4754-bda3-63a5b282750f;["topology_master"];5.25;1533066939.24841;5.01;11.89;0.0;9;117
39;paravance-6.rennes.grid5000.fr;thermos-root-devel-WordCountTopology-1-17b37294-c410-4db2-a120-b0c8d85e3c63;["container_1_Consume_and_count_1"];5.25;1533066949.3455;383.17;1394.13;2.247447101;10;151
39;paravance-8.rennes.grid5000.fr;thermos-root-devel-WordCountTopology-0-3a54f3cc-08ed-4754-bda3-63a5b282750f;["topology_master"];5.25;1533066949.46272;5.1;12.01;0.0;9;117
39;paravance-9.rennes.grid5000.fr;thermos-root-devel-WordCountTopology-2-0869c6ab-813d-4a5b-bceb-5bd072f0866f;["container_2_Emit_random_words_2"];5.25;1533066949.34088;203.05;852.22;2.61107828;10;149
40;paravance-8.rennes.grid5000.fr;thermos-root-devel-WordCountTopology-0-3a54f3cc-08ed-4754-bda3-63a5b282750f;["topology_master"];5.25;1533066959.67804;5.16;12.08;0.0;9;117
40;paravance-6.rennes.grid5000.fr;thermos-root-devel-WordCountTopology-1-17b37294-c410-4db2-a120-b0c8d85e3c63;["container_1_Consume_and_count_1"];5.25;1533066959.56145;391.21;1425.2;2.29495235;10;151
40;paravance-9.rennes.grid5000.fr;thermos-root-devel-WordCountTopology-2-0869c6ab-813d-4a5b-bceb-5bd072f0866f;["container_2_Emit_random_words_2"];5.25;1533066959.55581;207.09;869.23;2.61107828;10;149
41;paravance-6.rennes.grid5000.fr;thermos-root-devel-WordCountTopology-1-17b37294-c410-4db2-a120-b0c8d85e3c63;["container_1_Consume_and_count_1"];5.25;1533066969.77689;400.13;1456.03;2.29495235;10;151
41;paravance-9.rennes.grid5000.fr;thermos-root-devel-WordCountTopology-2-0869c6ab-813d-4a5b-bceb-5bd072f0866f;["container_2_Emit_random_words_2"];5.25;1533066969.773;211.39;886.28;2.61107828;10;149
41;paravance-8.rennes.grid5000.fr;thermos-root-devel-WordCountTopology-0-3a54f3cc-08ed-4754-bda3-63a5b282750f;["topology_master"];5.25;1533066969.89504;5.23;12.17;0.0;9;117
42;paravance-6.rennes.grid5000.fr;thermos-root-devel-WordCountTopology-1-17b37294-c410-4db2-a120-b0c8d85e3c63;["container_1_Consume_and_count_1"];5.25;1533066979.99342;408.78;1486.42;2.29495235;10;151
42;paravance-9.rennes.grid5000.fr;thermos-root-devel-WordCountTopology-2-0869c6ab-813d-4a5b-bceb-5bd072f0866f;["container_2_Emit_random_words_2"];5.25;1533066979.98929;215.62;903.49;2.61107828;10;149
42;paravance-8.rennes.grid5000.fr;thermos-root-devel-WordCountTopology-0-3a54f3cc-08ed-4754-bda3-63a5b282750f;["topology_master"];5.25;1533066980.11151;5.29;12.31;0.0;9;117
43;paravance-9.rennes.grid5000.fr;thermos-root-devel-WordCountTopology-2-0869c6ab-813d-4a5b-bceb-5bd072f0866f;["container_2_Emit_random_words_2"];5.25;1533066990.20608;220.04;920.99;2.61107828;10;149
43;paravance-6.rennes.grid5000.fr;thermos-root-devel-WordCountTopology-1-17b37294-c410-4db2-a120-b0c8d85e3c63;["container_1_Consume_and_count_1"];5.25;1533066990.21158;417.47;1517.75;2.29495235;10;151
43;paravance-8.rennes.grid5000.fr;thermos-root-devel-WordCountTopology-0-3a54f3cc-08ed-4754-bda3-63a5b282750f;["topology_master"];5.25;1533066990.32865;5.38;12.43;0.0;9;117
44;paravance-6.rennes.grid5000.fr;thermos-root-devel-WordCountTopology-1-17b37294-c410-4db2-a120-b0c8d85e3c63;["container_1_Consume_and_count_1"];5.25;1533067000.42858;425.87;1548.24;2.29495235;10;151
44;paravance-9.rennes.grid5000.fr;thermos-root-devel-WordCountTopology-2-0869c6ab-813d-4a5b-bceb-5bd072f0866f;["container_2_Emit_random_words_2"];5.25;1533067000.42431;224.41;938.43;2.61107828;10;149
44;paravance-8.rennes.grid5000.fr;thermos-root-devel-WordCountTopology-0-3a54f3cc-08ed-4754-bda3-63a5b282750f;["topology_master"];5.25;1533067000.54655;5.41;12.46;0.0;9;117
45;paravance-6.rennes.grid5000.fr;thermos-root-devel-WordCountTopology-1-17b37294-c410-4db2-a120-b0c8d85e3c63;["container_1_Consume_and_count_1"];5.25;1533067010.64397;434.59;1579.22;2.29495235;10;151
45;paravance-9.rennes.grid5000.fr;thermos-root-devel-WordCountTopology-2-0869c6ab-813d-4a5b-bceb-5bd072f0866f;["container_2_Emit_random_words_2"];5.25;1533067010.63868;228.8;956.03;2.61107828;10;149
45;paravance-8.rennes.grid5000.fr;thermos-root-devel-WordCountTopology-0-3a54f3cc-08ed-4754-bda3-63a5b282750f;["topology_master"];5.25;1533067010.76128;5.5;12.58;0.0;9;117
46;paravance-6.rennes.grid5000.fr;thermos-root-devel-WordCountTopology-1-17b37294-c410-4db2-a120-b0c8d85e3c63;["container_1_Consume_and_count_1"];5.25;1533067020.85993;443.29;1608.98;2.29495235;10;151
46;paravance-9.rennes.grid5000.fr;thermos-root-devel-WordCountTopology-2-0869c6ab-813d-4a5b-bceb-5bd072f0866f;["container_2_Emit_random_words_2"];5.25;1533067020.85596;233.11;973.43;2.61107828;10;149
46;paravance-8.rennes.grid5000.fr;thermos-root-devel-WordCountTopology-0-3a54f3cc-08ed-4754-bda3-63a5b282750f;["topology_master"];5.25;1533067020.97694;5.56;12.66;0.0;9;117
47;paravance-6.rennes.grid5000.fr;thermos-root-devel-WordCountTopology-1-17b37294-c410-4db2-a120-b0c8d85e3c63;["container_1_Consume_and_count_1"];5.25;1533067031.07467;451.4;1635.94;2.29495235;10;151
47;paravance-8.rennes.grid5000.fr;thermos-root-devel-WordCountTopology-0-3a54f3cc-08ed-4754-bda3-63a5b282750f;["topology_master"];5.25;1533067031.1935;5.62;12.74;0.0;9;117
47;paravance-9.rennes.grid5000.fr;thermos-root-devel-WordCountTopology-2-0869c6ab-813d-4a5b-bceb-5bd072f0866f;["container_2_Emit_random_words_2"];5.25;1533067031.0725;237.05;990.78;2.61107828;10;149
48;paravance-6.rennes.grid5000.fr;thermos-root-devel-WordCountTopology-1-17b37294-c410-4db2-a120-b0c8d85e3c63;["container_1_Consume_and_count_1"];5.25;1533067041.29007;459.95;1664.66;2.29495235;10;151
48;paravance-9.rennes.grid5000.fr;thermos-root-devel-WordCountTopology-2-0869c6ab-813d-4a5b-bceb-5bd072f0866f;["container_2_Emit_random_words_2"];5.25;1533067041.28567;241.46;1008.37;2.61107828;10;149
48;paravance-8.rennes.grid5000.fr;thermos-root-devel-WordCountTopology-0-3a54f3cc-08ed-4754-bda3-63a5b282750f;["topology_master"];5.25;1533067041.4082;5.69;12.85;0.0;9;117
49;paravance-6.rennes.grid5000.fr;thermos-root-devel-WordCountTopology-1-17b37294-c410-4db2-a120-b0c8d85e3c63;["container_1_Consume_and_count_1"];5.25;1533067051.50793;466.67;1696.88;2.368298642;10;151
49;paravance-8.rennes.grid5000.fr;thermos-root-devel-WordCountTopology-0-3a54f3cc-08ed-4754-bda3-63a5b282750f;["topology_master"];5.25;1533067051.62512;5.78;12.97;0.0;9;117
49;paravance-9.rennes.grid5000.fr;thermos-root-devel-WordCountTopology-2-0869c6ab-813d-4a5b-bceb-5bd072f0866f;["container_2_Emit_random_words_2"];5.25;1533067051.50437;245.17;1023.3;2.61107828;10;149
50;paravance-9.rennes.grid5000.fr;thermos-root-devel-WordCountTopology-2-0869c6ab-813d-4a5b-bceb-5bd072f0866f;["container_2_Emit_random_words_2"];5.25;1533067061.72114;249.24;1040.35;2.61107828;10;149
50;paravance-6.rennes.grid5000.fr;thermos-root-devel-WordCountTopology-1-17b37294-c410-4db2-a120-b0c8d85e3c63;["container_1_Consume_and_count_1"];5.25;1533067061.7255;474.88;1724.97;2.368298642;10;151
50;paravance-8.rennes.grid5000.fr;thermos-root-devel-WordCountTopology-0-3a54f3cc-08ed-4754-bda3-63a5b282750f;["topology_master"];5.25;1533067061.84336;5.81;13.02;0.0;9;117
51;paravance-9.rennes.grid5000.fr;thermos-root-devel-WordCountTopology-2-0869c6ab-813d-4a5b-bceb-5bd072f0866f;["container_2_Emit_random_words_2"];5.25;1533067071.93752;253.64;1057.76;2.61107828;10;149
51;paravance-6.rennes.grid5000.fr;thermos-root-devel-WordCountTopology-1-17b37294-c410-4db2-a120-b0c8d85e3c63;["container_1_Consume_and_count_1"];5.25;1533067071.9431;482.98;1753.34;2.368298642;10;151
51;paravance-8.rennes.grid5000.fr;thermos-root-devel-WordCountTopology-0-3a54f3cc-08ed-4754-bda3-63a5b282750f;["topology_master"];5.25;1533067072.06086;5.9;13.15;0.0;9;117
52;paravance-6.rennes.grid5000.fr;thermos-root-devel-WordCountTopology-1-17b37294-c410-4db2-a120-b0c8d85e3c63;["container_1_Consume_and_count_1"];5.25;1533067082.15868;491.2;1780.51;2.368298642;10;151
52;paravance-8.rennes.grid5000.fr;thermos-root-devel-WordCountTopology-0-3a54f3cc-08ed-4754-bda3-63a5b282750f;["topology_master"];5.25;1533067082.27588;5.96;13.23;0.0;9;117
52;paravance-9.rennes.grid5000.fr;thermos-root-devel-WordCountTopology-2-0869c6ab-813d-4a5b-bceb-5bd072f0866f;["container_2_Emit_random_words_2"];5.25;1533067082.1534;257.91;1075.18;2.61107828;10;149
53;paravance-9.rennes.grid5000.fr;thermos-root-devel-WordCountTopology-2-0869c6ab-813d-4a5b-bceb-5bd072f0866f;["container_2_Emit_random_words_2"];5.25;1533067092.37108;262.16;1092.7;2.61107828;10;149
53;paravance-8.rennes.grid5000.fr;thermos-root-devel-WordCountTopology-0-3a54f3cc-08ed-4754-bda3-63a5b282750f;["topology_master"];5.25;1533067092.49364;6.03;13.34;0.0;9;117
53;paravance-6.rennes.grid5000.fr;thermos-root-devel-WordCountTopology-1-17b37294-c410-4db2-a120-b0c8d85e3c63;["container_1_Consume_and_count_1"];5.25;1533067092.37693;499.22;1809.96;2.368298642;10;151
54;paravance-9.rennes.grid5000.fr;thermos-root-devel-WordCountTopology-2-0869c6ab-813d-4a5b-bceb-5bd072f0866f;["container_2_Emit_random_words_2"];5.25;1533067102.58776;266.13;1110.12;2.61107828;10;149
54;paravance-6.rennes.grid5000.fr;thermos-root-devel-WordCountTopology-1-17b37294-c410-4db2-a120-b0c8d85e3c63;["container_1_Consume_and_count_1"];5.25;1533067102.59347;507.37;1837.19;2.368298642;10;151
54;paravance-8.rennes.grid5000.fr;thermos-root-devel-WordCountTopology-0-3a54f3cc-08ed-4754-bda3-63a5b282750f;["topology_master"];5.25;1533067102.70968;6.09;13.41;0.0;9;117
55;paravance-6.rennes.grid5000.fr;thermos-root-devel-WordCountTopology-1-17b37294-c410-4db2-a120-b0c8d85e3c63;["container_1_Consume_and_count_1"];5.25;1533067112.80775;515.79;1867.0;2.368298642;10;151
55;paravance-8.rennes.grid5000.fr;thermos-root-devel-WordCountTopology-0-3a54f3cc-08ed-4754-bda3-63a5b282750f;["topology_master"];5.25;1533067112.92474;6.18;13.54;0.0;9;117
55;paravance-9.rennes.grid5000.fr;thermos-root-devel-WordCountTopology-2-0869c6ab-813d-4a5b-bceb-5bd072f0866f;["container_2_Emit_random_words_2"];5.25;1533067112.80328;270.54;1127.84;2.61107828;10;149
56;paravance-6.rennes.grid5000.fr;thermos-root-devel-WordCountTopology-1-17b37294-c410-4db2-a120-b0c8d85e3c63;["container_1_Consume_and_count_1"];5.25;1533067123.0223;523.69;1898.01;2.368298642;10;151
56;paravance-8.rennes.grid5000.fr;thermos-root-devel-WordCountTopology-0-3a54f3cc-08ed-4754-bda3-63a5b282750f;["topology_master"];5.25;1533067123.141;6.2;13.57;0.0;9;117
56;paravance-9.rennes.grid5000.fr;thermos-root-devel-WordCountTopology-2-0869c6ab-813d-4a5b-bceb-5bd072f0866f;["container_2_Emit_random_words_2"];5.25;1533067123.01978;274.86;1145.34;2.61107828;10;149
57;paravance-8.rennes.grid5000.fr;thermos-root-devel-WordCountTopology-0-3a54f3cc-08ed-4754-bda3-63a5b282750f;["topology_master"];5.25;1533067133.35661;6.29;13.69;0.0;9;117
57;paravance-9.rennes.grid5000.fr;thermos-root-devel-WordCountTopology-2-0869c6ab-813d-4a5b-bceb-5bd072f0866f;["container_2_Emit_random_words_2"];5.25;1533067133.23584;279.28;1162.75;2.61107828;10;149
57;paravance-6.rennes.grid5000.fr;thermos-root-devel-WordCountTopology-1-17b37294-c410-4db2-a120-b0c8d85e3c63;["container_1_Consume_and_count_1"];5.25;1533067133.24082;532.26;1928.34;2.368298642;10;151
58;paravance-8.rennes.grid5000.fr;thermos-root-devel-WordCountTopology-0-3a54f3cc-08ed-4754-bda3-63a5b282750f;["topology_master"];5.25;1533067143.57326;6.35;13.77;0.0;9;117
58;paravance-9.rennes.grid5000.fr;thermos-root-devel-WordCountTopology-2-0869c6ab-813d-4a5b-bceb-5bd072f0866f;["container_2_Emit_random_words_2"];5.25;1533067143.45209;283.71;1180.26;2.61107828;10;149
58;paravance-6.rennes.grid5000.fr;thermos-root-devel-WordCountTopology-1-17b37294-c410-4db2-a120-b0c8d85e3c63;["container_1_Consume_and_count_1"];5.25;1533067143.45752;540.88;1957.24;2.368298642;10;151
59;paravance-6.rennes.grid5000.fr;thermos-root-devel-WordCountTopology-1-17b37294-c410-4db2-a120-b0c8d85e3c63;["container_1_Consume_and_count_1"];5.25;1533067153.67538;549.33;1985.28;2.368298642;10;151
59;paravance-8.rennes.grid5000.fr;thermos-root-devel-WordCountTopology-0-3a54f3cc-08ed-4754-bda3-63a5b282750f;["topology_master"];5.25;1533067153.79157;6.42;13.87;0.0;9;117
59;paravance-9.rennes.grid5000.fr;thermos-root-devel-WordCountTopology-2-0869c6ab-813d-4a5b-bceb-5bd072f0866f;["container_2_Emit_random_words_2"];5.25;1533067153.67072;288.14;1197.8;2.61107828;10;149
60;paravance-9.rennes.grid5000.fr;thermos-root-devel-WordCountTopology-2-0869c6ab-813d-4a5b-bceb-5bd072f0866f;["container_2_Emit_random_words_2"];5.25;1533067163.88523;292.3;1215.09;2.61107828;10;149
60;paravance-6.rennes.grid5000.fr;thermos-root-devel-WordCountTopology-1-17b37294-c410-4db2-a120-b0c8d85e3c63;["container_1_Consume_and_count_1"];5.25;1533067163.89108;557.57;2013.44;2.368298642;10;151
60;paravance-8.rennes.grid5000.fr;thermos-root-devel-WordCountTopology-0-3a54f3cc-08ed-4754-bda3-63a5b282750f;["topology_master"];5.25;1533067164.00764;6.48;13.94;0.0;9;117
