mesure_id;slave_id;executor_id;heron_instances;cpus_limit;timestamp_B;cpus_system_time_secs_B;cpus_user_time_secs_B;cpus_throttled_time_secs_B;processes;threads
0;paravance-6.rennes.grid5000.fr;thermos-root-devel-WordCountTopology-1-17b37294-c410-4db2-a120-b0c8d85e3c63;["container_1_Consume_and_count_1"];5.25;1533066560.99099;76.11;269.87;2.099015421;10;151
0;paravance-9.rennes.grid5000.fr;thermos-root-devel-WordCountTopology-2-0869c6ab-813d-4a5b-bceb-5bd072f0866f;["container_2_Emit_random_words_2"];5.25;1533066560.98916;42.66;185.66;2.61107828;10;149
0;paravance-8.rennes.grid5000.fr;thermos-root-devel-WordCountTopology-0-3a54f3cc-08ed-4754-bda3-63a5b282750f;["topology_master"];5.25;1533066561.11378;2.43;8.08;0.0;9;117
1;paravance-6.rennes.grid5000.fr;thermos-root-devel-WordCountTopology-1-17b37294-c410-4db2-a120-b0c8d85e3c63;["container_1_Consume_and_count_1"];5.25;1533066571.11045;84.19;299.72;2.099015421;10;151
1;paravance-9.rennes.grid5000.fr;thermos-root-devel-WordCountTopology-2-0869c6ab-813d-4a5b-bceb-5bd072f0866f;["container_2_Emit_random_words_2"];5.25;1533066571.20737;46.98;203.93;2.61107828;10;149
1;paravance-8.rennes.grid5000.fr;thermos-root-devel-WordCountTopology-0-3a54f3cc-08ed-4754-bda3-63a5b282750f;["topology_master"];5.25;1533066571.33008;2.52;8.21;0.0;9;117
2;paravance-6.rennes.grid5000.fr;thermos-root-devel-WordCountTopology-1-17b37294-c410-4db2-a120-b0c8d85e3c63;["container_1_Consume_and_count_1"];5.25;1533066581.32556;92.49;330.16;2.099015421;10;151
2;paravance-9.rennes.grid5000.fr;thermos-root-devel-WordCountTopology-2-0869c6ab-813d-4a5b-bceb-5bd072f0866f;["container_2_Emit_random_words_2"];5.25;1533066581.42392;51.21;221.85;2.61107828;10;149
2;paravance-8.rennes.grid5000.fr;thermos-root-devel-WordCountTopology-0-3a54f3cc-08ed-4754-bda3-63a5b282750f;["topology_master"];5.25;1533066581.54626;2.57;8.27;0.0;9;117
3;paravance-9.rennes.grid5000.fr;thermos-root-devel-WordCountTopology-2-0869c6ab-813d-4a5b-bceb-5bd072f0866f;["container_2_Emit_random_words_2"];5.25;1533066591.54044;55.3;239.67;2.61107828;10;149
3;paravance-6.rennes.grid5000.fr;thermos-root-devel-WordCountTopology-1-17b37294-c410-4db2-a120-b0c8d85e3c63;["container_1_Consume_and_count_1"];5.25;1533066591.64181;99.96;357.12;2.099015421;10;151
3;paravance-8.rennes.grid5000.fr;thermos-root-devel-WordCountTopology-0-3a54f3cc-08ed-4754-bda3-63a5b282750f;["topology_master"];5.25;1533066591.76349;2.65;8.38;0.0;9;117
4;paravance-8.rennes.grid5000.fr;thermos-root-devel-WordCountTopology-0-3a54f3cc-08ed-4754-bda3-63a5b282750f;["topology_master"];5.25;1533066601.97906;2.7;8.45;0.0;9;117
4;paravance-6.rennes.grid5000.fr;thermos-root-devel-WordCountTopology-1-17b37294-c410-4db2-a120-b0c8d85e3c63;["container_1_Consume_and_count_1"];5.25;1533066601.85958;107.67;385.31;2.099015421;10;151
4;paravance-9.rennes.grid5000.fr;thermos-root-devel-WordCountTopology-2-0869c6ab-813d-4a5b-bceb-5bd072f0866f;["container_2_Emit_random_words_2"];5.25;1533066601.85627;59.62;258.08;2.61107828;10;149
5;paravance-6.rennes.grid5000.fr;thermos-root-devel-WordCountTopology-1-17b37294-c410-4db2-a120-b0c8d85e3c63;["container_1_Consume_and_count_1"];5.25;1533066611.97833;115.8;413.58;2.101166005;10;151
5;paravance-9.rennes.grid5000.fr;thermos-root-devel-WordCountTopology-2-0869c6ab-813d-4a5b-bceb-5bd072f0866f;["container_2_Emit_random_words_2"];5.25;1533066612.07424;63.87;276.0;2.61107828;10;149
5;paravance-8.rennes.grid5000.fr;thermos-root-devel-WordCountTopology-0-3a54f3cc-08ed-4754-bda3-63a5b282750f;["topology_master"];5.25;1533066612.19821;2.82;8.65;0.0;9;117
6;paravance-6.rennes.grid5000.fr;thermos-root-devel-WordCountTopology-1-17b37294-c410-4db2-a120-b0c8d85e3c63;["container_1_Consume_and_count_1"];5.25;1533066622.29403;123.96;441.22;2.101166005;10;151
6;paravance-9.rennes.grid5000.fr;thermos-root-devel-WordCountTopology-2-0869c6ab-813d-4a5b-bceb-5bd072f0866f;["container_2_Emit_random_words_2"];5.25;1533066622.29103;68.18;294.07;2.61107828;10;149
6;paravance-8.rennes.grid5000.fr;thermos-root-devel-WordCountTopology-0-3a54f3cc-08ed-4754-bda3-63a5b282750f;["topology_master"];5.25;1533066622.41486;2.85;8.68;0.0;9;117
7;paravance-6.rennes.grid5000.fr;thermos-root-devel-WordCountTopology-1-17b37294-c410-4db2-a120-b0c8d85e3c63;["container_1_Consume_and_count_1"];5.25;1533066632.509;131.42;468.51;2.101166005;10;151
7;paravance-8.rennes.grid5000.fr;thermos-root-devel-WordCountTopology-0-3a54f3cc-08ed-4754-bda3-63a5b282750f;["topology_master"];5.25;1533066632.6305;2.94;8.81;0.0;9;117
7;paravance-9.rennes.grid5000.fr;thermos-root-devel-WordCountTopology-2-0869c6ab-813d-4a5b-bceb-5bd072f0866f;["container_2_Emit_random_words_2"];5.25;1533066632.50861;72.47;312.16;2.61107828;10;149
8;paravance-9.rennes.grid5000.fr;thermos-root-devel-WordCountTopology-2-0869c6ab-813d-4a5b-bceb-5bd072f0866f;["container_2_Emit_random_words_2"];5.25;1533066642.72555;76.29;327.6;2.61107828;10;149
8;paravance-6.rennes.grid5000.fr;thermos-root-devel-WordCountTopology-1-17b37294-c410-4db2-a120-b0c8d85e3c63;["container_1_Consume_and_count_1"];5.25;1533066642.72853;138.81;499.05;2.114075166;10;151
8;paravance-8.rennes.grid5000.fr;thermos-root-devel-WordCountTopology-0-3a54f3cc-08ed-4754-bda3-63a5b282750f;["topology_master"];5.25;1533066642.84922;3.0;8.89;0.0;9;117
9;paravance-9.rennes.grid5000.fr;thermos-root-devel-WordCountTopology-2-0869c6ab-813d-4a5b-bceb-5bd072f0866f;["container_2_Emit_random_words_2"];5.25;1533066652.94082;80.56;345.34;2.61107828;10;149
9;paravance-6.rennes.grid5000.fr;thermos-root-devel-WordCountTopology-1-17b37294-c410-4db2-a120-b0c8d85e3c63;["container_1_Consume_and_count_1"];5.25;1533066652.9447;147.43;528.18;2.114075166;10;151
9;paravance-8.rennes.grid5000.fr;thermos-root-devel-WordCountTopology-0-3a54f3cc-08ed-4754-bda3-63a5b282750f;["topology_master"];5.25;1533066653.06443;3.06;8.97;0.0;9;117
10;paravance-9.rennes.grid5000.fr;thermos-root-devel-WordCountTopology-2-0869c6ab-813d-4a5b-bceb-5bd072f0866f;["container_2_Emit_random_words_2"];5.25;1533066663.16009;84.93;363.0;2.61107828;10;149
10;paravance-8.rennes.grid5000.fr;thermos-root-devel-WordCountTopology-0-3a54f3cc-08ed-4754-bda3-63a5b282750f;["topology_master"];5.25;1533066663.28215;3.12;9.05;0.0;9;117
10;paravance-6.rennes.grid5000.fr;thermos-root-devel-WordCountTopology-1-17b37294-c410-4db2-a120-b0c8d85e3c63;["container_1_Consume_and_count_1"];5.25;1533066663.16384;155.84;558.12;2.114075166;10;151
11;paravance-9.rennes.grid5000.fr;thermos-root-devel-WordCountTopology-2-0869c6ab-813d-4a5b-bceb-5bd072f0866f;["container_2_Emit_random_words_2"];5.25;1533066673.37721;89.07;380.88;2.61107828;10;149
11;paravance-6.rennes.grid5000.fr;thermos-root-devel-WordCountTopology-1-17b37294-c410-4db2-a120-b0c8d85e3c63;["container_1_Consume_and_count_1"];5.25;1533066673.3821;164.03;586.01;2.114075166;10;151
11;paravance-8.rennes.grid5000.fr;thermos-root-devel-WordCountTopology-0-3a54f3cc-08ed-4754-bda3-63a5b282750f;["topology_master"];5.25;1533066673.50235;3.24;9.37;0.0;9;117
12;paravance-8.rennes.grid5000.fr;thermos-root-devel-WordCountTopology-0-3a54f3cc-08ed-4754-bda3-63a5b282750f;["topology_master"];5.25;1533066683.61923;3.27;9.4;0.0;9;117
12;paravance-9.rennes.grid5000.fr;thermos-root-devel-WordCountTopology-2-0869c6ab-813d-4a5b-bceb-5bd072f0866f;["container_2_Emit_random_words_2"];5.25;1533066683.59568;93.35;398.46;2.61107828;10;149
12;paravance-6.rennes.grid5000.fr;thermos-root-devel-WordCountTopology-1-17b37294-c410-4db2-a120-b0c8d85e3c63;["container_1_Consume_and_count_1"];5.25;1533066683.60001;172.46;613.4;2.114075166;10;151
13;paravance-8.rennes.grid5000.fr;thermos-root-devel-WordCountTopology-0-3a54f3cc-08ed-4754-bda3-63a5b282750f;["topology_master"];5.25;1533066693.93616;3.37;9.57;0.0;9;117
13;paravance-6.rennes.grid5000.fr;thermos-root-devel-WordCountTopology-1-17b37294-c410-4db2-a120-b0c8d85e3c63;["container_1_Consume_and_count_1"];5.25;1533066693.81771;180.52;640.15;2.114075166;10;151
13;paravance-9.rennes.grid5000.fr;thermos-root-devel-WordCountTopology-2-0869c6ab-813d-4a5b-bceb-5bd072f0866f;["container_2_Emit_random_words_2"];5.25;1533066693.81417;97.53;416.48;2.61107828;10;149
14;paravance-8.rennes.grid5000.fr;thermos-root-devel-WordCountTopology-0-3a54f3cc-08ed-4754-bda3-63a5b282750f;["topology_master"];5.25;1533066704.05738;3.43;9.64;0.0;9;117
14;paravance-9.rennes.grid5000.fr;thermos-root-devel-WordCountTopology-2-0869c6ab-813d-4a5b-bceb-5bd072f0866f;["container_2_Emit_random_words_2"];5.25;1533066704.03328;101.86;434.28;2.61107828;10;149
14;paravance-6.rennes.grid5000.fr;thermos-root-devel-WordCountTopology-1-17b37294-c410-4db2-a120-b0c8d85e3c63;["container_1_Consume_and_count_1"];5.25;1533066704.03724;189.09;668.08;2.114075166;10;151
15;paravance-9.rennes.grid5000.fr;thermos-root-devel-WordCountTopology-2-0869c6ab-813d-4a5b-bceb-5bd072f0866f;["container_2_Emit_random_words_2"];5.25;1533066714.24875;106.04;452.46;2.61107828;10;149
15;paravance-6.rennes.grid5000.fr;thermos-root-devel-WordCountTopology-1-17b37294-c410-4db2-a120-b0c8d85e3c63;["container_1_Consume_and_count_1"];5.25;1533066714.25214;197.1;695.35;2.114075166;10;151
15;paravance-8.rennes.grid5000.fr;thermos-root-devel-WordCountTopology-0-3a54f3cc-08ed-4754-bda3-63a5b282750f;["topology_master"];5.25;1533066714.37216;3.49;9.74;0.0;9;117
16;paravance-9.rennes.grid5000.fr;thermos-root-devel-WordCountTopology-2-0869c6ab-813d-4a5b-bceb-5bd072f0866f;["container_2_Emit_random_words_2"];5.25;1533066724.46643;110.39;470.27;2.61107828;10;149
16;paravance-8.rennes.grid5000.fr;thermos-root-devel-WordCountTopology-0-3a54f3cc-08ed-4754-bda3-63a5b282750f;["topology_master"];5.25;1533066724.58834;3.55;9.82;0.0;9;117
16;paravance-6.rennes.grid5000.fr;thermos-root-devel-WordCountTopology-1-17b37294-c410-4db2-a120-b0c8d85e3c63;["container_1_Consume_and_count_1"];5.25;1533066724.47019;205.23;722.62;2.114075166;10;151
17;paravance-9.rennes.grid5000.fr;thermos-root-devel-WordCountTopology-2-0869c6ab-813d-4a5b-bceb-5bd072f0866f;["container_2_Emit_random_words_2"];5.25;1533066734.68316;114.72;488.17;2.61107828;10;149
17;paravance-6.rennes.grid5000.fr;thermos-root-devel-WordCountTopology-1-17b37294-c410-4db2-a120-b0c8d85e3c63;["container_1_Consume_and_count_1"];5.25;1533066734.68809;213.7;750.39;2.114075166;10;151
17;paravance-8.rennes.grid5000.fr;thermos-root-devel-WordCountTopology-0-3a54f3cc-08ed-4754-bda3-63a5b282750f;["topology_master"];5.25;1533066734.80674;3.67;10.02;0.0;9;117
18;paravance-6.rennes.grid5000.fr;thermos-root-devel-WordCountTopology-1-17b37294-c410-4db2-a120-b0c8d85e3c63;["container_1_Consume_and_count_1"];5.25;1533066744.90153;221.17;784.84;2.132831581;10;151
18;paravance-9.rennes.grid5000.fr;thermos-root-devel-WordCountTopology-2-0869c6ab-813d-4a5b-bceb-5bd072f0866f;["container_2_Emit_random_words_2"];5.25;1533066744.89816;118.56;504.92;2.61107828;10;149
18;paravance-8.rennes.grid5000.fr;thermos-root-devel-WordCountTopology-0-3a54f3cc-08ed-4754-bda3-63a5b282750f;["topology_master"];5.25;1533066745.02161;3.7;10.05;0.0;9;117
19;paravance-6.rennes.grid5000.fr;thermos-root-devel-WordCountTopology-1-17b37294-c410-4db2-a120-b0c8d85e3c63;["container_1_Consume_and_count_1"];5.25;1533066755.11645;229.47;818.21;2.132831581;10;151
19;paravance-8.rennes.grid5000.fr;thermos-root-devel-WordCountTopology-0-3a54f3cc-08ed-4754-bda3-63a5b282750f;["topology_master"];5.25;1533066755.23607;3.79;10.18;0.0;9;117
19;paravance-9.rennes.grid5000.fr;thermos-root-devel-WordCountTopology-2-0869c6ab-813d-4a5b-bceb-5bd072f0866f;["container_2_Emit_random_words_2"];5.25;1533066755.1147;122.99;522.73;2.61107828;10;149
20;paravance-6.rennes.grid5000.fr;thermos-root-devel-WordCountTopology-1-17b37294-c410-4db2-a120-b0c8d85e3c63;["container_1_Consume_and_count_1"];5.25;1533066765.33285;237.47;847.67;2.132831581;10;151
20;paravance-9.rennes.grid5000.fr;thermos-root-devel-WordCountTopology-2-0869c6ab-813d-4a5b-bceb-5bd072f0866f;["container_2_Emit_random_words_2"];5.25;1533066765.33102;127.3;540.57;2.61107828;10;149
20;paravance-8.rennes.grid5000.fr;thermos-root-devel-WordCountTopology-0-3a54f3cc-08ed-4754-bda3-63a5b282750f;["topology_master"];5.25;1533066765.45347;3.85;10.25;0.0;9;117
21;paravance-6.rennes.grid5000.fr;thermos-root-devel-WordCountTopology-1-17b37294-c410-4db2-a120-b0c8d85e3c63;["container_1_Consume_and_count_1"];5.25;1533066775.5519;245.52;875.16;2.132831581;10;151
21;paravance-9.rennes.grid5000.fr;thermos-root-devel-WordCountTopology-2-0869c6ab-813d-4a5b-bceb-5bd072f0866f;["container_2_Emit_random_words_2"];5.25;1533066775.54886;131.61;558.15;2.61107828;10;149
21;paravance-8.rennes.grid5000.fr;thermos-root-devel-WordCountTopology-0-3a54f3cc-08ed-4754-bda3-63a5b282750f;["topology_master"];5.25;1533066775.67145;3.91;10.33;0.0;9;117
22;paravance-6.rennes.grid5000.fr;thermos-root-devel-WordCountTopology-1-17b37294-c410-4db2-a120-b0c8d85e3c63;["container_1_Consume_and_count_1"];5.25;1533066785.7694;253.43;904.02;2.132831581;10;151
22;paravance-9.rennes.grid5000.fr;thermos-root-devel-WordCountTopology-2-0869c6ab-813d-4a5b-bceb-5bd072f0866f;["container_2_Emit_random_words_2"];5.25;1533066785.7664;136.03;575.8;2.61107828;10;149
22;paravance-8.rennes.grid5000.fr;thermos-root-devel-WordCountTopology-0-3a54f3cc-08ed-4754-bda3-63a5b282750f;["topology_master"];5.25;1533066785.88886;3.97;10.4;0.0;9;117
23;paravance-6.rennes.grid5000.fr;thermos-root-devel-WordCountTopology-1-17b37294-c410-4db2-a120-b0c8d85e3c63;["container_1_Consume_and_count_1"];5.25;1533066795.98374;261.51;932.33;2.132831581;10;151
23;paravance-9.rennes.grid5000.fr;thermos-root-devel-WordCountTopology-2-0869c6ab-813d-4a5b-bceb-5bd072f0866f;["container_2_Emit_random_words_2"];5.25;1533066795.9817;140.13;593.68;2.61107828;10;149
23;paravance-8.rennes.grid5000.fr;thermos-root-devel-WordCountTopology-0-3a54f3cc-08ed-4754-bda3-63a5b282750f;["topology_master"];5.25;1533066796.10371;4.08;10.57;0.0;9;117
24;paravance-6.rennes.grid5000.fr;thermos-root-devel-WordCountTopology-1-17b37294-c410-4db2-a120-b0c8d85e3c63;["container_1_Consume_and_count_1"];5.25;1533066806.20054;269.98;963.95;2.133985758;10;151
24;paravance-9.rennes.grid5000.fr;thermos-root-devel-WordCountTopology-2-0869c6ab-813d-4a5b-bceb-5bd072f0866f;["container_2_Emit_random_words_2"];5.25;1533066806.19827;144.48;611.31;2.61107828;10;149
24;paravance-8.rennes.grid5000.fr;thermos-root-devel-WordCountTopology-0-3a54f3cc-08ed-4754-bda3-63a5b282750f;["topology_master"];5.25;1533066806.32143;4.1;10.6;0.0;9;117
25;paravance-9.rennes.grid5000.fr;thermos-root-devel-WordCountTopology-2-0869c6ab-813d-4a5b-bceb-5bd072f0866f;["container_2_Emit_random_words_2"];5.25;1533066816.41409;148.47;628.98;2.61107828;10;149
25;paravance-6.rennes.grid5000.fr;thermos-root-devel-WordCountTopology-1-17b37294-c410-4db2-a120-b0c8d85e3c63;["container_1_Consume_and_count_1"];5.25;1533066816.41818;278.5;993.11;2.133985758;10;151
25;paravance-8.rennes.grid5000.fr;thermos-root-devel-WordCountTopology-0-3a54f3cc-08ed-4754-bda3-63a5b282750f;["topology_master"];5.25;1533066816.53874;4.2;10.73;0.0;9;117
26;paravance-6.rennes.grid5000.fr;thermos-root-devel-WordCountTopology-1-17b37294-c410-4db2-a120-b0c8d85e3c63;["container_1_Consume_and_count_1"];5.25;1533066826.63419;286.62;1021.31;2.133985758;10;151
26;paravance-9.rennes.grid5000.fr;thermos-root-devel-WordCountTopology-2-0869c6ab-813d-4a5b-bceb-5bd072f0866f;["container_2_Emit_random_words_2"];5.25;1533066826.63148;152.53;646.37;2.61107828;10;149
26;paravance-8.rennes.grid5000.fr;thermos-root-devel-WordCountTopology-0-3a54f3cc-08ed-4754-bda3-63a5b282750f;["topology_master"];5.25;1533066826.75393;4.26;10.8;0.0;9;117
27;paravance-6.rennes.grid5000.fr;thermos-root-devel-WordCountTopology-1-17b37294-c410-4db2-a120-b0c8d85e3c63;["container_1_Consume_and_count_1"];5.25;1533066836.8518;294.75;1049.98;2.157571255;10;151
27;paravance-9.rennes.grid5000.fr;thermos-root-devel-WordCountTopology-2-0869c6ab-813d-4a5b-bceb-5bd072f0866f;["container_2_Emit_random_words_2"];5.25;1533066836.84941;156.68;664.26;2.61107828;10;149
27;paravance-8.rennes.grid5000.fr;thermos-root-devel-WordCountTopology-0-3a54f3cc-08ed-4754-bda3-63a5b282750f;["topology_master"];5.25;1533066836.97118;4.32;10.89;0.0;9;117
28;paravance-6.rennes.grid5000.fr;thermos-root-devel-WordCountTopology-1-17b37294-c410-4db2-a120-b0c8d85e3c63;["container_1_Consume_and_count_1"];5.25;1533066847.06878;301.85;1085.11;2.176357958;10;151
28;paravance-8.rennes.grid5000.fr;thermos-root-devel-WordCountTopology-0-3a54f3cc-08ed-4754-bda3-63a5b282750f;["topology_master"];5.25;1533066847.18803;4.43;11.03;0.0;9;117
28;paravance-9.rennes.grid5000.fr;thermos-root-devel-WordCountTopology-2-0869c6ab-813d-4a5b-bceb-5bd072f0866f;["container_2_Emit_random_words_2"];5.25;1533066847.06534;160.4;679.54;2.61107828;10;149
29;paravance-9.rennes.grid5000.fr;thermos-root-devel-WordCountTopology-2-0869c6ab-813d-4a5b-bceb-5bd072f0866f;["container_2_Emit_random_words_2"];5.25;1533066857.28336;164.34;695.86;2.61107828;10;149
29;paravance-6.rennes.grid5000.fr;thermos-root-devel-WordCountTopology-1-17b37294-c410-4db2-a120-b0c8d85e3c63;["container_1_Consume_and_count_1"];5.25;1533066857.28775;309.14;1120.79;2.225842882;10;151
29;paravance-8.rennes.grid5000.fr;thermos-root-devel-WordCountTopology-0-3a54f3cc-08ed-4754-bda3-63a5b282750f;["topology_master"];5.25;1533066857.40635;4.49;11.17;0.0;9;117
30;paravance-9.rennes.grid5000.fr;thermos-root-devel-WordCountTopology-2-0869c6ab-813d-4a5b-bceb-5bd072f0866f;["container_2_Emit_random_words_2"];5.25;1533066867.50016;168.31;712.04;2.61107828;10;149
30;paravance-6.rennes.grid5000.fr;thermos-root-devel-WordCountTopology-1-17b37294-c410-4db2-a120-b0c8d85e3c63;["container_1_Consume_and_count_1"];5.25;1533066867.50643;316.71;1155.13;2.243859358;10;151
30;paravance-8.rennes.grid5000.fr;thermos-root-devel-WordCountTopology-0-3a54f3cc-08ed-4754-bda3-63a5b282750f;["topology_master"];5.25;1533066867.62427;4.55;11.24;0.0;9;117
31;paravance-6.rennes.grid5000.fr;thermos-root-devel-WordCountTopology-1-17b37294-c410-4db2-a120-b0c8d85e3c63;["container_1_Consume_and_count_1"];5.25;1533066877.72119;324.79;1187.75;2.247373721;10;151
31;paravance-8.rennes.grid5000.fr;thermos-root-devel-WordCountTopology-0-3a54f3cc-08ed-4754-bda3-63a5b282750f;["topology_master"];5.25;1533066877.84129;4.62;11.33;0.0;9;117
31;paravance-9.rennes.grid5000.fr;thermos-root-devel-WordCountTopology-2-0869c6ab-813d-4a5b-bceb-5bd072f0866f;["container_2_Emit_random_words_2"];5.25;1533066877.71815;172.48;728.79;2.61107828;10;149
32;paravance-9.rennes.grid5000.fr;thermos-root-devel-WordCountTopology-2-0869c6ab-813d-4a5b-bceb-5bd072f0866f;["container_2_Emit_random_words_2"];5.25;1533066887.93447;176.71;746.0;2.61107828;10;149
32;paravance-6.rennes.grid5000.fr;thermos-root-devel-WordCountTopology-1-17b37294-c410-4db2-a120-b0c8d85e3c63;["container_1_Consume_and_count_1"];5.25;1533066887.93779;332.47;1215.32;2.247447101;10;151
32;paravance-8.rennes.grid5000.fr;thermos-root-devel-WordCountTopology-0-3a54f3cc-08ed-4754-bda3-63a5b282750f;["topology_master"];5.25;1533066888.0571;4.71;11.45;0.0;9;117
33;paravance-6.rennes.grid5000.fr;thermos-root-devel-WordCountTopology-1-17b37294-c410-4db2-a120-b0c8d85e3c63;["container_1_Consume_and_count_1"];5.25;1533066898.15419;340.8;1244.34;2.247447101;10;151
33;paravance-9.rennes.grid5000.fr;thermos-root-devel-WordCountTopology-2-0869c6ab-813d-4a5b-bceb-5bd072f0866f;["container_2_Emit_random_words_2"];5.25;1533066898.15161;181.09;763.53;2.61107828;10;149
33;paravance-8.rennes.grid5000.fr;thermos-root-devel-WordCountTopology-0-3a54f3cc-08ed-4754-bda3-63a5b282750f;["topology_master"];5.25;1533066898.27472;4.73;11.48;0.0;9;117
34;paravance-6.rennes.grid5000.fr;thermos-root-devel-WordCountTopology-1-17b37294-c410-4db2-a120-b0c8d85e3c63;["container_1_Consume_and_count_1"];5.25;1533066908.37112;349.15;1273.42;2.247447101;10;151
34;paravance-9.rennes.grid5000.fr;thermos-root-devel-WordCountTopology-2-0869c6ab-813d-4a5b-bceb-5bd072f0866f;["container_2_Emit_random_words_2"];5.25;1533066908.36872;185.46;781.23;2.61107828;10;149
34;paravance-8.rennes.grid5000.fr;thermos-root-devel-WordCountTopology-0-3a54f3cc-08ed-4754-bda3-63a5b282750f;["topology_master"];5.25;1533066908.49082;4.83;11.61;0.0;9;117
35;paravance-6.rennes.grid5000.fr;thermos-root-devel-WordCountTopology-1-17b37294-c410-4db2-a120-b0c8d85e3c63;["container_1_Consume_and_count_1"];5.25;1533066918.58884;357.52;1303.1;2.247447101;10;151
35;paravance-9.rennes.grid5000.fr;thermos-root-devel-WordCountTopology-2-0869c6ab-813d-4a5b-bceb-5bd072f0866f;["container_2_Emit_random_words_2"];5.25;1533066918.58524;189.81;798.83;2.61107828;10;149
35;paravance-8.rennes.grid5000.fr;thermos-root-devel-WordCountTopology-0-3a54f3cc-08ed-4754-bda3-63a5b282750f;["topology_master"];5.25;1533066918.70804;4.89;11.74;0.0;9;117
36;paravance-6.rennes.grid5000.fr;thermos-root-devel-WordCountTopology-1-17b37294-c410-4db2-a120-b0c8d85e3c63;["container_1_Consume_and_count_1"];5.25;1533066928.80439;365.9;1333.69;2.247447101;10;151
36;paravance-9.rennes.grid5000.fr;thermos-root-devel-WordCountTopology-2-0869c6ab-813d-4a5b-bceb-5bd072f0866f;["container_2_Emit_random_words_2"];5.25;1533066928.80156;194.2;816.5;2.61107828;10;149
36;paravance-8.rennes.grid5000.fr;thermos-root-devel-WordCountTopology-0-3a54f3cc-08ed-4754-bda3-63a5b282750f;["topology_master"];5.25;1533066928.92613;4.98;11.86;0.0;9;117
37;paravance-9.rennes.grid5000.fr;thermos-root-devel-WordCountTopology-2-0869c6ab-813d-4a5b-bceb-5bd072f0866f;["container_2_Emit_random_words_2"];5.25;1533066938.91888;198.55;834.09;2.61107828;10;149
37;paravance-6.rennes.grid5000.fr;thermos-root-devel-WordCountTopology-1-17b37294-c410-4db2-a120-b0c8d85e3c63;["container_1_Consume_and_count_1"];5.25;1533066939.0211;374.53;1363.05;2.247447101;10;151
37;paravance-8.rennes.grid5000.fr;thermos-root-devel-WordCountTopology-0-3a54f3cc-08ed-4754-bda3-63a5b282750f;["topology_master"];5.25;1533066939.14092;5.01;11.89;0.0;9;117
38;paravance-6.rennes.grid5000.fr;thermos-root-devel-WordCountTopology-1-17b37294-c410-4db2-a120-b0c8d85e3c63;["container_1_Consume_and_count_1"];5.25;1533066949.23546;383.06;1393.76;2.247447101;10;151
38;paravance-9.rennes.grid5000.fr;thermos-root-devel-WordCountTopology-2-0869c6ab-813d-4a5b-bceb-5bd072f0866f;["container_2_Emit_random_words_2"];5.25;1533066949.23251;203.0;852.04;2.61107828;10;149
38;paravance-8.rennes.grid5000.fr;thermos-root-devel-WordCountTopology-0-3a54f3cc-08ed-4754-bda3-63a5b282750f;["topology_master"];5.25;1533066949.3548;5.1;12.01;0.0;9;117
39;paravance-6.rennes.grid5000.fr;thermos-root-devel-WordCountTopology-1-17b37294-c410-4db2-a120-b0c8d85e3c63;["container_1_Consume_and_count_1"];5.25;1533066959.45169;391.13;1424.97;2.29495235;10;151
39;paravance-8.rennes.grid5000.fr;thermos-root-devel-WordCountTopology-0-3a54f3cc-08ed-4754-bda3-63a5b282750f;["topology_master"];5.25;1533066959.56902;5.16;12.08;0.0;9;117
39;paravance-9.rennes.grid5000.fr;thermos-root-devel-WordCountTopology-2-0869c6ab-813d-4a5b-bceb-5bd072f0866f;["container_2_Emit_random_words_2"];5.25;1533066959.4484;207.02;869.02;2.61107828;10;149
40;paravance-8.rennes.grid5000.fr;thermos-root-devel-WordCountTopology-0-3a54f3cc-08ed-4754-bda3-63a5b282750f;["topology_master"];5.25;1533066969.78466;5.23;12.17;0.0;9;117
40;paravance-6.rennes.grid5000.fr;thermos-root-devel-WordCountTopology-1-17b37294-c410-4db2-a120-b0c8d85e3c63;["container_1_Consume_and_count_1"];5.25;1533066969.66702;400.04;1455.72;2.29495235;10;151
40;paravance-9.rennes.grid5000.fr;thermos-root-devel-WordCountTopology-2-0869c6ab-813d-4a5b-bceb-5bd072f0866f;["container_2_Emit_random_words_2"];5.25;1533066969.66304;211.34;886.12;2.61107828;10;149
41;paravance-6.rennes.grid5000.fr;thermos-root-devel-WordCountTopology-1-17b37294-c410-4db2-a120-b0c8d85e3c63;["container_1_Consume_and_count_1"];5.25;1533066979.88341;408.67;1486.12;2.29495235;10;151
41;paravance-9.rennes.grid5000.fr;thermos-root-devel-WordCountTopology-2-0869c6ab-813d-4a5b-bceb-5bd072f0866f;["container_2_Emit_random_words_2"];5.25;1533066979.87912;215.57;903.31;2.61107828;10;149
41;paravance-8.rennes.grid5000.fr;thermos-root-devel-WordCountTopology-0-3a54f3cc-08ed-4754-bda3-63a5b282750f;["topology_master"];5.25;1533066980.00241;5.29;12.31;0.0;9;117
42;paravance-6.rennes.grid5000.fr;thermos-root-devel-WordCountTopology-1-17b37294-c410-4db2-a120-b0c8d85e3c63;["container_1_Consume_and_count_1"];5.25;1533066990.09989;417.38;1517.41;2.29495235;10;151
42;paravance-9.rennes.grid5000.fr;thermos-root-devel-WordCountTopology-2-0869c6ab-813d-4a5b-bceb-5bd072f0866f;["container_2_Emit_random_words_2"];5.25;1533066990.09534;219.99;920.81;2.61107828;10;149
42;paravance-8.rennes.grid5000.fr;thermos-root-devel-WordCountTopology-0-3a54f3cc-08ed-4754-bda3-63a5b282750f;["topology_master"];5.25;1533066990.21907;5.38;12.43;0.0;9;117
43;paravance-9.rennes.grid5000.fr;thermos-root-devel-WordCountTopology-2-0869c6ab-813d-4a5b-bceb-5bd072f0866f;["container_2_Emit_random_words_2"];5.25;1533067000.31301;224.36;938.25;2.61107828;10;149
43;paravance-6.rennes.grid5000.fr;thermos-root-devel-WordCountTopology-1-17b37294-c410-4db2-a120-b0c8d85e3c63;["container_1_Consume_and_count_1"];5.25;1533067000.31927;425.76;1547.93;2.29495235;10;151
43;paravance-8.rennes.grid5000.fr;thermos-root-devel-WordCountTopology-0-3a54f3cc-08ed-4754-bda3-63a5b282750f;["topology_master"];5.25;1533067000.43708;5.41;12.46;0.0;9;117
44;paravance-6.rennes.grid5000.fr;thermos-root-devel-WordCountTopology-1-17b37294-c410-4db2-a120-b0c8d85e3c63;["container_1_Consume_and_count_1"];5.25;1533067010.53325;434.49;1578.89;2.29495235;10;151
44;paravance-9.rennes.grid5000.fr;thermos-root-devel-WordCountTopology-2-0869c6ab-813d-4a5b-bceb-5bd072f0866f;["container_2_Emit_random_words_2"];5.25;1533067010.53127;228.76;955.86;2.61107828;10;149
44;paravance-8.rennes.grid5000.fr;thermos-root-devel-WordCountTopology-0-3a54f3cc-08ed-4754-bda3-63a5b282750f;["topology_master"];5.25;1533067010.65372;5.5;12.58;0.0;9;117
45;paravance-6.rennes.grid5000.fr;thermos-root-devel-WordCountTopology-1-17b37294-c410-4db2-a120-b0c8d85e3c63;["container_1_Consume_and_count_1"];5.25;1533067020.74961;443.2;1608.67;2.29495235;10;151
45;paravance-9.rennes.grid5000.fr;thermos-root-devel-WordCountTopology-2-0869c6ab-813d-4a5b-bceb-5bd072f0866f;["container_2_Emit_random_words_2"];5.25;1533067020.74566;233.07;973.24;2.61107828;10;149
45;paravance-8.rennes.grid5000.fr;thermos-root-devel-WordCountTopology-0-3a54f3cc-08ed-4754-bda3-63a5b282750f;["topology_master"];5.25;1533067020.8682;5.56;12.66;0.0;9;117
46;paravance-6.rennes.grid5000.fr;thermos-root-devel-WordCountTopology-1-17b37294-c410-4db2-a120-b0c8d85e3c63;["container_1_Consume_and_count_1"];5.25;1533067030.96553;451.31;1635.63;2.29495235;10;151
46;paravance-9.rennes.grid5000.fr;thermos-root-devel-WordCountTopology-2-0869c6ab-813d-4a5b-bceb-5bd072f0866f;["container_2_Emit_random_words_2"];5.25;1533067030.96232;237.0;990.6;2.61107828;10;149
46;paravance-8.rennes.grid5000.fr;thermos-root-devel-WordCountTopology-0-3a54f3cc-08ed-4754-bda3-63a5b282750f;["topology_master"];5.25;1533067031.08452;5.62;12.74;0.0;9;117
47;paravance-6.rennes.grid5000.fr;thermos-root-devel-WordCountTopology-1-17b37294-c410-4db2-a120-b0c8d85e3c63;["container_1_Consume_and_count_1"];5.25;1533067041.17971;459.86;1664.39;2.29495235;10;151
47;paravance-8.rennes.grid5000.fr;thermos-root-devel-WordCountTopology-0-3a54f3cc-08ed-4754-bda3-63a5b282750f;["topology_master"];5.25;1533067041.2996;5.69;12.85;0.0;9;117
47;paravance-9.rennes.grid5000.fr;thermos-root-devel-WordCountTopology-2-0869c6ab-813d-4a5b-bceb-5bd072f0866f;["container_2_Emit_random_words_2"];5.25;1533067041.17902;241.41;1008.2;2.61107828;10;149
48;paravance-6.rennes.grid5000.fr;thermos-root-devel-WordCountTopology-1-17b37294-c410-4db2-a120-b0c8d85e3c63;["container_1_Consume_and_count_1"];5.25;1533067051.39687;466.62;1696.7;2.368298642;10;151
48;paravance-9.rennes.grid5000.fr;thermos-root-devel-WordCountTopology-2-0869c6ab-813d-4a5b-bceb-5bd072f0866f;["container_2_Emit_random_words_2"];5.25;1533067051.39234;245.12;1023.12;2.61107828;10;149
48;paravance-8.rennes.grid5000.fr;thermos-root-devel-WordCountTopology-0-3a54f3cc-08ed-4754-bda3-63a5b282750f;["topology_master"];5.25;1533067051.51469;5.78;12.97;0.0;9;117
49;paravance-6.rennes.grid5000.fr;thermos-root-devel-WordCountTopology-1-17b37294-c410-4db2-a120-b0c8d85e3c63;["container_1_Consume_and_count_1"];5.25;1533067061.6149;474.81;1724.74;2.368298642;10;151
49;paravance-8.rennes.grid5000.fr;thermos-root-devel-WordCountTopology-0-3a54f3cc-08ed-4754-bda3-63a5b282750f;["topology_master"];5.25;1533067061.73257;5.81;13.02;0.0;9;117
49;paravance-9.rennes.grid5000.fr;thermos-root-devel-WordCountTopology-2-0869c6ab-813d-4a5b-bceb-5bd072f0866f;["container_2_Emit_random_words_2"];5.25;1533067061.61153;249.2;1040.18;2.61107828;10;149
50;paravance-9.rennes.grid5000.fr;thermos-root-devel-WordCountTopology-2-0869c6ab-813d-4a5b-bceb-5bd072f0866f;["container_2_Emit_random_words_2"];5.25;1533067071.82782;253.59;1057.57;2.61107828;10;149
50;paravance-6.rennes.grid5000.fr;thermos-root-devel-WordCountTopology-1-17b37294-c410-4db2-a120-b0c8d85e3c63;["container_1_Consume_and_count_1"];5.25;1533067071.83121;482.89;1753.03;2.368298642;10;151
50;paravance-8.rennes.grid5000.fr;thermos-root-devel-WordCountTopology-0-3a54f3cc-08ed-4754-bda3-63a5b282750f;["topology_master"];5.25;1533067071.95083;5.9;13.15;0.0;9;117
51;paravance-6.rennes.grid5000.fr;thermos-root-devel-WordCountTopology-1-17b37294-c410-4db2-a120-b0c8d85e3c63;["container_1_Consume_and_count_1"];5.25;1533067082.04994;491.12;1780.25;2.368298642;10;151
51;paravance-9.rennes.grid5000.fr;thermos-root-devel-WordCountTopology-2-0869c6ab-813d-4a5b-bceb-5bd072f0866f;["container_2_Emit_random_words_2"];5.25;1533067082.04322;257.87;1075.01;2.61107828;10;149
51;paravance-8.rennes.grid5000.fr;thermos-root-devel-WordCountTopology-0-3a54f3cc-08ed-4754-bda3-63a5b282750f;["topology_master"];5.25;1533067082.16738;5.96;13.23;0.0;9;117
52;paravance-6.rennes.grid5000.fr;thermos-root-devel-WordCountTopology-1-17b37294-c410-4db2-a120-b0c8d85e3c63;["container_1_Consume_and_count_1"];5.25;1533067092.26449;499.14;1809.69;2.368298642;10;151
52;paravance-8.rennes.grid5000.fr;thermos-root-devel-WordCountTopology-0-3a54f3cc-08ed-4754-bda3-63a5b282750f;["topology_master"];5.25;1533067092.38347;6.03;13.34;0.0;9;117
52;paravance-9.rennes.grid5000.fr;thermos-root-devel-WordCountTopology-2-0869c6ab-813d-4a5b-bceb-5bd072f0866f;["container_2_Emit_random_words_2"];5.25;1533067092.26416;262.12;1092.51;2.61107828;10;149
53;paravance-9.rennes.grid5000.fr;thermos-root-devel-WordCountTopology-2-0869c6ab-813d-4a5b-bceb-5bd072f0866f;["container_2_Emit_random_words_2"];5.25;1533067102.47804;266.09;1109.93;2.61107828;10;149
53;paravance-8.rennes.grid5000.fr;thermos-root-devel-WordCountTopology-0-3a54f3cc-08ed-4754-bda3-63a5b282750f;["topology_master"];5.25;1533067102.60034;6.09;13.41;0.0;9;117
53;paravance-6.rennes.grid5000.fr;thermos-root-devel-WordCountTopology-1-17b37294-c410-4db2-a120-b0c8d85e3c63;["container_1_Consume_and_count_1"];5.25;1533067102.48496;507.28;1836.89;2.368298642;10;151
54;paravance-9.rennes.grid5000.fr;thermos-root-devel-WordCountTopology-2-0869c6ab-813d-4a5b-bceb-5bd072f0866f;["container_2_Emit_random_words_2"];5.25;1533067112.69428;270.49;1127.66;2.61107828;10;149
54;paravance-6.rennes.grid5000.fr;thermos-root-devel-WordCountTopology-1-17b37294-c410-4db2-a120-b0c8d85e3c63;["container_1_Consume_and_count_1"];5.25;1533067112.69978;515.71;1866.65;2.368298642;10;151
54;paravance-8.rennes.grid5000.fr;thermos-root-devel-WordCountTopology-0-3a54f3cc-08ed-4754-bda3-63a5b282750f;["topology_master"];5.25;1533067112.81741;6.18;13.54;0.0;9;117
55;paravance-6.rennes.grid5000.fr;thermos-root-devel-WordCountTopology-1-17b37294-c410-4db2-a120-b0c8d85e3c63;["container_1_Consume_and_count_1"];5.25;1533067122.91329;523.61;1897.7;2.368298642;10;151
55;paravance-8.rennes.grid5000.fr;thermos-root-devel-WordCountTopology-0-3a54f3cc-08ed-4754-bda3-63a5b282750f;["topology_master"];5.25;1533067123.03263;6.2;13.57;0.0;9;117
55;paravance-9.rennes.grid5000.fr;thermos-root-devel-WordCountTopology-2-0869c6ab-813d-4a5b-bceb-5bd072f0866f;["container_2_Emit_random_words_2"];5.25;1533067122.91167;274.82;1145.17;2.61107828;10;149
56;paravance-6.rennes.grid5000.fr;thermos-root-devel-WordCountTopology-1-17b37294-c410-4db2-a120-b0c8d85e3c63;["container_1_Consume_and_count_1"];5.25;1533067133.12886;532.16;1927.99;2.368298642;10;151
56;paravance-8.rennes.grid5000.fr;thermos-root-devel-WordCountTopology-0-3a54f3cc-08ed-4754-bda3-63a5b282750f;["topology_master"];5.25;1533067133.248;6.29;13.69;0.0;9;117
56;paravance-9.rennes.grid5000.fr;thermos-root-devel-WordCountTopology-2-0869c6ab-813d-4a5b-bceb-5bd072f0866f;["container_2_Emit_random_words_2"];5.25;1533067133.12737;279.23;1162.58;2.61107828;10;149
57;paravance-8.rennes.grid5000.fr;thermos-root-devel-WordCountTopology-0-3a54f3cc-08ed-4754-bda3-63a5b282750f;["topology_master"];5.25;1533067143.46397;6.35;13.77;0.0;9;117
57;paravance-9.rennes.grid5000.fr;thermos-root-devel-WordCountTopology-2-0869c6ab-813d-4a5b-bceb-5bd072f0866f;["container_2_Emit_random_words_2"];5.25;1533067143.34332;283.66;1180.09;2.61107828;10;149
57;paravance-6.rennes.grid5000.fr;thermos-root-devel-WordCountTopology-1-17b37294-c410-4db2-a120-b0c8d85e3c63;["container_1_Consume_and_count_1"];5.25;1533067143.34814;540.78;1956.92;2.368298642;10;151
58;paravance-8.rennes.grid5000.fr;thermos-root-devel-WordCountTopology-0-3a54f3cc-08ed-4754-bda3-63a5b282750f;["topology_master"];5.25;1533067153.6803;6.42;13.87;0.0;9;117
58;paravance-9.rennes.grid5000.fr;thermos-root-devel-WordCountTopology-2-0869c6ab-813d-4a5b-bceb-5bd072f0866f;["container_2_Emit_random_words_2"];5.25;1533067153.55901;288.09;1197.62;2.61107828;10;149
58;paravance-6.rennes.grid5000.fr;thermos-root-devel-WordCountTopology-1-17b37294-c410-4db2-a120-b0c8d85e3c63;["container_1_Consume_and_count_1"];5.25;1533067153.56468;549.24;1984.99;2.368298642;10;151
59;paravance-6.rennes.grid5000.fr;thermos-root-devel-WordCountTopology-1-17b37294-c410-4db2-a120-b0c8d85e3c63;["container_1_Consume_and_count_1"];5.25;1533067163.78112;557.48;2013.13;2.368298642;10;151
59;paravance-8.rennes.grid5000.fr;thermos-root-devel-WordCountTopology-0-3a54f3cc-08ed-4754-bda3-63a5b282750f;["topology_master"];5.25;1533067163.89908;6.48;13.94;0.0;9;117
59;paravance-9.rennes.grid5000.fr;thermos-root-devel-WordCountTopology-2-0869c6ab-813d-4a5b-bceb-5bd072f0866f;["container_2_Emit_random_words_2"];5.25;1533067163.77818;292.25;1214.91;2.61107828;10;149
60;paravance-9.rennes.grid5000.fr;thermos-root-devel-WordCountTopology-2-0869c6ab-813d-4a5b-bceb-5bd072f0866f;["container_2_Emit_random_words_2"];5.25;1533067173.9914;296.75;1232.43;2.61107828;10;149
60;paravance-6.rennes.grid5000.fr;thermos-root-devel-WordCountTopology-1-17b37294-c410-4db2-a120-b0c8d85e3c63;["container_1_Consume_and_count_1"];5.25;1533067173.99789;566.09;2041.49;2.368298642;10;151
60;paravance-8.rennes.grid5000.fr;thermos-root-devel-WordCountTopology-0-3a54f3cc-08ed-4754-bda3-63a5b282750f;["topology_master"];5.25;1533067174.11663;6.57;14.07;0.0;9;117
