mesure_id;slave_id;executor_id;heron_instances;cpus_limit;timestamp_B;cpus_system_time_secs_B;cpus_user_time_secs_B;cpus_throttled_time_secs_B;processes;threads
0;paravance-68.rennes.grid5000.fr;thermos-root-devel-WordCountTopology-2-fb27b7c3-888e-43bd-b5e4-24dc789b0330;["container_2_Emit_random_words_2"];3.25;1533761632.47887;34.84;179.44;6.318274948;10;149
0;paravance-31.rennes.grid5000.fr;thermos-root-devel-WordCountTopology-1-69d64526-e8f4-44f2-bae7-8aecdd803be4;["container_1_Consume_and_count_1"];3.25;1533761632.54274;62.94;234.72;91.322520003;10;151
0;paravance-4.rennes.grid5000.fr;thermos-root-devel-WordCountTopology-0-b98182fc-0215-4fe6-ade3-ef73ddb6882f;["topology_master"];3.25;1533761632.54091;2.46;8.04;0.315077631;9;117
1;paravance-31.rennes.grid5000.fr;thermos-root-devel-WordCountTopology-1-69d64526-e8f4-44f2-bae7-8aecdd803be4;["container_1_Consume_and_count_1"];3.25;1533761642.75891;69.7;259.43;102.180100488;10;151
1;paravance-4.rennes.grid5000.fr;thermos-root-devel-WordCountTopology-0-b98182fc-0215-4fe6-ade3-ef73ddb6882f;["topology_master"];3.25;1533761642.75724;2.56;8.18;0.315077631;9;117
1;paravance-68.rennes.grid5000.fr;thermos-root-devel-WordCountTopology-2-fb27b7c3-888e-43bd-b5e4-24dc789b0330;["container_2_Emit_random_words_2"];3.25;1533761642.69736;38.65;197.23;6.318274948;10;149
2;paravance-68.rennes.grid5000.fr;thermos-root-devel-WordCountTopology-2-fb27b7c3-888e-43bd-b5e4-24dc789b0330;["container_2_Emit_random_words_2"];3.25;1533761652.91167;42.33;214.89;6.318274948;10;149
2;paravance-4.rennes.grid5000.fr;thermos-root-devel-WordCountTopology-0-b98182fc-0215-4fe6-ade3-ef73ddb6882f;["topology_master"];3.25;1533761652.97427;2.59;8.22;0.315077631;9;117
2;paravance-31.rennes.grid5000.fr;thermos-root-devel-WordCountTopology-1-69d64526-e8f4-44f2-bae7-8aecdd803be4;["container_1_Consume_and_count_1"];3.25;1533761652.97698;76.31;284.26;111.309872398;10;151
3;paravance-68.rennes.grid5000.fr;thermos-root-devel-WordCountTopology-2-fb27b7c3-888e-43bd-b5e4-24dc789b0330;["container_2_Emit_random_words_2"];3.25;1533761663.02615;46.13;232.52;6.318274948;10;149
3;paravance-31.rennes.grid5000.fr;thermos-root-devel-WordCountTopology-1-69d64526-e8f4-44f2-bae7-8aecdd803be4;["container_1_Consume_and_count_1"];3.25;1533761663.19246;82.83;309.31;121.239961133;10;151
3;paravance-4.rennes.grid5000.fr;thermos-root-devel-WordCountTopology-0-b98182fc-0215-4fe6-ade3-ef73ddb6882f;["topology_master"];3.25;1533761663.18979;2.69;8.35;0.315077631;9;117
4;paravance-68.rennes.grid5000.fr;thermos-root-devel-WordCountTopology-2-fb27b7c3-888e-43bd-b5e4-24dc789b0330;["container_2_Emit_random_words_2"];3.25;1533761673.34258;49.99;250.4;6.318274948;10;149
4;paravance-31.rennes.grid5000.fr;thermos-root-devel-WordCountTopology-1-69d64526-e8f4-44f2-bae7-8aecdd803be4;["container_1_Consume_and_count_1"];3.25;1533761673.40683;89.28;334.34;130.944448467;10;151
4;paravance-4.rennes.grid5000.fr;thermos-root-devel-WordCountTopology-0-b98182fc-0215-4fe6-ade3-ef73ddb6882f;["topology_master"];3.25;1533761673.40418;2.74;8.43;0.315077631;9;117
5;paravance-31.rennes.grid5000.fr;thermos-root-devel-WordCountTopology-1-69d64526-e8f4-44f2-bae7-8aecdd803be4;["container_1_Consume_and_count_1"];3.25;1533761683.62261;95.62;359.5;143.20444249;10;151
5;paravance-68.rennes.grid5000.fr;thermos-root-devel-WordCountTopology-2-fb27b7c3-888e-43bd-b5e4-24dc789b0330;["container_2_Emit_random_words_2"];3.25;1533761683.56363;53.72;267.75;6.318274948;10;149
5;paravance-4.rennes.grid5000.fr;thermos-root-devel-WordCountTopology-0-b98182fc-0215-4fe6-ade3-ef73ddb6882f;["topology_master"];3.25;1533761683.62661;2.84;8.59;0.315077631;9;117
6;paravance-31.rennes.grid5000.fr;thermos-root-devel-WordCountTopology-1-69d64526-e8f4-44f2-bae7-8aecdd803be4;["container_1_Consume_and_count_1"];3.25;1533761693.84432;101.71;384.92;154.748269479;10;151
6;paravance-68.rennes.grid5000.fr;thermos-root-devel-WordCountTopology-2-fb27b7c3-888e-43bd-b5e4-24dc789b0330;["container_2_Emit_random_words_2"];3.25;1533761693.77842;57.27;284.51;6.318274948;10;149
6;paravance-4.rennes.grid5000.fr;thermos-root-devel-WordCountTopology-0-b98182fc-0215-4fe6-ade3-ef73ddb6882f;["topology_master"];3.25;1533761693.84385;2.9;8.68;0.315077631;9;117
7;paravance-31.rennes.grid5000.fr;thermos-root-devel-WordCountTopology-1-69d64526-e8f4-44f2-bae7-8aecdd803be4;["container_1_Consume_and_count_1"];3.25;1533761704.06192;108.23;409.9;166.538602051;10;151
7;paravance-4.rennes.grid5000.fr;thermos-root-devel-WordCountTopology-0-b98182fc-0215-4fe6-ade3-ef73ddb6882f;["topology_master"];3.25;1533761704.06045;3.0;8.81;0.315077631;9;117
7;paravance-68.rennes.grid5000.fr;thermos-root-devel-WordCountTopology-2-fb27b7c3-888e-43bd-b5e4-24dc789b0330;["container_2_Emit_random_words_2"];3.25;1533761703.99795;61.01;300.97;6.318274948;10;149
8;paravance-4.rennes.grid5000.fr;thermos-root-devel-WordCountTopology-0-b98182fc-0215-4fe6-ade3-ef73ddb6882f;["topology_master"];3.25;1533761714.17795;3.03;8.84;0.315077631;9;117
8;paravance-31.rennes.grid5000.fr;thermos-root-devel-WordCountTopology-1-69d64526-e8f4-44f2-bae7-8aecdd803be4;["container_1_Consume_and_count_1"];3.25;1533761714.27939;114.57;435.11;178.338253693;10;151
8;paravance-68.rennes.grid5000.fr;thermos-root-devel-WordCountTopology-2-fb27b7c3-888e-43bd-b5e4-24dc789b0330;["container_2_Emit_random_words_2"];3.25;1533761714.21718;64.7;318.02;6.318274948;10;149
9;paravance-31.rennes.grid5000.fr;thermos-root-devel-WordCountTopology-1-69d64526-e8f4-44f2-bae7-8aecdd803be4;["container_1_Consume_and_count_1"];3.25;1533761724.49773;120.98;460.08;189.732687521;10;151
9;paravance-4.rennes.grid5000.fr;thermos-root-devel-WordCountTopology-0-b98182fc-0215-4fe6-ade3-ef73ddb6882f;["topology_master"];3.25;1533761724.49554;3.12;8.96;0.315077631;9;117
9;paravance-68.rennes.grid5000.fr;thermos-root-devel-WordCountTopology-2-fb27b7c3-888e-43bd-b5e4-24dc789b0330;["container_2_Emit_random_words_2"];3.25;1533761724.43482;68.27;334.0;6.318274948;10;149
10;paravance-31.rennes.grid5000.fr;thermos-root-devel-WordCountTopology-1-69d64526-e8f4-44f2-bae7-8aecdd803be4;["container_1_Consume_and_count_1"];3.25;1533761734.71363;127.35;485.33;202.80787619;10;151
10;paravance-68.rennes.grid5000.fr;thermos-root-devel-WordCountTopology-2-fb27b7c3-888e-43bd-b5e4-24dc789b0330;["container_2_Emit_random_words_2"];3.25;1533761734.65114;71.81;350.39;6.318274948;10;149
10;paravance-4.rennes.grid5000.fr;thermos-root-devel-WordCountTopology-0-b98182fc-0215-4fe6-ade3-ef73ddb6882f;["topology_master"];3.25;1533761734.71343;3.17;9.04;0.315077631;9;117
11;paravance-68.rennes.grid5000.fr;thermos-root-devel-WordCountTopology-2-fb27b7c3-888e-43bd-b5e4-24dc789b0330;["container_2_Emit_random_words_2"];3.25;1533761744.76615;75.31;366.4;6.318274948;10;149
11;paravance-31.rennes.grid5000.fr;thermos-root-devel-WordCountTopology-1-69d64526-e8f4-44f2-bae7-8aecdd803be4;["container_1_Consume_and_count_1"];3.25;1533761744.92911;133.62;510.66;215.854142531;10;151
11;paravance-4.rennes.grid5000.fr;thermos-root-devel-WordCountTopology-0-b98182fc-0215-4fe6-ade3-ef73ddb6882f;["topology_master"];3.25;1533761744.92791;3.3;9.34;0.315077631;9;117
12;paravance-4.rennes.grid5000.fr;thermos-root-devel-WordCountTopology-0-b98182fc-0215-4fe6-ade3-ef73ddb6882f;["topology_master"];3.25;1533761755.14302;3.32;9.36;0.315077631;9;117
12;paravance-68.rennes.grid5000.fr;thermos-root-devel-WordCountTopology-2-fb27b7c3-888e-43bd-b5e4-24dc789b0330;["container_2_Emit_random_words_2"];3.25;1533761755.08186;78.8;381.96;6.318274948;10;149
12;paravance-31.rennes.grid5000.fr;thermos-root-devel-WordCountTopology-1-69d64526-e8f4-44f2-bae7-8aecdd803be4;["container_1_Consume_and_count_1"];3.25;1533761755.14729;139.61;536.35;229.427396569;10;151
13;paravance-31.rennes.grid5000.fr;thermos-root-devel-WordCountTopology-1-69d64526-e8f4-44f2-bae7-8aecdd803be4;["container_1_Consume_and_count_1"];3.25;1533761765.36421;146.02;561.43;242.622699817;10;151
13;paravance-68.rennes.grid5000.fr;thermos-root-devel-WordCountTopology-2-fb27b7c3-888e-43bd-b5e4-24dc789b0330;["container_2_Emit_random_words_2"];3.25;1533761765.29917;82.33;398.26;6.318274948;10;149
13;paravance-4.rennes.grid5000.fr;thermos-root-devel-WordCountTopology-0-b98182fc-0215-4fe6-ade3-ef73ddb6882f;["topology_master"];3.25;1533761765.36313;3.42;9.53;0.315077631;9;117
14;paravance-31.rennes.grid5000.fr;thermos-root-devel-WordCountTopology-1-69d64526-e8f4-44f2-bae7-8aecdd803be4;["container_1_Consume_and_count_1"];3.25;1533761775.57987;152.32;586.24;257.316284582;10;151
14;paravance-4.rennes.grid5000.fr;thermos-root-devel-WordCountTopology-0-b98182fc-0215-4fe6-ade3-ef73ddb6882f;["topology_master"];3.25;1533761775.57718;3.48;9.6;0.315077631;9;117
14;paravance-68.rennes.grid5000.fr;thermos-root-devel-WordCountTopology-2-fb27b7c3-888e-43bd-b5e4-24dc789b0330;["container_2_Emit_random_words_2"];3.25;1533761775.5161;85.86;414.37;6.318274948;10;149
15;paravance-4.rennes.grid5000.fr;thermos-root-devel-WordCountTopology-0-b98182fc-0215-4fe6-ade3-ef73ddb6882f;["topology_master"];3.25;1533761785.79259;3.54;9.69;0.315077631;9;117
15;paravance-31.rennes.grid5000.fr;thermos-root-devel-WordCountTopology-1-69d64526-e8f4-44f2-bae7-8aecdd803be4;["container_1_Consume_and_count_1"];3.25;1533761785.79598;155.92;607.2;262.376692322;10;151
15;paravance-68.rennes.grid5000.fr;thermos-root-devel-WordCountTopology-2-fb27b7c3-888e-43bd-b5e4-24dc789b0330;["container_2_Emit_random_words_2"];3.25;1533761785.73226;88.08;424.86;6.318274948;10;149
16;paravance-31.rennes.grid5000.fr;thermos-root-devel-WordCountTopology-1-69d64526-e8f4-44f2-bae7-8aecdd803be4;["container_1_Consume_and_count_1"];3.25;1533761796.00991;159.6;627.87;266.740040816;10;151
16;paravance-4.rennes.grid5000.fr;thermos-root-devel-WordCountTopology-0-b98182fc-0215-4fe6-ade3-ef73ddb6882f;["topology_master"];3.25;1533761796.00897;3.6;9.77;0.315077631;9;117
16;paravance-68.rennes.grid5000.fr;thermos-root-devel-WordCountTopology-2-fb27b7c3-888e-43bd-b5e4-24dc789b0330;["container_2_Emit_random_words_2"];3.25;1533761795.94726;90.06;433.92;6.318274948;10;149
17;paravance-31.rennes.grid5000.fr;thermos-root-devel-WordCountTopology-1-69d64526-e8f4-44f2-bae7-8aecdd803be4;["container_1_Consume_and_count_1"];3.25;1533761806.22508;163.31;649.08;270.87185444;10;151
17;paravance-68.rennes.grid5000.fr;thermos-root-devel-WordCountTopology-2-fb27b7c3-888e-43bd-b5e4-24dc789b0330;["container_2_Emit_random_words_2"];3.25;1533761806.16378;92.26;444.49;6.318274948;10;149
17;paravance-4.rennes.grid5000.fr;thermos-root-devel-WordCountTopology-0-b98182fc-0215-4fe6-ade3-ef73ddb6882f;["topology_master"];3.25;1533761806.22582;3.72;9.96;0.315077631;9;117
18;paravance-31.rennes.grid5000.fr;thermos-root-devel-WordCountTopology-1-69d64526-e8f4-44f2-bae7-8aecdd803be4;["container_1_Consume_and_count_1"];3.25;1533761816.44328;167.12;670.4;275.755295605;10;151
18;paravance-68.rennes.grid5000.fr;thermos-root-devel-WordCountTopology-2-fb27b7c3-888e-43bd-b5e4-24dc789b0330;["container_2_Emit_random_words_2"];3.25;1533761816.37976;94.36;454.75;6.318274948;10;149
18;paravance-4.rennes.grid5000.fr;thermos-root-devel-WordCountTopology-0-b98182fc-0215-4fe6-ade3-ef73ddb6882f;["topology_master"];3.25;1533761816.44102;3.75;9.99;0.315077631;9;117
19;paravance-68.rennes.grid5000.fr;thermos-root-devel-WordCountTopology-2-fb27b7c3-888e-43bd-b5e4-24dc789b0330;["container_2_Emit_random_words_2"];3.25;1533761826.49573;96.86;466.25;6.318274948;10;149
19;paravance-31.rennes.grid5000.fr;thermos-root-devel-WordCountTopology-1-69d64526-e8f4-44f2-bae7-8aecdd803be4;["container_1_Consume_and_count_1"];3.25;1533761826.6598;171.41;691.41;280.712231387;10;151
19;paravance-4.rennes.grid5000.fr;thermos-root-devel-WordCountTopology-0-b98182fc-0215-4fe6-ade3-ef73ddb6882f;["topology_master"];3.25;1533761826.65813;3.85;10.12;0.315077631;9;117
20;paravance-31.rennes.grid5000.fr;thermos-root-devel-WordCountTopology-1-69d64526-e8f4-44f2-bae7-8aecdd803be4;["container_1_Consume_and_count_1"];3.25;1533761836.87461;175.48;712.53;285.419638538;10;151
20;paravance-68.rennes.grid5000.fr;thermos-root-devel-WordCountTopology-2-fb27b7c3-888e-43bd-b5e4-24dc789b0330;["container_2_Emit_random_words_2"];3.25;1533761836.81005;99.15;477.48;6.326308503;10;149
20;paravance-4.rennes.grid5000.fr;thermos-root-devel-WordCountTopology-0-b98182fc-0215-4fe6-ade3-ef73ddb6882f;["topology_master"];3.25;1533761836.87567;3.91;10.19;0.315077631;9;117
21;paravance-31.rennes.grid5000.fr;thermos-root-devel-WordCountTopology-1-69d64526-e8f4-44f2-bae7-8aecdd803be4;["container_1_Consume_and_count_1"];3.25;1533761846.99447;179.53;733.86;289.83255495;10;151
21;paravance-68.rennes.grid5000.fr;thermos-root-devel-WordCountTopology-2-fb27b7c3-888e-43bd-b5e4-24dc789b0330;["container_2_Emit_random_words_2"];3.25;1533761847.03055;101.5;488.74;6.326308503;10;149
21;paravance-4.rennes.grid5000.fr;thermos-root-devel-WordCountTopology-0-b98182fc-0215-4fe6-ade3-ef73ddb6882f;["topology_master"];3.25;1533761847.09187;3.97;10.28;0.315077631;9;117
22;paravance-31.rennes.grid5000.fr;thermos-root-devel-WordCountTopology-1-69d64526-e8f4-44f2-bae7-8aecdd803be4;["container_1_Consume_and_count_1"];3.25;1533761857.30961;183.41;755.59;295.241997801;10;151
22;paravance-4.rennes.grid5000.fr;thermos-root-devel-WordCountTopology-0-b98182fc-0215-4fe6-ade3-ef73ddb6882f;["topology_master"];3.25;1533761857.30756;4.03;10.35;0.315077631;9;117
22;paravance-68.rennes.grid5000.fr;thermos-root-devel-WordCountTopology-2-fb27b7c3-888e-43bd-b5e4-24dc789b0330;["container_2_Emit_random_words_2"];3.25;1533761857.2466;103.65;498.85;6.326308503;10;149
23;paravance-31.rennes.grid5000.fr;thermos-root-devel-WordCountTopology-1-69d64526-e8f4-44f2-bae7-8aecdd803be4;["container_1_Consume_and_count_1"];3.25;1533761867.5259;187.47;776.99;301.040112612;10;151
23;paravance-4.rennes.grid5000.fr;thermos-root-devel-WordCountTopology-0-b98182fc-0215-4fe6-ade3-ef73ddb6882f;["topology_master"];3.25;1533761867.52487;4.14;10.52;0.315077631;9;117
23;paravance-68.rennes.grid5000.fr;thermos-root-devel-WordCountTopology-2-fb27b7c3-888e-43bd-b5e4-24dc789b0330;["container_2_Emit_random_words_2"];3.25;1533761867.46361;105.98;509.59;6.326308503;10;149
24;paravance-68.rennes.grid5000.fr;thermos-root-devel-WordCountTopology-2-fb27b7c3-888e-43bd-b5e4-24dc789b0330;["container_2_Emit_random_words_2"];3.25;1533761877.6808;108.44;520.52;6.326308503;10;149
24;paravance-31.rennes.grid5000.fr;thermos-root-devel-WordCountTopology-1-69d64526-e8f4-44f2-bae7-8aecdd803be4;["container_1_Consume_and_count_1"];3.25;1533761877.7459;191.18;799.08;306.559062051;10;151
24;paravance-4.rennes.grid5000.fr;thermos-root-devel-WordCountTopology-0-b98182fc-0215-4fe6-ade3-ef73ddb6882f;["topology_master"];3.25;1533761877.74241;4.16;10.55;0.315077631;9;117
25;paravance-31.rennes.grid5000.fr;thermos-root-devel-WordCountTopology-1-69d64526-e8f4-44f2-bae7-8aecdd803be4;["container_1_Consume_and_count_1"];3.25;1533761887.96338;194.93;821.16;312.322200751;10;151
25;paravance-68.rennes.grid5000.fr;thermos-root-devel-WordCountTopology-2-fb27b7c3-888e-43bd-b5e4-24dc789b0330;["container_2_Emit_random_words_2"];3.25;1533761887.89967;110.72;530.79;6.326308503;10;149
25;paravance-4.rennes.grid5000.fr;thermos-root-devel-WordCountTopology-0-b98182fc-0215-4fe6-ade3-ef73ddb6882f;["topology_master"];3.25;1533761887.96134;4.26;10.68;0.315077631;9;117
26;paravance-68.rennes.grid5000.fr;thermos-root-devel-WordCountTopology-2-fb27b7c3-888e-43bd-b5e4-24dc789b0330;["container_2_Emit_random_words_2"];3.25;1533761898.11743;113.0;541.59;6.326308503;10;149
26;paravance-31.rennes.grid5000.fr;thermos-root-devel-WordCountTopology-1-69d64526-e8f4-44f2-bae7-8aecdd803be4;["container_1_Consume_and_count_1"];3.25;1533761898.18206;198.78;842.52;317.116952722;10;151
26;paravance-4.rennes.grid5000.fr;thermos-root-devel-WordCountTopology-0-b98182fc-0215-4fe6-ade3-ef73ddb6882f;["topology_master"];3.25;1533761898.18034;4.32;10.76;0.315077631;9;117
27;paravance-31.rennes.grid5000.fr;thermos-root-devel-WordCountTopology-1-69d64526-e8f4-44f2-bae7-8aecdd803be4;["container_1_Consume_and_count_1"];3.25;1533761908.39961;202.54;864.35;323.298836712;10;151
27;paravance-4.rennes.grid5000.fr;thermos-root-devel-WordCountTopology-0-b98182fc-0215-4fe6-ade3-ef73ddb6882f;["topology_master"];3.25;1533761908.39757;4.38;10.83;0.315077631;9;117
27;paravance-68.rennes.grid5000.fr;thermos-root-devel-WordCountTopology-2-fb27b7c3-888e-43bd-b5e4-24dc789b0330;["container_2_Emit_random_words_2"];3.25;1533761908.33743;115.16;551.86;6.326308503;10;149
28;paravance-31.rennes.grid5000.fr;thermos-root-devel-WordCountTopology-1-69d64526-e8f4-44f2-bae7-8aecdd803be4;["container_1_Consume_and_count_1"];3.25;1533761918.61776;206.43;886.21;328.452759368;10;151
28;paravance-4.rennes.grid5000.fr;thermos-root-devel-WordCountTopology-0-b98182fc-0215-4fe6-ade3-ef73ddb6882f;["topology_master"];3.25;1533761918.61517;4.49;10.97;0.315077631;9;117
28;paravance-68.rennes.grid5000.fr;thermos-root-devel-WordCountTopology-2-fb27b7c3-888e-43bd-b5e4-24dc789b0330;["container_2_Emit_random_words_2"];3.25;1533761918.55461;117.29;562.21;6.342348936;10;149
29;paravance-31.rennes.grid5000.fr;thermos-root-devel-WordCountTopology-1-69d64526-e8f4-44f2-bae7-8aecdd803be4;["container_1_Consume_and_count_1"];3.25;1533761928.835;210.27;907.47;333.701484863;10;151
29;paravance-4.rennes.grid5000.fr;thermos-root-devel-WordCountTopology-0-b98182fc-0215-4fe6-ade3-ef73ddb6882f;["topology_master"];3.25;1533761928.83306;4.55;11.11;0.315077631;9;117
29;paravance-68.rennes.grid5000.fr;thermos-root-devel-WordCountTopology-2-fb27b7c3-888e-43bd-b5e4-24dc789b0330;["container_2_Emit_random_words_2"];3.25;1533761928.77192;119.38;572.16;6.342348936;10;149
30;paravance-68.rennes.grid5000.fr;thermos-root-devel-WordCountTopology-2-fb27b7c3-888e-43bd-b5e4-24dc789b0330;["container_2_Emit_random_words_2"];3.25;1533761938.98865;121.54;582.41;6.414851155;10;149
30;paravance-31.rennes.grid5000.fr;thermos-root-devel-WordCountTopology-1-69d64526-e8f4-44f2-bae7-8aecdd803be4;["container_1_Consume_and_count_1"];3.25;1533761939.05387;214.12;928.95;338.90808025;10;151
30;paravance-4.rennes.grid5000.fr;thermos-root-devel-WordCountTopology-0-b98182fc-0215-4fe6-ade3-ef73ddb6882f;["topology_master"];3.25;1533761939.05039;4.61;11.19;0.315077631;9;117
31;paravance-68.rennes.grid5000.fr;thermos-root-devel-WordCountTopology-2-fb27b7c3-888e-43bd-b5e4-24dc789b0330;["container_2_Emit_random_words_2"];3.25;1533761949.20397;123.73;592.8;6.414851155;10;149
31;paravance-31.rennes.grid5000.fr;thermos-root-devel-WordCountTopology-1-69d64526-e8f4-44f2-bae7-8aecdd803be4;["container_1_Consume_and_count_1"];3.25;1533761949.2698;218.25;950.47;345.30416822;10;151
31;paravance-4.rennes.grid5000.fr;thermos-root-devel-WordCountTopology-0-b98182fc-0215-4fe6-ade3-ef73ddb6882f;["topology_master"];3.25;1533761949.26778;4.67;11.27;0.315077631;9;117
32;paravance-31.rennes.grid5000.fr;thermos-root-devel-WordCountTopology-1-69d64526-e8f4-44f2-bae7-8aecdd803be4;["container_1_Consume_and_count_1"];3.25;1533761959.38399;222.2;971.67;350.53403759;10;151
32;paravance-68.rennes.grid5000.fr;thermos-root-devel-WordCountTopology-2-fb27b7c3-888e-43bd-b5e4-24dc789b0330;["container_2_Emit_random_words_2"];3.25;1533761959.41966;126.02;603.78;6.414851155;10;149
32;paravance-4.rennes.grid5000.fr;thermos-root-devel-WordCountTopology-0-b98182fc-0215-4fe6-ade3-ef73ddb6882f;["topology_master"];3.25;1533761959.48211;4.77;11.4;0.315077631;9;117
33;paravance-31.rennes.grid5000.fr;thermos-root-devel-WordCountTopology-1-69d64526-e8f4-44f2-bae7-8aecdd803be4;["container_1_Consume_and_count_1"];3.25;1533761969.6995;226.15;994.29;355.683468742;10;151
33;paravance-4.rennes.grid5000.fr;thermos-root-devel-WordCountTopology-0-b98182fc-0215-4fe6-ade3-ef73ddb6882f;["topology_master"];3.25;1533761969.69775;4.8;11.42;0.315077631;9;117
33;paravance-68.rennes.grid5000.fr;thermos-root-devel-WordCountTopology-2-fb27b7c3-888e-43bd-b5e4-24dc789b0330;["container_2_Emit_random_words_2"];3.25;1533761969.6379;128.05;613.59;6.414851155;10;149
34;paravance-31.rennes.grid5000.fr;thermos-root-devel-WordCountTopology-1-69d64526-e8f4-44f2-bae7-8aecdd803be4;["container_1_Consume_and_count_1"];3.25;1533761979.91827;230.38;1015.37;359.98684759;10;151
34;paravance-68.rennes.grid5000.fr;thermos-root-devel-WordCountTopology-2-fb27b7c3-888e-43bd-b5e4-24dc789b0330;["container_2_Emit_random_words_2"];3.25;1533761979.85381;130.42;624.79;6.414851155;10;149
34;paravance-4.rennes.grid5000.fr;thermos-root-devel-WordCountTopology-0-b98182fc-0215-4fe6-ade3-ef73ddb6882f;["topology_master"];3.25;1533761979.91664;4.9;11.56;0.315077631;9;117
35;paravance-31.rennes.grid5000.fr;thermos-root-devel-WordCountTopology-1-69d64526-e8f4-44f2-bae7-8aecdd803be4;["container_1_Consume_and_count_1"];3.25;1533761990.13538;234.13;1036.31;364.990824669;10;151
35;paravance-4.rennes.grid5000.fr;thermos-root-devel-WordCountTopology-0-b98182fc-0215-4fe6-ade3-ef73ddb6882f;["topology_master"];3.25;1533761990.13253;4.96;11.68;0.315077631;9;117
35;paravance-68.rennes.grid5000.fr;thermos-root-devel-WordCountTopology-2-fb27b7c3-888e-43bd-b5e4-24dc789b0330;["container_2_Emit_random_words_2"];3.25;1533761990.07206;132.42;634.66;6.414851155;10;149
36;paravance-31.rennes.grid5000.fr;thermos-root-devel-WordCountTopology-1-69d64526-e8f4-44f2-bae7-8aecdd803be4;["container_1_Consume_and_count_1"];3.25;1533762000.35334;237.71;1058.38;370.901729037;10;151
36;paravance-4.rennes.grid5000.fr;thermos-root-devel-WordCountTopology-0-b98182fc-0215-4fe6-ade3-ef73ddb6882f;["topology_master"];3.25;1533762000.35062;5.03;11.76;0.315077631;9;117
36;paravance-68.rennes.grid5000.fr;thermos-root-devel-WordCountTopology-2-fb27b7c3-888e-43bd-b5e4-24dc789b0330;["container_2_Emit_random_words_2"];3.25;1533762000.28906;134.5;644.72;6.414851155;10;149
37;paravance-31.rennes.grid5000.fr;thermos-root-devel-WordCountTopology-1-69d64526-e8f4-44f2-bae7-8aecdd803be4;["container_1_Consume_and_count_1"];3.25;1533762010.56938;241.66;1080.16;376.557889853;10;151
37;paravance-68.rennes.grid5000.fr;thermos-root-devel-WordCountTopology-2-fb27b7c3-888e-43bd-b5e4-24dc789b0330;["container_2_Emit_random_words_2"];3.25;1533762010.50617;136.9;656.5;6.418918394;10;149
37;paravance-4.rennes.grid5000.fr;thermos-root-devel-WordCountTopology-0-b98182fc-0215-4fe6-ade3-ef73ddb6882f;["topology_master"];3.25;1533762010.56903;5.09;11.84;0.315077631;9;117
38;paravance-31.rennes.grid5000.fr;thermos-root-devel-WordCountTopology-1-69d64526-e8f4-44f2-bae7-8aecdd803be4;["container_1_Consume_and_count_1"];3.25;1533762020.78662;245.51;1101.67;381.590722247;10;151
38;paravance-68.rennes.grid5000.fr;thermos-root-devel-WordCountTopology-2-fb27b7c3-888e-43bd-b5e4-24dc789b0330;["container_2_Emit_random_words_2"];3.25;1533762020.72215;139.08;667.37;6.418918394;10;149
38;paravance-4.rennes.grid5000.fr;thermos-root-devel-WordCountTopology-0-b98182fc-0215-4fe6-ade3-ef73ddb6882f;["topology_master"];3.25;1533762020.78518;5.19;11.97;0.315077631;9;117
39;paravance-31.rennes.grid5000.fr;thermos-root-devel-WordCountTopology-1-69d64526-e8f4-44f2-bae7-8aecdd803be4;["container_1_Consume_and_count_1"];3.25;1533762031.00151;249.42;1123.1;386.185890981;10;151
39;paravance-68.rennes.grid5000.fr;thermos-root-devel-WordCountTopology-2-fb27b7c3-888e-43bd-b5e4-24dc789b0330;["container_2_Emit_random_words_2"];3.25;1533762030.93717;141.15;678.0;6.418918394;10;149
39;paravance-4.rennes.grid5000.fr;thermos-root-devel-WordCountTopology-0-b98182fc-0215-4fe6-ade3-ef73ddb6882f;["topology_master"];3.25;1533762030.99889;5.21;12.0;0.315077631;9;117
40;paravance-31.rennes.grid5000.fr;thermos-root-devel-WordCountTopology-1-69d64526-e8f4-44f2-bae7-8aecdd803be4;["container_1_Consume_and_count_1"];3.25;1533762041.21558;253.87;1145.26;392.383889412;10;151
40;paravance-68.rennes.grid5000.fr;thermos-root-devel-WordCountTopology-2-fb27b7c3-888e-43bd-b5e4-24dc789b0330;["container_2_Emit_random_words_2"];3.25;1533762041.15153;143.72;690.45;6.418918394;10;149
40;paravance-4.rennes.grid5000.fr;thermos-root-devel-WordCountTopology-0-b98182fc-0215-4fe6-ade3-ef73ddb6882f;["topology_master"];3.25;1533762041.21415;5.31;12.13;0.315077631;9;117
41;paravance-68.rennes.grid5000.fr;thermos-root-devel-WordCountTopology-2-fb27b7c3-888e-43bd-b5e4-24dc789b0330;["container_2_Emit_random_words_2"];3.25;1533762051.36803;147.5;707.94;6.418936303;10;149
41;paravance-4.rennes.grid5000.fr;thermos-root-devel-WordCountTopology-0-b98182fc-0215-4fe6-ade3-ef73ddb6882f;["topology_master"];3.25;1533762051.43002;5.38;12.24;0.315077631;9;117
41;paravance-31.rennes.grid5000.fr;thermos-root-devel-WordCountTopology-1-69d64526-e8f4-44f2-bae7-8aecdd803be4;["container_1_Consume_and_count_1"];3.25;1533762051.43418;260.38;1170.33;402.666307363;10;151
42;paravance-4.rennes.grid5000.fr;thermos-root-devel-WordCountTopology-0-b98182fc-0215-4fe6-ade3-ef73ddb6882f;["topology_master"];3.25;1533762061.64581;5.47;12.37;0.315077631;9;117
42;paravance-68.rennes.grid5000.fr;thermos-root-devel-WordCountTopology-2-fb27b7c3-888e-43bd-b5e4-24dc789b0330;["container_2_Emit_random_words_2"];3.25;1533762061.58449;151.18;724.84;6.434036866;10;149
42;paravance-31.rennes.grid5000.fr;thermos-root-devel-WordCountTopology-1-69d64526-e8f4-44f2-bae7-8aecdd803be4;["container_1_Consume_and_count_1"];3.25;1533762061.65065;266.81;1195.49;414.015707269;10;151
43;paravance-31.rennes.grid5000.fr;thermos-root-devel-WordCountTopology-1-69d64526-e8f4-44f2-bae7-8aecdd803be4;["container_1_Consume_and_count_1"];3.25;1533762071.86644;273.0;1220.88;425.594367626;10;151
43;paravance-4.rennes.grid5000.fr;thermos-root-devel-WordCountTopology-0-b98182fc-0215-4fe6-ade3-ef73ddb6882f;["topology_master"];3.25;1533762071.8642;5.5;12.4;0.315077631;9;117
43;paravance-68.rennes.grid5000.fr;thermos-root-devel-WordCountTopology-2-fb27b7c3-888e-43bd-b5e4-24dc789b0330;["container_2_Emit_random_words_2"];3.25;1533762071.80331;154.74;740.95;6.434036866;10;149
44;paravance-31.rennes.grid5000.fr;thermos-root-devel-WordCountTopology-1-69d64526-e8f4-44f2-bae7-8aecdd803be4;["container_1_Consume_and_count_1"];3.25;1533762082.08493;279.33;1245.96;436.080334831;10;151
44;paravance-68.rennes.grid5000.fr;thermos-root-devel-WordCountTopology-2-fb27b7c3-888e-43bd-b5e4-24dc789b0330;["container_2_Emit_random_words_2"];3.25;1533762082.02008;158.14;757.8;6.44209141;10;149
44;paravance-4.rennes.grid5000.fr;thermos-root-devel-WordCountTopology-0-b98182fc-0215-4fe6-ade3-ef73ddb6882f;["topology_master"];3.25;1533762082.08132;5.6;12.54;0.315077631;9;117
45;paravance-31.rennes.grid5000.fr;thermos-root-devel-WordCountTopology-1-69d64526-e8f4-44f2-bae7-8aecdd803be4;["container_1_Consume_and_count_1"];3.25;1533762092.20375;285.75;1270.88;446.641618846;10;151
45;paravance-68.rennes.grid5000.fr;thermos-root-devel-WordCountTopology-2-fb27b7c3-888e-43bd-b5e4-24dc789b0330;["container_2_Emit_random_words_2"];3.25;1533762092.23651;161.81;774.92;6.44209141;10;149
45;paravance-4.rennes.grid5000.fr;thermos-root-devel-WordCountTopology-0-b98182fc-0215-4fe6-ade3-ef73ddb6882f;["topology_master"];3.25;1533762092.29993;5.66;12.61;0.315077631;9;117
46;paravance-31.rennes.grid5000.fr;thermos-root-devel-WordCountTopology-1-69d64526-e8f4-44f2-bae7-8aecdd803be4;["container_1_Consume_and_count_1"];3.25;1533762102.51758;292.12;1296.49;457.493827255;10;151
46;paravance-4.rennes.grid5000.fr;thermos-root-devel-WordCountTopology-0-b98182fc-0215-4fe6-ade3-ef73ddb6882f;["topology_master"];3.25;1533762102.51494;5.73;12.7;0.315077631;9;117
46;paravance-68.rennes.grid5000.fr;thermos-root-devel-WordCountTopology-2-fb27b7c3-888e-43bd-b5e4-24dc789b0330;["container_2_Emit_random_words_2"];3.25;1533762102.45399;165.45;791.55;6.44209141;10;149
47;paravance-4.rennes.grid5000.fr;thermos-root-devel-WordCountTopology-0-b98182fc-0215-4fe6-ade3-ef73ddb6882f;["topology_master"];3.25;1533762112.73236;5.8;12.85;0.315077631;9;117
47;paravance-68.rennes.grid5000.fr;thermos-root-devel-WordCountTopology-2-fb27b7c3-888e-43bd-b5e4-24dc789b0330;["container_2_Emit_random_words_2"];3.25;1533762112.67169;168.94;807.09;6.44209141;10;149
47;paravance-31.rennes.grid5000.fr;thermos-root-devel-WordCountTopology-1-69d64526-e8f4-44f2-bae7-8aecdd803be4;["container_1_Consume_and_count_1"];3.25;1533762112.7376;298.45;1321.79;469.445374071;10;151
48;paravance-68.rennes.grid5000.fr;thermos-root-devel-WordCountTopology-2-fb27b7c3-888e-43bd-b5e4-24dc789b0330;["container_2_Emit_random_words_2"];3.25;1533762122.88815;172.6;823.94;6.45232395;10;149
48;paravance-31.rennes.grid5000.fr;thermos-root-devel-WordCountTopology-1-69d64526-e8f4-44f2-bae7-8aecdd803be4;["container_1_Consume_and_count_1"];3.25;1533762122.95356;304.97;1346.86;479.781288347;10;151
48;paravance-4.rennes.grid5000.fr;thermos-root-devel-WordCountTopology-0-b98182fc-0215-4fe6-ade3-ef73ddb6882f;["topology_master"];3.25;1533762122.95076;5.89;12.98;0.315077631;9;117
49;paravance-31.rennes.grid5000.fr;thermos-root-devel-WordCountTopology-1-69d64526-e8f4-44f2-bae7-8aecdd803be4;["container_1_Consume_and_count_1"];3.25;1533762133.1709;311.23;1372.25;490.139062769;10;151
49;paravance-4.rennes.grid5000.fr;thermos-root-devel-WordCountTopology-0-b98182fc-0215-4fe6-ade3-ef73ddb6882f;["topology_master"];3.25;1533762133.16678;5.92;13.01;0.315077631;9;117
49;paravance-68.rennes.grid5000.fr;thermos-root-devel-WordCountTopology-2-fb27b7c3-888e-43bd-b5e4-24dc789b0330;["container_2_Emit_random_words_2"];3.25;1533762133.10626;176.42;841.2;6.45232395;10;149
50;paravance-31.rennes.grid5000.fr;thermos-root-devel-WordCountTopology-1-69d64526-e8f4-44f2-bae7-8aecdd803be4;["container_1_Consume_and_count_1"];3.25;1533762143.38797;317.58;1397.53;502.129687932;10;151
50;paravance-68.rennes.grid5000.fr;thermos-root-devel-WordCountTopology-2-fb27b7c3-888e-43bd-b5e4-24dc789b0330;["container_2_Emit_random_words_2"];3.25;1533762143.32408;180.13;857.67;6.45232395;10;149
50;paravance-4.rennes.grid5000.fr;thermos-root-devel-WordCountTopology-0-b98182fc-0215-4fe6-ade3-ef73ddb6882f;["topology_master"];3.25;1533762143.38581;6.02;13.14;0.315077631;9;117
51;paravance-31.rennes.grid5000.fr;thermos-root-devel-WordCountTopology-1-69d64526-e8f4-44f2-bae7-8aecdd803be4;["container_1_Consume_and_count_1"];3.25;1533762153.60557;323.78;1423.03;513.755996572;10;151
51;paravance-68.rennes.grid5000.fr;thermos-root-devel-WordCountTopology-2-fb27b7c3-888e-43bd-b5e4-24dc789b0330;["container_2_Emit_random_words_2"];3.25;1533762153.54154;183.69;873.74;6.45232395;10;149
51;paravance-4.rennes.grid5000.fr;thermos-root-devel-WordCountTopology-0-b98182fc-0215-4fe6-ade3-ef73ddb6882f;["topology_master"];3.25;1533762153.6025;6.08;13.22;0.315077631;9;117
52;paravance-68.rennes.grid5000.fr;thermos-root-devel-WordCountTopology-2-fb27b7c3-888e-43bd-b5e4-24dc789b0330;["container_2_Emit_random_words_2"];3.25;1533762163.75587;187.15;890.13;6.45232395;10;149
52;paravance-31.rennes.grid5000.fr;thermos-root-devel-WordCountTopology-1-69d64526-e8f4-44f2-bae7-8aecdd803be4;["container_1_Consume_and_count_1"];3.25;1533762163.82216;330.25;1448.05;524.657388275;10;151
52;paravance-4.rennes.grid5000.fr;thermos-root-devel-WordCountTopology-0-b98182fc-0215-4fe6-ade3-ef73ddb6882f;["topology_master"];3.25;1533762163.81897;6.16;13.34;0.315077631;9;117
53;paravance-4.rennes.grid5000.fr;thermos-root-devel-WordCountTopology-0-b98182fc-0215-4fe6-ade3-ef73ddb6882f;["topology_master"];3.25;1533762174.03443;6.21;13.41;0.315077631;9;117
53;paravance-68.rennes.grid5000.fr;thermos-root-devel-WordCountTopology-2-fb27b7c3-888e-43bd-b5e4-24dc789b0330;["container_2_Emit_random_words_2"];3.25;1533762173.97393;190.66;906.27;6.45232395;10;149
53;paravance-31.rennes.grid5000.fr;thermos-root-devel-WordCountTopology-1-69d64526-e8f4-44f2-bae7-8aecdd803be4;["container_1_Consume_and_count_1"];3.25;1533762174.03957;336.62;1473.13;536.197117323;10;151
54;paravance-31.rennes.grid5000.fr;thermos-root-devel-WordCountTopology-1-69d64526-e8f4-44f2-bae7-8aecdd803be4;["container_1_Consume_and_count_1"];3.25;1533762184.25637;342.99;1498.21;548.057284256;10;151
54;paravance-68.rennes.grid5000.fr;thermos-root-devel-WordCountTopology-2-fb27b7c3-888e-43bd-b5e4-24dc789b0330;["container_2_Emit_random_words_2"];3.25;1533762184.19032;194.18;922.09;6.47237148;10;149
54;paravance-4.rennes.grid5000.fr;thermos-root-devel-WordCountTopology-0-b98182fc-0215-4fe6-ade3-ef73ddb6882f;["topology_master"];3.25;1533762184.25365;6.31;13.54;0.315077631;9;117
55;paravance-68.rennes.grid5000.fr;thermos-root-devel-WordCountTopology-2-fb27b7c3-888e-43bd-b5e4-24dc789b0330;["container_2_Emit_random_words_2"];3.25;1533762194.40782;197.68;938.29;6.47237148;10;149
55;paravance-31.rennes.grid5000.fr;thermos-root-devel-WordCountTopology-1-69d64526-e8f4-44f2-bae7-8aecdd803be4;["container_1_Consume_and_count_1"];3.25;1533762194.47365;349.57;1523.25;559.627888912;10;151
55;paravance-4.rennes.grid5000.fr;thermos-root-devel-WordCountTopology-0-b98182fc-0215-4fe6-ade3-ef73ddb6882f;["topology_master"];3.25;1533762194.47036;6.33;13.57;0.315077631;9;117
56;paravance-4.rennes.grid5000.fr;thermos-root-devel-WordCountTopology-0-b98182fc-0215-4fe6-ade3-ef73ddb6882f;["topology_master"];3.25;1533762204.58694;6.42;13.69;0.315077631;9;117
56;paravance-31.rennes.grid5000.fr;thermos-root-devel-WordCountTopology-1-69d64526-e8f4-44f2-bae7-8aecdd803be4;["container_1_Consume_and_count_1"];3.25;1533762204.6897;355.97;1548.51;571.544246424;10;151
56;paravance-68.rennes.grid5000.fr;thermos-root-devel-WordCountTopology-2-fb27b7c3-888e-43bd-b5e4-24dc789b0330;["container_2_Emit_random_words_2"];3.25;1533762204.62632;201.25;954.38;6.483854159;10;149
57;paravance-31.rennes.grid5000.fr;thermos-root-devel-WordCountTopology-1-69d64526-e8f4-44f2-bae7-8aecdd803be4;["container_1_Consume_and_count_1"];3.25;1533762214.90553;362.16;1573.91;583.533160076;10;151
57;paravance-4.rennes.grid5000.fr;thermos-root-devel-WordCountTopology-0-b98182fc-0215-4fe6-ade3-ef73ddb6882f;["topology_master"];3.25;1533762214.90231;6.48;13.77;0.315077631;9;117
57;paravance-68.rennes.grid5000.fr;thermos-root-devel-WordCountTopology-2-fb27b7c3-888e-43bd-b5e4-24dc789b0330;["container_2_Emit_random_words_2"];3.25;1533762214.84272;204.99;971.79;6.483854159;10;149
58;paravance-31.rennes.grid5000.fr;thermos-root-devel-WordCountTopology-1-69d64526-e8f4-44f2-bae7-8aecdd803be4;["container_1_Consume_and_count_1"];3.25;1533762225.12088;368.61;1598.95;594.474373696;10;151
58;paravance-4.rennes.grid5000.fr;thermos-root-devel-WordCountTopology-0-b98182fc-0215-4fe6-ade3-ef73ddb6882f;["topology_master"];3.25;1533762225.11823;6.55;13.87;0.315077631;9;117
58;paravance-68.rennes.grid5000.fr;thermos-root-devel-WordCountTopology-2-fb27b7c3-888e-43bd-b5e4-24dc789b0330;["container_2_Emit_random_words_2"];3.25;1533762225.0575;208.53;987.99;6.483854159;10;149
59;paravance-4.rennes.grid5000.fr;thermos-root-devel-WordCountTopology-0-b98182fc-0215-4fe6-ade3-ef73ddb6882f;["topology_master"];3.25;1533762235.33271;6.61;13.95;0.315077631;9;117
59;paravance-68.rennes.grid5000.fr;thermos-root-devel-WordCountTopology-2-fb27b7c3-888e-43bd-b5e4-24dc789b0330;["container_2_Emit_random_words_2"];3.25;1533762235.27328;212.09;1004.07;6.483854159;10;149
59;paravance-31.rennes.grid5000.fr;thermos-root-devel-WordCountTopology-1-69d64526-e8f4-44f2-bae7-8aecdd803be4;["container_1_Consume_and_count_1"];3.25;1533762235.33777;375.11;1624.07;605.561366324;10;151
60;paravance-68.rennes.grid5000.fr;thermos-root-devel-WordCountTopology-2-fb27b7c3-888e-43bd-b5e4-24dc789b0330;["container_2_Emit_random_words_2"];3.25;1533762245.48669;215.59;1020.55;6.483854159;10;149
60;paravance-4.rennes.grid5000.fr;thermos-root-devel-WordCountTopology-0-b98182fc-0215-4fe6-ade3-ef73ddb6882f;["topology_master"];3.25;1533762245.54887;6.7;14.07;0.315077631;9;117
60;paravance-31.rennes.grid5000.fr;thermos-root-devel-WordCountTopology-1-69d64526-e8f4-44f2-bae7-8aecdd803be4;["container_1_Consume_and_count_1"];3.25;1533762245.55432;381.62;1649.07;617.320037482;10;151
