mesure_id;slave_id;executor_id;heron_instances;cpus_limit;timestamp_A;cpus_system_time_secs_A;cpus_user_time_secs_A;cpus_throttled_time_secs_A;processes;threads
0;paravance-36.rennes.grid5000.fr;thermos-root-devel-WordCountTopology-2-683c13a0-2d6b-47fb-b515-dc7de488a2ef;["container_2_Emit_random_words_2"];2.25;1533086386.07717;17.71;209.3;14.805961158;10;149
0;paravance-4.rennes.grid5000.fr;thermos-root-devel-WordCountTopology-1-c4a0f0f9-2001-42e3-bd7a-2e015a28c32f;["container_1_Consume_and_count_1"];2.25;1533086386.12407;27.04;208.72;43.796320496;10;149
0;paravance-5.rennes.grid5000.fr;thermos-root-devel-WordCountTopology-0-947ec5fc-3d64-4145-8bc0-6eec6adb5af8;["topology_master"];2.25;1533086386.15993;2.45;8.08;0.042111185;9;117
1;paravance-4.rennes.grid5000.fr;thermos-root-devel-WordCountTopology-1-c4a0f0f9-2001-42e3-bd7a-2e015a28c32f;["container_1_Consume_and_count_1"];2.25;1533086396.24504;28.97;225.46;46.210679076;10;149
1;paravance-5.rennes.grid5000.fr;thermos-root-devel-WordCountTopology-0-947ec5fc-3d64-4145-8bc0-6eec6adb5af8;["topology_master"];2.25;1533086396.38354;2.52;8.25;0.042111185;9;117
1;paravance-36.rennes.grid5000.fr;thermos-root-devel-WordCountTopology-2-683c13a0-2d6b-47fb-b515-dc7de488a2ef;["container_2_Emit_random_words_2"];2.25;1533086396.30343;18.89;223.21;15.016398666;10;149
2;paravance-36.rennes.grid5000.fr;thermos-root-devel-WordCountTopology-2-683c13a0-2d6b-47fb-b515-dc7de488a2ef;["container_2_Emit_random_words_2"];2.25;1533086406.52446;20.27;239.55;15.07762735;10;149
2;paravance-4.rennes.grid5000.fr;thermos-root-devel-WordCountTopology-1-c4a0f0f9-2001-42e3-bd7a-2e015a28c32f;["container_1_Consume_and_count_1"];2.25;1533086406.56129;31.18;243.67;50.26903955;10;149
2;paravance-5.rennes.grid5000.fr;thermos-root-devel-WordCountTopology-0-947ec5fc-3d64-4145-8bc0-6eec6adb5af8;["topology_master"];2.25;1533086406.60622;2.61;8.38;0.042111185;9;117
3;paravance-4.rennes.grid5000.fr;thermos-root-devel-WordCountTopology-1-c4a0f0f9-2001-42e3-bd7a-2e015a28c32f;["container_1_Consume_and_count_1"];2.25;1533086416.77766;33.32;261.48;53.438330262;10;149
3;paravance-5.rennes.grid5000.fr;thermos-root-devel-WordCountTopology-0-947ec5fc-3d64-4145-8bc0-6eec6adb5af8;["topology_master"];2.25;1533086416.82728;2.64;8.41;0.042111185;9;117
3;paravance-36.rennes.grid5000.fr;thermos-root-devel-WordCountTopology-2-683c13a0-2d6b-47fb-b515-dc7de488a2ef;["container_2_Emit_random_words_2"];2.25;1533086416.74487;21.57;255.45;15.086635303;10;149
4;paravance-5.rennes.grid5000.fr;thermos-root-devel-WordCountTopology-0-947ec5fc-3d64-4145-8bc0-6eec6adb5af8;["topology_master"];2.25;1533086427.04358;2.73;8.54;0.042111185;9;117
4;paravance-4.rennes.grid5000.fr;thermos-root-devel-WordCountTopology-1-c4a0f0f9-2001-42e3-bd7a-2e015a28c32f;["container_1_Consume_and_count_1"];2.25;1533086426.99066;35.56;279.29;56.391304122;10;149
4;paravance-36.rennes.grid5000.fr;thermos-root-devel-WordCountTopology-2-683c13a0-2d6b-47fb-b515-dc7de488a2ef;["container_2_Emit_random_words_2"];2.25;1533086426.96477;22.94;272.1;15.17061729;10;149
5;paravance-5.rennes.grid5000.fr;thermos-root-devel-WordCountTopology-0-947ec5fc-3d64-4145-8bc0-6eec6adb5af8;["topology_master"];2.25;1533086437.26038;2.79;8.62;0.042111185;9;117
5;paravance-36.rennes.grid5000.fr;thermos-root-devel-WordCountTopology-2-683c13a0-2d6b-47fb-b515-dc7de488a2ef;["container_2_Emit_random_words_2"];2.25;1533086437.18688;24.21;287.55;15.175691018;10;149
5;paravance-4.rennes.grid5000.fr;thermos-root-devel-WordCountTopology-1-c4a0f0f9-2001-42e3-bd7a-2e015a28c32f;["container_1_Consume_and_count_1"];2.25;1533086437.20862;37.63;297.11;59.058001471;10;149
6;paravance-4.rennes.grid5000.fr;thermos-root-devel-WordCountTopology-1-c4a0f0f9-2001-42e3-bd7a-2e015a28c32f;["container_1_Consume_and_count_1"];2.25;1533086447.42322;39.95;315.27;64.29908678;10;149
6;paravance-5.rennes.grid5000.fr;thermos-root-devel-WordCountTopology-0-947ec5fc-3d64-4145-8bc0-6eec6adb5af8;["topology_master"];2.25;1533086447.47467;2.91;8.79;0.042111185;9;117
6;paravance-36.rennes.grid5000.fr;thermos-root-devel-WordCountTopology-2-683c13a0-2d6b-47fb-b515-dc7de488a2ef;["container_2_Emit_random_words_2"];2.25;1533086447.40672;25.68;304.81;15.348174936;10;149
7;paravance-4.rennes.grid5000.fr;thermos-root-devel-WordCountTopology-1-c4a0f0f9-2001-42e3-bd7a-2e015a28c32f;["container_1_Consume_and_count_1"];2.25;1533086457.63699;41.84;333.95;68.605209857;10;149
7;paravance-36.rennes.grid5000.fr;thermos-root-devel-WordCountTopology-2-683c13a0-2d6b-47fb-b515-dc7de488a2ef;["container_2_Emit_random_words_2"];2.25;1533086457.62527;26.91;319.7;15.348206486;10;149
7;paravance-5.rennes.grid5000.fr;thermos-root-devel-WordCountTopology-0-947ec5fc-3d64-4145-8bc0-6eec6adb5af8;["topology_master"];2.25;1533086457.68917;2.94;8.88;0.042111185;9;117
8;paravance-4.rennes.grid5000.fr;thermos-root-devel-WordCountTopology-1-c4a0f0f9-2001-42e3-bd7a-2e015a28c32f;["container_1_Consume_and_count_1"];2.25;1533086467.85346;43.87;351.27;71.996215531;10;149
8;paravance-36.rennes.grid5000.fr;thermos-root-devel-WordCountTopology-2-683c13a0-2d6b-47fb-b515-dc7de488a2ef;["container_2_Emit_random_words_2"];2.25;1533086467.84702;28.12;333.72;15.423443469;10;149
8;paravance-5.rennes.grid5000.fr;thermos-root-devel-WordCountTopology-0-947ec5fc-3d64-4145-8bc0-6eec6adb5af8;["topology_master"];2.25;1533086467.90537;3.03;9.01;0.042111185;9;117
9;paravance-36.rennes.grid5000.fr;thermos-root-devel-WordCountTopology-2-683c13a0-2d6b-47fb-b515-dc7de488a2ef;["container_2_Emit_random_words_2"];2.25;1533086478.06693;29.4;349.14;15.47412181;10;149
9;paravance-4.rennes.grid5000.fr;thermos-root-devel-WordCountTopology-1-c4a0f0f9-2001-42e3-bd7a-2e015a28c32f;["container_1_Consume_and_count_1"];2.25;1533086478.06912;45.92;368.87;74.784555814;10;149
9;paravance-5.rennes.grid5000.fr;thermos-root-devel-WordCountTopology-0-947ec5fc-3d64-4145-8bc0-6eec6adb5af8;["topology_master"];2.25;1533086478.12046;3.09;9.09;0.042111185;9;117
10;paravance-5.rennes.grid5000.fr;thermos-root-devel-WordCountTopology-0-947ec5fc-3d64-4145-8bc0-6eec6adb5af8;["topology_master"];2.25;1533086488.33352;3.15;9.17;0.042111185;9;117
10;paravance-36.rennes.grid5000.fr;thermos-root-devel-WordCountTopology-2-683c13a0-2d6b-47fb-b515-dc7de488a2ef;["container_2_Emit_random_words_2"];2.25;1533086488.28579;30.77;366.4;15.514949866;10;149
10;paravance-4.rennes.grid5000.fr;thermos-root-devel-WordCountTopology-1-c4a0f0f9-2001-42e3-bd7a-2e015a28c32f;["container_1_Consume_and_count_1"];2.25;1533086488.28242;48.1;386.54;78.089725795;10;149
11;paravance-36.rennes.grid5000.fr;thermos-root-devel-WordCountTopology-2-683c13a0-2d6b-47fb-b515-dc7de488a2ef;["container_2_Emit_random_words_2"];2.25;1533086498.40588;32.07;381.94;15.549693025;10;149
11;paravance-4.rennes.grid5000.fr;thermos-root-devel-WordCountTopology-1-c4a0f0f9-2001-42e3-bd7a-2e015a28c32f;["container_1_Consume_and_count_1"];2.25;1533086498.4967;50.17;403.88;80.529682313;10;149
11;paravance-5.rennes.grid5000.fr;thermos-root-devel-WordCountTopology-0-947ec5fc-3d64-4145-8bc0-6eec6adb5af8;["topology_master"];2.25;1533086498.54959;3.21;9.24;0.042111185;9;117
12;paravance-4.rennes.grid5000.fr;thermos-root-devel-WordCountTopology-1-c4a0f0f9-2001-42e3-bd7a-2e015a28c32f;["container_1_Consume_and_count_1"];2.25;1533086508.7118;52.06;421.67;83.810009472;10;149
12;paravance-5.rennes.grid5000.fr;thermos-root-devel-WordCountTopology-0-947ec5fc-3d64-4145-8bc0-6eec6adb5af8;["topology_master"];2.25;1533086508.76302;3.32;9.47;0.042111185;9;117
12;paravance-36.rennes.grid5000.fr;thermos-root-devel-WordCountTopology-2-683c13a0-2d6b-47fb-b515-dc7de488a2ef;["container_2_Emit_random_words_2"];2.25;1533086508.72548;33.35;396.63;15.715693969;10;149
13;paravance-36.rennes.grid5000.fr;thermos-root-devel-WordCountTopology-2-683c13a0-2d6b-47fb-b515-dc7de488a2ef;["container_2_Emit_random_words_2"];2.25;1533086518.94688;34.54;411.04;15.715760281;10;149
13;paravance-4.rennes.grid5000.fr;thermos-root-devel-WordCountTopology-1-c4a0f0f9-2001-42e3-bd7a-2e015a28c32f;["container_1_Consume_and_count_1"];2.25;1533086518.92814;54.05;439.64;86.501134157;10;149
13;paravance-5.rennes.grid5000.fr;thermos-root-devel-WordCountTopology-0-947ec5fc-3d64-4145-8bc0-6eec6adb5af8;["topology_master"];2.25;1533086518.9791;3.35;9.49;0.042111185;9;117
14;paravance-36.rennes.grid5000.fr;thermos-root-devel-WordCountTopology-2-683c13a0-2d6b-47fb-b515-dc7de488a2ef;["container_2_Emit_random_words_2"];2.25;1533086529.16912;35.9;427.03;15.78512201;10;149
14;paravance-5.rennes.grid5000.fr;thermos-root-devel-WordCountTopology-0-947ec5fc-3d64-4145-8bc0-6eec6adb5af8;["topology_master"];2.25;1533086529.19623;3.44;9.63;0.042111185;9;117
14;paravance-4.rennes.grid5000.fr;thermos-root-devel-WordCountTopology-1-c4a0f0f9-2001-42e3-bd7a-2e015a28c32f;["container_1_Consume_and_count_1"];2.25;1533086529.14415;56.14;457.05;88.961310391;10;149
15;paravance-4.rennes.grid5000.fr;thermos-root-devel-WordCountTopology-1-c4a0f0f9-2001-42e3-bd7a-2e015a28c32f;["container_1_Consume_and_count_1"];2.25;1533086539.35949;58.15;474.93;91.959564779;10;149
15;paravance-36.rennes.grid5000.fr;thermos-root-devel-WordCountTopology-2-683c13a0-2d6b-47fb-b515-dc7de488a2ef;["container_2_Emit_random_words_2"];2.25;1533086539.38995;37.07;440.92;15.78512201;10;149
15;paravance-5.rennes.grid5000.fr;thermos-root-devel-WordCountTopology-0-947ec5fc-3d64-4145-8bc0-6eec6adb5af8;["topology_master"];2.25;1533086539.41183;3.5;9.7;0.042111185;9;117
16;paravance-4.rennes.grid5000.fr;thermos-root-devel-WordCountTopology-1-c4a0f0f9-2001-42e3-bd7a-2e015a28c32f;["container_1_Consume_and_count_1"];2.25;1533086549.57401;60.29;492.4;94.248214311;10;149
16;paravance-5.rennes.grid5000.fr;thermos-root-devel-WordCountTopology-0-947ec5fc-3d64-4145-8bc0-6eec6adb5af8;["topology_master"];2.25;1533086549.6254;3.56;9.79;0.042111185;9;117
16;paravance-36.rennes.grid5000.fr;thermos-root-devel-WordCountTopology-2-683c13a0-2d6b-47fb-b515-dc7de488a2ef;["container_2_Emit_random_words_2"];2.25;1533086549.60835;38.38;456.43;15.793359582;10;149
17;paravance-4.rennes.grid5000.fr;thermos-root-devel-WordCountTopology-1-c4a0f0f9-2001-42e3-bd7a-2e015a28c32f;["container_1_Consume_and_count_1"];2.25;1533086559.78854;62.4;509.55;96.739249392;10;149
17;paravance-36.rennes.grid5000.fr;thermos-root-devel-WordCountTopology-2-683c13a0-2d6b-47fb-b515-dc7de488a2ef;["container_2_Emit_random_words_2"];2.25;1533086559.82868;39.59;471.24;15.887970021;10;149
17;paravance-5.rennes.grid5000.fr;thermos-root-devel-WordCountTopology-0-947ec5fc-3d64-4145-8bc0-6eec6adb5af8;["topology_master"];2.25;1533086559.84183;3.61;9.86;0.042111185;9;117
18;paravance-4.rennes.grid5000.fr;thermos-root-devel-WordCountTopology-1-c4a0f0f9-2001-42e3-bd7a-2e015a28c32f;["container_1_Consume_and_count_1"];2.25;1533086570.00393;64.85;527.35;100.327561202;10;149
18;paravance-36.rennes.grid5000.fr;thermos-root-devel-WordCountTopology-2-683c13a0-2d6b-47fb-b515-dc7de488a2ef;["container_2_Emit_random_words_2"];2.25;1533086570.04875;41.11;489.48;16.496390812;10;149
18;paravance-5.rennes.grid5000.fr;thermos-root-devel-WordCountTopology-0-947ec5fc-3d64-4145-8bc0-6eec6adb5af8;["topology_master"];2.25;1533086570.05823;3.74;10.09;0.042111185;9;117
19;paravance-36.rennes.grid5000.fr;thermos-root-devel-WordCountTopology-2-683c13a0-2d6b-47fb-b515-dc7de488a2ef;["container_2_Emit_random_words_2"];2.25;1533086580.26973;42.38;505.83;16.512039965;10;149
19;paravance-4.rennes.grid5000.fr;thermos-root-devel-WordCountTopology-1-c4a0f0f9-2001-42e3-bd7a-2e015a28c32f;["container_1_Consume_and_count_1"];2.25;1533086580.22077;66.85;545.32;104.000726286;10;149
19;paravance-5.rennes.grid5000.fr;thermos-root-devel-WordCountTopology-0-947ec5fc-3d64-4145-8bc0-6eec6adb5af8;["topology_master"];2.25;1533086580.27315;3.76;10.12;0.042111185;9;117
20;paravance-4.rennes.grid5000.fr;thermos-root-devel-WordCountTopology-1-c4a0f0f9-2001-42e3-bd7a-2e015a28c32f;["container_1_Consume_and_count_1"];2.25;1533086590.43661;69.23;563.07;107.22182627;10;149
20;paravance-5.rennes.grid5000.fr;thermos-root-devel-WordCountTopology-0-947ec5fc-3d64-4145-8bc0-6eec6adb5af8;["topology_master"];2.25;1533086590.48779;3.85;10.25;0.042111185;9;117
20;paravance-36.rennes.grid5000.fr;thermos-root-devel-WordCountTopology-2-683c13a0-2d6b-47fb-b515-dc7de488a2ef;["container_2_Emit_random_words_2"];2.25;1533086590.49111;43.72;522.51;16.640311995;10;149
21;paravance-36.rennes.grid5000.fr;thermos-root-devel-WordCountTopology-2-683c13a0-2d6b-47fb-b515-dc7de488a2ef;["container_2_Emit_random_words_2"];2.25;1533086600.71082;45.14;540.77;16.700231991;10;149
21;paravance-4.rennes.grid5000.fr;thermos-root-devel-WordCountTopology-1-c4a0f0f9-2001-42e3-bd7a-2e015a28c32f;["container_1_Consume_and_count_1"];2.25;1533086600.65194;71.59;580.98;110.069218718;10;149
21;paravance-5.rennes.grid5000.fr;thermos-root-devel-WordCountTopology-0-947ec5fc-3d64-4145-8bc0-6eec6adb5af8;["topology_master"];2.25;1533086600.70374;3.91;10.32;0.042111185;9;117
22;paravance-4.rennes.grid5000.fr;thermos-root-devel-WordCountTopology-1-c4a0f0f9-2001-42e3-bd7a-2e015a28c32f;["container_1_Consume_and_count_1"];2.25;1533086610.86606;73.84;598.65;112.637034957;10;149
22;paravance-5.rennes.grid5000.fr;thermos-root-devel-WordCountTopology-0-947ec5fc-3d64-4145-8bc0-6eec6adb5af8;["topology_master"];2.25;1533086610.91861;3.97;10.39;0.042111185;9;117
22;paravance-36.rennes.grid5000.fr;thermos-root-devel-WordCountTopology-2-683c13a0-2d6b-47fb-b515-dc7de488a2ef;["container_2_Emit_random_words_2"];2.25;1533086610.93003;46.46;557.88;16.793003031;10;149
23;paravance-4.rennes.grid5000.fr;thermos-root-devel-WordCountTopology-1-c4a0f0f9-2001-42e3-bd7a-2e015a28c32f;["container_1_Consume_and_count_1"];2.25;1533086621.08103;75.91;617.02;115.571405479;10;149
23;paravance-36.rennes.grid5000.fr;thermos-root-devel-WordCountTopology-2-683c13a0-2d6b-47fb-b515-dc7de488a2ef;["container_2_Emit_random_words_2"];2.25;1533086621.14401;47.78;574.76;16.833250886;10;149
23;paravance-5.rennes.grid5000.fr;thermos-root-devel-WordCountTopology-0-947ec5fc-3d64-4145-8bc0-6eec6adb5af8;["topology_master"];2.25;1533086621.13335;4.02;10.47;0.042111185;9;117
24;paravance-4.rennes.grid5000.fr;thermos-root-devel-WordCountTopology-1-c4a0f0f9-2001-42e3-bd7a-2e015a28c32f;["container_1_Consume_and_count_1"];2.25;1533086631.29598;78.06;635.18;119.09094821;10;149
24;paravance-5.rennes.grid5000.fr;thermos-root-devel-WordCountTopology-0-947ec5fc-3d64-4145-8bc0-6eec6adb5af8;["topology_master"];2.25;1533086631.34778;4.14;10.66;0.042111185;9;117
24;paravance-36.rennes.grid5000.fr;thermos-root-devel-WordCountTopology-2-683c13a0-2d6b-47fb-b515-dc7de488a2ef;["container_2_Emit_random_words_2"];2.25;1533086631.35873;49.12;591.42;17.038550642;10;149
25;paravance-36.rennes.grid5000.fr;thermos-root-devel-WordCountTopology-2-683c13a0-2d6b-47fb-b515-dc7de488a2ef;["container_2_Emit_random_words_2"];2.25;1533086641.57414;50.4;607.02;17.038550642;10;149
25;paravance-5.rennes.grid5000.fr;thermos-root-devel-WordCountTopology-0-947ec5fc-3d64-4145-8bc0-6eec6adb5af8;["topology_master"];2.25;1533086641.56335;4.17;10.69;0.042111185;9;117
25;paravance-4.rennes.grid5000.fr;thermos-root-devel-WordCountTopology-1-c4a0f0f9-2001-42e3-bd7a-2e015a28c32f;["container_1_Consume_and_count_1"];2.25;1533086641.51205;80.33;653.01;122.42012064;10;149
26;paravance-4.rennes.grid5000.fr;thermos-root-devel-WordCountTopology-1-c4a0f0f9-2001-42e3-bd7a-2e015a28c32f;["container_1_Consume_and_count_1"];2.25;1533086651.72521;82.83;671.12;125.087725478;10;149
26;paravance-5.rennes.grid5000.fr;thermos-root-devel-WordCountTopology-0-947ec5fc-3d64-4145-8bc0-6eec6adb5af8;["topology_master"];2.25;1533086651.77727;4.26;10.81;0.042111185;9;117
26;paravance-36.rennes.grid5000.fr;thermos-root-devel-WordCountTopology-2-683c13a0-2d6b-47fb-b515-dc7de488a2ef;["container_2_Emit_random_words_2"];2.25;1533086651.78863;51.78;624.19;17.114775971;10;149
27;paravance-4.rennes.grid5000.fr;thermos-root-devel-WordCountTopology-1-c4a0f0f9-2001-42e3-bd7a-2e015a28c32f;["container_1_Consume_and_count_1"];2.25;1533086661.93959;85.17;689.13;127.805089508;10;149
27;paravance-36.rennes.grid5000.fr;thermos-root-devel-WordCountTopology-2-683c13a0-2d6b-47fb-b515-dc7de488a2ef;["container_2_Emit_random_words_2"];2.25;1533086662.00267;53.22;641.52;17.137247355;10;149
27;paravance-5.rennes.grid5000.fr;thermos-root-devel-WordCountTopology-0-947ec5fc-3d64-4145-8bc0-6eec6adb5af8;["topology_master"];2.25;1533086661.99327;4.31;10.89;0.042111185;9;117
28;paravance-5.rennes.grid5000.fr;thermos-root-devel-WordCountTopology-0-947ec5fc-3d64-4145-8bc0-6eec6adb5af8;["topology_master"];2.25;1533086672.20808;4.37;10.97;0.042111185;9;117
28;paravance-4.rennes.grid5000.fr;thermos-root-devel-WordCountTopology-1-c4a0f0f9-2001-42e3-bd7a-2e015a28c32f;["container_1_Consume_and_count_1"];2.25;1533086672.15654;87.39;707.26;131.57116284;10;149
28;paravance-36.rennes.grid5000.fr;thermos-root-devel-WordCountTopology-2-683c13a0-2d6b-47fb-b515-dc7de488a2ef;["container_2_Emit_random_words_2"];2.25;1533086672.21825;54.66;659.12;17.191180741;10;149
29;paravance-36.rennes.grid5000.fr;thermos-root-devel-WordCountTopology-2-683c13a0-2d6b-47fb-b515-dc7de488a2ef;["container_2_Emit_random_words_2"];2.25;1533086682.43602;55.98;674.98;17.215335783;10;149
29;paravance-4.rennes.grid5000.fr;thermos-root-devel-WordCountTopology-1-c4a0f0f9-2001-42e3-bd7a-2e015a28c32f;["container_1_Consume_and_count_1"];2.25;1533086682.37401;89.49;725.23;135.207538735;10;149
29;paravance-5.rennes.grid5000.fr;thermos-root-devel-WordCountTopology-0-947ec5fc-3d64-4145-8bc0-6eec6adb5af8;["topology_master"];2.25;1533086682.42641;4.43;11.04;0.042111185;9;117
30;paravance-36.rennes.grid5000.fr;thermos-root-devel-WordCountTopology-2-683c13a0-2d6b-47fb-b515-dc7de488a2ef;["container_2_Emit_random_words_2"];2.25;1533086692.65178;57.45;692.49;17.459443106;10;149
30;paravance-5.rennes.grid5000.fr;thermos-root-devel-WordCountTopology-0-947ec5fc-3d64-4145-8bc0-6eec6adb5af8;["topology_master"];2.25;1533086692.64238;4.54;11.23;0.042111185;9;117
30;paravance-4.rennes.grid5000.fr;thermos-root-devel-WordCountTopology-1-c4a0f0f9-2001-42e3-bd7a-2e015a28c32f;["container_1_Consume_and_count_1"];2.25;1533086692.58806;92.05;743.1;138.021915266;10;149
31;paravance-5.rennes.grid5000.fr;thermos-root-devel-WordCountTopology-0-947ec5fc-3d64-4145-8bc0-6eec6adb5af8;["topology_master"];2.25;1533086702.85731;4.6;11.3;0.042111185;9;117
31;paravance-36.rennes.grid5000.fr;thermos-root-devel-WordCountTopology-2-683c13a0-2d6b-47fb-b515-dc7de488a2ef;["container_2_Emit_random_words_2"];2.25;1533086702.86856;58.73;707.72;17.53346842;10;149
31;paravance-4.rennes.grid5000.fr;thermos-root-devel-WordCountTopology-1-c4a0f0f9-2001-42e3-bd7a-2e015a28c32f;["container_1_Consume_and_count_1"];2.25;1533086702.80539;94.36;761.9;142.074971053;10;149
32;paravance-4.rennes.grid5000.fr;thermos-root-devel-WordCountTopology-1-c4a0f0f9-2001-42e3-bd7a-2e015a28c32f;["container_1_Consume_and_count_1"];2.25;1533086713.0232;96.81;779.87;145.069486753;10;149
32;paravance-36.rennes.grid5000.fr;thermos-root-devel-WordCountTopology-2-683c13a0-2d6b-47fb-b515-dc7de488a2ef;["container_2_Emit_random_words_2"];2.25;1533086713.08612;60.16;725.1;17.55358934;10;149
32;paravance-5.rennes.grid5000.fr;thermos-root-devel-WordCountTopology-0-947ec5fc-3d64-4145-8bc0-6eec6adb5af8;["topology_master"];2.25;1533086713.07413;4.66;11.37;0.042111185;9;117
33;paravance-4.rennes.grid5000.fr;thermos-root-devel-WordCountTopology-1-c4a0f0f9-2001-42e3-bd7a-2e015a28c32f;["container_1_Consume_and_count_1"];2.25;1533086723.23592;99.14;797.95;148.225675436;10;149
33;paravance-36.rennes.grid5000.fr;thermos-root-devel-WordCountTopology-2-683c13a0-2d6b-47fb-b515-dc7de488a2ef;["container_2_Emit_random_words_2"];2.25;1533086723.30147;61.6;742.39;17.627803306;10;149
33;paravance-5.rennes.grid5000.fr;thermos-root-devel-WordCountTopology-0-947ec5fc-3d64-4145-8bc0-6eec6adb5af8;["topology_master"];2.25;1533086723.29251;4.74;11.5;0.042111185;9;117
34;paravance-4.rennes.grid5000.fr;thermos-root-devel-WordCountTopology-1-c4a0f0f9-2001-42e3-bd7a-2e015a28c32f;["container_1_Consume_and_count_1"];2.25;1533086733.45316;101.23;815.9;151.643250614;10;149
34;paravance-36.rennes.grid5000.fr;thermos-root-devel-WordCountTopology-2-683c13a0-2d6b-47fb-b515-dc7de488a2ef;["container_2_Emit_random_words_2"];2.25;1533086733.51756;62.92;758.72;17.627818405;10;149
34;paravance-5.rennes.grid5000.fr;thermos-root-devel-WordCountTopology-0-947ec5fc-3d64-4145-8bc0-6eec6adb5af8;["topology_master"];2.25;1533086733.50744;4.77;11.52;0.042111185;9;117
35;paravance-5.rennes.grid5000.fr;thermos-root-devel-WordCountTopology-0-947ec5fc-3d64-4145-8bc0-6eec6adb5af8;["topology_master"];2.25;1533086743.72245;4.86;11.65;0.042111185;9;117
35;paravance-4.rennes.grid5000.fr;thermos-root-devel-WordCountTopology-1-c4a0f0f9-2001-42e3-bd7a-2e015a28c32f;["container_1_Consume_and_count_1"];2.25;1533086743.67015;103.64;833.98;154.792816611;10;149
35;paravance-36.rennes.grid5000.fr;thermos-root-devel-WordCountTopology-2-683c13a0-2d6b-47fb-b515-dc7de488a2ef;["container_2_Emit_random_words_2"];2.25;1533086743.73292;64.36;775.74;17.747013503;10;149
36;paravance-4.rennes.grid5000.fr;thermos-root-devel-WordCountTopology-1-c4a0f0f9-2001-42e3-bd7a-2e015a28c32f;["container_1_Consume_and_count_1"];2.25;1533086753.88569;105.93;851.76;157.84793932;10;149
36;paravance-5.rennes.grid5000.fr;thermos-root-devel-WordCountTopology-0-947ec5fc-3d64-4145-8bc0-6eec6adb5af8;["topology_master"];2.25;1533086753.93708;4.93;11.82;0.042111185;9;117
36;paravance-36.rennes.grid5000.fr;thermos-root-devel-WordCountTopology-2-683c13a0-2d6b-47fb-b515-dc7de488a2ef;["container_2_Emit_random_words_2"];2.25;1533086753.94832;65.68;791.6;17.831561079;10;149
37;paravance-4.rennes.grid5000.fr;thermos-root-devel-WordCountTopology-1-c4a0f0f9-2001-42e3-bd7a-2e015a28c32f;["container_1_Consume_and_count_1"];2.25;1533086764.10141;108.2;869.78;160.448841117;10;149
37;paravance-36.rennes.grid5000.fr;thermos-root-devel-WordCountTopology-2-683c13a0-2d6b-47fb-b515-dc7de488a2ef;["container_2_Emit_random_words_2"];2.25;1533086764.16475;67.0;807.31;17.865510172;10;149
37;paravance-5.rennes.grid5000.fr;thermos-root-devel-WordCountTopology-0-947ec5fc-3d64-4145-8bc0-6eec6adb5af8;["topology_master"];2.25;1533086764.15542;4.99;11.89;0.042111185;9;117
38;paravance-4.rennes.grid5000.fr;thermos-root-devel-WordCountTopology-1-c4a0f0f9-2001-42e3-bd7a-2e015a28c32f;["container_1_Consume_and_count_1"];2.25;1533086774.31597;110.42;887.32;163.473133713;10;149
38;paravance-5.rennes.grid5000.fr;thermos-root-devel-WordCountTopology-0-947ec5fc-3d64-4145-8bc0-6eec6adb5af8;["topology_master"];2.25;1533086774.36783;5.04;11.97;0.042111185;9;117
38;paravance-36.rennes.grid5000.fr;thermos-root-devel-WordCountTopology-2-683c13a0-2d6b-47fb-b515-dc7de488a2ef;["container_2_Emit_random_words_2"];2.25;1533086774.37825;68.44;824.99;17.925710869;10;149
39;paravance-5.rennes.grid5000.fr;thermos-root-devel-WordCountTopology-0-947ec5fc-3d64-4145-8bc0-6eec6adb5af8;["topology_master"];2.25;1533086784.58332;5.13;12.09;0.042111185;9;117
39;paravance-4.rennes.grid5000.fr;thermos-root-devel-WordCountTopology-1-c4a0f0f9-2001-42e3-bd7a-2e015a28c32f;["container_1_Consume_and_count_1"];2.25;1533086784.53141;112.26;905.71;167.241245701;10;149
39;paravance-36.rennes.grid5000.fr;thermos-root-devel-WordCountTopology-2-683c13a0-2d6b-47fb-b515-dc7de488a2ef;["container_2_Emit_random_words_2"];2.25;1533086784.59472;69.64;838.96;17.964292909;10;149
40;paravance-5.rennes.grid5000.fr;thermos-root-devel-WordCountTopology-0-947ec5fc-3d64-4145-8bc0-6eec6adb5af8;["topology_master"];2.25;1533086794.79818;5.18;12.16;0.042111185;9;117
40;paravance-4.rennes.grid5000.fr;thermos-root-devel-WordCountTopology-1-c4a0f0f9-2001-42e3-bd7a-2e015a28c32f;["container_1_Consume_and_count_1"];2.25;1533086794.76022;114.37;923.62;169.822911288;10;149
40;paravance-36.rennes.grid5000.fr;thermos-root-devel-WordCountTopology-2-683c13a0-2d6b-47fb-b515-dc7de488a2ef;["container_2_Emit_random_words_2"];2.25;1533086794.82437;71.02;856.09;17.988607683;10;149
41;paravance-4.rennes.grid5000.fr;thermos-root-devel-WordCountTopology-1-c4a0f0f9-2001-42e3-bd7a-2e015a28c32f;["container_1_Consume_and_count_1"];2.25;1533086804.97511;116.79;941.66;172.451254597;10;149
41;paravance-5.rennes.grid5000.fr;thermos-root-devel-WordCountTopology-0-947ec5fc-3d64-4145-8bc0-6eec6adb5af8;["topology_master"];2.25;1533086805.0283;5.25;12.24;0.042111185;9;117
41;paravance-36.rennes.grid5000.fr;thermos-root-devel-WordCountTopology-2-683c13a0-2d6b-47fb-b515-dc7de488a2ef;["container_2_Emit_random_words_2"];2.25;1533086805.03728;72.4;872.86;18.037158618;10;149
42;paravance-5.rennes.grid5000.fr;thermos-root-devel-WordCountTopology-0-947ec5fc-3d64-4145-8bc0-6eec6adb5af8;["topology_master"];2.25;1533086815.24163;5.31;12.36;0.042111185;9;117
42;paravance-36.rennes.grid5000.fr;thermos-root-devel-WordCountTopology-2-683c13a0-2d6b-47fb-b515-dc7de488a2ef;["container_2_Emit_random_words_2"];2.25;1533086815.25295;73.83;890.33;18.144316324;10;149
42;paravance-4.rennes.grid5000.fr;thermos-root-devel-WordCountTopology-1-c4a0f0f9-2001-42e3-bd7a-2e015a28c32f;["container_1_Consume_and_count_1"];2.25;1533086815.19081;119.19;959.51;175.459410204;10;149
43;paravance-5.rennes.grid5000.fr;thermos-root-devel-WordCountTopology-0-947ec5fc-3d64-4145-8bc0-6eec6adb5af8;["topology_master"];2.25;1533086825.45765;5.41;12.49;0.042111185;9;117
43;paravance-36.rennes.grid5000.fr;thermos-root-devel-WordCountTopology-2-683c13a0-2d6b-47fb-b515-dc7de488a2ef;["container_2_Emit_random_words_2"];2.25;1533086825.46873;75.15;906.11;18.261263135;10;149
43;paravance-4.rennes.grid5000.fr;thermos-root-devel-WordCountTopology-1-c4a0f0f9-2001-42e3-bd7a-2e015a28c32f;["container_1_Consume_and_count_1"];2.25;1533086825.40653;121.24;977.21;178.373548374;10;149
44;paravance-4.rennes.grid5000.fr;thermos-root-devel-WordCountTopology-1-c4a0f0f9-2001-42e3-bd7a-2e015a28c32f;["container_1_Consume_and_count_1"];2.25;1533086835.52221;123.25;994.69;181.957200215;10;149
44;paravance-36.rennes.grid5000.fr;thermos-root-devel-WordCountTopology-2-683c13a0-2d6b-47fb-b515-dc7de488a2ef;["container_2_Emit_random_words_2"];2.25;1533086835.6847;76.33;920.41;18.261263135;10;149
44;paravance-5.rennes.grid5000.fr;thermos-root-devel-WordCountTopology-0-947ec5fc-3d64-4145-8bc0-6eec6adb5af8;["topology_master"];2.25;1533086835.67512;5.44;12.52;0.042111185;9;117
45;paravance-4.rennes.grid5000.fr;thermos-root-devel-WordCountTopology-1-c4a0f0f9-2001-42e3-bd7a-2e015a28c32f;["container_1_Consume_and_count_1"];2.25;1533086845.83785;125.39;1012.74;185.774202743;10;149
45;paravance-36.rennes.grid5000.fr;thermos-root-devel-WordCountTopology-2-683c13a0-2d6b-47fb-b515-dc7de488a2ef;["container_2_Emit_random_words_2"];2.25;1533086845.90126;77.62;935.72;18.33172697;10;149
45;paravance-5.rennes.grid5000.fr;thermos-root-devel-WordCountTopology-0-947ec5fc-3d64-4145-8bc0-6eec6adb5af8;["topology_master"];2.25;1533086845.89088;5.52;12.63;0.042111185;9;117
46;paravance-4.rennes.grid5000.fr;thermos-root-devel-WordCountTopology-1-c4a0f0f9-2001-42e3-bd7a-2e015a28c32f;["container_1_Consume_and_count_1"];2.25;1533086856.05216;127.24;1029.86;187.613383402;10;149
46;paravance-5.rennes.grid5000.fr;thermos-root-devel-WordCountTopology-0-947ec5fc-3d64-4145-8bc0-6eec6adb5af8;["topology_master"];2.25;1533086856.10525;5.58;12.71;0.042111185;9;117
46;paravance-36.rennes.grid5000.fr;thermos-root-devel-WordCountTopology-2-683c13a0-2d6b-47fb-b515-dc7de488a2ef;["container_2_Emit_random_words_2"];2.25;1533086856.11638;78.93;951.47;18.360884327;10;149
47;paravance-4.rennes.grid5000.fr;thermos-root-devel-WordCountTopology-1-c4a0f0f9-2001-42e3-bd7a-2e015a28c32f;["container_1_Consume_and_count_1"];2.25;1533086866.26787;129.28;1047.53;190.267970828;10;149
47;paravance-36.rennes.grid5000.fr;thermos-root-devel-WordCountTopology-2-683c13a0-2d6b-47fb-b515-dc7de488a2ef;["container_2_Emit_random_words_2"];2.25;1533086866.3303;80.26;967.4;18.360884327;10;149
47;paravance-5.rennes.grid5000.fr;thermos-root-devel-WordCountTopology-0-947ec5fc-3d64-4145-8bc0-6eec6adb5af8;["topology_master"];2.25;1533086866.32086;5.64;12.79;0.042111185;9;117
48;paravance-4.rennes.grid5000.fr;thermos-root-devel-WordCountTopology-1-c4a0f0f9-2001-42e3-bd7a-2e015a28c32f;["container_1_Consume_and_count_1"];2.25;1533086876.484;131.57;1064.81;193.016097718;10;149
48;paravance-36.rennes.grid5000.fr;thermos-root-devel-WordCountTopology-2-683c13a0-2d6b-47fb-b515-dc7de488a2ef;["container_2_Emit_random_words_2"];2.25;1533086876.54715;81.48;982.61;18.395173834;10;149
48;paravance-5.rennes.grid5000.fr;thermos-root-devel-WordCountTopology-0-947ec5fc-3d64-4145-8bc0-6eec6adb5af8;["topology_master"];2.25;1533086876.53626;5.7;12.95;0.042111185;9;117
49;paravance-5.rennes.grid5000.fr;thermos-root-devel-WordCountTopology-0-947ec5fc-3d64-4145-8bc0-6eec6adb5af8;["topology_master"];2.25;1533086886.75109;5.79;13.07;0.042111185;9;117
49;paravance-4.rennes.grid5000.fr;thermos-root-devel-WordCountTopology-1-c4a0f0f9-2001-42e3-bd7a-2e015a28c32f;["container_1_Consume_and_count_1"];2.25;1533086886.69955;134.04;1082.45;195.25785607;10;149
49;paravance-36.rennes.grid5000.fr;thermos-root-devel-WordCountTopology-2-683c13a0-2d6b-47fb-b515-dc7de488a2ef;["container_2_Emit_random_words_2"];2.25;1533086886.76216;82.85;999.66;18.474507457;10;149
50;paravance-4.rennes.grid5000.fr;thermos-root-devel-WordCountTopology-1-c4a0f0f9-2001-42e3-bd7a-2e015a28c32f;["container_1_Consume_and_count_1"];2.25;1533086896.91481;136.25;1099.79;197.669837719;10;149
50;paravance-36.rennes.grid5000.fr;thermos-root-devel-WordCountTopology-2-683c13a0-2d6b-47fb-b515-dc7de488a2ef;["container_2_Emit_random_words_2"];2.25;1533086896.97742;84.1;1015.09;18.474507457;10;149
50;paravance-5.rennes.grid5000.fr;thermos-root-devel-WordCountTopology-0-947ec5fc-3d64-4145-8bc0-6eec6adb5af8;["topology_master"];2.25;1533086896.96655;5.82;13.1;0.042111185;9;117
51;paravance-4.rennes.grid5000.fr;thermos-root-devel-WordCountTopology-1-c4a0f0f9-2001-42e3-bd7a-2e015a28c32f;["container_1_Consume_and_count_1"];2.25;1533086907.12871;138.37;1117.72;201.233484033;10;149
51;paravance-5.rennes.grid5000.fr;thermos-root-devel-WordCountTopology-0-947ec5fc-3d64-4145-8bc0-6eec6adb5af8;["topology_master"];2.25;1533086907.18262;5.91;13.22;0.042111185;9;117
51;paravance-36.rennes.grid5000.fr;thermos-root-devel-WordCountTopology-2-683c13a0-2d6b-47fb-b515-dc7de488a2ef;["container_2_Emit_random_words_2"];2.25;1533086907.19182;85.45;1030.95;18.546638011;10;149
52;paravance-5.rennes.grid5000.fr;thermos-root-devel-WordCountTopology-0-947ec5fc-3d64-4145-8bc0-6eec6adb5af8;["topology_master"];2.25;1533086917.39679;5.96;13.3;0.042111185;9;117
52;paravance-36.rennes.grid5000.fr;thermos-root-devel-WordCountTopology-2-683c13a0-2d6b-47fb-b515-dc7de488a2ef;["container_2_Emit_random_words_2"];2.25;1533086917.40731;86.69;1046.7;18.546638011;10;149
52;paravance-4.rennes.grid5000.fr;thermos-root-devel-WordCountTopology-1-c4a0f0f9-2001-42e3-bd7a-2e015a28c32f;["container_1_Consume_and_count_1"];2.25;1533086917.34587;140.38;1135.19;203.277641858;10;149
53;paravance-4.rennes.grid5000.fr;thermos-root-devel-WordCountTopology-1-c4a0f0f9-2001-42e3-bd7a-2e015a28c32f;["container_1_Consume_and_count_1"];2.25;1533086927.56093;142.62;1152.56;205.770070964;10;150
53;paravance-36.rennes.grid5000.fr;thermos-root-devel-WordCountTopology-2-683c13a0-2d6b-47fb-b515-dc7de488a2ef;["container_2_Emit_random_words_2"];2.25;1533086927.62323;88.07;1063.04;18.582785355;10;149
53;paravance-5.rennes.grid5000.fr;thermos-root-devel-WordCountTopology-0-947ec5fc-3d64-4145-8bc0-6eec6adb5af8;["topology_master"];2.25;1533086927.61337;6.03;13.39;0.042111185;9;117
54;paravance-4.rennes.grid5000.fr;thermos-root-devel-WordCountTopology-1-c4a0f0f9-2001-42e3-bd7a-2e015a28c32f;["container_1_Consume_and_count_1"];2.25;1533086937.77616;145.13;1170.12;208.64347142;10;150
54;paravance-5.rennes.grid5000.fr;thermos-root-devel-WordCountTopology-0-947ec5fc-3d64-4145-8bc0-6eec6adb5af8;["topology_master"];2.25;1533086937.8281;6.09;13.49;0.042111185;9;117
54;paravance-36.rennes.grid5000.fr;thermos-root-devel-WordCountTopology-2-683c13a0-2d6b-47fb-b515-dc7de488a2ef;["container_2_Emit_random_words_2"];2.25;1533086937.83906;89.51;1080.52;18.644711419;10;149
55;paravance-4.rennes.grid5000.fr;thermos-root-devel-WordCountTopology-1-c4a0f0f9-2001-42e3-bd7a-2e015a28c32f;["container_1_Consume_and_count_1"];2.25;1533086947.99067;147.46;1187.8;211.233307904;10;149
55;paravance-36.rennes.grid5000.fr;thermos-root-devel-WordCountTopology-2-683c13a0-2d6b-47fb-b515-dc7de488a2ef;["container_2_Emit_random_words_2"];2.25;1533086948.05362;90.86;1096.49;18.780785534;10;149
55;paravance-5.rennes.grid5000.fr;thermos-root-devel-WordCountTopology-0-947ec5fc-3d64-4145-8bc0-6eec6adb5af8;["topology_master"];2.25;1533086948.04402;6.18;13.61;0.042111185;9;117
56;paravance-4.rennes.grid5000.fr;thermos-root-devel-WordCountTopology-1-c4a0f0f9-2001-42e3-bd7a-2e015a28c32f;["container_1_Consume_and_count_1"];2.25;1533086958.20603;149.86;1205.85;214.699354839;10;149
56;paravance-36.rennes.grid5000.fr;thermos-root-devel-WordCountTopology-2-683c13a0-2d6b-47fb-b515-dc7de488a2ef;["container_2_Emit_random_words_2"];2.25;1533086958.27013;92.23;1113.89;18.780785534;10;149
56;paravance-5.rennes.grid5000.fr;thermos-root-devel-WordCountTopology-0-947ec5fc-3d64-4145-8bc0-6eec6adb5af8;["topology_master"];2.25;1533086958.25961;6.21;13.64;0.042111185;9;117
57;paravance-5.rennes.grid5000.fr;thermos-root-devel-WordCountTopology-0-947ec5fc-3d64-4145-8bc0-6eec6adb5af8;["topology_master"];2.25;1533086968.47538;6.31;13.77;0.042111185;9;117
57;paravance-36.rennes.grid5000.fr;thermos-root-devel-WordCountTopology-2-683c13a0-2d6b-47fb-b515-dc7de488a2ef;["container_2_Emit_random_words_2"];2.25;1533086968.48552;93.65;1130.54;18.884038029;10;149
57;paravance-4.rennes.grid5000.fr;thermos-root-devel-WordCountTopology-1-c4a0f0f9-2001-42e3-bd7a-2e015a28c32f;["container_1_Consume_and_count_1"];2.25;1533086968.42472;152.13;1223.76;218.052512272;10;149
58;paravance-5.rennes.grid5000.fr;thermos-root-devel-WordCountTopology-0-947ec5fc-3d64-4145-8bc0-6eec6adb5af8;["topology_master"];2.25;1533086978.69137;6.36;13.84;0.042111185;9;117
58;paravance-4.rennes.grid5000.fr;thermos-root-devel-WordCountTopology-1-c4a0f0f9-2001-42e3-bd7a-2e015a28c32f;["container_1_Consume_and_count_1"];2.25;1533086978.64001;154.15;1241.17;221.216553198;10;149
58;paravance-36.rennes.grid5000.fr;thermos-root-devel-WordCountTopology-2-683c13a0-2d6b-47fb-b515-dc7de488a2ef;["container_2_Emit_random_words_2"];2.25;1533086978.7035;94.9;1145.04;18.884038029;10;149
59;paravance-4.rennes.grid5000.fr;thermos-root-devel-WordCountTopology-1-c4a0f0f9-2001-42e3-bd7a-2e015a28c32f;["container_1_Consume_and_count_1"];2.25;1533086988.85537;156.29;1258.69;223.470980001;10;150
59;paravance-36.rennes.grid5000.fr;thermos-root-devel-WordCountTopology-2-683c13a0-2d6b-47fb-b515-dc7de488a2ef;["container_2_Emit_random_words_2"];2.25;1533086988.91796;96.24;1160.76;18.915584357;10;149
59;paravance-5.rennes.grid5000.fr;thermos-root-devel-WordCountTopology-0-947ec5fc-3d64-4145-8bc0-6eec6adb5af8;["topology_master"];2.25;1533086988.90811;6.44;13.96;0.042111185;9;117
60;paravance-4.rennes.grid5000.fr;thermos-root-devel-WordCountTopology-1-c4a0f0f9-2001-42e3-bd7a-2e015a28c32f;["container_1_Consume_and_count_1"];2.25;1533086999.07039;158.76;1276.38;226.309275406;10;150
60;paravance-5.rennes.grid5000.fr;thermos-root-devel-WordCountTopology-0-947ec5fc-3d64-4145-8bc0-6eec6adb5af8;["topology_master"];2.25;1533086999.12262;6.5;14.03;0.042111185;9;117
60;paravance-36.rennes.grid5000.fr;thermos-root-devel-WordCountTopology-2-683c13a0-2d6b-47fb-b515-dc7de488a2ef;["container_2_Emit_random_words_2"];2.25;1533086999.13361;97.66;1177.79;18.947755994;10;149
