mesure_id;slave_id;executor_id;heron_instances;cpus_limit;timestamp_B;cpus_system_time_secs_B;cpus_user_time_secs_B;cpus_throttled_time_secs_B;processes;threads
0;paravance-36.rennes.grid5000.fr;thermos-root-devel-WordCountTopology-2-683c13a0-2d6b-47fb-b515-dc7de488a2ef;["container_2_Emit_random_words_2"];2.25;1533086396.19018;18.89;223.18;15.016398666;10;149
0;paravance-4.rennes.grid5000.fr;thermos-root-devel-WordCountTopology-1-c4a0f0f9-2001-42e3-bd7a-2e015a28c32f;["container_1_Consume_and_count_1"];2.25;1533086396.23282;28.97;225.41;46.210679076;10;149
0;paravance-5.rennes.grid5000.fr;thermos-root-devel-WordCountTopology-0-947ec5fc-3d64-4145-8bc0-6eec6adb5af8;["topology_master"];2.25;1533086396.27619;2.52;8.25;0.042111185;9;117
1;paravance-4.rennes.grid5000.fr;thermos-root-devel-WordCountTopology-1-c4a0f0f9-2001-42e3-bd7a-2e015a28c32f;["container_1_Consume_and_count_1"];2.25;1533086406.35252;31.16;243.39;50.26903955;10;149
1;paravance-5.rennes.grid5000.fr;thermos-root-devel-WordCountTopology-0-947ec5fc-3d64-4145-8bc0-6eec6adb5af8;["topology_master"];2.25;1533086406.49528;2.61;8.38;0.042111185;9;117
1;paravance-36.rennes.grid5000.fr;thermos-root-devel-WordCountTopology-2-683c13a0-2d6b-47fb-b515-dc7de488a2ef;["container_2_Emit_random_words_2"];2.25;1533086406.41582;20.27;239.54;15.07762735;10;149
2;paravance-36.rennes.grid5000.fr;thermos-root-devel-WordCountTopology-2-683c13a0-2d6b-47fb-b515-dc7de488a2ef;["container_2_Emit_random_words_2"];2.25;1533086416.53705;21.54;255.07;15.086635303;10;149
2;paravance-4.rennes.grid5000.fr;thermos-root-devel-WordCountTopology-1-c4a0f0f9-2001-42e3-bd7a-2e015a28c32f;["container_1_Consume_and_count_1"];2.25;1533086416.66796;33.3;261.24;53.358255673;10;149
2;paravance-5.rennes.grid5000.fr;thermos-root-devel-WordCountTopology-0-947ec5fc-3d64-4145-8bc0-6eec6adb5af8;["topology_master"];2.25;1533086416.71869;2.64;8.41;0.042111185;9;117
3;paravance-4.rennes.grid5000.fr;thermos-root-devel-WordCountTopology-1-c4a0f0f9-2001-42e3-bd7a-2e015a28c32f;["container_1_Consume_and_count_1"];2.25;1533086426.88303;35.53;279.12;56.391304122;10;149
3;paravance-5.rennes.grid5000.fr;thermos-root-devel-WordCountTopology-0-947ec5fc-3d64-4145-8bc0-6eec6adb5af8;["topology_master"];2.25;1533086426.93542;2.73;8.54;0.042111185;9;117
3;paravance-36.rennes.grid5000.fr;thermos-root-devel-WordCountTopology-2-683c13a0-2d6b-47fb-b515-dc7de488a2ef;["container_2_Emit_random_words_2"];2.25;1533086426.85667;22.92;271.91;15.17061729;10;149
4;paravance-5.rennes.grid5000.fr;thermos-root-devel-WordCountTopology-0-947ec5fc-3d64-4145-8bc0-6eec6adb5af8;["topology_master"];2.25;1533086437.14985;2.79;8.62;0.042111185;9;117
4;paravance-4.rennes.grid5000.fr;thermos-root-devel-WordCountTopology-1-c4a0f0f9-2001-42e3-bd7a-2e015a28c32f;["container_1_Consume_and_count_1"];2.25;1533086437.09749;37.61;296.96;59.016110362;10;149
4;paravance-36.rennes.grid5000.fr;thermos-root-devel-WordCountTopology-2-683c13a0-2d6b-47fb-b515-dc7de488a2ef;["container_2_Emit_random_words_2"];2.25;1533086437.07645;24.19;287.36;15.175691018;10;149
5;paravance-5.rennes.grid5000.fr;thermos-root-devel-WordCountTopology-0-947ec5fc-3d64-4145-8bc0-6eec6adb5af8;["topology_master"];2.25;1533086447.36656;2.91;8.79;0.042111185;9;117
5;paravance-36.rennes.grid5000.fr;thermos-root-devel-WordCountTopology-2-683c13a0-2d6b-47fb-b515-dc7de488a2ef;["container_2_Emit_random_words_2"];2.25;1533086447.29849;25.66;304.62;15.344098829;10;149
5;paravance-4.rennes.grid5000.fr;thermos-root-devel-WordCountTopology-1-c4a0f0f9-2001-42e3-bd7a-2e015a28c32f;["container_1_Consume_and_count_1"];2.25;1533086447.31576;39.92;315.1;64.29908678;10;149
6;paravance-4.rennes.grid5000.fr;thermos-root-devel-WordCountTopology-1-c4a0f0f9-2001-42e3-bd7a-2e015a28c32f;["container_1_Consume_and_count_1"];2.25;1533086457.52815;41.81;333.72;68.555946852;10;149
6;paravance-5.rennes.grid5000.fr;thermos-root-devel-WordCountTopology-0-947ec5fc-3d64-4145-8bc0-6eec6adb5af8;["topology_master"];2.25;1533086457.58118;2.94;8.88;0.042111185;9;117
6;paravance-36.rennes.grid5000.fr;thermos-root-devel-WordCountTopology-2-683c13a0-2d6b-47fb-b515-dc7de488a2ef;["container_2_Emit_random_words_2"];2.25;1533086457.51832;26.89;319.51;15.348206486;10;149
7;paravance-4.rennes.grid5000.fr;thermos-root-devel-WordCountTopology-1-c4a0f0f9-2001-42e3-bd7a-2e015a28c32f;["container_1_Consume_and_count_1"];2.25;1533086467.74385;43.86;351.13;71.996215531;10;149
7;paravance-36.rennes.grid5000.fr;thermos-root-devel-WordCountTopology-2-683c13a0-2d6b-47fb-b515-dc7de488a2ef;["container_2_Emit_random_words_2"];2.25;1533086467.73817;28.12;333.72;15.423443469;10;149
7;paravance-5.rennes.grid5000.fr;thermos-root-devel-WordCountTopology-0-947ec5fc-3d64-4145-8bc0-6eec6adb5af8;["topology_master"];2.25;1533086467.79672;3.03;9.01;0.042111185;9;117
8;paravance-4.rennes.grid5000.fr;thermos-root-devel-WordCountTopology-1-c4a0f0f9-2001-42e3-bd7a-2e015a28c32f;["container_1_Consume_and_count_1"];2.25;1533086477.9602;45.89;368.7;74.784555814;10;149
8;paravance-36.rennes.grid5000.fr;thermos-root-devel-WordCountTopology-2-683c13a0-2d6b-47fb-b515-dc7de488a2ef;["container_2_Emit_random_words_2"];2.25;1533086477.95866;29.39;348.94;15.47412181;10;149
8;paravance-5.rennes.grid5000.fr;thermos-root-devel-WordCountTopology-0-947ec5fc-3d64-4145-8bc0-6eec6adb5af8;["topology_master"];2.25;1533086478.01301;3.09;9.09;0.042111185;9;117
9;paravance-36.rennes.grid5000.fr;thermos-root-devel-WordCountTopology-2-683c13a0-2d6b-47fb-b515-dc7de488a2ef;["container_2_Emit_random_words_2"];2.25;1533086488.17798;30.75;366.19;15.514949866;10;149
9;paravance-4.rennes.grid5000.fr;thermos-root-devel-WordCountTopology-1-c4a0f0f9-2001-42e3-bd7a-2e015a28c32f;["container_1_Consume_and_count_1"];2.25;1533086488.17555;48.08;386.38;78.089725795;10;149
9;paravance-5.rennes.grid5000.fr;thermos-root-devel-WordCountTopology-0-947ec5fc-3d64-4145-8bc0-6eec6adb5af8;["topology_master"];2.25;1533086488.22741;3.15;9.17;0.042111185;9;117
10;paravance-5.rennes.grid5000.fr;thermos-root-devel-WordCountTopology-0-947ec5fc-3d64-4145-8bc0-6eec6adb5af8;["topology_master"];2.25;1533086498.43987;3.21;9.24;0.042111185;9;117
10;paravance-36.rennes.grid5000.fr;thermos-root-devel-WordCountTopology-2-683c13a0-2d6b-47fb-b515-dc7de488a2ef;["container_2_Emit_random_words_2"];2.25;1533086498.39642;32.07;381.92;15.549693025;10;149
10;paravance-4.rennes.grid5000.fr;thermos-root-devel-WordCountTopology-1-c4a0f0f9-2001-42e3-bd7a-2e015a28c32f;["container_1_Consume_and_count_1"];2.25;1533086498.38854;50.14;403.73;80.529682313;10;149
11;paravance-36.rennes.grid5000.fr;thermos-root-devel-WordCountTopology-2-683c13a0-2d6b-47fb-b515-dc7de488a2ef;["container_2_Emit_random_words_2"];2.25;1533086508.51816;33.35;396.6;15.715693969;10;149
11;paravance-4.rennes.grid5000.fr;thermos-root-devel-WordCountTopology-1-c4a0f0f9-2001-42e3-bd7a-2e015a28c32f;["container_1_Consume_and_count_1"];2.25;1533086508.60382;52.05;421.48;83.629734188;10;149
11;paravance-5.rennes.grid5000.fr;thermos-root-devel-WordCountTopology-0-947ec5fc-3d64-4145-8bc0-6eec6adb5af8;["topology_master"];2.25;1533086508.65557;3.32;9.47;0.042111185;9;117
12;paravance-4.rennes.grid5000.fr;thermos-root-devel-WordCountTopology-1-c4a0f0f9-2001-42e3-bd7a-2e015a28c32f;["container_1_Consume_and_count_1"];2.25;1533086518.8171;54.02;439.49;86.459205343;10;149
12;paravance-5.rennes.grid5000.fr;thermos-root-devel-WordCountTopology-0-947ec5fc-3d64-4145-8bc0-6eec6adb5af8;["topology_master"];2.25;1533086518.87004;3.35;9.49;0.042111185;9;117
12;paravance-36.rennes.grid5000.fr;thermos-root-devel-WordCountTopology-2-683c13a0-2d6b-47fb-b515-dc7de488a2ef;["container_2_Emit_random_words_2"];2.25;1533086518.83825;34.53;410.84;15.715760281;10;149
13;paravance-36.rennes.grid5000.fr;thermos-root-devel-WordCountTopology-2-683c13a0-2d6b-47fb-b515-dc7de488a2ef;["container_2_Emit_random_words_2"];2.25;1533086529.05793;35.88;426.82;15.78512201;10;149
13;paravance-4.rennes.grid5000.fr;thermos-root-devel-WordCountTopology-1-c4a0f0f9-2001-42e3-bd7a-2e015a28c32f;["container_1_Consume_and_count_1"];2.25;1533086529.03524;56.12;456.86;88.821071476;10;149
13;paravance-5.rennes.grid5000.fr;thermos-root-devel-WordCountTopology-0-947ec5fc-3d64-4145-8bc0-6eec6adb5af8;["topology_master"];2.25;1533086529.08578;3.44;9.63;0.042111185;9;117
14;paravance-36.rennes.grid5000.fr;thermos-root-devel-WordCountTopology-2-683c13a0-2d6b-47fb-b515-dc7de488a2ef;["container_2_Emit_random_words_2"];2.25;1533086539.28049;37.06;440.72;15.78512201;10;149
14;paravance-5.rennes.grid5000.fr;thermos-root-devel-WordCountTopology-0-947ec5fc-3d64-4145-8bc0-6eec6adb5af8;["topology_master"];2.25;1533086539.30406;3.5;9.7;0.042111185;9;117
14;paravance-4.rennes.grid5000.fr;thermos-root-devel-WordCountTopology-1-c4a0f0f9-2001-42e3-bd7a-2e015a28c32f;["container_1_Consume_and_count_1"];2.25;1533086539.25122;58.13;474.78;91.8221012;10;149
15;paravance-4.rennes.grid5000.fr;thermos-root-devel-WordCountTopology-1-c4a0f0f9-2001-42e3-bd7a-2e015a28c32f;["container_1_Consume_and_count_1"];2.25;1533086549.46511;60.26;492.24;94.248214311;10;149
15;paravance-36.rennes.grid5000.fr;thermos-root-devel-WordCountTopology-2-683c13a0-2d6b-47fb-b515-dc7de488a2ef;["container_2_Emit_random_words_2"];2.25;1533086549.49978;38.37;456.24;15.793359582;10;149
15;paravance-5.rennes.grid5000.fr;thermos-root-devel-WordCountTopology-0-947ec5fc-3d64-4145-8bc0-6eec6adb5af8;["topology_master"];2.25;1533086549.51858;3.56;9.79;0.042111185;9;117
16;paravance-4.rennes.grid5000.fr;thermos-root-devel-WordCountTopology-1-c4a0f0f9-2001-42e3-bd7a-2e015a28c32f;["container_1_Consume_and_count_1"];2.25;1533086559.68096;62.39;509.32;96.739249392;10;149
16;paravance-5.rennes.grid5000.fr;thermos-root-devel-WordCountTopology-0-947ec5fc-3d64-4145-8bc0-6eec6adb5af8;["topology_master"];2.25;1533086559.73244;3.61;9.86;0.042111185;9;117
16;paravance-36.rennes.grid5000.fr;thermos-root-devel-WordCountTopology-2-683c13a0-2d6b-47fb-b515-dc7de488a2ef;["container_2_Emit_random_words_2"];2.25;1533086559.72059;39.59;471.24;15.887970021;10;149
17;paravance-4.rennes.grid5000.fr;thermos-root-devel-WordCountTopology-1-c4a0f0f9-2001-42e3-bd7a-2e015a28c32f;["container_1_Consume_and_count_1"];2.25;1533086569.89305;64.83;527.19;100.327561202;10;149
17;paravance-36.rennes.grid5000.fr;thermos-root-devel-WordCountTopology-2-683c13a0-2d6b-47fb-b515-dc7de488a2ef;["container_2_Emit_random_words_2"];2.25;1533086569.9399;41.09;489.27;16.496328014;10;149
17;paravance-5.rennes.grid5000.fr;thermos-root-devel-WordCountTopology-0-947ec5fc-3d64-4145-8bc0-6eec6adb5af8;["topology_master"];2.25;1533086569.94888;3.74;10.09;0.042111185;9;117
18;paravance-4.rennes.grid5000.fr;thermos-root-devel-WordCountTopology-1-c4a0f0f9-2001-42e3-bd7a-2e015a28c32f;["container_1_Consume_and_count_1"];2.25;1533086580.10988;66.82;545.16;103.904653141;10;149
18;paravance-36.rennes.grid5000.fr;thermos-root-devel-WordCountTopology-2-683c13a0-2d6b-47fb-b515-dc7de488a2ef;["container_2_Emit_random_words_2"];2.25;1533086580.16022;42.36;505.63;16.512039965;10;149
18;paravance-5.rennes.grid5000.fr;thermos-root-devel-WordCountTopology-0-947ec5fc-3d64-4145-8bc0-6eec6adb5af8;["topology_master"];2.25;1533086580.16471;3.76;10.12;0.042111185;9;117
19;paravance-36.rennes.grid5000.fr;thermos-root-devel-WordCountTopology-2-683c13a0-2d6b-47fb-b515-dc7de488a2ef;["container_2_Emit_random_words_2"];2.25;1533086590.38153;43.71;522.3;16.640311995;10;149
19;paravance-4.rennes.grid5000.fr;thermos-root-devel-WordCountTopology-1-c4a0f0f9-2001-42e3-bd7a-2e015a28c32f;["container_1_Consume_and_count_1"];2.25;1533086590.32794;69.2;562.86;107.170576697;10;149
19;paravance-5.rennes.grid5000.fr;thermos-root-devel-WordCountTopology-0-947ec5fc-3d64-4145-8bc0-6eec6adb5af8;["topology_master"];2.25;1533086590.37946;3.85;10.25;0.042111185;9;117
20;paravance-4.rennes.grid5000.fr;thermos-root-devel-WordCountTopology-1-c4a0f0f9-2001-42e3-bd7a-2e015a28c32f;["container_1_Consume_and_count_1"];2.25;1533086600.54264;71.58;580.84;110.069218718;10;149
20;paravance-5.rennes.grid5000.fr;thermos-root-devel-WordCountTopology-0-947ec5fc-3d64-4145-8bc0-6eec6adb5af8;["topology_master"];2.25;1533086600.59472;3.91;10.32;0.042111185;9;117
20;paravance-36.rennes.grid5000.fr;thermos-root-devel-WordCountTopology-2-683c13a0-2d6b-47fb-b515-dc7de488a2ef;["container_2_Emit_random_words_2"];2.25;1533086600.60354;45.14;540.73;16.700231991;10;149
21;paravance-36.rennes.grid5000.fr;thermos-root-devel-WordCountTopology-2-683c13a0-2d6b-47fb-b515-dc7de488a2ef;["container_2_Emit_random_words_2"];2.25;1533086610.82027;46.45;557.68;16.793003031;10;149
21;paravance-4.rennes.grid5000.fr;thermos-root-devel-WordCountTopology-1-c4a0f0f9-2001-42e3-bd7a-2e015a28c32f;["container_1_Consume_and_count_1"];2.25;1533086610.75813;73.82;598.4;112.637034957;10;149
21;paravance-5.rennes.grid5000.fr;thermos-root-devel-WordCountTopology-0-947ec5fc-3d64-4145-8bc0-6eec6adb5af8;["topology_master"];2.25;1533086610.81091;3.97;10.39;0.042111185;9;117
22;paravance-4.rennes.grid5000.fr;thermos-root-devel-WordCountTopology-1-c4a0f0f9-2001-42e3-bd7a-2e015a28c32f;["container_1_Consume_and_count_1"];2.25;1533086620.97232;75.89;616.8;115.522107711;10;149
22;paravance-5.rennes.grid5000.fr;thermos-root-devel-WordCountTopology-0-947ec5fc-3d64-4145-8bc0-6eec6adb5af8;["topology_master"];2.25;1533086621.0249;4.02;10.47;0.042111185;9;117
22;paravance-36.rennes.grid5000.fr;thermos-root-devel-WordCountTopology-2-683c13a0-2d6b-47fb-b515-dc7de488a2ef;["container_2_Emit_random_words_2"];2.25;1533086621.0365;47.76;574.56;16.833250886;10;149
23;paravance-4.rennes.grid5000.fr;thermos-root-devel-WordCountTopology-1-c4a0f0f9-2001-42e3-bd7a-2e015a28c32f;["container_1_Consume_and_count_1"];2.25;1533086631.18618;78.04;634.96;119.058871835;10;149
23;paravance-36.rennes.grid5000.fr;thermos-root-devel-WordCountTopology-2-683c13a0-2d6b-47fb-b515-dc7de488a2ef;["container_2_Emit_random_words_2"];2.25;1533086631.24992;49.09;591.22;17.038550642;10;149
23;paravance-5.rennes.grid5000.fr;thermos-root-devel-WordCountTopology-0-947ec5fc-3d64-4145-8bc0-6eec6adb5af8;["topology_master"];2.25;1533086631.23939;4.14;10.66;0.042111185;9;117
24;paravance-4.rennes.grid5000.fr;thermos-root-devel-WordCountTopology-1-c4a0f0f9-2001-42e3-bd7a-2e015a28c32f;["container_1_Consume_and_count_1"];2.25;1533086641.40264;80.3;652.88;122.311375673;10;149
24;paravance-5.rennes.grid5000.fr;thermos-root-devel-WordCountTopology-0-947ec5fc-3d64-4145-8bc0-6eec6adb5af8;["topology_master"];2.25;1533086641.45534;4.17;10.69;0.042111185;9;117
24;paravance-36.rennes.grid5000.fr;thermos-root-devel-WordCountTopology-2-683c13a0-2d6b-47fb-b515-dc7de488a2ef;["container_2_Emit_random_words_2"];2.25;1533086641.46588;50.38;606.83;17.038550642;10;149
25;paravance-36.rennes.grid5000.fr;thermos-root-devel-WordCountTopology-2-683c13a0-2d6b-47fb-b515-dc7de488a2ef;["container_2_Emit_random_words_2"];2.25;1533086651.68024;51.77;624.0;17.114775971;10;149
25;paravance-5.rennes.grid5000.fr;thermos-root-devel-WordCountTopology-0-947ec5fc-3d64-4145-8bc0-6eec6adb5af8;["topology_master"];2.25;1533086651.67047;4.26;10.81;0.042111185;9;117
25;paravance-4.rennes.grid5000.fr;thermos-root-devel-WordCountTopology-1-c4a0f0f9-2001-42e3-bd7a-2e015a28c32f;["container_1_Consume_and_count_1"];2.25;1533086651.6192;82.8;670.96;125.074756663;10;149
26;paravance-4.rennes.grid5000.fr;thermos-root-devel-WordCountTopology-1-c4a0f0f9-2001-42e3-bd7a-2e015a28c32f;["container_1_Consume_and_count_1"];2.25;1533086661.83108;85.14;688.89;127.797827331;10;149
26;paravance-5.rennes.grid5000.fr;thermos-root-devel-WordCountTopology-0-947ec5fc-3d64-4145-8bc0-6eec6adb5af8;["topology_master"];2.25;1533086661.88383;4.31;10.89;0.042111185;9;117
26;paravance-36.rennes.grid5000.fr;thermos-root-devel-WordCountTopology-2-683c13a0-2d6b-47fb-b515-dc7de488a2ef;["container_2_Emit_random_words_2"];2.25;1533086661.89496;53.2;641.32;17.137247355;10;149
27;paravance-4.rennes.grid5000.fr;thermos-root-devel-WordCountTopology-1-c4a0f0f9-2001-42e3-bd7a-2e015a28c32f;["container_1_Consume_and_count_1"];2.25;1533086672.04432;87.38;706.98;131.41088596;10;149
27;paravance-36.rennes.grid5000.fr;thermos-root-devel-WordCountTopology-2-683c13a0-2d6b-47fb-b515-dc7de488a2ef;["container_2_Emit_random_words_2"];2.25;1533086672.10909;54.65;658.92;17.191180741;10;149
27;paravance-5.rennes.grid5000.fr;thermos-root-devel-WordCountTopology-0-947ec5fc-3d64-4145-8bc0-6eec6adb5af8;["topology_master"];2.25;1533086672.10006;4.37;10.97;0.042111185;9;117
28;paravance-5.rennes.grid5000.fr;thermos-root-devel-WordCountTopology-0-947ec5fc-3d64-4145-8bc0-6eec6adb5af8;["topology_master"];2.25;1533086682.31591;4.43;11.04;0.042111185;9;117
28;paravance-4.rennes.grid5000.fr;thermos-root-devel-WordCountTopology-1-c4a0f0f9-2001-42e3-bd7a-2e015a28c32f;["container_1_Consume_and_count_1"];2.25;1533086682.26561;89.47;724.98;135.145353715;10;149
28;paravance-36.rennes.grid5000.fr;thermos-root-devel-WordCountTopology-2-683c13a0-2d6b-47fb-b515-dc7de488a2ef;["container_2_Emit_random_words_2"];2.25;1533086682.32819;55.96;674.78;17.215335783;10;149
29;paravance-36.rennes.grid5000.fr;thermos-root-devel-WordCountTopology-2-683c13a0-2d6b-47fb-b515-dc7de488a2ef;["container_2_Emit_random_words_2"];2.25;1533086692.54291;57.44;692.3;17.459443106;10;149
29;paravance-4.rennes.grid5000.fr;thermos-root-devel-WordCountTopology-1-c4a0f0f9-2001-42e3-bd7a-2e015a28c32f;["container_1_Consume_and_count_1"];2.25;1533086692.48086;92.02;742.92;138.021915266;10;149
29;paravance-5.rennes.grid5000.fr;thermos-root-devel-WordCountTopology-0-947ec5fc-3d64-4145-8bc0-6eec6adb5af8;["topology_master"];2.25;1533086692.5332;4.54;11.23;0.042111185;9;117
30;paravance-36.rennes.grid5000.fr;thermos-root-devel-WordCountTopology-2-683c13a0-2d6b-47fb-b515-dc7de488a2ef;["container_2_Emit_random_words_2"];2.25;1533086702.75733;58.72;707.52;17.53346842;10;149
30;paravance-5.rennes.grid5000.fr;thermos-root-devel-WordCountTopology-0-947ec5fc-3d64-4145-8bc0-6eec6adb5af8;["topology_master"];2.25;1533086702.7485;4.6;11.3;0.042111185;9;117
30;paravance-4.rennes.grid5000.fr;thermos-root-devel-WordCountTopology-1-c4a0f0f9-2001-42e3-bd7a-2e015a28c32f;["container_1_Consume_and_count_1"];2.25;1533086702.69463;94.33;761.74;142.040150926;10;149
31;paravance-5.rennes.grid5000.fr;thermos-root-devel-WordCountTopology-0-947ec5fc-3d64-4145-8bc0-6eec6adb5af8;["topology_master"];2.25;1533086712.96484;4.66;11.37;0.042111185;9;117
31;paravance-36.rennes.grid5000.fr;thermos-root-devel-WordCountTopology-2-683c13a0-2d6b-47fb-b515-dc7de488a2ef;["container_2_Emit_random_words_2"];2.25;1533086712.97492;60.14;724.9;17.55358934;10;149
31;paravance-4.rennes.grid5000.fr;thermos-root-devel-WordCountTopology-1-c4a0f0f9-2001-42e3-bd7a-2e015a28c32f;["container_1_Consume_and_count_1"];2.25;1533086712.91294;96.78;779.66;145.036653624;10;149
32;paravance-4.rennes.grid5000.fr;thermos-root-devel-WordCountTopology-1-c4a0f0f9-2001-42e3-bd7a-2e015a28c32f;["container_1_Consume_and_count_1"];2.25;1533086723.12885;99.11;797.73;148.141521558;10;149
32;paravance-36.rennes.grid5000.fr;thermos-root-devel-WordCountTopology-2-683c13a0-2d6b-47fb-b515-dc7de488a2ef;["container_2_Emit_random_words_2"];2.25;1533086723.19174;61.58;742.2;17.627803306;10;149
32;paravance-5.rennes.grid5000.fr;thermos-root-devel-WordCountTopology-0-947ec5fc-3d64-4145-8bc0-6eec6adb5af8;["topology_master"];2.25;1533086723.18116;4.74;11.5;0.042111185;9;117
33;paravance-4.rennes.grid5000.fr;thermos-root-devel-WordCountTopology-1-c4a0f0f9-2001-42e3-bd7a-2e015a28c32f;["container_1_Consume_and_count_1"];2.25;1533086733.34158;101.22;815.66;151.643250614;10;149
33;paravance-36.rennes.grid5000.fr;thermos-root-devel-WordCountTopology-2-683c13a0-2d6b-47fb-b515-dc7de488a2ef;["container_2_Emit_random_words_2"];2.25;1533086733.40868;62.92;758.72;17.627818405;10;149
33;paravance-5.rennes.grid5000.fr;thermos-root-devel-WordCountTopology-0-947ec5fc-3d64-4145-8bc0-6eec6adb5af8;["topology_master"];2.25;1533086733.39898;4.77;11.52;0.042111185;9;117
34;paravance-4.rennes.grid5000.fr;thermos-root-devel-WordCountTopology-1-c4a0f0f9-2001-42e3-bd7a-2e015a28c32f;["container_1_Consume_and_count_1"];2.25;1533086743.55934;103.61;833.69;154.756777046;10;149
34;paravance-36.rennes.grid5000.fr;thermos-root-devel-WordCountTopology-2-683c13a0-2d6b-47fb-b515-dc7de488a2ef;["container_2_Emit_random_words_2"];2.25;1533086743.62446;64.35;775.56;17.747013503;10;149
34;paravance-5.rennes.grid5000.fr;thermos-root-devel-WordCountTopology-0-947ec5fc-3d64-4145-8bc0-6eec6adb5af8;["topology_master"];2.25;1533086743.61379;4.86;11.65;0.042111185;9;117
35;paravance-5.rennes.grid5000.fr;thermos-root-devel-WordCountTopology-0-947ec5fc-3d64-4145-8bc0-6eec6adb5af8;["topology_master"];2.25;1533086753.7294;4.93;11.82;0.042111185;9;117
35;paravance-4.rennes.grid5000.fr;thermos-root-devel-WordCountTopology-1-c4a0f0f9-2001-42e3-bd7a-2e015a28c32f;["container_1_Consume_and_count_1"];2.25;1533086753.77499;105.9;851.62;157.783816672;10;149
35;paravance-36.rennes.grid5000.fr;thermos-root-devel-WordCountTopology-2-683c13a0-2d6b-47fb-b515-dc7de488a2ef;["container_2_Emit_random_words_2"];2.25;1533086753.8397;65.67;791.4;17.831561079;10;149
36;paravance-4.rennes.grid5000.fr;thermos-root-devel-WordCountTopology-1-c4a0f0f9-2001-42e3-bd7a-2e015a28c32f;["container_1_Consume_and_count_1"];2.25;1533086763.99196;108.17;869.62;160.448841117;10;149
36;paravance-5.rennes.grid5000.fr;thermos-root-devel-WordCountTopology-0-947ec5fc-3d64-4145-8bc0-6eec6adb5af8;["topology_master"];2.25;1533086764.04571;4.99;11.89;0.042111185;9;117
36;paravance-36.rennes.grid5000.fr;thermos-root-devel-WordCountTopology-2-683c13a0-2d6b-47fb-b515-dc7de488a2ef;["container_2_Emit_random_words_2"];2.25;1533086764.05592;66.98;807.12;17.865510172;10;149
37;paravance-4.rennes.grid5000.fr;thermos-root-devel-WordCountTopology-1-c4a0f0f9-2001-42e3-bd7a-2e015a28c32f;["container_1_Consume_and_count_1"];2.25;1533086774.20828;110.39;887.13;163.473133713;10;149
37;paravance-36.rennes.grid5000.fr;thermos-root-devel-WordCountTopology-2-683c13a0-2d6b-47fb-b515-dc7de488a2ef;["container_2_Emit_random_words_2"];2.25;1533086774.27136;68.42;824.8;17.925710869;10;149
37;paravance-5.rennes.grid5000.fr;thermos-root-devel-WordCountTopology-0-947ec5fc-3d64-4145-8bc0-6eec6adb5af8;["topology_master"];2.25;1533086774.26101;5.04;11.97;0.042111185;9;117
38;paravance-4.rennes.grid5000.fr;thermos-root-devel-WordCountTopology-1-c4a0f0f9-2001-42e3-bd7a-2e015a28c32f;["container_1_Consume_and_count_1"];2.25;1533086784.42263;112.25;905.55;167.241245701;10;149
38;paravance-5.rennes.grid5000.fr;thermos-root-devel-WordCountTopology-0-947ec5fc-3d64-4145-8bc0-6eec6adb5af8;["topology_master"];2.25;1533086784.47498;5.13;12.09;0.042111185;9;117
38;paravance-36.rennes.grid5000.fr;thermos-root-devel-WordCountTopology-2-683c13a0-2d6b-47fb-b515-dc7de488a2ef;["container_2_Emit_random_words_2"];2.25;1533086784.48552;69.63;838.82;17.964292909;10;149
39;paravance-5.rennes.grid5000.fr;thermos-root-devel-WordCountTopology-0-947ec5fc-3d64-4145-8bc0-6eec6adb5af8;["topology_master"];2.25;1533086794.68953;5.18;12.16;0.042111185;9;117
39;paravance-4.rennes.grid5000.fr;thermos-root-devel-WordCountTopology-1-c4a0f0f9-2001-42e3-bd7a-2e015a28c32f;["container_1_Consume_and_count_1"];2.25;1533086794.63793;114.34;923.43;169.822911288;10;149
39;paravance-36.rennes.grid5000.fr;thermos-root-devel-WordCountTopology-2-683c13a0-2d6b-47fb-b515-dc7de488a2ef;["container_2_Emit_random_words_2"];2.25;1533086794.70049;71.0;855.87;17.988607683;10;149
40;paravance-5.rennes.grid5000.fr;thermos-root-devel-WordCountTopology-0-947ec5fc-3d64-4145-8bc0-6eec6adb5af8;["topology_master"];2.25;1533086804.91561;5.25;12.24;0.042111185;9;117
40;paravance-4.rennes.grid5000.fr;thermos-root-devel-WordCountTopology-1-c4a0f0f9-2001-42e3-bd7a-2e015a28c32f;["container_1_Consume_and_count_1"];2.25;1533086804.86637;116.77;941.44;172.435191502;10;149
40;paravance-36.rennes.grid5000.fr;thermos-root-devel-WordCountTopology-2-683c13a0-2d6b-47fb-b515-dc7de488a2ef;["container_2_Emit_random_words_2"];2.25;1533086804.93056;72.39;872.67;18.037158618;10;149
41;paravance-4.rennes.grid5000.fr;thermos-root-devel-WordCountTopology-1-c4a0f0f9-2001-42e3-bd7a-2e015a28c32f;["container_1_Consume_and_count_1"];2.25;1533086815.0806;119.17;959.37;175.399374472;10;149
41;paravance-5.rennes.grid5000.fr;thermos-root-devel-WordCountTopology-0-947ec5fc-3d64-4145-8bc0-6eec6adb5af8;["topology_master"];2.25;1533086815.13461;5.31;12.36;0.042111185;9;117
41;paravance-36.rennes.grid5000.fr;thermos-root-devel-WordCountTopology-2-683c13a0-2d6b-47fb-b515-dc7de488a2ef;["container_2_Emit_random_words_2"];2.25;1533086815.14488;73.81;890.14;18.144316324;10;149
42;paravance-5.rennes.grid5000.fr;thermos-root-devel-WordCountTopology-0-947ec5fc-3d64-4145-8bc0-6eec6adb5af8;["topology_master"];2.25;1533086825.349;5.41;12.49;0.042111185;9;117
42;paravance-36.rennes.grid5000.fr;thermos-root-devel-WordCountTopology-2-683c13a0-2d6b-47fb-b515-dc7de488a2ef;["container_2_Emit_random_words_2"];2.25;1533086825.35946;75.14;905.91;18.261263135;10;149
42;paravance-4.rennes.grid5000.fr;thermos-root-devel-WordCountTopology-1-c4a0f0f9-2001-42e3-bd7a-2e015a28c32f;["container_1_Consume_and_count_1"];2.25;1533086825.29762;121.22;977.04;178.373548374;10;149
43;paravance-5.rennes.grid5000.fr;thermos-root-devel-WordCountTopology-0-947ec5fc-3d64-4145-8bc0-6eec6adb5af8;["topology_master"];2.25;1533086835.56438;5.44;12.52;0.042111185;9;117
43;paravance-36.rennes.grid5000.fr;thermos-root-devel-WordCountTopology-2-683c13a0-2d6b-47fb-b515-dc7de488a2ef;["container_2_Emit_random_words_2"];2.25;1533086835.57488;76.31;920.2;18.261263135;10;149
43;paravance-4.rennes.grid5000.fr;thermos-root-devel-WordCountTopology-1-c4a0f0f9-2001-42e3-bd7a-2e015a28c32f;["container_1_Consume_and_count_1"];2.25;1533086835.51412;123.25;994.69;181.877141082;10;149
44;paravance-4.rennes.grid5000.fr;thermos-root-devel-WordCountTopology-1-c4a0f0f9-2001-42e3-bd7a-2e015a28c32f;["container_1_Consume_and_count_1"];2.25;1533086845.62801;125.35;1012.46;185.774202743;10;149
44;paravance-36.rennes.grid5000.fr;thermos-root-devel-WordCountTopology-2-683c13a0-2d6b-47fb-b515-dc7de488a2ef;["container_2_Emit_random_words_2"];2.25;1533086845.79193;77.61;935.51;18.33172697;10;149
44;paravance-5.rennes.grid5000.fr;thermos-root-devel-WordCountTopology-0-947ec5fc-3d64-4145-8bc0-6eec6adb5af8;["topology_master"];2.25;1533086845.78263;5.52;12.63;0.042111185;9;117
45;paravance-4.rennes.grid5000.fr;thermos-root-devel-WordCountTopology-1-c4a0f0f9-2001-42e3-bd7a-2e015a28c32f;["container_1_Consume_and_count_1"];2.25;1533086855.94312;127.21;1029.69;187.613383402;10;149
45;paravance-36.rennes.grid5000.fr;thermos-root-devel-WordCountTopology-2-683c13a0-2d6b-47fb-b515-dc7de488a2ef;["container_2_Emit_random_words_2"];2.25;1533086856.00767;78.91;951.27;18.360884327;10;149
45;paravance-5.rennes.grid5000.fr;thermos-root-devel-WordCountTopology-0-947ec5fc-3d64-4145-8bc0-6eec6adb5af8;["topology_master"];2.25;1533086855.9978;5.58;12.71;0.042111185;9;117
46;paravance-4.rennes.grid5000.fr;thermos-root-devel-WordCountTopology-1-c4a0f0f9-2001-42e3-bd7a-2e015a28c32f;["container_1_Consume_and_count_1"];2.25;1533086866.15892;129.25;1047.37;190.267970828;10;149
46;paravance-5.rennes.grid5000.fr;thermos-root-devel-WordCountTopology-0-947ec5fc-3d64-4145-8bc0-6eec6adb5af8;["topology_master"];2.25;1533086866.21216;5.64;12.79;0.042111185;9;117
46;paravance-36.rennes.grid5000.fr;thermos-root-devel-WordCountTopology-2-683c13a0-2d6b-47fb-b515-dc7de488a2ef;["container_2_Emit_random_words_2"];2.25;1533086866.2234;80.25;967.21;18.360884327;10;149
47;paravance-4.rennes.grid5000.fr;thermos-root-devel-WordCountTopology-1-c4a0f0f9-2001-42e3-bd7a-2e015a28c32f;["container_1_Consume_and_count_1"];2.25;1533086876.37401;131.55;1064.66;193.016097718;10;149
47;paravance-36.rennes.grid5000.fr;thermos-root-devel-WordCountTopology-2-683c13a0-2d6b-47fb-b515-dc7de488a2ef;["container_2_Emit_random_words_2"];2.25;1533086876.43775;81.47;982.42;18.395173834;10;149
47;paravance-5.rennes.grid5000.fr;thermos-root-devel-WordCountTopology-0-947ec5fc-3d64-4145-8bc0-6eec6adb5af8;["topology_master"];2.25;1533086876.42795;5.7;12.95;0.042111185;9;117
48;paravance-4.rennes.grid5000.fr;thermos-root-devel-WordCountTopology-1-c4a0f0f9-2001-42e3-bd7a-2e015a28c32f;["container_1_Consume_and_count_1"];2.25;1533086886.59067;133.99;1082.25;195.25785607;10;149
48;paravance-36.rennes.grid5000.fr;thermos-root-devel-WordCountTopology-2-683c13a0-2d6b-47fb-b515-dc7de488a2ef;["container_2_Emit_random_words_2"];2.25;1533086886.6536;82.84;999.46;18.474507457;10;149
48;paravance-5.rennes.grid5000.fr;thermos-root-devel-WordCountTopology-0-947ec5fc-3d64-4145-8bc0-6eec6adb5af8;["topology_master"];2.25;1533086886.64364;5.79;13.07;0.042111185;9;117
49;paravance-5.rennes.grid5000.fr;thermos-root-devel-WordCountTopology-0-947ec5fc-3d64-4145-8bc0-6eec6adb5af8;["topology_master"];2.25;1533086896.85736;5.82;13.1;0.042111185;9;117
49;paravance-4.rennes.grid5000.fr;thermos-root-devel-WordCountTopology-1-c4a0f0f9-2001-42e3-bd7a-2e015a28c32f;["container_1_Consume_and_count_1"];2.25;1533086896.80507;136.22;1099.63;197.669837719;10;149
49;paravance-36.rennes.grid5000.fr;thermos-root-devel-WordCountTopology-2-683c13a0-2d6b-47fb-b515-dc7de488a2ef;["container_2_Emit_random_words_2"];2.25;1533086896.87004;84.09;1014.9;18.474507457;10;149
50;paravance-4.rennes.grid5000.fr;thermos-root-devel-WordCountTopology-1-c4a0f0f9-2001-42e3-bd7a-2e015a28c32f;["container_1_Consume_and_count_1"];2.25;1533086907.02112;138.34;1117.55;201.233484033;10;149
50;paravance-36.rennes.grid5000.fr;thermos-root-devel-WordCountTopology-2-683c13a0-2d6b-47fb-b515-dc7de488a2ef;["container_2_Emit_random_words_2"];2.25;1533086907.08401;85.43;1030.75;18.546638011;10;149
50;paravance-5.rennes.grid5000.fr;thermos-root-devel-WordCountTopology-0-947ec5fc-3d64-4145-8bc0-6eec6adb5af8;["topology_master"];2.25;1533086907.07397;5.91;13.22;0.042111185;9;117
51;paravance-4.rennes.grid5000.fr;thermos-root-devel-WordCountTopology-1-c4a0f0f9-2001-42e3-bd7a-2e015a28c32f;["container_1_Consume_and_count_1"];2.25;1533086917.23504;140.35;1135.03;203.277641858;10;149
51;paravance-5.rennes.grid5000.fr;thermos-root-devel-WordCountTopology-0-947ec5fc-3d64-4145-8bc0-6eec6adb5af8;["topology_master"];2.25;1533086917.28866;5.96;13.3;0.042111185;9;117
51;paravance-36.rennes.grid5000.fr;thermos-root-devel-WordCountTopology-2-683c13a0-2d6b-47fb-b515-dc7de488a2ef;["container_2_Emit_random_words_2"];2.25;1533086917.29918;86.68;1046.51;18.546638011;10;149
52;paravance-5.rennes.grid5000.fr;thermos-root-devel-WordCountTopology-0-947ec5fc-3d64-4145-8bc0-6eec6adb5af8;["topology_master"];2.25;1533086927.50355;6.03;13.39;0.042111185;9;117
52;paravance-36.rennes.grid5000.fr;thermos-root-devel-WordCountTopology-2-683c13a0-2d6b-47fb-b515-dc7de488a2ef;["container_2_Emit_random_words_2"];2.25;1533086927.51456;88.06;1062.84;18.582785355;10;149
52;paravance-4.rennes.grid5000.fr;thermos-root-devel-WordCountTopology-1-c4a0f0f9-2001-42e3-bd7a-2e015a28c32f;["container_1_Consume_and_count_1"];2.25;1533086927.45345;142.59;1152.43;205.730354596;10;150
53;paravance-4.rennes.grid5000.fr;thermos-root-devel-WordCountTopology-1-c4a0f0f9-2001-42e3-bd7a-2e015a28c32f;["container_1_Consume_and_count_1"];2.25;1533086937.6673;145.11;1169.86;208.64347142;10;150
53;paravance-36.rennes.grid5000.fr;thermos-root-devel-WordCountTopology-2-683c13a0-2d6b-47fb-b515-dc7de488a2ef;["container_2_Emit_random_words_2"];2.25;1533086937.7298;89.5;1080.32;18.644711419;10;149
53;paravance-5.rennes.grid5000.fr;thermos-root-devel-WordCountTopology-0-947ec5fc-3d64-4145-8bc0-6eec6adb5af8;["topology_master"];2.25;1533086937.71987;6.09;13.49;0.042111185;9;117
54;paravance-4.rennes.grid5000.fr;thermos-root-devel-WordCountTopology-1-c4a0f0f9-2001-42e3-bd7a-2e015a28c32f;["container_1_Consume_and_count_1"];2.25;1533086947.88257;147.43;1187.64;211.217297747;10;149
54;paravance-5.rennes.grid5000.fr;thermos-root-devel-WordCountTopology-0-947ec5fc-3d64-4145-8bc0-6eec6adb5af8;["topology_master"];2.25;1533086947.93491;6.18;13.61;0.042111185;9;117
54;paravance-36.rennes.grid5000.fr;thermos-root-devel-WordCountTopology-2-683c13a0-2d6b-47fb-b515-dc7de488a2ef;["container_2_Emit_random_words_2"];2.25;1533086947.94554;90.84;1096.33;18.780785534;10;149
55;paravance-4.rennes.grid5000.fr;thermos-root-devel-WordCountTopology-1-c4a0f0f9-2001-42e3-bd7a-2e015a28c32f;["container_1_Consume_and_count_1"];2.25;1533086958.09543;149.84;1205.65;214.574748702;10;149
55;paravance-36.rennes.grid5000.fr;thermos-root-devel-WordCountTopology-2-683c13a0-2d6b-47fb-b515-dc7de488a2ef;["container_2_Emit_random_words_2"];2.25;1533086958.16053;92.22;1113.7;18.780785534;10;149
55;paravance-5.rennes.grid5000.fr;thermos-root-devel-WordCountTopology-0-947ec5fc-3d64-4145-8bc0-6eec6adb5af8;["topology_master"];2.25;1533086958.152;6.21;13.64;0.042111185;9;117
56;paravance-4.rennes.grid5000.fr;thermos-root-devel-WordCountTopology-1-c4a0f0f9-2001-42e3-bd7a-2e015a28c32f;["container_1_Consume_and_count_1"];2.25;1533086968.31158;152.12;1223.54;218.004482935;10;149
56;paravance-36.rennes.grid5000.fr;thermos-root-devel-WordCountTopology-2-683c13a0-2d6b-47fb-b515-dc7de488a2ef;["container_2_Emit_random_words_2"];2.25;1533086968.37701;93.64;1130.54;18.884038029;10;149
56;paravance-5.rennes.grid5000.fr;thermos-root-devel-WordCountTopology-0-947ec5fc-3d64-4145-8bc0-6eec6adb5af8;["topology_master"];2.25;1533086968.36666;6.3;13.77;0.042111185;9;117
57;paravance-5.rennes.grid5000.fr;thermos-root-devel-WordCountTopology-0-947ec5fc-3d64-4145-8bc0-6eec6adb5af8;["topology_master"];2.25;1533086978.58245;6.36;13.84;0.042111185;9;117
57;paravance-36.rennes.grid5000.fr;thermos-root-devel-WordCountTopology-2-683c13a0-2d6b-47fb-b515-dc7de488a2ef;["container_2_Emit_random_words_2"];2.25;1533086978.59303;94.9;1145.04;18.884038029;10;149
57;paravance-4.rennes.grid5000.fr;thermos-root-devel-WordCountTopology-1-c4a0f0f9-2001-42e3-bd7a-2e015a28c32f;["container_1_Consume_and_count_1"];2.25;1533086978.53191;154.14;1240.96;221.174946401;10;149
58;paravance-5.rennes.grid5000.fr;thermos-root-devel-WordCountTopology-0-947ec5fc-3d64-4145-8bc0-6eec6adb5af8;["topology_master"];2.25;1533086988.79786;6.44;13.95;0.042111185;9;117
58;paravance-4.rennes.grid5000.fr;thermos-root-devel-WordCountTopology-1-c4a0f0f9-2001-42e3-bd7a-2e015a28c32f;["container_1_Consume_and_count_1"];2.25;1533086988.74653;156.26;1258.53;223.423332741;10;150
58;paravance-36.rennes.grid5000.fr;thermos-root-devel-WordCountTopology-2-683c13a0-2d6b-47fb-b515-dc7de488a2ef;["container_2_Emit_random_words_2"];2.25;1533086988.80904;96.23;1160.56;18.915584357;10;149
59;paravance-4.rennes.grid5000.fr;thermos-root-devel-WordCountTopology-1-c4a0f0f9-2001-42e3-bd7a-2e015a28c32f;["container_1_Consume_and_count_1"];2.25;1533086998.96165;158.73;1276.15;226.231469433;10;150
59;paravance-36.rennes.grid5000.fr;thermos-root-devel-WordCountTopology-2-683c13a0-2d6b-47fb-b515-dc7de488a2ef;["container_2_Emit_random_words_2"];2.25;1533086999.0242;97.64;1177.58;18.947755994;10;149
59;paravance-5.rennes.grid5000.fr;thermos-root-devel-WordCountTopology-0-947ec5fc-3d64-4145-8bc0-6eec6adb5af8;["topology_master"];2.25;1533086999.01513;6.5;14.03;0.042111185;9;117
60;paravance-4.rennes.grid5000.fr;thermos-root-devel-WordCountTopology-1-c4a0f0f9-2001-42e3-bd7a-2e015a28c32f;["container_1_Consume_and_count_1"];2.25;1533087009.17686;161.18;1294.11;228.883736868;10;149
60;paravance-5.rennes.grid5000.fr;thermos-root-devel-WordCountTopology-0-947ec5fc-3d64-4145-8bc0-6eec6adb5af8;["topology_master"];2.25;1533087009.22953;6.59;14.16;0.042111185;9;117
60;paravance-36.rennes.grid5000.fr;thermos-root-devel-WordCountTopology-2-683c13a0-2d6b-47fb-b515-dc7de488a2ef;["container_2_Emit_random_words_2"];2.25;1533087009.24022;99.11;1194.83;19.028582306;10;149
