mesure_id;slave_id;executor_id;heron_instances;cpus_limit;timestamp_B;cpus_system_time_secs_B;cpus_user_time_secs_B;cpus_throttled_time_secs_B;processes;threads
0;paravance-32.rennes.grid5000.fr;thermos-root-devel-WordCountTopology-1-14fbed36-1e38-46e8-82ea-c160390b4458;["container_1_Consume_and_count_1"];2.25;1533087448.92826;18.89;198.22;203.300894396;10;151
0;paravance-31.rennes.grid5000.fr;thermos-root-devel-WordCountTopology-2-11d95054-9a19-4805-8c8d-2a8bcec3e688;["container_2_Emit_random_words_2"];2.25;1533087448.93378;6.35;92.21;10.169269905;10;149
0;paravance-42.rennes.grid5000.fr;thermos-root-devel-WordCountTopology-0-ea57b9e1-b232-42e2-b90c-615b993e9260;["topology_master"];2.25;1533087448.92731;2.54;8.2;1.247901757;9;117
1;paravance-32.rennes.grid5000.fr;thermos-root-devel-WordCountTopology-1-14fbed36-1e38-46e8-82ea-c160390b4458;["container_1_Consume_and_count_1"];2.25;1533087459.14711;19.96;212.75;212.061573941;10;151
1;paravance-31.rennes.grid5000.fr;thermos-root-devel-WordCountTopology-2-11d95054-9a19-4805-8c8d-2a8bcec3e688;["container_2_Emit_random_words_2"];2.25;1533087459.15034;6.7;98.86;10.169291956;10;149
1;paravance-42.rennes.grid5000.fr;thermos-root-devel-WordCountTopology-0-ea57b9e1-b232-42e2-b90c-615b993e9260;["topology_master"];2.25;1533087459.14332;2.63;8.34;1.247901757;9;117
2;paravance-42.rennes.grid5000.fr;thermos-root-devel-WordCountTopology-0-ea57b9e1-b232-42e2-b90c-615b993e9260;["topology_master"];2.25;1533087469.36301;2.69;8.42;1.247901757;9;117
2;paravance-32.rennes.grid5000.fr;thermos-root-devel-WordCountTopology-1-14fbed36-1e38-46e8-82ea-c160390b4458;["container_1_Consume_and_count_1"];2.25;1533087469.36732;20.98;229.15;224.749032051;10;151
2;paravance-31.rennes.grid5000.fr;thermos-root-devel-WordCountTopology-2-11d95054-9a19-4805-8c8d-2a8bcec3e688;["container_2_Emit_random_words_2"];2.25;1533087469.37222;6.98;104.62;10.169291956;10;149
3;paravance-31.rennes.grid5000.fr;thermos-root-devel-WordCountTopology-2-11d95054-9a19-4805-8c8d-2a8bcec3e688;["container_2_Emit_random_words_2"];2.25;1533087479.5896;7.37;112.35;10.193338528;10;149
3;paravance-32.rennes.grid5000.fr;thermos-root-devel-WordCountTopology-1-14fbed36-1e38-46e8-82ea-c160390b4458;["container_1_Consume_and_count_1"];2.25;1533087479.58606;22.14;245.1;235.258252222;10;151
3;paravance-42.rennes.grid5000.fr;thermos-root-devel-WordCountTopology-0-ea57b9e1-b232-42e2-b90c-615b993e9260;["topology_master"];2.25;1533087479.58142;2.76;8.5;1.247901757;9;117
4;paravance-32.rennes.grid5000.fr;thermos-root-devel-WordCountTopology-1-14fbed36-1e38-46e8-82ea-c160390b4458;["container_1_Consume_and_count_1"];2.25;1533087489.80202;22.98;261.05;245.242431961;10;151
4;paravance-42.rennes.grid5000.fr;thermos-root-devel-WordCountTopology-0-ea57b9e1-b232-42e2-b90c-615b993e9260;["topology_master"];2.25;1533087489.79876;2.82;8.58;1.247901757;9;117
4;paravance-31.rennes.grid5000.fr;thermos-root-devel-WordCountTopology-2-11d95054-9a19-4805-8c8d-2a8bcec3e688;["container_2_Emit_random_words_2"];2.25;1533087489.80765;7.52;113.41;10.193338528;10;149
5;paravance-32.rennes.grid5000.fr;thermos-root-devel-WordCountTopology-1-14fbed36-1e38-46e8-82ea-c160390b4458;["container_1_Consume_and_count_1"];2.25;1533087500.01899;24.04;276.28;254.246196677;10;151
5;paravance-42.rennes.grid5000.fr;thermos-root-devel-WordCountTopology-0-ea57b9e1-b232-42e2-b90c-615b993e9260;["topology_master"];2.25;1533087500.01584;2.95;8.79;1.247901757;9;117
5;paravance-31.rennes.grid5000.fr;thermos-root-devel-WordCountTopology-2-11d95054-9a19-4805-8c8d-2a8bcec3e688;["container_2_Emit_random_words_2"];2.25;1533087500.02406;7.85;119.58;10.193338528;10;149
6;paravance-31.rennes.grid5000.fr;thermos-root-devel-WordCountTopology-2-11d95054-9a19-4805-8c8d-2a8bcec3e688;["container_2_Emit_random_words_2"];2.25;1533087510.24056;8.18;126.29;10.193338528;10;149
6;paravance-32.rennes.grid5000.fr;thermos-root-devel-WordCountTopology-1-14fbed36-1e38-46e8-82ea-c160390b4458;["container_1_Consume_and_count_1"];2.25;1533087510.23765;25.49;291.35;263.674496575;10;151
6;paravance-42.rennes.grid5000.fr;thermos-root-devel-WordCountTopology-0-ea57b9e1-b232-42e2-b90c-615b993e9260;["topology_master"];2.25;1533087510.23298;2.98;8.83;1.247901757;9;117
7;paravance-31.rennes.grid5000.fr;thermos-root-devel-WordCountTopology-2-11d95054-9a19-4805-8c8d-2a8bcec3e688;["container_2_Emit_random_words_2"];2.25;1533087520.45985;8.55;132.53;10.193338528;10;149
7;paravance-32.rennes.grid5000.fr;thermos-root-devel-WordCountTopology-1-14fbed36-1e38-46e8-82ea-c160390b4458;["container_1_Consume_and_count_1"];2.25;1533087520.4569;26.6;306.35;272.391112222;10;151
7;paravance-42.rennes.grid5000.fr;thermos-root-devel-WordCountTopology-0-ea57b9e1-b232-42e2-b90c-615b993e9260;["topology_master"];2.25;1533087520.45322;3.07;8.97;1.247901757;9;117
8;paravance-32.rennes.grid5000.fr;thermos-root-devel-WordCountTopology-1-14fbed36-1e38-46e8-82ea-c160390b4458;["container_1_Consume_and_count_1"];2.25;1533087530.67035;27.67;322.09;281.580146694;10;151
8;paravance-42.rennes.grid5000.fr;thermos-root-devel-WordCountTopology-0-ea57b9e1-b232-42e2-b90c-615b993e9260;["topology_master"];2.25;1533087530.66847;3.13;9.04;1.247901757;9;117
8;paravance-31.rennes.grid5000.fr;thermos-root-devel-WordCountTopology-2-11d95054-9a19-4805-8c8d-2a8bcec3e688;["container_2_Emit_random_words_2"];2.25;1533087530.678;8.71;133.76;10.205426635;10;149
9;paravance-42.rennes.grid5000.fr;thermos-root-devel-WordCountTopology-0-ea57b9e1-b232-42e2-b90c-615b993e9260;["topology_master"];2.25;1533087540.88569;3.19;9.12;1.247901757;9;117
9;paravance-32.rennes.grid5000.fr;thermos-root-devel-WordCountTopology-1-14fbed36-1e38-46e8-82ea-c160390b4458;["container_1_Consume_and_count_1"];2.25;1533087540.88986;29.0;337.78;292.38198907;10;151
9;paravance-31.rennes.grid5000.fr;thermos-root-devel-WordCountTopology-2-11d95054-9a19-4805-8c8d-2a8bcec3e688;["container_2_Emit_random_words_2"];2.25;1533087540.89451;9.03;140.12;10.205426635;10;149
10;paravance-32.rennes.grid5000.fr;thermos-root-devel-WordCountTopology-1-14fbed36-1e38-46e8-82ea-c160390b4458;["container_1_Consume_and_count_1"];2.25;1533087551.10785;30.14;353.84;302.342892339;10;151
10;paravance-31.rennes.grid5000.fr;thermos-root-devel-WordCountTopology-2-11d95054-9a19-4805-8c8d-2a8bcec3e688;["container_2_Emit_random_words_2"];2.25;1533087551.11166;9.41;147.44;10.205426635;10;149
10;paravance-42.rennes.grid5000.fr;thermos-root-devel-WordCountTopology-0-ea57b9e1-b232-42e2-b90c-615b993e9260;["topology_master"];2.25;1533087551.10351;3.25;9.2;1.247901757;9;117
11;paravance-32.rennes.grid5000.fr;thermos-root-devel-WordCountTopology-1-14fbed36-1e38-46e8-82ea-c160390b4458;["container_1_Consume_and_count_1"];2.25;1533087561.32423;31.27;368.55;310.281128888;10;151
11;paravance-42.rennes.grid5000.fr;thermos-root-devel-WordCountTopology-0-ea57b9e1-b232-42e2-b90c-615b993e9260;["topology_master"];2.25;1533087561.31977;3.38;9.43;1.247901757;9;117
11;paravance-31.rennes.grid5000.fr;thermos-root-devel-WordCountTopology-2-11d95054-9a19-4805-8c8d-2a8bcec3e688;["container_2_Emit_random_words_2"];2.25;1533087561.32939;9.71;151.34;10.213508259;10;149
12;paravance-32.rennes.grid5000.fr;thermos-root-devel-WordCountTopology-1-14fbed36-1e38-46e8-82ea-c160390b4458;["container_1_Consume_and_count_1"];2.25;1533087571.54203;32.11;385.15;321.913312048;10;151
12;paravance-31.rennes.grid5000.fr;thermos-root-devel-WordCountTopology-2-11d95054-9a19-4805-8c8d-2a8bcec3e688;["container_2_Emit_random_words_2"];2.25;1533087571.54723;9.89;154.28;10.287787945;10;149
12;paravance-42.rennes.grid5000.fr;thermos-root-devel-WordCountTopology-0-ea57b9e1-b232-42e2-b90c-615b993e9260;["topology_master"];2.25;1533087571.53928;3.41;9.46;1.247901757;9;117
13;paravance-31.rennes.grid5000.fr;thermos-root-devel-WordCountTopology-2-11d95054-9a19-4805-8c8d-2a8bcec3e688;["container_2_Emit_random_words_2"];2.25;1533087581.76338;10.29;161.58;10.323938583;10;149
13;paravance-42.rennes.grid5000.fr;thermos-root-devel-WordCountTopology-0-ea57b9e1-b232-42e2-b90c-615b993e9260;["topology_master"];2.25;1533087581.75626;3.5;9.6;1.247901757;9;117
13;paravance-32.rennes.grid5000.fr;thermos-root-devel-WordCountTopology-1-14fbed36-1e38-46e8-82ea-c160390b4458;["container_1_Consume_and_count_1"];2.25;1533087581.76127;33.3;400.3;331.287002382;10;151
14;paravance-31.rennes.grid5000.fr;thermos-root-devel-WordCountTopology-2-11d95054-9a19-4805-8c8d-2a8bcec3e688;["container_2_Emit_random_words_2"];2.25;1533087591.98193;10.56;166.54;10.348040813;10;149
14;paravance-42.rennes.grid5000.fr;thermos-root-devel-WordCountTopology-0-ea57b9e1-b232-42e2-b90c-615b993e9260;["topology_master"];2.25;1533087591.97411;3.56;9.67;1.247901757;9;117
14;paravance-32.rennes.grid5000.fr;thermos-root-devel-WordCountTopology-1-14fbed36-1e38-46e8-82ea-c160390b4458;["container_1_Consume_and_count_1"];2.25;1533087591.9792;34.4;416.06;341.944367792;10;151
15;paravance-32.rennes.grid5000.fr;thermos-root-devel-WordCountTopology-1-14fbed36-1e38-46e8-82ea-c160390b4458;["container_1_Consume_and_count_1"];2.25;1533087602.19713;35.68;432.4;354.361858374;10;151
15;paravance-42.rennes.grid5000.fr;thermos-root-devel-WordCountTopology-0-ea57b9e1-b232-42e2-b90c-615b993e9260;["topology_master"];2.25;1533087602.19335;3.62;9.76;1.247901757;9;117
15;paravance-31.rennes.grid5000.fr;thermos-root-devel-WordCountTopology-2-11d95054-9a19-4805-8c8d-2a8bcec3e688;["container_2_Emit_random_words_2"];2.25;1533087602.20131;10.74;168.56;10.348040813;10;149
16;paravance-42.rennes.grid5000.fr;thermos-root-devel-WordCountTopology-0-ea57b9e1-b232-42e2-b90c-615b993e9260;["topology_master"];2.25;1533087612.31122;3.68;9.84;1.247901757;9;117
16;paravance-31.rennes.grid5000.fr;thermos-root-devel-WordCountTopology-2-11d95054-9a19-4805-8c8d-2a8bcec3e688;["container_2_Emit_random_words_2"];2.25;1533087612.41729;11.07;175.4;10.352043828;10;149
16;paravance-32.rennes.grid5000.fr;thermos-root-devel-WordCountTopology-1-14fbed36-1e38-46e8-82ea-c160390b4458;["container_1_Consume_and_count_1"];2.25;1533087612.4135;36.77;449.49;368.216514073;10;151
17;paravance-32.rennes.grid5000.fr;thermos-root-devel-WordCountTopology-1-14fbed36-1e38-46e8-82ea-c160390b4458;["container_1_Consume_and_count_1"];2.25;1533087622.62951;38.02;464.63;376.676258608;10;151
17;paravance-31.rennes.grid5000.fr;thermos-root-devel-WordCountTopology-2-11d95054-9a19-4805-8c8d-2a8bcec3e688;["container_2_Emit_random_words_2"];2.25;1533087622.63413;11.42;180.92;10.401022824;10;149
17;paravance-42.rennes.grid5000.fr;thermos-root-devel-WordCountTopology-0-ea57b9e1-b232-42e2-b90c-615b993e9260;["topology_master"];2.25;1533087622.62658;3.8;10.11;1.247901757;9;117
18;paravance-32.rennes.grid5000.fr;thermos-root-devel-WordCountTopology-1-14fbed36-1e38-46e8-82ea-c160390b4458;["container_1_Consume_and_count_1"];2.25;1533087632.74742;39.27;481.87;390.390676483;10;151
18;paravance-31.rennes.grid5000.fr;thermos-root-devel-WordCountTopology-2-11d95054-9a19-4805-8c8d-2a8bcec3e688;["container_2_Emit_random_words_2"];2.25;1533087632.8492;11.7;186.38;10.401022824;10;149
18;paravance-42.rennes.grid5000.fr;thermos-root-devel-WordCountTopology-0-ea57b9e1-b232-42e2-b90c-615b993e9260;["topology_master"];2.25;1533087632.84367;3.83;10.14;1.247901757;9;117
19;paravance-32.rennes.grid5000.fr;thermos-root-devel-WordCountTopology-1-14fbed36-1e38-46e8-82ea-c160390b4458;["container_1_Consume_and_count_1"];2.25;1533087643.06355;40.86;499.95;404.431180956;10;151
19;paravance-31.rennes.grid5000.fr;thermos-root-devel-WordCountTopology-2-11d95054-9a19-4805-8c8d-2a8bcec3e688;["container_2_Emit_random_words_2"];2.25;1533087643.06768;11.95;189.46;10.401022824;10;149
19;paravance-42.rennes.grid5000.fr;thermos-root-devel-WordCountTopology-0-ea57b9e1-b232-42e2-b90c-615b993e9260;["topology_master"];2.25;1533087643.06015;3.92;10.28;1.247901757;9;117
20;paravance-32.rennes.grid5000.fr;thermos-root-devel-WordCountTopology-1-14fbed36-1e38-46e8-82ea-c160390b4458;["container_1_Consume_and_count_1"];2.25;1533087653.27911;42.25;518.87;421.322444411;10;151
20;paravance-31.rennes.grid5000.fr;thermos-root-devel-WordCountTopology-2-11d95054-9a19-4805-8c8d-2a8bcec3e688;["container_2_Emit_random_words_2"];2.25;1533087653.28367;12.32;197.12;10.401022824;10;149
20;paravance-42.rennes.grid5000.fr;thermos-root-devel-WordCountTopology-0-ea57b9e1-b232-42e2-b90c-615b993e9260;["topology_master"];2.25;1533087653.27579;3.98;10.35;1.247901757;9;117
21;paravance-32.rennes.grid5000.fr;thermos-root-devel-WordCountTopology-1-14fbed36-1e38-46e8-82ea-c160390b4458;["container_1_Consume_and_count_1"];2.25;1533087663.49454;43.94;538.29;438.903451783;10;151
21;paravance-42.rennes.grid5000.fr;thermos-root-devel-WordCountTopology-0-ea57b9e1-b232-42e2-b90c-615b993e9260;["topology_master"];2.25;1533087663.49062;4.04;10.42;1.247901757;9;117
21;paravance-31.rennes.grid5000.fr;thermos-root-devel-WordCountTopology-2-11d95054-9a19-4805-8c8d-2a8bcec3e688;["container_2_Emit_random_words_2"];2.25;1533087663.5002;12.67;204.3;10.401022824;10;149
22;paravance-32.rennes.grid5000.fr;thermos-root-devel-WordCountTopology-1-14fbed36-1e38-46e8-82ea-c160390b4458;["container_1_Consume_and_count_1"];2.25;1533087673.7098;45.94;557.96;456.79010778;10;151
22;paravance-31.rennes.grid5000.fr;thermos-root-devel-WordCountTopology-2-11d95054-9a19-4805-8c8d-2a8bcec3e688;["container_2_Emit_random_words_2"];2.25;1533087673.71418;12.97;209.73;10.401022824;10;149
22;paravance-42.rennes.grid5000.fr;thermos-root-devel-WordCountTopology-0-ea57b9e1-b232-42e2-b90c-615b993e9260;["topology_master"];2.25;1533087673.70875;4.1;10.5;1.247901757;9;117
23;paravance-32.rennes.grid5000.fr;thermos-root-devel-WordCountTopology-1-14fbed36-1e38-46e8-82ea-c160390b4458;["container_1_Consume_and_count_1"];2.25;1533087683.9238;47.04;574.51;469.688111726;10;151
23;paravance-31.rennes.grid5000.fr;thermos-root-devel-WordCountTopology-2-11d95054-9a19-4805-8c8d-2a8bcec3e688;["container_2_Emit_random_words_2"];2.25;1533087683.92959;13.32;215.73;10.461915203;10;149
23;paravance-42.rennes.grid5000.fr;thermos-root-devel-WordCountTopology-0-ea57b9e1-b232-42e2-b90c-615b993e9260;["topology_master"];2.25;1533087683.92231;4.21;10.7;1.247901757;9;117
24;paravance-42.rennes.grid5000.fr;thermos-root-devel-WordCountTopology-0-ea57b9e1-b232-42e2-b90c-615b993e9260;["topology_master"];2.25;1533087694.03727;4.24;10.72;1.247901757;9;117
24;paravance-31.rennes.grid5000.fr;thermos-root-devel-WordCountTopology-2-11d95054-9a19-4805-8c8d-2a8bcec3e688;["container_2_Emit_random_words_2"];2.25;1533087694.14461;13.47;217.64;10.461915203;10;149
24;paravance-32.rennes.grid5000.fr;thermos-root-devel-WordCountTopology-1-14fbed36-1e38-46e8-82ea-c160390b4458;["container_1_Consume_and_count_1"];2.25;1533087694.14178;48.36;593.2;483.575800804;10;151
25;paravance-32.rennes.grid5000.fr;thermos-root-devel-WordCountTopology-1-14fbed36-1e38-46e8-82ea-c160390b4458;["container_1_Consume_and_count_1"];2.25;1533087704.35582;50.25;613.28;503.460500493;10;151
25;paravance-31.rennes.grid5000.fr;thermos-root-devel-WordCountTopology-2-11d95054-9a19-4805-8c8d-2a8bcec3e688;["container_2_Emit_random_words_2"];2.25;1533087704.36142;13.94;228.27;10.472961918;10;149
25;paravance-42.rennes.grid5000.fr;thermos-root-devel-WordCountTopology-0-ea57b9e1-b232-42e2-b90c-615b993e9260;["topology_master"];2.25;1533087704.35439;4.33;10.86;1.247901757;9;117
26;paravance-32.rennes.grid5000.fr;thermos-root-devel-WordCountTopology-1-14fbed36-1e38-46e8-82ea-c160390b4458;["container_1_Consume_and_count_1"];2.25;1533087714.57213;52.07;632.82;522.052446356;10;151
26;paravance-31.rennes.grid5000.fr;thermos-root-devel-WordCountTopology-2-11d95054-9a19-4805-8c8d-2a8bcec3e688;["container_2_Emit_random_words_2"];2.25;1533087714.57581;14.43;239.81;10.472961918;10;149
26;paravance-42.rennes.grid5000.fr;thermos-root-devel-WordCountTopology-0-ea57b9e1-b232-42e2-b90c-615b993e9260;["topology_master"];2.25;1533087714.56925;4.38;10.93;1.247901757;9;117
27;paravance-32.rennes.grid5000.fr;thermos-root-devel-WordCountTopology-1-14fbed36-1e38-46e8-82ea-c160390b4458;["container_1_Consume_and_count_1"];2.25;1533087724.78964;53.78;653.01;541.925537645;10;151
27;paravance-42.rennes.grid5000.fr;thermos-root-devel-WordCountTopology-0-ea57b9e1-b232-42e2-b90c-615b993e9260;["topology_master"];2.25;1533087724.78762;4.44;11.01;1.247901757;9;117
27;paravance-31.rennes.grid5000.fr;thermos-root-devel-WordCountTopology-2-11d95054-9a19-4805-8c8d-2a8bcec3e688;["container_2_Emit_random_words_2"];2.25;1533087724.79599;14.84;247.87;10.472961918;10;149
28;paravance-32.rennes.grid5000.fr;thermos-root-devel-WordCountTopology-1-14fbed36-1e38-46e8-82ea-c160390b4458;["container_1_Consume_and_count_1"];2.25;1533087735.00674;55.51;673.19;563.128601891;10;149
28;paravance-42.rennes.grid5000.fr;thermos-root-devel-WordCountTopology-0-ea57b9e1-b232-42e2-b90c-615b993e9260;["topology_master"];2.25;1533087735.00433;4.56;11.15;1.247901757;9;117
28;paravance-31.rennes.grid5000.fr;thermos-root-devel-WordCountTopology-2-11d95054-9a19-4805-8c8d-2a8bcec3e688;["container_2_Emit_random_words_2"];2.25;1533087735.01317;15.24;255.22;10.472961918;10;149
29;paravance-32.rennes.grid5000.fr;thermos-root-devel-WordCountTopology-1-14fbed36-1e38-46e8-82ea-c160390b4458;["container_1_Consume_and_count_1"];2.25;1533087745.22366;57.14;693.37;581.507936445;10;151
29;paravance-31.rennes.grid5000.fr;thermos-root-devel-WordCountTopology-2-11d95054-9a19-4805-8c8d-2a8bcec3e688;["container_2_Emit_random_words_2"];2.25;1533087745.23112;15.45;257.95;10.472961918;10;149
29;paravance-42.rennes.grid5000.fr;thermos-root-devel-WordCountTopology-0-ea57b9e1-b232-42e2-b90c-615b993e9260;["topology_master"];2.25;1533087745.22227;4.62;11.29;1.247901757;9;117
30;paravance-31.rennes.grid5000.fr;thermos-root-devel-WordCountTopology-2-11d95054-9a19-4805-8c8d-2a8bcec3e688;["container_2_Emit_random_words_2"];2.25;1533087755.44596;15.75;263.61;10.472961918;10;149
30;paravance-32.rennes.grid5000.fr;thermos-root-devel-WordCountTopology-1-14fbed36-1e38-46e8-82ea-c160390b4458;["container_1_Consume_and_count_1"];2.25;1533087755.44207;58.99;712.93;598.941681655;10;151
30;paravance-42.rennes.grid5000.fr;thermos-root-devel-WordCountTopology-0-ea57b9e1-b232-42e2-b90c-615b993e9260;["topology_master"];2.25;1533087755.43894;4.68;11.37;1.247901757;9;117
31;paravance-31.rennes.grid5000.fr;thermos-root-devel-WordCountTopology-2-11d95054-9a19-4805-8c8d-2a8bcec3e688;["container_2_Emit_random_words_2"];2.25;1533087765.66489;16.13;270.94;10.481041912;10;149
31;paravance-32.rennes.grid5000.fr;thermos-root-devel-WordCountTopology-1-14fbed36-1e38-46e8-82ea-c160390b4458;["container_1_Consume_and_count_1"];2.25;1533087765.66056;60.55;733.37;620.03733603;10;151
31;paravance-42.rennes.grid5000.fr;thermos-root-devel-WordCountTopology-0-ea57b9e1-b232-42e2-b90c-615b993e9260;["topology_master"];2.25;1533087765.6578;4.73;11.44;1.247901757;9;117
32;paravance-32.rennes.grid5000.fr;thermos-root-devel-WordCountTopology-1-14fbed36-1e38-46e8-82ea-c160390b4458;["container_1_Consume_and_count_1"];2.25;1533087775.87914;62.45;752.33;636.490895505;10;151
32;paravance-42.rennes.grid5000.fr;thermos-root-devel-WordCountTopology-0-ea57b9e1-b232-42e2-b90c-615b993e9260;["topology_master"];2.25;1533087775.87647;4.82;11.56;1.247901757;9;117
32;paravance-31.rennes.grid5000.fr;thermos-root-devel-WordCountTopology-2-11d95054-9a19-4805-8c8d-2a8bcec3e688;["container_2_Emit_random_words_2"];2.25;1533087775.88514;16.47;276.86;10.481041912;10;149
33;paravance-32.rennes.grid5000.fr;thermos-root-devel-WordCountTopology-1-14fbed36-1e38-46e8-82ea-c160390b4458;["container_1_Consume_and_count_1"];2.25;1533087786.09534;63.91;772.18;656.213890067;10;151
33;paravance-31.rennes.grid5000.fr;thermos-root-devel-WordCountTopology-2-11d95054-9a19-4805-8c8d-2a8bcec3e688;["container_2_Emit_random_words_2"];2.25;1533087786.10195;16.8;284.35;10.481041912;10;149
33;paravance-42.rennes.grid5000.fr;thermos-root-devel-WordCountTopology-0-ea57b9e1-b232-42e2-b90c-615b993e9260;["topology_master"];2.25;1533087786.09407;4.85;11.59;1.247901757;9;117
34;paravance-32.rennes.grid5000.fr;thermos-root-devel-WordCountTopology-1-14fbed36-1e38-46e8-82ea-c160390b4458;["container_1_Consume_and_count_1"];2.25;1533087796.31136;65.87;791.14;672.714199248;10;151
34;paravance-31.rennes.grid5000.fr;thermos-root-devel-WordCountTopology-2-11d95054-9a19-4805-8c8d-2a8bcec3e688;["container_2_Emit_random_words_2"];2.25;1533087796.3188;17.18;290.72;10.521159263;10;149
34;paravance-42.rennes.grid5000.fr;thermos-root-devel-WordCountTopology-0-ea57b9e1-b232-42e2-b90c-615b993e9260;["topology_master"];2.25;1533087796.311;4.96;11.73;1.247901757;9;117
35;paravance-32.rennes.grid5000.fr;thermos-root-devel-WordCountTopology-1-14fbed36-1e38-46e8-82ea-c160390b4458;["container_1_Consume_and_count_1"];2.25;1533087806.53016;67.34;808.42;686.664369854;10;151
35;paravance-31.rennes.grid5000.fr;thermos-root-devel-WordCountTopology-2-11d95054-9a19-4805-8c8d-2a8bcec3e688;["container_2_Emit_random_words_2"];2.25;1533087806.53602;17.44;295.11;10.521159263;10;149
35;paravance-42.rennes.grid5000.fr;thermos-root-devel-WordCountTopology-0-ea57b9e1-b232-42e2-b90c-615b993e9260;["topology_master"];2.25;1533087806.52794;5.02;11.85;1.247901757;9;117
36;paravance-31.rennes.grid5000.fr;thermos-root-devel-WordCountTopology-2-11d95054-9a19-4805-8c8d-2a8bcec3e688;["container_2_Emit_random_words_2"];2.25;1533087816.75191;17.66;298.46;10.521159263;10;149
36;paravance-32.rennes.grid5000.fr;thermos-root-devel-WordCountTopology-1-14fbed36-1e38-46e8-82ea-c160390b4458;["container_1_Consume_and_count_1"];2.25;1533087816.74879;68.12;825.89;698.778521068;10;151
36;paravance-42.rennes.grid5000.fr;thermos-root-devel-WordCountTopology-0-ea57b9e1-b232-42e2-b90c-615b993e9260;["topology_master"];2.25;1533087816.746;5.11;11.98;1.247901757;9;117
37;paravance-42.rennes.grid5000.fr;thermos-root-devel-WordCountTopology-0-ea57b9e1-b232-42e2-b90c-615b993e9260;["topology_master"];2.25;1533087826.96249;5.13;12.01;1.247901757;9;117
37;paravance-31.rennes.grid5000.fr;thermos-root-devel-WordCountTopology-2-11d95054-9a19-4805-8c8d-2a8bcec3e688;["container_2_Emit_random_words_2"];2.25;1533087826.97068;17.99;305.08;10.521159263;10;149
37;paravance-32.rennes.grid5000.fr;thermos-root-devel-WordCountTopology-1-14fbed36-1e38-46e8-82ea-c160390b4458;["container_1_Consume_and_count_1"];2.25;1533087826.9673;69.08;840.61;707.032222743;10;151
38;paravance-32.rennes.grid5000.fr;thermos-root-devel-WordCountTopology-1-14fbed36-1e38-46e8-82ea-c160390b4458;["container_1_Consume_and_count_1"];2.25;1533087837.18372;70.5;857.58;719.571635429;10;151
38;paravance-31.rennes.grid5000.fr;thermos-root-devel-WordCountTopology-2-11d95054-9a19-4805-8c8d-2a8bcec3e688;["container_2_Emit_random_words_2"];2.25;1533087837.18781;18.36;311.97;10.565282242;10;149
38;paravance-42.rennes.grid5000.fr;thermos-root-devel-WordCountTopology-0-ea57b9e1-b232-42e2-b90c-615b993e9260;["topology_master"];2.25;1533087837.18129;5.22;12.14;1.247901757;9;117
39;paravance-42.rennes.grid5000.fr;thermos-root-devel-WordCountTopology-0-ea57b9e1-b232-42e2-b90c-615b993e9260;["topology_master"];2.25;1533087847.39777;5.28;12.2;1.247901757;9;117
39;paravance-32.rennes.grid5000.fr;thermos-root-devel-WordCountTopology-1-14fbed36-1e38-46e8-82ea-c160390b4458;["container_1_Consume_and_count_1"];2.25;1533087847.40063;71.52;872.65;727.562959335;10;151
39;paravance-31.rennes.grid5000.fr;thermos-root-devel-WordCountTopology-2-11d95054-9a19-4805-8c8d-2a8bcec3e688;["container_2_Emit_random_words_2"];2.25;1533087847.40597;18.5;313.78;10.565282242;10;149
40;paravance-31.rennes.grid5000.fr;thermos-root-devel-WordCountTopology-2-11d95054-9a19-4805-8c8d-2a8bcec3e688;["container_2_Emit_random_words_2"];2.25;1533087857.62204;18.84;319.92;10.577558304;10;149
40;paravance-32.rennes.grid5000.fr;thermos-root-devel-WordCountTopology-1-14fbed36-1e38-46e8-82ea-c160390b4458;["container_1_Consume_and_count_1"];2.25;1533087857.61844;72.61;887.86;736.64446692;10;151
40;paravance-42.rennes.grid5000.fr;thermos-root-devel-WordCountTopology-0-ea57b9e1-b232-42e2-b90c-615b993e9260;["topology_master"];2.25;1533087857.61636;5.35;12.3;1.247901757;9;117
41;paravance-42.rennes.grid5000.fr;thermos-root-devel-WordCountTopology-0-ea57b9e1-b232-42e2-b90c-615b993e9260;["topology_master"];2.25;1533087867.83241;5.41;12.4;1.247901757;9;117
41;paravance-31.rennes.grid5000.fr;thermos-root-devel-WordCountTopology-2-11d95054-9a19-4805-8c8d-2a8bcec3e688;["container_2_Emit_random_words_2"];2.25;1533087867.84031;19.16;326.43;10.585621149;10;149
41;paravance-32.rennes.grid5000.fr;thermos-root-devel-WordCountTopology-1-14fbed36-1e38-46e8-82ea-c160390b4458;["container_1_Consume_and_count_1"];2.25;1533087867.83645;73.81;903.69;746.621977793;10;151
42;paravance-42.rennes.grid5000.fr;thermos-root-devel-WordCountTopology-0-ea57b9e1-b232-42e2-b90c-615b993e9260;["topology_master"];2.25;1533087878.05083;5.5;12.53;1.247901757;9;117
42;paravance-31.rennes.grid5000.fr;thermos-root-devel-WordCountTopology-2-11d95054-9a19-4805-8c8d-2a8bcec3e688;["container_2_Emit_random_words_2"];2.25;1533087878.05909;19.51;332.81;10.658800533;10;149
42;paravance-32.rennes.grid5000.fr;thermos-root-devel-WordCountTopology-1-14fbed36-1e38-46e8-82ea-c160390b4458;["container_1_Consume_and_count_1"];2.25;1533087878.05455;75.08;919.06;756.418674436;10;151
43;paravance-31.rennes.grid5000.fr;thermos-root-devel-WordCountTopology-2-11d95054-9a19-4805-8c8d-2a8bcec3e688;["container_2_Emit_random_words_2"];2.25;1533087888.27614;19.77;338.56;10.658800533;10;149
43;paravance-32.rennes.grid5000.fr;thermos-root-devel-WordCountTopology-1-14fbed36-1e38-46e8-82ea-c160390b4458;["container_1_Consume_and_count_1"];2.25;1533087888.27179;76.26;936.61;770.003222288;10;151
43;paravance-42.rennes.grid5000.fr;thermos-root-devel-WordCountTopology-0-ea57b9e1-b232-42e2-b90c-615b993e9260;["topology_master"];2.25;1533087888.27008;5.53;12.56;1.247901757;9;117
44;paravance-32.rennes.grid5000.fr;thermos-root-devel-WordCountTopology-1-14fbed36-1e38-46e8-82ea-c160390b4458;["container_1_Consume_and_count_1"];2.25;1533087898.48795;77.8;957.09;791.540925869;10;151
44;paravance-31.rennes.grid5000.fr;thermos-root-devel-WordCountTopology-2-11d95054-9a19-4805-8c8d-2a8bcec3e688;["container_2_Emit_random_words_2"];2.25;1533087898.49186;20.23;347.7;10.658800533;10;149
44;paravance-42.rennes.grid5000.fr;thermos-root-devel-WordCountTopology-0-ea57b9e1-b232-42e2-b90c-615b993e9260;["topology_master"];2.25;1533087898.48628;5.61;12.68;1.247901757;9;117
45;paravance-32.rennes.grid5000.fr;thermos-root-devel-WordCountTopology-1-14fbed36-1e38-46e8-82ea-c160390b4458;["container_1_Consume_and_count_1"];2.25;1533087908.60393;79.62;976.79;810.550924018;10;151
45;paravance-42.rennes.grid5000.fr;thermos-root-devel-WordCountTopology-0-ea57b9e1-b232-42e2-b90c-615b993e9260;["topology_master"];2.25;1533087908.70266;5.67;12.75;1.247901757;9;117
45;paravance-31.rennes.grid5000.fr;thermos-root-devel-WordCountTopology-2-11d95054-9a19-4805-8c8d-2a8bcec3e688;["container_2_Emit_random_words_2"];2.25;1533087908.71061;20.52;353.51;10.658800533;10;149
46;paravance-32.rennes.grid5000.fr;thermos-root-devel-WordCountTopology-1-14fbed36-1e38-46e8-82ea-c160390b4458;["container_1_Consume_and_count_1"];2.25;1533087918.92193;81.73;996.75;831.468237296;10;151
46;paravance-31.rennes.grid5000.fr;thermos-root-devel-WordCountTopology-2-11d95054-9a19-4805-8c8d-2a8bcec3e688;["container_2_Emit_random_words_2"];2.25;1533087918.92724;21.16;369.65;10.679805037;10;149
46;paravance-42.rennes.grid5000.fr;thermos-root-devel-WordCountTopology-0-ea57b9e1-b232-42e2-b90c-615b993e9260;["topology_master"];2.25;1533087918.92094;5.74;12.83;1.247901757;9;117
47;paravance-31.rennes.grid5000.fr;thermos-root-devel-WordCountTopology-2-11d95054-9a19-4805-8c8d-2a8bcec3e688;["container_2_Emit_random_words_2"];2.25;1533087929.1445;21.58;378.55;10.679805037;10;149
47;paravance-32.rennes.grid5000.fr;thermos-root-devel-WordCountTopology-1-14fbed36-1e38-46e8-82ea-c160390b4458;["container_1_Consume_and_count_1"];2.25;1533087929.14132;83.25;1017.22;853.599727359;10;151
47;paravance-42.rennes.grid5000.fr;thermos-root-devel-WordCountTopology-0-ea57b9e1-b232-42e2-b90c-615b993e9260;["topology_master"];2.25;1533087929.1384;5.8;12.96;1.247901757;9;117
48;paravance-32.rennes.grid5000.fr;thermos-root-devel-WordCountTopology-1-14fbed36-1e38-46e8-82ea-c160390b4458;["container_1_Consume_and_count_1"];2.25;1533087939.35828;85.27;1037.17;868.862009724;10;151
48;paravance-31.rennes.grid5000.fr;thermos-root-devel-WordCountTopology-2-11d95054-9a19-4805-8c8d-2a8bcec3e688;["container_2_Emit_random_words_2"];2.25;1533087939.36354;22.13;391.38;10.738635647;10;149
48;paravance-42.rennes.grid5000.fr;thermos-root-devel-WordCountTopology-0-ea57b9e1-b232-42e2-b90c-615b993e9260;["topology_master"];2.25;1533087939.35568;5.88;13.1;1.247901757;9;117
49;paravance-32.rennes.grid5000.fr;thermos-root-devel-WordCountTopology-1-14fbed36-1e38-46e8-82ea-c160390b4458;["container_1_Consume_and_count_1"];2.25;1533087949.57419;87.53;1056.87;882.947278774;10;151
49;paravance-31.rennes.grid5000.fr;thermos-root-devel-WordCountTopology-2-11d95054-9a19-4805-8c8d-2a8bcec3e688;["container_2_Emit_random_words_2"];2.25;1533087949.5799;22.82;409.69;10.738635647;10;149
49;paravance-42.rennes.grid5000.fr;thermos-root-devel-WordCountTopology-0-ea57b9e1-b232-42e2-b90c-615b993e9260;["topology_master"];2.25;1533087949.57287;5.91;13.13;1.247901757;9;117
50;paravance-32.rennes.grid5000.fr;thermos-root-devel-WordCountTopology-1-14fbed36-1e38-46e8-82ea-c160390b4458;["container_1_Consume_and_count_1"];2.25;1533087959.78989;89.52;1076.81;899.854652258;10;151
50;paravance-31.rennes.grid5000.fr;thermos-root-devel-WordCountTopology-2-11d95054-9a19-4805-8c8d-2a8bcec3e688;["container_2_Emit_random_words_2"];2.25;1533087959.79526;23.28;419.65;10.738635647;10;149
50;paravance-42.rennes.grid5000.fr;thermos-root-devel-WordCountTopology-0-ea57b9e1-b232-42e2-b90c-615b993e9260;["topology_master"];2.25;1533087959.78888;6.01;13.28;1.247901757;9;117
51;paravance-42.rennes.grid5000.fr;thermos-root-devel-WordCountTopology-0-ea57b9e1-b232-42e2-b90c-615b993e9260;["topology_master"];2.25;1533087969.90377;6.06;13.34;1.247901757;9;117
51;paravance-32.rennes.grid5000.fr;thermos-root-devel-WordCountTopology-1-14fbed36-1e38-46e8-82ea-c160390b4458;["container_1_Consume_and_count_1"];2.25;1533087970.00602;91.25;1096.43;917.925845238;10;151
51;paravance-31.rennes.grid5000.fr;thermos-root-devel-WordCountTopology-2-11d95054-9a19-4805-8c8d-2a8bcec3e688;["container_2_Emit_random_words_2"];2.25;1533087970.01136;23.67;428.2;10.738635647;10;149
52;paravance-32.rennes.grid5000.fr;thermos-root-devel-WordCountTopology-1-14fbed36-1e38-46e8-82ea-c160390b4458;["container_1_Consume_and_count_1"];2.25;1533087980.22036;92.88;1116.31;936.460710676;10;151
52;paravance-42.rennes.grid5000.fr;thermos-root-devel-WordCountTopology-0-ea57b9e1-b232-42e2-b90c-615b993e9260;["topology_master"];2.25;1533087980.2199;6.14;13.47;1.247901757;9;117
52;paravance-31.rennes.grid5000.fr;thermos-root-devel-WordCountTopology-2-11d95054-9a19-4805-8c8d-2a8bcec3e688;["container_2_Emit_random_words_2"];2.25;1533087980.22784;24.01;434.63;10.779460358;10;149
53;paravance-32.rennes.grid5000.fr;thermos-root-devel-WordCountTopology-1-14fbed36-1e38-46e8-82ea-c160390b4458;["container_1_Consume_and_count_1"];2.25;1533087990.43624;94.61;1136.33;956.167991456;10;151
53;paravance-31.rennes.grid5000.fr;thermos-root-devel-WordCountTopology-2-11d95054-9a19-4805-8c8d-2a8bcec3e688;["container_2_Emit_random_words_2"];2.25;1533087990.44331;24.34;440.92;10.791524869;10;149
53;paravance-42.rennes.grid5000.fr;thermos-root-devel-WordCountTopology-0-ea57b9e1-b232-42e2-b90c-615b993e9260;["topology_master"];2.25;1533087990.43578;6.19;13.54;1.247901757;9;117
54;paravance-32.rennes.grid5000.fr;thermos-root-devel-WordCountTopology-1-14fbed36-1e38-46e8-82ea-c160390b4458;["container_1_Consume_and_count_1"];2.25;1533088000.65152;95.84;1156.02;973.573113271;10;151
54;paravance-42.rennes.grid5000.fr;thermos-root-devel-WordCountTopology-0-ea57b9e1-b232-42e2-b90c-615b993e9260;["topology_master"];2.25;1533088000.65123;6.28;13.68;1.247901757;9;117
54;paravance-31.rennes.grid5000.fr;thermos-root-devel-WordCountTopology-2-11d95054-9a19-4805-8c8d-2a8bcec3e688;["container_2_Emit_random_words_2"];2.25;1533088000.65794;24.72;448.28;10.803882598;10;149
55;paravance-32.rennes.grid5000.fr;thermos-root-devel-WordCountTopology-1-14fbed36-1e38-46e8-82ea-c160390b4458;["container_1_Consume_and_count_1"];2.25;1533088010.87002;97.44;1176.3;993.282541224;10;151
55;paravance-31.rennes.grid5000.fr;thermos-root-devel-WordCountTopology-2-11d95054-9a19-4805-8c8d-2a8bcec3e688;["container_2_Emit_random_words_2"];2.25;1533088010.87545;24.98;453.44;10.803882598;10;149
55;paravance-42.rennes.grid5000.fr;thermos-root-devel-WordCountTopology-0-ea57b9e1-b232-42e2-b90c-615b993e9260;["topology_master"];2.25;1533088010.86839;6.31;13.71;1.247901757;9;117
56;paravance-32.rennes.grid5000.fr;thermos-root-devel-WordCountTopology-1-14fbed36-1e38-46e8-82ea-c160390b4458;["container_1_Consume_and_count_1"];2.25;1533088021.0871;99.3;1195.61;1012.657094852;10;151
56;paravance-42.rennes.grid5000.fr;thermos-root-devel-WordCountTopology-0-ea57b9e1-b232-42e2-b90c-615b993e9260;["topology_master"];2.25;1533088021.08605;6.41;13.83;1.247901757;9;117
56;paravance-31.rennes.grid5000.fr;thermos-root-devel-WordCountTopology-2-11d95054-9a19-4805-8c8d-2a8bcec3e688;["container_2_Emit_random_words_2"];2.25;1533088021.09478;25.31;459.27;10.804210385;10;149
57;paravance-32.rennes.grid5000.fr;thermos-root-devel-WordCountTopology-1-14fbed36-1e38-46e8-82ea-c160390b4458;["container_1_Consume_and_count_1"];2.25;1533088031.30532;100.48;1214.38;1028.982952123;10;151
57;paravance-42.rennes.grid5000.fr;thermos-root-devel-WordCountTopology-0-ea57b9e1-b232-42e2-b90c-615b993e9260;["topology_master"];2.25;1533088031.30442;6.47;13.91;1.247901757;9;117
57;paravance-31.rennes.grid5000.fr;thermos-root-devel-WordCountTopology-2-11d95054-9a19-4805-8c8d-2a8bcec3e688;["container_2_Emit_random_words_2"];2.25;1533088031.31368;25.67;467.01;10.804210385;10;149
58;paravance-32.rennes.grid5000.fr;thermos-root-devel-WordCountTopology-1-14fbed36-1e38-46e8-82ea-c160390b4458;["container_1_Consume_and_count_1"];2.25;1533088041.52357;102.28;1234.46;1048.802940196;10;151
58;paravance-42.rennes.grid5000.fr;thermos-root-devel-WordCountTopology-0-ea57b9e1-b232-42e2-b90c-615b993e9260;["topology_master"];2.25;1533088041.52185;6.54;14.02;1.247901757;9;117
58;paravance-31.rennes.grid5000.fr;thermos-root-devel-WordCountTopology-2-11d95054-9a19-4805-8c8d-2a8bcec3e688;["container_2_Emit_random_words_2"];2.25;1533088041.53036;26.07;475.18;10.804210385;10;149
59;paravance-32.rennes.grid5000.fr;thermos-root-devel-WordCountTopology-1-14fbed36-1e38-46e8-82ea-c160390b4458;["container_1_Consume_and_count_1"];2.25;1533088051.73922;104.45;1254.08;1063.219116236;10;151
59;paravance-31.rennes.grid5000.fr;thermos-root-devel-WordCountTopology-2-11d95054-9a19-4805-8c8d-2a8bcec3e688;["container_2_Emit_random_words_2"];2.25;1533088051.74546;26.46;483.98;10.804210385;10;149
59;paravance-42.rennes.grid5000.fr;thermos-root-devel-WordCountTopology-0-ea57b9e1-b232-42e2-b90c-615b993e9260;["topology_master"];2.25;1533088051.73784;6.6;14.1;1.247901757;9;117
60;paravance-32.rennes.grid5000.fr;thermos-root-devel-WordCountTopology-1-14fbed36-1e38-46e8-82ea-c160390b4458;["container_1_Consume_and_count_1"];2.25;1533088061.95431;106.39;1273.95;1082.932326925;10;151
60;paravance-42.rennes.grid5000.fr;thermos-root-devel-WordCountTopology-0-ea57b9e1-b232-42e2-b90c-615b993e9260;["topology_master"];2.25;1533088061.95381;6.69;14.22;1.247901757;9;117
60;paravance-31.rennes.grid5000.fr;thermos-root-devel-WordCountTopology-2-11d95054-9a19-4805-8c8d-2a8bcec3e688;["container_2_Emit_random_words_2"];2.25;1533088061.96157;26.82;490.47;10.812284096;10;149
