mesure_id;slave_id;executor_id;heron_instances;cpus_limit;timestamp_A;cpus_system_time_secs_A;cpus_user_time_secs_A;cpus_throttled_time_secs_A;processes;threads
0;paravance-45.rennes.grid5000.fr;thermos-root-devel-WordCountTopology-2-3503a0ec-72cf-418f-98d8-acf24decbd25;["container_2_Emit_random_words_2"];3.25;1533123602.83122;29.34;167.06;8.059438903;10;149
0;paravance-44.rennes.grid5000.fr;thermos-root-devel-WordCountTopology-1-b5474c29-043b-4278-9377-60d9dffd308c;["container_1_Consume_and_count_1"];3.25;1533123602.86954;50.96;227.74;81.115827824;10;151
0;paravance-47.rennes.grid5000.fr;thermos-root-devel-WordCountTopology-0-96d5b94a-5dd4-44ed-bf87-5fa722a51be4;["topology_master"];3.25;1533123602.8827;2.34;7.73;0.215085963;9;117
1;paravance-44.rennes.grid5000.fr;thermos-root-devel-WordCountTopology-1-b5474c29-043b-4278-9377-60d9dffd308c;["container_1_Consume_and_count_1"];3.25;1533123613.08665;56.94;253.22;88.611675099;10;151
1;paravance-45.rennes.grid5000.fr;thermos-root-devel-WordCountTopology-2-3503a0ec-72cf-418f-98d8-acf24decbd25;["container_2_Emit_random_words_2"];3.25;1533123613.05039;32.61;186.58;8.059438903;10;149
1;paravance-47.rennes.grid5000.fr;thermos-root-devel-WordCountTopology-0-96d5b94a-5dd4-44ed-bf87-5fa722a51be4;["topology_master"];3.25;1533123613.10199;2.41;7.87;0.215085963;9;117
2;paravance-45.rennes.grid5000.fr;thermos-root-devel-WordCountTopology-2-3503a0ec-72cf-418f-98d8-acf24decbd25;["container_2_Emit_random_words_2"];3.25;1533123623.26766;35.94;204.88;8.059438903;10;149
2;paravance-44.rennes.grid5000.fr;thermos-root-devel-WordCountTopology-1-b5474c29-043b-4278-9377-60d9dffd308c;["container_1_Consume_and_count_1"];3.25;1533123623.30466;62.5;279.7;101.622050545;10;151
2;paravance-47.rennes.grid5000.fr;thermos-root-devel-WordCountTopology-0-96d5b94a-5dd4-44ed-bf87-5fa722a51be4;["topology_master"];3.25;1533123623.31921;2.5;8.0;0.215085963;9;117
3;paravance-44.rennes.grid5000.fr;thermos-root-devel-WordCountTopology-1-b5474c29-043b-4278-9377-60d9dffd308c;["container_1_Consume_and_count_1"];3.25;1533123633.52081;67.8;306.19;116.569411811;10;151
3;paravance-47.rennes.grid5000.fr;thermos-root-devel-WordCountTopology-0-96d5b94a-5dd4-44ed-bf87-5fa722a51be4;["topology_master"];3.25;1533123633.53415;2.53;8.04;0.215085963;9;117
3;paravance-45.rennes.grid5000.fr;thermos-root-devel-WordCountTopology-2-3503a0ec-72cf-418f-98d8-acf24decbd25;["container_2_Emit_random_words_2"];3.25;1533123633.4817;38.86;220.72;8.059438903;10;149
4;paravance-45.rennes.grid5000.fr;thermos-root-devel-WordCountTopology-2-3503a0ec-72cf-418f-98d8-acf24decbd25;["container_2_Emit_random_words_2"];3.25;1533123643.59596;40.85;231.5;8.059438903;10;149
4;paravance-44.rennes.grid5000.fr;thermos-root-devel-WordCountTopology-1-b5474c29-043b-4278-9377-60d9dffd308c;["container_1_Consume_and_count_1"];3.25;1533123643.73406;71.41;332.56;129.56686083;10;151
4;paravance-47.rennes.grid5000.fr;thermos-root-devel-WordCountTopology-0-96d5b94a-5dd4-44ed-bf87-5fa722a51be4;["topology_master"];3.25;1533123643.74961;2.63;8.17;0.215085963;9;117
5;paravance-44.rennes.grid5000.fr;thermos-root-devel-WordCountTopology-1-b5474c29-043b-4278-9377-60d9dffd308c;["container_1_Consume_and_count_1"];3.25;1533123653.94818;75.72;359.71;144.564291222;10;151
5;paravance-45.rennes.grid5000.fr;thermos-root-devel-WordCountTopology-2-3503a0ec-72cf-418f-98d8-acf24decbd25;["container_2_Emit_random_words_2"];3.25;1533123653.91133;43.61;246.54;8.059438903;10;149
5;paravance-47.rennes.grid5000.fr;thermos-root-devel-WordCountTopology-0-96d5b94a-5dd4-44ed-bf87-5fa722a51be4;["topology_master"];3.25;1533123653.96305;2.69;8.24;0.215085963;9;117
6;paravance-45.rennes.grid5000.fr;thermos-root-devel-WordCountTopology-2-3503a0ec-72cf-418f-98d8-acf24decbd25;["container_2_Emit_random_words_2"];3.25;1533123664.12757;46.39;261.4;8.059438903;10;149
6;paravance-47.rennes.grid5000.fr;thermos-root-devel-WordCountTopology-0-96d5b94a-5dd4-44ed-bf87-5fa722a51be4;["topology_master"];3.25;1533123664.17859;2.77;8.4;0.215085963;9;117
6;paravance-44.rennes.grid5000.fr;thermos-root-devel-WordCountTopology-1-b5474c29-043b-4278-9377-60d9dffd308c;["container_1_Consume_and_count_1"];3.25;1533123664.1652;79.74;387.19;162.976744888;10;151
7;paravance-45.rennes.grid5000.fr;thermos-root-devel-WordCountTopology-2-3503a0ec-72cf-418f-98d8-acf24decbd25;["container_2_Emit_random_words_2"];3.25;1533123674.34327;49.41;277.45;8.059438903;10;149
7;paravance-44.rennes.grid5000.fr;thermos-root-devel-WordCountTopology-1-b5474c29-043b-4278-9377-60d9dffd308c;["container_1_Consume_and_count_1"];3.25;1533123674.38089;84.7;413.64;176.487179621;10;151
7;paravance-47.rennes.grid5000.fr;thermos-root-devel-WordCountTopology-0-96d5b94a-5dd4-44ed-bf87-5fa722a51be4;["topology_master"];3.25;1533123674.39402;2.83;8.49;0.215085963;9;117
8;paravance-44.rennes.grid5000.fr;thermos-root-devel-WordCountTopology-1-b5474c29-043b-4278-9377-60d9dffd308c;["container_1_Consume_and_count_1"];3.25;1533123684.59568;90.84;439.34;185.707200224;10;151
8;paravance-45.rennes.grid5000.fr;thermos-root-devel-WordCountTopology-2-3503a0ec-72cf-418f-98d8-acf24decbd25;["container_2_Emit_random_words_2"];3.25;1533123684.55875;52.83;296.15;8.059438903;10;149
8;paravance-47.rennes.grid5000.fr;thermos-root-devel-WordCountTopology-0-96d5b94a-5dd4-44ed-bf87-5fa722a51be4;["topology_master"];3.25;1533123684.60911;2.92;8.62;0.215085963;9;117
9;paravance-44.rennes.grid5000.fr;thermos-root-devel-WordCountTopology-1-b5474c29-043b-4278-9377-60d9dffd308c;["container_1_Consume_and_count_1"];3.25;1533123694.81082;96.96;465.01;194.549887997;10;151
9;paravance-45.rennes.grid5000.fr;thermos-root-devel-WordCountTopology-2-3503a0ec-72cf-418f-98d8-acf24decbd25;["container_2_Emit_random_words_2"];3.25;1533123694.77548;56.16;315.0;8.059438903;10;149
9;paravance-47.rennes.grid5000.fr;thermos-root-devel-WordCountTopology-0-96d5b94a-5dd4-44ed-bf87-5fa722a51be4;["topology_master"];3.25;1533123694.82579;2.98;8.69;0.215085963;9;117
10;paravance-44.rennes.grid5000.fr;thermos-root-devel-WordCountTopology-1-b5474c29-043b-4278-9377-60d9dffd308c;["container_1_Consume_and_count_1"];3.25;1533123705.02603;101.98;490.48;204.346568632;10;151
10;paravance-47.rennes.grid5000.fr;thermos-root-devel-WordCountTopology-0-96d5b94a-5dd4-44ed-bf87-5fa722a51be4;["topology_master"];3.25;1533123705.03974;3.04;8.77;0.215085963;9;117
10;paravance-45.rennes.grid5000.fr;thermos-root-devel-WordCountTopology-2-3503a0ec-72cf-418f-98d8-acf24decbd25;["container_2_Emit_random_words_2"];3.25;1533123704.98963;58.99;331.1;8.059438903;10;149
11;paravance-44.rennes.grid5000.fr;thermos-root-devel-WordCountTopology-1-b5474c29-043b-4278-9377-60d9dffd308c;["container_1_Consume_and_count_1"];3.25;1533123715.23997;106.53;517.22;218.794770392;10;151
11;paravance-45.rennes.grid5000.fr;thermos-root-devel-WordCountTopology-2-3503a0ec-72cf-418f-98d8-acf24decbd25;["container_2_Emit_random_words_2"];3.25;1533123715.20403;61.63;345.96;8.059438903;10;149
11;paravance-47.rennes.grid5000.fr;thermos-root-devel-WordCountTopology-0-96d5b94a-5dd4-44ed-bf87-5fa722a51be4;["topology_master"];3.25;1533123715.25401;3.1;8.84;0.215085963;9;117
12;paravance-45.rennes.grid5000.fr;thermos-root-devel-WordCountTopology-2-3503a0ec-72cf-418f-98d8-acf24decbd25;["container_2_Emit_random_words_2"];3.25;1533123725.41938;64.34;360.44;8.059451222;10;149
12;paravance-44.rennes.grid5000.fr;thermos-root-devel-WordCountTopology-1-b5474c29-043b-4278-9377-60d9dffd308c;["container_1_Consume_and_count_1"];3.25;1533123725.45538;111.1;544.55;234.776910684;10;151
12;paravance-47.rennes.grid5000.fr;thermos-root-devel-WordCountTopology-0-96d5b94a-5dd4-44ed-bf87-5fa722a51be4;["topology_master"];3.25;1533123725.46961;3.22;9.14;0.215085963;9;117
13;paravance-44.rennes.grid5000.fr;thermos-root-devel-WordCountTopology-1-b5474c29-043b-4278-9377-60d9dffd308c;["container_1_Consume_and_count_1"];3.25;1533123735.67234;116.22;570.74;246.614919841;10;151
13;paravance-47.rennes.grid5000.fr;thermos-root-devel-WordCountTopology-0-96d5b94a-5dd4-44ed-bf87-5fa722a51be4;["topology_master"];3.25;1533123735.68454;3.25;9.16;0.215085963;9;117
13;paravance-45.rennes.grid5000.fr;thermos-root-devel-WordCountTopology-2-3503a0ec-72cf-418f-98d8-acf24decbd25;["container_2_Emit_random_words_2"];3.25;1533123735.63558;67.36;376.62;8.059451222;10;149
14;paravance-44.rennes.grid5000.fr;thermos-root-devel-WordCountTopology-1-b5474c29-043b-4278-9377-60d9dffd308c;["container_1_Consume_and_count_1"];3.25;1533123745.8862;120.67;598.47;264.472858208;10;151
14;paravance-47.rennes.grid5000.fr;thermos-root-devel-WordCountTopology-0-96d5b94a-5dd4-44ed-bf87-5fa722a51be4;["topology_master"];3.25;1533123745.90056;3.35;9.33;0.215085963;9;117
14;paravance-45.rennes.grid5000.fr;thermos-root-devel-WordCountTopology-2-3503a0ec-72cf-418f-98d8-acf24decbd25;["container_2_Emit_random_words_2"];3.25;1533123745.85091;70.17;391.33;8.059451222;10;149
15;paravance-45.rennes.grid5000.fr;thermos-root-devel-WordCountTopology-2-3503a0ec-72cf-418f-98d8-acf24decbd25;["container_2_Emit_random_words_2"];3.25;1533123756.06626;73.44;409.03;8.059451222;10;149
15;paravance-44.rennes.grid5000.fr;thermos-root-devel-WordCountTopology-1-b5474c29-043b-4278-9377-60d9dffd308c;["container_1_Consume_and_count_1"];3.25;1533123756.10552;125.84;625.6;277.727313563;10;151
15;paravance-47.rennes.grid5000.fr;thermos-root-devel-WordCountTopology-0-96d5b94a-5dd4-44ed-bf87-5fa722a51be4;["topology_master"];3.25;1533123756.11638;3.4;9.4;0.215085963;9;117
16;paravance-45.rennes.grid5000.fr;thermos-root-devel-WordCountTopology-2-3503a0ec-72cf-418f-98d8-acf24decbd25;["container_2_Emit_random_words_2"];3.25;1533123766.28212;76.89;428.14;8.059451222;10;149
16;paravance-44.rennes.grid5000.fr;thermos-root-devel-WordCountTopology-1-b5474c29-043b-4278-9377-60d9dffd308c;["container_1_Consume_and_count_1"];3.25;1533123766.32037;132.19;651.02;286.42921567;10;151
16;paravance-47.rennes.grid5000.fr;thermos-root-devel-WordCountTopology-0-96d5b94a-5dd4-44ed-bf87-5fa722a51be4;["topology_master"];3.25;1533123766.33491;3.46;9.49;0.215085963;9;117
17;paravance-44.rennes.grid5000.fr;thermos-root-devel-WordCountTopology-1-b5474c29-043b-4278-9377-60d9dffd308c;["container_1_Consume_and_count_1"];3.25;1533123776.53695;137.89;677.43;298.785278807;10;151
17;paravance-45.rennes.grid5000.fr;thermos-root-devel-WordCountTopology-2-3503a0ec-72cf-418f-98d8-acf24decbd25;["container_2_Emit_random_words_2"];3.25;1533123776.50149;80.16;446.61;8.059451222;10;149
17;paravance-47.rennes.grid5000.fr;thermos-root-devel-WordCountTopology-0-96d5b94a-5dd4-44ed-bf87-5fa722a51be4;["topology_master"];3.25;1533123776.55128;3.52;9.57;0.215085963;9;117
18;paravance-44.rennes.grid5000.fr;thermos-root-devel-WordCountTopology-1-b5474c29-043b-4278-9377-60d9dffd308c;["container_1_Consume_and_count_1"];3.25;1533123786.75704;142.28;703.89;312.641871583;10;151
18;paravance-45.rennes.grid5000.fr;thermos-root-devel-WordCountTopology-2-3503a0ec-72cf-418f-98d8-acf24decbd25;["container_2_Emit_random_words_2"];3.25;1533123786.72037;82.65;459.39;8.059451222;10;149
18;paravance-47.rennes.grid5000.fr;thermos-root-devel-WordCountTopology-0-96d5b94a-5dd4-44ed-bf87-5fa722a51be4;["topology_master"];3.25;1533123786.77099;3.63;9.75;0.215085963;9;117
19;paravance-44.rennes.grid5000.fr;thermos-root-devel-WordCountTopology-1-b5474c29-043b-4278-9377-60d9dffd308c;["container_1_Consume_and_count_1"];3.25;1533123796.97626;146.24;729.49;325.464230405;10;151
19;paravance-45.rennes.grid5000.fr;thermos-root-devel-WordCountTopology-2-3503a0ec-72cf-418f-98d8-acf24decbd25;["container_2_Emit_random_words_2"];3.25;1533123796.93875;84.88;471.58;8.059451222;10;149
19;paravance-47.rennes.grid5000.fr;thermos-root-devel-WordCountTopology-0-96d5b94a-5dd4-44ed-bf87-5fa722a51be4;["topology_master"];3.25;1533123797.00361;3.65;9.78;0.215085963;9;117
20;paravance-44.rennes.grid5000.fr;thermos-root-devel-WordCountTopology-1-b5474c29-043b-4278-9377-60d9dffd308c;["container_1_Consume_and_count_1"];3.25;1533123807.20812;150.85;756.82;341.366822399;10;151
20;paravance-45.rennes.grid5000.fr;thermos-root-devel-WordCountTopology-2-3503a0ec-72cf-418f-98d8-acf24decbd25;["container_2_Emit_random_words_2"];3.25;1533123807.17213;87.9;487.65;8.059451222;10;149
20;paravance-47.rennes.grid5000.fr;thermos-root-devel-WordCountTopology-0-96d5b94a-5dd4-44ed-bf87-5fa722a51be4;["topology_master"];3.25;1533123807.22188;3.75;9.91;0.215085963;9;117
21;paravance-47.rennes.grid5000.fr;thermos-root-devel-WordCountTopology-0-96d5b94a-5dd4-44ed-bf87-5fa722a51be4;["topology_master"];3.25;1533123817.43844;3.8;9.98;0.215085963;9;117
21;paravance-45.rennes.grid5000.fr;thermos-root-devel-WordCountTopology-2-3503a0ec-72cf-418f-98d8-acf24decbd25;["container_2_Emit_random_words_2"];3.25;1533123817.39245;90.84;503.75;8.059451222;10;149
21;paravance-44.rennes.grid5000.fr;thermos-root-devel-WordCountTopology-1-b5474c29-043b-4278-9377-60d9dffd308c;["container_1_Consume_and_count_1"];3.25;1533123817.44198;156.06;782.82;351.038874457;10;151
22;paravance-45.rennes.grid5000.fr;thermos-root-devel-WordCountTopology-2-3503a0ec-72cf-418f-98d8-acf24decbd25;["container_2_Emit_random_words_2"];3.25;1533123827.61902;93.53;518.56;8.059451222;10;149
22;paravance-47.rennes.grid5000.fr;thermos-root-devel-WordCountTopology-0-96d5b94a-5dd4-44ed-bf87-5fa722a51be4;["topology_master"];3.25;1533123827.66842;3.86;10.06;0.215085963;9;117
22;paravance-44.rennes.grid5000.fr;thermos-root-devel-WordCountTopology-1-b5474c29-043b-4278-9377-60d9dffd308c;["container_1_Consume_and_count_1"];3.25;1533123827.65732;160.77;809.27;366.161671547;10;151
23;paravance-44.rennes.grid5000.fr;thermos-root-devel-WordCountTopology-1-b5474c29-043b-4278-9377-60d9dffd308c;["container_1_Consume_and_count_1"];3.25;1533123837.87275;165.25;836.61;382.117264574;10;151
23;paravance-45.rennes.grid5000.fr;thermos-root-devel-WordCountTopology-2-3503a0ec-72cf-418f-98d8-acf24decbd25;["container_2_Emit_random_words_2"];3.25;1533123837.83699;96.13;532.22;8.059451222;10;149
23;paravance-47.rennes.grid5000.fr;thermos-root-devel-WordCountTopology-0-96d5b94a-5dd4-44ed-bf87-5fa722a51be4;["topology_master"];3.25;1533123837.88702;3.92;10.13;0.215085963;9;117
24;paravance-45.rennes.grid5000.fr;thermos-root-devel-WordCountTopology-2-3503a0ec-72cf-418f-98d8-acf24decbd25;["container_2_Emit_random_words_2"];3.25;1533123848.05416;98.83;546.27;8.059451222;10;149
24;paravance-44.rennes.grid5000.fr;thermos-root-devel-WordCountTopology-1-b5474c29-043b-4278-9377-60d9dffd308c;["container_1_Consume_and_count_1"];3.25;1533123848.09242;169.82;863.29;397.497875516;10;151
24;paravance-47.rennes.grid5000.fr;thermos-root-devel-WordCountTopology-0-96d5b94a-5dd4-44ed-bf87-5fa722a51be4;["topology_master"];3.25;1533123848.10342;4.03;10.3;0.215085963;9;117
25;paravance-44.rennes.grid5000.fr;thermos-root-devel-WordCountTopology-1-b5474c29-043b-4278-9377-60d9dffd308c;["container_1_Consume_and_count_1"];3.25;1533123858.30817;173.88;890.45;412.183301616;10;151
25;paravance-45.rennes.grid5000.fr;thermos-root-devel-WordCountTopology-2-3503a0ec-72cf-418f-98d8-acf24decbd25;["container_2_Emit_random_words_2"];3.25;1533123858.27185;101.43;559.26;8.059451222;10;149
25;paravance-47.rennes.grid5000.fr;thermos-root-devel-WordCountTopology-0-96d5b94a-5dd4-44ed-bf87-5fa722a51be4;["topology_master"];3.25;1533123858.32095;4.06;10.32;0.215085963;9;117
26;paravance-44.rennes.grid5000.fr;thermos-root-devel-WordCountTopology-1-b5474c29-043b-4278-9377-60d9dffd308c;["container_1_Consume_and_count_1"];3.25;1533123868.52475;178.56;917.29;425.766020003;10;151
26;paravance-47.rennes.grid5000.fr;thermos-root-devel-WordCountTopology-0-96d5b94a-5dd4-44ed-bf87-5fa722a51be4;["topology_master"];3.25;1533123868.53595;4.15;10.46;0.215085963;9;117
26;paravance-45.rennes.grid5000.fr;thermos-root-devel-WordCountTopology-2-3503a0ec-72cf-418f-98d8-acf24decbd25;["container_2_Emit_random_words_2"];3.25;1533123868.48855;104.0;572.73;8.059451222;10;149
27;paravance-45.rennes.grid5000.fr;thermos-root-devel-WordCountTopology-2-3503a0ec-72cf-418f-98d8-acf24decbd25;["container_2_Emit_random_words_2"];3.25;1533123878.70447;106.63;585.9;8.059451222;10;149
27;paravance-44.rennes.grid5000.fr;thermos-root-devel-WordCountTopology-1-b5474c29-043b-4278-9377-60d9dffd308c;["container_1_Consume_and_count_1"];3.25;1533123878.7403;182.79;944.63;440.767384733;10;151
27;paravance-47.rennes.grid5000.fr;thermos-root-devel-WordCountTopology-0-96d5b94a-5dd4-44ed-bf87-5fa722a51be4;["topology_master"];3.25;1533123878.75402;4.21;10.53;0.215085963;9;117
28;paravance-44.rennes.grid5000.fr;thermos-root-devel-WordCountTopology-1-b5474c29-043b-4278-9377-60d9dffd308c;["container_1_Consume_and_count_1"];3.25;1533123888.95819;186.59;970.49;452.167249498;10;151
28;paravance-45.rennes.grid5000.fr;thermos-root-devel-WordCountTopology-2-3503a0ec-72cf-418f-98d8-acf24decbd25;["container_2_Emit_random_words_2"];3.25;1533123888.92202;108.92;597.16;8.059451222;10;149
28;paravance-47.rennes.grid5000.fr;thermos-root-devel-WordCountTopology-0-96d5b94a-5dd4-44ed-bf87-5fa722a51be4;["topology_master"];3.25;1533123888.97069;4.28;10.61;0.215085963;9;117
29;paravance-44.rennes.grid5000.fr;thermos-root-devel-WordCountTopology-1-b5474c29-043b-4278-9377-60d9dffd308c;["container_1_Consume_and_count_1"];3.25;1533123899.17599;192.77;996.12;462.861425745;10;151
29;paravance-45.rennes.grid5000.fr;thermos-root-devel-WordCountTopology-2-3503a0ec-72cf-418f-98d8-acf24decbd25;["container_2_Emit_random_words_2"];3.25;1533123899.13939;112.32;614.16;8.059451222;10;149
29;paravance-47.rennes.grid5000.fr;thermos-root-devel-WordCountTopology-0-96d5b94a-5dd4-44ed-bf87-5fa722a51be4;["topology_master"];3.25;1533123899.18799;4.38;10.75;0.215085963;9;117
30;paravance-44.rennes.grid5000.fr;thermos-root-devel-WordCountTopology-1-b5474c29-043b-4278-9377-60d9dffd308c;["container_1_Consume_and_count_1"];3.25;1533123909.39324;196.73;1022.42;475.61428541;10;151
30;paravance-45.rennes.grid5000.fr;thermos-root-devel-WordCountTopology-2-3503a0ec-72cf-418f-98d8-acf24decbd25;["container_2_Emit_random_words_2"];3.25;1533123909.35606;114.68;625.67;8.059451222;10;149
30;paravance-47.rennes.grid5000.fr;thermos-root-devel-WordCountTopology-0-96d5b94a-5dd4-44ed-bf87-5fa722a51be4;["topology_master"];3.25;1533123909.4044;4.45;10.89;0.215085963;9;117
31;paravance-44.rennes.grid5000.fr;thermos-root-devel-WordCountTopology-1-b5474c29-043b-4278-9377-60d9dffd308c;["container_1_Consume_and_count_1"];3.25;1533123919.61066;200.66;1049.37;489.764172151;10;151
31;paravance-47.rennes.grid5000.fr;thermos-root-devel-WordCountTopology-0-96d5b94a-5dd4-44ed-bf87-5fa722a51be4;["topology_master"];3.25;1533123919.62027;4.51;10.97;0.215085963;9;117
31;paravance-45.rennes.grid5000.fr;thermos-root-devel-WordCountTopology-2-3503a0ec-72cf-418f-98d8-acf24decbd25;["container_2_Emit_random_words_2"];3.25;1533123919.57286;116.91;636.83;8.059451222;10;149
32;paravance-44.rennes.grid5000.fr;thermos-root-devel-WordCountTopology-1-b5474c29-043b-4278-9377-60d9dffd308c;["container_1_Consume_and_count_1"];3.25;1533123929.82584;204.76;1075.84;502.885227936;10;151
32;paravance-45.rennes.grid5000.fr;thermos-root-devel-WordCountTopology-2-3503a0ec-72cf-418f-98d8-acf24decbd25;["container_2_Emit_random_words_2"];3.25;1533123929.7902;119.3;648.92;8.059451222;10;149
32;paravance-47.rennes.grid5000.fr;thermos-root-devel-WordCountTopology-0-96d5b94a-5dd4-44ed-bf87-5fa722a51be4;["topology_master"];3.25;1533123929.83793;4.56;11.04;0.215085963;9;117
33;paravance-44.rennes.grid5000.fr;thermos-root-devel-WordCountTopology-1-b5474c29-043b-4278-9377-60d9dffd308c;["container_1_Consume_and_count_1"];3.25;1533123940.04214;209.45;1102.69;518.07056046;10;151
33;paravance-47.rennes.grid5000.fr;thermos-root-devel-WordCountTopology-0-96d5b94a-5dd4-44ed-bf87-5fa722a51be4;["topology_master"];3.25;1533123940.05246;4.65;11.17;0.215085963;9;117
33;paravance-45.rennes.grid5000.fr;thermos-root-devel-WordCountTopology-2-3503a0ec-72cf-418f-98d8-acf24decbd25;["container_2_Emit_random_words_2"];3.25;1533123940.00554;122.36;664.13;8.059451222;10;149
34;paravance-47.rennes.grid5000.fr;thermos-root-devel-WordCountTopology-0-96d5b94a-5dd4-44ed-bf87-5fa722a51be4;["topology_master"];3.25;1533123950.26636;4.68;11.19;0.215085963;9;117
34;paravance-44.rennes.grid5000.fr;thermos-root-devel-WordCountTopology-1-b5474c29-043b-4278-9377-60d9dffd308c;["container_1_Consume_and_count_1"];3.25;1533123950.25587;213.65;1129.71;533.642050236;10;151
34;paravance-45.rennes.grid5000.fr;thermos-root-devel-WordCountTopology-2-3503a0ec-72cf-418f-98d8-acf24decbd25;["container_2_Emit_random_words_2"];3.25;1533123950.21934;124.87;676.86;8.059451222;10;149
35;paravance-44.rennes.grid5000.fr;thermos-root-devel-WordCountTopology-1-b5474c29-043b-4278-9377-60d9dffd308c;["container_1_Consume_and_count_1"];3.25;1533123960.47016;217.32;1155.08;546.546473295;10;151
35;paravance-45.rennes.grid5000.fr;thermos-root-devel-WordCountTopology-2-3503a0ec-72cf-418f-98d8-acf24decbd25;["container_2_Emit_random_words_2"];3.25;1533123960.43339;127.1;687.63;8.059451222;10;149
35;paravance-47.rennes.grid5000.fr;thermos-root-devel-WordCountTopology-0-96d5b94a-5dd4-44ed-bf87-5fa722a51be4;["topology_master"];3.25;1533123960.48125;4.78;11.33;0.215085963;9;117
36;paravance-45.rennes.grid5000.fr;thermos-root-devel-WordCountTopology-2-3503a0ec-72cf-418f-98d8-acf24decbd25;["container_2_Emit_random_words_2"];3.25;1533123970.5478;129.71;701.37;8.059451222;10;149
36;paravance-44.rennes.grid5000.fr;thermos-root-devel-WordCountTopology-1-b5474c29-043b-4278-9377-60d9dffd308c;["container_1_Consume_and_count_1"];3.25;1533123970.68466;221.9;1182.69;562.468592726;10;151
36;paravance-47.rennes.grid5000.fr;thermos-root-devel-WordCountTopology-0-96d5b94a-5dd4-44ed-bf87-5fa722a51be4;["topology_master"];3.25;1533123970.69544;4.85;11.45;0.215085963;9;117
37;paravance-44.rennes.grid5000.fr;thermos-root-devel-WordCountTopology-1-b5474c29-043b-4278-9377-60d9dffd308c;["container_1_Consume_and_count_1"];3.25;1533123980.90082;225.96;1209.72;575.746165638;10;151
37;paravance-47.rennes.grid5000.fr;thermos-root-devel-WordCountTopology-0-96d5b94a-5dd4-44ed-bf87-5fa722a51be4;["topology_master"];3.25;1533123980.91005;4.91;11.53;0.215085963;9;117
37;paravance-45.rennes.grid5000.fr;thermos-root-devel-WordCountTopology-2-3503a0ec-72cf-418f-98d8-acf24decbd25;["container_2_Emit_random_words_2"];3.25;1533123980.86297;132.02;712.51;8.059451222;10;149
38;paravance-44.rennes.grid5000.fr;thermos-root-devel-WordCountTopology-1-b5474c29-043b-4278-9377-60d9dffd308c;["container_1_Consume_and_count_1"];3.25;1533123991.11697;230.51;1236.04;587.85341043;10;151
38;paravance-47.rennes.grid5000.fr;thermos-root-devel-WordCountTopology-0-96d5b94a-5dd4-44ed-bf87-5fa722a51be4;["topology_master"];3.25;1533123991.12854;4.97;11.61;0.215085963;9;117
38;paravance-45.rennes.grid5000.fr;thermos-root-devel-WordCountTopology-2-3503a0ec-72cf-418f-98d8-acf24decbd25;["container_2_Emit_random_words_2"];3.25;1533123991.08206;134.55;725.51;8.059451222;10;149
39;paravance-44.rennes.grid5000.fr;thermos-root-devel-WordCountTopology-1-b5474c29-043b-4278-9377-60d9dffd308c;["container_1_Consume_and_count_1"];3.25;1533124001.33491;235.78;1262.63;603.87655561;10;151
39;paravance-47.rennes.grid5000.fr;thermos-root-devel-WordCountTopology-0-96d5b94a-5dd4-44ed-bf87-5fa722a51be4;["topology_master"];3.25;1533124001.34587;5.06;11.73;0.215085963;9;117
39;paravance-45.rennes.grid5000.fr;thermos-root-devel-WordCountTopology-2-3503a0ec-72cf-418f-98d8-acf24decbd25;["container_2_Emit_random_words_2"];3.25;1533124001.29821;137.6;741.52;8.059451222;10;149
40;paravance-45.rennes.grid5000.fr;thermos-root-devel-WordCountTopology-2-3503a0ec-72cf-418f-98d8-acf24decbd25;["container_2_Emit_random_words_2"];3.25;1533124011.51644;140.51;756.55;8.059451222;10;149
40;paravance-44.rennes.grid5000.fr;thermos-root-devel-WordCountTopology-1-b5474c29-043b-4278-9377-60d9dffd308c;["container_1_Consume_and_count_1"];3.25;1533124011.55342;240.74;1289.64;619.212919435;10;151
40;paravance-47.rennes.grid5000.fr;thermos-root-devel-WordCountTopology-0-96d5b94a-5dd4-44ed-bf87-5fa722a51be4;["topology_master"];3.25;1533124011.56379;5.08;11.75;0.215085963;9;117
41;paravance-44.rennes.grid5000.fr;thermos-root-devel-WordCountTopology-1-b5474c29-043b-4278-9377-60d9dffd308c;["container_1_Consume_and_count_1"];3.25;1533124021.7711;245.17;1316.89;635.621814126;10;151
41;paravance-45.rennes.grid5000.fr;thermos-root-devel-WordCountTopology-2-3503a0ec-72cf-418f-98d8-acf24decbd25;["container_2_Emit_random_words_2"];3.25;1533124021.73314;143.13;769.91;8.059451222;10;149
41;paravance-47.rennes.grid5000.fr;thermos-root-devel-WordCountTopology-0-96d5b94a-5dd4-44ed-bf87-5fa722a51be4;["topology_master"];3.25;1533124021.77965;5.18;11.89;0.215085963;9;117
42;paravance-44.rennes.grid5000.fr;thermos-root-devel-WordCountTopology-1-b5474c29-043b-4278-9377-60d9dffd308c;["container_1_Consume_and_count_1"];3.25;1533124031.98465;249.03;1343.51;650.366783019;10;151
42;paravance-45.rennes.grid5000.fr;thermos-root-devel-WordCountTopology-2-3503a0ec-72cf-418f-98d8-acf24decbd25;["container_2_Emit_random_words_2"];3.25;1533124031.94755;145.51;782.66;8.059451222;10;149
42;paravance-47.rennes.grid5000.fr;thermos-root-devel-WordCountTopology-0-96d5b94a-5dd4-44ed-bf87-5fa722a51be4;["topology_master"];3.25;1533124031.99416;5.24;12.01;0.215085963;9;117
43;paravance-45.rennes.grid5000.fr;thermos-root-devel-WordCountTopology-2-3503a0ec-72cf-418f-98d8-acf24decbd25;["container_2_Emit_random_words_2"];3.25;1533124042.16313;148.17;796.39;8.059451222;10;149
43;paravance-47.rennes.grid5000.fr;thermos-root-devel-WordCountTopology-0-96d5b94a-5dd4-44ed-bf87-5fa722a51be4;["topology_master"];3.25;1533124042.20968;5.33;12.13;0.215085963;9;117
43;paravance-44.rennes.grid5000.fr;thermos-root-devel-WordCountTopology-1-b5474c29-043b-4278-9377-60d9dffd308c;["container_1_Consume_and_count_1"];3.25;1533124042.20103;253.31;1370.1;664.700760811;10;151
44;paravance-44.rennes.grid5000.fr;thermos-root-devel-WordCountTopology-1-b5474c29-043b-4278-9377-60d9dffd308c;["container_1_Consume_and_count_1"];3.25;1533124052.41921;257.94;1397.54;680.617511087;10;151
44;paravance-45.rennes.grid5000.fr;thermos-root-devel-WordCountTopology-2-3503a0ec-72cf-418f-98d8-acf24decbd25;["container_2_Emit_random_words_2"];3.25;1533124052.38202;150.74;808.89;8.059451222;10;149
44;paravance-47.rennes.grid5000.fr;thermos-root-devel-WordCountTopology-0-96d5b94a-5dd4-44ed-bf87-5fa722a51be4;["topology_master"];3.25;1533124052.42878;5.36;12.17;0.215085963;9;117
45;paravance-45.rennes.grid5000.fr;thermos-root-devel-WordCountTopology-2-3503a0ec-72cf-418f-98d8-acf24decbd25;["container_2_Emit_random_words_2"];3.25;1533124062.59761;152.99;819.98;8.059451222;10;149
45;paravance-44.rennes.grid5000.fr;thermos-root-devel-WordCountTopology-1-b5474c29-043b-4278-9377-60d9dffd308c;["container_1_Consume_and_count_1"];3.25;1533124062.63487;261.9;1424.17;693.595576706;10;151
45;paravance-47.rennes.grid5000.fr;thermos-root-devel-WordCountTopology-0-96d5b94a-5dd4-44ed-bf87-5fa722a51be4;["topology_master"];3.25;1533124062.64544;5.45;12.29;0.215085963;9;117
46;paravance-44.rennes.grid5000.fr;thermos-root-devel-WordCountTopology-1-b5474c29-043b-4278-9377-60d9dffd308c;["container_1_Consume_and_count_1"];3.25;1533124072.85109;264.97;1446.51;701.647490698;10;151
46;paravance-45.rennes.grid5000.fr;thermos-root-devel-WordCountTopology-2-3503a0ec-72cf-418f-98d8-acf24decbd25;["container_2_Emit_random_words_2"];3.25;1533124072.8147;154.94;830.02;8.059451222;10;149
46;paravance-47.rennes.grid5000.fr;thermos-root-devel-WordCountTopology-0-96d5b94a-5dd4-44ed-bf87-5fa722a51be4;["topology_master"];3.25;1533124072.86235;5.5;12.36;0.215085963;9;117
47;paravance-44.rennes.grid5000.fr;thermos-root-devel-WordCountTopology-1-b5474c29-043b-4278-9377-60d9dffd308c;["container_1_Consume_and_count_1"];3.25;1533124083.06899;269.43;1472.33;715.288478589;10;151
47;paravance-45.rennes.grid5000.fr;thermos-root-devel-WordCountTopology-2-3503a0ec-72cf-418f-98d8-acf24decbd25;["container_2_Emit_random_words_2"];3.25;1533124083.03271;157.7;844.11;8.059451222;10;149
47;paravance-47.rennes.grid5000.fr;thermos-root-devel-WordCountTopology-0-96d5b94a-5dd4-44ed-bf87-5fa722a51be4;["topology_master"];3.25;1533124083.07914;5.57;12.44;0.215085963;9;117
48;paravance-44.rennes.grid5000.fr;thermos-root-devel-WordCountTopology-1-b5474c29-043b-4278-9377-60d9dffd308c;["container_1_Consume_and_count_1"];3.25;1533124093.28738;274.23;1499.01;727.460085302;10;151
48;paravance-45.rennes.grid5000.fr;thermos-root-devel-WordCountTopology-2-3503a0ec-72cf-418f-98d8-acf24decbd25;["container_2_Emit_random_words_2"];3.25;1533124093.2492;160.35;858.48;8.059451222;10;149
48;paravance-47.rennes.grid5000.fr;thermos-root-devel-WordCountTopology-0-96d5b94a-5dd4-44ed-bf87-5fa722a51be4;["topology_master"];3.25;1533124093.29637;5.63;12.59;0.215085963;9;117
49;paravance-44.rennes.grid5000.fr;thermos-root-devel-WordCountTopology-1-b5474c29-043b-4278-9377-60d9dffd308c;["container_1_Consume_and_count_1"];3.25;1533124103.5046;279.91;1525.05;738.683274702;10;151
49;paravance-45.rennes.grid5000.fr;thermos-root-devel-WordCountTopology-2-3503a0ec-72cf-418f-98d8-acf24decbd25;["container_2_Emit_random_words_2"];3.25;1533124103.46696;163.43;874.87;8.059451222;10;149
49;paravance-47.rennes.grid5000.fr;thermos-root-devel-WordCountTopology-0-96d5b94a-5dd4-44ed-bf87-5fa722a51be4;["topology_master"];3.25;1533124103.51306;5.72;12.71;0.215085963;9;117
50;paravance-44.rennes.grid5000.fr;thermos-root-devel-WordCountTopology-1-b5474c29-043b-4278-9377-60d9dffd308c;["container_1_Consume_and_count_1"];3.25;1533124113.71926;284.5;1551.62;753.955306475;10;151
50;paravance-47.rennes.grid5000.fr;thermos-root-devel-WordCountTopology-0-96d5b94a-5dd4-44ed-bf87-5fa722a51be4;["topology_master"];3.25;1533124113.72919;5.75;12.75;0.215085963;9;117
50;paravance-45.rennes.grid5000.fr;thermos-root-devel-WordCountTopology-2-3503a0ec-72cf-418f-98d8-acf24decbd25;["container_2_Emit_random_words_2"];3.25;1533124113.68339;166.16;888.66;8.059451222;10;149
51;paravance-44.rennes.grid5000.fr;thermos-root-devel-WordCountTopology-1-b5474c29-043b-4278-9377-60d9dffd308c;["container_1_Consume_and_count_1"];3.25;1533124123.93906;289.03;1578.73;769.208250726;10;151
51;paravance-45.rennes.grid5000.fr;thermos-root-devel-WordCountTopology-2-3503a0ec-72cf-418f-98d8-acf24decbd25;["container_2_Emit_random_words_2"];3.25;1533124123.90201;168.87;902.08;8.059451222;10;149
51;paravance-47.rennes.grid5000.fr;thermos-root-devel-WordCountTopology-0-96d5b94a-5dd4-44ed-bf87-5fa722a51be4;["topology_master"];3.25;1533124123.94624;5.84;12.88;0.215085963;9;117
52;paravance-44.rennes.grid5000.fr;thermos-root-devel-WordCountTopology-1-b5474c29-043b-4278-9377-60d9dffd308c;["container_1_Consume_and_count_1"];3.25;1533124134.1551;292.4;1604.78;781.93994495;10;151
52;paravance-45.rennes.grid5000.fr;thermos-root-devel-WordCountTopology-2-3503a0ec-72cf-418f-98d8-acf24decbd25;["container_2_Emit_random_words_2"];3.25;1533124134.11814;170.97;913.48;8.059451222;10;149
52;paravance-47.rennes.grid5000.fr;thermos-root-devel-WordCountTopology-0-96d5b94a-5dd4-44ed-bf87-5fa722a51be4;["topology_master"];3.25;1533124134.16407;5.9;12.95;0.215085963;9;117
53;paravance-44.rennes.grid5000.fr;thermos-root-devel-WordCountTopology-1-b5474c29-043b-4278-9377-60d9dffd308c;["container_1_Consume_and_count_1"];3.25;1533124144.37268;297.05;1631.91;798.133000634;10;151
53;paravance-45.rennes.grid5000.fr;thermos-root-devel-WordCountTopology-2-3503a0ec-72cf-418f-98d8-acf24decbd25;["container_2_Emit_random_words_2"];3.25;1533124144.33529;173.61;927.04;8.059451222;10;149
53;paravance-47.rennes.grid5000.fr;thermos-root-devel-WordCountTopology-0-96d5b94a-5dd4-44ed-bf87-5fa722a51be4;["topology_master"];3.25;1533124144.38028;5.97;13.06;0.215085963;9;117
54;paravance-47.rennes.grid5000.fr;thermos-root-devel-WordCountTopology-0-96d5b94a-5dd4-44ed-bf87-5fa722a51be4;["topology_master"];3.25;1533124154.5984;6.03;13.13;0.215085963;9;117
54;paravance-44.rennes.grid5000.fr;thermos-root-devel-WordCountTopology-1-b5474c29-043b-4278-9377-60d9dffd308c;["container_1_Consume_and_count_1"];3.25;1533124154.59184;301.54;1659.1;813.542288968;10;151
54;paravance-45.rennes.grid5000.fr;thermos-root-devel-WordCountTopology-2-3503a0ec-72cf-418f-98d8-acf24decbd25;["container_2_Emit_random_words_2"];3.25;1533124154.55383;176.34;940.61;8.059451222;10;149
55;paravance-44.rennes.grid5000.fr;thermos-root-devel-WordCountTopology-1-b5474c29-043b-4278-9377-60d9dffd308c;["container_1_Consume_and_count_1"];3.25;1533124164.80779;305.75;1685.39;825.854748194;10;151
55;paravance-45.rennes.grid5000.fr;thermos-root-devel-WordCountTopology-2-3503a0ec-72cf-418f-98d8-acf24decbd25;["container_2_Emit_random_words_2"];3.25;1533124164.77061;178.75;953.16;8.059451222;10;149
55;paravance-47.rennes.grid5000.fr;thermos-root-devel-WordCountTopology-0-96d5b94a-5dd4-44ed-bf87-5fa722a51be4;["topology_master"];3.25;1533124164.81543;6.12;13.26;0.215085963;9;117
56;paravance-44.rennes.grid5000.fr;thermos-root-devel-WordCountTopology-1-b5474c29-043b-4278-9377-60d9dffd308c;["container_1_Consume_and_count_1"];3.25;1533124175.0243;310.27;1712.46;841.529056652;10;151
56;paravance-47.rennes.grid5000.fr;thermos-root-devel-WordCountTopology-0-96d5b94a-5dd4-44ed-bf87-5fa722a51be4;["topology_master"];3.25;1533124175.03365;6.15;13.28;0.215085963;9;117
56;paravance-45.rennes.grid5000.fr;thermos-root-devel-WordCountTopology-2-3503a0ec-72cf-418f-98d8-acf24decbd25;["container_2_Emit_random_words_2"];3.25;1533124174.98873;181.51;967.34;8.059451222;10;149
57;paravance-44.rennes.grid5000.fr;thermos-root-devel-WordCountTopology-1-b5474c29-043b-4278-9377-60d9dffd308c;["container_1_Consume_and_count_1"];3.25;1533124185.24398;315.1;1739.54;857.348881156;10;151
57;paravance-45.rennes.grid5000.fr;thermos-root-devel-WordCountTopology-2-3503a0ec-72cf-418f-98d8-acf24decbd25;["container_2_Emit_random_words_2"];3.25;1533124185.20731;184.15;980.53;8.059451222;10;149
57;paravance-47.rennes.grid5000.fr;thermos-root-devel-WordCountTopology-0-96d5b94a-5dd4-44ed-bf87-5fa722a51be4;["topology_master"];3.25;1533124185.25356;6.24;13.4;0.215085963;9;117
58;paravance-47.rennes.grid5000.fr;thermos-root-devel-WordCountTopology-0-96d5b94a-5dd4-44ed-bf87-5fa722a51be4;["topology_master"];3.25;1533124195.46763;6.29;13.48;0.215085963;9;117
58;paravance-45.rennes.grid5000.fr;thermos-root-devel-WordCountTopology-2-3503a0ec-72cf-418f-98d8-acf24decbd25;["container_2_Emit_random_words_2"];3.25;1533124195.42349;186.68;993.17;8.059451222;10;149
58;paravance-44.rennes.grid5000.fr;thermos-root-devel-WordCountTopology-1-b5474c29-043b-4278-9377-60d9dffd308c;["container_1_Consume_and_count_1"];3.25;1533124195.46094;319.25;1766.4;873.420652992;10;151
59;paravance-45.rennes.grid5000.fr;thermos-root-devel-WordCountTopology-2-3503a0ec-72cf-418f-98d8-acf24decbd25;["container_2_Emit_random_words_2"];3.25;1533124205.63949;189.48;1007.97;8.059451222;10;149
59;paravance-44.rennes.grid5000.fr;thermos-root-devel-WordCountTopology-1-b5474c29-043b-4278-9377-60d9dffd308c;["container_1_Consume_and_count_1"];3.25;1533124205.6772;323.96;1793.75;889.111565234;10;151
59;paravance-47.rennes.grid5000.fr;thermos-root-devel-WordCountTopology-0-96d5b94a-5dd4-44ed-bf87-5fa722a51be4;["topology_master"];3.25;1533124205.68469;6.37;13.59;0.215085963;9;117
60;paravance-44.rennes.grid5000.fr;thermos-root-devel-WordCountTopology-1-b5474c29-043b-4278-9377-60d9dffd308c;["container_1_Consume_and_count_1"];3.25;1533124215.89514;328.22;1821.08;904.468135703;10;151
60;paravance-47.rennes.grid5000.fr;thermos-root-devel-WordCountTopology-0-96d5b94a-5dd4-44ed-bf87-5fa722a51be4;["topology_master"];3.25;1533124215.90295;6.42;13.66;0.215085963;9;117
60;paravance-45.rennes.grid5000.fr;thermos-root-devel-WordCountTopology-2-3503a0ec-72cf-418f-98d8-acf24decbd25;["container_2_Emit_random_words_2"];3.25;1533124215.85766;191.96;1020.65;8.059451222;10;149
