{
  "status": "success",
  "executiontime": 0.0001819133758544922,
  "message": "",
  "result": {
    "bolts": {
      "Consume_and_count": [
        "container_1_Consume_and_count_1"
      ]
    },
    "instances": {
      "container_2_Emit_random_words_2": {
        "stmgrId": "stmgr-2",
        "logfile": "http://paravance-45.rennes.grid5000.fr:31878/file/log-files/container_2_Emit_random_words_2.log.0",
        "id": "container_2_Emit_random_words_2",
        "name": "Emit_random_words"
      },
      "container_1_Consume_and_count_1": {
        "stmgrId": "stmgr-1",
        "logfile": "http://paravance-55.rennes.grid5000.fr:31786/file/log-files/container_1_Consume_and_count_1.log.0",
        "id": "container_1_Consume_and_count_1",
        "name": "Consume_and_count"
      }
    },
    "instance_groups": {
      "container_1_Consume_and": [
        "container_1_Consume_and_count_1"
      ],
      "container_2_Emit_random": [
        "container_2_Emit_random_words_2"
      ]
    },
    "spouts": {
      "Emit_random_words": [
        "container_2_Emit_random_words_2"
      ]
    },
    "config": {
      "topology.message.timeout.secs": "30",
      "topology.team.environment": "devel",
      "topology.serializer.classname": "org.apache.heron.streamlet.impl.KryoSerializer",
      "topology.team.name": "root",
      "topology.debug": "false",
      "topology.max.spout.pending": "100",
      "topology.container.padding.percentage": "600",
      "topology.enable.message.timeouts": "true",
      "topology.component.parallelism": "1",
      "topology.name": "WordCountTopology",
      "topology.stmgrs": "2",
      "topology.reliability.mode": "ATMOST_ONCE"
    },
    "stmgrs": {
      "stmgr-1": {
        "cwd": "/var/lib/mesos/slaves/a349cce3-a92f-4031-a411-b9959b9ac413-S1/frameworks/75deb08a-eb1b-415c-8b2c-e922be5f7d98-0000/executors/thermos-root-devel-WordCountTopology-1-5169ec2a-5202-4e18-870c-e0d641aee0f1/runs/beff770e-583d-493f-91cd-c35f1a72e329/sandbox",
        "host": "paravance-55.rennes.grid5000.fr",
        "joburl": "http://paravance-55.rennes.grid5000.fr:31786/browse/",
        "shell_port": 31786,
        "logfiles": "http://paravance-55.rennes.grid5000.fr:31786/browse/log-files",
        "pid": 4574,
        "id": "stmgr-1",
        "instance_ids": [
          "container_1_Consume_and_count_1"
        ],
        "port": 31325
      },
      "stmgr-2": {
        "cwd": "/var/lib/mesos/slaves/a349cce3-a92f-4031-a411-b9959b9ac413-S2/frameworks/75deb08a-eb1b-415c-8b2c-e922be5f7d98-0000/executors/thermos-root-devel-WordCountTopology-2-d808d581-818f-4def-bbd8-c8dd2281ea82/runs/f9185d39-129b-4bfb-a7ea-dff9e6f5dca5/sandbox",
        "host": "paravance-45.rennes.grid5000.fr",
        "joburl": "http://paravance-45.rennes.grid5000.fr:31878/browse/",
        "shell_port": 31878,
        "logfiles": "http://paravance-45.rennes.grid5000.fr:31878/browse/log-files",
        "pid": 4500,
        "id": "stmgr-2",
        "instance_ids": [
          "container_2_Emit_random_words_2"
        ],
        "port": 31180
      }
    }
  },
  "tracker_version": "0.17.8-61-gd7c8c62"
}