mesure_id;slave_id;executor_id;heron_instances;cpus_limit;timestamp_B;cpus_system_time_secs_B;cpus_user_time_secs_B;cpus_throttled_time_secs_B;processes;threads
0;paravance-62.rennes.grid5000.fr;thermos-root-devel-WordCountTopology-2-f3a5c637-15da-4a36-bb90-f21cc687a42e;["container_2_Emit_random_words_2"];5.25;1533763333.1245;10.36;234.62;1.019996736;10;149
0;paravance-63.rennes.grid5000.fr;thermos-root-devel-WordCountTopology-0-3b1a9176-f75c-4ef8-8c95-6eceff488fc4;["topology_master"];5.25;1533763333.09957;2.6;8.34;0.0;9;117
0;paravance-64.rennes.grid5000.fr;thermos-root-devel-WordCountTopology-1-1a7ea391-9635-41d6-af6a-eb69581b2fde;["container_1_Consume_and_count_1"];5.25;1533763333.30569;12.16;178.46;0.369485984;10;149
1;paravance-63.rennes.grid5000.fr;thermos-root-devel-WordCountTopology-0-3b1a9176-f75c-4ef8-8c95-6eceff488fc4;["topology_master"];5.25;1533763343.30932;2.69;8.48;0.0;9;117
1;paravance-64.rennes.grid5000.fr;thermos-root-devel-WordCountTopology-1-1a7ea391-9635-41d6-af6a-eb69581b2fde;["container_1_Consume_and_count_1"];5.25;1533763343.51575;12.95;191.91;0.369485984;10;149
1;paravance-62.rennes.grid5000.fr;thermos-root-devel-WordCountTopology-2-f3a5c637-15da-4a36-bb90-f21cc687a42e;["container_2_Emit_random_words_2"];5.25;1533763343.33611;11.03;252.72;1.019996736;10;149
2;paravance-63.rennes.grid5000.fr;thermos-root-devel-WordCountTopology-0-3b1a9176-f75c-4ef8-8c95-6eceff488fc4;["topology_master"];5.25;1533763353.51817;2.72;8.51;0.0;9;117
2;paravance-64.rennes.grid5000.fr;thermos-root-devel-WordCountTopology-1-1a7ea391-9635-41d6-af6a-eb69581b2fde;["container_1_Consume_and_count_1"];5.25;1533763353.72473;13.71;205.24;0.369485984;10;149
2;paravance-62.rennes.grid5000.fr;thermos-root-devel-WordCountTopology-2-f3a5c637-15da-4a36-bb90-f21cc687a42e;["container_2_Emit_random_words_2"];5.25;1533763353.54566;11.66;270.87;1.019996736;10;149
3;paravance-63.rennes.grid5000.fr;thermos-root-devel-WordCountTopology-0-3b1a9176-f75c-4ef8-8c95-6eceff488fc4;["topology_master"];5.25;1533763363.7285;2.81;8.63;0.0;9;117
3;paravance-62.rennes.grid5000.fr;thermos-root-devel-WordCountTopology-2-f3a5c637-15da-4a36-bb90-f21cc687a42e;["container_2_Emit_random_words_2"];5.25;1533763363.7563;12.35;288.99;1.019996736;10;149
3;paravance-64.rennes.grid5000.fr;thermos-root-devel-WordCountTopology-1-1a7ea391-9635-41d6-af6a-eb69581b2fde;["container_1_Consume_and_count_1"];5.25;1533763363.93566;14.52;219.05;0.369485984;10;149
4;paravance-64.rennes.grid5000.fr;thermos-root-devel-WordCountTopology-1-1a7ea391-9635-41d6-af6a-eb69581b2fde;["container_1_Consume_and_count_1"];5.25;1533763374.14597;15.31;233.09;0.369485984;10;149
4;paravance-62.rennes.grid5000.fr;thermos-root-devel-WordCountTopology-2-f3a5c637-15da-4a36-bb90-f21cc687a42e;["container_2_Emit_random_words_2"];5.25;1533763373.96871;13.02;307.34;1.019996736;10;149
4;paravance-63.rennes.grid5000.fr;thermos-root-devel-WordCountTopology-0-3b1a9176-f75c-4ef8-8c95-6eceff488fc4;["topology_master"];5.25;1533763373.94207;2.87;8.71;0.0;9;117
5;paravance-64.rennes.grid5000.fr;thermos-root-devel-WordCountTopology-1-1a7ea391-9635-41d6-af6a-eb69581b2fde;["container_1_Consume_and_count_1"];5.25;1533763384.35774;16.1;246.6;0.369485984;10;149
5;paravance-63.rennes.grid5000.fr;thermos-root-devel-WordCountTopology-0-3b1a9176-f75c-4ef8-8c95-6eceff488fc4;["topology_master"];5.25;1533763384.15253;2.95;8.8;0.0;9;117
5;paravance-62.rennes.grid5000.fr;thermos-root-devel-WordCountTopology-2-f3a5c637-15da-4a36-bb90-f21cc687a42e;["container_2_Emit_random_words_2"];5.25;1533763384.18073;13.67;325.32;1.019996736;10;149
6;paravance-64.rennes.grid5000.fr;thermos-root-devel-WordCountTopology-1-1a7ea391-9635-41d6-af6a-eb69581b2fde;["container_1_Consume_and_count_1"];5.25;1533763394.46939;16.88;259.81;0.369485984;10;149
6;paravance-62.rennes.grid5000.fr;thermos-root-devel-WordCountTopology-2-f3a5c637-15da-4a36-bb90-f21cc687a42e;["container_2_Emit_random_words_2"];5.25;1533763394.38998;14.35;343.83;1.019996736;10;149
6;paravance-63.rennes.grid5000.fr;thermos-root-devel-WordCountTopology-0-3b1a9176-f75c-4ef8-8c95-6eceff488fc4;["topology_master"];5.25;1533763394.36331;3.01;8.97;0.0;9;117
7;paravance-63.rennes.grid5000.fr;thermos-root-devel-WordCountTopology-0-3b1a9176-f75c-4ef8-8c95-6eceff488fc4;["topology_master"];5.25;1533763404.57294;3.1;9.1;0.0;9;117
7;paravance-62.rennes.grid5000.fr;thermos-root-devel-WordCountTopology-2-f3a5c637-15da-4a36-bb90-f21cc687a42e;["container_2_Emit_random_words_2"];5.25;1533763404.60083;15.04;362.08;1.019996736;10;149
7;paravance-64.rennes.grid5000.fr;thermos-root-devel-WordCountTopology-1-1a7ea391-9635-41d6-af6a-eb69581b2fde;["container_1_Consume_and_count_1"];5.25;1533763404.77951;17.69;272.97;0.369485984;10;149
8;paravance-64.rennes.grid5000.fr;thermos-root-devel-WordCountTopology-1-1a7ea391-9635-41d6-af6a-eb69581b2fde;["container_1_Consume_and_count_1"];5.25;1533763414.99001;18.42;286.59;0.369485984;10;149
8;paravance-62.rennes.grid5000.fr;thermos-root-devel-WordCountTopology-2-f3a5c637-15da-4a36-bb90-f21cc687a42e;["container_2_Emit_random_words_2"];5.25;1533763414.81187;15.68;380.08;1.019996736;10;149
8;paravance-63.rennes.grid5000.fr;thermos-root-devel-WordCountTopology-0-3b1a9176-f75c-4ef8-8c95-6eceff488fc4;["topology_master"];5.25;1533763414.78586;3.13;9.13;0.0;9;117
9;paravance-62.rennes.grid5000.fr;thermos-root-devel-WordCountTopology-2-f3a5c637-15da-4a36-bb90-f21cc687a42e;["container_2_Emit_random_words_2"];5.25;1533763425.02179;16.36;398.24;1.019996736;10;149
9;paravance-64.rennes.grid5000.fr;thermos-root-devel-WordCountTopology-1-1a7ea391-9635-41d6-af6a-eb69581b2fde;["container_1_Consume_and_count_1"];5.25;1533763425.20102;19.22;300.26;0.369485984;10;149
9;paravance-63.rennes.grid5000.fr;thermos-root-devel-WordCountTopology-0-3b1a9176-f75c-4ef8-8c95-6eceff488fc4;["topology_master"];5.25;1533763424.99542;3.22;9.24;0.0;9;117
10;paravance-64.rennes.grid5000.fr;thermos-root-devel-WordCountTopology-1-1a7ea391-9635-41d6-af6a-eb69581b2fde;["container_1_Consume_and_count_1"];5.25;1533763435.40982;19.99;313.56;0.369485984;10;149
10;paravance-62.rennes.grid5000.fr;thermos-root-devel-WordCountTopology-2-f3a5c637-15da-4a36-bb90-f21cc687a42e;["container_2_Emit_random_words_2"];5.25;1533763435.23194;17.01;416.53;1.019996736;10;149
10;paravance-63.rennes.grid5000.fr;thermos-root-devel-WordCountTopology-0-3b1a9176-f75c-4ef8-8c95-6eceff488fc4;["topology_master"];5.25;1533763435.20474;3.28;9.32;0.0;9;117
11;paravance-64.rennes.grid5000.fr;thermos-root-devel-WordCountTopology-1-1a7ea391-9635-41d6-af6a-eb69581b2fde;["container_1_Consume_and_count_1"];5.25;1533763445.61907;20.82;328.01;0.369485984;10;149
11;paravance-63.rennes.grid5000.fr;thermos-root-devel-WordCountTopology-0-3b1a9176-f75c-4ef8-8c95-6eceff488fc4;["topology_master"];5.25;1533763445.41462;3.36;9.42;0.0;9;117
11;paravance-62.rennes.grid5000.fr;thermos-root-devel-WordCountTopology-2-f3a5c637-15da-4a36-bb90-f21cc687a42e;["container_2_Emit_random_words_2"];5.25;1533763445.44138;17.69;434.72;1.019996736;10;149
12;paravance-64.rennes.grid5000.fr;thermos-root-devel-WordCountTopology-1-1a7ea391-9635-41d6-af6a-eb69581b2fde;["container_1_Consume_and_count_1"];5.25;1533763455.83043;21.6;342.04;0.369485984;10;149
12;paravance-62.rennes.grid5000.fr;thermos-root-devel-WordCountTopology-2-f3a5c637-15da-4a36-bb90-f21cc687a42e;["container_2_Emit_random_words_2"];5.25;1533763455.65121;18.31;453.01;1.019996736;10;149
12;paravance-63.rennes.grid5000.fr;thermos-root-devel-WordCountTopology-0-3b1a9176-f75c-4ef8-8c95-6eceff488fc4;["topology_master"];5.25;1533763455.62744;3.43;9.63;0.0;9;117
13;paravance-64.rennes.grid5000.fr;thermos-root-devel-WordCountTopology-1-1a7ea391-9635-41d6-af6a-eb69581b2fde;["container_1_Consume_and_count_1"];5.25;1533763465.9406;22.39;355.56;0.369485984;10;149
13;paravance-62.rennes.grid5000.fr;thermos-root-devel-WordCountTopology-2-f3a5c637-15da-4a36-bb90-f21cc687a42e;["container_2_Emit_random_words_2"];5.25;1533763465.86157;18.98;471.42;1.019996736;10;149
13;paravance-63.rennes.grid5000.fr;thermos-root-devel-WordCountTopology-0-3b1a9176-f75c-4ef8-8c95-6eceff488fc4;["topology_master"];5.25;1533763465.84265;3.52;9.75;0.0;9;117
14;paravance-63.rennes.grid5000.fr;thermos-root-devel-WordCountTopology-0-3b1a9176-f75c-4ef8-8c95-6eceff488fc4;["topology_master"];5.25;1533763475.95869;3.58;9.83;0.0;9;117
14;paravance-64.rennes.grid5000.fr;thermos-root-devel-WordCountTopology-1-1a7ea391-9635-41d6-af6a-eb69581b2fde;["container_1_Consume_and_count_1"];5.25;1533763476.25057;23.17;369.53;0.369485984;10;149
14;paravance-62.rennes.grid5000.fr;thermos-root-devel-WordCountTopology-2-f3a5c637-15da-4a36-bb90-f21cc687a42e;["container_2_Emit_random_words_2"];5.25;1533763476.07133;19.63;489.71;1.019996736;10;149
15;paravance-64.rennes.grid5000.fr;thermos-root-devel-WordCountTopology-1-1a7ea391-9635-41d6-af6a-eb69581b2fde;["container_1_Consume_and_count_1"];5.25;1533763486.45998;23.94;382.55;0.369485984;10;149
15;paravance-63.rennes.grid5000.fr;thermos-root-devel-WordCountTopology-0-3b1a9176-f75c-4ef8-8c95-6eceff488fc4;["topology_master"];5.25;1533763486.27279;3.64;9.91;0.0;9;117
15;paravance-62.rennes.grid5000.fr;thermos-root-devel-WordCountTopology-2-f3a5c637-15da-4a36-bb90-f21cc687a42e;["container_2_Emit_random_words_2"];5.25;1533763486.28346;20.31;507.99;1.019996736;10;149
16;paravance-64.rennes.grid5000.fr;thermos-root-devel-WordCountTopology-1-1a7ea391-9635-41d6-af6a-eb69581b2fde;["container_1_Consume_and_count_1"];5.25;1533763496.67273;24.69;396.04;0.369485984;10;149
16;paravance-62.rennes.grid5000.fr;thermos-root-devel-WordCountTopology-2-f3a5c637-15da-4a36-bb90-f21cc687a42e;["container_2_Emit_random_words_2"];5.25;1533763496.49363;20.96;526.09;1.019996736;10;149
16;paravance-63.rennes.grid5000.fr;thermos-root-devel-WordCountTopology-0-3b1a9176-f75c-4ef8-8c95-6eceff488fc4;["topology_master"];5.25;1533763496.48962;3.69;9.98;0.0;9;117
17;paravance-64.rennes.grid5000.fr;thermos-root-devel-WordCountTopology-1-1a7ea391-9635-41d6-af6a-eb69581b2fde;["container_1_Consume_and_count_1"];5.25;1533763506.88317;25.53;410.26;0.369485984;10;149
17;paravance-62.rennes.grid5000.fr;thermos-root-devel-WordCountTopology-2-f3a5c637-15da-4a36-bb90-f21cc687a42e;["container_2_Emit_random_words_2"];5.25;1533763506.70581;21.65;544.28;1.019996736;10;149
17;paravance-63.rennes.grid5000.fr;thermos-root-devel-WordCountTopology-0-3b1a9176-f75c-4ef8-8c95-6eceff488fc4;["topology_master"];5.25;1533763506.70525;3.81;10.18;0.0;9;117
18;paravance-64.rennes.grid5000.fr;thermos-root-devel-WordCountTopology-1-1a7ea391-9635-41d6-af6a-eb69581b2fde;["container_1_Consume_and_count_1"];5.25;1533763517.09312;26.29;424.22;0.369485984;10;149
18;paravance-63.rennes.grid5000.fr;thermos-root-devel-WordCountTopology-0-3b1a9176-f75c-4ef8-8c95-6eceff488fc4;["topology_master"];5.25;1533763516.92035;3.84;10.21;0.0;9;117
18;paravance-62.rennes.grid5000.fr;thermos-root-devel-WordCountTopology-2-f3a5c637-15da-4a36-bb90-f21cc687a42e;["container_2_Emit_random_words_2"];5.25;1533763516.92192;22.32;562.59;1.019996736;10;149
19;paravance-62.rennes.grid5000.fr;thermos-root-devel-WordCountTopology-2-f3a5c637-15da-4a36-bb90-f21cc687a42e;["container_2_Emit_random_words_2"];5.25;1533763527.03875;22.99;580.66;1.019996736;10;149
19;paravance-63.rennes.grid5000.fr;thermos-root-devel-WordCountTopology-0-3b1a9176-f75c-4ef8-8c95-6eceff488fc4;["topology_master"];5.25;1533763527.03849;3.93;10.34;0.0;9;117
19;paravance-64.rennes.grid5000.fr;thermos-root-devel-WordCountTopology-1-1a7ea391-9635-41d6-af6a-eb69581b2fde;["container_1_Consume_and_count_1"];5.25;1533763527.30742;27.08;437.33;0.369485984;10;149
20;paravance-63.rennes.grid5000.fr;thermos-root-devel-WordCountTopology-0-3b1a9176-f75c-4ef8-8c95-6eceff488fc4;["topology_master"];5.25;1533763537.3626;3.99;10.41;0.0;9;117
20;paravance-64.rennes.grid5000.fr;thermos-root-devel-WordCountTopology-1-1a7ea391-9635-41d6-af6a-eb69581b2fde;["container_1_Consume_and_count_1"];5.25;1533763537.52705;27.86;451.11;0.369485984;10;149
20;paravance-62.rennes.grid5000.fr;thermos-root-devel-WordCountTopology-2-f3a5c637-15da-4a36-bb90-f21cc687a42e;["container_2_Emit_random_words_2"];5.25;1533763537.36281;23.65;598.94;1.019996736;10;149
21;paravance-64.rennes.grid5000.fr;thermos-root-devel-WordCountTopology-1-1a7ea391-9635-41d6-af6a-eb69581b2fde;["container_1_Consume_and_count_1"];5.25;1533763547.73617;28.61;464.01;0.369485984;10;149
21;paravance-62.rennes.grid5000.fr;thermos-root-devel-WordCountTopology-2-f3a5c637-15da-4a36-bb90-f21cc687a42e;["container_2_Emit_random_words_2"];5.25;1533763547.57901;24.29;616.96;1.019996736;10;149
21;paravance-63.rennes.grid5000.fr;thermos-root-devel-WordCountTopology-0-3b1a9176-f75c-4ef8-8c95-6eceff488fc4;["topology_master"];5.25;1533763547.57892;4.04;10.48;0.0;9;117
22;paravance-63.rennes.grid5000.fr;thermos-root-devel-WordCountTopology-0-3b1a9176-f75c-4ef8-8c95-6eceff488fc4;["topology_master"];5.25;1533763557.69295;4.09;10.55;0.0;9;117
22;paravance-62.rennes.grid5000.fr;thermos-root-devel-WordCountTopology-2-f3a5c637-15da-4a36-bb90-f21cc687a42e;["container_2_Emit_random_words_2"];5.25;1533763557.7923;25.03;634.96;1.019996736;10;149
22;paravance-64.rennes.grid5000.fr;thermos-root-devel-WordCountTopology-1-1a7ea391-9635-41d6-af6a-eb69581b2fde;["container_1_Consume_and_count_1"];5.25;1533763557.94572;29.36;477.28;0.369485984;10;149
23;paravance-62.rennes.grid5000.fr;thermos-root-devel-WordCountTopology-2-f3a5c637-15da-4a36-bb90-f21cc687a42e;["container_2_Emit_random_words_2"];5.25;1533763568.00726;25.76;653.24;1.019996736;10;149
23;paravance-64.rennes.grid5000.fr;thermos-root-devel-WordCountTopology-1-1a7ea391-9635-41d6-af6a-eb69581b2fde;["container_1_Consume_and_count_1"];5.25;1533763568.15491;30.2;490.8;0.369485984;10;149
23;paravance-63.rennes.grid5000.fr;thermos-root-devel-WordCountTopology-0-3b1a9176-f75c-4ef8-8c95-6eceff488fc4;["topology_master"];5.25;1533763568.00988;4.2;10.74;0.0;9;117
24;paravance-62.rennes.grid5000.fr;thermos-root-devel-WordCountTopology-2-f3a5c637-15da-4a36-bb90-f21cc687a42e;["container_2_Emit_random_words_2"];5.25;1533763578.22344;26.41;671.18;1.019996736;10;149
24;paravance-64.rennes.grid5000.fr;thermos-root-devel-WordCountTopology-1-1a7ea391-9635-41d6-af6a-eb69581b2fde;["container_1_Consume_and_count_1"];5.25;1533763578.36647;30.94;504.0;0.369485984;10;149
24;paravance-63.rennes.grid5000.fr;thermos-root-devel-WordCountTopology-0-3b1a9176-f75c-4ef8-8c95-6eceff488fc4;["topology_master"];5.25;1533763578.22434;4.23;10.76;0.0;9;117
25;paravance-62.rennes.grid5000.fr;thermos-root-devel-WordCountTopology-2-f3a5c637-15da-4a36-bb90-f21cc687a42e;["container_2_Emit_random_words_2"];5.25;1533763588.44003;27.09;689.37;1.019996736;10;149
25;paravance-64.rennes.grid5000.fr;thermos-root-devel-WordCountTopology-1-1a7ea391-9635-41d6-af6a-eb69581b2fde;["container_1_Consume_and_count_1"];5.25;1533763588.57739;31.74;517.82;0.369485984;10;149
25;paravance-63.rennes.grid5000.fr;thermos-root-devel-WordCountTopology-0-3b1a9176-f75c-4ef8-8c95-6eceff488fc4;["topology_master"];5.25;1533763588.44067;4.32;10.88;0.0;9;117
26;paravance-62.rennes.grid5000.fr;thermos-root-devel-WordCountTopology-2-f3a5c637-15da-4a36-bb90-f21cc687a42e;["container_2_Emit_random_words_2"];5.25;1533763598.65762;27.73;707.51;1.019996736;10;149
26;paravance-64.rennes.grid5000.fr;thermos-root-devel-WordCountTopology-1-1a7ea391-9635-41d6-af6a-eb69581b2fde;["container_1_Consume_and_count_1"];5.25;1533763598.79023;32.5;530.82;0.369485984;10;149
26;paravance-63.rennes.grid5000.fr;thermos-root-devel-WordCountTopology-0-3b1a9176-f75c-4ef8-8c95-6eceff488fc4;["topology_master"];5.25;1533763598.65818;4.37;10.95;0.0;9;117
27;paravance-62.rennes.grid5000.fr;thermos-root-devel-WordCountTopology-2-f3a5c637-15da-4a36-bb90-f21cc687a42e;["container_2_Emit_random_words_2"];5.25;1533763608.87366;28.39;725.65;1.019996736;10;149
27;paravance-64.rennes.grid5000.fr;thermos-root-devel-WordCountTopology-1-1a7ea391-9635-41d6-af6a-eb69581b2fde;["container_1_Consume_and_count_1"];5.25;1533763609.00176;33.27;544.67;0.369485984;10;149
27;paravance-63.rennes.grid5000.fr;thermos-root-devel-WordCountTopology-0-3b1a9176-f75c-4ef8-8c95-6eceff488fc4;["topology_master"];5.25;1533763608.87468;4.43;11.02;0.0;9;117
28;paravance-62.rennes.grid5000.fr;thermos-root-devel-WordCountTopology-2-f3a5c637-15da-4a36-bb90-f21cc687a42e;["container_2_Emit_random_words_2"];5.25;1533763618.98999;29.04;743.58;1.019996736;10;149
28;paravance-64.rennes.grid5000.fr;thermos-root-devel-WordCountTopology-1-1a7ea391-9635-41d6-af6a-eb69581b2fde;["container_1_Consume_and_count_1"];5.25;1533763619.21142;34.03;558.1;0.369485984;10;149
28;paravance-63.rennes.grid5000.fr;thermos-root-devel-WordCountTopology-0-3b1a9176-f75c-4ef8-8c95-6eceff488fc4;["topology_master"];5.25;1533763619.09058;4.48;11.09;0.0;9;117
29;paravance-63.rennes.grid5000.fr;thermos-root-devel-WordCountTopology-0-3b1a9176-f75c-4ef8-8c95-6eceff488fc4;["topology_master"];5.25;1533763629.20624;4.59;11.28;0.0;9;117
29;paravance-62.rennes.grid5000.fr;thermos-root-devel-WordCountTopology-2-f3a5c637-15da-4a36-bb90-f21cc687a42e;["container_2_Emit_random_words_2"];5.25;1533763629.30549;29.76;761.95;1.019996736;10;149
29;paravance-64.rennes.grid5000.fr;thermos-root-devel-WordCountTopology-1-1a7ea391-9635-41d6-af6a-eb69581b2fde;["container_1_Consume_and_count_1"];5.25;1533763629.42211;34.85;571.85;0.369485984;10;149
30;paravance-63.rennes.grid5000.fr;thermos-root-devel-WordCountTopology-0-3b1a9176-f75c-4ef8-8c95-6eceff488fc4;["topology_master"];5.25;1533763639.41949;4.62;11.3;0.0;9;117
30;paravance-64.rennes.grid5000.fr;thermos-root-devel-WordCountTopology-1-1a7ea391-9635-41d6-af6a-eb69581b2fde;["container_1_Consume_and_count_1"];5.25;1533763639.63118;35.6;585.19;0.369485984;10;149
30;paravance-62.rennes.grid5000.fr;thermos-root-devel-WordCountTopology-2-f3a5c637-15da-4a36-bb90-f21cc687a42e;["container_2_Emit_random_words_2"];5.25;1533763639.52048;30.41;780.05;1.019996736;10;147
31;paravance-62.rennes.grid5000.fr;thermos-root-devel-WordCountTopology-2-f3a5c637-15da-4a36-bb90-f21cc687a42e;["container_2_Emit_random_words_2"];5.25;1533763649.73462;31.06;798.18;1.019996736;10;149
31;paravance-64.rennes.grid5000.fr;thermos-root-devel-WordCountTopology-1-1a7ea391-9635-41d6-af6a-eb69581b2fde;["container_1_Consume_and_count_1"];5.25;1533763649.84117;36.39;598.44;0.369485984;10;149
31;paravance-63.rennes.grid5000.fr;thermos-root-devel-WordCountTopology-0-3b1a9176-f75c-4ef8-8c95-6eceff488fc4;["topology_master"];5.25;1533763649.73405;4.71;11.43;0.0;9;117
32;paravance-64.rennes.grid5000.fr;thermos-root-devel-WordCountTopology-1-1a7ea391-9635-41d6-af6a-eb69581b2fde;["container_1_Consume_and_count_1"];5.25;1533763660.05172;37.2;612.29;0.369485984;10;149
32;paravance-62.rennes.grid5000.fr;thermos-root-devel-WordCountTopology-2-f3a5c637-15da-4a36-bb90-f21cc687a42e;["container_2_Emit_random_words_2"];5.25;1533763659.94952;31.74;816.43;1.019996736;10;149
32;paravance-63.rennes.grid5000.fr;thermos-root-devel-WordCountTopology-0-3b1a9176-f75c-4ef8-8c95-6eceff488fc4;["topology_master"];5.25;1533763659.94989;4.8;11.55;0.0;9;117
33;paravance-62.rennes.grid5000.fr;thermos-root-devel-WordCountTopology-2-f3a5c637-15da-4a36-bb90-f21cc687a42e;["container_2_Emit_random_words_2"];5.25;1533763670.16503;32.36;834.45;1.019996736;10;149
33;paravance-63.rennes.grid5000.fr;thermos-root-devel-WordCountTopology-0-3b1a9176-f75c-4ef8-8c95-6eceff488fc4;["topology_master"];5.25;1533763670.16514;4.82;11.57;0.0;9;117
33;paravance-64.rennes.grid5000.fr;thermos-root-devel-WordCountTopology-1-1a7ea391-9635-41d6-af6a-eb69581b2fde;["container_1_Consume_and_count_1"];5.25;1533763670.26318;37.92;625.22;0.369485984;10;149
34;paravance-64.rennes.grid5000.fr;thermos-root-devel-WordCountTopology-1-1a7ea391-9635-41d6-af6a-eb69581b2fde;["container_1_Consume_and_count_1"];5.25;1533763680.4727;38.72;639.25;0.369485984;10;149
34;paravance-62.rennes.grid5000.fr;thermos-root-devel-WordCountTopology-2-f3a5c637-15da-4a36-bb90-f21cc687a42e;["container_2_Emit_random_words_2"];5.25;1533763680.38203;33.05;852.65;1.019996736;10;149
34;paravance-63.rennes.grid5000.fr;thermos-root-devel-WordCountTopology-0-3b1a9176-f75c-4ef8-8c95-6eceff488fc4;["topology_master"];5.25;1533763680.38258;4.92;11.71;0.0;9;117
35;paravance-64.rennes.grid5000.fr;thermos-root-devel-WordCountTopology-1-1a7ea391-9635-41d6-af6a-eb69581b2fde;["container_1_Consume_and_count_1"];5.25;1533763690.68331;39.49;652.54;0.369485984;10;149
35;paravance-62.rennes.grid5000.fr;thermos-root-devel-WordCountTopology-2-f3a5c637-15da-4a36-bb90-f21cc687a42e;["container_2_Emit_random_words_2"];5.25;1533763690.59785;33.71;870.91;1.019996736;10;149
35;paravance-63.rennes.grid5000.fr;thermos-root-devel-WordCountTopology-0-3b1a9176-f75c-4ef8-8c95-6eceff488fc4;["topology_master"];5.25;1533763690.59815;4.98;11.88;0.0;9;117
36;paravance-62.rennes.grid5000.fr;thermos-root-devel-WordCountTopology-2-f3a5c637-15da-4a36-bb90-f21cc687a42e;["container_2_Emit_random_words_2"];5.25;1533763700.8129;34.36;888.97;1.019996736;10;149
36;paravance-64.rennes.grid5000.fr;thermos-root-devel-WordCountTopology-1-1a7ea391-9635-41d6-af6a-eb69581b2fde;["container_1_Consume_and_count_1"];5.25;1533763700.89482;40.27;665.92;0.369485984;10;149
36;paravance-63.rennes.grid5000.fr;thermos-root-devel-WordCountTopology-0-3b1a9176-f75c-4ef8-8c95-6eceff488fc4;["topology_master"];5.25;1533763700.81325;5.04;11.95;0.0;9;117
37;paravance-64.rennes.grid5000.fr;thermos-root-devel-WordCountTopology-1-1a7ea391-9635-41d6-af6a-eb69581b2fde;["container_1_Consume_and_count_1"];5.25;1533763711.10457;41.03;679.37;0.369485984;10;149
37;paravance-62.rennes.grid5000.fr;thermos-root-devel-WordCountTopology-2-f3a5c637-15da-4a36-bb90-f21cc687a42e;["container_2_Emit_random_words_2"];5.25;1533763711.02916;34.98;907.05;1.019996736;10;149
37;paravance-63.rennes.grid5000.fr;thermos-root-devel-WordCountTopology-0-3b1a9176-f75c-4ef8-8c95-6eceff488fc4;["topology_master"];5.25;1533763711.0293;5.09;12.02;0.0;9;117
38;paravance-64.rennes.grid5000.fr;thermos-root-devel-WordCountTopology-1-1a7ea391-9635-41d6-af6a-eb69581b2fde;["container_1_Consume_and_count_1"];5.25;1533763721.2155;41.81;692.17;0.369485984;10;149
38;paravance-62.rennes.grid5000.fr;thermos-root-devel-WordCountTopology-2-f3a5c637-15da-4a36-bb90-f21cc687a42e;["container_2_Emit_random_words_2"];5.25;1533763721.24511;35.65;925.05;1.019996736;10;149
38;paravance-63.rennes.grid5000.fr;thermos-root-devel-WordCountTopology-0-3b1a9176-f75c-4ef8-8c95-6eceff488fc4;["topology_master"];5.25;1533763721.2455;5.17;12.13;0.0;9;117
39;paravance-62.rennes.grid5000.fr;thermos-root-devel-WordCountTopology-2-f3a5c637-15da-4a36-bb90-f21cc687a42e;["container_2_Emit_random_words_2"];5.25;1533763731.4609;36.28;942.87;1.019996736;10;149
39;paravance-63.rennes.grid5000.fr;thermos-root-devel-WordCountTopology-0-3b1a9176-f75c-4ef8-8c95-6eceff488fc4;["topology_master"];5.25;1533763731.46014;5.2;12.16;0.0;9;117
39;paravance-64.rennes.grid5000.fr;thermos-root-devel-WordCountTopology-1-1a7ea391-9635-41d6-af6a-eb69581b2fde;["container_1_Consume_and_count_1"];5.25;1533763731.52789;42.57;706.03;0.369485984;10;149
40;paravance-62.rennes.grid5000.fr;thermos-root-devel-WordCountTopology-2-f3a5c637-15da-4a36-bb90-f21cc687a42e;["container_2_Emit_random_words_2"];5.25;1533763741.68517;36.98;960.92;1.019996736;10;149
40;paravance-64.rennes.grid5000.fr;thermos-root-devel-WordCountTopology-1-1a7ea391-9635-41d6-af6a-eb69581b2fde;["container_1_Consume_and_count_1"];5.25;1533763741.75174;43.34;719.04;0.369485984;10;149
40;paravance-63.rennes.grid5000.fr;thermos-root-devel-WordCountTopology-0-3b1a9176-f75c-4ef8-8c95-6eceff488fc4;["topology_master"];5.25;1533763741.69189;5.3;12.29;0.0;9;117
41;paravance-64.rennes.grid5000.fr;thermos-root-devel-WordCountTopology-1-1a7ea391-9635-41d6-af6a-eb69581b2fde;["container_1_Consume_and_count_1"];5.25;1533763751.96388;44.13;733.4;0.369485984;10;149
41;paravance-62.rennes.grid5000.fr;thermos-root-devel-WordCountTopology-2-f3a5c637-15da-4a36-bb90-f21cc687a42e;["container_2_Emit_random_words_2"];5.25;1533763751.90799;37.64;979.15;1.019996736;10;149
41;paravance-63.rennes.grid5000.fr;thermos-root-devel-WordCountTopology-0-3b1a9176-f75c-4ef8-8c95-6eceff488fc4;["topology_master"];5.25;1533763751.90851;5.36;12.41;0.0;9;117
42;paravance-64.rennes.grid5000.fr;thermos-root-devel-WordCountTopology-1-1a7ea391-9635-41d6-af6a-eb69581b2fde;["container_1_Consume_and_count_1"];5.25;1533763762.17424;44.9;747.67;0.369485984;10;149
42;paravance-62.rennes.grid5000.fr;thermos-root-devel-WordCountTopology-2-f3a5c637-15da-4a36-bb90-f21cc687a42e;["container_2_Emit_random_words_2"];5.25;1533763762.12366;38.29;997.16;1.019996736;10;149
42;paravance-63.rennes.grid5000.fr;thermos-root-devel-WordCountTopology-0-3b1a9176-f75c-4ef8-8c95-6eceff488fc4;["topology_master"];5.25;1533763762.12438;5.42;12.48;0.0;9;117
43;paravance-63.rennes.grid5000.fr;thermos-root-devel-WordCountTopology-0-3b1a9176-f75c-4ef8-8c95-6eceff488fc4;["topology_master"];5.25;1533763772.3382;5.47;12.55;0.0;9;117
43;paravance-64.rennes.grid5000.fr;thermos-root-devel-WordCountTopology-1-1a7ea391-9635-41d6-af6a-eb69581b2fde;["container_1_Consume_and_count_1"];5.25;1533763772.3846;45.67;761.18;0.369485984;10;149
43;paravance-62.rennes.grid5000.fr;thermos-root-devel-WordCountTopology-2-f3a5c637-15da-4a36-bb90-f21cc687a42e;["container_2_Emit_random_words_2"];5.25;1533763772.3392;38.95;1015.34;1.019996736;10;149
44;paravance-64.rennes.grid5000.fr;thermos-root-devel-WordCountTopology-1-1a7ea391-9635-41d6-af6a-eb69581b2fde;["container_1_Consume_and_count_1"];5.25;1533763782.59564;46.47;774.73;0.369485984;10;149
44;paravance-62.rennes.grid5000.fr;thermos-root-devel-WordCountTopology-2-f3a5c637-15da-4a36-bb90-f21cc687a42e;["container_2_Emit_random_words_2"];5.25;1533763782.55536;39.62;1033.53;1.019996736;10;149
44;paravance-63.rennes.grid5000.fr;thermos-root-devel-WordCountTopology-0-3b1a9176-f75c-4ef8-8c95-6eceff488fc4;["topology_master"];5.25;1533763782.55499;5.56;12.67;0.0;9;117
45;paravance-62.rennes.grid5000.fr;thermos-root-devel-WordCountTopology-2-f3a5c637-15da-4a36-bb90-f21cc687a42e;["container_2_Emit_random_words_2"];5.25;1533763792.77198;40.24;1051.67;1.019996736;10;149
45;paravance-64.rennes.grid5000.fr;thermos-root-devel-WordCountTopology-1-1a7ea391-9635-41d6-af6a-eb69581b2fde;["container_1_Consume_and_count_1"];5.25;1533763792.80739;47.21;788.01;0.369485984;10;149
45;paravance-63.rennes.grid5000.fr;thermos-root-devel-WordCountTopology-0-3b1a9176-f75c-4ef8-8c95-6eceff488fc4;["topology_master"];5.25;1533763792.77165;5.61;12.74;0.0;9;117
46;paravance-64.rennes.grid5000.fr;thermos-root-devel-WordCountTopology-1-1a7ea391-9635-41d6-af6a-eb69581b2fde;["container_1_Consume_and_count_1"];5.25;1533763803.01889;48.0;801.6;0.369485984;10;149
46;paravance-62.rennes.grid5000.fr;thermos-root-devel-WordCountTopology-2-f3a5c637-15da-4a36-bb90-f21cc687a42e;["container_2_Emit_random_words_2"];5.25;1533763802.98846;40.9;1069.59;1.019996736;10;149
46;paravance-63.rennes.grid5000.fr;thermos-root-devel-WordCountTopology-0-3b1a9176-f75c-4ef8-8c95-6eceff488fc4;["topology_master"];5.25;1533763802.9883;5.67;12.82;0.0;9;117
47;paravance-62.rennes.grid5000.fr;thermos-root-devel-WordCountTopology-2-f3a5c637-15da-4a36-bb90-f21cc687a42e;["container_2_Emit_random_words_2"];5.25;1533763813.20537;41.57;1087.89;1.019996736;10;149
47;paravance-63.rennes.grid5000.fr;thermos-root-devel-WordCountTopology-0-3b1a9176-f75c-4ef8-8c95-6eceff488fc4;["topology_master"];5.25;1533763813.20444;5.74;12.96;0.0;9;117
47;paravance-64.rennes.grid5000.fr;thermos-root-devel-WordCountTopology-1-1a7ea391-9635-41d6-af6a-eb69581b2fde;["container_1_Consume_and_count_1"];5.25;1533763813.23116;48.77;814.91;0.369485984;10;149
48;paravance-64.rennes.grid5000.fr;thermos-root-devel-WordCountTopology-1-1a7ea391-9635-41d6-af6a-eb69581b2fde;["container_1_Consume_and_count_1"];5.25;1533763823.44274;49.58;828.87;0.369485984;10;149
48;paravance-63.rennes.grid5000.fr;thermos-root-devel-WordCountTopology-0-3b1a9176-f75c-4ef8-8c95-6eceff488fc4;["topology_master"];5.25;1533763823.42333;5.82;13.08;0.0;9;117
48;paravance-62.rennes.grid5000.fr;thermos-root-devel-WordCountTopology-2-f3a5c637-15da-4a36-bb90-f21cc687a42e;["container_2_Emit_random_words_2"];5.25;1533763823.42534;42.23;1106.11;1.019996736;10;149
49;paravance-62.rennes.grid5000.fr;thermos-root-devel-WordCountTopology-2-f3a5c637-15da-4a36-bb90-f21cc687a42e;["container_2_Emit_random_words_2"];5.25;1533763833.63942;42.89;1124.32;1.019996736;10;149
49;paravance-64.rennes.grid5000.fr;thermos-root-devel-WordCountTopology-1-1a7ea391-9635-41d6-af6a-eb69581b2fde;["container_1_Consume_and_count_1"];5.25;1533763833.65576;50.32;842.25;0.369485984;10;149
49;paravance-63.rennes.grid5000.fr;thermos-root-devel-WordCountTopology-0-3b1a9176-f75c-4ef8-8c95-6eceff488fc4;["topology_master"];5.25;1533763833.63994;5.85;13.11;0.0;9;117
50;paravance-64.rennes.grid5000.fr;thermos-root-devel-WordCountTopology-1-1a7ea391-9635-41d6-af6a-eb69581b2fde;["container_1_Consume_and_count_1"];5.25;1533763843.86561;51.11;855.49;0.369485984;10;149
50;paravance-63.rennes.grid5000.fr;thermos-root-devel-WordCountTopology-0-3b1a9176-f75c-4ef8-8c95-6eceff488fc4;["topology_master"];5.25;1533763843.85559;5.93;13.24;0.0;9;117
50;paravance-62.rennes.grid5000.fr;thermos-root-devel-WordCountTopology-2-f3a5c637-15da-4a36-bb90-f21cc687a42e;["container_2_Emit_random_words_2"];5.25;1533763843.85635;43.58;1142.5;1.019996736;10;149
51;paravance-62.rennes.grid5000.fr;thermos-root-devel-WordCountTopology-2-f3a5c637-15da-4a36-bb90-f21cc687a42e;["container_2_Emit_random_words_2"];5.25;1533763854.07117;44.25;1160.76;1.019996736;10;149
51;paravance-63.rennes.grid5000.fr;thermos-root-devel-WordCountTopology-0-3b1a9176-f75c-4ef8-8c95-6eceff488fc4;["topology_master"];5.25;1533763854.06985;5.99;13.32;0.0;9;117
51;paravance-64.rennes.grid5000.fr;thermos-root-devel-WordCountTopology-1-1a7ea391-9635-41d6-af6a-eb69581b2fde;["container_1_Consume_and_count_1"];5.25;1533763854.07721;51.9;869.38;0.369485984;10;149
52;paravance-64.rennes.grid5000.fr;thermos-root-devel-WordCountTopology-1-1a7ea391-9635-41d6-af6a-eb69581b2fde;["container_1_Consume_and_count_1"];5.25;1533763864.28694;52.67;882.51;0.369485984;10;149
52;paravance-62.rennes.grid5000.fr;thermos-root-devel-WordCountTopology-2-f3a5c637-15da-4a36-bb90-f21cc687a42e;["container_2_Emit_random_words_2"];5.25;1533763864.28648;44.92;1178.96;1.019996736;10;149
52;paravance-63.rennes.grid5000.fr;thermos-root-devel-WordCountTopology-0-3b1a9176-f75c-4ef8-8c95-6eceff488fc4;["topology_master"];5.25;1533763864.28658;6.06;13.41;0.0;9;117
53;paravance-62.rennes.grid5000.fr;thermos-root-devel-WordCountTopology-2-f3a5c637-15da-4a36-bb90-f21cc687a42e;["container_2_Emit_random_words_2"];5.25;1533763874.50234;45.6;1197.19;1.019996736;10;149
53;paravance-64.rennes.grid5000.fr;thermos-root-devel-WordCountTopology-1-1a7ea391-9635-41d6-af6a-eb69581b2fde;["container_1_Consume_and_count_1"];5.25;1533763874.5022;53.44;895.97;0.369485984;10;149
53;paravance-63.rennes.grid5000.fr;thermos-root-devel-WordCountTopology-0-3b1a9176-f75c-4ef8-8c95-6eceff488fc4;["topology_master"];5.25;1533763874.50275;6.12;13.55;0.0;9;117
54;paravance-63.rennes.grid5000.fr;thermos-root-devel-WordCountTopology-0-3b1a9176-f75c-4ef8-8c95-6eceff488fc4;["topology_master"];5.25;1533763884.71735;6.2;13.67;0.0;9;117
54;paravance-62.rennes.grid5000.fr;thermos-root-devel-WordCountTopology-2-f3a5c637-15da-4a36-bb90-f21cc687a42e;["container_2_Emit_random_words_2"];5.25;1533763884.72018;46.29;1215.42;1.019996736;10;149
54;paravance-64.rennes.grid5000.fr;thermos-root-devel-WordCountTopology-1-1a7ea391-9635-41d6-af6a-eb69581b2fde;["container_1_Consume_and_count_1"];5.25;1533763884.72057;54.26;909.34;0.369485984;10;149
55;paravance-62.rennes.grid5000.fr;thermos-root-devel-WordCountTopology-2-f3a5c637-15da-4a36-bb90-f21cc687a42e;["container_2_Emit_random_words_2"];5.25;1533763894.83494;46.91;1233.38;1.019996736;10;149
55;paravance-64.rennes.grid5000.fr;thermos-root-devel-WordCountTopology-1-1a7ea391-9635-41d6-af6a-eb69581b2fde;["container_1_Consume_and_count_1"];5.25;1533763894.93617;55.01;922.63;0.369485984;10;149
55;paravance-63.rennes.grid5000.fr;thermos-root-devel-WordCountTopology-0-3b1a9176-f75c-4ef8-8c95-6eceff488fc4;["topology_master"];5.25;1533763894.93418;6.23;13.69;0.0;9;117
56;paravance-64.rennes.grid5000.fr;thermos-root-devel-WordCountTopology-1-1a7ea391-9635-41d6-af6a-eb69581b2fde;["container_1_Consume_and_count_1"];5.25;1533763905.15105;55.82;936.07;0.369485984;10;149
56;paravance-62.rennes.grid5000.fr;thermos-root-devel-WordCountTopology-2-f3a5c637-15da-4a36-bb90-f21cc687a42e;["container_2_Emit_random_words_2"];5.25;1533763905.15011;47.6;1251.73;1.019996736;10;149
56;paravance-63.rennes.grid5000.fr;thermos-root-devel-WordCountTopology-0-3b1a9176-f75c-4ef8-8c95-6eceff488fc4;["topology_master"];5.25;1533763905.15083;6.32;13.81;0.0;9;117
57;paravance-62.rennes.grid5000.fr;thermos-root-devel-WordCountTopology-2-f3a5c637-15da-4a36-bb90-f21cc687a42e;["container_2_Emit_random_words_2"];5.25;1533763915.2681;48.25;1269.83;1.019996736;10;149
57;paravance-63.rennes.grid5000.fr;thermos-root-devel-WordCountTopology-0-3b1a9176-f75c-4ef8-8c95-6eceff488fc4;["topology_master"];5.25;1533763915.36632;6.37;13.88;0.0;9;117
57;paravance-64.rennes.grid5000.fr;thermos-root-devel-WordCountTopology-1-1a7ea391-9635-41d6-af6a-eb69581b2fde;["container_1_Consume_and_count_1"];5.25;1533763915.36927;56.59;949.55;0.369485984;10;149
58;paravance-62.rennes.grid5000.fr;thermos-root-devel-WordCountTopology-2-f3a5c637-15da-4a36-bb90-f21cc687a42e;["container_2_Emit_random_words_2"];5.25;1533763925.58183;48.88;1288.06;1.019996736;10;149
58;paravance-64.rennes.grid5000.fr;thermos-root-devel-WordCountTopology-1-1a7ea391-9635-41d6-af6a-eb69581b2fde;["container_1_Consume_and_count_1"];5.25;1533763925.58324;57.37;962.7;0.369485984;10;149
58;paravance-63.rennes.grid5000.fr;thermos-root-devel-WordCountTopology-0-3b1a9176-f75c-4ef8-8c95-6eceff488fc4;["topology_master"];5.25;1533763925.58207;6.45;13.99;0.0;9;117
59;paravance-62.rennes.grid5000.fr;thermos-root-devel-WordCountTopology-2-f3a5c637-15da-4a36-bb90-f21cc687a42e;["container_2_Emit_random_words_2"];5.25;1533763935.79719;49.49;1306.08;1.019996736;10;149
59;paravance-64.rennes.grid5000.fr;thermos-root-devel-WordCountTopology-1-1a7ea391-9635-41d6-af6a-eb69581b2fde;["container_1_Consume_and_count_1"];5.25;1533763935.79831;58.14;976.0;0.369485984;10;149
59;paravance-63.rennes.grid5000.fr;thermos-root-devel-WordCountTopology-0-3b1a9176-f75c-4ef8-8c95-6eceff488fc4;["topology_master"];5.25;1533763935.79748;6.51;14.08;0.0;9;117
60;paravance-62.rennes.grid5000.fr;thermos-root-devel-WordCountTopology-2-f3a5c637-15da-4a36-bb90-f21cc687a42e;["container_2_Emit_random_words_2"];5.25;1533763946.01324;50.16;1324.26;1.019996736;10;149
60;paravance-64.rennes.grid5000.fr;thermos-root-devel-WordCountTopology-1-1a7ea391-9635-41d6-af6a-eb69581b2fde;["container_1_Consume_and_count_1"];5.25;1533763946.01503;58.95;989.39;0.369485984;10;149
60;paravance-63.rennes.grid5000.fr;thermos-root-devel-WordCountTopology-0-3b1a9176-f75c-4ef8-8c95-6eceff488fc4;["topology_master"];5.25;1533763946.01315;6.59;14.2;0.0;9;117
