mesure_id;time;backpresure
0;1533732000;39180.0
1;1533731520;35103.0
2;1533731460;36100.0
3;1533731880;37750.0
4;1533731820;38747.0
5;1533731760;39428.0
6;1533731700;37023.0
7;1533731640;35749.0
8;1533731940;38825.0
9;1533731580;35135.0
