{
  "status": "success",
  "executiontime": 0.00018215179443359375,
  "message": "",
  "result": {
    "bolts": {
      "Consume_and_count": [
        "container_1_Consume_and_count_1"
      ]
    },
    "instances": {
      "container_2_Emit_random_words_2": {
        "stmgrId": "stmgr-2",
        "logfile": "http://paravance-52.rennes.grid5000.fr:31252/file/log-files/container_2_Emit_random_words_2.log.0",
        "id": "container_2_Emit_random_words_2",
        "name": "Emit_random_words"
      },
      "container_1_Consume_and_count_1": {
        "stmgrId": "stmgr-1",
        "logfile": "http://paravance-51.rennes.grid5000.fr:31681/file/log-files/container_1_Consume_and_count_1.log.0",
        "id": "container_1_Consume_and_count_1",
        "name": "Consume_and_count"
      }
    },
    "instance_groups": {
      "container_1_Consume_and": [
        "container_1_Consume_and_count_1"
      ],
      "container_2_Emit_random": [
        "container_2_Emit_random_words_2"
      ]
    },
    "spouts": {
      "Emit_random_words": [
        "container_2_Emit_random_words_2"
      ]
    },
    "config": {
      "topology.message.timeout.secs": "30",
      "topology.team.environment": "devel",
      "topology.serializer.classname": "org.apache.heron.streamlet.impl.KryoSerializer",
      "topology.team.name": "root",
      "topology.debug": "false",
      "topology.max.spout.pending": "100",
      "topology.container.padding.percentage": "400",
      "topology.enable.message.timeouts": "true",
      "topology.component.parallelism": "1",
      "topology.name": "WordCountTopology",
      "topology.stmgrs": "2",
      "topology.reliability.mode": "ATMOST_ONCE"
    },
    "stmgrs": {
      "stmgr-1": {
        "cwd": "/var/lib/mesos/slaves/68c9446d-8191-4dd3-99d6-c65e5547920a-S1/frameworks/75deb08a-eb1b-415c-8b2c-e922be5f7d98-0000/executors/thermos-root-devel-WordCountTopology-1-61fcab15-7846-42d6-9c00-245ce0ca60f2/runs/ed3c8064-425f-4b7d-81ee-7a55a0a08f03/sandbox",
        "host": "paravance-51.rennes.grid5000.fr",
        "joburl": "http://paravance-51.rennes.grid5000.fr:31681/browse/",
        "shell_port": 31681,
        "logfiles": "http://paravance-51.rennes.grid5000.fr:31681/browse/log-files",
        "pid": 2143,
        "id": "stmgr-1",
        "instance_ids": [
          "container_1_Consume_and_count_1"
        ],
        "port": 31855
      },
      "stmgr-2": {
        "cwd": "/var/lib/mesos/slaves/68c9446d-8191-4dd3-99d6-c65e5547920a-S0/frameworks/75deb08a-eb1b-415c-8b2c-e922be5f7d98-0000/executors/thermos-root-devel-WordCountTopology-2-7adfae36-0eab-4b3e-9a16-510bb01a6cbe/runs/fb5f1abe-4049-479e-aeb2-a316af028f2b/sandbox",
        "host": "paravance-52.rennes.grid5000.fr",
        "joburl": "http://paravance-52.rennes.grid5000.fr:31252/browse/",
        "shell_port": 31252,
        "logfiles": "http://paravance-52.rennes.grid5000.fr:31252/browse/log-files",
        "pid": 2182,
        "id": "stmgr-2",
        "instance_ids": [
          "container_2_Emit_random_words_2"
        ],
        "port": 31128
      }
    }
  },
  "tracker_version": "0.17.8-61-gd7c8c62"
}