{
  "status": "success",
  "executiontime": 0.00019693374633789062,
  "message": "",
  "result": {
    "bolts": {
      "Consume_and_count": [
        "container_1_Consume_and_count_1"
      ]
    },
    "instances": {
      "container_2_Emit_random_words_2": {
        "stmgrId": "stmgr-2",
        "logfile": "http://paravance-63.rennes.grid5000.fr:31944/file/log-files/container_2_Emit_random_words_2.log.0",
        "id": "container_2_Emit_random_words_2",
        "name": "Emit_random_words"
      },
      "container_1_Consume_and_count_1": {
        "stmgrId": "stmgr-1",
        "logfile": "http://paravance-64.rennes.grid5000.fr:31508/file/log-files/container_1_Consume_and_count_1.log.0",
        "id": "container_1_Consume_and_count_1",
        "name": "Consume_and_count"
      }
    },
    "instance_groups": {
      "container_1_Consume_and": [
        "container_1_Consume_and_count_1"
      ],
      "container_2_Emit_random": [
        "container_2_Emit_random_words_2"
      ]
    },
    "spouts": {
      "Emit_random_words": [
        "container_2_Emit_random_words_2"
      ]
    },
    "config": {
      "topology.message.timeout.secs": "30",
      "topology.team.environment": "devel",
      "topology.serializer.classname": "org.apache.heron.streamlet.impl.KryoSerializer",
      "topology.team.name": "root",
      "topology.debug": "false",
      "topology.max.spout.pending": "100",
      "topology.container.padding.percentage": "0",
      "topology.enable.message.timeouts": "true",
      "topology.component.parallelism": "1",
      "topology.name": "WordCountTopology",
      "topology.stmgrs": "2",
      "topology.reliability.mode": "ATMOST_ONCE"
    },
    "stmgrs": {
      "stmgr-1": {
        "cwd": "/var/lib/mesos/slaves/ac1230ec-a98a-49c0-9083-63ccd5784469-S2/frameworks/75deb08a-eb1b-415c-8b2c-e922be5f7d98-0000/executors/thermos-root-devel-WordCountTopology-1-b9ee626b-696f-49a4-8881-00001f9c1077/runs/ae8e3d27-0ad2-4683-acc4-ec15c771044d/sandbox",
        "host": "paravance-64.rennes.grid5000.fr",
        "joburl": "http://paravance-64.rennes.grid5000.fr:31508/browse/",
        "shell_port": 31508,
        "logfiles": "http://paravance-64.rennes.grid5000.fr:31508/browse/log-files",
        "pid": 2858,
        "id": "stmgr-1",
        "instance_ids": [
          "container_1_Consume_and_count_1"
        ],
        "port": 31573
      },
      "stmgr-2": {
        "cwd": "/var/lib/mesos/slaves/ac1230ec-a98a-49c0-9083-63ccd5784469-S0/frameworks/75deb08a-eb1b-415c-8b2c-e922be5f7d98-0000/executors/thermos-root-devel-WordCountTopology-2-511f5107-1ab6-475c-a21f-451243390c6b/runs/02758b16-1c29-4be5-b88f-8e64eff89dd9/sandbox",
        "host": "paravance-63.rennes.grid5000.fr",
        "joburl": "http://paravance-63.rennes.grid5000.fr:31944/browse/",
        "shell_port": 31944,
        "logfiles": "http://paravance-63.rennes.grid5000.fr:31944/browse/log-files",
        "pid": 2854,
        "id": "stmgr-2",
        "instance_ids": [
          "container_2_Emit_random_words_2"
        ],
        "port": 31322
      }
    }
  },
  "tracker_version": "0.17.8-61-gd7c8c62"
}