{
  "status": "success",
  "executiontime": 0.00018405914306640625,
  "message": "",
  "result": {
    "bolts": {
      "Consume_and_count": [
        "container_1_Consume_and_count_1"
      ]
    },
    "instances": {
      "container_2_Emit_random_words_2": {
        "stmgrId": "stmgr-2",
        "logfile": "http://paravance-8.rennes.grid5000.fr:31242/file/log-files/container_2_Emit_random_words_2.log.0",
        "id": "container_2_Emit_random_words_2",
        "name": "Emit_random_words"
      },
      "container_1_Consume_and_count_1": {
        "stmgrId": "stmgr-1",
        "logfile": "http://paravance-7.rennes.grid5000.fr:31902/file/log-files/container_1_Consume_and_count_1.log.0",
        "id": "container_1_Consume_and_count_1",
        "name": "Consume_and_count"
      }
    },
    "instance_groups": {
      "container_1_Consume_and": [
        "container_1_Consume_and_count_1"
      ],
      "container_2_Emit_random": [
        "container_2_Emit_random_words_2"
      ]
    },
    "spouts": {
      "Emit_random_words": [
        "container_2_Emit_random_words_2"
      ]
    },
    "config": {
      "topology.message.timeout.secs": "30",
      "topology.team.environment": "devel",
      "topology.serializer.classname": "org.apache.heron.streamlet.impl.KryoSerializer",
      "topology.team.name": "root",
      "topology.debug": "false",
      "topology.max.spout.pending": "100",
      "topology.container.padding.percentage": "100",
      "topology.enable.message.timeouts": "true",
      "topology.component.parallelism": "1",
      "topology.name": "WordCountTopology",
      "topology.stmgrs": "2",
      "topology.reliability.mode": "ATMOST_ONCE"
    },
    "stmgrs": {
      "stmgr-1": {
        "cwd": "/var/lib/mesos/slaves/b12399f0-9d75-451c-98d4-9eedc5eb7111-S1/frameworks/75deb08a-eb1b-415c-8b2c-e922be5f7d98-0000/executors/thermos-root-devel-WordCountTopology-1-57f04c2c-1d4d-4e90-b1b1-99ea46f3d493/runs/f2233fbd-5779-4aa1-a01f-42b9cc85c7da/sandbox",
        "host": "paravance-7.rennes.grid5000.fr",
        "joburl": "http://paravance-7.rennes.grid5000.fr:31902/browse/",
        "shell_port": 31902,
        "logfiles": "http://paravance-7.rennes.grid5000.fr:31902/browse/log-files",
        "pid": 2144,
        "id": "stmgr-1",
        "instance_ids": [
          "container_1_Consume_and_count_1"
        ],
        "port": 31030
      },
      "stmgr-2": {
        "cwd": "/var/lib/mesos/slaves/b12399f0-9d75-451c-98d4-9eedc5eb7111-S2/frameworks/75deb08a-eb1b-415c-8b2c-e922be5f7d98-0000/executors/thermos-root-devel-WordCountTopology-2-69dee052-695e-480a-bf2b-d94686067d18/runs/a004e5e1-4440-49c6-859c-1d7210eedcca/sandbox",
        "host": "paravance-8.rennes.grid5000.fr",
        "joburl": "http://paravance-8.rennes.grid5000.fr:31242/browse/",
        "shell_port": 31242,
        "logfiles": "http://paravance-8.rennes.grid5000.fr:31242/browse/log-files",
        "pid": 2180,
        "id": "stmgr-2",
        "instance_ids": [
          "container_2_Emit_random_words_2"
        ],
        "port": 31625
      }
    }
  },
  "tracker_version": "0.17.8-61-gd7c8c62"
}