mesure_id;slave_id;executor_id;heron_instances;cpus_limit;timestamp_B;cpus_system_time_secs_B;cpus_user_time_secs_B;cpus_throttled_time_secs_B;processes;threads
0;paravance-50.rennes.grid5000.fr;thermos-root-devel-WordCountTopology-1-029985e6-ccc5-4472-95bd-cea8df96eba2;["container_1_Consume_and_count_1"];5.25;1533811294.93629;19.29;273.01;2.910267779;10;151
0;paravance-16.rennes.grid5000.fr;thermos-root-devel-WordCountTopology-0-fd569240-e8c4-4bcd-b759-a6577b952411;["topology_master"];5.25;1533811294.82166;2.4;7.94;0.0;9;117
0;paravance-53.rennes.grid5000.fr;thermos-root-devel-WordCountTopology-2-cdd802f3-c6aa-4f64-ab66-67b827bc4bb5;["container_2_Emit_random_words_2"];5.25;1533811294.85645;9.93;97.48;1.169931833;10;149
1;paravance-50.rennes.grid5000.fr;thermos-root-devel-WordCountTopology-1-029985e6-ccc5-4472-95bd-cea8df96eba2;["container_1_Consume_and_count_1"];5.25;1533811305.15391;20.26;294.88;2.910267779;10;151
1;paravance-16.rennes.grid5000.fr;thermos-root-devel-WordCountTopology-0-fd569240-e8c4-4bcd-b759-a6577b952411;["topology_master"];5.25;1533811305.03897;2.49;8.08;0.0;9;117
1;paravance-53.rennes.grid5000.fr;thermos-root-devel-WordCountTopology-2-cdd802f3-c6aa-4f64-ab66-67b827bc4bb5;["container_2_Emit_random_words_2"];5.25;1533811305.07197;10.47;103.15;1.169931833;10;149
2;paravance-50.rennes.grid5000.fr;thermos-root-devel-WordCountTopology-1-029985e6-ccc5-4472-95bd-cea8df96eba2;["container_1_Consume_and_count_1"];5.25;1533811315.36723;21.54;318.79;2.910278439;10;151
2;paravance-16.rennes.grid5000.fr;thermos-root-devel-WordCountTopology-0-fd569240-e8c4-4bcd-b759-a6577b952411;["topology_master"];5.25;1533811315.25303;2.55;8.17;0.0;9;117
2;paravance-53.rennes.grid5000.fr;thermos-root-devel-WordCountTopology-2-cdd802f3-c6aa-4f64-ab66-67b827bc4bb5;["container_2_Emit_random_words_2"];5.25;1533811315.28607;11.04;109.37;1.169931833;10;149
3;paravance-50.rennes.grid5000.fr;thermos-root-devel-WordCountTopology-1-029985e6-ccc5-4472-95bd-cea8df96eba2;["container_1_Consume_and_count_1"];5.25;1533811325.5817;23.03;341.64;2.910278439;10;151
3;paravance-53.rennes.grid5000.fr;thermos-root-devel-WordCountTopology-2-cdd802f3-c6aa-4f64-ab66-67b827bc4bb5;["container_2_Emit_random_words_2"];5.25;1533811325.50184;11.62;115.58;1.169931833;10;149
3;paravance-16.rennes.grid5000.fr;thermos-root-devel-WordCountTopology-0-fd569240-e8c4-4bcd-b759-a6577b952411;["topology_master"];5.25;1533811325.46947;2.61;8.26;0.0;9;117
4;paravance-50.rennes.grid5000.fr;thermos-root-devel-WordCountTopology-1-029985e6-ccc5-4472-95bd-cea8df96eba2;["container_1_Consume_and_count_1"];5.25;1533811335.80011;24.26;364.84;2.910332316;10;151
4;paravance-16.rennes.grid5000.fr;thermos-root-devel-WordCountTopology-0-fd569240-e8c4-4bcd-b759-a6577b952411;["topology_master"];5.25;1533811335.68621;2.67;8.33;0.0;9;117
4;paravance-53.rennes.grid5000.fr;thermos-root-devel-WordCountTopology-2-cdd802f3-c6aa-4f64-ab66-67b827bc4bb5;["container_2_Emit_random_words_2"];5.25;1533811335.71995;12.14;121.02;1.169931833;10;149
5;paravance-50.rennes.grid5000.fr;thermos-root-devel-WordCountTopology-1-029985e6-ccc5-4472-95bd-cea8df96eba2;["container_1_Consume_and_count_1"];5.25;1533811346.01642;25.55;386.57;2.914028846;10;151
5;paravance-53.rennes.grid5000.fr;thermos-root-devel-WordCountTopology-2-cdd802f3-c6aa-4f64-ab66-67b827bc4bb5;["container_2_Emit_random_words_2"];5.25;1533811345.93657;12.79;127.44;1.169931833;10;149
5;paravance-16.rennes.grid5000.fr;thermos-root-devel-WordCountTopology-0-fd569240-e8c4-4bcd-b759-a6577b952411;["topology_master"];5.25;1533811345.90342;2.8;8.54;0.0;9;117
6;paravance-50.rennes.grid5000.fr;thermos-root-devel-WordCountTopology-1-029985e6-ccc5-4472-95bd-cea8df96eba2;["container_1_Consume_and_count_1"];5.25;1533811356.23477;26.43;409.53;2.91897443;10;151
6;paravance-16.rennes.grid5000.fr;thermos-root-devel-WordCountTopology-0-fd569240-e8c4-4bcd-b759-a6577b952411;["topology_master"];5.25;1533811356.12074;2.83;8.58;0.0;9;117
6;paravance-53.rennes.grid5000.fr;thermos-root-devel-WordCountTopology-2-cdd802f3-c6aa-4f64-ab66-67b827bc4bb5;["container_2_Emit_random_words_2"];5.25;1533811356.1548;13.24;132.27;1.169931833;10;149
7;paravance-50.rennes.grid5000.fr;thermos-root-devel-WordCountTopology-1-029985e6-ccc5-4472-95bd-cea8df96eba2;["container_1_Consume_and_count_1"];5.25;1533811366.45289;27.66;431.15;2.91897443;10;151
7;paravance-16.rennes.grid5000.fr;thermos-root-devel-WordCountTopology-0-fd569240-e8c4-4bcd-b759-a6577b952411;["topology_master"];5.25;1533811366.33864;2.92;8.72;0.0;9;117
7;paravance-53.rennes.grid5000.fr;thermos-root-devel-WordCountTopology-2-cdd802f3-c6aa-4f64-ab66-67b827bc4bb5;["container_2_Emit_random_words_2"];5.25;1533811366.37532;13.8;137.88;1.169931833;10;149
8;paravance-50.rennes.grid5000.fr;thermos-root-devel-WordCountTopology-1-029985e6-ccc5-4472-95bd-cea8df96eba2;["container_1_Consume_and_count_1"];5.25;1533811376.57314;28.53;455.11;2.957135954;10;151
8;paravance-16.rennes.grid5000.fr;thermos-root-devel-WordCountTopology-0-fd569240-e8c4-4bcd-b759-a6577b952411;["topology_master"];5.25;1533811376.4592;2.98;8.8;0.0;9;117
8;paravance-53.rennes.grid5000.fr;thermos-root-devel-WordCountTopology-2-cdd802f3-c6aa-4f64-ab66-67b827bc4bb5;["container_2_Emit_random_words_2"];5.25;1533811376.59112;14.35;143.72;1.169931833;10;149
9;paravance-50.rennes.grid5000.fr;thermos-root-devel-WordCountTopology-1-029985e6-ccc5-4472-95bd-cea8df96eba2;["container_1_Consume_and_count_1"];5.25;1533811386.89011;29.55;477.69;2.985272205;10;151
9;paravance-16.rennes.grid5000.fr;thermos-root-devel-WordCountTopology-0-fd569240-e8c4-4bcd-b759-a6577b952411;["topology_master"];5.25;1533811386.77573;3.04;8.88;0.0;9;117
9;paravance-53.rennes.grid5000.fr;thermos-root-devel-WordCountTopology-2-cdd802f3-c6aa-4f64-ab66-67b827bc4bb5;["container_2_Emit_random_words_2"];5.25;1533811386.80974;14.88;149.17;1.169931833;10;149
10;paravance-50.rennes.grid5000.fr;thermos-root-devel-WordCountTopology-1-029985e6-ccc5-4472-95bd-cea8df96eba2;["container_1_Consume_and_count_1"];5.25;1533811397.11001;30.56;500.05;2.985272205;10;151
10;paravance-16.rennes.grid5000.fr;thermos-root-devel-WordCountTopology-0-fd569240-e8c4-4bcd-b759-a6577b952411;["topology_master"];5.25;1533811396.99654;3.09;8.96;0.0;9;117
10;paravance-53.rennes.grid5000.fr;thermos-root-devel-WordCountTopology-2-cdd802f3-c6aa-4f64-ab66-67b827bc4bb5;["container_2_Emit_random_words_2"];5.25;1533811397.03169;15.44;155.22;1.169931833;10;149
11;paravance-50.rennes.grid5000.fr;thermos-root-devel-WordCountTopology-1-029985e6-ccc5-4472-95bd-cea8df96eba2;["container_1_Consume_and_count_1"];5.25;1533811407.32924;31.82;522.26;2.990792137;10;151
11;paravance-16.rennes.grid5000.fr;thermos-root-devel-WordCountTopology-0-fd569240-e8c4-4bcd-b759-a6577b952411;["topology_master"];5.25;1533811407.2154;3.22;9.2;0.0;9;117
11;paravance-53.rennes.grid5000.fr;thermos-root-devel-WordCountTopology-2-cdd802f3-c6aa-4f64-ab66-67b827bc4bb5;["container_2_Emit_random_words_2"];5.25;1533811407.24901;16.04;161.01;1.169931833;10;149
12;paravance-16.rennes.grid5000.fr;thermos-root-devel-WordCountTopology-0-fd569240-e8c4-4bcd-b759-a6577b952411;["topology_master"];5.25;1533811417.44158;3.24;9.22;0.0;9;117
12;paravance-50.rennes.grid5000.fr;thermos-root-devel-WordCountTopology-1-029985e6-ccc5-4472-95bd-cea8df96eba2;["container_1_Consume_and_count_1"];5.25;1533811417.56059;33.0;546.47;3.027161588;10;151
12;paravance-53.rennes.grid5000.fr;thermos-root-devel-WordCountTopology-2-cdd802f3-c6aa-4f64-ab66-67b827bc4bb5;["container_2_Emit_random_words_2"];5.25;1533811417.48093;16.59;167.13;1.169931833;10;149
13;paravance-50.rennes.grid5000.fr;thermos-root-devel-WordCountTopology-1-029985e6-ccc5-4472-95bd-cea8df96eba2;["container_1_Consume_and_count_1"];5.25;1533811427.77985;33.98;568.94;3.031078996;10;151
13;paravance-16.rennes.grid5000.fr;thermos-root-devel-WordCountTopology-0-fd569240-e8c4-4bcd-b759-a6577b952411;["topology_master"];5.25;1533811427.66609;3.34;9.39;0.0;9;117
13;paravance-53.rennes.grid5000.fr;thermos-root-devel-WordCountTopology-2-cdd802f3-c6aa-4f64-ab66-67b827bc4bb5;["container_2_Emit_random_words_2"];5.25;1533811427.69784;17.18;172.94;1.169931833;10;149
14;paravance-50.rennes.grid5000.fr;thermos-root-devel-WordCountTopology-1-029985e6-ccc5-4472-95bd-cea8df96eba2;["container_1_Consume_and_count_1"];5.25;1533811437.99578;34.94;590.47;3.03523867;10;151
14;paravance-53.rennes.grid5000.fr;thermos-root-devel-WordCountTopology-2-cdd802f3-c6aa-4f64-ab66-67b827bc4bb5;["container_2_Emit_random_words_2"];5.25;1533811437.91452;17.74;178.54;1.169931833;10;149
14;paravance-16.rennes.grid5000.fr;thermos-root-devel-WordCountTopology-0-fd569240-e8c4-4bcd-b759-a6577b952411;["topology_master"];5.25;1533811437.88402;3.4;9.47;0.0;9;117
15;paravance-53.rennes.grid5000.fr;thermos-root-devel-WordCountTopology-2-cdd802f3-c6aa-4f64-ab66-67b827bc4bb5;["container_2_Emit_random_words_2"];5.25;1533811448.03425;18.33;184.26;1.169931833;10;149
15;paravance-16.rennes.grid5000.fr;thermos-root-devel-WordCountTopology-0-fd569240-e8c4-4bcd-b759-a6577b952411;["topology_master"];5.25;1533811448.10081;3.46;9.57;0.0;9;117
15;paravance-50.rennes.grid5000.fr;thermos-root-devel-WordCountTopology-1-029985e6-ccc5-4472-95bd-cea8df96eba2;["container_1_Consume_and_count_1"];5.25;1533811448.21573;36.0;614.16;3.035493245;10;151
16;paravance-50.rennes.grid5000.fr;thermos-root-devel-WordCountTopology-1-029985e6-ccc5-4472-95bd-cea8df96eba2;["container_1_Consume_and_count_1"];5.25;1533811458.43344;37.19;636.77;3.036159807;10;151
16;paravance-16.rennes.grid5000.fr;thermos-root-devel-WordCountTopology-0-fd569240-e8c4-4bcd-b759-a6577b952411;["topology_master"];5.25;1533811458.32022;3.51;9.64;0.0;9;117
16;paravance-53.rennes.grid5000.fr;thermos-root-devel-WordCountTopology-2-cdd802f3-c6aa-4f64-ab66-67b827bc4bb5;["container_2_Emit_random_words_2"];5.25;1533811458.35279;18.84;189.21;1.169931833;10;149
17;paravance-50.rennes.grid5000.fr;thermos-root-devel-WordCountTopology-1-029985e6-ccc5-4472-95bd-cea8df96eba2;["container_1_Consume_and_count_1"];5.25;1533811468.65653;38.36;661.39;3.036159807;10;151
17;paravance-16.rennes.grid5000.fr;thermos-root-devel-WordCountTopology-0-fd569240-e8c4-4bcd-b759-a6577b952411;["topology_master"];5.25;1533811468.54204;3.63;9.93;0.0;9;117
17;paravance-53.rennes.grid5000.fr;thermos-root-devel-WordCountTopology-2-cdd802f3-c6aa-4f64-ab66-67b827bc4bb5;["container_2_Emit_random_words_2"];5.25;1533811468.5747;19.41;194.7;1.169931833;10;149
18;paravance-50.rennes.grid5000.fr;thermos-root-devel-WordCountTopology-1-029985e6-ccc5-4472-95bd-cea8df96eba2;["container_1_Consume_and_count_1"];5.25;1533811478.87383;39.83;684.34;3.036159807;10;151
18;paravance-53.rennes.grid5000.fr;thermos-root-devel-WordCountTopology-2-cdd802f3-c6aa-4f64-ab66-67b827bc4bb5;["container_2_Emit_random_words_2"];5.25;1533811478.79168;19.95;200.45;1.169931833;10;149
18;paravance-16.rennes.grid5000.fr;thermos-root-devel-WordCountTopology-0-fd569240-e8c4-4bcd-b759-a6577b952411;["topology_master"];5.25;1533811478.76051;3.66;9.96;0.0;9;117
19;paravance-50.rennes.grid5000.fr;thermos-root-devel-WordCountTopology-1-029985e6-ccc5-4472-95bd-cea8df96eba2;["container_1_Consume_and_count_1"];5.25;1533811488.99195;41.23;707.02;3.036159807;10;151
19;paravance-16.rennes.grid5000.fr;thermos-root-devel-WordCountTopology-0-fd569240-e8c4-4bcd-b759-a6577b952411;["topology_master"];5.25;1533811488.97623;3.76;10.11;0.0;9;117
19;paravance-53.rennes.grid5000.fr;thermos-root-devel-WordCountTopology-2-cdd802f3-c6aa-4f64-ab66-67b827bc4bb5;["container_2_Emit_random_words_2"];5.25;1533811489.01169;20.54;206.47;1.169931833;10;149
20;paravance-16.rennes.grid5000.fr;thermos-root-devel-WordCountTopology-0-fd569240-e8c4-4bcd-b759-a6577b952411;["topology_master"];5.25;1533811499.19415;3.82;10.19;0.0;9;117
20;paravance-50.rennes.grid5000.fr;thermos-root-devel-WordCountTopology-1-029985e6-ccc5-4472-95bd-cea8df96eba2;["container_1_Consume_and_count_1"];5.25;1533811499.31006;42.52;731.08;3.036159807;10;151
20;paravance-53.rennes.grid5000.fr;thermos-root-devel-WordCountTopology-2-cdd802f3-c6aa-4f64-ab66-67b827bc4bb5;["container_2_Emit_random_words_2"];5.25;1533811499.22759;21.05;211.72;1.169931833;10;149
21;paravance-50.rennes.grid5000.fr;thermos-root-devel-WordCountTopology-1-029985e6-ccc5-4472-95bd-cea8df96eba2;["container_1_Consume_and_count_1"];5.25;1533811509.52765;43.65;753.41;3.064510774;10;151
21;paravance-53.rennes.grid5000.fr;thermos-root-devel-WordCountTopology-2-cdd802f3-c6aa-4f64-ab66-67b827bc4bb5;["container_2_Emit_random_words_2"];5.25;1533811509.4441;21.6;217.54;1.169931833;10;149
21;paravance-16.rennes.grid5000.fr;thermos-root-devel-WordCountTopology-0-fd569240-e8c4-4bcd-b759-a6577b952411;["topology_master"];5.25;1533811509.41416;3.88;10.27;0.0;9;117
22;paravance-50.rennes.grid5000.fr;thermos-root-devel-WordCountTopology-1-029985e6-ccc5-4472-95bd-cea8df96eba2;["container_1_Consume_and_count_1"];5.25;1533811519.7453;44.84;775.68;3.068614686;10;151
22;paravance-16.rennes.grid5000.fr;thermos-root-devel-WordCountTopology-0-fd569240-e8c4-4bcd-b759-a6577b952411;["topology_master"];5.25;1533811519.63147;3.94;10.34;0.0;9;117
22;paravance-53.rennes.grid5000.fr;thermos-root-devel-WordCountTopology-2-cdd802f3-c6aa-4f64-ab66-67b827bc4bb5;["container_2_Emit_random_words_2"];5.25;1533811519.66555;22.03;221.61;1.169931833;10;149
23;paravance-50.rennes.grid5000.fr;thermos-root-devel-WordCountTopology-1-029985e6-ccc5-4472-95bd-cea8df96eba2;["container_1_Consume_and_count_1"];5.25;1533811529.96361;46.16;798.77;3.068716102;10;151
23;paravance-16.rennes.grid5000.fr;thermos-root-devel-WordCountTopology-0-fd569240-e8c4-4bcd-b759-a6577b952411;["topology_master"];5.25;1533811529.85116;4.06;10.54;0.0;9;117
23;paravance-53.rennes.grid5000.fr;thermos-root-devel-WordCountTopology-2-cdd802f3-c6aa-4f64-ab66-67b827bc4bb5;["container_2_Emit_random_words_2"];5.25;1533811529.88243;22.68;228.33;1.169931833;10;149
24;paravance-16.rennes.grid5000.fr;thermos-root-devel-WordCountTopology-0-fd569240-e8c4-4bcd-b759-a6577b952411;["topology_master"];5.25;1533811540.06788;4.09;10.57;0.0;9;117
24;paravance-50.rennes.grid5000.fr;thermos-root-devel-WordCountTopology-1-029985e6-ccc5-4472-95bd-cea8df96eba2;["container_1_Consume_and_count_1"];5.25;1533811540.18271;46.94;821.26;3.068716102;10;151
24;paravance-53.rennes.grid5000.fr;thermos-root-devel-WordCountTopology-2-cdd802f3-c6aa-4f64-ab66-67b827bc4bb5;["container_2_Emit_random_words_2"];5.25;1533811540.10266;23.12;233.15;1.169931833;10;149
25;paravance-50.rennes.grid5000.fr;thermos-root-devel-WordCountTopology-1-029985e6-ccc5-4472-95bd-cea8df96eba2;["container_1_Consume_and_count_1"];5.25;1533811550.40022;47.78;844.83;3.130881622;10;151
25;paravance-16.rennes.grid5000.fr;thermos-root-devel-WordCountTopology-0-fd569240-e8c4-4bcd-b759-a6577b952411;["topology_master"];5.25;1533811550.28885;4.19;10.71;0.0;9;117
25;paravance-53.rennes.grid5000.fr;thermos-root-devel-WordCountTopology-2-cdd802f3-c6aa-4f64-ab66-67b827bc4bb5;["container_2_Emit_random_words_2"];5.25;1533811550.32062;23.66;238.77;1.169931833;10;149
26;paravance-50.rennes.grid5000.fr;thermos-root-devel-WordCountTopology-1-029985e6-ccc5-4472-95bd-cea8df96eba2;["container_1_Consume_and_count_1"];5.25;1533811560.62174;48.71;867.44;3.167790328;10;151
26;paravance-16.rennes.grid5000.fr;thermos-root-devel-WordCountTopology-0-fd569240-e8c4-4bcd-b759-a6577b952411;["topology_master"];5.25;1533811560.50568;4.24;10.79;0.0;9;117
26;paravance-53.rennes.grid5000.fr;thermos-root-devel-WordCountTopology-2-cdd802f3-c6aa-4f64-ab66-67b827bc4bb5;["container_2_Emit_random_words_2"];5.25;1533811560.53833;24.2;244.38;1.169931833;10;149
27;paravance-53.rennes.grid5000.fr;thermos-root-devel-WordCountTopology-2-cdd802f3-c6aa-4f64-ab66-67b827bc4bb5;["container_2_Emit_random_words_2"];5.25;1533811570.75645;24.79;250.8;1.169931833;10;149
27;paravance-50.rennes.grid5000.fr;thermos-root-devel-WordCountTopology-1-029985e6-ccc5-4472-95bd-cea8df96eba2;["container_1_Consume_and_count_1"];5.25;1533811570.84006;49.62;889.92;3.176025326;10;151
27;paravance-16.rennes.grid5000.fr;thermos-root-devel-WordCountTopology-0-fd569240-e8c4-4bcd-b759-a6577b952411;["topology_master"];5.25;1533811570.72587;4.31;10.86;0.0;9;117
28;paravance-50.rennes.grid5000.fr;thermos-root-devel-WordCountTopology-1-029985e6-ccc5-4472-95bd-cea8df96eba2;["container_1_Consume_and_count_1"];5.25;1533811581.05496;50.55;912.65;3.191799168;10;151
28;paravance-16.rennes.grid5000.fr;thermos-root-devel-WordCountTopology-0-fd569240-e8c4-4bcd-b759-a6577b952411;["topology_master"];5.25;1533811580.94254;4.41;11.01;0.0;9;117
28;paravance-53.rennes.grid5000.fr;thermos-root-devel-WordCountTopology-2-cdd802f3-c6aa-4f64-ab66-67b827bc4bb5;["container_2_Emit_random_words_2"];5.25;1533811580.97226;25.33;256.51;1.169931833;10;149
29;paravance-16.rennes.grid5000.fr;thermos-root-devel-WordCountTopology-0-fd569240-e8c4-4bcd-b759-a6577b952411;["topology_master"];5.25;1533811591.06149;4.48;11.14;0.0;9;117
29;paravance-50.rennes.grid5000.fr;thermos-root-devel-WordCountTopology-1-029985e6-ccc5-4472-95bd-cea8df96eba2;["container_1_Consume_and_count_1"];5.25;1533811591.27256;51.51;936.19;3.238651828;10;151
29;paravance-53.rennes.grid5000.fr;thermos-root-devel-WordCountTopology-2-cdd802f3-c6aa-4f64-ab66-67b827bc4bb5;["container_2_Emit_random_words_2"];5.25;1533811591.19115;25.88;262.78;1.169931833;10;149
30;paravance-50.rennes.grid5000.fr;thermos-root-devel-WordCountTopology-1-029985e6-ccc5-4472-95bd-cea8df96eba2;["container_1_Consume_and_count_1"];5.25;1533811601.48706;52.5;958.45;3.255932221;10;151
30;paravance-53.rennes.grid5000.fr;thermos-root-devel-WordCountTopology-2-cdd802f3-c6aa-4f64-ab66-67b827bc4bb5;["container_2_Emit_random_words_2"];5.25;1533811601.40662;26.37;267.86;1.169931833;10;149
30;paravance-16.rennes.grid5000.fr;thermos-root-devel-WordCountTopology-0-fd569240-e8c4-4bcd-b759-a6577b952411;["topology_master"];5.25;1533811601.3763;4.54;11.22;0.0;9;117
31;paravance-16.rennes.grid5000.fr;thermos-root-devel-WordCountTopology-0-fd569240-e8c4-4bcd-b759-a6577b952411;["topology_master"];5.25;1533811611.59296;4.6;11.3;0.0;9;117
31;paravance-50.rennes.grid5000.fr;thermos-root-devel-WordCountTopology-1-029985e6-ccc5-4472-95bd-cea8df96eba2;["container_1_Consume_and_count_1"];5.25;1533811611.70708;53.49;981.2;3.255957498;10;151
31;paravance-53.rennes.grid5000.fr;thermos-root-devel-WordCountTopology-2-cdd802f3-c6aa-4f64-ab66-67b827bc4bb5;["container_2_Emit_random_words_2"];5.25;1533811611.62515;26.93;274.17;1.169931833;10;149
32;paravance-53.rennes.grid5000.fr;thermos-root-devel-WordCountTopology-2-cdd802f3-c6aa-4f64-ab66-67b827bc4bb5;["container_2_Emit_random_words_2"];5.25;1533811621.84026;27.48;280.02;1.169931833;10;149
32;paravance-50.rennes.grid5000.fr;thermos-root-devel-WordCountTopology-1-029985e6-ccc5-4472-95bd-cea8df96eba2;["container_1_Consume_and_count_1"];5.25;1533811621.92511;54.69;1005.07;3.263491597;10;151
32;paravance-16.rennes.grid5000.fr;thermos-root-devel-WordCountTopology-0-fd569240-e8c4-4bcd-b759-a6577b952411;["topology_master"];5.25;1533811621.81026;4.69;11.43;0.0;9;117
33;paravance-50.rennes.grid5000.fr;thermos-root-devel-WordCountTopology-1-029985e6-ccc5-4472-95bd-cea8df96eba2;["container_1_Consume_and_count_1"];5.25;1533811632.141;55.85;1027.22;3.263543516;10;151
33;paravance-16.rennes.grid5000.fr;thermos-root-devel-WordCountTopology-0-fd569240-e8c4-4bcd-b759-a6577b952411;["topology_master"];5.25;1533811632.02723;4.72;11.46;0.0;9;117
33;paravance-53.rennes.grid5000.fr;thermos-root-devel-WordCountTopology-2-cdd802f3-c6aa-4f64-ab66-67b827bc4bb5;["container_2_Emit_random_words_2"];5.25;1533811632.058;28.01;286.31;1.169931833;10;149
34;paravance-50.rennes.grid5000.fr;thermos-root-devel-WordCountTopology-1-029985e6-ccc5-4472-95bd-cea8df96eba2;["container_1_Consume_and_count_1"];5.25;1533811642.35741;56.89;1050.87;3.26620752;10;151
34;paravance-16.rennes.grid5000.fr;thermos-root-devel-WordCountTopology-0-fd569240-e8c4-4bcd-b759-a6577b952411;["topology_master"];5.25;1533811642.24295;4.83;11.61;0.0;9;117
34;paravance-53.rennes.grid5000.fr;thermos-root-devel-WordCountTopology-2-cdd802f3-c6aa-4f64-ab66-67b827bc4bb5;["container_2_Emit_random_words_2"];5.25;1533811642.27404;28.58;292.17;1.169931833;10;149
35;paravance-50.rennes.grid5000.fr;thermos-root-devel-WordCountTopology-1-029985e6-ccc5-4472-95bd-cea8df96eba2;["container_1_Consume_and_count_1"];5.25;1533811652.57411;57.81;1072.17;3.266272896;10;151
35;paravance-16.rennes.grid5000.fr;thermos-root-devel-WordCountTopology-0-fd569240-e8c4-4bcd-b759-a6577b952411;["topology_master"];5.25;1533811652.46076;4.89;11.74;0.0;9;117
35;paravance-53.rennes.grid5000.fr;thermos-root-devel-WordCountTopology-2-cdd802f3-c6aa-4f64-ab66-67b827bc4bb5;["container_2_Emit_random_words_2"];5.25;1533811652.49137;29.14;298.42;1.169931833;10;149
36;paravance-50.rennes.grid5000.fr;thermos-root-devel-WordCountTopology-1-029985e6-ccc5-4472-95bd-cea8df96eba2;["container_1_Consume_and_count_1"];5.25;1533811662.79175;58.83;1093.92;3.282689099;10;151
36;paravance-16.rennes.grid5000.fr;thermos-root-devel-WordCountTopology-0-fd569240-e8c4-4bcd-b759-a6577b952411;["topology_master"];5.25;1533811662.67861;4.98;11.87;0.0;9;117
36;paravance-53.rennes.grid5000.fr;thermos-root-devel-WordCountTopology-2-cdd802f3-c6aa-4f64-ab66-67b827bc4bb5;["container_2_Emit_random_words_2"];5.25;1533811662.70849;29.64;303.46;1.169931833;10;149
37;paravance-50.rennes.grid5000.fr;thermos-root-devel-WordCountTopology-1-029985e6-ccc5-4472-95bd-cea8df96eba2;["container_1_Consume_and_count_1"];5.25;1533811673.00857;59.76;1117.44;3.286008362;10;151
37;paravance-53.rennes.grid5000.fr;thermos-root-devel-WordCountTopology-2-cdd802f3-c6aa-4f64-ab66-67b827bc4bb5;["container_2_Emit_random_words_2"];5.25;1533811672.92619;30.15;309.57;1.169931833;10;149
37;paravance-16.rennes.grid5000.fr;thermos-root-devel-WordCountTopology-0-fd569240-e8c4-4bcd-b759-a6577b952411;["topology_master"];5.25;1533811672.8951;5.01;11.9;0.0;9;117
38;paravance-50.rennes.grid5000.fr;thermos-root-devel-WordCountTopology-1-029985e6-ccc5-4472-95bd-cea8df96eba2;["container_1_Consume_and_count_1"];5.25;1533811683.22437;60.8;1141.59;3.318574426;10;151
38;paravance-16.rennes.grid5000.fr;thermos-root-devel-WordCountTopology-0-fd569240-e8c4-4bcd-b759-a6577b952411;["topology_master"];5.25;1533811683.11153;5.11;12.04;0.0;9;117
38;paravance-53.rennes.grid5000.fr;thermos-root-devel-WordCountTopology-2-cdd802f3-c6aa-4f64-ab66-67b827bc4bb5;["container_2_Emit_random_words_2"];5.25;1533811683.14198;30.69;315.04;1.169931833;10;149
39;paravance-50.rennes.grid5000.fr;thermos-root-devel-WordCountTopology-1-029985e6-ccc5-4472-95bd-cea8df96eba2;["container_1_Consume_and_count_1"];5.25;1533811693.44286;61.83;1165.47;3.350995087;10;151
39;paravance-16.rennes.grid5000.fr;thermos-root-devel-WordCountTopology-0-fd569240-e8c4-4bcd-b759-a6577b952411;["topology_master"];5.25;1533811693.32825;5.17;12.11;0.0;9;117
39;paravance-53.rennes.grid5000.fr;thermos-root-devel-WordCountTopology-2-cdd802f3-c6aa-4f64-ab66-67b827bc4bb5;["container_2_Emit_random_words_2"];5.25;1533811693.3585;31.23;320.85;1.169931833;10;149
40;paravance-50.rennes.grid5000.fr;thermos-root-devel-WordCountTopology-1-029985e6-ccc5-4472-95bd-cea8df96eba2;["container_1_Consume_and_count_1"];5.25;1533811703.65928;62.83;1189.37;3.535384519;10;151
40;paravance-16.rennes.grid5000.fr;thermos-root-devel-WordCountTopology-0-fd569240-e8c4-4bcd-b759-a6577b952411;["topology_master"];5.25;1533811703.54757;5.24;12.21;0.0;9;117
40;paravance-53.rennes.grid5000.fr;thermos-root-devel-WordCountTopology-2-cdd802f3-c6aa-4f64-ab66-67b827bc4bb5;["container_2_Emit_random_words_2"];5.25;1533811703.57743;31.78;326.68;1.169931833;10;149
41;paravance-50.rennes.grid5000.fr;thermos-root-devel-WordCountTopology-1-029985e6-ccc5-4472-95bd-cea8df96eba2;["container_1_Consume_and_count_1"];5.25;1533811713.87472;64.12;1213.62;3.543399052;10;151
41;paravance-53.rennes.grid5000.fr;thermos-root-devel-WordCountTopology-2-cdd802f3-c6aa-4f64-ab66-67b827bc4bb5;["container_2_Emit_random_words_2"];5.25;1533811713.79511;32.34;332.89;1.169931833;10;149
41;paravance-16.rennes.grid5000.fr;thermos-root-devel-WordCountTopology-0-fd569240-e8c4-4bcd-b759-a6577b952411;["topology_master"];5.25;1533811713.7649;5.3;12.35;0.0;9;117
42;paravance-50.rennes.grid5000.fr;thermos-root-devel-WordCountTopology-1-029985e6-ccc5-4472-95bd-cea8df96eba2;["container_1_Consume_and_count_1"];5.25;1533811724.09302;65.32;1235.38;3.595078824;10;151
42;paravance-53.rennes.grid5000.fr;thermos-root-devel-WordCountTopology-2-cdd802f3-c6aa-4f64-ab66-67b827bc4bb5;["container_2_Emit_random_words_2"];5.25;1533811724.00965;32.89;338.64;1.169931833;10;149
42;paravance-16.rennes.grid5000.fr;thermos-root-devel-WordCountTopology-0-fd569240-e8c4-4bcd-b759-a6577b952411;["topology_master"];5.25;1533811723.98104;5.4;12.48;0.0;9;117
43;paravance-50.rennes.grid5000.fr;thermos-root-devel-WordCountTopology-1-029985e6-ccc5-4472-95bd-cea8df96eba2;["container_1_Consume_and_count_1"];5.25;1533811734.3066;66.31;1257.65;3.595078824;10;151
43;paravance-16.rennes.grid5000.fr;thermos-root-devel-WordCountTopology-0-fd569240-e8c4-4bcd-b759-a6577b952411;["topology_master"];5.25;1533811734.19566;5.42;12.51;0.0;9;117
43;paravance-53.rennes.grid5000.fr;thermos-root-devel-WordCountTopology-2-cdd802f3-c6aa-4f64-ab66-67b827bc4bb5;["container_2_Emit_random_words_2"];5.25;1533811734.2281;33.31;343.41;1.169931833;10;149
44;paravance-16.rennes.grid5000.fr;thermos-root-devel-WordCountTopology-0-fd569240-e8c4-4bcd-b759-a6577b952411;["topology_master"];5.25;1533811744.41188;5.51;12.64;0.0;9;117
44;paravance-50.rennes.grid5000.fr;thermos-root-devel-WordCountTopology-1-029985e6-ccc5-4472-95bd-cea8df96eba2;["container_1_Consume_and_count_1"];5.25;1533811744.52947;67.68;1281.47;3.595078824;10;151
44;paravance-53.rennes.grid5000.fr;thermos-root-devel-WordCountTopology-2-cdd802f3-c6aa-4f64-ab66-67b827bc4bb5;["container_2_Emit_random_words_2"];5.25;1533811744.44502;33.91;349.85;1.169931833;10;149
45;paravance-50.rennes.grid5000.fr;thermos-root-devel-WordCountTopology-1-029985e6-ccc5-4472-95bd-cea8df96eba2;["container_1_Consume_and_count_1"];5.25;1533811754.7448;69.02;1304.49;3.606906364;10;151
45;paravance-16.rennes.grid5000.fr;thermos-root-devel-WordCountTopology-0-fd569240-e8c4-4bcd-b759-a6577b952411;["topology_master"];5.25;1533811754.6318;5.57;12.72;0.0;9;117
45;paravance-53.rennes.grid5000.fr;thermos-root-devel-WordCountTopology-2-cdd802f3-c6aa-4f64-ab66-67b827bc4bb5;["container_2_Emit_random_words_2"];5.25;1533811754.66331;34.54;357.13;1.169931833;10;149
46;paravance-53.rennes.grid5000.fr;thermos-root-devel-WordCountTopology-2-cdd802f3-c6aa-4f64-ab66-67b827bc4bb5;["container_2_Emit_random_words_2"];5.25;1533811764.87878;35.03;362.39;1.169931833;10;149
46;paravance-16.rennes.grid5000.fr;thermos-root-devel-WordCountTopology-0-fd569240-e8c4-4bcd-b759-a6577b952411;["topology_master"];5.25;1533811764.84938;5.64;12.8;0.0;9;117
46;paravance-50.rennes.grid5000.fr;thermos-root-devel-WordCountTopology-1-029985e6-ccc5-4472-95bd-cea8df96eba2;["container_1_Consume_and_count_1"];5.25;1533811764.96215;69.86;1326.36;3.606906364;10;151
47;paravance-50.rennes.grid5000.fr;thermos-root-devel-WordCountTopology-1-029985e6-ccc5-4472-95bd-cea8df96eba2;["container_1_Consume_and_count_1"];5.25;1533811775.1813;71.35;1351.09;3.613102227;10;151
47;paravance-53.rennes.grid5000.fr;thermos-root-devel-WordCountTopology-2-cdd802f3-c6aa-4f64-ab66-67b827bc4bb5;["container_2_Emit_random_words_2"];5.25;1533811775.09566;35.64;369.18;1.169931833;10;149
47;paravance-16.rennes.grid5000.fr;thermos-root-devel-WordCountTopology-0-fd569240-e8c4-4bcd-b759-a6577b952411;["topology_master"];5.25;1533811775.06698;5.7;12.93;0.0;9;117
48;paravance-16.rennes.grid5000.fr;thermos-root-devel-WordCountTopology-0-fd569240-e8c4-4bcd-b759-a6577b952411;["topology_master"];5.25;1533811785.28315;5.79;13.06;0.0;9;117
48;paravance-53.rennes.grid5000.fr;thermos-root-devel-WordCountTopology-2-cdd802f3-c6aa-4f64-ab66-67b827bc4bb5;["container_2_Emit_random_words_2"];5.25;1533811785.31402;36.18;374.77;1.169931833;10;149
48;paravance-50.rennes.grid5000.fr;thermos-root-devel-WordCountTopology-1-029985e6-ccc5-4472-95bd-cea8df96eba2;["container_1_Consume_and_count_1"];5.25;1533811785.39656;72.57;1373.93;3.639383501;10;151
49;paravance-16.rennes.grid5000.fr;thermos-root-devel-WordCountTopology-0-fd569240-e8c4-4bcd-b759-a6577b952411;["topology_master"];5.25;1533811795.40126;5.82;13.09;0.0;9;117
49;paravance-50.rennes.grid5000.fr;thermos-root-devel-WordCountTopology-1-029985e6-ccc5-4472-95bd-cea8df96eba2;["container_1_Consume_and_count_1"];5.25;1533811795.61275;73.51;1396.48;3.653646232;10;151
49;paravance-53.rennes.grid5000.fr;thermos-root-devel-WordCountTopology-2-cdd802f3-c6aa-4f64-ab66-67b827bc4bb5;["container_2_Emit_random_words_2"];5.25;1533811795.52943;36.69;380.81;1.169931833;10;149
50;paravance-16.rennes.grid5000.fr;thermos-root-devel-WordCountTopology-0-fd569240-e8c4-4bcd-b759-a6577b952411;["topology_master"];5.25;1533811805.6193;5.91;13.23;0.0;9;117
50;paravance-50.rennes.grid5000.fr;thermos-root-devel-WordCountTopology-1-029985e6-ccc5-4472-95bd-cea8df96eba2;["container_1_Consume_and_count_1"];5.25;1533811805.82806;74.83;1419.82;3.669867548;10;151
50;paravance-53.rennes.grid5000.fr;thermos-root-devel-WordCountTopology-2-cdd802f3-c6aa-4f64-ab66-67b827bc4bb5;["container_2_Emit_random_words_2"];5.25;1533811805.74512;37.31;387.36;1.169931833;10;149
51;paravance-53.rennes.grid5000.fr;thermos-root-devel-WordCountTopology-2-cdd802f3-c6aa-4f64-ab66-67b827bc4bb5;["container_2_Emit_random_words_2"];5.25;1533811815.86335;37.82;393.08;1.169931833;10;149
51;paravance-16.rennes.grid5000.fr;thermos-root-devel-WordCountTopology-0-fd569240-e8c4-4bcd-b759-a6577b952411;["topology_master"];5.25;1533811815.93046;5.97;13.3;0.0;9;117
51;paravance-50.rennes.grid5000.fr;thermos-root-devel-WordCountTopology-1-029985e6-ccc5-4472-95bd-cea8df96eba2;["container_1_Consume_and_count_1"];5.25;1533811816.04652;75.83;1440.91;3.681137105;10;151
52;paravance-50.rennes.grid5000.fr;thermos-root-devel-WordCountTopology-1-029985e6-ccc5-4472-95bd-cea8df96eba2;["container_1_Consume_and_count_1"];5.25;1533811826.26018;77.18;1463.46;3.709137432;10;151
52;paravance-16.rennes.grid5000.fr;thermos-root-devel-WordCountTopology-0-fd569240-e8c4-4bcd-b759-a6577b952411;["topology_master"];5.25;1533811826.14941;6.04;13.42;0.0;9;117
52;paravance-53.rennes.grid5000.fr;thermos-root-devel-WordCountTopology-2-cdd802f3-c6aa-4f64-ab66-67b827bc4bb5;["container_2_Emit_random_words_2"];5.25;1533811826.18066;38.34;398.24;1.169931833;10;149
53;paravance-50.rennes.grid5000.fr;thermos-root-devel-WordCountTopology-1-029985e6-ccc5-4472-95bd-cea8df96eba2;["container_1_Consume_and_count_1"];5.25;1533811836.47888;78.56;1487.67;3.709151185;10;151
53;paravance-16.rennes.grid5000.fr;thermos-root-devel-WordCountTopology-0-fd569240-e8c4-4bcd-b759-a6577b952411;["topology_master"];5.25;1533811836.36724;6.1;13.49;0.0;9;117
53;paravance-53.rennes.grid5000.fr;thermos-root-devel-WordCountTopology-2-cdd802f3-c6aa-4f64-ab66-67b827bc4bb5;["container_2_Emit_random_words_2"];5.25;1533811836.39611;38.86;404.07;1.169931833;10;149
54;paravance-16.rennes.grid5000.fr;thermos-root-devel-WordCountTopology-0-fd569240-e8c4-4bcd-b759-a6577b952411;["topology_master"];5.25;1533811846.58236;6.2;13.64;0.0;9;117
54;paravance-50.rennes.grid5000.fr;thermos-root-devel-WordCountTopology-1-029985e6-ccc5-4472-95bd-cea8df96eba2;["container_1_Consume_and_count_1"];5.25;1533811846.69549;79.57;1511.06;3.709151185;10;151
54;paravance-53.rennes.grid5000.fr;thermos-root-devel-WordCountTopology-2-cdd802f3-c6aa-4f64-ab66-67b827bc4bb5;["container_2_Emit_random_words_2"];5.25;1533811846.61426;39.44;410.36;1.169931833;10;149
55;paravance-50.rennes.grid5000.fr;thermos-root-devel-WordCountTopology-1-029985e6-ccc5-4472-95bd-cea8df96eba2;["container_1_Consume_and_count_1"];5.25;1533811856.91361;81.13;1534.66;3.709151185;10;151
55;paravance-16.rennes.grid5000.fr;thermos-root-devel-WordCountTopology-0-fd569240-e8c4-4bcd-b759-a6577b952411;["topology_master"];5.25;1533811856.80004;6.22;13.66;0.0;9;117
55;paravance-53.rennes.grid5000.fr;thermos-root-devel-WordCountTopology-2-cdd802f3-c6aa-4f64-ab66-67b827bc4bb5;["container_2_Emit_random_words_2"];5.25;1533811856.83062;39.98;416.66;1.169931833;10;149
56;paravance-50.rennes.grid5000.fr;thermos-root-devel-WordCountTopology-1-029985e6-ccc5-4472-95bd-cea8df96eba2;["container_1_Consume_and_count_1"];5.25;1533811867.12931;82.38;1558.46;3.709228549;10;151
56;paravance-16.rennes.grid5000.fr;thermos-root-devel-WordCountTopology-0-fd569240-e8c4-4bcd-b759-a6577b952411;["topology_master"];5.25;1533811867.01702;6.31;13.79;0.0;9;117
56;paravance-53.rennes.grid5000.fr;thermos-root-devel-WordCountTopology-2-cdd802f3-c6aa-4f64-ab66-67b827bc4bb5;["container_2_Emit_random_words_2"];5.25;1533811867.04836;40.49;421.78;1.169931833;10;149
57;paravance-50.rennes.grid5000.fr;thermos-root-devel-WordCountTopology-1-029985e6-ccc5-4472-95bd-cea8df96eba2;["container_1_Consume_and_count_1"];5.25;1533811877.34624;83.34;1579.54;3.709336934;10;151
57;paravance-16.rennes.grid5000.fr;thermos-root-devel-WordCountTopology-0-fd569240-e8c4-4bcd-b759-a6577b952411;["topology_master"];5.25;1533811877.23315;6.37;13.87;0.0;9;117
57;paravance-53.rennes.grid5000.fr;thermos-root-devel-WordCountTopology-2-cdd802f3-c6aa-4f64-ab66-67b827bc4bb5;["container_2_Emit_random_words_2"];5.25;1533811877.26404;40.99;427.26;1.169931833;10;149
58;paravance-50.rennes.grid5000.fr;thermos-root-devel-WordCountTopology-1-029985e6-ccc5-4472-95bd-cea8df96eba2;["container_1_Consume_and_count_1"];5.25;1533811887.56169;84.3;1602.75;3.713423264;10;151
58;paravance-53.rennes.grid5000.fr;thermos-root-devel-WordCountTopology-2-cdd802f3-c6aa-4f64-ab66-67b827bc4bb5;["container_2_Emit_random_words_2"];5.25;1533811887.47942;41.58;433.68;1.169931833;10;149
58;paravance-16.rennes.grid5000.fr;thermos-root-devel-WordCountTopology-0-fd569240-e8c4-4bcd-b759-a6577b952411;["topology_master"];5.25;1533811887.45048;6.44;13.98;0.0;9;117
59;paravance-50.rennes.grid5000.fr;thermos-root-devel-WordCountTopology-1-029985e6-ccc5-4472-95bd-cea8df96eba2;["container_1_Consume_and_count_1"];5.25;1533811897.77786;85.39;1625.14;3.763470396;10;151
59;paravance-16.rennes.grid5000.fr;thermos-root-devel-WordCountTopology-0-fd569240-e8c4-4bcd-b759-a6577b952411;["topology_master"];5.25;1533811897.66455;6.5;14.06;0.0;9;117
59;paravance-53.rennes.grid5000.fr;thermos-root-devel-WordCountTopology-2-cdd802f3-c6aa-4f64-ab66-67b827bc4bb5;["container_2_Emit_random_words_2"];5.25;1533811897.69422;42.13;439.6;1.169931833;10;149
60;paravance-16.rennes.grid5000.fr;thermos-root-devel-WordCountTopology-0-fd569240-e8c4-4bcd-b759-a6577b952411;["topology_master"];5.25;1533811907.87977;6.6;14.2;0.0;9;117
60;paravance-50.rennes.grid5000.fr;thermos-root-devel-WordCountTopology-1-029985e6-ccc5-4472-95bd-cea8df96eba2;["container_1_Consume_and_count_1"];5.25;1533811907.99439;86.72;1648.34;3.763514697;10;151
60;paravance-53.rennes.grid5000.fr;thermos-root-devel-WordCountTopology-2-cdd802f3-c6aa-4f64-ab66-67b827bc4bb5;["container_2_Emit_random_words_2"];5.25;1533811907.91078;42.74;446.15;1.169931833;10;149
