{
  "status": "success",
  "executiontime": 0.00018310546875,
  "message": "",
  "result": {
    "bolts": {
      "Consume_and_count": [
        "container_1_Consume_and_count_1"
      ]
    },
    "instances": {
      "container_2_Emit_random_words_2": {
        "stmgrId": "stmgr-2",
        "logfile": "http://paravance-53.rennes.grid5000.fr:31426/file/log-files/container_2_Emit_random_words_2.log.0",
        "id": "container_2_Emit_random_words_2",
        "name": "Emit_random_words"
      },
      "container_1_Consume_and_count_1": {
        "stmgrId": "stmgr-1",
        "logfile": "http://paravance-16.rennes.grid5000.fr:31549/file/log-files/container_1_Consume_and_count_1.log.0",
        "id": "container_1_Consume_and_count_1",
        "name": "Consume_and_count"
      }
    },
    "instance_groups": {
      "container_1_Consume_and": [
        "container_1_Consume_and_count_1"
      ],
      "container_2_Emit_random": [
        "container_2_Emit_random_words_2"
      ]
    },
    "spouts": {
      "Emit_random_words": [
        "container_2_Emit_random_words_2"
      ]
    },
    "config": {
      "topology.message.timeout.secs": "30",
      "topology.team.environment": "devel",
      "topology.serializer.classname": "org.apache.heron.streamlet.impl.KryoSerializer",
      "topology.team.name": "root",
      "topology.debug": "false",
      "topology.max.spout.pending": "100",
      "topology.container.padding.percentage": "400",
      "topology.enable.message.timeouts": "true",
      "topology.component.parallelism": "1",
      "topology.name": "WordCountTopology",
      "topology.stmgrs": "2",
      "topology.reliability.mode": "ATMOST_ONCE"
    },
    "stmgrs": {
      "stmgr-1": {
        "cwd": "/var/lib/mesos/slaves/bf877e92-858e-437e-b22d-1459660faac2-S0/frameworks/75deb08a-eb1b-415c-8b2c-e922be5f7d98-0000/executors/thermos-root-devel-WordCountTopology-1-abb93a35-6536-465c-a0af-9d3815ccfed1/runs/a95ccb4c-84bc-4f3c-87cb-ba40f6f2c675/sandbox",
        "host": "paravance-16.rennes.grid5000.fr",
        "joburl": "http://paravance-16.rennes.grid5000.fr:31549/browse/",
        "shell_port": 31549,
        "logfiles": "http://paravance-16.rennes.grid5000.fr:31549/browse/log-files",
        "pid": 2104,
        "id": "stmgr-1",
        "instance_ids": [
          "container_1_Consume_and_count_1"
        ],
        "port": 31709
      },
      "stmgr-2": {
        "cwd": "/var/lib/mesos/slaves/bf877e92-858e-437e-b22d-1459660faac2-S2/frameworks/75deb08a-eb1b-415c-8b2c-e922be5f7d98-0000/executors/thermos-root-devel-WordCountTopology-2-fc2b03e7-119e-410c-a74b-0a6707233133/runs/c3482cba-5526-4089-a7b2-bd7179f0818a/sandbox",
        "host": "paravance-53.rennes.grid5000.fr",
        "joburl": "http://paravance-53.rennes.grid5000.fr:31426/browse/",
        "shell_port": 31426,
        "logfiles": "http://paravance-53.rennes.grid5000.fr:31426/browse/log-files",
        "pid": 2204,
        "id": "stmgr-2",
        "instance_ids": [
          "container_2_Emit_random_words_2"
        ],
        "port": 31235
      }
    }
  },
  "tracker_version": "0.17.8-61-gd7c8c62"
}