mesure_id;slave_id;executor_id;heron_instances;cpus_limit;timestamp_A;cpus_system_time_secs_A;cpus_user_time_secs_A;cpus_throttled_time_secs_A;processes;threads
0;paravance-56.rennes.grid5000.fr;thermos-root-devel-WordCountTopology-1-6b385aa9-0c37-4d6a-becb-594ef71ceb14;["container_1_Consume_and_count_1"];4.25;1533764471.06824;48.29;230.66;3.447999338;10;151
0;paravance-66.rennes.grid5000.fr;thermos-root-devel-WordCountTopology-0-9f434165-c029-4b08-b648-9fec7ca183e6;["topology_master"];4.25;1533764470.97901;2.35;7.74;0.013764792;9;117
0;paravance-68.rennes.grid5000.fr;thermos-root-devel-WordCountTopology-2-4bd74953-f8e2-432f-aa83-348c67715451;["container_2_Emit_random_words_2"];4.25;1533764471.04098;20.55;182.07;3.222820821;10;149
1;paravance-68.rennes.grid5000.fr;thermos-root-devel-WordCountTopology-2-4bd74953-f8e2-432f-aa83-348c67715451;["container_2_Emit_random_words_2"];4.25;1533764481.15707;22.58;202.27;3.222820821;10;149
1;paravance-56.rennes.grid5000.fr;thermos-root-devel-WordCountTopology-1-6b385aa9-0c37-4d6a-becb-594ef71ceb14;["container_1_Consume_and_count_1"];4.25;1533764481.28451;53.68;256.0;3.447999338;10;151
1;paravance-66.rennes.grid5000.fr;thermos-root-devel-WordCountTopology-0-9f434165-c029-4b08-b648-9fec7ca183e6;["topology_master"];4.25;1533764481.19642;2.42;7.88;0.013764792;9;117
2;paravance-56.rennes.grid5000.fr;thermos-root-devel-WordCountTopology-1-6b385aa9-0c37-4d6a-becb-594ef71ceb14;["container_1_Consume_and_count_1"];4.25;1533764491.50059;59.13;281.23;3.447999338;10;151
2;paravance-68.rennes.grid5000.fr;thermos-root-devel-WordCountTopology-2-4bd74953-f8e2-432f-aa83-348c67715451;["container_2_Emit_random_words_2"];4.25;1533764491.4725;24.71;222.7;3.222820821;10;149
2;paravance-66.rennes.grid5000.fr;thermos-root-devel-WordCountTopology-0-9f434165-c029-4b08-b648-9fec7ca183e6;["topology_master"];4.25;1533764491.41192;2.51;8.01;0.013764792;9;117
3;paravance-66.rennes.grid5000.fr;thermos-root-devel-WordCountTopology-0-9f434165-c029-4b08-b648-9fec7ca183e6;["topology_master"];4.25;1533764501.52623;2.57;8.11;0.013764792;9;117
3;paravance-56.rennes.grid5000.fr;thermos-root-devel-WordCountTopology-1-6b385aa9-0c37-4d6a-becb-594ef71ceb14;["container_1_Consume_and_count_1"];4.25;1533764501.71614;64.36;305.5;3.447999338;10;151
3;paravance-68.rennes.grid5000.fr;thermos-root-devel-WordCountTopology-2-4bd74953-f8e2-432f-aa83-348c67715451;["container_2_Emit_random_words_2"];4.25;1533764501.68769;26.84;242.22;3.222820821;10;149
4;paravance-68.rennes.grid5000.fr;thermos-root-devel-WordCountTopology-2-4bd74953-f8e2-432f-aa83-348c67715451;["container_2_Emit_random_words_2"];4.25;1533764511.90365;28.9;262.02;3.222820821;10;149
4;paravance-66.rennes.grid5000.fr;thermos-root-devel-WordCountTopology-0-9f434165-c029-4b08-b648-9fec7ca183e6;["topology_master"];4.25;1533764511.84277;2.63;8.18;0.013764792;9;117
4;paravance-56.rennes.grid5000.fr;thermos-root-devel-WordCountTopology-1-6b385aa9-0c37-4d6a-becb-594ef71ceb14;["container_1_Consume_and_count_1"];4.25;1533764511.93286;69.49;330.05;3.511293961;10;151
5;paravance-66.rennes.grid5000.fr;thermos-root-devel-WordCountTopology-0-9f434165-c029-4b08-b648-9fec7ca183e6;["topology_master"];4.25;1533764522.05947;2.68;8.25;0.013764792;9;117
5;paravance-68.rennes.grid5000.fr;thermos-root-devel-WordCountTopology-2-4bd74953-f8e2-432f-aa83-348c67715451;["container_2_Emit_random_words_2"];4.25;1533764522.12217;31.02;281.71;3.222820821;10;149
5;paravance-56.rennes.grid5000.fr;thermos-root-devel-WordCountTopology-1-6b385aa9-0c37-4d6a-becb-594ef71ceb14;["container_1_Consume_and_count_1"];4.25;1533764522.15081;74.63;354.18;3.511293961;10;151
6;paravance-56.rennes.grid5000.fr;thermos-root-devel-WordCountTopology-1-6b385aa9-0c37-4d6a-becb-594ef71ceb14;["container_1_Consume_and_count_1"];4.25;1533764532.36599;79.93;379.37;3.624639554;10;151
6;paravance-66.rennes.grid5000.fr;thermos-root-devel-WordCountTopology-0-9f434165-c029-4b08-b648-9fec7ca183e6;["topology_master"];4.25;1533764532.2772;2.81;8.45;0.013764792;9;117
6;paravance-68.rennes.grid5000.fr;thermos-root-devel-WordCountTopology-2-4bd74953-f8e2-432f-aa83-348c67715451;["container_2_Emit_random_words_2"];4.25;1533764532.33793;33.23;301.71;3.222820821;10;149
7;paravance-68.rennes.grid5000.fr;thermos-root-devel-WordCountTopology-2-4bd74953-f8e2-432f-aa83-348c67715451;["container_2_Emit_random_words_2"];4.25;1533764542.55481;35.24;321.59;3.222820821;10;149
7;paravance-56.rennes.grid5000.fr;thermos-root-devel-WordCountTopology-1-6b385aa9-0c37-4d6a-becb-594ef71ceb14;["container_1_Consume_and_count_1"];4.25;1533764542.58391;85.31;404.97;3.624639554;10;151
7;paravance-66.rennes.grid5000.fr;thermos-root-devel-WordCountTopology-0-9f434165-c029-4b08-b648-9fec7ca183e6;["topology_master"];4.25;1533764542.49453;2.84;8.48;0.013764792;9;117
8;paravance-56.rennes.grid5000.fr;thermos-root-devel-WordCountTopology-1-6b385aa9-0c37-4d6a-becb-594ef71ceb14;["container_1_Consume_and_count_1"];4.25;1533764552.79977;90.69;431.86;3.624639554;10;151
8;paravance-68.rennes.grid5000.fr;thermos-root-devel-WordCountTopology-2-4bd74953-f8e2-432f-aa83-348c67715451;["container_2_Emit_random_words_2"];4.25;1533764552.77088;37.31;341.35;3.222820821;10;149
8;paravance-66.rennes.grid5000.fr;thermos-root-devel-WordCountTopology-0-9f434165-c029-4b08-b648-9fec7ca183e6;["topology_master"];4.25;1533764552.71014;2.92;8.61;0.013764792;9;117
9;paravance-56.rennes.grid5000.fr;thermos-root-devel-WordCountTopology-1-6b385aa9-0c37-4d6a-becb-594ef71ceb14;["container_1_Consume_and_count_1"];4.25;1533764563.01565;95.9;457.76;3.624639554;10;151
9;paravance-68.rennes.grid5000.fr;thermos-root-devel-WordCountTopology-2-4bd74953-f8e2-432f-aa83-348c67715451;["container_2_Emit_random_words_2"];4.25;1533764562.9879;39.5;361.88;3.222820821;10;149
9;paravance-66.rennes.grid5000.fr;thermos-root-devel-WordCountTopology-0-9f434165-c029-4b08-b648-9fec7ca183e6;["topology_master"];4.25;1533764562.92735;2.98;8.69;0.013764792;9;117
10;paravance-56.rennes.grid5000.fr;thermos-root-devel-WordCountTopology-1-6b385aa9-0c37-4d6a-becb-594ef71ceb14;["container_1_Consume_and_count_1"];4.25;1533764573.23286;101.47;483.21;3.624639554;10;151
10;paravance-66.rennes.grid5000.fr;thermos-root-devel-WordCountTopology-0-9f434165-c029-4b08-b648-9fec7ca183e6;["topology_master"];4.25;1533764573.14328;3.04;8.76;0.013764792;9;117
10;paravance-68.rennes.grid5000.fr;thermos-root-devel-WordCountTopology-2-4bd74953-f8e2-432f-aa83-348c67715451;["container_2_Emit_random_words_2"];4.25;1533764573.20508;41.72;381.33;3.222820821;10;149
11;paravance-68.rennes.grid5000.fr;thermos-root-devel-WordCountTopology-2-4bd74953-f8e2-432f-aa83-348c67715451;["container_2_Emit_random_words_2"];4.25;1533764583.42067;43.88;400.69;3.222820821;10;149
11;paravance-56.rennes.grid5000.fr;thermos-root-devel-WordCountTopology-1-6b385aa9-0c37-4d6a-becb-594ef71ceb14;["container_1_Consume_and_count_1"];4.25;1533764583.45008;106.97;510.98;3.624639554;10;151
11;paravance-66.rennes.grid5000.fr;thermos-root-devel-WordCountTopology-0-9f434165-c029-4b08-b648-9fec7ca183e6;["topology_master"];4.25;1533764583.36086;3.1;8.83;0.013764792;9;117
12;paravance-56.rennes.grid5000.fr;thermos-root-devel-WordCountTopology-1-6b385aa9-0c37-4d6a-becb-594ef71ceb14;["container_1_Consume_and_count_1"];4.25;1533764593.66653;112.3;537.39;3.641943272;10;151
12;paravance-68.rennes.grid5000.fr;thermos-root-devel-WordCountTopology-2-4bd74953-f8e2-432f-aa83-348c67715451;["container_2_Emit_random_words_2"];4.25;1533764593.63714;46.15;421.18;3.222820821;10;149
12;paravance-66.rennes.grid5000.fr;thermos-root-devel-WordCountTopology-0-9f434165-c029-4b08-b648-9fec7ca183e6;["topology_master"];4.25;1533764593.57839;3.22;9.1;0.013764792;9;117
13;paravance-68.rennes.grid5000.fr;thermos-root-devel-WordCountTopology-2-4bd74953-f8e2-432f-aa83-348c67715451;["container_2_Emit_random_words_2"];4.25;1533764603.75345;48.24;440.14;3.222820821;10;149
13;paravance-66.rennes.grid5000.fr;thermos-root-devel-WordCountTopology-0-9f434165-c029-4b08-b648-9fec7ca183e6;["topology_master"];4.25;1533764603.6946;3.24;9.13;0.013764792;9;117
13;paravance-56.rennes.grid5000.fr;thermos-root-devel-WordCountTopology-1-6b385aa9-0c37-4d6a-becb-594ef71ceb14;["container_1_Consume_and_count_1"];4.25;1533764603.8804;118.14;567.77;4.043206616;10;151
14;paravance-56.rennes.grid5000.fr;thermos-root-devel-WordCountTopology-1-6b385aa9-0c37-4d6a-becb-594ef71ceb14;["container_1_Consume_and_count_1"];4.25;1533764614.09478;121.96;600.83;5.635435506;10;151
14;paravance-66.rennes.grid5000.fr;thermos-root-devel-WordCountTopology-0-9f434165-c029-4b08-b648-9fec7ca183e6;["topology_master"];4.25;1533764614.00549;3.33;9.28;0.013764792;9;117
14;paravance-68.rennes.grid5000.fr;thermos-root-devel-WordCountTopology-2-4bd74953-f8e2-432f-aa83-348c67715451;["container_2_Emit_random_words_2"];4.25;1533764614.06594;49.87;453.85;3.222820821;10;149
15;paravance-68.rennes.grid5000.fr;thermos-root-devel-WordCountTopology-2-4bd74953-f8e2-432f-aa83-348c67715451;["container_2_Emit_random_words_2"];4.25;1533764624.28331;51.93;472.39;3.222820821;10;149
15;paravance-66.rennes.grid5000.fr;thermos-root-devel-WordCountTopology-0-9f434165-c029-4b08-b648-9fec7ca183e6;["topology_master"];4.25;1533764624.22389;3.38;9.35;0.013764792;9;117
15;paravance-56.rennes.grid5000.fr;thermos-root-devel-WordCountTopology-1-6b385aa9-0c37-4d6a-becb-594ef71ceb14;["container_1_Consume_and_count_1"];4.25;1533764624.31176;126.9;633.8;6.944306465;10;151
16;paravance-66.rennes.grid5000.fr;thermos-root-devel-WordCountTopology-0-9f434165-c029-4b08-b648-9fec7ca183e6;["topology_master"];4.25;1533764634.44151;3.44;9.44;0.013764792;9;117
16;paravance-56.rennes.grid5000.fr;thermos-root-devel-WordCountTopology-1-6b385aa9-0c37-4d6a-becb-594ef71ceb14;["container_1_Consume_and_count_1"];4.25;1533764634.53147;132.4;663.02;6.974443322;10;151
16;paravance-68.rennes.grid5000.fr;thermos-root-devel-WordCountTopology-2-4bd74953-f8e2-432f-aa83-348c67715451;["container_2_Emit_random_words_2"];4.25;1533764634.50381;54.09;491.77;3.222820821;10;149
17;paravance-68.rennes.grid5000.fr;thermos-root-devel-WordCountTopology-2-4bd74953-f8e2-432f-aa83-348c67715451;["container_2_Emit_random_words_2"];4.25;1533764644.71923;56.14;511.12;3.222820821;10;149
17;paravance-66.rennes.grid5000.fr;thermos-root-devel-WordCountTopology-0-9f434165-c029-4b08-b648-9fec7ca183e6;["topology_master"];4.25;1533764644.6598;3.5;9.51;0.013764792;9;117
17;paravance-56.rennes.grid5000.fr;thermos-root-devel-WordCountTopology-1-6b385aa9-0c37-4d6a-becb-594ef71ceb14;["container_1_Consume_and_count_1"];4.25;1533764644.74992;137.88;691.95;6.974497467;10;151
18;paravance-56.rennes.grid5000.fr;thermos-root-devel-WordCountTopology-1-6b385aa9-0c37-4d6a-becb-594ef71ceb14;["container_1_Consume_and_count_1"];4.25;1533764654.96528;143.25;720.43;7.000118855;10;151
18;paravance-66.rennes.grid5000.fr;thermos-root-devel-WordCountTopology-0-9f434165-c029-4b08-b648-9fec7ca183e6;["topology_master"];4.25;1533764654.87626;3.61;9.74;0.013764792;9;117
18;paravance-68.rennes.grid5000.fr;thermos-root-devel-WordCountTopology-2-4bd74953-f8e2-432f-aa83-348c67715451;["container_2_Emit_random_words_2"];4.25;1533764654.93739;58.31;530.53;3.222820821;10;149
19;paravance-68.rennes.grid5000.fr;thermos-root-devel-WordCountTopology-2-4bd74953-f8e2-432f-aa83-348c67715451;["container_2_Emit_random_words_2"];4.25;1533764665.15433;60.39;549.55;3.222820821;10;149
19;paravance-66.rennes.grid5000.fr;thermos-root-devel-WordCountTopology-0-9f434165-c029-4b08-b648-9fec7ca183e6;["topology_master"];4.25;1533764665.09415;3.64;9.77;0.013764792;9;117
19;paravance-56.rennes.grid5000.fr;thermos-root-devel-WordCountTopology-1-6b385aa9-0c37-4d6a-becb-594ef71ceb14;["container_1_Consume_and_count_1"];4.25;1533764665.18334;148.15;747.24;7.000118855;10;151
20;paravance-56.rennes.grid5000.fr;thermos-root-devel-WordCountTopology-1-6b385aa9-0c37-4d6a-becb-594ef71ceb14;["container_1_Consume_and_count_1"];4.25;1533764675.40307;153.11;772.23;7.000118855;10;151
20;paravance-68.rennes.grid5000.fr;thermos-root-devel-WordCountTopology-2-4bd74953-f8e2-432f-aa83-348c67715451;["container_2_Emit_random_words_2"];4.25;1533764675.37359;62.48;568.85;3.222820821;10;149
20;paravance-66.rennes.grid5000.fr;thermos-root-devel-WordCountTopology-0-9f434165-c029-4b08-b648-9fec7ca183e6;["topology_master"];4.25;1533764675.31348;3.73;9.9;0.013764792;9;117
21;paravance-66.rennes.grid5000.fr;thermos-root-devel-WordCountTopology-0-9f434165-c029-4b08-b648-9fec7ca183e6;["topology_master"];4.25;1533764685.52976;3.78;9.97;0.013764792;9;117
21;paravance-56.rennes.grid5000.fr;thermos-root-devel-WordCountTopology-1-6b385aa9-0c37-4d6a-becb-594ef71ceb14;["container_1_Consume_and_count_1"];4.25;1533764685.61993;158.61;801.27;7.000118855;10;151
21;paravance-68.rennes.grid5000.fr;thermos-root-devel-WordCountTopology-2-4bd74953-f8e2-432f-aa83-348c67715451;["container_2_Emit_random_words_2"];4.25;1533764685.59062;64.57;588.14;3.222820821;10;149
22;paravance-66.rennes.grid5000.fr;thermos-root-devel-WordCountTopology-0-9f434165-c029-4b08-b648-9fec7ca183e6;["topology_master"];4.25;1533764695.64627;3.84;10.04;0.013764792;9;117
22;paravance-56.rennes.grid5000.fr;thermos-root-devel-WordCountTopology-1-6b385aa9-0c37-4d6a-becb-594ef71ceb14;["container_1_Consume_and_count_1"];4.25;1533764695.83581;164.0;828.8;7.000118855;10;151
22;paravance-68.rennes.grid5000.fr;thermos-root-devel-WordCountTopology-2-4bd74953-f8e2-432f-aa83-348c67715451;["container_2_Emit_random_words_2"];4.25;1533764695.80696;66.64;607.55;3.222820821;10;149
23;paravance-68.rennes.grid5000.fr;thermos-root-devel-WordCountTopology-2-4bd74953-f8e2-432f-aa83-348c67715451;["container_2_Emit_random_words_2"];4.25;1533764706.02142;68.75;626.95;3.222820821;10;149
23;paravance-66.rennes.grid5000.fr;thermos-root-devel-WordCountTopology-0-9f434165-c029-4b08-b648-9fec7ca183e6;["topology_master"];4.25;1533764705.96066;3.9;10.11;0.013764792;9;117
23;paravance-56.rennes.grid5000.fr;thermos-root-devel-WordCountTopology-1-6b385aa9-0c37-4d6a-becb-594ef71ceb14;["container_1_Consume_and_count_1"];4.25;1533764706.04815;169.32;854.25;7.000118855;10;151
24;paravance-66.rennes.grid5000.fr;thermos-root-devel-WordCountTopology-0-9f434165-c029-4b08-b648-9fec7ca183e6;["topology_master"];4.25;1533764716.18121;4.0;10.27;0.013764792;9;117
24;paravance-68.rennes.grid5000.fr;thermos-root-devel-WordCountTopology-2-4bd74953-f8e2-432f-aa83-348c67715451;["container_2_Emit_random_words_2"];4.25;1533764716.24118;70.86;646.51;3.222820821;10;149
24;paravance-56.rennes.grid5000.fr;thermos-root-devel-WordCountTopology-1-6b385aa9-0c37-4d6a-becb-594ef71ceb14;["container_1_Consume_and_count_1"];4.25;1533764716.26984;174.75;880.78;7.000118855;10;151
25;paravance-56.rennes.grid5000.fr;thermos-root-devel-WordCountTopology-1-6b385aa9-0c37-4d6a-becb-594ef71ceb14;["container_1_Consume_and_count_1"];4.25;1533764726.48678;179.89;907.52;7.000118855;10;151
25;paravance-68.rennes.grid5000.fr;thermos-root-devel-WordCountTopology-2-4bd74953-f8e2-432f-aa83-348c67715451;["container_2_Emit_random_words_2"];4.25;1533764726.45925;72.86;665.75;3.222820821;10;149
25;paravance-66.rennes.grid5000.fr;thermos-root-devel-WordCountTopology-0-9f434165-c029-4b08-b648-9fec7ca183e6;["topology_master"];4.25;1533764726.39966;4.03;10.29;0.013764792;9;117
26;paravance-68.rennes.grid5000.fr;thermos-root-devel-WordCountTopology-2-4bd74953-f8e2-432f-aa83-348c67715451;["container_2_Emit_random_words_2"];4.25;1533764736.67416;74.99;685.14;3.222820821;10;149
26;paravance-56.rennes.grid5000.fr;thermos-root-devel-WordCountTopology-1-6b385aa9-0c37-4d6a-becb-594ef71ceb14;["container_1_Consume_and_count_1"];4.25;1533764736.70436;185.34;935.31;7.055708514;10;151
26;paravance-66.rennes.grid5000.fr;thermos-root-devel-WordCountTopology-0-9f434165-c029-4b08-b648-9fec7ca183e6;["topology_master"];4.25;1533764736.61395;4.11;10.42;0.013764792;9;117
27;paravance-68.rennes.grid5000.fr;thermos-root-devel-WordCountTopology-2-4bd74953-f8e2-432f-aa83-348c67715451;["container_2_Emit_random_words_2"];4.25;1533764746.8914;77.18;704.62;3.222820821;10;149
27;paravance-66.rennes.grid5000.fr;thermos-root-devel-WordCountTopology-0-9f434165-c029-4b08-b648-9fec7ca183e6;["topology_master"];4.25;1533764746.83188;4.17;10.49;0.013764792;9;117
27;paravance-56.rennes.grid5000.fr;thermos-root-devel-WordCountTopology-1-6b385aa9-0c37-4d6a-becb-594ef71ceb14;["container_1_Consume_and_count_1"];4.25;1533764746.92163;190.96;963.1;7.068085742;10;151
28;paravance-56.rennes.grid5000.fr;thermos-root-devel-WordCountTopology-1-6b385aa9-0c37-4d6a-becb-594ef71ceb14;["container_1_Consume_and_count_1"];4.25;1533764757.13865;196.51;990.48;7.068085742;10;151
28;paravance-68.rennes.grid5000.fr;thermos-root-devel-WordCountTopology-2-4bd74953-f8e2-432f-aa83-348c67715451;["container_2_Emit_random_words_2"];4.25;1533764757.11044;79.26;724.17;3.222820821;10;149
28;paravance-66.rennes.grid5000.fr;thermos-root-devel-WordCountTopology-0-9f434165-c029-4b08-b648-9fec7ca183e6;["topology_master"];4.25;1533764757.04985;4.23;10.56;0.013764792;9;117
29;paravance-56.rennes.grid5000.fr;thermos-root-devel-WordCountTopology-1-6b385aa9-0c37-4d6a-becb-594ef71ceb14;["container_1_Consume_and_count_1"];4.25;1533764767.35771;201.6;1017.51;7.068085742;10;151
29;paravance-68.rennes.grid5000.fr;thermos-root-devel-WordCountTopology-2-4bd74953-f8e2-432f-aa83-348c67715451;["container_2_Emit_random_words_2"];4.25;1533764767.32867;81.31;743.21;3.222820821;10;149
29;paravance-66.rennes.grid5000.fr;thermos-root-devel-WordCountTopology-0-9f434165-c029-4b08-b648-9fec7ca183e6;["topology_master"];4.25;1533764767.2678;4.33;10.7;0.013764792;9;117
30;paravance-56.rennes.grid5000.fr;thermos-root-devel-WordCountTopology-1-6b385aa9-0c37-4d6a-becb-594ef71ceb14;["container_1_Consume_and_count_1"];4.25;1533764777.57629;207.18;1044.37;7.068085742;10;151
30;paravance-68.rennes.grid5000.fr;thermos-root-devel-WordCountTopology-2-4bd74953-f8e2-432f-aa83-348c67715451;["container_2_Emit_random_words_2"];4.25;1533764777.54722;83.48;762.6;3.222820821;10;149
30;paravance-66.rennes.grid5000.fr;thermos-root-devel-WordCountTopology-0-9f434165-c029-4b08-b648-9fec7ca183e6;["topology_master"];4.25;1533764777.48599;4.39;10.83;0.013764792;9;117
31;paravance-56.rennes.grid5000.fr;thermos-root-devel-WordCountTopology-1-6b385aa9-0c37-4d6a-becb-594ef71ceb14;["container_1_Consume_and_count_1"];4.25;1533764787.68996;212.42;1070.15;7.068085742;10;151
31;paravance-68.rennes.grid5000.fr;thermos-root-devel-WordCountTopology-2-4bd74953-f8e2-432f-aa83-348c67715451;["container_2_Emit_random_words_2"];4.25;1533764787.76174;85.53;781.71;3.222820821;10;149
31;paravance-66.rennes.grid5000.fr;thermos-root-devel-WordCountTopology-0-9f434165-c029-4b08-b648-9fec7ca183e6;["topology_master"];4.25;1533764787.70106;4.45;10.91;0.013764792;9;117
32;paravance-66.rennes.grid5000.fr;thermos-root-devel-WordCountTopology-0-9f434165-c029-4b08-b648-9fec7ca183e6;["topology_master"];4.25;1533764797.91616;4.51;10.98;0.013764792;9;117
32;paravance-56.rennes.grid5000.fr;thermos-root-devel-WordCountTopology-1-6b385aa9-0c37-4d6a-becb-594ef71ceb14;["container_1_Consume_and_count_1"];4.25;1533764798.00572;217.89;1097.81;7.0681054;10;151
32;paravance-68.rennes.grid5000.fr;thermos-root-devel-WordCountTopology-2-4bd74953-f8e2-432f-aa83-348c67715451;["container_2_Emit_random_words_2"];4.25;1533764797.97726;87.72;801.09;3.222820821;10;149
33;paravance-56.rennes.grid5000.fr;thermos-root-devel-WordCountTopology-1-6b385aa9-0c37-4d6a-becb-594ef71ceb14;["container_1_Consume_and_count_1"];4.25;1533764808.22316;223.44;1125.16;7.0681054;10;151
33;paravance-66.rennes.grid5000.fr;thermos-root-devel-WordCountTopology-0-9f434165-c029-4b08-b648-9fec7ca183e6;["topology_master"];4.25;1533764808.13339;4.59;11.1;0.013764792;9;117
33;paravance-68.rennes.grid5000.fr;thermos-root-devel-WordCountTopology-2-4bd74953-f8e2-432f-aa83-348c67715451;["container_2_Emit_random_words_2"];4.25;1533764808.19479;89.93;820.56;3.222820821;10;149
34;paravance-68.rennes.grid5000.fr;thermos-root-devel-WordCountTopology-2-4bd74953-f8e2-432f-aa83-348c67715451;["container_2_Emit_random_words_2"];4.25;1533764818.4121;91.94;839.84;3.222820821;10;149
34;paravance-66.rennes.grid5000.fr;thermos-root-devel-WordCountTopology-0-9f434165-c029-4b08-b648-9fec7ca183e6;["topology_master"];4.25;1533764818.35243;4.65;11.17;0.013764792;9;117
34;paravance-56.rennes.grid5000.fr;thermos-root-devel-WordCountTopology-1-6b385aa9-0c37-4d6a-becb-594ef71ceb14;["container_1_Consume_and_count_1"];4.25;1533764818.44113;228.5;1150.48;7.0681054;10;151
35;paravance-56.rennes.grid5000.fr;thermos-root-devel-WordCountTopology-1-6b385aa9-0c37-4d6a-becb-594ef71ceb14;["container_1_Consume_and_count_1"];4.25;1533764828.6587;233.74;1177.06;7.095283761;10;151
35;paravance-66.rennes.grid5000.fr;thermos-root-devel-WordCountTopology-0-9f434165-c029-4b08-b648-9fec7ca183e6;["topology_master"];4.25;1533764828.57003;4.72;11.26;0.013764792;9;117
35;paravance-68.rennes.grid5000.fr;thermos-root-devel-WordCountTopology-2-4bd74953-f8e2-432f-aa83-348c67715451;["container_2_Emit_random_words_2"];4.25;1533764828.63058;94.03;859.11;3.222820821;10;149
36;paravance-56.rennes.grid5000.fr;thermos-root-devel-WordCountTopology-1-6b385aa9-0c37-4d6a-becb-594ef71ceb14;["container_1_Consume_and_count_1"];4.25;1533764838.87807;239.45;1204.0;7.095283761;10;151
36;paravance-68.rennes.grid5000.fr;thermos-root-devel-WordCountTopology-2-4bd74953-f8e2-432f-aa83-348c67715451;["container_2_Emit_random_words_2"];4.25;1533764838.84906;96.12;878.75;3.222820821;10;149
36;paravance-66.rennes.grid5000.fr;thermos-root-devel-WordCountTopology-0-9f434165-c029-4b08-b648-9fec7ca183e6;["topology_master"];4.25;1533764838.7887;4.78;11.39;0.013764792;9;117
37;paravance-68.rennes.grid5000.fr;thermos-root-devel-WordCountTopology-2-4bd74953-f8e2-432f-aa83-348c67715451;["container_2_Emit_random_words_2"];4.25;1533764849.0657;98.19;898.2;3.222820821;10;149
37;paravance-66.rennes.grid5000.fr;thermos-root-devel-WordCountTopology-0-9f434165-c029-4b08-b648-9fec7ca183e6;["topology_master"];4.25;1533764849.00503;4.86;11.5;0.013764792;9;117
37;paravance-56.rennes.grid5000.fr;thermos-root-devel-WordCountTopology-1-6b385aa9-0c37-4d6a-becb-594ef71ceb14;["container_1_Consume_and_count_1"];4.25;1533764849.09536;244.92;1230.7;7.095283761;10;151
38;paravance-68.rennes.grid5000.fr;thermos-root-devel-WordCountTopology-2-4bd74953-f8e2-432f-aa83-348c67715451;["container_2_Emit_random_words_2"];4.25;1533764859.28057;100.24;917.69;3.222820821;10;149
38;paravance-56.rennes.grid5000.fr;thermos-root-devel-WordCountTopology-1-6b385aa9-0c37-4d6a-becb-594ef71ceb14;["container_1_Consume_and_count_1"];4.25;1533764859.31063;250.43;1257.33;7.095283761;10;151
38;paravance-66.rennes.grid5000.fr;thermos-root-devel-WordCountTopology-0-9f434165-c029-4b08-b648-9fec7ca183e6;["topology_master"];4.25;1533764859.22136;4.89;11.53;0.013764792;9;117
39;paravance-56.rennes.grid5000.fr;thermos-root-devel-WordCountTopology-1-6b385aa9-0c37-4d6a-becb-594ef71ceb14;["container_1_Consume_and_count_1"];4.25;1533764869.52791;255.97;1283.87;7.095283761;10;151
39;paravance-68.rennes.grid5000.fr;thermos-root-devel-WordCountTopology-2-4bd74953-f8e2-432f-aa83-348c67715451;["container_2_Emit_random_words_2"];4.25;1533764869.49911;102.4;937.17;3.222820821;10;149
39;paravance-66.rennes.grid5000.fr;thermos-root-devel-WordCountTopology-0-9f434165-c029-4b08-b648-9fec7ca183e6;["topology_master"];4.25;1533764869.43819;4.98;11.65;0.013764792;9;117
40;paravance-68.rennes.grid5000.fr;thermos-root-devel-WordCountTopology-2-4bd74953-f8e2-432f-aa83-348c67715451;["container_2_Emit_random_words_2"];4.25;1533764879.71613;104.44;956.36;3.222820821;10;149
40;paravance-66.rennes.grid5000.fr;thermos-root-devel-WordCountTopology-0-9f434165-c029-4b08-b648-9fec7ca183e6;["topology_master"];4.25;1533764879.65598;5.04;11.72;0.013764792;9;117
40;paravance-56.rennes.grid5000.fr;thermos-root-devel-WordCountTopology-1-6b385aa9-0c37-4d6a-becb-594ef71ceb14;["container_1_Consume_and_count_1"];4.25;1533764879.74664;261.03;1309.3;7.095283761;10;151
41;paravance-56.rennes.grid5000.fr;thermos-root-devel-WordCountTopology-1-6b385aa9-0c37-4d6a-becb-594ef71ceb14;["container_1_Consume_and_count_1"];4.25;1533764889.96272;266.23;1335.43;7.10577545;10;151
41;paravance-68.rennes.grid5000.fr;thermos-root-devel-WordCountTopology-2-4bd74953-f8e2-432f-aa83-348c67715451;["container_2_Emit_random_words_2"];4.25;1533764889.93431;106.58;975.64;3.222820821;10;149
41;paravance-66.rennes.grid5000.fr;thermos-root-devel-WordCountTopology-0-9f434165-c029-4b08-b648-9fec7ca183e6;["topology_master"];4.25;1533764889.8741;5.11;11.8;0.013764792;9;117
42;paravance-68.rennes.grid5000.fr;thermos-root-devel-WordCountTopology-2-4bd74953-f8e2-432f-aa83-348c67715451;["container_2_Emit_random_words_2"];4.25;1533764900.15096;108.69;995.01;3.222820821;10;149
42;paravance-66.rennes.grid5000.fr;thermos-root-devel-WordCountTopology-0-9f434165-c029-4b08-b648-9fec7ca183e6;["topology_master"];4.25;1533764900.09141;5.17;11.94;0.013764792;9;117
42;paravance-56.rennes.grid5000.fr;thermos-root-devel-WordCountTopology-1-6b385aa9-0c37-4d6a-becb-594ef71ceb14;["container_1_Consume_and_count_1"];4.25;1533764900.18061;271.31;1362.06;7.10577545;10;151
43;paravance-68.rennes.grid5000.fr;thermos-root-devel-WordCountTopology-2-4bd74953-f8e2-432f-aa83-348c67715451;["container_2_Emit_random_words_2"];4.25;1533764910.36734;110.79;1014.07;3.222820821;10;149
43;paravance-56.rennes.grid5000.fr;thermos-root-devel-WordCountTopology-1-6b385aa9-0c37-4d6a-becb-594ef71ceb14;["container_1_Consume_and_count_1"];4.25;1533764910.39703;276.3;1387.54;7.10577545;10;151
43;paravance-66.rennes.grid5000.fr;thermos-root-devel-WordCountTopology-0-9f434165-c029-4b08-b648-9fec7ca183e6;["topology_master"];4.25;1533764910.30788;5.26;12.06;0.013764792;9;117
44;paravance-68.rennes.grid5000.fr;thermos-root-devel-WordCountTopology-2-4bd74953-f8e2-432f-aa83-348c67715451;["container_2_Emit_random_words_2"];4.25;1533764920.58674;112.77;1032.89;3.222820821;10;149
44;paravance-66.rennes.grid5000.fr;thermos-root-devel-WordCountTopology-0-9f434165-c029-4b08-b648-9fec7ca183e6;["topology_master"];4.25;1533764920.5255;5.28;12.09;0.013764792;9;117
44;paravance-56.rennes.grid5000.fr;thermos-root-devel-WordCountTopology-1-6b385aa9-0c37-4d6a-becb-594ef71ceb14;["container_1_Consume_and_count_1"];4.25;1533764920.61522;281.26;1413.02;7.10577545;10;151
45;paravance-66.rennes.grid5000.fr;thermos-root-devel-WordCountTopology-0-9f434165-c029-4b08-b648-9fec7ca183e6;["topology_master"];4.25;1533764930.74548;5.36;12.21;0.013764792;9;117
45;paravance-68.rennes.grid5000.fr;thermos-root-devel-WordCountTopology-2-4bd74953-f8e2-432f-aa83-348c67715451;["container_2_Emit_random_words_2"];4.25;1533764930.80571;114.87;1052.36;3.222820821;10;149
45;paravance-56.rennes.grid5000.fr;thermos-root-devel-WordCountTopology-1-6b385aa9-0c37-4d6a-becb-594ef71ceb14;["container_1_Consume_and_count_1"];4.25;1533764930.83594;286.33;1439.09;7.10577545;10;151
46;paravance-68.rennes.grid5000.fr;thermos-root-devel-WordCountTopology-2-4bd74953-f8e2-432f-aa83-348c67715451;["container_2_Emit_random_words_2"];4.25;1533764941.02272;116.94;1071.76;3.222820821;10;149
46;paravance-66.rennes.grid5000.fr;thermos-root-devel-WordCountTopology-0-9f434165-c029-4b08-b648-9fec7ca183e6;["topology_master"];4.25;1533764940.96424;5.42;12.28;0.013764792;9;117
46;paravance-56.rennes.grid5000.fr;thermos-root-devel-WordCountTopology-1-6b385aa9-0c37-4d6a-becb-594ef71ceb14;["container_1_Consume_and_count_1"];4.25;1533764941.05197;291.34;1465.4;7.10577545;10;151
47;paravance-56.rennes.grid5000.fr;thermos-root-devel-WordCountTopology-1-6b385aa9-0c37-4d6a-becb-594ef71ceb14;["container_1_Consume_and_count_1"];4.25;1533764951.27045;296.55;1493.12;7.10577545;10;151
47;paravance-66.rennes.grid5000.fr;thermos-root-devel-WordCountTopology-0-9f434165-c029-4b08-b648-9fec7ca183e6;["topology_master"];4.25;1533764951.18089;5.48;12.36;0.013764792;9;117
47;paravance-68.rennes.grid5000.fr;thermos-root-devel-WordCountTopology-2-4bd74953-f8e2-432f-aa83-348c67715451;["container_2_Emit_random_words_2"];4.25;1533764951.24154;119.01;1091.13;3.222820821;10;149
48;paravance-56.rennes.grid5000.fr;thermos-root-devel-WordCountTopology-1-6b385aa9-0c37-4d6a-becb-594ef71ceb14;["container_1_Consume_and_count_1"];4.25;1533764961.48827;301.58;1521.22;7.10577545;10;151
48;paravance-66.rennes.grid5000.fr;thermos-root-devel-WordCountTopology-0-9f434165-c029-4b08-b648-9fec7ca183e6;["topology_master"];4.25;1533764961.39757;5.54;12.48;0.013764792;9;117
48;paravance-68.rennes.grid5000.fr;thermos-root-devel-WordCountTopology-2-4bd74953-f8e2-432f-aa83-348c67715451;["container_2_Emit_random_words_2"];4.25;1533764961.45855;121.11;1110.62;3.222820821;10;149
49;paravance-68.rennes.grid5000.fr;thermos-root-devel-WordCountTopology-2-4bd74953-f8e2-432f-aa83-348c67715451;["container_2_Emit_random_words_2"];4.25;1533764971.67342;123.19;1129.87;3.222820821;10;149
49;paravance-66.rennes.grid5000.fr;thermos-root-devel-WordCountTopology-0-9f434165-c029-4b08-b648-9fec7ca183e6;["topology_master"];4.25;1533764971.61218;5.63;12.6;0.013764792;9;117
49;paravance-56.rennes.grid5000.fr;thermos-root-devel-WordCountTopology-1-6b385aa9-0c37-4d6a-becb-594ef71ceb14;["container_1_Consume_and_count_1"];4.25;1533764971.70271;306.61;1547.82;7.10577545;10;151
50;paravance-68.rennes.grid5000.fr;thermos-root-devel-WordCountTopology-2-4bd74953-f8e2-432f-aa83-348c67715451;["container_2_Emit_random_words_2"];4.25;1533764981.88751;125.15;1148.6;3.222820821;10;149
50;paravance-56.rennes.grid5000.fr;thermos-root-devel-WordCountTopology-1-6b385aa9-0c37-4d6a-becb-594ef71ceb14;["container_1_Consume_and_count_1"];4.25;1533764981.91641;311.42;1573.25;7.10577545;10;151
50;paravance-66.rennes.grid5000.fr;thermos-root-devel-WordCountTopology-0-9f434165-c029-4b08-b648-9fec7ca183e6;["topology_master"];4.25;1533764981.82797;5.66;12.63;0.013764792;9;117
51;paravance-56.rennes.grid5000.fr;thermos-root-devel-WordCountTopology-1-6b385aa9-0c37-4d6a-becb-594ef71ceb14;["container_1_Consume_and_count_1"];4.25;1533764992.13272;316.52;1599.72;7.10577545;10;151
51;paravance-68.rennes.grid5000.fr;thermos-root-devel-WordCountTopology-2-4bd74953-f8e2-432f-aa83-348c67715451;["container_2_Emit_random_words_2"];4.25;1533764992.10556;127.33;1168.04;3.222820821;10;149
51;paravance-66.rennes.grid5000.fr;thermos-root-devel-WordCountTopology-0-9f434165-c029-4b08-b648-9fec7ca183e6;["topology_master"];4.25;1533764992.04612;5.75;12.76;0.013764792;9;117
52;paravance-68.rennes.grid5000.fr;thermos-root-devel-WordCountTopology-2-4bd74953-f8e2-432f-aa83-348c67715451;["container_2_Emit_random_words_2"];4.25;1533765002.31766;129.52;1187.39;3.222820821;10;149
52;paravance-66.rennes.grid5000.fr;thermos-root-devel-WordCountTopology-0-9f434165-c029-4b08-b648-9fec7ca183e6;["topology_master"];4.25;1533765002.25846;5.81;12.83;0.013764792;9;117
52;paravance-56.rennes.grid5000.fr;thermos-root-devel-WordCountTopology-1-6b385aa9-0c37-4d6a-becb-594ef71ceb14;["container_1_Consume_and_count_1"];4.25;1533765002.34765;321.55;1627.34;7.10577545;10;151
53;paravance-56.rennes.grid5000.fr;thermos-root-devel-WordCountTopology-1-6b385aa9-0c37-4d6a-becb-594ef71ceb14;["container_1_Consume_and_count_1"];4.25;1533765012.56332;327.09;1653.41;7.105815737;10;151
53;paravance-66.rennes.grid5000.fr;thermos-root-devel-WordCountTopology-0-9f434165-c029-4b08-b648-9fec7ca183e6;["topology_master"];4.25;1533765012.4747;5.88;12.95;0.013764792;9;117
53;paravance-68.rennes.grid5000.fr;thermos-root-devel-WordCountTopology-2-4bd74953-f8e2-432f-aa83-348c67715451;["container_2_Emit_random_words_2"];4.25;1533765012.53511;131.72;1206.88;3.222820821;10;149
54;paravance-56.rennes.grid5000.fr;thermos-root-devel-WordCountTopology-1-6b385aa9-0c37-4d6a-becb-594ef71ceb14;["container_1_Consume_and_count_1"];4.25;1533765022.78069;332.41;1679.3;7.105815737;10;151
54;paravance-68.rennes.grid5000.fr;thermos-root-devel-WordCountTopology-2-4bd74953-f8e2-432f-aa83-348c67715451;["container_2_Emit_random_words_2"];4.25;1533765022.75179;133.85;1226.19;3.222820821;10;149
54;paravance-66.rennes.grid5000.fr;thermos-root-devel-WordCountTopology-0-9f434165-c029-4b08-b648-9fec7ca183e6;["topology_master"];4.25;1533765022.69227;5.94;13.02;0.013764792;9;117
55;paravance-66.rennes.grid5000.fr;thermos-root-devel-WordCountTopology-0-9f434165-c029-4b08-b648-9fec7ca183e6;["topology_master"];4.25;1533765032.90652;6.02;13.14;0.013764792;9;117
55;paravance-68.rennes.grid5000.fr;thermos-root-devel-WordCountTopology-2-4bd74953-f8e2-432f-aa83-348c67715451;["container_2_Emit_random_words_2"];4.25;1533765032.96691;136.04;1245.47;3.222820821;10;149
55;paravance-56.rennes.grid5000.fr;thermos-root-devel-WordCountTopology-1-6b385aa9-0c37-4d6a-becb-594ef71ceb14;["container_1_Consume_and_count_1"];4.25;1533765032.99625;337.95;1708.49;7.13838928;10;151
56;paravance-56.rennes.grid5000.fr;thermos-root-devel-WordCountTopology-1-6b385aa9-0c37-4d6a-becb-594ef71ceb14;["container_1_Consume_and_count_1"];4.25;1533765043.2114;343.48;1735.26;7.13838928;10;151
56;paravance-68.rennes.grid5000.fr;thermos-root-devel-WordCountTopology-2-4bd74953-f8e2-432f-aa83-348c67715451;["container_2_Emit_random_words_2"];4.25;1533765043.18158;138.15;1264.75;3.222820821;10;149
56;paravance-66.rennes.grid5000.fr;thermos-root-devel-WordCountTopology-0-9f434165-c029-4b08-b648-9fec7ca183e6;["topology_master"];4.25;1533765043.12183;6.05;13.17;0.013764792;9;117
57;paravance-56.rennes.grid5000.fr;thermos-root-devel-WordCountTopology-1-6b385aa9-0c37-4d6a-becb-594ef71ceb14;["container_1_Consume_and_count_1"];4.25;1533765053.32487;349.0;1762.33;7.13838928;10;151
57;paravance-66.rennes.grid5000.fr;thermos-root-devel-WordCountTopology-0-9f434165-c029-4b08-b648-9fec7ca183e6;["topology_master"];4.25;1533765053.3356;6.14;13.29;0.013764792;9;117
57;paravance-68.rennes.grid5000.fr;thermos-root-devel-WordCountTopology-2-4bd74953-f8e2-432f-aa83-348c67715451;["container_2_Emit_random_words_2"];4.25;1533765053.39623;140.35;1284.17;3.222820821;10;149
58;paravance-68.rennes.grid5000.fr;thermos-root-devel-WordCountTopology-2-4bd74953-f8e2-432f-aa83-348c67715451;["container_2_Emit_random_words_2"];4.25;1533765063.6102;142.51;1303.48;3.222820821;10;149
58;paravance-56.rennes.grid5000.fr;thermos-root-devel-WordCountTopology-1-6b385aa9-0c37-4d6a-becb-594ef71ceb14;["container_1_Consume_and_count_1"];4.25;1533765063.63988;354.38;1792.25;7.139129153;10;151
58;paravance-66.rennes.grid5000.fr;thermos-root-devel-WordCountTopology-0-9f434165-c029-4b08-b648-9fec7ca183e6;["topology_master"];4.25;1533765063.55116;6.2;13.36;0.013764792;9;117
59;paravance-56.rennes.grid5000.fr;thermos-root-devel-WordCountTopology-1-6b385aa9-0c37-4d6a-becb-594ef71ceb14;["container_1_Consume_and_count_1"];4.25;1533765073.85357;359.78;1822.95;7.171299773;10;151
59;paravance-68.rennes.grid5000.fr;thermos-root-devel-WordCountTopology-2-4bd74953-f8e2-432f-aa83-348c67715451;["container_2_Emit_random_words_2"];4.25;1533765073.82546;144.66;1323.06;3.222820821;10;149
59;paravance-66.rennes.grid5000.fr;thermos-root-devel-WordCountTopology-0-9f434165-c029-4b08-b648-9fec7ca183e6;["topology_master"];4.25;1533765073.76569;6.27;13.46;0.013764792;9;117
60;paravance-56.rennes.grid5000.fr;thermos-root-devel-WordCountTopology-1-6b385aa9-0c37-4d6a-becb-594ef71ceb14;["container_1_Consume_and_count_1"];4.25;1533765084.07281;365.15;1851.14;7.217801779;10;151
60;paravance-66.rennes.grid5000.fr;thermos-root-devel-WordCountTopology-0-9f434165-c029-4b08-b648-9fec7ca183e6;["topology_master"];4.25;1533765083.9826;6.32;13.53;0.013764792;9;117
60;paravance-68.rennes.grid5000.fr;thermos-root-devel-WordCountTopology-2-4bd74953-f8e2-432f-aa83-348c67715451;["container_2_Emit_random_words_2"];4.25;1533765084.04108;146.75;1342.76;3.222820821;10;149
