mesure_id;slave_id;executor_id;heron_instances;cpus_limit;timestamp_B;cpus_system_time_secs_B;cpus_user_time_secs_B;cpus_throttled_time_secs_B;processes;threads
0;paravance-42.rennes.grid5000.fr;thermos-root-devel-WordCountTopology-1-636038fb-cd6a-4407-9faf-62214a2e26db;["container_1_Consume_and_count_1"];1.25;1533084394.27864;16.92;127.15;414.901389693;10;151
0;paravance-43.rennes.grid5000.fr;thermos-root-devel-WordCountTopology-2-3ae9598d-114a-4efb-8942-f7038ce73cbe;["container_2_Emit_random_words_2"];1.25;1533084394.27334;9.48;77.95;102.207873126;10;149
0;paravance-31.rennes.grid5000.fr;thermos-root-devel-WordCountTopology-0-a2573501-34de-47b3-af46-64e08e6306df;["topology_master"];1.25;1533084394.27995;2.57;8.62;6.436919736;9;117
1;paravance-42.rennes.grid5000.fr;thermos-root-devel-WordCountTopology-1-636038fb-cd6a-4407-9faf-62214a2e26db;["container_1_Consume_and_count_1"];1.25;1533084404.39639;18.09;137.73;446.40786236;10;151
1;paravance-43.rennes.grid5000.fr;thermos-root-devel-WordCountTopology-2-3ae9598d-114a-4efb-8942-f7038ce73cbe;["container_2_Emit_random_words_2"];1.25;1533084404.49043;9.93;81.92;105.077335382;10;149
1;paravance-31.rennes.grid5000.fr;thermos-root-devel-WordCountTopology-0-a2573501-34de-47b3-af46-64e08e6306df;["topology_master"];1.25;1533084404.4952;2.67;8.77;6.436919736;9;117
2;paravance-31.rennes.grid5000.fr;thermos-root-devel-WordCountTopology-0-a2573501-34de-47b3-af46-64e08e6306df;["topology_master"];1.25;1533084414.71037;2.7;8.8;6.436919736;9;117
2;paravance-42.rennes.grid5000.fr;thermos-root-devel-WordCountTopology-1-636038fb-cd6a-4407-9faf-62214a2e26db;["container_1_Consume_and_count_1"];1.25;1533084414.71405;19.26;148.53;476.911828453;10;151
2;paravance-43.rennes.grid5000.fr;thermos-root-devel-WordCountTopology-2-3ae9598d-114a-4efb-8942-f7038ce73cbe;["container_2_Emit_random_words_2"];1.25;1533084414.70905;10.57;88.19;110.070746085;10;149
3;paravance-42.rennes.grid5000.fr;thermos-root-devel-WordCountTopology-1-636038fb-cd6a-4407-9faf-62214a2e26db;["container_1_Consume_and_count_1"];1.25;1533084424.83082;20.4;159.11;504.909239419;10;151
3;paravance-31.rennes.grid5000.fr;thermos-root-devel-WordCountTopology-0-a2573501-34de-47b3-af46-64e08e6306df;["topology_master"];1.25;1533084424.83029;2.79;8.92;6.436919736;9;117
3;paravance-43.rennes.grid5000.fr;thermos-root-devel-WordCountTopology-2-3ae9598d-114a-4efb-8942-f7038ce73cbe;["container_2_Emit_random_words_2"];1.25;1533084424.92444;10.93;90.99;111.837304278;10;149
4;paravance-43.rennes.grid5000.fr;thermos-root-devel-WordCountTopology-2-3ae9598d-114a-4efb-8942-f7038ce73cbe;["container_2_Emit_random_words_2"];1.25;1533084435.14057;11.42;95.65;115.592909835;10;149
4;paravance-42.rennes.grid5000.fr;thermos-root-devel-WordCountTopology-1-636038fb-cd6a-4407-9faf-62214a2e26db;["container_1_Consume_and_count_1"];1.25;1533084435.14698;21.56;170.01;534.224930737;10;151
4;paravance-31.rennes.grid5000.fr;thermos-root-devel-WordCountTopology-0-a2573501-34de-47b3-af46-64e08e6306df;["topology_master"];1.25;1533084435.14548;2.84;8.99;6.436919736;9;117
5;paravance-42.rennes.grid5000.fr;thermos-root-devel-WordCountTopology-1-636038fb-cd6a-4407-9faf-62214a2e26db;["container_1_Consume_and_count_1"];1.25;1533084445.36402;22.62;180.77;562.124615212;10;151
5;paravance-31.rennes.grid5000.fr;thermos-root-devel-WordCountTopology-0-a2573501-34de-47b3-af46-64e08e6306df;["topology_master"];1.25;1533084445.36276;2.93;9.09;6.436919736;9;117
5;paravance-43.rennes.grid5000.fr;thermos-root-devel-WordCountTopology-2-3ae9598d-114a-4efb-8942-f7038ce73cbe;["container_2_Emit_random_words_2"];1.25;1533084445.35937;11.99;100.41;119.125226653;10;149
6;paravance-31.rennes.grid5000.fr;thermos-root-devel-WordCountTopology-0-a2573501-34de-47b3-af46-64e08e6306df;["topology_master"];1.25;1533084455.57925;2.99;9.25;6.436919736;9;117
6;paravance-42.rennes.grid5000.fr;thermos-root-devel-WordCountTopology-1-636038fb-cd6a-4407-9faf-62214a2e26db;["container_1_Consume_and_count_1"];1.25;1533084455.58082;23.73;191.34;590.34777606;10;151
6;paravance-43.rennes.grid5000.fr;thermos-root-devel-WordCountTopology-2-3ae9598d-114a-4efb-8942-f7038ce73cbe;["container_2_Emit_random_words_2"];1.25;1533084455.57726;12.38;103.96;121.578896886;10;149
7;paravance-43.rennes.grid5000.fr;thermos-root-devel-WordCountTopology-2-3ae9598d-114a-4efb-8942-f7038ce73cbe;["container_2_Emit_random_words_2"];1.25;1533084465.79397;13.03;109.73;126.132532266;10;149
7;paravance-31.rennes.grid5000.fr;thermos-root-devel-WordCountTopology-0-a2573501-34de-47b3-af46-64e08e6306df;["topology_master"];1.25;1533084465.79707;3.09;9.4;6.436919736;9;117
7;paravance-42.rennes.grid5000.fr;thermos-root-devel-WordCountTopology-1-636038fb-cd6a-4407-9faf-62214a2e26db;["container_1_Consume_and_count_1"];1.25;1533084465.79955;24.86;201.93;619.513096144;10;151
8;paravance-43.rennes.grid5000.fr;thermos-root-devel-WordCountTopology-2-3ae9598d-114a-4efb-8942-f7038ce73cbe;["container_2_Emit_random_words_2"];1.25;1533084476.01079;13.42;113.34;128.999897225;10;149
8;paravance-31.rennes.grid5000.fr;thermos-root-devel-WordCountTopology-0-a2573501-34de-47b3-af46-64e08e6306df;["topology_master"];1.25;1533084476.01481;3.12;9.43;6.436919736;9;117
8;paravance-42.rennes.grid5000.fr;thermos-root-devel-WordCountTopology-1-636038fb-cd6a-4407-9faf-62214a2e26db;["container_1_Consume_and_count_1"];1.25;1533084476.01765;25.66;212.98;645.30043717;10;151
9;paravance-42.rennes.grid5000.fr;thermos-root-devel-WordCountTopology-1-636038fb-cd6a-4407-9faf-62214a2e26db;["container_1_Consume_and_count_1"];1.25;1533084486.23329;26.93;223.58;675.089713334;10;151
9;paravance-31.rennes.grid5000.fr;thermos-root-devel-WordCountTopology-0-a2573501-34de-47b3-af46-64e08e6306df;["topology_master"];1.25;1533084486.23211;3.21;9.55;6.436919736;9;117
9;paravance-43.rennes.grid5000.fr;thermos-root-devel-WordCountTopology-2-3ae9598d-114a-4efb-8942-f7038ce73cbe;["container_2_Emit_random_words_2"];1.25;1533084486.22939;14.02;118.33;133.089138772;10;149
10;paravance-42.rennes.grid5000.fr;thermos-root-devel-WordCountTopology-1-636038fb-cd6a-4407-9faf-62214a2e26db;["container_1_Consume_and_count_1"];1.25;1533084496.45131;28.4;234.19;704.632123915;10;151
10;paravance-43.rennes.grid5000.fr;thermos-root-devel-WordCountTopology-2-3ae9598d-114a-4efb-8942-f7038ce73cbe;["container_2_Emit_random_words_2"];1.25;1533084496.44611;14.76;125.93;139.782725773;10;149
10;paravance-31.rennes.grid5000.fr;thermos-root-devel-WordCountTopology-0-a2573501-34de-47b3-af46-64e08e6306df;["topology_master"];1.25;1533084496.45063;3.26;9.63;6.436919736;9;117
11;paravance-42.rennes.grid5000.fr;thermos-root-devel-WordCountTopology-1-636038fb-cd6a-4407-9faf-62214a2e26db;["container_1_Consume_and_count_1"];1.25;1533084506.66963;29.84;244.7;739.060200982;10;151
11;paravance-31.rennes.grid5000.fr;thermos-root-devel-WordCountTopology-0-a2573501-34de-47b3-af46-64e08e6306df;["topology_master"];1.25;1533084506.66709;3.39;9.86;6.437227619;9;117
11;paravance-43.rennes.grid5000.fr;thermos-root-devel-WordCountTopology-2-3ae9598d-114a-4efb-8942-f7038ce73cbe;["container_2_Emit_random_words_2"];1.25;1533084506.66364;15.39;131.99;144.483174062;10;149
12;paravance-43.rennes.grid5000.fr;thermos-root-devel-WordCountTopology-2-3ae9598d-114a-4efb-8942-f7038ce73cbe;["container_2_Emit_random_words_2"];1.25;1533084516.881;15.91;136.36;148.034345596;10;149
12;paravance-42.rennes.grid5000.fr;thermos-root-devel-WordCountTopology-1-636038fb-cd6a-4407-9faf-62214a2e26db;["container_1_Consume_and_count_1"];1.25;1533084516.88891;30.95;255.56;771.846038024;10;151
12;paravance-31.rennes.grid5000.fr;thermos-root-devel-WordCountTopology-0-a2573501-34de-47b3-af46-64e08e6306df;["topology_master"];1.25;1533084516.88597;3.42;9.9;6.437227619;9;117
13;paravance-42.rennes.grid5000.fr;thermos-root-devel-WordCountTopology-1-636038fb-cd6a-4407-9faf-62214a2e26db;["container_1_Consume_and_count_1"];1.25;1533084527.10514;32.06;266.33;800.354708326;10;151
13;paravance-43.rennes.grid5000.fr;thermos-root-devel-WordCountTopology-2-3ae9598d-114a-4efb-8942-f7038ce73cbe;["container_2_Emit_random_words_2"];1.25;1533084527.10023;16.34;139.71;150.75003931;10;149
13;paravance-31.rennes.grid5000.fr;thermos-root-devel-WordCountTopology-0-a2573501-34de-47b3-af46-64e08e6306df;["topology_master"];1.25;1533084527.10367;3.52;10.04;6.437227619;9;117
14;paravance-31.rennes.grid5000.fr;thermos-root-devel-WordCountTopology-0-a2573501-34de-47b3-af46-64e08e6306df;["topology_master"];1.25;1533084537.32133;3.58;10.12;6.437227619;9;117
14;paravance-42.rennes.grid5000.fr;thermos-root-devel-WordCountTopology-1-636038fb-cd6a-4407-9faf-62214a2e26db;["container_1_Consume_and_count_1"];1.25;1533084537.3244;33.15;277.06;829.290023186;10;151
14;paravance-43.rennes.grid5000.fr;thermos-root-devel-WordCountTopology-2-3ae9598d-114a-4efb-8942-f7038ce73cbe;["container_2_Emit_random_words_2"];1.25;1533084537.3187;16.75;143.96;153.851438804;10;149
15;paravance-31.rennes.grid5000.fr;thermos-root-devel-WordCountTopology-0-a2573501-34de-47b3-af46-64e08e6306df;["topology_master"];1.25;1533084547.53977;3.63;10.2;6.437227619;9;117
15;paravance-43.rennes.grid5000.fr;thermos-root-devel-WordCountTopology-2-3ae9598d-114a-4efb-8942-f7038ce73cbe;["container_2_Emit_random_words_2"];1.25;1533084547.53573;17.19;147.44;156.907954347;10;149
15;paravance-42.rennes.grid5000.fr;thermos-root-devel-WordCountTopology-1-636038fb-cd6a-4407-9faf-62214a2e26db;["container_1_Consume_and_count_1"];1.25;1533084547.54183;34.03;287.97;857.131916351;10;151
16;paravance-42.rennes.grid5000.fr;thermos-root-devel-WordCountTopology-1-636038fb-cd6a-4407-9faf-62214a2e26db;["container_1_Consume_and_count_1"];1.25;1533084557.7597;35.22;298.46;878.520166149;10;151
16;paravance-43.rennes.grid5000.fr;thermos-root-devel-WordCountTopology-2-3ae9598d-114a-4efb-8942-f7038ce73cbe;["container_2_Emit_random_words_2"];1.25;1533084557.75466;17.64;151.76;160.487047974;10;149
16;paravance-31.rennes.grid5000.fr;thermos-root-devel-WordCountTopology-0-a2573501-34de-47b3-af46-64e08e6306df;["topology_master"];1.25;1533084557.75861;3.69;10.27;6.437227619;9;117
17;paravance-42.rennes.grid5000.fr;thermos-root-devel-WordCountTopology-1-636038fb-cd6a-4407-9faf-62214a2e26db;["container_1_Consume_and_count_1"];1.25;1533084567.97768;36.27;309.13;903.612729321;10;151
17;paravance-43.rennes.grid5000.fr;thermos-root-devel-WordCountTopology-2-3ae9598d-114a-4efb-8942-f7038ce73cbe;["container_2_Emit_random_words_2"];1.25;1533084567.9739;18.25;157.59;165.162848552;10;149
17;paravance-31.rennes.grid5000.fr;thermos-root-devel-WordCountTopology-0-a2573501-34de-47b3-af46-64e08e6306df;["topology_master"];1.25;1533084567.9766;3.81;10.46;6.437227619;9;117
18;paravance-31.rennes.grid5000.fr;thermos-root-devel-WordCountTopology-0-a2573501-34de-47b3-af46-64e08e6306df;["topology_master"];1.25;1533084578.19363;3.84;10.52;6.437227619;9;117
18;paravance-42.rennes.grid5000.fr;thermos-root-devel-WordCountTopology-1-636038fb-cd6a-4407-9faf-62214a2e26db;["container_1_Consume_and_count_1"];1.25;1533084578.19609;37.14;320.2;929.615442066;10;151
18;paravance-43.rennes.grid5000.fr;thermos-root-devel-WordCountTopology-2-3ae9598d-114a-4efb-8942-f7038ce73cbe;["container_2_Emit_random_words_2"];1.25;1533084578.19069;18.81;163.16;169.529695696;10;149
19;paravance-43.rennes.grid5000.fr;thermos-root-devel-WordCountTopology-2-3ae9598d-114a-4efb-8942-f7038ce73cbe;["container_2_Emit_random_words_2"];1.25;1533084588.4074;19.25;166.82;172.547003466;10;149
19;paravance-42.rennes.grid5000.fr;thermos-root-devel-WordCountTopology-1-636038fb-cd6a-4407-9faf-62214a2e26db;["container_1_Consume_and_count_1"];1.25;1533084588.41468;38.49;330.52;958.223218712;10;151
19;paravance-31.rennes.grid5000.fr;thermos-root-devel-WordCountTopology-0-a2573501-34de-47b3-af46-64e08e6306df;["topology_master"];1.25;1533084588.41261;3.93;10.65;6.437227619;9;117
20;paravance-43.rennes.grid5000.fr;thermos-root-devel-WordCountTopology-2-3ae9598d-114a-4efb-8942-f7038ce73cbe;["container_2_Emit_random_words_2"];1.25;1533084598.62463;19.76;171.91;176.279531551;10;149
20;paravance-42.rennes.grid5000.fr;thermos-root-devel-WordCountTopology-1-636038fb-cd6a-4407-9faf-62214a2e26db;["container_1_Consume_and_count_1"];1.25;1533084598.6317;39.46;341.27;980.976433739;10;151
20;paravance-31.rennes.grid5000.fr;thermos-root-devel-WordCountTopology-0-a2573501-34de-47b3-af46-64e08e6306df;["topology_master"];1.25;1533084598.62986;3.99;10.72;6.437227619;9;117
21;paravance-31.rennes.grid5000.fr;thermos-root-devel-WordCountTopology-0-a2573501-34de-47b3-af46-64e08e6306df;["topology_master"];1.25;1533084608.84665;4.05;10.79;6.437227619;9;117
21;paravance-43.rennes.grid5000.fr;thermos-root-devel-WordCountTopology-2-3ae9598d-114a-4efb-8942-f7038ce73cbe;["container_2_Emit_random_words_2"];1.25;1533084608.84392;20.12;174.98;178.156141425;10;149
21;paravance-42.rennes.grid5000.fr;thermos-root-devel-WordCountTopology-1-636038fb-cd6a-4407-9faf-62214a2e26db;["container_1_Consume_and_count_1"];1.25;1533084608.84997;40.4;352.09;1006.849714844;10;151
22;paravance-43.rennes.grid5000.fr;thermos-root-devel-WordCountTopology-2-3ae9598d-114a-4efb-8942-f7038ce73cbe;["container_2_Emit_random_words_2"];1.25;1533084619.06097;20.52;178.92;180.851420999;10;149
22;paravance-42.rennes.grid5000.fr;thermos-root-devel-WordCountTopology-1-636038fb-cd6a-4407-9faf-62214a2e26db;["container_1_Consume_and_count_1"];1.25;1533084619.06712;41.13;363.28;1030.485646008;10;151
22;paravance-31.rennes.grid5000.fr;thermos-root-devel-WordCountTopology-0-a2573501-34de-47b3-af46-64e08e6306df;["topology_master"];1.25;1533084619.06481;4.11;10.87;6.437227619;9;117
23;paravance-42.rennes.grid5000.fr;thermos-root-devel-WordCountTopology-1-636038fb-cd6a-4407-9faf-62214a2e26db;["container_1_Consume_and_count_1"];1.25;1533084629.28501;42.14;374.1;1054.646677983;10;151
23;paravance-31.rennes.grid5000.fr;thermos-root-devel-WordCountTopology-0-a2573501-34de-47b3-af46-64e08e6306df;["topology_master"];1.25;1533084629.28359;4.21;11.05;6.437227619;9;117
23;paravance-43.rennes.grid5000.fr;thermos-root-devel-WordCountTopology-2-3ae9598d-114a-4efb-8942-f7038ce73cbe;["container_2_Emit_random_words_2"];1.25;1533084629.27969;21.01;183.14;183.934949235;10;149
24;paravance-42.rennes.grid5000.fr;thermos-root-devel-WordCountTopology-1-636038fb-cd6a-4407-9faf-62214a2e26db;["container_1_Consume_and_count_1"];1.25;1533084639.50186;43.24;384.88;1081.56219443;10;151
24;paravance-43.rennes.grid5000.fr;thermos-root-devel-WordCountTopology-2-3ae9598d-114a-4efb-8942-f7038ce73cbe;["container_2_Emit_random_words_2"];1.25;1533084639.49636;21.47;187.89;187.793238105;10;149
24;paravance-31.rennes.grid5000.fr;thermos-root-devel-WordCountTopology-0-a2573501-34de-47b3-af46-64e08e6306df;["topology_master"];1.25;1533084639.50136;4.24;11.08;6.437227619;9;117
25;paravance-42.rennes.grid5000.fr;thermos-root-devel-WordCountTopology-1-636038fb-cd6a-4407-9faf-62214a2e26db;["container_1_Consume_and_count_1"];1.25;1533084649.71931;44.16;395.84;1113.031244395;10;151
25;paravance-43.rennes.grid5000.fr;thermos-root-devel-WordCountTopology-2-3ae9598d-114a-4efb-8942-f7038ce73cbe;["container_2_Emit_random_words_2"];1.25;1533084649.71434;22.03;193.06;191.773792874;10;149
25;paravance-31.rennes.grid5000.fr;thermos-root-devel-WordCountTopology-0-a2573501-34de-47b3-af46-64e08e6306df;["topology_master"];1.25;1533084649.71795;4.33;11.2;6.437227619;9;117
26;paravance-43.rennes.grid5000.fr;thermos-root-devel-WordCountTopology-2-3ae9598d-114a-4efb-8942-f7038ce73cbe;["container_2_Emit_random_words_2"];1.25;1533084659.92827;22.41;196.31;193.994966599;10;149
26;paravance-42.rennes.grid5000.fr;thermos-root-devel-WordCountTopology-1-636038fb-cd6a-4407-9faf-62214a2e26db;["container_1_Consume_and_count_1"];1.25;1533084659.93587;45.16;406.74;1142.776741004;10;151
26;paravance-31.rennes.grid5000.fr;thermos-root-devel-WordCountTopology-0-a2573501-34de-47b3-af46-64e08e6306df;["topology_master"];1.25;1533084659.93407;4.39;11.27;6.437227619;9;117
27;paravance-31.rennes.grid5000.fr;thermos-root-devel-WordCountTopology-0-a2573501-34de-47b3-af46-64e08e6306df;["topology_master"];1.25;1533084670.14752;4.45;11.34;6.437227619;9;117
27;paravance-42.rennes.grid5000.fr;thermos-root-devel-WordCountTopology-1-636038fb-cd6a-4407-9faf-62214a2e26db;["container_1_Consume_and_count_1"];1.25;1533084670.15138;46.23;417.65;1174.260361471;10;151
27;paravance-43.rennes.grid5000.fr;thermos-root-devel-WordCountTopology-2-3ae9598d-114a-4efb-8942-f7038ce73cbe;["container_2_Emit_random_words_2"];1.25;1533084670.1444;22.87;200.45;197.541887681;10;149
28;paravance-43.rennes.grid5000.fr;thermos-root-devel-WordCountTopology-2-3ae9598d-114a-4efb-8942-f7038ce73cbe;["container_2_Emit_random_words_2"];1.25;1533084680.25973;23.35;204.85;200.57084074;10;149
28;paravance-42.rennes.grid5000.fr;thermos-root-devel-WordCountTopology-1-636038fb-cd6a-4407-9faf-62214a2e26db;["container_1_Consume_and_count_1"];1.25;1533084680.3649;47.42;428.14;1200.617733275;10;151
28;paravance-31.rennes.grid5000.fr;thermos-root-devel-WordCountTopology-0-a2573501-34de-47b3-af46-64e08e6306df;["topology_master"];1.25;1533084680.36215;4.5;11.42;6.437227619;9;117
29;paravance-42.rennes.grid5000.fr;thermos-root-devel-WordCountTopology-1-636038fb-cd6a-4407-9faf-62214a2e26db;["container_1_Consume_and_count_1"];1.25;1533084690.57947;48.69;438.51;1230.004445338;10;151
29;paravance-31.rennes.grid5000.fr;thermos-root-devel-WordCountTopology-0-a2573501-34de-47b3-af46-64e08e6306df;["topology_master"];1.25;1533084690.57956;4.61;11.58;6.437227619;9;117
29;paravance-43.rennes.grid5000.fr;thermos-root-devel-WordCountTopology-2-3ae9598d-114a-4efb-8942-f7038ce73cbe;["container_2_Emit_random_words_2"];1.25;1533084690.57391;23.77;208.39;203.427063022;10;149
30;paravance-42.rennes.grid5000.fr;thermos-root-devel-WordCountTopology-1-636038fb-cd6a-4407-9faf-62214a2e26db;["container_1_Consume_and_count_1"];1.25;1533084700.79735;49.63;449.36;1255.175323128;10;151
30;paravance-43.rennes.grid5000.fr;thermos-root-devel-WordCountTopology-2-3ae9598d-114a-4efb-8942-f7038ce73cbe;["container_2_Emit_random_words_2"];1.25;1533084700.79055;24.21;212.77;206.19451453;10;149
30;paravance-31.rennes.grid5000.fr;thermos-root-devel-WordCountTopology-0-a2573501-34de-47b3-af46-64e08e6306df;["topology_master"];1.25;1533084700.79484;4.64;11.62;6.437227619;9;117
31;paravance-42.rennes.grid5000.fr;thermos-root-devel-WordCountTopology-1-636038fb-cd6a-4407-9faf-62214a2e26db;["container_1_Consume_and_count_1"];1.25;1533084711.01348;50.81;459.97;1282.60919701;10;151
31;paravance-43.rennes.grid5000.fr;thermos-root-devel-WordCountTopology-2-3ae9598d-114a-4efb-8942-f7038ce73cbe;["container_2_Emit_random_words_2"];1.25;1533084711.00756;24.75;218.01;210.021513749;10;149
31;paravance-31.rennes.grid5000.fr;thermos-root-devel-WordCountTopology-0-a2573501-34de-47b3-af46-64e08e6306df;["topology_master"];1.25;1533084711.01184;4.74;11.74;6.437227619;9;117
32;paravance-42.rennes.grid5000.fr;thermos-root-devel-WordCountTopology-1-636038fb-cd6a-4407-9faf-62214a2e26db;["container_1_Consume_and_count_1"];1.25;1533084721.22808;51.81;470.75;1314.601841532;10;151
32;paravance-43.rennes.grid5000.fr;thermos-root-devel-WordCountTopology-2-3ae9598d-114a-4efb-8942-f7038ce73cbe;["container_2_Emit_random_words_2"];1.25;1533084721.22326;25.26;222.82;213.62528357;10;149
32;paravance-31.rennes.grid5000.fr;thermos-root-devel-WordCountTopology-0-a2573501-34de-47b3-af46-64e08e6306df;["topology_master"];1.25;1533084721.2275;4.82;11.87;6.437227619;9;117
33;paravance-42.rennes.grid5000.fr;thermos-root-devel-WordCountTopology-1-636038fb-cd6a-4407-9faf-62214a2e26db;["container_1_Consume_and_count_1"];1.25;1533084731.44614;52.99;481.32;1343.681112281;10;151
33;paravance-31.rennes.grid5000.fr;thermos-root-devel-WordCountTopology-0-a2573501-34de-47b3-af46-64e08e6306df;["topology_master"];1.25;1533084731.44382;4.85;11.89;6.437227619;9;117
33;paravance-43.rennes.grid5000.fr;thermos-root-devel-WordCountTopology-2-3ae9598d-114a-4efb-8942-f7038ce73cbe;["container_2_Emit_random_words_2"];1.25;1533084731.44027;25.63;226.17;216.387787708;10;149
34;paravance-43.rennes.grid5000.fr;thermos-root-devel-WordCountTopology-2-3ae9598d-114a-4efb-8942-f7038ce73cbe;["container_2_Emit_random_words_2"];1.25;1533084741.6546;26.22;231.09;220.743455987;10;149
34;paravance-42.rennes.grid5000.fr;thermos-root-devel-WordCountTopology-1-636038fb-cd6a-4407-9faf-62214a2e26db;["container_1_Consume_and_count_1"];1.25;1533084741.66188;53.88;492.34;1369.982940111;10;149
34;paravance-31.rennes.grid5000.fr;thermos-root-devel-WordCountTopology-0-a2573501-34de-47b3-af46-64e08e6306df;["topology_master"];1.25;1533084741.6594;4.95;12.03;6.437227619;9;117
35;paravance-42.rennes.grid5000.fr;thermos-root-devel-WordCountTopology-1-636038fb-cd6a-4407-9faf-62214a2e26db;["container_1_Consume_and_count_1"];1.25;1533084751.87805;55.16;502.74;1400.975234415;10;151
35;paravance-31.rennes.grid5000.fr;thermos-root-devel-WordCountTopology-0-a2573501-34de-47b3-af46-64e08e6306df;["topology_master"];1.25;1533084751.8753;5.01;12.19;6.437227619;9;117
35;paravance-43.rennes.grid5000.fr;thermos-root-devel-WordCountTopology-2-3ae9598d-114a-4efb-8942-f7038ce73cbe;["container_2_Emit_random_words_2"];1.25;1533084751.87126;26.68;235.22;224.370506786;10;149
36;paravance-31.rennes.grid5000.fr;thermos-root-devel-WordCountTopology-0-a2573501-34de-47b3-af46-64e08e6306df;["topology_master"];1.25;1533084761.99271;5.07;12.27;6.437227619;9;117
36;paravance-43.rennes.grid5000.fr;thermos-root-devel-WordCountTopology-2-3ae9598d-114a-4efb-8942-f7038ce73cbe;["container_2_Emit_random_words_2"];1.25;1533084762.08732;27.13;239.35;227.566214441;10;149
36;paravance-42.rennes.grid5000.fr;thermos-root-devel-WordCountTopology-1-636038fb-cd6a-4407-9faf-62214a2e26db;["container_1_Consume_and_count_1"];1.25;1533084762.09506;56.21;513.46;1431.603003594;10;151
37;paravance-42.rennes.grid5000.fr;thermos-root-devel-WordCountTopology-1-636038fb-cd6a-4407-9faf-62214a2e26db;["container_1_Consume_and_count_1"];1.25;1533084772.30744;57.08;524.48;1461.303255506;10;151
37;paravance-43.rennes.grid5000.fr;thermos-root-devel-WordCountTopology-2-3ae9598d-114a-4efb-8942-f7038ce73cbe;["container_2_Emit_random_words_2"];1.25;1533084772.30275;27.59;243.7;231.248104224;10;149
37;paravance-31.rennes.grid5000.fr;thermos-root-devel-WordCountTopology-0-a2573501-34de-47b3-af46-64e08e6306df;["topology_master"];1.25;1533084772.30824;5.13;12.35;6.437227619;9;117
38;paravance-42.rennes.grid5000.fr;thermos-root-devel-WordCountTopology-1-636038fb-cd6a-4407-9faf-62214a2e26db;["container_1_Consume_and_count_1"];1.25;1533084782.52539;58.31;535.22;1491.166489068;10;151
38;paravance-43.rennes.grid5000.fr;thermos-root-devel-WordCountTopology-2-3ae9598d-114a-4efb-8942-f7038ce73cbe;["container_2_Emit_random_words_2"];1.25;1533084782.51838;28.15;248.98;235.986926842;10;149
38;paravance-31.rennes.grid5000.fr;thermos-root-devel-WordCountTopology-0-a2573501-34de-47b3-af46-64e08e6306df;["topology_master"];1.25;1533084782.52276;5.22;12.47;6.437227619;9;117
39;paravance-42.rennes.grid5000.fr;thermos-root-devel-WordCountTopology-1-636038fb-cd6a-4407-9faf-62214a2e26db;["container_1_Consume_and_count_1"];1.25;1533084792.74194;59.38;546.13;1521.6677101;10;151
39;paravance-43.rennes.grid5000.fr;thermos-root-devel-WordCountTopology-2-3ae9598d-114a-4efb-8942-f7038ce73cbe;["container_2_Emit_random_words_2"];1.25;1533084792.73601;28.44;251.85;238.185664323;10;149
39;paravance-31.rennes.grid5000.fr;thermos-root-devel-WordCountTopology-0-a2573501-34de-47b3-af46-64e08e6306df;["topology_master"];1.25;1533084792.74113;5.25;12.49;6.437227619;9;117
40;paravance-31.rennes.grid5000.fr;thermos-root-devel-WordCountTopology-0-a2573501-34de-47b3-af46-64e08e6306df;["topology_master"];1.25;1533084802.95656;5.34;12.62;6.437227619;9;117
40;paravance-42.rennes.grid5000.fr;thermos-root-devel-WordCountTopology-1-636038fb-cd6a-4407-9faf-62214a2e26db;["container_1_Consume_and_count_1"];1.25;1533084802.95869;60.68;556.77;1552.244264049;10;151
40;paravance-43.rennes.grid5000.fr;thermos-root-devel-WordCountTopology-2-3ae9598d-114a-4efb-8942-f7038ce73cbe;["container_2_Emit_random_words_2"];1.25;1533084802.95358;29.0;257.01;242.208243024;10;150
41;paravance-42.rennes.grid5000.fr;thermos-root-devel-WordCountTopology-1-636038fb-cd6a-4407-9faf-62214a2e26db;["container_1_Consume_and_count_1"];1.25;1533084813.1762;61.51;567.67;1577.83335469;10;151
41;paravance-31.rennes.grid5000.fr;thermos-root-devel-WordCountTopology-0-a2573501-34de-47b3-af46-64e08e6306df;["topology_master"];1.25;1533084813.17324;5.41;12.74;6.437227619;9;117
41;paravance-43.rennes.grid5000.fr;thermos-root-devel-WordCountTopology-2-3ae9598d-114a-4efb-8942-f7038ce73cbe;["container_2_Emit_random_words_2"];1.25;1533084813.1705;29.37;259.9;244.480927414;10;150
42;paravance-43.rennes.grid5000.fr;thermos-root-devel-WordCountTopology-2-3ae9598d-114a-4efb-8942-f7038ce73cbe;["container_2_Emit_random_words_2"];1.25;1533084823.28573;29.8;263.66;247.528588334;10;149
42;paravance-42.rennes.grid5000.fr;thermos-root-devel-WordCountTopology-1-636038fb-cd6a-4407-9faf-62214a2e26db;["container_1_Consume_and_count_1"];1.25;1533084823.39071;62.46;578.36;1600.920667886;10;151
42;paravance-31.rennes.grid5000.fr;thermos-root-devel-WordCountTopology-0-a2573501-34de-47b3-af46-64e08e6306df;["topology_master"];1.25;1533084823.39016;5.49;12.86;6.437227619;9;117
43;paravance-42.rennes.grid5000.fr;thermos-root-devel-WordCountTopology-1-636038fb-cd6a-4407-9faf-62214a2e26db;["container_1_Consume_and_count_1"];1.25;1533084833.6068;63.48;589.09;1626.486285051;10;151
43;paravance-31.rennes.grid5000.fr;thermos-root-devel-WordCountTopology-0-a2573501-34de-47b3-af46-64e08e6306df;["topology_master"];1.25;1533084833.60535;5.52;12.89;6.437227619;9;117
43;paravance-43.rennes.grid5000.fr;thermos-root-devel-WordCountTopology-2-3ae9598d-114a-4efb-8942-f7038ce73cbe;["container_2_Emit_random_words_2"];1.25;1533084833.60106;30.4;269.83;252.638364802;10;149
44;paravance-43.rennes.grid5000.fr;thermos-root-devel-WordCountTopology-2-3ae9598d-114a-4efb-8942-f7038ce73cbe;["container_2_Emit_random_words_2"];1.25;1533084843.81573;30.84;273.52;255.25352019;10;149
44;paravance-42.rennes.grid5000.fr;thermos-root-devel-WordCountTopology-1-636038fb-cd6a-4407-9faf-62214a2e26db;["container_1_Consume_and_count_1"];1.25;1533084843.82565;64.42;600.05;1653.011988849;10;151
44;paravance-31.rennes.grid5000.fr;thermos-root-devel-WordCountTopology-0-a2573501-34de-47b3-af46-64e08e6306df;["topology_master"];1.25;1533084843.82225;5.61;13.01;6.437227619;9;117
45;paravance-43.rennes.grid5000.fr;thermos-root-devel-WordCountTopology-2-3ae9598d-114a-4efb-8942-f7038ce73cbe;["container_2_Emit_random_words_2"];1.25;1533084854.03484;31.27;277.8;259.01785709;10;149
45;paravance-42.rennes.grid5000.fr;thermos-root-devel-WordCountTopology-1-636038fb-cd6a-4407-9faf-62214a2e26db;["container_1_Consume_and_count_1"];1.25;1533084854.043;65.54;610.64;1684.269169539;10;151
45;paravance-31.rennes.grid5000.fr;thermos-root-devel-WordCountTopology-0-a2573501-34de-47b3-af46-64e08e6306df;["topology_master"];1.25;1533084854.04048;5.67;13.08;6.437227619;9;117
46;paravance-42.rennes.grid5000.fr;thermos-root-devel-WordCountTopology-1-636038fb-cd6a-4407-9faf-62214a2e26db;["container_1_Consume_and_count_1"];1.25;1533084864.26041;66.82;621.19;1715.851343603;10;151
46;paravance-31.rennes.grid5000.fr;thermos-root-devel-WordCountTopology-0-a2573501-34de-47b3-af46-64e08e6306df;["topology_master"];1.25;1533084864.25675;5.73;13.16;6.437227619;9;117
46;paravance-43.rennes.grid5000.fr;thermos-root-devel-WordCountTopology-2-3ae9598d-114a-4efb-8942-f7038ce73cbe;["container_2_Emit_random_words_2"];1.25;1533084864.26125;31.78;282.18;262.435511945;10;149
47;paravance-42.rennes.grid5000.fr;thermos-root-devel-WordCountTopology-1-636038fb-cd6a-4407-9faf-62214a2e26db;["container_1_Consume_and_count_1"];1.25;1533084874.48354;67.88;632.04;1746.196499435;10;151
47;paravance-43.rennes.grid5000.fr;thermos-root-devel-WordCountTopology-2-3ae9598d-114a-4efb-8942-f7038ce73cbe;["container_2_Emit_random_words_2"];1.25;1533084874.47576;32.27;285.74;265.494203463;10;149
47;paravance-31.rennes.grid5000.fr;thermos-root-devel-WordCountTopology-0-a2573501-34de-47b3-af46-64e08e6306df;["topology_master"];1.25;1533084874.48206;5.79;13.29;6.437227619;9;117
48;paravance-42.rennes.grid5000.fr;thermos-root-devel-WordCountTopology-1-636038fb-cd6a-4407-9faf-62214a2e26db;["container_1_Consume_and_count_1"];1.25;1533084884.69968;68.79;642.97;1775.466504562;10;151
48;paravance-43.rennes.grid5000.fr;thermos-root-devel-WordCountTopology-2-3ae9598d-114a-4efb-8942-f7038ce73cbe;["container_2_Emit_random_words_2"];1.25;1533084884.69314;32.7;289.34;268.680838386;10;149
48;paravance-31.rennes.grid5000.fr;thermos-root-devel-WordCountTopology-0-a2573501-34de-47b3-af46-64e08e6306df;["topology_master"];1.25;1533084884.69786;5.88;13.42;6.437227619;9;117
49;paravance-31.rennes.grid5000.fr;thermos-root-devel-WordCountTopology-0-a2573501-34de-47b3-af46-64e08e6306df;["topology_master"];1.25;1533084894.91465;5.91;13.45;6.437227619;9;117
49;paravance-42.rennes.grid5000.fr;thermos-root-devel-WordCountTopology-1-636038fb-cd6a-4407-9faf-62214a2e26db;["container_1_Consume_and_count_1"];1.25;1533084894.91799;69.96;653.7;1804.876030266;10;151
49;paravance-43.rennes.grid5000.fr;thermos-root-devel-WordCountTopology-2-3ae9598d-114a-4efb-8942-f7038ce73cbe;["container_2_Emit_random_words_2"];1.25;1533084894.91133;33.21;294.12;272.988887126;10;149
50;paravance-42.rennes.grid5000.fr;thermos-root-devel-WordCountTopology-1-636038fb-cd6a-4407-9faf-62214a2e26db;["container_1_Consume_and_count_1"];1.25;1533084905.13542;71.06;664.43;1833.827955167;10;151
50;paravance-43.rennes.grid5000.fr;thermos-root-devel-WordCountTopology-2-3ae9598d-114a-4efb-8942-f7038ce73cbe;["container_2_Emit_random_words_2"];1.25;1533084905.12958;33.64;298.01;275.755465472;10;149
50;paravance-31.rennes.grid5000.fr;thermos-root-devel-WordCountTopology-0-a2573501-34de-47b3-af46-64e08e6306df;["topology_master"];1.25;1533084905.13534;6.0;13.58;6.437227619;9;117
51;paravance-31.rennes.grid5000.fr;thermos-root-devel-WordCountTopology-0-a2573501-34de-47b3-af46-64e08e6306df;["topology_master"];1.25;1533084915.35049;6.06;13.66;6.437227619;9;117
51;paravance-42.rennes.grid5000.fr;thermos-root-devel-WordCountTopology-1-636038fb-cd6a-4407-9faf-62214a2e26db;["container_1_Consume_and_count_1"];1.25;1533084915.35249;72.25;675.24;1865.314364015;10;151
51;paravance-43.rennes.grid5000.fr;thermos-root-devel-WordCountTopology-2-3ae9598d-114a-4efb-8942-f7038ce73cbe;["container_2_Emit_random_words_2"];1.25;1533084915.34709;34.1;302.83;279.429296688;10;149
52;paravance-43.rennes.grid5000.fr;thermos-root-devel-WordCountTopology-2-3ae9598d-114a-4efb-8942-f7038ce73cbe;["container_2_Emit_random_words_2"];1.25;1533084925.56166;34.49;305.77;282.050107824;10;149
52;paravance-42.rennes.grid5000.fr;thermos-root-devel-WordCountTopology-1-636038fb-cd6a-4407-9faf-62214a2e26db;["container_1_Consume_and_count_1"];1.25;1533084925.57124;73.34;685.95;1892.896442266;10;151
52;paravance-31.rennes.grid5000.fr;thermos-root-devel-WordCountTopology-0-a2573501-34de-47b3-af46-64e08e6306df;["topology_master"];1.25;1533084925.56942;6.13;13.75;6.437227619;9;117
53;paravance-42.rennes.grid5000.fr;thermos-root-devel-WordCountTopology-1-636038fb-cd6a-4407-9faf-62214a2e26db;["container_1_Consume_and_count_1"];1.25;1533084935.68374;74.46;696.61;1917.752173298;10;151
53;paravance-31.rennes.grid5000.fr;thermos-root-devel-WordCountTopology-0-a2573501-34de-47b3-af46-64e08e6306df;["topology_master"];1.25;1533084935.78374;6.19;13.88;6.437227619;9;117
53;paravance-43.rennes.grid5000.fr;thermos-root-devel-WordCountTopology-2-3ae9598d-114a-4efb-8942-f7038ce73cbe;["container_2_Emit_random_words_2"];1.25;1533084935.7769;35.03;311.52;286.832222663;10;149
54;paravance-42.rennes.grid5000.fr;thermos-root-devel-WordCountTopology-1-636038fb-cd6a-4407-9faf-62214a2e26db;["container_1_Consume_and_count_1"];1.25;1533084946.00295;75.52;707.49;1945.1491025;10;151
54;paravance-43.rennes.grid5000.fr;thermos-root-devel-WordCountTopology-2-3ae9598d-114a-4efb-8942-f7038ce73cbe;["container_2_Emit_random_words_2"];1.25;1533084945.99545;35.53;316.0;290.169247498;10;149
54;paravance-31.rennes.grid5000.fr;thermos-root-devel-WordCountTopology-0-a2573501-34de-47b3-af46-64e08e6306df;["topology_master"];1.25;1533084946.00238;6.28;14.02;6.437227619;9;117
55;paravance-42.rennes.grid5000.fr;thermos-root-devel-WordCountTopology-1-636038fb-cd6a-4407-9faf-62214a2e26db;["container_1_Consume_and_count_1"];1.25;1533084956.21908;76.39;718.57;1970.203601678;10;151
55;paravance-43.rennes.grid5000.fr;thermos-root-devel-WordCountTopology-2-3ae9598d-114a-4efb-8942-f7038ce73cbe;["container_2_Emit_random_words_2"];1.25;1533084956.21168;35.95;319.78;293.147646038;10;149
55;paravance-31.rennes.grid5000.fr;thermos-root-devel-WordCountTopology-0-a2573501-34de-47b3-af46-64e08e6306df;["topology_master"];1.25;1533084956.22018;6.31;14.05;6.437227619;9;117
56;paravance-43.rennes.grid5000.fr;thermos-root-devel-WordCountTopology-2-3ae9598d-114a-4efb-8942-f7038ce73cbe;["container_2_Emit_random_words_2"];1.25;1533084966.42998;36.48;324.5;296.763966207;10;149
56;paravance-31.rennes.grid5000.fr;thermos-root-devel-WordCountTopology-0-a2573501-34de-47b3-af46-64e08e6306df;["topology_master"];1.25;1533084966.43566;6.4;14.17;6.437227619;9;117
56;paravance-42.rennes.grid5000.fr;thermos-root-devel-WordCountTopology-1-636038fb-cd6a-4407-9faf-62214a2e26db;["container_1_Consume_and_count_1"];1.25;1533084966.43903;77.44;729.2;1994.262125949;10;151
57;paravance-31.rennes.grid5000.fr;thermos-root-devel-WordCountTopology-0-a2573501-34de-47b3-af46-64e08e6306df;["topology_master"];1.25;1533084976.65281;6.46;14.25;6.437227619;9;117
57;paravance-43.rennes.grid5000.fr;thermos-root-devel-WordCountTopology-2-3ae9598d-114a-4efb-8942-f7038ce73cbe;["container_2_Emit_random_words_2"];1.25;1533084976.64815;36.94;327.89;299.540511068;10;149
57;paravance-42.rennes.grid5000.fr;thermos-root-devel-WordCountTopology-1-636038fb-cd6a-4407-9faf-62214a2e26db;["container_1_Consume_and_count_1"];1.25;1533084976.65678;78.64;739.72;2021.485609446;10;151
58;paravance-42.rennes.grid5000.fr;thermos-root-devel-WordCountTopology-1-636038fb-cd6a-4407-9faf-62214a2e26db;["container_1_Consume_and_count_1"];1.25;1533084986.87121;79.65;750.61;2050.418912719;10;151
58;paravance-31.rennes.grid5000.fr;thermos-root-devel-WordCountTopology-0-a2573501-34de-47b3-af46-64e08e6306df;["topology_master"];1.25;1533084986.86851;6.53;14.35;6.437227619;9;117
58;paravance-43.rennes.grid5000.fr;thermos-root-devel-WordCountTopology-2-3ae9598d-114a-4efb-8942-f7038ce73cbe;["container_2_Emit_random_words_2"];1.25;1533084986.86424;37.58;333.81;303.869019561;10;149
59;paravance-42.rennes.grid5000.fr;thermos-root-devel-WordCountTopology-1-636038fb-cd6a-4407-9faf-62214a2e26db;["container_1_Consume_and_count_1"];1.25;1533084997.08727;80.67;761.34;2076.322108549;10;151
59;paravance-43.rennes.grid5000.fr;thermos-root-devel-WordCountTopology-2-3ae9598d-114a-4efb-8942-f7038ce73cbe;["container_2_Emit_random_words_2"];1.25;1533084997.07896;37.95;337.2;306.499805033;10;149
59;paravance-31.rennes.grid5000.fr;thermos-root-devel-WordCountTopology-0-a2573501-34de-47b3-af46-64e08e6306df;["topology_master"];1.25;1533084997.08445;6.59;14.44;6.437227619;9;117
60;paravance-31.rennes.grid5000.fr;thermos-root-devel-WordCountTopology-0-a2573501-34de-47b3-af46-64e08e6306df;["topology_master"];1.25;1533085007.20149;6.68;14.56;6.437227619;9;117
60;paravance-43.rennes.grid5000.fr;thermos-root-devel-WordCountTopology-2-3ae9598d-114a-4efb-8942-f7038ce73cbe;["container_2_Emit_random_words_2"];1.25;1533085007.29538;38.43;341.68;309.738750385;10;149
60;paravance-42.rennes.grid5000.fr;thermos-root-devel-WordCountTopology-1-636038fb-cd6a-4407-9faf-62214a2e26db;["container_1_Consume_and_count_1"];1.25;1533085007.30539;81.71;772.01;2098.642201944;10;151
