mesure_id;slave_id;executor_id;heron_instances;cpus_limit;timestamp_A;cpus_system_time_secs_A;cpus_user_time_secs_A;cpus_throttled_time_secs_A;processes;threads
0;paravance-42.rennes.grid5000.fr;thermos-root-devel-WordCountTopology-1-636038fb-cd6a-4407-9faf-62214a2e26db;["container_1_Consume_and_count_1"];1.25;1533084384.17285;15.79;116.37;378.936345302;10;151
0;paravance-43.rennes.grid5000.fr;thermos-root-devel-WordCountTopology-2-3ae9598d-114a-4efb-8942-f7038ce73cbe;["container_2_Emit_random_words_2"];1.25;1533084384.16881;8.9;72.72;97.266464825;10;149
0;paravance-31.rennes.grid5000.fr;thermos-root-devel-WordCountTopology-0-a2573501-34de-47b3-af46-64e08e6306df;["topology_master"];1.25;1533084384.17244;2.5;8.47;6.436919736;9;117
1;paravance-42.rennes.grid5000.fr;thermos-root-devel-WordCountTopology-1-636038fb-cd6a-4407-9faf-62214a2e26db;["container_1_Consume_and_count_1"];1.25;1533084394.28911;16.92;127.15;414.901389693;10;151
1;paravance-43.rennes.grid5000.fr;thermos-root-devel-WordCountTopology-2-3ae9598d-114a-4efb-8942-f7038ce73cbe;["container_2_Emit_random_words_2"];1.25;1533084394.38393;9.49;78.07;102.279989019;10;149
1;paravance-31.rennes.grid5000.fr;thermos-root-devel-WordCountTopology-0-a2573501-34de-47b3-af46-64e08e6306df;["topology_master"];1.25;1533084394.38862;2.57;8.62;6.436919736;9;117
2;paravance-31.rennes.grid5000.fr;thermos-root-devel-WordCountTopology-0-a2573501-34de-47b3-af46-64e08e6306df;["topology_master"];1.25;1533084404.60304;2.67;8.77;6.436919736;9;117
2;paravance-42.rennes.grid5000.fr;thermos-root-devel-WordCountTopology-1-636038fb-cd6a-4407-9faf-62214a2e26db;["container_1_Consume_and_count_1"];1.25;1533084404.60645;18.12;137.92;447.426982526;10;151
2;paravance-43.rennes.grid5000.fr;thermos-root-devel-WordCountTopology-2-3ae9598d-114a-4efb-8942-f7038ce73cbe;["container_2_Emit_random_words_2"];1.25;1533084404.60127;9.94;82.03;105.117478302;10;149
3;paravance-42.rennes.grid5000.fr;thermos-root-devel-WordCountTopology-1-636038fb-cd6a-4407-9faf-62214a2e26db;["container_1_Consume_and_count_1"];1.25;1533084414.72352;19.26;148.53;476.911828453;10;151
3;paravance-31.rennes.grid5000.fr;thermos-root-devel-WordCountTopology-0-a2573501-34de-47b3-af46-64e08e6306df;["topology_master"];1.25;1533084414.72236;2.7;8.8;6.436919736;9;117
3;paravance-43.rennes.grid5000.fr;thermos-root-devel-WordCountTopology-2-3ae9598d-114a-4efb-8942-f7038ce73cbe;["container_2_Emit_random_words_2"];1.25;1533084414.81768;10.57;88.19;110.070746085;10;149
4;paravance-43.rennes.grid5000.fr;thermos-root-devel-WordCountTopology-2-3ae9598d-114a-4efb-8942-f7038ce73cbe;["container_2_Emit_random_words_2"];1.25;1533084425.03263;10.93;90.99;111.837304278;10;149
4;paravance-42.rennes.grid5000.fr;thermos-root-devel-WordCountTopology-1-636038fb-cd6a-4407-9faf-62214a2e26db;["container_1_Consume_and_count_1"];1.25;1533084425.03976;20.41;159.32;505.005453326;10;151
4;paravance-31.rennes.grid5000.fr;thermos-root-devel-WordCountTopology-0-a2573501-34de-47b3-af46-64e08e6306df;["topology_master"];1.25;1533084425.03682;2.79;8.92;6.436919736;9;117
5;paravance-42.rennes.grid5000.fr;thermos-root-devel-WordCountTopology-1-636038fb-cd6a-4407-9faf-62214a2e26db;["container_1_Consume_and_count_1"];1.25;1533084435.25846;21.58;170.14;534.548737649;10;151
5;paravance-31.rennes.grid5000.fr;thermos-root-devel-WordCountTopology-0-a2573501-34de-47b3-af46-64e08e6306df;["topology_master"];1.25;1533084435.25522;2.84;8.99;6.436919736;9;117
5;paravance-43.rennes.grid5000.fr;thermos-root-devel-WordCountTopology-2-3ae9598d-114a-4efb-8942-f7038ce73cbe;["container_2_Emit_random_words_2"];1.25;1533084435.25204;11.42;95.65;115.592909835;10;149
6;paravance-42.rennes.grid5000.fr;thermos-root-devel-WordCountTopology-1-636038fb-cd6a-4407-9faf-62214a2e26db;["container_1_Consume_and_count_1"];1.25;1533084445.47452;22.64;180.87;562.506821304;10;151
6;paravance-31.rennes.grid5000.fr;thermos-root-devel-WordCountTopology-0-a2573501-34de-47b3-af46-64e08e6306df;["topology_master"];1.25;1533084445.47333;2.93;9.09;6.436919736;9;117
6;paravance-43.rennes.grid5000.fr;thermos-root-devel-WordCountTopology-2-3ae9598d-114a-4efb-8942-f7038ce73cbe;["container_2_Emit_random_words_2"];1.25;1533084445.46907;12.0;100.54;119.232245549;10;149
7;paravance-31.rennes.grid5000.fr;thermos-root-devel-WordCountTopology-0-a2573501-34de-47b3-af46-64e08e6306df;["topology_master"];1.25;1533084455.68986;2.99;9.25;6.436919736;9;117
7;paravance-43.rennes.grid5000.fr;thermos-root-devel-WordCountTopology-2-3ae9598d-114a-4efb-8942-f7038ce73cbe;["container_2_Emit_random_words_2"];1.25;1533084455.68697;12.38;103.96;121.578896886;10;149
7;paravance-42.rennes.grid5000.fr;thermos-root-devel-WordCountTopology-1-636038fb-cd6a-4407-9faf-62214a2e26db;["container_1_Consume_and_count_1"];1.25;1533084455.69228;23.74;191.44;590.727141409;10;151
8;paravance-43.rennes.grid5000.fr;thermos-root-devel-WordCountTopology-2-3ae9598d-114a-4efb-8942-f7038ce73cbe;["container_2_Emit_random_words_2"];1.25;1533084465.90383;13.03;109.73;126.132532266;10;149
8;paravance-31.rennes.grid5000.fr;thermos-root-devel-WordCountTopology-0-a2573501-34de-47b3-af46-64e08e6306df;["topology_master"];1.25;1533084465.908;3.09;9.4;6.436919736;9;117
8;paravance-42.rennes.grid5000.fr;thermos-root-devel-WordCountTopology-1-636038fb-cd6a-4407-9faf-62214a2e26db;["container_1_Consume_and_count_1"];1.25;1533084465.91069;24.86;202.04;619.513096144;10;151
9;paravance-42.rennes.grid5000.fr;thermos-root-devel-WordCountTopology-1-636038fb-cd6a-4407-9faf-62214a2e26db;["container_1_Consume_and_count_1"];1.25;1533084476.12671;25.67;213.09;645.30043717;10;151
9;paravance-31.rennes.grid5000.fr;thermos-root-devel-WordCountTopology-0-a2573501-34de-47b3-af46-64e08e6306df;["topology_master"];1.25;1533084476.12458;3.15;9.48;6.436919736;9;117
9;paravance-43.rennes.grid5000.fr;thermos-root-devel-WordCountTopology-2-3ae9598d-114a-4efb-8942-f7038ce73cbe;["container_2_Emit_random_words_2"];1.25;1533084476.12194;13.43;113.45;129.101374883;10;149
10;paravance-42.rennes.grid5000.fr;thermos-root-devel-WordCountTopology-1-636038fb-cd6a-4407-9faf-62214a2e26db;["container_1_Consume_and_count_1"];1.25;1533084486.34461;26.95;223.7;675.497793617;10;151
10;paravance-43.rennes.grid5000.fr;thermos-root-devel-WordCountTopology-2-3ae9598d-114a-4efb-8942-f7038ce73cbe;["container_2_Emit_random_words_2"];1.25;1533084486.3393;14.02;118.33;133.089138772;10;149
10;paravance-31.rennes.grid5000.fr;thermos-root-devel-WordCountTopology-0-a2573501-34de-47b3-af46-64e08e6306df;["topology_master"];1.25;1533084486.34269;3.21;9.55;6.436919736;9;117
11;paravance-42.rennes.grid5000.fr;thermos-root-devel-WordCountTopology-1-636038fb-cd6a-4407-9faf-62214a2e26db;["container_1_Consume_and_count_1"];1.25;1533084496.56301;28.42;234.31;705.170768936;10;151
11;paravance-31.rennes.grid5000.fr;thermos-root-devel-WordCountTopology-0-a2573501-34de-47b3-af46-64e08e6306df;["topology_master"];1.25;1533084496.56101;3.26;9.63;6.436919736;9;117
11;paravance-43.rennes.grid5000.fr;thermos-root-devel-WordCountTopology-2-3ae9598d-114a-4efb-8942-f7038ce73cbe;["container_2_Emit_random_words_2"];1.25;1533084496.55606;14.77;126.06;139.822784881;10;149
12;paravance-43.rennes.grid5000.fr;thermos-root-devel-WordCountTopology-2-3ae9598d-114a-4efb-8942-f7038ce73cbe;["container_2_Emit_random_words_2"];1.25;1533084506.77394;15.4;131.99;144.483174062;10;149
12;paravance-42.rennes.grid5000.fr;thermos-root-devel-WordCountTopology-1-636038fb-cd6a-4407-9faf-62214a2e26db;["container_1_Consume_and_count_1"];1.25;1533084506.78159;29.84;244.82;739.346587779;10;151
12;paravance-31.rennes.grid5000.fr;thermos-root-devel-WordCountTopology-0-a2573501-34de-47b3-af46-64e08e6306df;["topology_master"];1.25;1533084506.77805;3.4;9.86;6.437227619;9;117
13;paravance-42.rennes.grid5000.fr;thermos-root-devel-WordCountTopology-1-636038fb-cd6a-4407-9faf-62214a2e26db;["container_1_Consume_and_count_1"];1.25;1533084516.99966;30.96;255.67;772.308542414;10;151
13;paravance-43.rennes.grid5000.fr;thermos-root-devel-WordCountTopology-2-3ae9598d-114a-4efb-8942-f7038ce73cbe;["container_2_Emit_random_words_2"];1.25;1533084516.9923;15.91;136.36;148.034345596;10;149
13;paravance-31.rennes.grid5000.fr;thermos-root-devel-WordCountTopology-0-a2573501-34de-47b3-af46-64e08e6306df;["topology_master"];1.25;1533084516.99675;3.42;9.91;6.437227619;9;117
14;paravance-31.rennes.grid5000.fr;thermos-root-devel-WordCountTopology-0-a2573501-34de-47b3-af46-64e08e6306df;["topology_master"];1.25;1533084527.21392;3.52;10.04;6.437227619;9;117
14;paravance-42.rennes.grid5000.fr;thermos-root-devel-WordCountTopology-1-636038fb-cd6a-4407-9faf-62214a2e26db;["container_1_Consume_and_count_1"];1.25;1533084527.21688;32.09;266.42;800.756022397;10;151
14;paravance-43.rennes.grid5000.fr;thermos-root-devel-WordCountTopology-2-3ae9598d-114a-4efb-8942-f7038ce73cbe;["container_2_Emit_random_words_2"];1.25;1533084527.21053;16.34;139.71;150.75003931;10;149
15;paravance-31.rennes.grid5000.fr;thermos-root-devel-WordCountTopology-0-a2573501-34de-47b3-af46-64e08e6306df;["topology_master"];1.25;1533084537.43259;3.58;10.12;6.437227619;9;117
15;paravance-43.rennes.grid5000.fr;thermos-root-devel-WordCountTopology-2-3ae9598d-114a-4efb-8942-f7038ce73cbe;["container_2_Emit_random_words_2"];1.25;1533084537.42854;16.75;143.96;153.851438804;10;149
15;paravance-42.rennes.grid5000.fr;thermos-root-devel-WordCountTopology-1-636038fb-cd6a-4407-9faf-62214a2e26db;["container_1_Consume_and_count_1"];1.25;1533084537.43422;33.15;277.17;829.731973755;10;151
16;paravance-42.rennes.grid5000.fr;thermos-root-devel-WordCountTopology-1-636038fb-cd6a-4407-9faf-62214a2e26db;["container_1_Consume_and_count_1"];1.25;1533084547.65295;34.06;288.13;857.59245277;10;151
16;paravance-43.rennes.grid5000.fr;thermos-root-devel-WordCountTopology-2-3ae9598d-114a-4efb-8942-f7038ce73cbe;["container_2_Emit_random_words_2"];1.25;1533084547.64692;17.21;147.57;157.017410019;10;149
16;paravance-31.rennes.grid5000.fr;thermos-root-devel-WordCountTopology-0-a2573501-34de-47b3-af46-64e08e6306df;["topology_master"];1.25;1533084547.65194;3.63;10.2;6.437227619;9;117
17;paravance-42.rennes.grid5000.fr;thermos-root-devel-WordCountTopology-1-636038fb-cd6a-4407-9faf-62214a2e26db;["container_1_Consume_and_count_1"];1.25;1533084557.8716;35.23;298.59;878.908846409;10;151
17;paravance-31.rennes.grid5000.fr;thermos-root-devel-WordCountTopology-0-a2573501-34de-47b3-af46-64e08e6306df;["topology_master"];1.25;1533084557.8689;3.69;10.27;6.437227619;9;117
17;paravance-43.rennes.grid5000.fr;thermos-root-devel-WordCountTopology-2-3ae9598d-114a-4efb-8942-f7038ce73cbe;["container_2_Emit_random_words_2"];1.25;1533084557.86548;17.65;151.76;160.487047974;10;149
18;paravance-31.rennes.grid5000.fr;thermos-root-devel-WordCountTopology-0-a2573501-34de-47b3-af46-64e08e6306df;["topology_master"];1.25;1533084568.08679;3.81;10.46;6.437227619;9;117
18;paravance-42.rennes.grid5000.fr;thermos-root-devel-WordCountTopology-1-636038fb-cd6a-4407-9faf-62214a2e26db;["container_1_Consume_and_count_1"];1.25;1533084568.08968;36.27;309.25;903.612729321;10;151
18;paravance-43.rennes.grid5000.fr;thermos-root-devel-WordCountTopology-2-3ae9598d-114a-4efb-8942-f7038ce73cbe;["container_2_Emit_random_words_2"];1.25;1533084568.08334;18.27;157.63;165.162848552;10;149
19;paravance-43.rennes.grid5000.fr;thermos-root-devel-WordCountTopology-2-3ae9598d-114a-4efb-8942-f7038ce73cbe;["container_2_Emit_random_words_2"];1.25;1533084578.30121;18.82;163.27;169.704309899;10;149
19;paravance-42.rennes.grid5000.fr;thermos-root-devel-WordCountTopology-1-636038fb-cd6a-4407-9faf-62214a2e26db;["container_1_Consume_and_count_1"];1.25;1533084578.30894;37.17;320.28;929.898449665;10;151
19;paravance-31.rennes.grid5000.fr;thermos-root-devel-WordCountTopology-0-a2573501-34de-47b3-af46-64e08e6306df;["topology_master"];1.25;1533084578.306;3.84;10.52;6.437227619;9;117
20;paravance-43.rennes.grid5000.fr;thermos-root-devel-WordCountTopology-2-3ae9598d-114a-4efb-8942-f7038ce73cbe;["container_2_Emit_random_words_2"];1.25;1533084588.51793;19.25;166.82;172.547003466;10;149
20;paravance-42.rennes.grid5000.fr;thermos-root-devel-WordCountTopology-1-636038fb-cd6a-4407-9faf-62214a2e26db;["container_1_Consume_and_count_1"];1.25;1533084588.52435;38.52;330.6;958.411357123;10;151
20;paravance-31.rennes.grid5000.fr;thermos-root-devel-WordCountTopology-0-a2573501-34de-47b3-af46-64e08e6306df;["topology_master"];1.25;1533084588.52164;3.93;10.65;6.437227619;9;117
21;paravance-31.rennes.grid5000.fr;thermos-root-devel-WordCountTopology-0-a2573501-34de-47b3-af46-64e08e6306df;["topology_master"];1.25;1533084598.73955;3.99;10.72;6.437227619;9;117
21;paravance-42.rennes.grid5000.fr;thermos-root-devel-WordCountTopology-1-636038fb-cd6a-4407-9faf-62214a2e26db;["container_1_Consume_and_count_1"];1.25;1533084598.74249;39.47;341.4;980.976433739;10;151
21;paravance-43.rennes.grid5000.fr;thermos-root-devel-WordCountTopology-2-3ae9598d-114a-4efb-8942-f7038ce73cbe;["container_2_Emit_random_words_2"];1.25;1533084598.73638;19.78;172.03;176.416946583;10;149
22;paravance-43.rennes.grid5000.fr;thermos-root-devel-WordCountTopology-2-3ae9598d-114a-4efb-8942-f7038ce73cbe;["container_2_Emit_random_words_2"];1.25;1533084608.95355;20.13;175.09;178.236206307;10;149
22;paravance-42.rennes.grid5000.fr;thermos-root-devel-WordCountTopology-1-636038fb-cd6a-4407-9faf-62214a2e26db;["container_1_Consume_and_count_1"];1.25;1533084608.96032;40.42;352.22;1007.217225328;10;151
22;paravance-31.rennes.grid5000.fr;thermos-root-devel-WordCountTopology-0-a2573501-34de-47b3-af46-64e08e6306df;["topology_master"];1.25;1533084608.95701;4.05;10.79;6.437227619;9;117
23;paravance-42.rennes.grid5000.fr;thermos-root-devel-WordCountTopology-1-636038fb-cd6a-4407-9faf-62214a2e26db;["container_1_Consume_and_count_1"];1.25;1533084619.17914;41.15;363.38;1030.777694854;10;151
23;paravance-31.rennes.grid5000.fr;thermos-root-devel-WordCountTopology-0-a2573501-34de-47b3-af46-64e08e6306df;["topology_master"];1.25;1533084619.17687;4.11;10.87;6.437227619;9;117
23;paravance-43.rennes.grid5000.fr;thermos-root-devel-WordCountTopology-2-3ae9598d-114a-4efb-8942-f7038ce73cbe;["container_2_Emit_random_words_2"];1.25;1533084619.17254;20.54;179.06;180.957974369;10;149
24;paravance-42.rennes.grid5000.fr;thermos-root-devel-WordCountTopology-1-636038fb-cd6a-4407-9faf-62214a2e26db;["container_1_Consume_and_count_1"];1.25;1533084629.39638;42.16;374.2;1055.107110504;10;151
24;paravance-43.rennes.grid5000.fr;thermos-root-devel-WordCountTopology-2-3ae9598d-114a-4efb-8942-f7038ce73cbe;["container_2_Emit_random_words_2"];1.25;1533084629.38911;21.02;183.26;184.072115887;10;149
24;paravance-31.rennes.grid5000.fr;thermos-root-devel-WordCountTopology-0-a2573501-34de-47b3-af46-64e08e6306df;["topology_master"];1.25;1533084629.39434;4.21;11.05;6.437227619;9;117
25;paravance-42.rennes.grid5000.fr;thermos-root-devel-WordCountTopology-1-636038fb-cd6a-4407-9faf-62214a2e26db;["container_1_Consume_and_count_1"];1.25;1533084639.61278;43.25;385.01;1081.765878336;10;151
25;paravance-31.rennes.grid5000.fr;thermos-root-devel-WordCountTopology-0-a2573501-34de-47b3-af46-64e08e6306df;["topology_master"];1.25;1533084639.61109;4.24;11.08;6.437227619;9;117
25;paravance-43.rennes.grid5000.fr;thermos-root-devel-WordCountTopology-2-3ae9598d-114a-4efb-8942-f7038ce73cbe;["container_2_Emit_random_words_2"];1.25;1533084639.60695;21.47;187.89;187.793238105;10;149
26;paravance-43.rennes.grid5000.fr;thermos-root-devel-WordCountTopology-2-3ae9598d-114a-4efb-8942-f7038ce73cbe;["container_2_Emit_random_words_2"];1.25;1533084649.82183;22.03;193.06;191.773792874;10;149
26;paravance-42.rennes.grid5000.fr;thermos-root-devel-WordCountTopology-1-636038fb-cd6a-4407-9faf-62214a2e26db;["container_1_Consume_and_count_1"];1.25;1533084649.82929;44.18;395.93;1113.277122782;10;151
26;paravance-31.rennes.grid5000.fr;thermos-root-devel-WordCountTopology-0-a2573501-34de-47b3-af46-64e08e6306df;["topology_master"];1.25;1533084649.82673;4.33;11.2;6.437227619;9;117
27;paravance-31.rennes.grid5000.fr;thermos-root-devel-WordCountTopology-0-a2573501-34de-47b3-af46-64e08e6306df;["topology_master"];1.25;1533084660.04166;4.39;11.27;6.437227619;9;117
27;paravance-42.rennes.grid5000.fr;thermos-root-devel-WordCountTopology-1-636038fb-cd6a-4407-9faf-62214a2e26db;["container_1_Consume_and_count_1"];1.25;1533084660.04462;45.17;406.88;1143.497604969;10;151
27;paravance-43.rennes.grid5000.fr;thermos-root-devel-WordCountTopology-2-3ae9598d-114a-4efb-8942-f7038ce73cbe;["container_2_Emit_random_words_2"];1.25;1533084660.03696;22.42;196.44;194.218631639;10;149
28;paravance-43.rennes.grid5000.fr;thermos-root-devel-WordCountTopology-2-3ae9598d-114a-4efb-8942-f7038ce73cbe;["container_2_Emit_random_words_2"];1.25;1533084670.25258;22.87;200.45;197.541887681;10;149
28;paravance-42.rennes.grid5000.fr;thermos-root-devel-WordCountTopology-1-636038fb-cd6a-4407-9faf-62214a2e26db;["container_1_Consume_and_count_1"];1.25;1533084670.25765;46.25;417.79;1174.603507587;10;151
28;paravance-31.rennes.grid5000.fr;thermos-root-devel-WordCountTopology-0-a2573501-34de-47b3-af46-64e08e6306df;["topology_master"];1.25;1533084670.25621;4.45;11.34;6.437227619;9;117
29;paravance-42.rennes.grid5000.fr;thermos-root-devel-WordCountTopology-1-636038fb-cd6a-4407-9faf-62214a2e26db;["container_1_Consume_and_count_1"];1.25;1533084680.47357;47.44;428.25;1201.007445149;10;151
29;paravance-31.rennes.grid5000.fr;thermos-root-devel-WordCountTopology-0-a2573501-34de-47b3-af46-64e08e6306df;["topology_master"];1.25;1533084680.47221;4.5;11.42;6.437227619;9;117
29;paravance-43.rennes.grid5000.fr;thermos-root-devel-WordCountTopology-2-3ae9598d-114a-4efb-8942-f7038ce73cbe;["container_2_Emit_random_words_2"];1.25;1533084680.46732;23.35;204.85;200.57084074;10;149
30;paravance-42.rennes.grid5000.fr;thermos-root-devel-WordCountTopology-1-636038fb-cd6a-4407-9faf-62214a2e26db;["container_1_Consume_and_count_1"];1.25;1533084690.68949;48.69;438.62;1230.004445338;10;151
30;paravance-43.rennes.grid5000.fr;thermos-root-devel-WordCountTopology-2-3ae9598d-114a-4efb-8942-f7038ce73cbe;["container_2_Emit_random_words_2"];1.25;1533084690.68343;23.77;208.39;203.427063022;10;149
30;paravance-31.rennes.grid5000.fr;thermos-root-devel-WordCountTopology-0-a2573501-34de-47b3-af46-64e08e6306df;["topology_master"];1.25;1533084690.68888;4.61;11.58;6.437227619;9;117
31;paravance-42.rennes.grid5000.fr;thermos-root-devel-WordCountTopology-1-636038fb-cd6a-4407-9faf-62214a2e26db;["container_1_Consume_and_count_1"];1.25;1533084700.90688;49.63;449.46;1255.571011045;10;151
31;paravance-43.rennes.grid5000.fr;thermos-root-devel-WordCountTopology-2-3ae9598d-114a-4efb-8942-f7038ce73cbe;["container_2_Emit_random_words_2"];1.25;1533084700.90033;24.21;212.78;206.19451453;10;147
31;paravance-31.rennes.grid5000.fr;thermos-root-devel-WordCountTopology-0-a2573501-34de-47b3-af46-64e08e6306df;["topology_master"];1.25;1533084700.90536;4.65;11.63;6.437227619;9;115
32;paravance-42.rennes.grid5000.fr;thermos-root-devel-WordCountTopology-1-636038fb-cd6a-4407-9faf-62214a2e26db;["container_1_Consume_and_count_1"];1.25;1533084711.1213;50.81;460.07;1282.986953235;10;151
32;paravance-43.rennes.grid5000.fr;thermos-root-devel-WordCountTopology-2-3ae9598d-114a-4efb-8942-f7038ce73cbe;["container_2_Emit_random_words_2"];1.25;1533084711.11699;24.75;218.01;210.021513749;10;149
32;paravance-31.rennes.grid5000.fr;thermos-root-devel-WordCountTopology-0-a2573501-34de-47b3-af46-64e08e6306df;["topology_master"];1.25;1533084711.12096;4.74;11.74;6.437227619;9;117
33;paravance-42.rennes.grid5000.fr;thermos-root-devel-WordCountTopology-1-636038fb-cd6a-4407-9faf-62214a2e26db;["container_1_Consume_and_count_1"];1.25;1533084721.34118;51.84;470.84;1315.124783367;10;151
33;paravance-31.rennes.grid5000.fr;thermos-root-devel-WordCountTopology-0-a2573501-34de-47b3-af46-64e08e6306df;["topology_master"];1.25;1533084721.33754;4.82;11.87;6.437227619;9;117
33;paravance-43.rennes.grid5000.fr;thermos-root-devel-WordCountTopology-2-3ae9598d-114a-4efb-8942-f7038ce73cbe;["container_2_Emit_random_words_2"];1.25;1533084721.33352;25.27;222.94;213.809238311;10;149
34;paravance-43.rennes.grid5000.fr;thermos-root-devel-WordCountTopology-2-3ae9598d-114a-4efb-8942-f7038ce73cbe;["container_2_Emit_random_words_2"];1.25;1533084731.54742;25.63;226.17;216.387787708;10;149
34;paravance-42.rennes.grid5000.fr;thermos-root-devel-WordCountTopology-1-636038fb-cd6a-4407-9faf-62214a2e26db;["container_1_Consume_and_count_1"];1.25;1533084731.55474;53.0;481.5;1343.721135709;10;151
34;paravance-31.rennes.grid5000.fr;thermos-root-devel-WordCountTopology-0-a2573501-34de-47b3-af46-64e08e6306df;["topology_master"];1.25;1533084731.55184;4.85;11.89;6.437227619;9;117
35;paravance-42.rennes.grid5000.fr;thermos-root-devel-WordCountTopology-1-636038fb-cd6a-4407-9faf-62214a2e26db;["container_1_Consume_and_count_1"];1.25;1533084741.7706;53.89;492.44;1370.622773593;10;151
35;paravance-31.rennes.grid5000.fr;thermos-root-devel-WordCountTopology-0-a2573501-34de-47b3-af46-64e08e6306df;["topology_master"];1.25;1533084741.76806;4.95;12.03;6.437227619;9;117
35;paravance-43.rennes.grid5000.fr;thermos-root-devel-WordCountTopology-2-3ae9598d-114a-4efb-8942-f7038ce73cbe;["container_2_Emit_random_words_2"];1.25;1533084741.76421;26.23;231.21;220.807563044;10;149
36;paravance-31.rennes.grid5000.fr;thermos-root-devel-WordCountTopology-0-a2573501-34de-47b3-af46-64e08e6306df;["topology_master"];1.25;1533084751.88547;5.01;12.19;6.437227619;9;117
36;paravance-43.rennes.grid5000.fr;thermos-root-devel-WordCountTopology-2-3ae9598d-114a-4efb-8942-f7038ce73cbe;["container_2_Emit_random_words_2"];1.25;1533084751.98077;26.68;235.22;224.370506786;10;149
36;paravance-42.rennes.grid5000.fr;thermos-root-devel-WordCountTopology-1-636038fb-cd6a-4407-9faf-62214a2e26db;["container_1_Consume_and_count_1"];1.25;1533084751.98849;55.18;502.83;1401.103663328;10;151
37;paravance-42.rennes.grid5000.fr;thermos-root-devel-WordCountTopology-1-636038fb-cd6a-4407-9faf-62214a2e26db;["container_1_Consume_and_count_1"];1.25;1533084762.20208;56.22;513.57;1431.918108543;10;151
37;paravance-43.rennes.grid5000.fr;thermos-root-devel-WordCountTopology-2-3ae9598d-114a-4efb-8942-f7038ce73cbe;["container_2_Emit_random_words_2"];1.25;1533084762.19596;27.15;239.47;227.632028208;10;149
37;paravance-31.rennes.grid5000.fr;thermos-root-devel-WordCountTopology-0-a2573501-34de-47b3-af46-64e08e6306df;["topology_master"];1.25;1533084762.20109;5.07;12.27;6.437227619;9;117
38;paravance-42.rennes.grid5000.fr;thermos-root-devel-WordCountTopology-1-636038fb-cd6a-4407-9faf-62214a2e26db;["container_1_Consume_and_count_1"];1.25;1533084772.4186;57.08;524.6;1461.663087649;10;151
38;paravance-43.rennes.grid5000.fr;thermos-root-devel-WordCountTopology-2-3ae9598d-114a-4efb-8942-f7038ce73cbe;["container_2_Emit_random_words_2"];1.25;1533084772.41192;27.6;243.81;231.375770484;10;149
38;paravance-31.rennes.grid5000.fr;thermos-root-devel-WordCountTopology-0-a2573501-34de-47b3-af46-64e08e6306df;["topology_master"];1.25;1533084772.416;5.13;12.35;6.437227619;9;117
39;paravance-42.rennes.grid5000.fr;thermos-root-devel-WordCountTopology-1-636038fb-cd6a-4407-9faf-62214a2e26db;["container_1_Consume_and_count_1"];1.25;1533084782.63593;58.33;535.31;1491.446825415;10;151
39;paravance-43.rennes.grid5000.fr;thermos-root-devel-WordCountTopology-2-3ae9598d-114a-4efb-8942-f7038ce73cbe;["container_2_Emit_random_words_2"];1.25;1533084782.62859;28.16;249.09;236.097054507;10;149
39;paravance-31.rennes.grid5000.fr;thermos-root-devel-WordCountTopology-0-a2573501-34de-47b3-af46-64e08e6306df;["topology_master"];1.25;1533084782.63404;5.22;12.47;6.437227619;9;117
40;paravance-31.rennes.grid5000.fr;thermos-root-devel-WordCountTopology-0-a2573501-34de-47b3-af46-64e08e6306df;["topology_master"];1.25;1533084792.84974;5.25;12.49;6.437227619;9;117
40;paravance-42.rennes.grid5000.fr;thermos-root-devel-WordCountTopology-1-636038fb-cd6a-4407-9faf-62214a2e26db;["container_1_Consume_and_count_1"];1.25;1533084792.85148;59.38;546.23;1521.6677101;10;151
40;paravance-43.rennes.grid5000.fr;thermos-root-devel-WordCountTopology-2-3ae9598d-114a-4efb-8942-f7038ce73cbe;["container_2_Emit_random_words_2"];1.25;1533084792.84646;28.45;251.85;238.185664323;10;149
41;paravance-42.rennes.grid5000.fr;thermos-root-devel-WordCountTopology-1-636038fb-cd6a-4407-9faf-62214a2e26db;["container_1_Consume_and_count_1"];1.25;1533084803.06902;60.69;556.91;1552.612709467;10;151
41;paravance-31.rennes.grid5000.fr;thermos-root-devel-WordCountTopology-0-a2573501-34de-47b3-af46-64e08e6306df;["topology_master"];1.25;1533084803.0671;5.34;12.63;6.437227619;9;117
41;paravance-43.rennes.grid5000.fr;thermos-root-devel-WordCountTopology-2-3ae9598d-114a-4efb-8942-f7038ce73cbe;["container_2_Emit_random_words_2"];1.25;1533084803.06365;29.01;257.1;242.291859706;10;150
42;paravance-43.rennes.grid5000.fr;thermos-root-devel-WordCountTopology-2-3ae9598d-114a-4efb-8942-f7038ce73cbe;["container_2_Emit_random_words_2"];1.25;1533084813.17821;29.37;259.9;244.480927414;10;150
42;paravance-42.rennes.grid5000.fr;thermos-root-devel-WordCountTopology-1-636038fb-cd6a-4407-9faf-62214a2e26db;["container_1_Consume_and_count_1"];1.25;1533084813.2843;61.52;567.78;1578.169722749;10;151
42;paravance-31.rennes.grid5000.fr;thermos-root-devel-WordCountTopology-0-a2573501-34de-47b3-af46-64e08e6306df;["topology_master"];1.25;1533084813.28302;5.41;12.74;6.437227619;9;117
43;paravance-42.rennes.grid5000.fr;thermos-root-devel-WordCountTopology-1-636038fb-cd6a-4407-9faf-62214a2e26db;["container_1_Consume_and_count_1"];1.25;1533084823.50031;62.47;578.46;1601.199913715;10;151
43;paravance-31.rennes.grid5000.fr;thermos-root-devel-WordCountTopology-0-a2573501-34de-47b3-af46-64e08e6306df;["topology_master"];1.25;1533084823.49806;5.5;12.86;6.437227619;9;117
43;paravance-43.rennes.grid5000.fr;thermos-root-devel-WordCountTopology-2-3ae9598d-114a-4efb-8942-f7038ce73cbe;["container_2_Emit_random_words_2"];1.25;1533084823.49403;29.82;263.88;247.64303617;10;149
44;paravance-43.rennes.grid5000.fr;thermos-root-devel-WordCountTopology-2-3ae9598d-114a-4efb-8942-f7038ce73cbe;["container_2_Emit_random_words_2"];1.25;1533084833.70994;30.4;269.83;252.638364802;10;149
44;paravance-42.rennes.grid5000.fr;thermos-root-devel-WordCountTopology-1-636038fb-cd6a-4407-9faf-62214a2e26db;["container_1_Consume_and_count_1"];1.25;1533084833.71871;63.48;589.21;1626.750597576;10;151
44;paravance-31.rennes.grid5000.fr;thermos-root-devel-WordCountTopology-0-a2573501-34de-47b3-af46-64e08e6306df;["topology_master"];1.25;1533084833.71567;5.52;12.89;6.437227619;9;117
45;paravance-43.rennes.grid5000.fr;thermos-root-devel-WordCountTopology-2-3ae9598d-114a-4efb-8942-f7038ce73cbe;["container_2_Emit_random_words_2"];1.25;1533084843.92741;30.85;273.62;255.326473721;10;149
45;paravance-42.rennes.grid5000.fr;thermos-root-devel-WordCountTopology-1-636038fb-cd6a-4407-9faf-62214a2e26db;["container_1_Consume_and_count_1"];1.25;1533084843.93573;64.43;600.15;1653.409780879;10;151
45;paravance-31.rennes.grid5000.fr;thermos-root-devel-WordCountTopology-0-a2573501-34de-47b3-af46-64e08e6306df;["topology_master"];1.25;1533084843.93254;5.61;13.01;6.437227619;9;117
46;paravance-42.rennes.grid5000.fr;thermos-root-devel-WordCountTopology-1-636038fb-cd6a-4407-9faf-62214a2e26db;["container_1_Consume_and_count_1"];1.25;1533084854.15285;65.55;610.78;1684.669521742;10;151
46;paravance-31.rennes.grid5000.fr;thermos-root-devel-WordCountTopology-0-a2573501-34de-47b3-af46-64e08e6306df;["topology_master"];1.25;1533084854.14942;5.67;13.08;6.437227619;9;117
46;paravance-43.rennes.grid5000.fr;thermos-root-devel-WordCountTopology-2-3ae9598d-114a-4efb-8942-f7038ce73cbe;["container_2_Emit_random_words_2"];1.25;1533084854.15135;31.27;277.8;259.01785709;10;149
47;paravance-42.rennes.grid5000.fr;thermos-root-devel-WordCountTopology-1-636038fb-cd6a-4407-9faf-62214a2e26db;["container_1_Consume_and_count_1"];1.25;1533084864.37685;66.82;621.34;1716.127392948;10;151
47;paravance-43.rennes.grid5000.fr;thermos-root-devel-WordCountTopology-2-3ae9598d-114a-4efb-8942-f7038ce73cbe;["container_2_Emit_random_words_2"];1.25;1533084864.36878;31.78;282.18;262.435511945;10;149
47;paravance-31.rennes.grid5000.fr;thermos-root-devel-WordCountTopology-0-a2573501-34de-47b3-af46-64e08e6306df;["topology_master"];1.25;1533084864.37497;5.73;13.16;6.437227619;9;117
48;paravance-42.rennes.grid5000.fr;thermos-root-devel-WordCountTopology-1-636038fb-cd6a-4407-9faf-62214a2e26db;["container_1_Consume_and_count_1"];1.25;1533084874.59325;67.89;632.15;1746.492973665;10;151
48;paravance-43.rennes.grid5000.fr;thermos-root-devel-WordCountTopology-2-3ae9598d-114a-4efb-8942-f7038ce73cbe;["container_2_Emit_random_words_2"];1.25;1533084874.58622;32.28;285.87;265.592649517;10;149
48;paravance-31.rennes.grid5000.fr;thermos-root-devel-WordCountTopology-0-a2573501-34de-47b3-af46-64e08e6306df;["topology_master"];1.25;1533084874.59164;5.79;13.29;6.437227619;9;117
49;paravance-31.rennes.grid5000.fr;thermos-root-devel-WordCountTopology-0-a2573501-34de-47b3-af46-64e08e6306df;["topology_master"];1.25;1533084884.80812;5.88;13.42;6.437227619;9;117
49;paravance-42.rennes.grid5000.fr;thermos-root-devel-WordCountTopology-1-636038fb-cd6a-4407-9faf-62214a2e26db;["container_1_Consume_and_count_1"];1.25;1533084884.81058;68.79;643.13;1775.466504562;10;151
49;paravance-43.rennes.grid5000.fr;thermos-root-devel-WordCountTopology-2-3ae9598d-114a-4efb-8942-f7038ce73cbe;["container_2_Emit_random_words_2"];1.25;1533084884.80347;32.7;289.34;268.680838386;10;149
50;paravance-42.rennes.grid5000.fr;thermos-root-devel-WordCountTopology-1-636038fb-cd6a-4407-9faf-62214a2e26db;["container_1_Consume_and_count_1"];1.25;1533084895.02882;69.97;653.82;1805.198695285;10;151
50;paravance-43.rennes.grid5000.fr;thermos-root-devel-WordCountTopology-2-3ae9598d-114a-4efb-8942-f7038ce73cbe;["container_2_Emit_random_words_2"];1.25;1533084895.02087;33.21;294.12;272.988887126;10;149
50;paravance-31.rennes.grid5000.fr;thermos-root-devel-WordCountTopology-0-a2573501-34de-47b3-af46-64e08e6306df;["topology_master"];1.25;1533084895.02624;5.91;13.45;6.437227619;9;117
51;paravance-31.rennes.grid5000.fr;thermos-root-devel-WordCountTopology-0-a2573501-34de-47b3-af46-64e08e6306df;["topology_master"];1.25;1533084905.24303;6.0;13.58;6.437227619;9;117
51;paravance-42.rennes.grid5000.fr;thermos-root-devel-WordCountTopology-1-636038fb-cd6a-4407-9faf-62214a2e26db;["container_1_Consume_and_count_1"];1.25;1533084905.24577;71.07;664.56;1834.589627862;10;151
51;paravance-43.rennes.grid5000.fr;thermos-root-devel-WordCountTopology-2-3ae9598d-114a-4efb-8942-f7038ce73cbe;["container_2_Emit_random_words_2"];1.25;1533084905.23887;33.66;298.14;275.889334246;10;149
52;paravance-43.rennes.grid5000.fr;thermos-root-devel-WordCountTopology-2-3ae9598d-114a-4efb-8942-f7038ce73cbe;["container_2_Emit_random_words_2"];1.25;1533084915.45497;34.11;302.96;279.505434901;10;149
52;paravance-42.rennes.grid5000.fr;thermos-root-devel-WordCountTopology-1-636038fb-cd6a-4407-9faf-62214a2e26db;["container_1_Consume_and_count_1"];1.25;1533084915.46443;72.27;675.37;1865.715597645;10;151
52;paravance-31.rennes.grid5000.fr;thermos-root-devel-WordCountTopology-0-a2573501-34de-47b3-af46-64e08e6306df;["topology_master"];1.25;1533084915.46066;6.06;13.66;6.437227619;9;117
53;paravance-42.rennes.grid5000.fr;thermos-root-devel-WordCountTopology-1-636038fb-cd6a-4407-9faf-62214a2e26db;["container_1_Consume_and_count_1"];1.25;1533084925.57805;73.34;685.95;1892.896442266;10;151
53;paravance-43.rennes.grid5000.fr;thermos-root-devel-WordCountTopology-2-3ae9598d-114a-4efb-8942-f7038ce73cbe;["container_2_Emit_random_words_2"];1.25;1533084925.67039;34.5;305.88;282.130980745;10;149
53;paravance-31.rennes.grid5000.fr;thermos-root-devel-WordCountTopology-0-a2573501-34de-47b3-af46-64e08e6306df;["topology_master"];1.25;1533084925.67556;6.13;13.75;6.437227619;9;117
54;paravance-42.rennes.grid5000.fr;thermos-root-devel-WordCountTopology-1-636038fb-cd6a-4407-9faf-62214a2e26db;["container_1_Consume_and_count_1"];1.25;1533084935.89668;74.49;696.8;1918.705021962;10;151
54;paravance-43.rennes.grid5000.fr;thermos-root-devel-WordCountTopology-2-3ae9598d-114a-4efb-8942-f7038ce73cbe;["container_2_Emit_random_words_2"];1.25;1533084935.88946;35.03;311.53;286.832222663;10;149
54;paravance-31.rennes.grid5000.fr;thermos-root-devel-WordCountTopology-0-a2573501-34de-47b3-af46-64e08e6306df;["topology_master"];1.25;1533084935.89559;6.19;13.88;6.437227619;9;117
55;paravance-42.rennes.grid5000.fr;thermos-root-devel-WordCountTopology-1-636038fb-cd6a-4407-9faf-62214a2e26db;["container_1_Consume_and_count_1"];1.25;1533084946.11261;75.53;707.59;1945.157104288;10;151
55;paravance-43.rennes.grid5000.fr;thermos-root-devel-WordCountTopology-2-3ae9598d-114a-4efb-8942-f7038ce73cbe;["container_2_Emit_random_words_2"];1.25;1533084946.10393;35.54;316.11;290.212511123;10;149
55;paravance-31.rennes.grid5000.fr;thermos-root-devel-WordCountTopology-0-a2573501-34de-47b3-af46-64e08e6306df;["topology_master"];1.25;1533084946.11381;6.28;14.02;6.437227619;9;117
56;paravance-43.rennes.grid5000.fr;thermos-root-devel-WordCountTopology-2-3ae9598d-114a-4efb-8942-f7038ce73cbe;["container_2_Emit_random_words_2"];1.25;1533084956.32268;35.96;319.78;293.147646038;10;149
56;paravance-31.rennes.grid5000.fr;thermos-root-devel-WordCountTopology-0-a2573501-34de-47b3-af46-64e08e6306df;["topology_master"];1.25;1533084956.32815;6.31;14.05;6.437227619;9;117
56;paravance-42.rennes.grid5000.fr;thermos-root-devel-WordCountTopology-1-636038fb-cd6a-4407-9faf-62214a2e26db;["container_1_Consume_and_count_1"];1.25;1533084956.33269;76.4;718.66;1970.567790475;10;151
57;paravance-31.rennes.grid5000.fr;thermos-root-devel-WordCountTopology-0-a2573501-34de-47b3-af46-64e08e6306df;["topology_master"];1.25;1533084966.54564;6.4;14.17;6.437227619;9;117
57;paravance-43.rennes.grid5000.fr;thermos-root-devel-WordCountTopology-2-3ae9598d-114a-4efb-8942-f7038ce73cbe;["container_2_Emit_random_words_2"];1.25;1533084966.541;36.48;324.5;296.763966207;10;149
57;paravance-42.rennes.grid5000.fr;thermos-root-devel-WordCountTopology-1-636038fb-cd6a-4407-9faf-62214a2e26db;["container_1_Consume_and_count_1"];1.25;1533084966.54934;77.45;729.35;1994.632313258;10;151
58;paravance-42.rennes.grid5000.fr;thermos-root-devel-WordCountTopology-1-636038fb-cd6a-4407-9faf-62214a2e26db;["container_1_Consume_and_count_1"];1.25;1533084976.76552;78.64;739.83;2021.485609446;10;151
58;paravance-31.rennes.grid5000.fr;thermos-root-devel-WordCountTopology-0-a2573501-34de-47b3-af46-64e08e6306df;["topology_master"];1.25;1533084976.76132;6.46;14.25;6.437227619;9;117
58;paravance-43.rennes.grid5000.fr;thermos-root-devel-WordCountTopology-2-3ae9598d-114a-4efb-8942-f7038ce73cbe;["container_2_Emit_random_words_2"];1.25;1533084976.75682;36.94;327.9;299.540511068;10;149
59;paravance-42.rennes.grid5000.fr;thermos-root-devel-WordCountTopology-1-636038fb-cd6a-4407-9faf-62214a2e26db;["container_1_Consume_and_count_1"];1.25;1533084986.98099;79.65;750.72;2050.695132224;10;151
59;paravance-43.rennes.grid5000.fr;thermos-root-devel-WordCountTopology-2-3ae9598d-114a-4efb-8942-f7038ce73cbe;["container_2_Emit_random_words_2"];1.25;1533084986.97175;37.58;333.81;303.869019561;10;149
59;paravance-31.rennes.grid5000.fr;thermos-root-devel-WordCountTopology-0-a2573501-34de-47b3-af46-64e08e6306df;["topology_master"];1.25;1533084986.97643;6.53;14.36;6.437227619;9;117
60;paravance-31.rennes.grid5000.fr;thermos-root-devel-WordCountTopology-0-a2573501-34de-47b3-af46-64e08e6306df;["topology_master"];1.25;1533084997.09432;6.59;14.44;6.437227619;9;117
60;paravance-43.rennes.grid5000.fr;thermos-root-devel-WordCountTopology-2-3ae9598d-114a-4efb-8942-f7038ce73cbe;["container_2_Emit_random_words_2"];1.25;1533084997.18839;37.97;337.34;306.590693572;10;149
60;paravance-42.rennes.grid5000.fr;thermos-root-devel-WordCountTopology-1-636038fb-cd6a-4407-9faf-62214a2e26db;["container_1_Consume_and_count_1"];1.25;1533084997.19765;80.69;761.46;2076.322108549;10;151
