mesure_id;slave_id;executor_id;heron_instances;cpus_limit;timestamp_A;cpus_system_time_secs_A;cpus_user_time_secs_A;cpus_throttled_time_secs_A;processes;threads
0;paravance-56.rennes.grid5000.fr;thermos-root-devel-WordCountTopology-0-89e6d786-5d51-4548-95c6-4f7016ad7f1e;["topology_master"];5.25;1533124852.66767;2.48;8.1;0.0;9;117
0;paravance-59.rennes.grid5000.fr;thermos-root-devel-WordCountTopology-2-71f98318-0ba4-4d13-8625-34db4c5dfbc8;["container_2_Emit_random_words_2"];5.25;1533124852.48416;34.49;198.33;1.064281068;10;149
0;paravance-58.rennes.grid5000.fr;thermos-root-devel-WordCountTopology-1-c28a9ff2-c0f3-4031-a7af-9acde7f82248;["container_1_Consume_and_count_1"];5.25;1533124852.80917;47.79;278.26;0.016061944;10;149
1;paravance-58.rennes.grid5000.fr;thermos-root-devel-WordCountTopology-1-c28a9ff2-c0f3-4031-a7af-9acde7f82248;["container_1_Consume_and_count_1"];5.25;1533124863.02455;51.82;303.57;0.016061944;10;149
1;paravance-59.rennes.grid5000.fr;thermos-root-devel-WordCountTopology-2-71f98318-0ba4-4d13-8625-34db4c5dfbc8;["container_2_Emit_random_words_2"];5.25;1533124862.71087;37.19;213.62;1.064281068;10;149
1;paravance-56.rennes.grid5000.fr;thermos-root-devel-WordCountTopology-0-89e6d786-5d51-4548-95c6-4f7016ad7f1e;["topology_master"];5.25;1533124862.89557;2.55;8.26;0.0;9;117
2;paravance-59.rennes.grid5000.fr;thermos-root-devel-WordCountTopology-2-71f98318-0ba4-4d13-8625-34db4c5dfbc8;["container_2_Emit_random_words_2"];5.25;1533124872.93361;39.88;229.08;1.064281068;10;149
2;paravance-56.rennes.grid5000.fr;thermos-root-devel-WordCountTopology-0-89e6d786-5d51-4548-95c6-4f7016ad7f1e;["topology_master"];5.25;1533124873.11813;2.64;8.38;0.0;9;117
2;paravance-58.rennes.grid5000.fr;thermos-root-devel-WordCountTopology-1-c28a9ff2-c0f3-4031-a7af-9acde7f82248;["container_1_Consume_and_count_1"];5.25;1533124873.24027;55.83;328.79;0.016061944;10;149
3;paravance-58.rennes.grid5000.fr;thermos-root-devel-WordCountTopology-1-c28a9ff2-c0f3-4031-a7af-9acde7f82248;["container_1_Consume_and_count_1"];5.25;1533124883.44923;59.77;353.11;0.016061944;10;149
3;paravance-59.rennes.grid5000.fr;thermos-root-devel-WordCountTopology-2-71f98318-0ba4-4d13-8625-34db4c5dfbc8;["container_2_Emit_random_words_2"];5.25;1533124883.1545;42.54;244.47;1.064281068;10;149
3;paravance-56.rennes.grid5000.fr;thermos-root-devel-WordCountTopology-0-89e6d786-5d51-4548-95c6-4f7016ad7f1e;["topology_master"];5.25;1533124883.33882;2.67;8.42;0.0;9;117
4;paravance-58.rennes.grid5000.fr;thermos-root-devel-WordCountTopology-1-c28a9ff2-c0f3-4031-a7af-9acde7f82248;["container_1_Consume_and_count_1"];5.25;1533124893.65866;63.68;377.39;0.016061944;10;149
4;paravance-59.rennes.grid5000.fr;thermos-root-devel-WordCountTopology-2-71f98318-0ba4-4d13-8625-34db4c5dfbc8;["container_2_Emit_random_words_2"];5.25;1533124893.37135;45.1;258.69;1.064281068;10;149
4;paravance-56.rennes.grid5000.fr;thermos-root-devel-WordCountTopology-0-89e6d786-5d51-4548-95c6-4f7016ad7f1e;["topology_master"];5.25;1533124893.5573;2.76;8.54;0.0;9;117
5;paravance-58.rennes.grid5000.fr;thermos-root-devel-WordCountTopology-1-c28a9ff2-c0f3-4031-a7af-9acde7f82248;["container_1_Consume_and_count_1"];5.25;1533124903.86698;67.73;401.52;0.016061944;10;149
5;paravance-56.rennes.grid5000.fr;thermos-root-devel-WordCountTopology-0-89e6d786-5d51-4548-95c6-4f7016ad7f1e;["topology_master"];5.25;1533124903.77721;2.81;8.62;0.0;9;117
5;paravance-59.rennes.grid5000.fr;thermos-root-devel-WordCountTopology-2-71f98318-0ba4-4d13-8625-34db4c5dfbc8;["container_2_Emit_random_words_2"];5.25;1533124903.59344;47.65;273.72;1.064281068;10;149
6;paravance-58.rennes.grid5000.fr;thermos-root-devel-WordCountTopology-1-c28a9ff2-c0f3-4031-a7af-9acde7f82248;["container_1_Consume_and_count_1"];5.25;1533124914.07626;71.9;425.78;0.016061944;10;149
6;paravance-59.rennes.grid5000.fr;thermos-root-devel-WordCountTopology-2-71f98318-0ba4-4d13-8625-34db4c5dfbc8;["container_2_Emit_random_words_2"];5.25;1533124913.81302;50.41;289.49;1.064281068;10;149
6;paravance-56.rennes.grid5000.fr;thermos-root-devel-WordCountTopology-0-89e6d786-5d51-4548-95c6-4f7016ad7f1e;["topology_master"];5.25;1533124913.99709;2.93;8.78;0.0;9;117
7;paravance-58.rennes.grid5000.fr;thermos-root-devel-WordCountTopology-1-c28a9ff2-c0f3-4031-a7af-9acde7f82248;["container_1_Consume_and_count_1"];5.25;1533124924.28465;75.8;449.97;0.016061944;10;149
7;paravance-59.rennes.grid5000.fr;thermos-root-devel-WordCountTopology-2-71f98318-0ba4-4d13-8625-34db4c5dfbc8;["container_2_Emit_random_words_2"];5.25;1533124924.0314;53.04;304.88;1.064281068;10;149
7;paravance-56.rennes.grid5000.fr;thermos-root-devel-WordCountTopology-0-89e6d786-5d51-4548-95c6-4f7016ad7f1e;["topology_master"];5.25;1533124924.21725;2.97;8.88;0.0;9;117
8;paravance-58.rennes.grid5000.fr;thermos-root-devel-WordCountTopology-1-c28a9ff2-c0f3-4031-a7af-9acde7f82248;["container_1_Consume_and_count_1"];5.25;1533124934.49546;79.81;474.57;0.016061944;10;149
8;paravance-59.rennes.grid5000.fr;thermos-root-devel-WordCountTopology-2-71f98318-0ba4-4d13-8625-34db4c5dfbc8;["container_2_Emit_random_words_2"];5.25;1533124934.2515;55.79;320.54;1.064281068;10;149
8;paravance-56.rennes.grid5000.fr;thermos-root-devel-WordCountTopology-0-89e6d786-5d51-4548-95c6-4f7016ad7f1e;["topology_master"];5.25;1533124934.43639;3.06;9.01;0.0;9;117
9;paravance-58.rennes.grid5000.fr;thermos-root-devel-WordCountTopology-1-c28a9ff2-c0f3-4031-a7af-9acde7f82248;["container_1_Consume_and_count_1"];5.25;1533124944.60254;83.47;499.22;0.016061944;10;149
9;paravance-59.rennes.grid5000.fr;thermos-root-devel-WordCountTopology-2-71f98318-0ba4-4d13-8625-34db4c5dfbc8;["container_2_Emit_random_words_2"];5.25;1533124944.46907;58.43;335.37;1.064281068;10;149
9;paravance-56.rennes.grid5000.fr;thermos-root-devel-WordCountTopology-0-89e6d786-5d51-4548-95c6-4f7016ad7f1e;["topology_master"];5.25;1533124944.6539;3.12;9.08;0.0;9;117
10;paravance-58.rennes.grid5000.fr;thermos-root-devel-WordCountTopology-1-c28a9ff2-c0f3-4031-a7af-9acde7f82248;["container_1_Consume_and_count_1"];5.25;1533124954.91108;87.49;523.58;0.016061944;10;149
10;paravance-59.rennes.grid5000.fr;thermos-root-devel-WordCountTopology-2-71f98318-0ba4-4d13-8625-34db4c5dfbc8;["container_2_Emit_random_words_2"];5.25;1533124954.68853;61.24;351.15;1.064281068;10;149
10;paravance-56.rennes.grid5000.fr;thermos-root-devel-WordCountTopology-0-89e6d786-5d51-4548-95c6-4f7016ad7f1e;["topology_master"];5.25;1533124954.87369;3.18;9.16;0.0;9;117
11;paravance-58.rennes.grid5000.fr;thermos-root-devel-WordCountTopology-1-c28a9ff2-c0f3-4031-a7af-9acde7f82248;["container_1_Consume_and_count_1"];5.25;1533124965.12287;91.57;548.09;0.016061944;10;149
11;paravance-59.rennes.grid5000.fr;thermos-root-devel-WordCountTopology-2-71f98318-0ba4-4d13-8625-34db4c5dfbc8;["container_2_Emit_random_words_2"];5.25;1533124964.90972;63.95;366.82;1.064281068;10;149
11;paravance-56.rennes.grid5000.fr;thermos-root-devel-WordCountTopology-0-89e6d786-5d51-4548-95c6-4f7016ad7f1e;["topology_master"];5.25;1533124965.09432;3.24;9.24;0.0;9;117
12;paravance-58.rennes.grid5000.fr;thermos-root-devel-WordCountTopology-1-c28a9ff2-c0f3-4031-a7af-9acde7f82248;["container_1_Consume_and_count_1"];5.25;1533124975.33218;95.51;571.99;0.016061944;10;149
12;paravance-59.rennes.grid5000.fr;thermos-root-devel-WordCountTopology-2-71f98318-0ba4-4d13-8625-34db4c5dfbc8;["container_2_Emit_random_words_2"];5.25;1533124975.12867;66.67;382.2;1.064281068;10;149
12;paravance-56.rennes.grid5000.fr;thermos-root-devel-WordCountTopology-0-89e6d786-5d51-4548-95c6-4f7016ad7f1e;["topology_master"];5.25;1533124975.3136;3.36;9.45;0.0;9;117
13;paravance-56.rennes.grid5000.fr;thermos-root-devel-WordCountTopology-0-89e6d786-5d51-4548-95c6-4f7016ad7f1e;["topology_master"];5.25;1533124985.53314;3.39;9.47;0.0;9;117
13;paravance-58.rennes.grid5000.fr;thermos-root-devel-WordCountTopology-1-c28a9ff2-c0f3-4031-a7af-9acde7f82248;["container_1_Consume_and_count_1"];5.25;1533124985.54244;99.35;597.4;0.016061944;10;149
13;paravance-59.rennes.grid5000.fr;thermos-root-devel-WordCountTopology-2-71f98318-0ba4-4d13-8625-34db4c5dfbc8;["container_2_Emit_random_words_2"];5.25;1533124985.34853;69.28;397.0;1.064281068;10;149
14;paravance-56.rennes.grid5000.fr;thermos-root-devel-WordCountTopology-0-89e6d786-5d51-4548-95c6-4f7016ad7f1e;["topology_master"];5.25;1533124995.75499;3.48;9.61;0.0;9;117
14;paravance-58.rennes.grid5000.fr;thermos-root-devel-WordCountTopology-1-c28a9ff2-c0f3-4031-a7af-9acde7f82248;["container_1_Consume_and_count_1"];5.25;1533124995.75462;103.26;622.36;0.016061944;10;149
14;paravance-59.rennes.grid5000.fr;thermos-root-devel-WordCountTopology-2-71f98318-0ba4-4d13-8625-34db4c5dfbc8;["container_2_Emit_random_words_2"];5.25;1533124995.57074;72.01;412.57;1.064281068;10;149
15;paravance-59.rennes.grid5000.fr;thermos-root-devel-WordCountTopology-2-71f98318-0ba4-4d13-8625-34db4c5dfbc8;["container_2_Emit_random_words_2"];5.25;1533125005.79161;74.69;427.83;1.064281068;10;149
15;paravance-58.rennes.grid5000.fr;thermos-root-devel-WordCountTopology-1-c28a9ff2-c0f3-4031-a7af-9acde7f82248;["container_1_Consume_and_count_1"];5.25;1533125005.96442;107.19;646.66;0.016061944;10;149
15;paravance-56.rennes.grid5000.fr;thermos-root-devel-WordCountTopology-0-89e6d786-5d51-4548-95c6-4f7016ad7f1e;["topology_master"];5.25;1533125005.97603;3.54;9.68;0.0;9;117
16;paravance-58.rennes.grid5000.fr;thermos-root-devel-WordCountTopology-1-c28a9ff2-c0f3-4031-a7af-9acde7f82248;["container_1_Consume_and_count_1"];5.25;1533125016.17452;111.18;671.94;0.016061944;10;149
16;paravance-56.rennes.grid5000.fr;thermos-root-devel-WordCountTopology-0-89e6d786-5d51-4548-95c6-4f7016ad7f1e;["topology_master"];5.25;1533125016.19613;3.6;9.76;0.0;9;117
16;paravance-59.rennes.grid5000.fr;thermos-root-devel-WordCountTopology-2-71f98318-0ba4-4d13-8625-34db4c5dfbc8;["container_2_Emit_random_words_2"];5.25;1533125016.0121;77.35;442.95;1.064281068;10;149
17;paravance-58.rennes.grid5000.fr;thermos-root-devel-WordCountTopology-1-c28a9ff2-c0f3-4031-a7af-9acde7f82248;["container_1_Consume_and_count_1"];5.25;1533125026.38343;114.84;695.76;0.016061944;10;149
17;paravance-59.rennes.grid5000.fr;thermos-root-devel-WordCountTopology-2-71f98318-0ba4-4d13-8625-34db4c5dfbc8;["container_2_Emit_random_words_2"];5.25;1533125026.23268;79.87;457.03;1.064281068;10;149
17;paravance-56.rennes.grid5000.fr;thermos-root-devel-WordCountTopology-0-89e6d786-5d51-4548-95c6-4f7016ad7f1e;["topology_master"];5.25;1533125026.4166;3.66;9.83;0.0;9;117
18;paravance-56.rennes.grid5000.fr;thermos-root-devel-WordCountTopology-0-89e6d786-5d51-4548-95c6-4f7016ad7f1e;["topology_master"];5.25;1533125036.53725;3.78;10.08;0.0;9;117
18;paravance-58.rennes.grid5000.fr;thermos-root-devel-WordCountTopology-1-c28a9ff2-c0f3-4031-a7af-9acde7f82248;["container_1_Consume_and_count_1"];5.25;1533125036.59445;118.97;721.45;0.016061944;10;149
18;paravance-59.rennes.grid5000.fr;thermos-root-devel-WordCountTopology-2-71f98318-0ba4-4d13-8625-34db4c5dfbc8;["container_2_Emit_random_words_2"];5.25;1533125036.45328;82.74;472.82;1.064281068;10;149
19;paravance-59.rennes.grid5000.fr;thermos-root-devel-WordCountTopology-2-71f98318-0ba4-4d13-8625-34db4c5dfbc8;["container_2_Emit_random_words_2"];5.25;1533125046.67146;85.42;488.23;1.064281068;10;149
19;paravance-58.rennes.grid5000.fr;thermos-root-devel-WordCountTopology-1-c28a9ff2-c0f3-4031-a7af-9acde7f82248;["container_1_Consume_and_count_1"];5.25;1533125046.80874;122.95;746.59;0.016061944;10;149
19;paravance-56.rennes.grid5000.fr;thermos-root-devel-WordCountTopology-0-89e6d786-5d51-4548-95c6-4f7016ad7f1e;["topology_master"];5.25;1533125046.85671;3.81;10.11;0.0;9;117
20;paravance-58.rennes.grid5000.fr;thermos-root-devel-WordCountTopology-1-c28a9ff2-c0f3-4031-a7af-9acde7f82248;["container_1_Consume_and_count_1"];5.25;1533125057.02252;126.69;770.8;0.016061944;10;149
20;paravance-56.rennes.grid5000.fr;thermos-root-devel-WordCountTopology-0-89e6d786-5d51-4548-95c6-4f7016ad7f1e;["topology_master"];5.25;1533125057.07616;3.9;10.24;0.0;9;117
20;paravance-59.rennes.grid5000.fr;thermos-root-devel-WordCountTopology-2-71f98318-0ba4-4d13-8625-34db4c5dfbc8;["container_2_Emit_random_words_2"];5.25;1533125056.89186;88.01;502.66;1.064281068;10;149
21;paravance-59.rennes.grid5000.fr;thermos-root-devel-WordCountTopology-2-71f98318-0ba4-4d13-8625-34db4c5dfbc8;["container_2_Emit_random_words_2"];5.25;1533125067.01203;90.66;517.77;1.064281068;10;149
21;paravance-58.rennes.grid5000.fr;thermos-root-devel-WordCountTopology-1-c28a9ff2-c0f3-4031-a7af-9acde7f82248;["container_1_Consume_and_count_1"];5.25;1533125067.23815;130.48;795.23;0.016061944;10;149
21;paravance-56.rennes.grid5000.fr;thermos-root-devel-WordCountTopology-0-89e6d786-5d51-4548-95c6-4f7016ad7f1e;["topology_master"];5.25;1533125067.29651;3.95;10.31;0.0;9;117
22;paravance-56.rennes.grid5000.fr;thermos-root-devel-WordCountTopology-0-89e6d786-5d51-4548-95c6-4f7016ad7f1e;["topology_master"];5.25;1533125077.51594;4.01;10.38;0.0;9;117
22;paravance-59.rennes.grid5000.fr;thermos-root-devel-WordCountTopology-2-71f98318-0ba4-4d13-8625-34db4c5dfbc8;["container_2_Emit_random_words_2"];5.25;1533125077.33134;93.42;533.35;1.064281068;10;149
22;paravance-58.rennes.grid5000.fr;thermos-root-devel-WordCountTopology-1-c28a9ff2-c0f3-4031-a7af-9acde7f82248;["container_1_Consume_and_count_1"];5.25;1533125077.45415;134.46;819.62;0.016061944;10;149
23;paravance-58.rennes.grid5000.fr;thermos-root-devel-WordCountTopology-1-c28a9ff2-c0f3-4031-a7af-9acde7f82248;["container_1_Consume_and_count_1"];5.25;1533125087.66993;138.44;845.54;0.016061944;10;149
23;paravance-59.rennes.grid5000.fr;thermos-root-devel-WordCountTopology-2-71f98318-0ba4-4d13-8625-34db4c5dfbc8;["container_2_Emit_random_words_2"];5.25;1533125087.5525;96.16;548.87;1.064281068;10;149
23;paravance-56.rennes.grid5000.fr;thermos-root-devel-WordCountTopology-0-89e6d786-5d51-4548-95c6-4f7016ad7f1e;["topology_master"];5.25;1533125087.73841;4.07;10.45;0.0;9;117
24;paravance-58.rennes.grid5000.fr;thermos-root-devel-WordCountTopology-1-c28a9ff2-c0f3-4031-a7af-9acde7f82248;["container_1_Consume_and_count_1"];5.25;1533125097.88338;142.68;869.86;0.016061944;10;149
24;paravance-59.rennes.grid5000.fr;thermos-root-devel-WordCountTopology-2-71f98318-0ba4-4d13-8625-34db4c5dfbc8;["container_2_Emit_random_words_2"];5.25;1533125097.7723;99.05;566.18;1.064281068;10;149
24;paravance-56.rennes.grid5000.fr;thermos-root-devel-WordCountTopology-0-89e6d786-5d51-4548-95c6-4f7016ad7f1e;["topology_master"];5.25;1533125097.95773;4.18;10.68;0.0;9;117
25;paravance-56.rennes.grid5000.fr;thermos-root-devel-WordCountTopology-0-89e6d786-5d51-4548-95c6-4f7016ad7f1e;["topology_master"];5.25;1533125108.17624;4.21;10.71;0.0;9;117
25;paravance-59.rennes.grid5000.fr;thermos-root-devel-WordCountTopology-2-71f98318-0ba4-4d13-8625-34db4c5dfbc8;["container_2_Emit_random_words_2"];5.25;1533125107.99236;101.97;583.66;1.064281068;10;149
25;paravance-58.rennes.grid5000.fr;thermos-root-devel-WordCountTopology-1-c28a9ff2-c0f3-4031-a7af-9acde7f82248;["container_1_Consume_and_count_1"];5.25;1533125108.09932;146.85;895.23;0.016061944;10;149
26;paravance-59.rennes.grid5000.fr;thermos-root-devel-WordCountTopology-2-71f98318-0ba4-4d13-8625-34db4c5dfbc8;["container_2_Emit_random_words_2"];5.25;1533125118.21202;104.67;600.39;1.064281068;10;149
26;paravance-56.rennes.grid5000.fr;thermos-root-devel-WordCountTopology-0-89e6d786-5d51-4548-95c6-4f7016ad7f1e;["topology_master"];5.25;1533125118.39683;4.31;10.83;0.0;9;117
26;paravance-58.rennes.grid5000.fr;thermos-root-devel-WordCountTopology-1-c28a9ff2-c0f3-4031-a7af-9acde7f82248;["container_1_Consume_and_count_1"];5.25;1533125118.31449;150.95;917.45;0.016061944;10;149
27;paravance-58.rennes.grid5000.fr;thermos-root-devel-WordCountTopology-1-c28a9ff2-c0f3-4031-a7af-9acde7f82248;["container_1_Consume_and_count_1"];5.25;1533125128.53092;155.59;935.95;0.016061944;10;149
27;paravance-59.rennes.grid5000.fr;thermos-root-devel-WordCountTopology-2-71f98318-0ba4-4d13-8625-34db4c5dfbc8;["container_2_Emit_random_words_2"];5.25;1533125128.43483;108.03;619.74;1.064281068;10;149
27;paravance-56.rennes.grid5000.fr;thermos-root-devel-WordCountTopology-0-89e6d786-5d51-4548-95c6-4f7016ad7f1e;["topology_master"];5.25;1533125128.6205;4.36;10.9;0.0;9;117
28;paravance-58.rennes.grid5000.fr;thermos-root-devel-WordCountTopology-1-c28a9ff2-c0f3-4031-a7af-9acde7f82248;["container_1_Consume_and_count_1"];5.25;1533125138.74758;159.75;959.92;0.016061944;10;149
28;paravance-59.rennes.grid5000.fr;thermos-root-devel-WordCountTopology-2-71f98318-0ba4-4d13-8625-34db4c5dfbc8;["container_2_Emit_random_words_2"];5.25;1533125138.65656;110.92;635.69;1.064281068;10;149
28;paravance-56.rennes.grid5000.fr;thermos-root-devel-WordCountTopology-0-89e6d786-5d51-4548-95c6-4f7016ad7f1e;["topology_master"];5.25;1533125138.84032;4.43;10.98;0.0;9;117
29;paravance-56.rennes.grid5000.fr;thermos-root-devel-WordCountTopology-0-89e6d786-5d51-4548-95c6-4f7016ad7f1e;["topology_master"];5.25;1533125148.96051;4.48;11.06;0.0;9;117
29;paravance-58.rennes.grid5000.fr;thermos-root-devel-WordCountTopology-1-c28a9ff2-c0f3-4031-a7af-9acde7f82248;["container_1_Consume_and_count_1"];5.25;1533125148.96258;163.59;985.07;0.016061944;10;149
29;paravance-59.rennes.grid5000.fr;thermos-root-devel-WordCountTopology-2-71f98318-0ba4-4d13-8625-34db4c5dfbc8;["container_2_Emit_random_words_2"];5.25;1533125148.87641;113.59;650.91;1.064281068;10;147
30;paravance-58.rennes.grid5000.fr;thermos-root-devel-WordCountTopology-1-c28a9ff2-c0f3-4031-a7af-9acde7f82248;["container_1_Consume_and_count_1"];5.25;1533125159.17562;167.46;1010.8;0.016061944;10;149
30;paravance-59.rennes.grid5000.fr;thermos-root-devel-WordCountTopology-2-71f98318-0ba4-4d13-8625-34db4c5dfbc8;["container_2_Emit_random_words_2"];5.25;1533125159.09631;116.31;666.48;1.064281068;10;149
30;paravance-56.rennes.grid5000.fr;thermos-root-devel-WordCountTopology-0-89e6d786-5d51-4548-95c6-4f7016ad7f1e;["topology_master"];5.25;1533125159.28157;4.6;11.23;0.0;9;117
31;paravance-59.rennes.grid5000.fr;thermos-root-devel-WordCountTopology-2-71f98318-0ba4-4d13-8625-34db4c5dfbc8;["container_2_Emit_random_words_2"];5.25;1533125169.31513;118.89;680.82;1.064281068;10;149
31;paravance-58.rennes.grid5000.fr;thermos-root-devel-WordCountTopology-1-c28a9ff2-c0f3-4031-a7af-9acde7f82248;["container_1_Consume_and_count_1"];5.25;1533125169.3922;171.07;1035.21;0.016061944;10;149
31;paravance-56.rennes.grid5000.fr;thermos-root-devel-WordCountTopology-0-89e6d786-5d51-4548-95c6-4f7016ad7f1e;["topology_master"];5.25;1533125169.50006;4.66;11.3;0.0;9;117
32;paravance-58.rennes.grid5000.fr;thermos-root-devel-WordCountTopology-1-c28a9ff2-c0f3-4031-a7af-9acde7f82248;["container_1_Consume_and_count_1"];5.25;1533125179.60861;175.15;1060.63;0.016061944;10;149
32;paravance-59.rennes.grid5000.fr;thermos-root-devel-WordCountTopology-2-71f98318-0ba4-4d13-8625-34db4c5dfbc8;["container_2_Emit_random_words_2"];5.25;1533125179.53816;121.65;696.63;1.064281068;10;149
32;paravance-56.rennes.grid5000.fr;thermos-root-devel-WordCountTopology-0-89e6d786-5d51-4548-95c6-4f7016ad7f1e;["topology_master"];5.25;1533125179.72193;4.71;11.38;0.0;9;117
33;paravance-58.rennes.grid5000.fr;thermos-root-devel-WordCountTopology-1-c28a9ff2-c0f3-4031-a7af-9acde7f82248;["container_1_Consume_and_count_1"];5.25;1533125189.82354;179.17;1084.93;0.016061944;10;149
33;paravance-59.rennes.grid5000.fr;thermos-root-devel-WordCountTopology-2-71f98318-0ba4-4d13-8625-34db4c5dfbc8;["container_2_Emit_random_words_2"];5.25;1533125189.75911;124.43;712.3;1.064281068;10;149
33;paravance-56.rennes.grid5000.fr;thermos-root-devel-WordCountTopology-0-89e6d786-5d51-4548-95c6-4f7016ad7f1e;["topology_master"];5.25;1533125189.94364;4.8;11.5;0.0;9;117
34;paravance-58.rennes.grid5000.fr;thermos-root-devel-WordCountTopology-1-c28a9ff2-c0f3-4031-a7af-9acde7f82248;["container_1_Consume_and_count_1"];5.25;1533125200.03966;183.25;1110.53;0.016061944;10;149
34;paravance-56.rennes.grid5000.fr;thermos-root-devel-WordCountTopology-0-89e6d786-5d51-4548-95c6-4f7016ad7f1e;["topology_master"];5.25;1533125200.16429;4.83;11.52;0.0;9;117
34;paravance-59.rennes.grid5000.fr;thermos-root-devel-WordCountTopology-2-71f98318-0ba4-4d13-8625-34db4c5dfbc8;["container_2_Emit_random_words_2"];5.25;1533125199.97889;127.26;728.45;1.064281068;10;149
35;paravance-59.rennes.grid5000.fr;thermos-root-devel-WordCountTopology-2-71f98318-0ba4-4d13-8625-34db4c5dfbc8;["container_2_Emit_random_words_2"];5.25;1533125210.19893;130.02;743.89;1.064281068;10;149
35;paravance-58.rennes.grid5000.fr;thermos-root-devel-WordCountTopology-1-c28a9ff2-c0f3-4031-a7af-9acde7f82248;["container_1_Consume_and_count_1"];5.25;1533125210.25512;187.31;1135.8;0.016061944;10;149
35;paravance-56.rennes.grid5000.fr;thermos-root-devel-WordCountTopology-0-89e6d786-5d51-4548-95c6-4f7016ad7f1e;["topology_master"];5.25;1533125210.38023;4.92;11.65;0.0;9;117
36;paravance-58.rennes.grid5000.fr;thermos-root-devel-WordCountTopology-1-c28a9ff2-c0f3-4031-a7af-9acde7f82248;["container_1_Consume_and_count_1"];5.25;1533125220.46996;191.11;1161.59;0.016061944;10;149
36;paravance-56.rennes.grid5000.fr;thermos-root-devel-WordCountTopology-0-89e6d786-5d51-4548-95c6-4f7016ad7f1e;["topology_master"];5.25;1533125220.59557;4.99;11.82;0.0;9;117
36;paravance-59.rennes.grid5000.fr;thermos-root-devel-WordCountTopology-2-71f98318-0ba4-4d13-8625-34db4c5dfbc8;["container_2_Emit_random_words_2"];5.25;1533125220.4203;132.67;758.81;1.064281068;10;149
37;paravance-58.rennes.grid5000.fr;thermos-root-devel-WordCountTopology-1-c28a9ff2-c0f3-4031-a7af-9acde7f82248;["container_1_Consume_and_count_1"];5.25;1533125230.6848;195.05;1187.44;0.016061944;10;149
37;paravance-56.rennes.grid5000.fr;thermos-root-devel-WordCountTopology-0-89e6d786-5d51-4548-95c6-4f7016ad7f1e;["topology_master"];5.25;1533125230.80927;5.07;11.93;0.0;9;117
37;paravance-59.rennes.grid5000.fr;thermos-root-devel-WordCountTopology-2-71f98318-0ba4-4d13-8625-34db4c5dfbc8;["container_2_Emit_random_words_2"];5.25;1533125230.63994;135.25;773.61;1.064281068;10;149
38;paravance-58.rennes.grid5000.fr;thermos-root-devel-WordCountTopology-1-c28a9ff2-c0f3-4031-a7af-9acde7f82248;["container_1_Consume_and_count_1"];5.25;1533125240.89827;199.07;1212.56;0.016061944;10;149
38;paravance-56.rennes.grid5000.fr;thermos-root-devel-WordCountTopology-0-89e6d786-5d51-4548-95c6-4f7016ad7f1e;["topology_master"];5.25;1533125241.02469;5.11;11.97;0.0;9;117
38;paravance-59.rennes.grid5000.fr;thermos-root-devel-WordCountTopology-2-71f98318-0ba4-4d13-8625-34db4c5dfbc8;["container_2_Emit_random_words_2"];5.25;1533125240.85977;137.98;789.19;1.064281068;10;149
39;paravance-58.rennes.grid5000.fr;thermos-root-devel-WordCountTopology-1-c28a9ff2-c0f3-4031-a7af-9acde7f82248;["container_1_Consume_and_count_1"];5.25;1533125251.11384;203.01;1236.93;0.016061944;10;149
39;paravance-59.rennes.grid5000.fr;thermos-root-devel-WordCountTopology-2-71f98318-0ba4-4d13-8625-34db4c5dfbc8;["container_2_Emit_random_words_2"];5.25;1533125251.0793;140.5;803.69;1.064281068;10;149
39;paravance-56.rennes.grid5000.fr;thermos-root-devel-WordCountTopology-0-89e6d786-5d51-4548-95c6-4f7016ad7f1e;["topology_master"];5.25;1533125251.24074;5.2;12.1;0.0;9;117
40;paravance-59.rennes.grid5000.fr;thermos-root-devel-WordCountTopology-2-71f98318-0ba4-4d13-8625-34db4c5dfbc8;["container_2_Emit_random_words_2"];5.25;1533125261.29852;143.21;819.18;1.064281068;10;149
40;paravance-56.rennes.grid5000.fr;thermos-root-devel-WordCountTopology-0-89e6d786-5d51-4548-95c6-4f7016ad7f1e;["topology_master"];5.25;1533125261.45557;5.26;12.17;0.0;9;117
40;paravance-58.rennes.grid5000.fr;thermos-root-devel-WordCountTopology-1-c28a9ff2-c0f3-4031-a7af-9acde7f82248;["container_1_Consume_and_count_1"];5.25;1533125261.34668;207.1;1262.23;0.016061944;10;149
41;paravance-58.rennes.grid5000.fr;thermos-root-devel-WordCountTopology-1-c28a9ff2-c0f3-4031-a7af-9acde7f82248;["container_1_Consume_and_count_1"];5.25;1533125271.55908;211.11;1286.53;0.016061944;10;149
41;paravance-59.rennes.grid5000.fr;thermos-root-devel-WordCountTopology-2-71f98318-0ba4-4d13-8625-34db4c5dfbc8;["container_2_Emit_random_words_2"];5.25;1533125271.53486;146.0;834.8;1.064281068;10;149
41;paravance-56.rennes.grid5000.fr;thermos-root-devel-WordCountTopology-0-89e6d786-5d51-4548-95c6-4f7016ad7f1e;["topology_master"];5.25;1533125271.68479;5.32;12.25;0.0;9;117
42;paravance-58.rennes.grid5000.fr;thermos-root-devel-WordCountTopology-1-c28a9ff2-c0f3-4031-a7af-9acde7f82248;["container_1_Consume_and_count_1"];5.25;1533125281.77366;214.95;1311.08;0.016061944;10;149
42;paravance-59.rennes.grid5000.fr;thermos-root-devel-WordCountTopology-2-71f98318-0ba4-4d13-8625-34db4c5dfbc8;["container_2_Emit_random_words_2"];5.25;1533125281.75531;148.6;849.65;1.064281068;10;149
42;paravance-56.rennes.grid5000.fr;thermos-root-devel-WordCountTopology-0-89e6d786-5d51-4548-95c6-4f7016ad7f1e;["topology_master"];5.25;1533125281.90078;5.38;12.37;0.0;9;117
43;paravance-58.rennes.grid5000.fr;thermos-root-devel-WordCountTopology-1-c28a9ff2-c0f3-4031-a7af-9acde7f82248;["container_1_Consume_and_count_1"];5.25;1533125291.99157;218.93;1335.6;0.016061944;10;149
43;paravance-56.rennes.grid5000.fr;thermos-root-devel-WordCountTopology-0-89e6d786-5d51-4548-95c6-4f7016ad7f1e;["topology_master"];5.25;1533125292.1153;5.47;12.49;0.0;9;117
43;paravance-59.rennes.grid5000.fr;thermos-root-devel-WordCountTopology-2-71f98318-0ba4-4d13-8625-34db4c5dfbc8;["container_2_Emit_random_words_2"];5.25;1533125291.97523;151.27;865.37;1.064281068;10;149
44;paravance-59.rennes.grid5000.fr;thermos-root-devel-WordCountTopology-2-71f98318-0ba4-4d13-8625-34db4c5dfbc8;["container_2_Emit_random_words_2"];5.25;1533125302.19681;153.96;880.68;1.064281068;10;149
44;paravance-58.rennes.grid5000.fr;thermos-root-devel-WordCountTopology-1-c28a9ff2-c0f3-4031-a7af-9acde7f82248;["container_1_Consume_and_count_1"];5.25;1533125302.20715;222.87;1360.73;0.016061944;10;149
44;paravance-56.rennes.grid5000.fr;thermos-root-devel-WordCountTopology-0-89e6d786-5d51-4548-95c6-4f7016ad7f1e;["topology_master"];5.25;1533125302.33209;5.5;12.51;0.0;9;117
45;paravance-58.rennes.grid5000.fr;thermos-root-devel-WordCountTopology-1-c28a9ff2-c0f3-4031-a7af-9acde7f82248;["container_1_Consume_and_count_1"];5.25;1533125312.42378;226.89;1385.52;0.016061944;10;149
45;paravance-56.rennes.grid5000.fr;thermos-root-devel-WordCountTopology-0-89e6d786-5d51-4548-95c6-4f7016ad7f1e;["topology_master"];5.25;1533125312.54887;5.59;12.64;0.0;9;117
45;paravance-59.rennes.grid5000.fr;thermos-root-devel-WordCountTopology-2-71f98318-0ba4-4d13-8625-34db4c5dfbc8;["container_2_Emit_random_words_2"];5.25;1533125312.41948;156.64;896.15;1.064281068;10;149
46;paravance-58.rennes.grid5000.fr;thermos-root-devel-WordCountTopology-1-c28a9ff2-c0f3-4031-a7af-9acde7f82248;["container_1_Consume_and_count_1"];5.25;1533125322.6385;230.84;1409.64;0.016061944;10;149
46;paravance-56.rennes.grid5000.fr;thermos-root-devel-WordCountTopology-0-89e6d786-5d51-4548-95c6-4f7016ad7f1e;["topology_master"];5.25;1533125322.76353;5.66;12.71;0.0;9;117
46;paravance-59.rennes.grid5000.fr;thermos-root-devel-WordCountTopology-2-71f98318-0ba4-4d13-8625-34db4c5dfbc8;["container_2_Emit_random_words_2"];5.25;1533125322.63961;159.33;911.73;1.064281068;10;149
47;paravance-58.rennes.grid5000.fr;thermos-root-devel-WordCountTopology-1-c28a9ff2-c0f3-4031-a7af-9acde7f82248;["container_1_Consume_and_count_1"];5.25;1533125332.85481;234.8;1434.81;0.016061944;10;149
47;paravance-56.rennes.grid5000.fr;thermos-root-devel-WordCountTopology-0-89e6d786-5d51-4548-95c6-4f7016ad7f1e;["topology_master"];5.25;1533125332.97862;5.73;12.8;0.0;9;117
47;paravance-59.rennes.grid5000.fr;thermos-root-devel-WordCountTopology-2-71f98318-0ba4-4d13-8625-34db4c5dfbc8;["container_2_Emit_random_words_2"];5.25;1533125332.86096;162.04;927.0;1.064281068;10;149
48;paravance-58.rennes.grid5000.fr;thermos-root-devel-WordCountTopology-1-c28a9ff2-c0f3-4031-a7af-9acde7f82248;["container_1_Consume_and_count_1"];5.25;1533125343.06967;238.74;1459.39;0.016061944;10;149
48;paravance-56.rennes.grid5000.fr;thermos-root-devel-WordCountTopology-0-89e6d786-5d51-4548-95c6-4f7016ad7f1e;["topology_master"];5.25;1533125343.19458;5.79;12.92;0.0;9;117
48;paravance-59.rennes.grid5000.fr;thermos-root-devel-WordCountTopology-2-71f98318-0ba4-4d13-8625-34db4c5dfbc8;["container_2_Emit_random_words_2"];5.25;1533125343.08075;164.73;942.11;1.064281068;10;149
49;paravance-58.rennes.grid5000.fr;thermos-root-devel-WordCountTopology-1-c28a9ff2-c0f3-4031-a7af-9acde7f82248;["container_1_Consume_and_count_1"];5.25;1533125353.28332;242.55;1483.46;0.016061944;10;149
49;paravance-56.rennes.grid5000.fr;thermos-root-devel-WordCountTopology-0-89e6d786-5d51-4548-95c6-4f7016ad7f1e;["topology_master"];5.25;1533125353.41035;5.89;13.05;0.0;9;117
49;paravance-59.rennes.grid5000.fr;thermos-root-devel-WordCountTopology-2-71f98318-0ba4-4d13-8625-34db4c5dfbc8;["container_2_Emit_random_words_2"];5.25;1533125353.30019;167.25;956.48;1.064281068;10;149
50;paravance-58.rennes.grid5000.fr;thermos-root-devel-WordCountTopology-1-c28a9ff2-c0f3-4031-a7af-9acde7f82248;["container_1_Consume_and_count_1"];5.25;1533125363.49968;246.77;1508.91;0.016061944;10;149
50;paravance-56.rennes.grid5000.fr;thermos-root-devel-WordCountTopology-0-89e6d786-5d51-4548-95c6-4f7016ad7f1e;["topology_master"];5.25;1533125363.62461;5.91;13.07;0.0;9;117
50;paravance-59.rennes.grid5000.fr;thermos-root-devel-WordCountTopology-2-71f98318-0ba4-4d13-8625-34db4c5dfbc8;["container_2_Emit_random_words_2"];5.25;1533125363.5211;169.98;972.22;1.064281068;10;149
51;paravance-58.rennes.grid5000.fr;thermos-root-devel-WordCountTopology-1-c28a9ff2-c0f3-4031-a7af-9acde7f82248;["container_1_Consume_and_count_1"];5.25;1533125373.71485;250.8;1533.54;0.016061944;10;149
51;paravance-59.rennes.grid5000.fr;thermos-root-devel-WordCountTopology-2-71f98318-0ba4-4d13-8625-34db4c5dfbc8;["container_2_Emit_random_words_2"];5.25;1533125373.74047;172.73;987.81;1.064281068;10;149
51;paravance-56.rennes.grid5000.fr;thermos-root-devel-WordCountTopology-0-89e6d786-5d51-4548-95c6-4f7016ad7f1e;["topology_master"];5.25;1533125373.84021;6.01;13.2;0.0;9;117
52;paravance-58.rennes.grid5000.fr;thermos-root-devel-WordCountTopology-1-c28a9ff2-c0f3-4031-a7af-9acde7f82248;["container_1_Consume_and_count_1"];5.25;1533125383.93079;254.93;1558.43;0.016061944;10;149
52;paravance-59.rennes.grid5000.fr;thermos-root-devel-WordCountTopology-2-71f98318-0ba4-4d13-8625-34db4c5dfbc8;["container_2_Emit_random_words_2"];5.25;1533125383.96252;175.54;1004.18;1.064281068;10;149
52;paravance-56.rennes.grid5000.fr;thermos-root-devel-WordCountTopology-0-89e6d786-5d51-4548-95c6-4f7016ad7f1e;["topology_master"];5.25;1533125384.05566;6.06;13.28;0.0;9;117
53;paravance-58.rennes.grid5000.fr;thermos-root-devel-WordCountTopology-1-c28a9ff2-c0f3-4031-a7af-9acde7f82248;["container_1_Consume_and_count_1"];5.25;1533125394.14532;259.39;1581.85;0.016061944;10;149
53;paravance-56.rennes.grid5000.fr;thermos-root-devel-WordCountTopology-0-89e6d786-5d51-4548-95c6-4f7016ad7f1e;["topology_master"];5.25;1533125394.27153;6.13;13.39;0.0;9;117
53;paravance-59.rennes.grid5000.fr;thermos-root-devel-WordCountTopology-2-71f98318-0ba4-4d13-8625-34db4c5dfbc8;["container_2_Emit_random_words_2"];5.25;1533125394.18512;178.38;1021.9;1.064281068;10;149
54;paravance-58.rennes.grid5000.fr;thermos-root-devel-WordCountTopology-1-c28a9ff2-c0f3-4031-a7af-9acde7f82248;["container_1_Consume_and_count_1"];5.25;1533125404.36204;263.3;1606.29;0.016061944;10;149
54;paravance-59.rennes.grid5000.fr;thermos-root-devel-WordCountTopology-2-71f98318-0ba4-4d13-8625-34db4c5dfbc8;["container_2_Emit_random_words_2"];5.25;1533125404.40508;181.01;1036.87;1.064281068;10;149
54;paravance-56.rennes.grid5000.fr;thermos-root-devel-WordCountTopology-0-89e6d786-5d51-4548-95c6-4f7016ad7f1e;["topology_master"];5.25;1533125404.48825;6.19;13.49;0.0;9;117
55;paravance-59.rennes.grid5000.fr;thermos-root-devel-WordCountTopology-2-71f98318-0ba4-4d13-8625-34db4c5dfbc8;["container_2_Emit_random_words_2"];5.25;1533125414.62566;183.8;1052.87;1.064281068;10;149
55;paravance-58.rennes.grid5000.fr;thermos-root-devel-WordCountTopology-1-c28a9ff2-c0f3-4031-a7af-9acde7f82248;["container_1_Consume_and_count_1"];5.25;1533125414.57967;267.42;1631.62;0.016061944;10;149
55;paravance-56.rennes.grid5000.fr;thermos-root-devel-WordCountTopology-0-89e6d786-5d51-4548-95c6-4f7016ad7f1e;["topology_master"];5.25;1533125414.70459;6.28;13.61;0.0;9;117
56;paravance-58.rennes.grid5000.fr;thermos-root-devel-WordCountTopology-1-c28a9ff2-c0f3-4031-a7af-9acde7f82248;["container_1_Consume_and_count_1"];5.25;1533125424.79524;271.63;1657.19;0.016061944;10;149
56;paravance-56.rennes.grid5000.fr;thermos-root-devel-WordCountTopology-0-89e6d786-5d51-4548-95c6-4f7016ad7f1e;["topology_master"];5.25;1533125424.91959;6.31;13.63;0.0;9;117
56;paravance-59.rennes.grid5000.fr;thermos-root-devel-WordCountTopology-2-71f98318-0ba4-4d13-8625-34db4c5dfbc8;["container_2_Emit_random_words_2"];5.25;1533125424.84672;186.63;1069.1;1.064281068;10;149
57;paravance-58.rennes.grid5000.fr;thermos-root-devel-WordCountTopology-1-c28a9ff2-c0f3-4031-a7af-9acde7f82248;["container_1_Consume_and_count_1"];5.25;1533125435.01049;275.55;1682.04;0.016061944;10;149
57;paravance-59.rennes.grid5000.fr;thermos-root-devel-WordCountTopology-2-71f98318-0ba4-4d13-8625-34db4c5dfbc8;["container_2_Emit_random_words_2"];5.25;1533125435.06731;189.16;1082.92;1.064281068;10;149
57;paravance-56.rennes.grid5000.fr;thermos-root-devel-WordCountTopology-0-89e6d786-5d51-4548-95c6-4f7016ad7f1e;["topology_master"];5.25;1533125435.13534;6.41;13.76;0.0;9;117
58;paravance-58.rennes.grid5000.fr;thermos-root-devel-WordCountTopology-1-c28a9ff2-c0f3-4031-a7af-9acde7f82248;["container_1_Consume_and_count_1"];5.25;1533125445.2272;279.85;1707.6;0.016061944;10;149
58;paravance-59.rennes.grid5000.fr;thermos-root-devel-WordCountTopology-2-71f98318-0ba4-4d13-8625-34db4c5dfbc8;["container_2_Emit_random_words_2"];5.25;1533125445.28795;192.05;1099.34;1.064281068;10;149
58;paravance-56.rennes.grid5000.fr;thermos-root-devel-WordCountTopology-0-89e6d786-5d51-4548-95c6-4f7016ad7f1e;["topology_master"];5.25;1533125445.35247;6.47;13.84;0.0;9;117
59;paravance-58.rennes.grid5000.fr;thermos-root-devel-WordCountTopology-1-c28a9ff2-c0f3-4031-a7af-9acde7f82248;["container_1_Consume_and_count_1"];5.25;1533125455.43997;283.73;1733.03;0.016061944;10;149
59;paravance-56.rennes.grid5000.fr;thermos-root-devel-WordCountTopology-0-89e6d786-5d51-4548-95c6-4f7016ad7f1e;["topology_master"];5.25;1533125455.56622;6.54;13.95;0.0;9;117
59;paravance-59.rennes.grid5000.fr;thermos-root-devel-WordCountTopology-2-71f98318-0ba4-4d13-8625-34db4c5dfbc8;["container_2_Emit_random_words_2"];5.25;1533125455.50854;194.68;1114.02;1.064281068;10;149
60;paravance-58.rennes.grid5000.fr;thermos-root-devel-WordCountTopology-1-c28a9ff2-c0f3-4031-a7af-9acde7f82248;["container_1_Consume_and_count_1"];5.25;1533125465.65607;287.85;1758.3;0.016061944;10;149
60;paravance-59.rennes.grid5000.fr;thermos-root-devel-WordCountTopology-2-71f98318-0ba4-4d13-8625-34db4c5dfbc8;["container_2_Emit_random_words_2"];5.25;1533125465.72947;197.41;1129.85;1.064281068;10;149
60;paravance-56.rennes.grid5000.fr;thermos-root-devel-WordCountTopology-0-89e6d786-5d51-4548-95c6-4f7016ad7f1e;["topology_master"];5.25;1533125465.78153;6.59;14.02;0.0;9;117
