------------------------------------------------------
 submission_time: 1533254101
------------------------------------------------------
timeslice start: 1533254400; backpressure time in ms: 13318.0
timeslice start: 1533254820; backpressure time in ms: 27239.0
timeslice start: 1533254280; backpressure time in ms: 15111.0
timeslice start: 1533254700; backpressure time in ms: 31085.0
timeslice start: 1533254640; backpressure time in ms: 27859.0
timeslice start: 1533254760; backpressure time in ms: 31312.0
timeslice start: 1533254580; backpressure time in ms: 30869.0
timeslice start: 1533254520; backpressure time in ms: 10514.0
timeslice start: 1533254340; backpressure time in ms: 39863.0
timeslice start: 1533254460; backpressure time in ms: 27703.0
