{
  "status": "success",
  "executiontime": 0.00018906593322753906,
  "message": "",
  "result": {
    "bolts": {
      "Consume_and_count": [
        "container_1_Consume_and_count_1"
      ]
    },
    "instances": {
      "container_2_Emit_random_words_2": {
        "stmgrId": "stmgr-2",
        "logfile": "http://paravance-31.rennes.grid5000.fr:31394/file/log-files/container_2_Emit_random_words_2.log.0",
        "id": "container_2_Emit_random_words_2",
        "name": "Emit_random_words"
      },
      "container_1_Consume_and_count_1": {
        "stmgrId": "stmgr-1",
        "logfile": "http://paravance-19.rennes.grid5000.fr:31663/file/log-files/container_1_Consume_and_count_1.log.0",
        "id": "container_1_Consume_and_count_1",
        "name": "Consume_and_count"
      }
    },
    "instance_groups": {
      "container_1_Consume_and": [
        "container_1_Consume_and_count_1"
      ],
      "container_2_Emit_random": [
        "container_2_Emit_random_words_2"
      ]
    },
    "spouts": {
      "Emit_random_words": [
        "container_2_Emit_random_words_2"
      ]
    },
    "config": {
      "topology.message.timeout.secs": "30",
      "topology.team.environment": "devel",
      "topology.serializer.classname": "org.apache.heron.streamlet.impl.KryoSerializer",
      "topology.team.name": "root",
      "topology.debug": "false",
      "topology.max.spout.pending": "100",
      "topology.container.padding.percentage": "0",
      "topology.enable.message.timeouts": "true",
      "topology.component.parallelism": "1",
      "topology.name": "WordCountTopology",
      "topology.stmgrs": "2",
      "topology.reliability.mode": "ATMOST_ONCE"
    },
    "stmgrs": {
      "stmgr-1": {
        "cwd": "/var/lib/mesos/slaves/a0176583-8bbe-483a-a193-46fe698f1a5f-S1/frameworks/75deb08a-eb1b-415c-8b2c-e922be5f7d98-0000/executors/thermos-root-devel-WordCountTopology-1-b417c503-3549-4f1a-a0e4-b4d7eb92d03c/runs/9495b8f4-430e-4c64-a07f-70977928f76f/sandbox",
        "host": "paravance-19.rennes.grid5000.fr",
        "joburl": "http://paravance-19.rennes.grid5000.fr:31663/browse/",
        "shell_port": 31663,
        "logfiles": "http://paravance-19.rennes.grid5000.fr:31663/browse/log-files",
        "pid": 2664,
        "id": "stmgr-1",
        "instance_ids": [
          "container_1_Consume_and_count_1"
        ],
        "port": 31066
      },
      "stmgr-2": {
        "cwd": "/var/lib/mesos/slaves/a0176583-8bbe-483a-a193-46fe698f1a5f-S0/frameworks/75deb08a-eb1b-415c-8b2c-e922be5f7d98-0000/executors/thermos-root-devel-WordCountTopology-2-6b6bdddc-8900-4c29-89f7-455862ea5684/runs/d25a20de-f86d-4f67-8775-301ab25ebf2d/sandbox",
        "host": "paravance-31.rennes.grid5000.fr",
        "joburl": "http://paravance-31.rennes.grid5000.fr:31394/browse/",
        "shell_port": 31394,
        "logfiles": "http://paravance-31.rennes.grid5000.fr:31394/browse/log-files",
        "pid": 2780,
        "id": "stmgr-2",
        "instance_ids": [
          "container_2_Emit_random_words_2"
        ],
        "port": 31013
      }
    }
  },
  "tracker_version": "0.17.8-61-gd7c8c62"
}