mesure_id;time;backpresure
0;1533761280;34896.0
1;1533761220;34231.0
2;1533761160;34719.0
3;1533761340;36532.0
4;1533761100;34073.0
5;1533761040;35542.0
6;1533761400;35172.0
7;1533760980;34551.0
8;1533760920;33398.0
9;1533760860;33111.0
