mesure_id;time;backpresure
0;1533808800;0.0
1;1533808560;3022.0
2;1533808740;1220.0
3;1533808680;2260.0
4;1533808620;1391.0
5;1533809100;0.0
6;1533809040;3491.0
7;1533808980;652.0
8;1533808920;0.0
9;1533808860;0.0
