{
  "status": "success",
  "executiontime": 0.00018095970153808594,
  "message": "",
  "result": {
    "bolts": {
      "Consume_and_count": [
        "container_1_Consume_and_count_1"
      ]
    },
    "instances": {
      "container_2_Emit_random_words_2": {
        "stmgrId": "stmgr-2",
        "logfile": "http://paravance-45.rennes.grid5000.fr:31151/file/log-files/container_2_Emit_random_words_2.log.0",
        "id": "container_2_Emit_random_words_2",
        "name": "Emit_random_words"
      },
      "container_1_Consume_and_count_1": {
        "stmgrId": "stmgr-1",
        "logfile": "http://paravance-47.rennes.grid5000.fr:31928/file/log-files/container_1_Consume_and_count_1.log.0",
        "id": "container_1_Consume_and_count_1",
        "name": "Consume_and_count"
      }
    },
    "instance_groups": {
      "container_1_Consume_and": [
        "container_1_Consume_and_count_1"
      ],
      "container_2_Emit_random": [
        "container_2_Emit_random_words_2"
      ]
    },
    "spouts": {
      "Emit_random_words": [
        "container_2_Emit_random_words_2"
      ]
    },
    "config": {
      "topology.message.timeout.secs": "30",
      "topology.team.environment": "devel",
      "topology.serializer.classname": "org.apache.heron.streamlet.impl.KryoSerializer",
      "topology.team.name": "root",
      "topology.debug": "false",
      "topology.max.spout.pending": "100",
      "topology.container.padding.percentage": "200",
      "topology.enable.message.timeouts": "true",
      "topology.component.parallelism": "1",
      "topology.name": "WordCountTopology",
      "topology.stmgrs": "2",
      "topology.reliability.mode": "ATMOST_ONCE"
    },
    "stmgrs": {
      "stmgr-1": {
        "cwd": "/var/lib/mesos/slaves/e6f8394f-2879-484b-8855-285457e70c3f-S1/frameworks/75deb08a-eb1b-415c-8b2c-e922be5f7d98-0000/executors/thermos-root-devel-WordCountTopology-1-02fc30c9-ffbd-4bcc-b522-0969fce0a71d/runs/00d97ad5-a1c7-436a-9f52-b32e46eeb558/sandbox",
        "host": "paravance-47.rennes.grid5000.fr",
        "joburl": "http://paravance-47.rennes.grid5000.fr:31928/browse/",
        "shell_port": 31928,
        "logfiles": "http://paravance-47.rennes.grid5000.fr:31928/browse/log-files",
        "pid": 2148,
        "id": "stmgr-1",
        "instance_ids": [
          "container_1_Consume_and_count_1"
        ],
        "port": 31637
      },
      "stmgr-2": {
        "cwd": "/var/lib/mesos/slaves/e6f8394f-2879-484b-8855-285457e70c3f-S2/frameworks/75deb08a-eb1b-415c-8b2c-e922be5f7d98-0000/executors/thermos-root-devel-WordCountTopology-2-615b8a82-93cd-4b29-ba3f-21a0750de7af/runs/e03cfde7-941a-442b-bc04-b49483e97c85/sandbox",
        "host": "paravance-45.rennes.grid5000.fr",
        "joburl": "http://paravance-45.rennes.grid5000.fr:31151/browse/",
        "shell_port": 31151,
        "logfiles": "http://paravance-45.rennes.grid5000.fr:31151/browse/log-files",
        "pid": 2199,
        "id": "stmgr-2",
        "instance_ids": [
          "container_2_Emit_random_words_2"
        ],
        "port": 31289
      }
    }
  },
  "tracker_version": "0.17.8-61-gd7c8c62"
}