mesure_id;slave_id;executor_id;heron_instances;cpus_limit;timestamp_A;cpus_system_time_secs_A;cpus_user_time_secs_A;cpus_throttled_time_secs_A;processes;threads
0;paravance-6.rennes.grid5000.fr;thermos-root-devel-WordCountTopology-1-705e5508-977d-4aa9-9eb1-644fad72c051;["container_1_Consume_and_count_1"];5.25;1533065787.95048;52.97;302.93;0.025631206;10;149
0;paravance-9.rennes.grid5000.fr;thermos-root-devel-WordCountTopology-0-464f37a0-3c0b-4dd8-ae96-ae31893d88af;["topology_master"];5.25;1533065787.96496;2.47;8.17;0.0;9;117
0;paravance-8.rennes.grid5000.fr;thermos-root-devel-WordCountTopology-2-9cdea098-7aad-4fa1-912d-04248fc29b21;["container_2_Emit_random_words_2"];5.25;1533065787.46536;40.81;174.23;1.098834437;10;149
1;paravance-6.rennes.grid5000.fr;thermos-root-devel-WordCountTopology-1-705e5508-977d-4aa9-9eb1-644fad72c051;["container_1_Consume_and_count_1"];5.25;1533065798.0621;57.42;330.55;0.025631206;10;149
1;paravance-8.rennes.grid5000.fr;thermos-root-devel-WordCountTopology-2-9cdea098-7aad-4fa1-912d-04248fc29b21;["container_2_Emit_random_words_2"];5.25;1533065797.68648;44.19;188.28;1.098834437;10;149
1;paravance-9.rennes.grid5000.fr;thermos-root-devel-WordCountTopology-0-464f37a0-3c0b-4dd8-ae96-ae31893d88af;["topology_master"];5.25;1533065798.17745;2.55;8.34;0.0;9;117
2;paravance-6.rennes.grid5000.fr;thermos-root-devel-WordCountTopology-1-705e5508-977d-4aa9-9eb1-644fad72c051;["container_1_Consume_and_count_1"];5.25;1533065808.37017;62.0;357.44;0.025631206;10;149
2;paravance-8.rennes.grid5000.fr;thermos-root-devel-WordCountTopology-2-9cdea098-7aad-4fa1-912d-04248fc29b21;["container_2_Emit_random_words_2"];5.25;1533065807.90545;47.57;202.69;1.098834437;10;149
2;paravance-9.rennes.grid5000.fr;thermos-root-devel-WordCountTopology-0-464f37a0-3c0b-4dd8-ae96-ae31893d88af;["topology_master"];5.25;1533065808.38645;2.64;8.47;0.0;9;117
3;paravance-6.rennes.grid5000.fr;thermos-root-devel-WordCountTopology-1-705e5508-977d-4aa9-9eb1-644fad72c051;["container_1_Consume_and_count_1"];5.25;1533065818.58157;66.44;384.01;0.025631206;10;149
3;paravance-8.rennes.grid5000.fr;thermos-root-devel-WordCountTopology-2-9cdea098-7aad-4fa1-912d-04248fc29b21;["container_2_Emit_random_words_2"];5.25;1533065818.12611;50.79;216.6;1.098834437;10;149
3;paravance-9.rennes.grid5000.fr;thermos-root-devel-WordCountTopology-0-464f37a0-3c0b-4dd8-ae96-ae31893d88af;["topology_master"];5.25;1533065818.59558;2.67;8.5;0.0;9;117
4;paravance-6.rennes.grid5000.fr;thermos-root-devel-WordCountTopology-1-705e5508-977d-4aa9-9eb1-644fad72c051;["container_1_Consume_and_count_1"];5.25;1533065828.79241;70.85;410.58;0.025631206;10;149
4;paravance-8.rennes.grid5000.fr;thermos-root-devel-WordCountTopology-2-9cdea098-7aad-4fa1-912d-04248fc29b21;["container_2_Emit_random_words_2"];5.25;1533065828.34574;54.07;230.25;1.098834437;10;149
4;paravance-9.rennes.grid5000.fr;thermos-root-devel-WordCountTopology-0-464f37a0-3c0b-4dd8-ae96-ae31893d88af;["topology_master"];5.25;1533065828.80767;2.76;8.63;0.0;9;117
5;paravance-8.rennes.grid5000.fr;thermos-root-devel-WordCountTopology-2-9cdea098-7aad-4fa1-912d-04248fc29b21;["container_2_Emit_random_words_2"];5.25;1533065838.56592;57.22;243.88;1.098834437;10;149
5;paravance-6.rennes.grid5000.fr;thermos-root-devel-WordCountTopology-1-705e5508-977d-4aa9-9eb1-644fad72c051;["container_1_Consume_and_count_1"];5.25;1533065839.00297;75.11;436.64;0.025631206;10;149
5;paravance-9.rennes.grid5000.fr;thermos-root-devel-WordCountTopology-0-464f37a0-3c0b-4dd8-ae96-ae31893d88af;["topology_master"];5.25;1533065839.01595;2.82;8.71;0.0;9;117
6;paravance-6.rennes.grid5000.fr;thermos-root-devel-WordCountTopology-1-705e5508-977d-4aa9-9eb1-644fad72c051;["container_1_Consume_and_count_1"];5.25;1533065849.21387;79.52;462.72;0.025631206;10;149
6;paravance-9.rennes.grid5000.fr;thermos-root-devel-WordCountTopology-0-464f37a0-3c0b-4dd8-ae96-ae31893d88af;["topology_master"];5.25;1533065849.227;2.89;8.82;0.0;9;117
6;paravance-8.rennes.grid5000.fr;thermos-root-devel-WordCountTopology-2-9cdea098-7aad-4fa1-912d-04248fc29b21;["container_2_Emit_random_words_2"];5.25;1533065848.78739;60.44;257.52;1.098834437;10;149
7;paravance-6.rennes.grid5000.fr;thermos-root-devel-WordCountTopology-1-705e5508-977d-4aa9-9eb1-644fad72c051;["container_1_Consume_and_count_1"];5.25;1533065859.42433;83.48;488.24;0.025631206;10;149
7;paravance-8.rennes.grid5000.fr;thermos-root-devel-WordCountTopology-2-9cdea098-7aad-4fa1-912d-04248fc29b21;["container_2_Emit_random_words_2"];5.25;1533065859.00838;63.4;269.94;1.098834437;10;149
7;paravance-9.rennes.grid5000.fr;thermos-root-devel-WordCountTopology-0-464f37a0-3c0b-4dd8-ae96-ae31893d88af;["topology_master"];5.25;1533065859.43849;2.96;8.97;0.0;9;117
8;paravance-6.rennes.grid5000.fr;thermos-root-devel-WordCountTopology-1-705e5508-977d-4aa9-9eb1-644fad72c051;["container_1_Consume_and_count_1"];5.25;1533065869.63407;88.0;515.45;0.025631206;10;149
8;paravance-8.rennes.grid5000.fr;thermos-root-devel-WordCountTopology-2-9cdea098-7aad-4fa1-912d-04248fc29b21;["container_2_Emit_random_words_2"];5.25;1533065869.22948;66.8;284.08;1.098834437;10;149
8;paravance-9.rennes.grid5000.fr;thermos-root-devel-WordCountTopology-0-464f37a0-3c0b-4dd8-ae96-ae31893d88af;["topology_master"];5.25;1533065869.64952;3.05;9.1;0.0;9;117
9;paravance-6.rennes.grid5000.fr;thermos-root-devel-WordCountTopology-1-705e5508-977d-4aa9-9eb1-644fad72c051;["container_1_Consume_and_count_1"];5.25;1533065879.84526;92.15;541.57;0.025631206;10;149
9;paravance-9.rennes.grid5000.fr;thermos-root-devel-WordCountTopology-0-464f37a0-3c0b-4dd8-ae96-ae31893d88af;["topology_master"];5.25;1533065879.86001;3.11;9.18;0.0;9;117
9;paravance-8.rennes.grid5000.fr;thermos-root-devel-WordCountTopology-2-9cdea098-7aad-4fa1-912d-04248fc29b21;["container_2_Emit_random_words_2"];5.25;1533065879.45204;69.92;297.02;1.098834437;10;149
10;paravance-6.rennes.grid5000.fr;thermos-root-devel-WordCountTopology-1-705e5508-977d-4aa9-9eb1-644fad72c051;["container_1_Consume_and_count_1"];5.25;1533065890.05565;96.33;567.01;0.025631206;10;149
10;paravance-8.rennes.grid5000.fr;thermos-root-devel-WordCountTopology-2-9cdea098-7aad-4fa1-912d-04248fc29b21;["container_2_Emit_random_words_2"];5.25;1533065889.67182;73.1;309.84;1.098834437;10;149
10;paravance-9.rennes.grid5000.fr;thermos-root-devel-WordCountTopology-0-464f37a0-3c0b-4dd8-ae96-ae31893d88af;["topology_master"];5.25;1533065890.07031;3.17;9.25;0.0;9;117
11;paravance-6.rennes.grid5000.fr;thermos-root-devel-WordCountTopology-1-705e5508-977d-4aa9-9eb1-644fad72c051;["container_1_Consume_and_count_1"];5.25;1533065900.26694;100.8;594.25;0.025631206;10;149
11;paravance-8.rennes.grid5000.fr;thermos-root-devel-WordCountTopology-2-9cdea098-7aad-4fa1-912d-04248fc29b21;["container_2_Emit_random_words_2"];5.25;1533065899.89231;76.42;323.43;1.098834437;10;149
11;paravance-9.rennes.grid5000.fr;thermos-root-devel-WordCountTopology-0-464f37a0-3c0b-4dd8-ae96-ae31893d88af;["topology_master"];5.25;1533065900.28121;3.23;9.32;0.0;9;117
12;paravance-6.rennes.grid5000.fr;thermos-root-devel-WordCountTopology-1-705e5508-977d-4aa9-9eb1-644fad72c051;["container_1_Consume_and_count_1"];5.25;1533065910.48069;104.91;619.43;0.025631206;10;149
12;paravance-8.rennes.grid5000.fr;thermos-root-devel-WordCountTopology-2-9cdea098-7aad-4fa1-912d-04248fc29b21;["container_2_Emit_random_words_2"];5.25;1533065910.11578;79.5;335.77;1.098834437;10;149
12;paravance-9.rennes.grid5000.fr;thermos-root-devel-WordCountTopology-0-464f37a0-3c0b-4dd8-ae96-ae31893d88af;["topology_master"];5.25;1533065910.49494;3.36;9.61;0.0;9;117
13;paravance-6.rennes.grid5000.fr;thermos-root-devel-WordCountTopology-1-705e5508-977d-4aa9-9eb1-644fad72c051;["container_1_Consume_and_count_1"];5.25;1533065920.69124;109.14;645.88;0.025631206;10;149
13;paravance-9.rennes.grid5000.fr;thermos-root-devel-WordCountTopology-0-464f37a0-3c0b-4dd8-ae96-ae31893d88af;["topology_master"];5.25;1533065920.7047;3.38;9.64;0.0;9;117
13;paravance-8.rennes.grid5000.fr;thermos-root-devel-WordCountTopology-2-9cdea098-7aad-4fa1-912d-04248fc29b21;["container_2_Emit_random_words_2"];5.25;1533065920.3372;82.6;348.56;1.098834437;10;149
14;paravance-6.rennes.grid5000.fr;thermos-root-devel-WordCountTopology-1-705e5508-977d-4aa9-9eb1-644fad72c051;["container_1_Consume_and_count_1"];5.25;1533065930.90203;113.74;672.16;0.025631206;10;149
14;paravance-8.rennes.grid5000.fr;thermos-root-devel-WordCountTopology-2-9cdea098-7aad-4fa1-912d-04248fc29b21;["container_2_Emit_random_words_2"];5.25;1533065930.5576;86.03;362.69;1.098834437;10;149
14;paravance-9.rennes.grid5000.fr;thermos-root-devel-WordCountTopology-0-464f37a0-3c0b-4dd8-ae96-ae31893d88af;["topology_master"];5.25;1533065930.91601;3.48;9.77;0.0;9;117
15;paravance-8.rennes.grid5000.fr;thermos-root-devel-WordCountTopology-2-9cdea098-7aad-4fa1-912d-04248fc29b21;["container_2_Emit_random_words_2"];5.25;1533065940.778;89.29;376.27;1.098834437;10;149
15;paravance-6.rennes.grid5000.fr;thermos-root-devel-WordCountTopology-1-705e5508-977d-4aa9-9eb1-644fad72c051;["container_1_Consume_and_count_1"];5.25;1533065941.11148;118.07;698.79;0.025631206;10;149
15;paravance-9.rennes.grid5000.fr;thermos-root-devel-WordCountTopology-0-464f37a0-3c0b-4dd8-ae96-ae31893d88af;["topology_master"];5.25;1533065941.12588;3.53;9.84;0.0;9;117
16;paravance-6.rennes.grid5000.fr;thermos-root-devel-WordCountTopology-1-705e5508-977d-4aa9-9eb1-644fad72c051;["container_1_Consume_and_count_1"];5.25;1533065951.32076;122.44;726.21;0.025631206;10;149
16;paravance-9.rennes.grid5000.fr;thermos-root-devel-WordCountTopology-0-464f37a0-3c0b-4dd8-ae96-ae31893d88af;["topology_master"];5.25;1533065951.33505;3.6;9.94;0.0;9;117
16;paravance-8.rennes.grid5000.fr;thermos-root-devel-WordCountTopology-2-9cdea098-7aad-4fa1-912d-04248fc29b21;["container_2_Emit_random_words_2"];5.25;1533065950.99799;92.56;390.13;1.098834437;10;149
17;paravance-6.rennes.grid5000.fr;thermos-root-devel-WordCountTopology-1-705e5508-977d-4aa9-9eb1-644fad72c051;["container_1_Consume_and_count_1"];5.25;1533065961.53168;126.68;751.43;0.025631206;10;149
17;paravance-9.rennes.grid5000.fr;thermos-root-devel-WordCountTopology-0-464f37a0-3c0b-4dd8-ae96-ae31893d88af;["topology_master"];5.25;1533065961.54594;3.65;10.02;0.0;9;117
17;paravance-8.rennes.grid5000.fr;thermos-root-devel-WordCountTopology-2-9cdea098-7aad-4fa1-912d-04248fc29b21;["container_2_Emit_random_words_2"];5.25;1533065961.21982;95.8;402.98;1.098834437;10;149
18;paravance-6.rennes.grid5000.fr;thermos-root-devel-WordCountTopology-1-705e5508-977d-4aa9-9eb1-644fad72c051;["container_1_Consume_and_count_1"];5.25;1533065971.7399;131.16;778.48;0.025631206;10;149
18;paravance-8.rennes.grid5000.fr;thermos-root-devel-WordCountTopology-2-9cdea098-7aad-4fa1-912d-04248fc29b21;["container_2_Emit_random_words_2"];5.25;1533065971.43624;99.22;416.83;1.098834437;10;149
18;paravance-9.rennes.grid5000.fr;thermos-root-devel-WordCountTopology-0-464f37a0-3c0b-4dd8-ae96-ae31893d88af;["topology_master"];5.25;1533065971.75461;3.77;10.22;0.0;9;117
19;paravance-6.rennes.grid5000.fr;thermos-root-devel-WordCountTopology-1-705e5508-977d-4aa9-9eb1-644fad72c051;["container_1_Consume_and_count_1"];5.25;1533065981.94809;135.45;805.11;0.025631206;10;149
19;paravance-9.rennes.grid5000.fr;thermos-root-devel-WordCountTopology-0-464f37a0-3c0b-4dd8-ae96-ae31893d88af;["topology_master"];5.25;1533065981.96379;3.8;10.25;0.0;9;117
19;paravance-8.rennes.grid5000.fr;thermos-root-devel-WordCountTopology-2-9cdea098-7aad-4fa1-912d-04248fc29b21;["container_2_Emit_random_words_2"];5.25;1533065981.65687;102.43;430.37;1.098834437;10;149
20;paravance-6.rennes.grid5000.fr;thermos-root-devel-WordCountTopology-1-705e5508-977d-4aa9-9eb1-644fad72c051;["container_1_Consume_and_count_1"];5.25;1533065992.15981;139.82;831.79;0.025631206;10;149
20;paravance-9.rennes.grid5000.fr;thermos-root-devel-WordCountTopology-0-464f37a0-3c0b-4dd8-ae96-ae31893d88af;["topology_master"];5.25;1533065992.17342;3.89;10.38;0.0;9;117
20;paravance-8.rennes.grid5000.fr;thermos-root-devel-WordCountTopology-2-9cdea098-7aad-4fa1-912d-04248fc29b21;["container_2_Emit_random_words_2"];5.25;1533065991.87808;105.76;443.95;1.098834437;10;149
21;paravance-6.rennes.grid5000.fr;thermos-root-devel-WordCountTopology-1-705e5508-977d-4aa9-9eb1-644fad72c051;["container_1_Consume_and_count_1"];5.25;1533066002.36981;144.17;858.59;0.025631206;10;149
21;paravance-9.rennes.grid5000.fr;thermos-root-devel-WordCountTopology-0-464f37a0-3c0b-4dd8-ae96-ae31893d88af;["topology_master"];5.25;1533066002.38468;3.95;10.45;0.0;9;117
21;paravance-8.rennes.grid5000.fr;thermos-root-devel-WordCountTopology-2-9cdea098-7aad-4fa1-912d-04248fc29b21;["container_2_Emit_random_words_2"];5.25;1533066002.0975;109.02;457.79;1.098834437;10;149
22;paravance-6.rennes.grid5000.fr;thermos-root-devel-WordCountTopology-1-705e5508-977d-4aa9-9eb1-644fad72c051;["container_1_Consume_and_count_1"];5.25;1533066012.58014;148.44;885.34;0.025631206;10;149
22;paravance-8.rennes.grid5000.fr;thermos-root-devel-WordCountTopology-2-9cdea098-7aad-4fa1-912d-04248fc29b21;["container_2_Emit_random_words_2"];5.25;1533066012.31873;112.26;471.44;1.098834437;10;149
22;paravance-9.rennes.grid5000.fr;thermos-root-devel-WordCountTopology-0-464f37a0-3c0b-4dd8-ae96-ae31893d88af;["topology_master"];5.25;1533066012.59515;4.0;10.53;0.0;9;117
23;paravance-6.rennes.grid5000.fr;thermos-root-devel-WordCountTopology-1-705e5508-977d-4aa9-9eb1-644fad72c051;["container_1_Consume_and_count_1"];5.25;1533066022.78887;152.73;911.01;0.025631206;10;149
23;paravance-8.rennes.grid5000.fr;thermos-root-devel-WordCountTopology-2-9cdea098-7aad-4fa1-912d-04248fc29b21;["container_2_Emit_random_words_2"];5.25;1533066022.53668;115.51;484.37;1.098834437;10;149
23;paravance-9.rennes.grid5000.fr;thermos-root-devel-WordCountTopology-0-464f37a0-3c0b-4dd8-ae96-ae31893d88af;["topology_master"];5.25;1533066022.80203;4.06;10.6;0.0;9;117
24;paravance-6.rennes.grid5000.fr;thermos-root-devel-WordCountTopology-1-705e5508-977d-4aa9-9eb1-644fad72c051;["container_1_Consume_and_count_1"];5.25;1533066032.99984;157.15;937.61;0.025631206;10;149
24;paravance-9.rennes.grid5000.fr;thermos-root-devel-WordCountTopology-0-464f37a0-3c0b-4dd8-ae96-ae31893d88af;["topology_master"];5.25;1533066033.01316;4.17;10.78;0.0;9;117
24;paravance-8.rennes.grid5000.fr;thermos-root-devel-WordCountTopology-2-9cdea098-7aad-4fa1-912d-04248fc29b21;["container_2_Emit_random_words_2"];5.25;1533066032.75728;118.88;498.63;1.098834437;10;149
25;paravance-6.rennes.grid5000.fr;thermos-root-devel-WordCountTopology-1-705e5508-977d-4aa9-9eb1-644fad72c051;["container_1_Consume_and_count_1"];5.25;1533066043.21019;161.6;963.67;0.025631206;10;149
25;paravance-9.rennes.grid5000.fr;thermos-root-devel-WordCountTopology-0-464f37a0-3c0b-4dd8-ae96-ae31893d88af;["topology_master"];5.25;1533066043.22235;4.19;10.81;0.0;9;117
25;paravance-8.rennes.grid5000.fr;thermos-root-devel-WordCountTopology-2-9cdea098-7aad-4fa1-912d-04248fc29b21;["container_2_Emit_random_words_2"];5.25;1533066042.97656;121.95;512.06;1.098834437;10;149
26;paravance-6.rennes.grid5000.fr;thermos-root-devel-WordCountTopology-1-705e5508-977d-4aa9-9eb1-644fad72c051;["container_1_Consume_and_count_1"];5.25;1533066053.42114;166.16;991.07;0.025631206;10;149
26;paravance-9.rennes.grid5000.fr;thermos-root-devel-WordCountTopology-0-464f37a0-3c0b-4dd8-ae96-ae31893d88af;["topology_master"];5.25;1533066053.43338;4.28;10.93;0.0;9;117
26;paravance-8.rennes.grid5000.fr;thermos-root-devel-WordCountTopology-2-9cdea098-7aad-4fa1-912d-04248fc29b21;["container_2_Emit_random_words_2"];5.25;1533066053.19765;125.41;526.26;1.098834437;10;149
27;paravance-6.rennes.grid5000.fr;thermos-root-devel-WordCountTopology-1-705e5508-977d-4aa9-9eb1-644fad72c051;["container_1_Consume_and_count_1"];5.25;1533066063.6302;170.63;1017.92;0.025631206;10;149
27;paravance-9.rennes.grid5000.fr;thermos-root-devel-WordCountTopology-0-464f37a0-3c0b-4dd8-ae96-ae31893d88af;["topology_master"];5.25;1533066063.6419;4.34;11.0;0.0;9;117
27;paravance-8.rennes.grid5000.fr;thermos-root-devel-WordCountTopology-2-9cdea098-7aad-4fa1-912d-04248fc29b21;["container_2_Emit_random_words_2"];5.25;1533066063.41679;128.67;540.3;1.098834437;10;149
28;paravance-8.rennes.grid5000.fr;thermos-root-devel-WordCountTopology-2-9cdea098-7aad-4fa1-912d-04248fc29b21;["container_2_Emit_random_words_2"];5.25;1533066073.63649;131.97;553.77;1.098834437;10;149
28;paravance-6.rennes.grid5000.fr;thermos-root-devel-WordCountTopology-1-705e5508-977d-4aa9-9eb1-644fad72c051;["container_1_Consume_and_count_1"];5.25;1533066073.83896;174.97;1044.2;0.025631206;10;149
28;paravance-9.rennes.grid5000.fr;thermos-root-devel-WordCountTopology-0-464f37a0-3c0b-4dd8-ae96-ae31893d88af;["topology_master"];5.25;1533066073.85154;4.4;11.08;0.0;9;117
29;paravance-6.rennes.grid5000.fr;thermos-root-devel-WordCountTopology-1-705e5508-977d-4aa9-9eb1-644fad72c051;["container_1_Consume_and_count_1"];5.25;1533066084.04951;179.34;1070.79;0.025631206;10;149
29;paravance-8.rennes.grid5000.fr;thermos-root-devel-WordCountTopology-2-9cdea098-7aad-4fa1-912d-04248fc29b21;["container_2_Emit_random_words_2"];5.25;1533066083.8575;135.21;567.38;1.098834437;10;150
29;paravance-9.rennes.grid5000.fr;thermos-root-devel-WordCountTopology-0-464f37a0-3c0b-4dd8-ae96-ae31893d88af;["topology_master"];5.25;1533066084.06229;4.46;11.15;0.0;9;117
30;paravance-9.rennes.grid5000.fr;thermos-root-devel-WordCountTopology-0-464f37a0-3c0b-4dd8-ae96-ae31893d88af;["topology_master"];5.25;1533066094.27213;4.57;11.32;0.0;9;117
30;paravance-6.rennes.grid5000.fr;thermos-root-devel-WordCountTopology-1-705e5508-977d-4aa9-9eb1-644fad72c051;["container_1_Consume_and_count_1"];5.25;1533066094.26;183.84;1096.55;0.025631206;10;149
30;paravance-8.rennes.grid5000.fr;thermos-root-devel-WordCountTopology-2-9cdea098-7aad-4fa1-912d-04248fc29b21;["container_2_Emit_random_words_2"];5.25;1533066094.07815;138.55;581.08;1.098834437;10;149
31;paravance-6.rennes.grid5000.fr;thermos-root-devel-WordCountTopology-1-705e5508-977d-4aa9-9eb1-644fad72c051;["container_1_Consume_and_count_1"];5.25;1533066104.46987;188.07;1121.96;0.025631206;10;147
31;paravance-8.rennes.grid5000.fr;thermos-root-devel-WordCountTopology-2-9cdea098-7aad-4fa1-912d-04248fc29b21;["container_2_Emit_random_words_2"];5.25;1533066104.29934;141.5;593.12;1.098834437;10;149
31;paravance-9.rennes.grid5000.fr;thermos-root-devel-WordCountTopology-0-464f37a0-3c0b-4dd8-ae96-ae31893d88af;["topology_master"];5.25;1533066104.48427;4.59;11.35;0.0;9;117
32;paravance-6.rennes.grid5000.fr;thermos-root-devel-WordCountTopology-1-705e5508-977d-4aa9-9eb1-644fad72c051;["container_1_Consume_and_count_1"];5.25;1533066114.68188;192.71;1149.14;0.025631206;10;149
32;paravance-8.rennes.grid5000.fr;thermos-root-devel-WordCountTopology-2-9cdea098-7aad-4fa1-912d-04248fc29b21;["container_2_Emit_random_words_2"];5.25;1533066114.51983;144.81;607.21;1.098834437;10;149
32;paravance-9.rennes.grid5000.fr;thermos-root-devel-WordCountTopology-0-464f37a0-3c0b-4dd8-ae96-ae31893d88af;["topology_master"];5.25;1533066114.69402;4.69;11.48;0.0;9;117
33;paravance-9.rennes.grid5000.fr;thermos-root-devel-WordCountTopology-0-464f37a0-3c0b-4dd8-ae96-ae31893d88af;["topology_master"];5.25;1533066124.9044;4.78;11.61;0.0;9;117
33;paravance-8.rennes.grid5000.fr;thermos-root-devel-WordCountTopology-2-9cdea098-7aad-4fa1-912d-04248fc29b21;["container_2_Emit_random_words_2"];5.25;1533066124.74079;147.97;620.51;1.098834437;10;149
33;paravance-6.rennes.grid5000.fr;thermos-root-devel-WordCountTopology-1-705e5508-977d-4aa9-9eb1-644fad72c051;["container_1_Consume_and_count_1"];5.25;1533066124.89216;197.04;1174.37;0.025631206;10;149
34;paravance-9.rennes.grid5000.fr;thermos-root-devel-WordCountTopology-0-464f37a0-3c0b-4dd8-ae96-ae31893d88af;["topology_master"];5.25;1533066135.1152;4.81;11.63;0.0;9;117
34;paravance-8.rennes.grid5000.fr;thermos-root-devel-WordCountTopology-2-9cdea098-7aad-4fa1-912d-04248fc29b21;["container_2_Emit_random_words_2"];5.25;1533066134.96214;151.32;634.55;1.098834437;10;149
34;paravance-6.rennes.grid5000.fr;thermos-root-devel-WordCountTopology-1-705e5508-977d-4aa9-9eb1-644fad72c051;["container_1_Consume_and_count_1"];5.25;1533066135.10294;201.49;1201.61;0.025631206;10;149
35;paravance-6.rennes.grid5000.fr;thermos-root-devel-WordCountTopology-1-705e5508-977d-4aa9-9eb1-644fad72c051;["container_1_Consume_and_count_1"];5.25;1533066145.31329;205.91;1228.35;0.025631206;10;149
35;paravance-8.rennes.grid5000.fr;thermos-root-devel-WordCountTopology-2-9cdea098-7aad-4fa1-912d-04248fc29b21;["container_2_Emit_random_words_2"];5.25;1533066145.18274;154.44;648.16;1.098834437;10;149
35;paravance-9.rennes.grid5000.fr;thermos-root-devel-WordCountTopology-0-464f37a0-3c0b-4dd8-ae96-ae31893d88af;["topology_master"];5.25;1533066145.32639;4.91;11.77;0.0;9;117
36;paravance-6.rennes.grid5000.fr;thermos-root-devel-WordCountTopology-1-705e5508-977d-4aa9-9eb1-644fad72c051;["container_1_Consume_and_count_1"];5.25;1533066155.52296;210.57;1254.87;0.025631206;10;149
36;paravance-8.rennes.grid5000.fr;thermos-root-devel-WordCountTopology-2-9cdea098-7aad-4fa1-912d-04248fc29b21;["container_2_Emit_random_words_2"];5.25;1533066155.4035;157.74;662.15;1.098834437;10;149
36;paravance-9.rennes.grid5000.fr;thermos-root-devel-WordCountTopology-0-464f37a0-3c0b-4dd8-ae96-ae31893d88af;["topology_master"];5.25;1533066155.53809;4.98;11.95;0.0;9;117
37;paravance-6.rennes.grid5000.fr;thermos-root-devel-WordCountTopology-1-705e5508-977d-4aa9-9eb1-644fad72c051;["container_1_Consume_and_count_1"];5.25;1533066165.73409;215.22;1282.22;0.025631206;10;149
37;paravance-8.rennes.grid5000.fr;thermos-root-devel-WordCountTopology-2-9cdea098-7aad-4fa1-912d-04248fc29b21;["container_2_Emit_random_words_2"];5.25;1533066165.62447;161.13;676.5;1.098834437;10;149
37;paravance-9.rennes.grid5000.fr;thermos-root-devel-WordCountTopology-0-464f37a0-3c0b-4dd8-ae96-ae31893d88af;["topology_master"];5.25;1533066165.74767;5.04;12.02;0.0;9;117
38;paravance-6.rennes.grid5000.fr;thermos-root-devel-WordCountTopology-1-705e5508-977d-4aa9-9eb1-644fad72c051;["container_1_Consume_and_count_1"];5.25;1533066175.9436;219.58;1308.95;0.025631206;10;149
38;paravance-9.rennes.grid5000.fr;thermos-root-devel-WordCountTopology-0-464f37a0-3c0b-4dd8-ae96-ae31893d88af;["topology_master"];5.25;1533066175.957;5.09;12.09;0.0;9;117
38;paravance-8.rennes.grid5000.fr;thermos-root-devel-WordCountTopology-2-9cdea098-7aad-4fa1-912d-04248fc29b21;["container_2_Emit_random_words_2"];5.25;1533066175.84304;164.28;690.26;1.098834437;10;149
39;paravance-8.rennes.grid5000.fr;thermos-root-devel-WordCountTopology-2-9cdea098-7aad-4fa1-912d-04248fc29b21;["container_2_Emit_random_words_2"];5.25;1533066186.06386;167.52;704.02;1.098834437;10;149
39;paravance-6.rennes.grid5000.fr;thermos-root-devel-WordCountTopology-1-705e5508-977d-4aa9-9eb1-644fad72c051;["container_1_Consume_and_count_1"];5.25;1533066186.15277;224.1;1335.04;0.025631206;10;149
39;paravance-9.rennes.grid5000.fr;thermos-root-devel-WordCountTopology-0-464f37a0-3c0b-4dd8-ae96-ae31893d88af;["topology_master"];5.25;1533066186.16766;5.18;12.21;0.0;9;117
40;paravance-9.rennes.grid5000.fr;thermos-root-devel-WordCountTopology-0-464f37a0-3c0b-4dd8-ae96-ae31893d88af;["topology_master"];5.25;1533066196.3768;5.21;12.24;0.0;9;117
40;paravance-8.rennes.grid5000.fr;thermos-root-devel-WordCountTopology-2-9cdea098-7aad-4fa1-912d-04248fc29b21;["container_2_Emit_random_words_2"];5.25;1533066196.29873;170.82;718.34;1.098834437;10;149
40;paravance-6.rennes.grid5000.fr;thermos-root-devel-WordCountTopology-1-705e5508-977d-4aa9-9eb1-644fad72c051;["container_1_Consume_and_count_1"];5.25;1533066196.37873;228.77;1362.26;0.025631206;10;149
41;paravance-6.rennes.grid5000.fr;thermos-root-devel-WordCountTopology-1-705e5508-977d-4aa9-9eb1-644fad72c051;["container_1_Consume_and_count_1"];5.25;1533066206.58683;233.43;1389.44;0.025631206;10;149
41;paravance-9.rennes.grid5000.fr;thermos-root-devel-WordCountTopology-0-464f37a0-3c0b-4dd8-ae96-ae31893d88af;["topology_master"];5.25;1533066206.60042;5.31;12.37;0.0;9;117
41;paravance-8.rennes.grid5000.fr;thermos-root-devel-WordCountTopology-2-9cdea098-7aad-4fa1-912d-04248fc29b21;["container_2_Emit_random_words_2"];5.25;1533066206.51799;174.32;733.26;1.098834437;10;149
42;paravance-6.rennes.grid5000.fr;thermos-root-devel-WordCountTopology-1-705e5508-977d-4aa9-9eb1-644fad72c051;["container_1_Consume_and_count_1"];5.25;1533066216.79976;237.8;1416.41;0.025631206;10;149
42;paravance-8.rennes.grid5000.fr;thermos-root-devel-WordCountTopology-2-9cdea098-7aad-4fa1-912d-04248fc29b21;["container_2_Emit_random_words_2"];5.25;1533066216.74033;177.55;747.27;1.098834437;10;149
42;paravance-9.rennes.grid5000.fr;thermos-root-devel-WordCountTopology-0-464f37a0-3c0b-4dd8-ae96-ae31893d88af;["topology_master"];5.25;1533066216.8117;5.37;12.49;0.0;9;117
43;paravance-6.rennes.grid5000.fr;thermos-root-devel-WordCountTopology-1-705e5508-977d-4aa9-9eb1-644fad72c051;["container_1_Consume_and_count_1"];5.25;1533066227.01123;242.13;1443.43;0.025631206;10;149
43;paravance-9.rennes.grid5000.fr;thermos-root-devel-WordCountTopology-0-464f37a0-3c0b-4dd8-ae96-ae31893d88af;["topology_master"];5.25;1533066227.02322;5.46;12.6;0.0;9;117
43;paravance-8.rennes.grid5000.fr;thermos-root-devel-WordCountTopology-2-9cdea098-7aad-4fa1-912d-04248fc29b21;["container_2_Emit_random_words_2"];5.25;1533066226.96113;180.9;761.92;1.098834437;10;149
44;paravance-6.rennes.grid5000.fr;thermos-root-devel-WordCountTopology-1-705e5508-977d-4aa9-9eb1-644fad72c051;["container_1_Consume_and_count_1"];5.25;1533066237.22185;246.57;1469.6;0.025631206;10;149
44;paravance-9.rennes.grid5000.fr;thermos-root-devel-WordCountTopology-0-464f37a0-3c0b-4dd8-ae96-ae31893d88af;["topology_master"];5.25;1533066237.23438;5.48;12.63;0.0;9;117
44;paravance-8.rennes.grid5000.fr;thermos-root-devel-WordCountTopology-2-9cdea098-7aad-4fa1-912d-04248fc29b21;["container_2_Emit_random_words_2"];5.25;1533066237.18251;184.23;776.16;1.098834437;10;149
45;paravance-6.rennes.grid5000.fr;thermos-root-devel-WordCountTopology-1-705e5508-977d-4aa9-9eb1-644fad72c051;["container_1_Consume_and_count_1"];5.25;1533066247.43205;251.1;1495.95;0.025631206;10;149
45;paravance-9.rennes.grid5000.fr;thermos-root-devel-WordCountTopology-0-464f37a0-3c0b-4dd8-ae96-ae31893d88af;["topology_master"];5.25;1533066247.44522;5.57;12.75;0.0;9;117
45;paravance-8.rennes.grid5000.fr;thermos-root-devel-WordCountTopology-2-9cdea098-7aad-4fa1-912d-04248fc29b21;["container_2_Emit_random_words_2"];5.25;1533066247.40379;187.48;790.52;1.098834437;10;149
46;paravance-9.rennes.grid5000.fr;thermos-root-devel-WordCountTopology-0-464f37a0-3c0b-4dd8-ae96-ae31893d88af;["topology_master"];5.25;1533066257.65484;5.62;12.82;0.0;9;117
46;paravance-6.rennes.grid5000.fr;thermos-root-devel-WordCountTopology-1-705e5508-977d-4aa9-9eb1-644fad72c051;["container_1_Consume_and_count_1"];5.25;1533066257.64254;255.51;1521.55;0.025631206;10;149
46;paravance-8.rennes.grid5000.fr;thermos-root-devel-WordCountTopology-2-9cdea098-7aad-4fa1-912d-04248fc29b21;["container_2_Emit_random_words_2"];5.25;1533066257.62376;190.72;803.7;1.098834437;10;149
47;paravance-6.rennes.grid5000.fr;thermos-root-devel-WordCountTopology-1-705e5508-977d-4aa9-9eb1-644fad72c051;["container_1_Consume_and_count_1"];5.25;1533066267.85142;259.92;1547.72;0.025631206;10;149
47;paravance-8.rennes.grid5000.fr;thermos-root-devel-WordCountTopology-2-9cdea098-7aad-4fa1-912d-04248fc29b21;["container_2_Emit_random_words_2"];5.25;1533066267.84475;193.94;817.59;1.098834437;10;149
47;paravance-9.rennes.grid5000.fr;thermos-root-devel-WordCountTopology-0-464f37a0-3c0b-4dd8-ae96-ae31893d88af;["topology_master"];5.25;1533066267.86612;5.69;12.9;0.0;9;117
48;paravance-6.rennes.grid5000.fr;thermos-root-devel-WordCountTopology-1-705e5508-977d-4aa9-9eb1-644fad72c051;["container_1_Consume_and_count_1"];5.25;1533066278.06508;264.18;1573.82;0.025631206;10;149
48;paravance-8.rennes.grid5000.fr;thermos-root-devel-WordCountTopology-2-9cdea098-7aad-4fa1-912d-04248fc29b21;["container_2_Emit_random_words_2"];5.25;1533066278.06631;197.21;831.11;1.098834437;10;149
48;paravance-9.rennes.grid5000.fr;thermos-root-devel-WordCountTopology-0-464f37a0-3c0b-4dd8-ae96-ae31893d88af;["topology_master"];5.25;1533066278.07719;5.75;13.03;0.0;9;117
49;paravance-6.rennes.grid5000.fr;thermos-root-devel-WordCountTopology-1-705e5508-977d-4aa9-9eb1-644fad72c051;["container_1_Consume_and_count_1"];5.25;1533066288.27416;268.57;1599.85;0.025631206;10;149
49;paravance-9.rennes.grid5000.fr;thermos-root-devel-WordCountTopology-0-464f37a0-3c0b-4dd8-ae96-ae31893d88af;["topology_master"];5.25;1533066288.28853;5.84;13.15;0.0;9;117
49;paravance-8.rennes.grid5000.fr;thermos-root-devel-WordCountTopology-2-9cdea098-7aad-4fa1-912d-04248fc29b21;["container_2_Emit_random_words_2"];5.25;1533066288.28779;200.45;845.34;1.098834437;10;149
50;paravance-6.rennes.grid5000.fr;thermos-root-devel-WordCountTopology-1-705e5508-977d-4aa9-9eb1-644fad72c051;["container_1_Consume_and_count_1"];5.25;1533066298.48921;272.65;1625.65;0.025631206;10;149
50;paravance-9.rennes.grid5000.fr;thermos-root-devel-WordCountTopology-0-464f37a0-3c0b-4dd8-ae96-ae31893d88af;["topology_master"];5.25;1533066298.4989;5.87;13.18;0.0;9;117
50;paravance-8.rennes.grid5000.fr;thermos-root-devel-WordCountTopology-2-9cdea098-7aad-4fa1-912d-04248fc29b21;["container_2_Emit_random_words_2"];5.25;1533066298.5079;203.62;858.72;1.098834437;10;149
51;paravance-6.rennes.grid5000.fr;thermos-root-devel-WordCountTopology-1-705e5508-977d-4aa9-9eb1-644fad72c051;["container_1_Consume_and_count_1"];5.25;1533066308.70539;276.87;1651.55;0.025631206;10;149
51;paravance-8.rennes.grid5000.fr;thermos-root-devel-WordCountTopology-2-9cdea098-7aad-4fa1-912d-04248fc29b21;["container_2_Emit_random_words_2"];5.25;1533066308.72822;206.95;872.72;1.098834437;10;149
51;paravance-9.rennes.grid5000.fr;thermos-root-devel-WordCountTopology-0-464f37a0-3c0b-4dd8-ae96-ae31893d88af;["topology_master"];5.25;1533066308.70893;5.96;13.31;0.0;9;117
52;paravance-6.rennes.grid5000.fr;thermos-root-devel-WordCountTopology-1-705e5508-977d-4aa9-9eb1-644fad72c051;["container_1_Consume_and_count_1"];5.25;1533066318.92095;281.21;1678.0;0.025631206;10;149
52;paravance-8.rennes.grid5000.fr;thermos-root-devel-WordCountTopology-2-9cdea098-7aad-4fa1-912d-04248fc29b21;["container_2_Emit_random_words_2"];5.25;1533066318.94798;210.17;886.31;1.098834437;10;149
52;paravance-9.rennes.grid5000.fr;thermos-root-devel-WordCountTopology-0-464f37a0-3c0b-4dd8-ae96-ae31893d88af;["topology_master"];5.25;1533066318.91981;6.02;13.39;0.0;9;117
53;paravance-6.rennes.grid5000.fr;thermos-root-devel-WordCountTopology-1-705e5508-977d-4aa9-9eb1-644fad72c051;["container_1_Consume_and_count_1"];5.25;1533066329.13489;285.56;1704.61;0.025631206;10;149
53;paravance-8.rennes.grid5000.fr;thermos-root-devel-WordCountTopology-2-9cdea098-7aad-4fa1-912d-04248fc29b21;["container_2_Emit_random_words_2"];5.25;1533066329.16828;213.44;900.29;1.098834437;10;149
53;paravance-9.rennes.grid5000.fr;thermos-root-devel-WordCountTopology-0-464f37a0-3c0b-4dd8-ae96-ae31893d88af;["topology_master"];5.25;1533066329.13342;6.08;13.48;0.0;9;117
54;paravance-6.rennes.grid5000.fr;thermos-root-devel-WordCountTopology-1-705e5508-977d-4aa9-9eb1-644fad72c051;["container_1_Consume_and_count_1"];5.25;1533066339.35233;289.75;1730.69;0.025631206;10;149
54;paravance-8.rennes.grid5000.fr;thermos-root-devel-WordCountTopology-2-9cdea098-7aad-4fa1-912d-04248fc29b21;["container_2_Emit_random_words_2"];5.25;1533066339.39052;216.66;913.62;1.098834437;10;149
54;paravance-9.rennes.grid5000.fr;thermos-root-devel-WordCountTopology-0-464f37a0-3c0b-4dd8-ae96-ae31893d88af;["topology_master"];5.25;1533066339.35015;6.15;13.6;0.0;9;117
55;paravance-6.rennes.grid5000.fr;thermos-root-devel-WordCountTopology-1-705e5508-977d-4aa9-9eb1-644fad72c051;["container_1_Consume_and_count_1"];5.25;1533066349.56755;294.29;1757.59;0.025631206;10;149
55;paravance-9.rennes.grid5000.fr;thermos-root-devel-WordCountTopology-0-464f37a0-3c0b-4dd8-ae96-ae31893d88af;["topology_master"];5.25;1533066349.56684;6.23;13.72;0.0;9;117
55;paravance-8.rennes.grid5000.fr;thermos-root-devel-WordCountTopology-2-9cdea098-7aad-4fa1-912d-04248fc29b21;["container_2_Emit_random_words_2"];5.25;1533066349.61193;220.15;928.2;1.098834437;10;149
56;paravance-6.rennes.grid5000.fr;thermos-root-devel-WordCountTopology-1-705e5508-977d-4aa9-9eb1-644fad72c051;["container_1_Consume_and_count_1"];5.25;1533066359.78338;298.69;1783.86;0.025631206;10;149
56;paravance-9.rennes.grid5000.fr;thermos-root-devel-WordCountTopology-0-464f37a0-3c0b-4dd8-ae96-ae31893d88af;["topology_master"];5.25;1533066359.78135;6.26;13.75;0.0;9;117
56;paravance-8.rennes.grid5000.fr;thermos-root-devel-WordCountTopology-2-9cdea098-7aad-4fa1-912d-04248fc29b21;["container_2_Emit_random_words_2"];5.25;1533066359.83176;223.4;942.33;1.098834437;10;149
57;paravance-6.rennes.grid5000.fr;thermos-root-devel-WordCountTopology-1-705e5508-977d-4aa9-9eb1-644fad72c051;["container_1_Consume_and_count_1"];5.25;1533066369.99707;303.31;1810.47;0.025631206;10;149
57;paravance-8.rennes.grid5000.fr;thermos-root-devel-WordCountTopology-2-9cdea098-7aad-4fa1-912d-04248fc29b21;["container_2_Emit_random_words_2"];5.25;1533066370.05023;226.88;957.19;1.098834437;10;149
57;paravance-9.rennes.grid5000.fr;thermos-root-devel-WordCountTopology-0-464f37a0-3c0b-4dd8-ae96-ae31893d88af;["topology_master"];5.25;1533066369.99562;6.35;13.87;0.0;9;117
58;paravance-6.rennes.grid5000.fr;thermos-root-devel-WordCountTopology-1-705e5508-977d-4aa9-9eb1-644fad72c051;["container_1_Consume_and_count_1"];5.25;1533066380.21304;307.75;1836.55;0.025631206;10;149
58;paravance-8.rennes.grid5000.fr;thermos-root-devel-WordCountTopology-2-9cdea098-7aad-4fa1-912d-04248fc29b21;["container_2_Emit_random_words_2"];5.25;1533066380.27011;230.22;971.21;1.098834437;10;149
58;paravance-9.rennes.grid5000.fr;thermos-root-devel-WordCountTopology-0-464f37a0-3c0b-4dd8-ae96-ae31893d88af;["topology_master"];5.25;1533066380.21146;6.41;13.95;0.0;9;117
59;paravance-6.rennes.grid5000.fr;thermos-root-devel-WordCountTopology-1-705e5508-977d-4aa9-9eb1-644fad72c051;["container_1_Consume_and_count_1"];5.25;1533066390.42761;312.24;1862.91;0.025631206;10;149
59;paravance-8.rennes.grid5000.fr;thermos-root-devel-WordCountTopology-2-9cdea098-7aad-4fa1-912d-04248fc29b21;["container_2_Emit_random_words_2"];5.25;1533066390.49142;233.55;985.28;1.098834437;10;149
59;paravance-9.rennes.grid5000.fr;thermos-root-devel-WordCountTopology-0-464f37a0-3c0b-4dd8-ae96-ae31893d88af;["topology_master"];5.25;1533066390.42592;6.48;14.07;0.0;9;117
60;paravance-6.rennes.grid5000.fr;thermos-root-devel-WordCountTopology-1-705e5508-977d-4aa9-9eb1-644fad72c051;["container_1_Consume_and_count_1"];5.25;1533066400.64393;316.68;1889.81;0.025631206;10;149
60;paravance-9.rennes.grid5000.fr;thermos-root-devel-WordCountTopology-0-464f37a0-3c0b-4dd8-ae96-ae31893d88af;["topology_master"];5.25;1533066400.64137;6.54;14.14;0.0;9;117
60;paravance-8.rennes.grid5000.fr;thermos-root-devel-WordCountTopology-2-9cdea098-7aad-4fa1-912d-04248fc29b21;["container_2_Emit_random_words_2"];5.25;1533066400.71098;236.91;999.39;1.098834437;10;149
