------------------------------------------------------
 submission_time: 1533222831
------------------------------------------------------
timeslice start: 1533223200; backpressure time in ms: 33338.0
timeslice start: 1533223440; backpressure time in ms: 35499.0
timeslice start: 1533223140; backpressure time in ms: 36100.0
timeslice start: 1533223080; backpressure time in ms: 33762.0
timeslice start: 1533223020; backpressure time in ms: 34080.0
timeslice start: 1533223500; backpressure time in ms: 35834.0
timeslice start: 1533222960; backpressure time in ms: 33066.0
timeslice start: 1533223380; backpressure time in ms: 35910.0
timeslice start: 1533223320; backpressure time in ms: 36002.0
timeslice start: 1533223260; backpressure time in ms: 34335.0
