mesure_id;slave_id;executor_id;heron_instances;cpus_limit;timestamp_A;cpus_system_time_secs_A;cpus_user_time_secs_A;cpus_throttled_time_secs_A;processes;threads
0;paravance-7.rennes.grid5000.fr;thermos-root-devel-WordCountTopology-2-3c84136d-da17-4d7d-bf80-263316378168;["container_2_Emit_random_words_2"];6.25;1533074985.83186;45.98;200.29;0.406326181;10;149
0;paravance-8.rennes.grid5000.fr;thermos-root-devel-WordCountTopology-0-d20374d9-e4d0-4416-aa54-46f6afcbfcac;["topology_master"];6.25;1533074986.10188;2.51;8.12;0.0;9;117
0;paravance-9.rennes.grid5000.fr;thermos-root-devel-WordCountTopology-1-42dcfd93-96ce-4476-816b-a25ce81b6230;["container_1_Consume_and_count_1"];6.25;1533074985.79299;56.87;242.62;0.0;10;149
1;paravance-9.rennes.grid5000.fr;thermos-root-devel-WordCountTopology-1-42dcfd93-96ce-4476-816b-a25ce81b6230;["container_1_Consume_and_count_1"];6.25;1533074996.01878;61.58;270.69;0.0;10;149
1;paravance-7.rennes.grid5000.fr;thermos-root-devel-WordCountTopology-2-3c84136d-da17-4d7d-bf80-263316378168;["container_2_Emit_random_words_2"];6.25;1533074996.05527;49.58;216.39;0.406326181;10;149
1;paravance-8.rennes.grid5000.fr;thermos-root-devel-WordCountTopology-0-d20374d9-e4d0-4416-aa54-46f6afcbfcac;["topology_master"];6.25;1533074996.31803;2.58;8.28;0.0;9;117
2;paravance-9.rennes.grid5000.fr;thermos-root-devel-WordCountTopology-1-42dcfd93-96ce-4476-816b-a25ce81b6230;["container_1_Consume_and_count_1"];6.25;1533075006.2376;65.99;298.25;0.0;10;149
2;paravance-7.rennes.grid5000.fr;thermos-root-devel-WordCountTopology-2-3c84136d-da17-4d7d-bf80-263316378168;["container_2_Emit_random_words_2"];6.25;1533075006.26947;52.88;231.05;0.406326181;10;149
2;paravance-8.rennes.grid5000.fr;thermos-root-devel-WordCountTopology-0-d20374d9-e4d0-4416-aa54-46f6afcbfcac;["topology_master"];6.25;1533075006.52789;2.67;8.4;0.0;9;117
3;paravance-8.rennes.grid5000.fr;thermos-root-devel-WordCountTopology-0-d20374d9-e4d0-4416-aa54-46f6afcbfcac;["topology_master"];6.25;1533075016.73764;2.7;8.44;0.0;9;117
3;paravance-7.rennes.grid5000.fr;thermos-root-devel-WordCountTopology-2-3c84136d-da17-4d7d-bf80-263316378168;["container_2_Emit_random_words_2"];6.25;1533075016.48516;55.95;244.29;0.406326181;10;149
3;paravance-9.rennes.grid5000.fr;thermos-root-devel-WordCountTopology-1-42dcfd93-96ce-4476-816b-a25ce81b6230;["container_1_Consume_and_count_1"];6.25;1533075016.45959;70.21;324.59;0.0;10;149
4;paravance-9.rennes.grid5000.fr;thermos-root-devel-WordCountTopology-1-42dcfd93-96ce-4476-816b-a25ce81b6230;["container_1_Consume_and_count_1"];6.25;1533075026.68195;74.35;349.51;0.0;10;149
4;paravance-8.rennes.grid5000.fr;thermos-root-devel-WordCountTopology-0-d20374d9-e4d0-4416-aa54-46f6afcbfcac;["topology_master"];6.25;1533075026.95018;2.79;8.56;0.0;9;117
4;paravance-7.rennes.grid5000.fr;thermos-root-devel-WordCountTopology-2-3c84136d-da17-4d7d-bf80-263316378168;["container_2_Emit_random_words_2"];6.25;1533075026.70241;59.02;257.7;0.406326181;10;149
5;paravance-7.rennes.grid5000.fr;thermos-root-devel-WordCountTopology-2-3c84136d-da17-4d7d-bf80-263316378168;["container_2_Emit_random_words_2"];6.25;1533075036.91941;62.37;272.24;0.406326181;10;149
5;paravance-9.rennes.grid5000.fr;thermos-root-devel-WordCountTopology-1-42dcfd93-96ce-4476-816b-a25ce81b6230;["container_1_Consume_and_count_1"];6.25;1533075036.90281;78.82;377.57;0.0;10;149
5;paravance-8.rennes.grid5000.fr;thermos-root-devel-WordCountTopology-0-d20374d9-e4d0-4416-aa54-46f6afcbfcac;["topology_master"];6.25;1533075037.1626;2.85;8.64;0.0;9;117
6;paravance-9.rennes.grid5000.fr;thermos-root-devel-WordCountTopology-1-42dcfd93-96ce-4476-816b-a25ce81b6230;["container_1_Consume_and_count_1"];6.25;1533075047.12182;82.89;402.04;0.0;10;149
6;paravance-7.rennes.grid5000.fr;thermos-root-devel-WordCountTopology-2-3c84136d-da17-4d7d-bf80-263316378168;["container_2_Emit_random_words_2"];6.25;1533075047.13286;65.31;284.65;0.406326181;10;149
6;paravance-8.rennes.grid5000.fr;thermos-root-devel-WordCountTopology-0-d20374d9-e4d0-4416-aa54-46f6afcbfcac;["topology_master"];6.25;1533075047.37022;2.95;8.8;0.0;9;117
7;paravance-8.rennes.grid5000.fr;thermos-root-devel-WordCountTopology-0-d20374d9-e4d0-4416-aa54-46f6afcbfcac;["topology_master"];6.25;1533075057.58011;3.0;8.92;0.0;9;117
7;paravance-7.rennes.grid5000.fr;thermos-root-devel-WordCountTopology-2-3c84136d-da17-4d7d-bf80-263316378168;["container_2_Emit_random_words_2"];6.25;1533075057.34864;68.44;298.24;0.406326181;10;149
7;paravance-9.rennes.grid5000.fr;thermos-root-devel-WordCountTopology-1-42dcfd93-96ce-4476-816b-a25ce81b6230;["container_1_Consume_and_count_1"];6.25;1533075057.343;87.16;427.87;0.0;10;149
8;paravance-9.rennes.grid5000.fr;thermos-root-devel-WordCountTopology-1-42dcfd93-96ce-4476-816b-a25ce81b6230;["container_1_Consume_and_count_1"];6.25;1533075067.56315;91.58;454.43;0.0;10;149
8;paravance-8.rennes.grid5000.fr;thermos-root-devel-WordCountTopology-0-d20374d9-e4d0-4416-aa54-46f6afcbfcac;["topology_master"];6.25;1533075067.7907;3.09;9.05;0.0;9;117
8;paravance-7.rennes.grid5000.fr;thermos-root-devel-WordCountTopology-2-3c84136d-da17-4d7d-bf80-263316378168;["container_2_Emit_random_words_2"];6.25;1533075067.56381;71.82;312.64;0.406326181;10;149
9;paravance-9.rennes.grid5000.fr;thermos-root-devel-WordCountTopology-1-42dcfd93-96ce-4476-816b-a25ce81b6230;["container_1_Consume_and_count_1"];6.25;1533075077.68224;96.04;481.86;0.0;10;149
9;paravance-8.rennes.grid5000.fr;thermos-root-devel-WordCountTopology-0-d20374d9-e4d0-4416-aa54-46f6afcbfcac;["topology_master"];6.25;1533075077.99858;3.15;9.13;0.0;9;117
9;paravance-7.rennes.grid5000.fr;thermos-root-devel-WordCountTopology-2-3c84136d-da17-4d7d-bf80-263316378168;["container_2_Emit_random_words_2"];6.25;1533075077.77659;75.2;326.84;0.406326181;10;149
10;paravance-8.rennes.grid5000.fr;thermos-root-devel-WordCountTopology-0-d20374d9-e4d0-4416-aa54-46f6afcbfcac;["topology_master"];6.25;1533075088.21022;3.21;9.21;0.0;9;117
10;paravance-9.rennes.grid5000.fr;thermos-root-devel-WordCountTopology-1-42dcfd93-96ce-4476-816b-a25ce81b6230;["container_1_Consume_and_count_1"];6.25;1533075088.00271;100.17;507.57;0.0;10;149
10;paravance-7.rennes.grid5000.fr;thermos-root-devel-WordCountTopology-2-3c84136d-da17-4d7d-bf80-263316378168;["container_2_Emit_random_words_2"];6.25;1533075087.9928;78.3;340.03;0.406326181;10;149
11;paravance-8.rennes.grid5000.fr;thermos-root-devel-WordCountTopology-0-d20374d9-e4d0-4416-aa54-46f6afcbfcac;["topology_master"];6.25;1533075098.42173;3.26;9.28;0.0;9;117
11;paravance-9.rennes.grid5000.fr;thermos-root-devel-WordCountTopology-1-42dcfd93-96ce-4476-816b-a25ce81b6230;["container_1_Consume_and_count_1"];6.25;1533075098.22226;104.32;533.36;0.0;10;149
11;paravance-7.rennes.grid5000.fr;thermos-root-devel-WordCountTopology-2-3c84136d-da17-4d7d-bf80-263316378168;["container_2_Emit_random_words_2"];6.25;1533075098.20972;81.38;353.73;0.406326181;10;149
12;paravance-8.rennes.grid5000.fr;thermos-root-devel-WordCountTopology-0-d20374d9-e4d0-4416-aa54-46f6afcbfcac;["topology_master"];6.25;1533075108.5309;3.39;9.57;0.0;9;117
12;paravance-9.rennes.grid5000.fr;thermos-root-devel-WordCountTopology-1-42dcfd93-96ce-4476-816b-a25ce81b6230;["container_1_Consume_and_count_1"];6.25;1533075108.43642;108.64;558.64;0.0;10;149
12;paravance-7.rennes.grid5000.fr;thermos-root-devel-WordCountTopology-2-3c84136d-da17-4d7d-bf80-263316378168;["container_2_Emit_random_words_2"];6.25;1533075108.42437;84.68;367.65;0.406326181;10;149
13;paravance-9.rennes.grid5000.fr;thermos-root-devel-WordCountTopology-1-42dcfd93-96ce-4476-816b-a25ce81b6230;["container_1_Consume_and_count_1"];6.25;1533075118.65269;112.78;584.4;0.0;10;149
13;paravance-8.rennes.grid5000.fr;thermos-root-devel-WordCountTopology-0-d20374d9-e4d0-4416-aa54-46f6afcbfcac;["topology_master"];6.25;1533075118.84035;3.42;9.6;0.0;9;117
13;paravance-7.rennes.grid5000.fr;thermos-root-devel-WordCountTopology-2-3c84136d-da17-4d7d-bf80-263316378168;["container_2_Emit_random_words_2"];6.25;1533075118.63798;87.88;381.22;0.406326181;10;149
14;paravance-9.rennes.grid5000.fr;thermos-root-devel-WordCountTopology-1-42dcfd93-96ce-4476-816b-a25ce81b6230;["container_1_Consume_and_count_1"];6.25;1533075128.86558;116.78;610.0;0.0;10;149
14;paravance-7.rennes.grid5000.fr;thermos-root-devel-WordCountTopology-2-3c84136d-da17-4d7d-bf80-263316378168;["container_2_Emit_random_words_2"];6.25;1533075128.85412;90.93;393.84;0.406326181;10;149
14;paravance-8.rennes.grid5000.fr;thermos-root-devel-WordCountTopology-0-d20374d9-e4d0-4416-aa54-46f6afcbfcac;["topology_master"];6.25;1533075129.05088;3.51;9.73;0.0;9;117
15;paravance-9.rennes.grid5000.fr;thermos-root-devel-WordCountTopology-1-42dcfd93-96ce-4476-816b-a25ce81b6230;["container_1_Consume_and_count_1"];6.25;1533075139.08162;121.14;636.95;0.0;10;149
15;paravance-7.rennes.grid5000.fr;thermos-root-devel-WordCountTopology-2-3c84136d-da17-4d7d-bf80-263316378168;["container_2_Emit_random_words_2"];6.25;1533075139.06849;94.35;408.32;0.406326181;10;149
15;paravance-8.rennes.grid5000.fr;thermos-root-devel-WordCountTopology-0-d20374d9-e4d0-4416-aa54-46f6afcbfcac;["topology_master"];6.25;1533075139.26067;3.57;9.8;0.0;9;117
16;paravance-9.rennes.grid5000.fr;thermos-root-devel-WordCountTopology-1-42dcfd93-96ce-4476-816b-a25ce81b6230;["container_1_Consume_and_count_1"];6.25;1533075149.19739;125.49;663.43;0.0;10;149
16;paravance-8.rennes.grid5000.fr;thermos-root-devel-WordCountTopology-0-d20374d9-e4d0-4416-aa54-46f6afcbfcac;["topology_master"];6.25;1533075149.46957;3.63;9.88;0.0;9;117
16;paravance-7.rennes.grid5000.fr;thermos-root-devel-WordCountTopology-2-3c84136d-da17-4d7d-bf80-263316378168;["container_2_Emit_random_words_2"];6.25;1533075149.28224;97.7;422.86;0.406326181;10;149
17;paravance-9.rennes.grid5000.fr;thermos-root-devel-WordCountTopology-1-42dcfd93-96ce-4476-816b-a25ce81b6230;["container_1_Consume_and_count_1"];6.25;1533075159.51133;129.57;689.13;0.0;10;149
17;paravance-8.rennes.grid5000.fr;thermos-root-devel-WordCountTopology-0-d20374d9-e4d0-4416-aa54-46f6afcbfcac;["topology_master"];6.25;1533075159.67978;3.69;9.96;0.0;9;117
17;paravance-7.rennes.grid5000.fr;thermos-root-devel-WordCountTopology-2-3c84136d-da17-4d7d-bf80-263316378168;["container_2_Emit_random_words_2"];6.25;1533075159.49933;100.84;435.93;0.406326181;10;149
18;paravance-9.rennes.grid5000.fr;thermos-root-devel-WordCountTopology-1-42dcfd93-96ce-4476-816b-a25ce81b6230;["container_1_Consume_and_count_1"];6.25;1533075169.72655;133.62;716.11;0.0;10;149
18;paravance-7.rennes.grid5000.fr;thermos-root-devel-WordCountTopology-2-3c84136d-da17-4d7d-bf80-263316378168;["container_2_Emit_random_words_2"];6.25;1533075169.71355;103.97;448.84;0.406326181;10;149
18;paravance-8.rennes.grid5000.fr;thermos-root-devel-WordCountTopology-0-d20374d9-e4d0-4416-aa54-46f6afcbfcac;["topology_master"];6.25;1533075169.89105;3.81;10.17;0.0;9;117
19;paravance-9.rennes.grid5000.fr;thermos-root-devel-WordCountTopology-1-42dcfd93-96ce-4476-816b-a25ce81b6230;["container_1_Consume_and_count_1"];6.25;1533075179.9412;137.98;743.77;0.0;10;149
19;paravance-8.rennes.grid5000.fr;thermos-root-devel-WordCountTopology-0-d20374d9-e4d0-4416-aa54-46f6afcbfcac;["topology_master"];6.25;1533075180.10051;3.84;10.19;0.0;9;117
19;paravance-7.rennes.grid5000.fr;thermos-root-devel-WordCountTopology-2-3c84136d-da17-4d7d-bf80-263316378168;["container_2_Emit_random_words_2"];6.25;1533075179.92909;107.12;462.53;0.406326181;10;149
20;paravance-9.rennes.grid5000.fr;thermos-root-devel-WordCountTopology-1-42dcfd93-96ce-4476-816b-a25ce81b6230;["container_1_Consume_and_count_1"];6.25;1533075190.15715;142.17;769.66;0.0;10;149
20;paravance-8.rennes.grid5000.fr;thermos-root-devel-WordCountTopology-0-d20374d9-e4d0-4416-aa54-46f6afcbfcac;["topology_master"];6.25;1533075190.31015;3.93;10.32;0.0;9;117
20;paravance-7.rennes.grid5000.fr;thermos-root-devel-WordCountTopology-2-3c84136d-da17-4d7d-bf80-263316378168;["container_2_Emit_random_words_2"];6.25;1533075190.14372;110.26;476.1;0.406326181;10;149
21;paravance-9.rennes.grid5000.fr;thermos-root-devel-WordCountTopology-1-42dcfd93-96ce-4476-816b-a25ce81b6230;["container_1_Consume_and_count_1"];6.25;1533075200.37299;146.33;795.46;0.0;10;149
21;paravance-8.rennes.grid5000.fr;thermos-root-devel-WordCountTopology-0-d20374d9-e4d0-4416-aa54-46f6afcbfcac;["topology_master"];6.25;1533075200.52101;3.99;10.4;0.0;9;117
21;paravance-7.rennes.grid5000.fr;thermos-root-devel-WordCountTopology-2-3c84136d-da17-4d7d-bf80-263316378168;["container_2_Emit_random_words_2"];6.25;1533075200.35982;113.38;488.87;0.406326181;10;149
22;paravance-8.rennes.grid5000.fr;thermos-root-devel-WordCountTopology-0-d20374d9-e4d0-4416-aa54-46f6afcbfcac;["topology_master"];6.25;1533075210.63172;4.05;10.47;0.0;9;117
22;paravance-7.rennes.grid5000.fr;thermos-root-devel-WordCountTopology-2-3c84136d-da17-4d7d-bf80-263316378168;["container_2_Emit_random_words_2"];6.25;1533075210.57277;116.79;503.77;0.406326181;10;149
22;paravance-9.rennes.grid5000.fr;thermos-root-devel-WordCountTopology-1-42dcfd93-96ce-4476-816b-a25ce81b6230;["container_1_Consume_and_count_1"];6.25;1533075210.58962;150.92;822.76;0.0;10;149
23;paravance-7.rennes.grid5000.fr;thermos-root-devel-WordCountTopology-2-3c84136d-da17-4d7d-bf80-263316378168;["container_2_Emit_random_words_2"];6.25;1533075220.78845;119.96;516.83;0.406326181;10;149
23;paravance-9.rennes.grid5000.fr;thermos-root-devel-WordCountTopology-1-42dcfd93-96ce-4476-816b-a25ce81b6230;["container_1_Consume_and_count_1"];6.25;1533075220.80184;155.05;848.01;0.0;10;149
23;paravance-8.rennes.grid5000.fr;thermos-root-devel-WordCountTopology-0-d20374d9-e4d0-4416-aa54-46f6afcbfcac;["topology_master"];6.25;1533075220.94031;4.11;10.55;0.0;9;117
24;paravance-7.rennes.grid5000.fr;thermos-root-devel-WordCountTopology-2-3c84136d-da17-4d7d-bf80-263316378168;["container_2_Emit_random_words_2"];6.25;1533075231.00425;123.27;530.52;0.406326181;10;149
24;paravance-8.rennes.grid5000.fr;thermos-root-devel-WordCountTopology-0-d20374d9-e4d0-4416-aa54-46f6afcbfcac;["topology_master"];6.25;1533075231.14996;4.21;10.73;0.0;9;117
24;paravance-9.rennes.grid5000.fr;thermos-root-devel-WordCountTopology-1-42dcfd93-96ce-4476-816b-a25ce81b6230;["container_1_Consume_and_count_1"];6.25;1533075231.0179;159.42;874.41;0.0;10;149
25;paravance-9.rennes.grid5000.fr;thermos-root-devel-WordCountTopology-1-42dcfd93-96ce-4476-816b-a25ce81b6230;["container_1_Consume_and_count_1"];6.25;1533075241.23309;163.96;901.04;0.0;10;149
25;paravance-8.rennes.grid5000.fr;thermos-root-devel-WordCountTopology-0-d20374d9-e4d0-4416-aa54-46f6afcbfcac;["topology_master"];6.25;1533075241.36088;4.24;10.76;0.0;9;117
25;paravance-7.rennes.grid5000.fr;thermos-root-devel-WordCountTopology-2-3c84136d-da17-4d7d-bf80-263316378168;["container_2_Emit_random_words_2"];6.25;1533075241.21989;126.48;544.96;0.406326181;10;149
26;paravance-9.rennes.grid5000.fr;thermos-root-devel-WordCountTopology-1-42dcfd93-96ce-4476-816b-a25ce81b6230;["container_1_Consume_and_count_1"];6.25;1533075251.44774;168.27;927.6;0.0;10;149
26;paravance-7.rennes.grid5000.fr;thermos-root-devel-WordCountTopology-2-3c84136d-da17-4d7d-bf80-263316378168;["container_2_Emit_random_words_2"];6.25;1533075251.43476;129.7;558.42;0.406326181;10;149
26;paravance-8.rennes.grid5000.fr;thermos-root-devel-WordCountTopology-0-d20374d9-e4d0-4416-aa54-46f6afcbfcac;["topology_master"];6.25;1533075251.57074;4.33;10.88;0.0;9;117
27;paravance-9.rennes.grid5000.fr;thermos-root-devel-WordCountTopology-1-42dcfd93-96ce-4476-816b-a25ce81b6230;["container_1_Consume_and_count_1"];6.25;1533075261.66377;172.39;954.08;0.0;10;149
27;paravance-7.rennes.grid5000.fr;thermos-root-devel-WordCountTopology-2-3c84136d-da17-4d7d-bf80-263316378168;["container_2_Emit_random_words_2"];6.25;1533075261.65104;132.78;571.22;0.406326181;10;149
27;paravance-8.rennes.grid5000.fr;thermos-root-devel-WordCountTopology-0-d20374d9-e4d0-4416-aa54-46f6afcbfcac;["topology_master"];6.25;1533075261.78148;4.39;10.95;0.0;9;117
28;paravance-9.rennes.grid5000.fr;thermos-root-devel-WordCountTopology-1-42dcfd93-96ce-4476-816b-a25ce81b6230;["container_1_Consume_and_count_1"];6.25;1533075271.87698;176.31;979.84;0.0;10;149
28;paravance-7.rennes.grid5000.fr;thermos-root-devel-WordCountTopology-2-3c84136d-da17-4d7d-bf80-263316378168;["container_2_Emit_random_words_2"];6.25;1533075271.86465;135.67;583.52;0.406326181;10;149
28;paravance-8.rennes.grid5000.fr;thermos-root-devel-WordCountTopology-0-d20374d9-e4d0-4416-aa54-46f6afcbfcac;["topology_master"];6.25;1533075271.99044;4.45;11.02;0.0;9;117
29;paravance-9.rennes.grid5000.fr;thermos-root-devel-WordCountTopology-1-42dcfd93-96ce-4476-816b-a25ce81b6230;["container_1_Consume_and_count_1"];6.25;1533075282.09497;180.88;1006.91;0.0;10;149
29;paravance-8.rennes.grid5000.fr;thermos-root-devel-WordCountTopology-0-d20374d9-e4d0-4416-aa54-46f6afcbfcac;["topology_master"];6.25;1533075282.2026;4.5;11.09;0.0;9;117
29;paravance-7.rennes.grid5000.fr;thermos-root-devel-WordCountTopology-2-3c84136d-da17-4d7d-bf80-263316378168;["container_2_Emit_random_words_2"];6.25;1533075282.08158;138.96;597.54;0.406326181;10;149
30;paravance-7.rennes.grid5000.fr;thermos-root-devel-WordCountTopology-2-3c84136d-da17-4d7d-bf80-263316378168;["container_2_Emit_random_words_2"];6.25;1533075292.29695;142.17;611.03;0.406326181;10;149
30;paravance-9.rennes.grid5000.fr;thermos-root-devel-WordCountTopology-1-42dcfd93-96ce-4476-816b-a25ce81b6230;["container_1_Consume_and_count_1"];6.25;1533075292.31137;185.26;1032.81;0.0;10;149
30;paravance-8.rennes.grid5000.fr;thermos-root-devel-WordCountTopology-0-d20374d9-e4d0-4416-aa54-46f6afcbfcac;["topology_master"];6.25;1533075292.41203;4.61;11.27;0.0;9;117
31;paravance-8.rennes.grid5000.fr;thermos-root-devel-WordCountTopology-0-d20374d9-e4d0-4416-aa54-46f6afcbfcac;["topology_master"];6.25;1533075302.62318;4.67;11.34;0.0;9;115
31;paravance-7.rennes.grid5000.fr;thermos-root-devel-WordCountTopology-2-3c84136d-da17-4d7d-bf80-263316378168;["container_2_Emit_random_words_2"];6.25;1533075302.51266;145.37;624.61;0.406326181;10;149
31;paravance-9.rennes.grid5000.fr;thermos-root-devel-WordCountTopology-1-42dcfd93-96ce-4476-816b-a25ce81b6230;["container_1_Consume_and_count_1"];6.25;1533075302.5267;189.6;1058.53;0.0;10;149
32;paravance-8.rennes.grid5000.fr;thermos-root-devel-WordCountTopology-0-d20374d9-e4d0-4416-aa54-46f6afcbfcac;["topology_master"];6.25;1533075312.83437;4.73;11.41;0.0;9;117
32;paravance-7.rennes.grid5000.fr;thermos-root-devel-WordCountTopology-2-3c84136d-da17-4d7d-bf80-263316378168;["container_2_Emit_random_words_2"];6.25;1533075312.72854;148.55;638.63;0.406326181;10;149
32;paravance-9.rennes.grid5000.fr;thermos-root-devel-WordCountTopology-1-42dcfd93-96ce-4476-816b-a25ce81b6230;["container_1_Consume_and_count_1"];6.25;1533075312.74632;194.09;1084.43;0.0;10;149
33;paravance-9.rennes.grid5000.fr;thermos-root-devel-WordCountTopology-1-42dcfd93-96ce-4476-816b-a25ce81b6230;["container_1_Consume_and_count_1"];6.25;1533075322.95943;198.66;1111.54;0.0;10;149
33;paravance-8.rennes.grid5000.fr;thermos-root-devel-WordCountTopology-0-d20374d9-e4d0-4416-aa54-46f6afcbfcac;["topology_master"];6.25;1533075323.04472;4.82;11.54;0.0;9;117
33;paravance-7.rennes.grid5000.fr;thermos-root-devel-WordCountTopology-2-3c84136d-da17-4d7d-bf80-263316378168;["container_2_Emit_random_words_2"];6.25;1533075322.94407;151.84;653.12;0.406326181;10;149
34;paravance-9.rennes.grid5000.fr;thermos-root-devel-WordCountTopology-1-42dcfd93-96ce-4476-816b-a25ce81b6230;["container_1_Consume_and_count_1"];6.25;1533075333.1736;202.71;1137.86;0.0;10;149
34;paravance-7.rennes.grid5000.fr;thermos-root-devel-WordCountTopology-2-3c84136d-da17-4d7d-bf80-263316378168;["container_2_Emit_random_words_2"];6.25;1533075333.15956;154.77;665.86;0.406326181;10;149
34;paravance-8.rennes.grid5000.fr;thermos-root-devel-WordCountTopology-0-d20374d9-e4d0-4416-aa54-46f6afcbfcac;["topology_master"];6.25;1533075333.2545;4.85;11.56;0.0;9;117
35;paravance-9.rennes.grid5000.fr;thermos-root-devel-WordCountTopology-1-42dcfd93-96ce-4476-816b-a25ce81b6230;["container_1_Consume_and_count_1"];6.25;1533075343.38731;206.95;1164.79;0.0;10;149
35;paravance-8.rennes.grid5000.fr;thermos-root-devel-WordCountTopology-0-d20374d9-e4d0-4416-aa54-46f6afcbfcac;["topology_master"];6.25;1533075343.46338;4.95;11.7;0.0;9;117
35;paravance-7.rennes.grid5000.fr;thermos-root-devel-WordCountTopology-2-3c84136d-da17-4d7d-bf80-263316378168;["container_2_Emit_random_words_2"];6.25;1533075343.37291;157.74;678.31;0.406326181;10;149
36;paravance-9.rennes.grid5000.fr;thermos-root-devel-WordCountTopology-1-42dcfd93-96ce-4476-816b-a25ce81b6230;["container_1_Consume_and_count_1"];6.25;1533075353.60022;210.89;1190.57;0.0;10;149
36;paravance-7.rennes.grid5000.fr;thermos-root-devel-WordCountTopology-2-3c84136d-da17-4d7d-bf80-263316378168;["container_2_Emit_random_words_2"];6.25;1533075353.58691;160.57;690.25;0.406326181;10;149
36;paravance-8.rennes.grid5000.fr;thermos-root-devel-WordCountTopology-0-d20374d9-e4d0-4416-aa54-46f6afcbfcac;["topology_master"];6.25;1533075353.67194;5.02;11.87;0.0;9;117
37;paravance-9.rennes.grid5000.fr;thermos-root-devel-WordCountTopology-1-42dcfd93-96ce-4476-816b-a25ce81b6230;["container_1_Consume_and_count_1"];6.25;1533075363.81597;215.18;1217.31;0.0;10;149
37;paravance-7.rennes.grid5000.fr;thermos-root-devel-WordCountTopology-2-3c84136d-da17-4d7d-bf80-263316378168;["container_2_Emit_random_words_2"];6.25;1533075363.80282;163.62;703.12;0.406326181;10;149
37;paravance-8.rennes.grid5000.fr;thermos-root-devel-WordCountTopology-0-d20374d9-e4d0-4416-aa54-46f6afcbfcac;["topology_master"];6.25;1533075363.88271;5.07;11.94;0.0;9;117
38;paravance-9.rennes.grid5000.fr;thermos-root-devel-WordCountTopology-1-42dcfd93-96ce-4476-816b-a25ce81b6230;["container_1_Consume_and_count_1"];6.25;1533075373.93392;219.46;1243.43;0.0;10;149
38;paravance-8.rennes.grid5000.fr;thermos-root-devel-WordCountTopology-0-d20374d9-e4d0-4416-aa54-46f6afcbfcac;["topology_master"];6.25;1533075374.09436;5.13;12.02;0.0;9;117
38;paravance-7.rennes.grid5000.fr;thermos-root-devel-WordCountTopology-2-3c84136d-da17-4d7d-bf80-263316378168;["container_2_Emit_random_words_2"];6.25;1533075374.019;166.61;716.12;0.406326181;10;149
39;paravance-7.rennes.grid5000.fr;thermos-root-devel-WordCountTopology-2-3c84136d-da17-4d7d-bf80-263316378168;["container_2_Emit_random_words_2"];6.25;1533075384.23395;169.4;727.84;0.406326181;10;149
39;paravance-9.rennes.grid5000.fr;thermos-root-devel-WordCountTopology-1-42dcfd93-96ce-4476-816b-a25ce81b6230;["container_1_Consume_and_count_1"];6.25;1533075384.2492;223.6;1269.58;0.0;10;149
39;paravance-8.rennes.grid5000.fr;thermos-root-devel-WordCountTopology-0-d20374d9-e4d0-4416-aa54-46f6afcbfcac;["topology_master"];6.25;1533075384.30424;5.22;12.14;0.0;9;117
40;paravance-8.rennes.grid5000.fr;thermos-root-devel-WordCountTopology-0-d20374d9-e4d0-4416-aa54-46f6afcbfcac;["topology_master"];6.25;1533075394.41381;5.25;12.16;0.0;9;117
40;paravance-9.rennes.grid5000.fr;thermos-root-devel-WordCountTopology-1-42dcfd93-96ce-4476-816b-a25ce81b6230;["container_1_Consume_and_count_1"];6.25;1533075394.48142;228.11;1296.64;0.0;10;149
40;paravance-7.rennes.grid5000.fr;thermos-root-devel-WordCountTopology-2-3c84136d-da17-4d7d-bf80-263316378168;["container_2_Emit_random_words_2"];6.25;1533075394.46623;172.59;741.7;0.406326181;10;149
41;paravance-8.rennes.grid5000.fr;thermos-root-devel-WordCountTopology-0-d20374d9-e4d0-4416-aa54-46f6afcbfcac;["topology_master"];6.25;1533075404.74761;5.35;12.3;0.0;9;117
41;paravance-7.rennes.grid5000.fr;thermos-root-devel-WordCountTopology-2-3c84136d-da17-4d7d-bf80-263316378168;["container_2_Emit_random_words_2"];6.25;1533075404.68805;175.56;754.53;0.406326181;10;149
41;paravance-9.rennes.grid5000.fr;thermos-root-devel-WordCountTopology-1-42dcfd93-96ce-4476-816b-a25ce81b6230;["container_1_Consume_and_count_1"];6.25;1533075404.70393;232.32;1322.64;0.0;10;149
42;paravance-9.rennes.grid5000.fr;thermos-root-devel-WordCountTopology-1-42dcfd93-96ce-4476-816b-a25ce81b6230;["container_1_Consume_and_count_1"];6.25;1533075414.91637;236.77;1348.05;0.0;10;149
42;paravance-8.rennes.grid5000.fr;thermos-root-devel-WordCountTopology-0-d20374d9-e4d0-4416-aa54-46f6afcbfcac;["topology_master"];6.25;1533075414.95658;5.41;12.41;0.0;9;117
42;paravance-7.rennes.grid5000.fr;thermos-root-devel-WordCountTopology-2-3c84136d-da17-4d7d-bf80-263316378168;["container_2_Emit_random_words_2"];6.25;1533075414.90214;178.75;767.87;0.406326181;10;149
43;paravance-9.rennes.grid5000.fr;thermos-root-devel-WordCountTopology-1-42dcfd93-96ce-4476-816b-a25ce81b6230;["container_1_Consume_and_count_1"];6.25;1533075425.13148;241.01;1373.88;0.0;10;149
43;paravance-8.rennes.grid5000.fr;thermos-root-devel-WordCountTopology-0-d20374d9-e4d0-4416-aa54-46f6afcbfcac;["topology_master"];6.25;1533075425.16703;5.5;12.54;0.0;9;117
43;paravance-7.rennes.grid5000.fr;thermos-root-devel-WordCountTopology-2-3c84136d-da17-4d7d-bf80-263316378168;["container_2_Emit_random_words_2"];6.25;1533075425.11744;181.77;780.51;0.406326181;10;149
44;paravance-9.rennes.grid5000.fr;thermos-root-devel-WordCountTopology-1-42dcfd93-96ce-4476-816b-a25ce81b6230;["container_1_Consume_and_count_1"];6.25;1533075435.34655;245.11;1400.76;0.0;10;149
44;paravance-8.rennes.grid5000.fr;thermos-root-devel-WordCountTopology-0-d20374d9-e4d0-4416-aa54-46f6afcbfcac;["topology_master"];6.25;1533075435.37781;5.53;12.56;0.0;9;117
44;paravance-7.rennes.grid5000.fr;thermos-root-devel-WordCountTopology-2-3c84136d-da17-4d7d-bf80-263316378168;["container_2_Emit_random_words_2"];6.25;1533075435.33369;184.74;793.12;0.406326181;10;149
45;paravance-7.rennes.grid5000.fr;thermos-root-devel-WordCountTopology-2-3c84136d-da17-4d7d-bf80-263316378168;["container_2_Emit_random_words_2"];6.25;1533075445.54854;187.81;806.32;0.406326181;10;149
45;paravance-8.rennes.grid5000.fr;thermos-root-devel-WordCountTopology-0-d20374d9-e4d0-4416-aa54-46f6afcbfcac;["topology_master"];6.25;1533075445.5882;5.62;12.69;0.0;9;117
45;paravance-9.rennes.grid5000.fr;thermos-root-devel-WordCountTopology-1-42dcfd93-96ce-4476-816b-a25ce81b6230;["container_1_Consume_and_count_1"];6.25;1533075445.56416;249.21;1427.64;0.0;10;149
46;paravance-7.rennes.grid5000.fr;thermos-root-devel-WordCountTopology-2-3c84136d-da17-4d7d-bf80-263316378168;["container_2_Emit_random_words_2"];6.25;1533075455.77936;190.86;819.06;0.406326181;10;149
46;paravance-9.rennes.grid5000.fr;thermos-root-devel-WordCountTopology-1-42dcfd93-96ce-4476-816b-a25ce81b6230;["container_1_Consume_and_count_1"];6.25;1533075455.79492;253.59;1453.84;0.0;10;149
46;paravance-8.rennes.grid5000.fr;thermos-root-devel-WordCountTopology-0-d20374d9-e4d0-4416-aa54-46f6afcbfcac;["topology_master"];6.25;1533075455.81427;5.68;12.76;0.0;9;117
47;paravance-7.rennes.grid5000.fr;thermos-root-devel-WordCountTopology-2-3c84136d-da17-4d7d-bf80-263316378168;["container_2_Emit_random_words_2"];6.25;1533075465.9963;193.97;832.35;0.406326181;10;149
47;paravance-9.rennes.grid5000.fr;thermos-root-devel-WordCountTopology-1-42dcfd93-96ce-4476-816b-a25ce81b6230;["container_1_Consume_and_count_1"];6.25;1533075466.01121;257.76;1479.68;0.0;10;149
47;paravance-8.rennes.grid5000.fr;thermos-root-devel-WordCountTopology-0-d20374d9-e4d0-4416-aa54-46f6afcbfcac;["topology_master"];6.25;1533075466.02465;5.74;12.84;0.0;9;117
48;paravance-9.rennes.grid5000.fr;thermos-root-devel-WordCountTopology-1-42dcfd93-96ce-4476-816b-a25ce81b6230;["container_1_Consume_and_count_1"];6.25;1533075476.22748;262.24;1505.45;0.0;10;149
48;paravance-7.rennes.grid5000.fr;thermos-root-devel-WordCountTopology-2-3c84136d-da17-4d7d-bf80-263316378168;["container_2_Emit_random_words_2"];6.25;1533075476.21177;197.06;845.52;0.406326181;10;149
48;paravance-8.rennes.grid5000.fr;thermos-root-devel-WordCountTopology-0-d20374d9-e4d0-4416-aa54-46f6afcbfcac;["topology_master"];6.25;1533075476.23956;5.81;12.98;0.0;9;117
49;paravance-9.rennes.grid5000.fr;thermos-root-devel-WordCountTopology-1-42dcfd93-96ce-4476-816b-a25ce81b6230;["container_1_Consume_and_count_1"];6.25;1533075486.44415;266.48;1532.1;0.0;10;149
49;paravance-8.rennes.grid5000.fr;thermos-root-devel-WordCountTopology-0-d20374d9-e4d0-4416-aa54-46f6afcbfcac;["topology_master"];6.25;1533075486.44775;5.9;13.1;0.0;9;117
49;paravance-7.rennes.grid5000.fr;thermos-root-devel-WordCountTopology-2-3c84136d-da17-4d7d-bf80-263316378168;["container_2_Emit_random_words_2"];6.25;1533075486.42897;200.11;858.1;0.406326181;10;149
50;paravance-7.rennes.grid5000.fr;thermos-root-devel-WordCountTopology-2-3c84136d-da17-4d7d-bf80-263316378168;["container_2_Emit_random_words_2"];6.25;1533075496.54298;203.14;871.24;0.406326181;10;149
50;paravance-9.rennes.grid5000.fr;thermos-root-devel-WordCountTopology-1-42dcfd93-96ce-4476-816b-a25ce81b6230;["container_1_Consume_and_count_1"];6.25;1533075496.6585;270.74;1557.44;0.0;10;149
50;paravance-8.rennes.grid5000.fr;thermos-root-devel-WordCountTopology-0-d20374d9-e4d0-4416-aa54-46f6afcbfcac;["topology_master"];6.25;1533075496.65761;5.92;13.12;0.0;9;117
51;paravance-9.rennes.grid5000.fr;thermos-root-devel-WordCountTopology-1-42dcfd93-96ce-4476-816b-a25ce81b6230;["container_1_Consume_and_count_1"];6.25;1533075506.8729;275.38;1584.28;0.0;10;149
51;paravance-7.rennes.grid5000.fr;thermos-root-devel-WordCountTopology-2-3c84136d-da17-4d7d-bf80-263316378168;["container_2_Emit_random_words_2"];6.25;1533075506.85809;206.52;885.83;0.406326181;10;149
51;paravance-8.rennes.grid5000.fr;thermos-root-devel-WordCountTopology-0-d20374d9-e4d0-4416-aa54-46f6afcbfcac;["topology_master"];6.25;1533075506.8675;6.02;13.26;0.0;9;117
52;paravance-7.rennes.grid5000.fr;thermos-root-devel-WordCountTopology-2-3c84136d-da17-4d7d-bf80-263316378168;["container_2_Emit_random_words_2"];6.25;1533075517.0734;209.82;900.57;0.406326181;10;149
52;paravance-9.rennes.grid5000.fr;thermos-root-devel-WordCountTopology-1-42dcfd93-96ce-4476-816b-a25ce81b6230;["container_1_Consume_and_count_1"];6.25;1533075517.08969;280.11;1610.92;0.0;10;149
52;paravance-8.rennes.grid5000.fr;thermos-root-devel-WordCountTopology-0-d20374d9-e4d0-4416-aa54-46f6afcbfcac;["topology_master"];6.25;1533075517.07837;6.07;13.33;0.0;9;117
53;paravance-9.rennes.grid5000.fr;thermos-root-devel-WordCountTopology-1-42dcfd93-96ce-4476-816b-a25ce81b6230;["container_1_Consume_and_count_1"];6.25;1533075527.30535;284.46;1636.83;0.0;10;149
53;paravance-7.rennes.grid5000.fr;thermos-root-devel-WordCountTopology-2-3c84136d-da17-4d7d-bf80-263316378168;["container_2_Emit_random_words_2"];6.25;1533075527.2904;212.93;913.92;0.406326181;10;149
53;paravance-8.rennes.grid5000.fr;thermos-root-devel-WordCountTopology-0-d20374d9-e4d0-4416-aa54-46f6afcbfcac;["topology_master"];6.25;1533075527.2887;6.14;13.43;0.0;9;117
54;paravance-9.rennes.grid5000.fr;thermos-root-devel-WordCountTopology-1-42dcfd93-96ce-4476-816b-a25ce81b6230;["container_1_Consume_and_count_1"];6.25;1533075537.52199;289.21;1664.12;0.0;10;149
54;paravance-7.rennes.grid5000.fr;thermos-root-devel-WordCountTopology-2-3c84136d-da17-4d7d-bf80-263316378168;["container_2_Emit_random_words_2"];6.25;1533075537.50626;216.35;929.25;0.406326181;10;149
54;paravance-8.rennes.grid5000.fr;thermos-root-devel-WordCountTopology-0-d20374d9-e4d0-4416-aa54-46f6afcbfcac;["topology_master"];6.25;1533075537.5002;6.2;13.54;0.0;9;117
55;paravance-9.rennes.grid5000.fr;thermos-root-devel-WordCountTopology-1-42dcfd93-96ce-4476-816b-a25ce81b6230;["container_1_Consume_and_count_1"];6.25;1533075547.73782;293.83;1689.61;0.0;10;149
55;paravance-8.rennes.grid5000.fr;thermos-root-devel-WordCountTopology-0-d20374d9-e4d0-4416-aa54-46f6afcbfcac;["topology_master"];6.25;1533075547.71144;6.29;13.66;0.0;9;117
55;paravance-7.rennes.grid5000.fr;thermos-root-devel-WordCountTopology-2-3c84136d-da17-4d7d-bf80-263316378168;["container_2_Emit_random_words_2"];6.25;1533075547.72291;219.64;943.72;0.406326181;10;149
56;paravance-8.rennes.grid5000.fr;thermos-root-devel-WordCountTopology-0-d20374d9-e4d0-4416-aa54-46f6afcbfcac;["topology_master"];6.25;1533075557.92101;6.32;13.69;0.0;9;117
56;paravance-9.rennes.grid5000.fr;thermos-root-devel-WordCountTopology-1-42dcfd93-96ce-4476-816b-a25ce81b6230;["container_1_Consume_and_count_1"];6.25;1533075557.95405;298.22;1716.24;0.0;10;149
56;paravance-7.rennes.grid5000.fr;thermos-root-devel-WordCountTopology-2-3c84136d-da17-4d7d-bf80-263316378168;["container_2_Emit_random_words_2"];6.25;1533075557.93762;222.85;957.91;0.406326181;10;149
57;paravance-9.rennes.grid5000.fr;thermos-root-devel-WordCountTopology-1-42dcfd93-96ce-4476-816b-a25ce81b6230;["container_1_Consume_and_count_1"];6.25;1533075568.17014;302.9;1742.68;0.0;10;149
57;paravance-8.rennes.grid5000.fr;thermos-root-devel-WordCountTopology-0-d20374d9-e4d0-4416-aa54-46f6afcbfcac;["topology_master"];6.25;1533075568.13344;6.41;13.81;0.0;9;117
57;paravance-7.rennes.grid5000.fr;thermos-root-devel-WordCountTopology-2-3c84136d-da17-4d7d-bf80-263316378168;["container_2_Emit_random_words_2"];6.25;1533075568.15467;226.21;973.15;0.406326181;10;149
58;paravance-9.rennes.grid5000.fr;thermos-root-devel-WordCountTopology-1-42dcfd93-96ce-4476-816b-a25ce81b6230;["container_1_Consume_and_count_1"];6.25;1533075578.38408;307.25;1769.55;0.0;10;149
58;paravance-7.rennes.grid5000.fr;thermos-root-devel-WordCountTopology-2-3c84136d-da17-4d7d-bf80-263316378168;["container_2_Emit_random_words_2"];6.25;1533075578.37067;229.3;986.79;0.406326181;10;149
58;paravance-8.rennes.grid5000.fr;thermos-root-devel-WordCountTopology-0-d20374d9-e4d0-4416-aa54-46f6afcbfcac;["topology_master"];6.25;1533075578.34415;6.46;13.88;0.0;9;117
59;paravance-9.rennes.grid5000.fr;thermos-root-devel-WordCountTopology-1-42dcfd93-96ce-4476-816b-a25ce81b6230;["container_1_Consume_and_count_1"];6.25;1533075588.60148;311.37;1795.24;0.0;10;149
59;paravance-8.rennes.grid5000.fr;thermos-root-devel-WordCountTopology-0-d20374d9-e4d0-4416-aa54-46f6afcbfcac;["topology_master"];6.25;1533075588.55453;6.53;13.99;0.0;9;117
59;paravance-7.rennes.grid5000.fr;thermos-root-devel-WordCountTopology-2-3c84136d-da17-4d7d-bf80-263316378168;["container_2_Emit_random_words_2"];6.25;1533075588.58634;232.28;999.94;0.406326181;10;149
60;paravance-8.rennes.grid5000.fr;thermos-root-devel-WordCountTopology-0-d20374d9-e4d0-4416-aa54-46f6afcbfcac;["topology_master"];6.25;1533075598.66589;6.59;14.07;0.0;9;117
60;paravance-9.rennes.grid5000.fr;thermos-root-devel-WordCountTopology-1-42dcfd93-96ce-4476-816b-a25ce81b6230;["container_1_Consume_and_count_1"];6.25;1533075598.81673;315.75;1821.75;0.0;10;149
60;paravance-7.rennes.grid5000.fr;thermos-root-devel-WordCountTopology-2-3c84136d-da17-4d7d-bf80-263316378168;["container_2_Emit_random_words_2"];6.25;1533075598.80304;235.42;1013.93;0.406326181;10;149
