mesure_id;slave_id;executor_id;heron_instances;cpus_limit;timestamp_B;cpus_system_time_secs_B;cpus_user_time_secs_B;cpus_throttled_time_secs_B;processes;threads
0;paravance-66.rennes.grid5000.fr;thermos-root-devel-WordCountTopology-2-b914e0e7-62a9-4c0b-91fe-a8fae207f586;["container_2_Emit_random_words_2"];5.25;1533804471.0307;21.46;246.55;1.093229254;10;149
0;paravance-65.rennes.grid5000.fr;thermos-root-devel-WordCountTopology-0-47ac886e-77a6-42c0-8f11-a8d5efa01de0;["topology_master"];5.25;1533804471.10242;2.55;8.31;0.0;9;117
0;paravance-68.rennes.grid5000.fr;thermos-root-devel-WordCountTopology-1-8ac35b44-152c-420b-ad74-fc92319d3d1b;["container_1_Consume_and_count_1"];5.25;1533804471.03585;31.25;207.22;0.065426109;10;149
1;paravance-66.rennes.grid5000.fr;thermos-root-devel-WordCountTopology-2-b914e0e7-62a9-4c0b-91fe-a8fae207f586;["container_2_Emit_random_words_2"];5.25;1533804481.25311;23.02;265.43;1.093229254;10;149
1;paravance-65.rennes.grid5000.fr;thermos-root-devel-WordCountTopology-0-47ac886e-77a6-42c0-8f11-a8d5efa01de0;["topology_master"];5.25;1533804481.32514;2.64;8.44;0.0;9;117
1;paravance-68.rennes.grid5000.fr;thermos-root-devel-WordCountTopology-1-8ac35b44-152c-420b-ad74-fc92319d3d1b;["container_1_Consume_and_count_1"];5.25;1533804481.25366;33.68;223.27;0.065426109;10;149
2;paravance-68.rennes.grid5000.fr;thermos-root-devel-WordCountTopology-1-8ac35b44-152c-420b-ad74-fc92319d3d1b;["container_1_Consume_and_count_1"];5.25;1533804491.47452;35.68;239.09;0.065426109;10;149
2;paravance-66.rennes.grid5000.fr;thermos-root-devel-WordCountTopology-2-b914e0e7-62a9-4c0b-91fe-a8fae207f586;["container_2_Emit_random_words_2"];5.25;1533804491.47523;24.51;284.27;1.093229254;10;149
2;paravance-65.rennes.grid5000.fr;thermos-root-devel-WordCountTopology-0-47ac886e-77a6-42c0-8f11-a8d5efa01de0;["topology_master"];5.25;1533804491.54612;2.66;8.47;0.0;9;117
3;paravance-65.rennes.grid5000.fr;thermos-root-devel-WordCountTopology-0-47ac886e-77a6-42c0-8f11-a8d5efa01de0;["topology_master"];5.25;1533804501.66653;2.75;8.6;0.0;9;117
3;paravance-66.rennes.grid5000.fr;thermos-root-devel-WordCountTopology-2-b914e0e7-62a9-4c0b-91fe-a8fae207f586;["container_2_Emit_random_words_2"];5.25;1533804501.6945;26.04;303.11;1.093229254;10;149
3;paravance-68.rennes.grid5000.fr;thermos-root-devel-WordCountTopology-1-8ac35b44-152c-420b-ad74-fc92319d3d1b;["container_1_Consume_and_count_1"];5.25;1533804501.69499;38.12;254.52;0.065426109;10;149
4;paravance-65.rennes.grid5000.fr;thermos-root-devel-WordCountTopology-0-47ac886e-77a6-42c0-8f11-a8d5efa01de0;["topology_master"];5.25;1533804511.88696;2.82;8.68;0.0;9;117
4;paravance-68.rennes.grid5000.fr;thermos-root-devel-WordCountTopology-1-8ac35b44-152c-420b-ad74-fc92319d3d1b;["container_1_Consume_and_count_1"];5.25;1533804511.91423;40.31;270.74;0.065426109;10;149
4;paravance-66.rennes.grid5000.fr;thermos-root-devel-WordCountTopology-2-b914e0e7-62a9-4c0b-91fe-a8fae207f586;["container_2_Emit_random_words_2"];5.25;1533804511.91454;27.51;322.14;1.093229254;10;149
5;paravance-68.rennes.grid5000.fr;thermos-root-devel-WordCountTopology-1-8ac35b44-152c-420b-ad74-fc92319d3d1b;["container_1_Consume_and_count_1"];5.25;1533804522.13349;42.71;286.63;0.065426109;10;149
5;paravance-65.rennes.grid5000.fr;thermos-root-devel-WordCountTopology-0-47ac886e-77a6-42c0-8f11-a8d5efa01de0;["topology_master"];5.25;1533804522.20537;2.93;8.85;0.0;9;117
5;paravance-66.rennes.grid5000.fr;thermos-root-devel-WordCountTopology-2-b914e0e7-62a9-4c0b-91fe-a8fae207f586;["container_2_Emit_random_words_2"];5.25;1533804522.13495;29.04;340.97;1.093229254;10;149
6;paravance-66.rennes.grid5000.fr;thermos-root-devel-WordCountTopology-2-b914e0e7-62a9-4c0b-91fe-a8fae207f586;["container_2_Emit_random_words_2"];5.25;1533804532.35549;30.49;360.08;1.093229254;10;149
6;paravance-65.rennes.grid5000.fr;thermos-root-devel-WordCountTopology-0-47ac886e-77a6-42c0-8f11-a8d5efa01de0;["topology_master"];5.25;1533804532.42653;2.97;8.94;0.0;9;117
6;paravance-68.rennes.grid5000.fr;thermos-root-devel-WordCountTopology-1-8ac35b44-152c-420b-ad74-fc92319d3d1b;["container_1_Consume_and_count_1"];5.25;1533804532.35705;45.19;303.29;0.065426109;10;149
7;paravance-65.rennes.grid5000.fr;thermos-root-devel-WordCountTopology-0-47ac886e-77a6-42c0-8f11-a8d5efa01de0;["topology_master"];5.25;1533804542.54895;3.06;9.07;0.0;9;117
7;paravance-66.rennes.grid5000.fr;thermos-root-devel-WordCountTopology-2-b914e0e7-62a9-4c0b-91fe-a8fae207f586;["container_2_Emit_random_words_2"];5.25;1533804542.57592;31.99;378.77;1.093229254;10;149
7;paravance-68.rennes.grid5000.fr;thermos-root-devel-WordCountTopology-1-8ac35b44-152c-420b-ad74-fc92319d3d1b;["container_1_Consume_and_count_1"];5.25;1533804542.57876;47.38;319.12;0.065426109;10;149
8;paravance-65.rennes.grid5000.fr;thermos-root-devel-WordCountTopology-0-47ac886e-77a6-42c0-8f11-a8d5efa01de0;["topology_master"];5.25;1533804552.86822;3.12;9.15;0.0;9;117
8;paravance-66.rennes.grid5000.fr;thermos-root-devel-WordCountTopology-2-b914e0e7-62a9-4c0b-91fe-a8fae207f586;["container_2_Emit_random_words_2"];5.25;1533804552.79675;33.48;397.61;1.093229254;10;149
8;paravance-68.rennes.grid5000.fr;thermos-root-devel-WordCountTopology-1-8ac35b44-152c-420b-ad74-fc92319d3d1b;["container_1_Consume_and_count_1"];5.25;1533804552.79819;49.85;335.24;0.065426109;10;149
9;paravance-66.rennes.grid5000.fr;thermos-root-devel-WordCountTopology-2-b914e0e7-62a9-4c0b-91fe-a8fae207f586;["container_2_Emit_random_words_2"];5.25;1533804563.01642;34.95;416.47;1.093229254;10;149
9;paravance-68.rennes.grid5000.fr;thermos-root-devel-WordCountTopology-1-8ac35b44-152c-420b-ad74-fc92319d3d1b;["container_1_Consume_and_count_1"];5.25;1533804563.01818;51.89;350.92;0.065426109;10;149
9;paravance-65.rennes.grid5000.fr;thermos-root-devel-WordCountTopology-0-47ac886e-77a6-42c0-8f11-a8d5efa01de0;["topology_master"];5.25;1533804563.08841;3.18;9.23;0.0;9;117
10;paravance-65.rennes.grid5000.fr;thermos-root-devel-WordCountTopology-0-47ac886e-77a6-42c0-8f11-a8d5efa01de0;["topology_master"];5.25;1533804573.21028;3.24;9.3;0.0;9;117
10;paravance-66.rennes.grid5000.fr;thermos-root-devel-WordCountTopology-2-b914e0e7-62a9-4c0b-91fe-a8fae207f586;["container_2_Emit_random_words_2"];5.25;1533804573.23656;36.44;435.39;1.093229254;10;149
10;paravance-68.rennes.grid5000.fr;thermos-root-devel-WordCountTopology-1-8ac35b44-152c-420b-ad74-fc92319d3d1b;["container_1_Consume_and_count_1"];5.25;1533804573.23789;54.31;365.89;0.065426109;10;149
11;paravance-68.rennes.grid5000.fr;thermos-root-devel-WordCountTopology-1-8ac35b44-152c-420b-ad74-fc92319d3d1b;["container_1_Consume_and_count_1"];5.25;1533804583.45714;56.51;381.67;0.065426109;10;149
11;paravance-66.rennes.grid5000.fr;thermos-root-devel-WordCountTopology-2-b914e0e7-62a9-4c0b-91fe-a8fae207f586;["container_2_Emit_random_words_2"];5.25;1533804583.45767;38.03;454.6;1.093229254;10;149
11;paravance-65.rennes.grid5000.fr;thermos-root-devel-WordCountTopology-0-47ac886e-77a6-42c0-8f11-a8d5efa01de0;["topology_master"];5.25;1533804583.52975;3.36;9.53;0.0;9;117
12;paravance-66.rennes.grid5000.fr;thermos-root-devel-WordCountTopology-2-b914e0e7-62a9-4c0b-91fe-a8fae207f586;["container_2_Emit_random_words_2"];5.25;1533804593.67503;39.54;473.5;1.093229254;10;149
12;paravance-68.rennes.grid5000.fr;thermos-root-devel-WordCountTopology-1-8ac35b44-152c-420b-ad74-fc92319d3d1b;["container_1_Consume_and_count_1"];5.25;1533804593.67724;58.86;397.27;0.065426109;10;149
12;paravance-65.rennes.grid5000.fr;thermos-root-devel-WordCountTopology-0-47ac886e-77a6-42c0-8f11-a8d5efa01de0;["topology_master"];5.25;1533804593.74841;3.39;9.62;0.0;9;117
13;paravance-68.rennes.grid5000.fr;thermos-root-devel-WordCountTopology-1-8ac35b44-152c-420b-ad74-fc92319d3d1b;["container_1_Consume_and_count_1"];5.25;1533804603.89668;61.19;412.86;0.065426109;10;149
13;paravance-66.rennes.grid5000.fr;thermos-root-devel-WordCountTopology-2-b914e0e7-62a9-4c0b-91fe-a8fae207f586;["container_2_Emit_random_words_2"];5.25;1533804603.89653;41.05;492.23;1.093229254;10;149
13;paravance-65.rennes.grid5000.fr;thermos-root-devel-WordCountTopology-0-47ac886e-77a6-42c0-8f11-a8d5efa01de0;["topology_master"];5.25;1533804603.97007;3.48;9.75;0.0;9;117
14;paravance-66.rennes.grid5000.fr;thermos-root-devel-WordCountTopology-2-b914e0e7-62a9-4c0b-91fe-a8fae207f586;["container_2_Emit_random_words_2"];5.25;1533804614.1178;42.52;511.06;1.093229254;10;149
14;paravance-68.rennes.grid5000.fr;thermos-root-devel-WordCountTopology-1-8ac35b44-152c-420b-ad74-fc92319d3d1b;["container_1_Consume_and_count_1"];5.25;1533804614.11967;63.28;428.42;0.065426109;10;149
14;paravance-65.rennes.grid5000.fr;thermos-root-devel-WordCountTopology-0-47ac886e-77a6-42c0-8f11-a8d5efa01de0;["topology_master"];5.25;1533804614.19069;3.53;9.82;0.0;9;117
15;paravance-68.rennes.grid5000.fr;thermos-root-devel-WordCountTopology-1-8ac35b44-152c-420b-ad74-fc92319d3d1b;["container_1_Consume_and_count_1"];5.25;1533804624.33966;65.68;443.87;0.065426109;10;149
15;paravance-65.rennes.grid5000.fr;thermos-root-devel-WordCountTopology-0-47ac886e-77a6-42c0-8f11-a8d5efa01de0;["topology_master"];5.25;1533804624.41234;3.59;9.9;0.0;9;117
15;paravance-66.rennes.grid5000.fr;thermos-root-devel-WordCountTopology-2-b914e0e7-62a9-4c0b-91fe-a8fae207f586;["container_2_Emit_random_words_2"];5.25;1533804624.34026;43.99;529.79;1.093229254;10;149
16;paravance-68.rennes.grid5000.fr;thermos-root-devel-WordCountTopology-1-8ac35b44-152c-420b-ad74-fc92319d3d1b;["container_1_Consume_and_count_1"];5.25;1533804634.56061;67.76;459.85;0.065426109;10;149
16;paravance-66.rennes.grid5000.fr;thermos-root-devel-WordCountTopology-2-b914e0e7-62a9-4c0b-91fe-a8fae207f586;["container_2_Emit_random_words_2"];5.25;1533804634.56088;45.47;548.79;1.093229254;10;149
16;paravance-65.rennes.grid5000.fr;thermos-root-devel-WordCountTopology-0-47ac886e-77a6-42c0-8f11-a8d5efa01de0;["topology_master"];5.25;1533804634.634;3.65;9.98;0.0;9;117
17;paravance-66.rennes.grid5000.fr;thermos-root-devel-WordCountTopology-2-b914e0e7-62a9-4c0b-91fe-a8fae207f586;["container_2_Emit_random_words_2"];5.25;1533804644.78065;47.0;567.87;1.093229254;10;149
17;paravance-68.rennes.grid5000.fr;thermos-root-devel-WordCountTopology-1-8ac35b44-152c-420b-ad74-fc92319d3d1b;["container_1_Consume_and_count_1"];5.25;1533804644.78168;70.27;475.6;0.065426109;10;149
17;paravance-65.rennes.grid5000.fr;thermos-root-devel-WordCountTopology-0-47ac886e-77a6-42c0-8f11-a8d5efa01de0;["topology_master"];5.25;1533804644.85366;3.76;10.19;0.0;9;117
18;paravance-66.rennes.grid5000.fr;thermos-root-devel-WordCountTopology-2-b914e0e7-62a9-4c0b-91fe-a8fae207f586;["container_2_Emit_random_words_2"];5.25;1533804654.99982;48.43;586.52;1.093229254;10;149
18;paravance-68.rennes.grid5000.fr;thermos-root-devel-WordCountTopology-1-8ac35b44-152c-420b-ad74-fc92319d3d1b;["container_1_Consume_and_count_1"];5.25;1533804655.00106;72.46;491.44;0.065426109;10;149
18;paravance-65.rennes.grid5000.fr;thermos-root-devel-WordCountTopology-0-47ac886e-77a6-42c0-8f11-a8d5efa01de0;["topology_master"];5.25;1533804655.07355;3.79;10.21;0.0;9;117
19;paravance-65.rennes.grid5000.fr;thermos-root-devel-WordCountTopology-0-47ac886e-77a6-42c0-8f11-a8d5efa01de0;["topology_master"];5.25;1533804665.19373;3.87;10.33;0.0;9;117
19;paravance-68.rennes.grid5000.fr;thermos-root-devel-WordCountTopology-1-8ac35b44-152c-420b-ad74-fc92319d3d1b;["container_1_Consume_and_count_1"];5.25;1533804665.22066;74.78;507.08;0.065426109;10;149
19;paravance-66.rennes.grid5000.fr;thermos-root-devel-WordCountTopology-2-b914e0e7-62a9-4c0b-91fe-a8fae207f586;["container_2_Emit_random_words_2"];5.25;1533804665.22086;49.93;605.24;1.093229254;10;149
20;paravance-66.rennes.grid5000.fr;thermos-root-devel-WordCountTopology-2-b914e0e7-62a9-4c0b-91fe-a8fae207f586;["container_2_Emit_random_words_2"];5.25;1533804675.43886;51.4;624.16;1.093229254;10;149
20;paravance-68.rennes.grid5000.fr;thermos-root-devel-WordCountTopology-1-8ac35b44-152c-420b-ad74-fc92319d3d1b;["container_1_Consume_and_count_1"];5.25;1533804675.43972;77.2;523.25;0.065426109;10;149
20;paravance-65.rennes.grid5000.fr;thermos-root-devel-WordCountTopology-0-47ac886e-77a6-42c0-8f11-a8d5efa01de0;["topology_master"];5.25;1533804675.50858;3.93;10.41;0.0;9;117
21;paravance-65.rennes.grid5000.fr;thermos-root-devel-WordCountTopology-0-47ac886e-77a6-42c0-8f11-a8d5efa01de0;["topology_master"];5.25;1533804685.72205;3.99;10.48;0.0;9;117
21;paravance-68.rennes.grid5000.fr;thermos-root-devel-WordCountTopology-1-8ac35b44-152c-420b-ad74-fc92319d3d1b;["container_1_Consume_and_count_1"];5.25;1533804685.65797;79.3;539.09;0.065426109;10;149
21;paravance-66.rennes.grid5000.fr;thermos-root-devel-WordCountTopology-2-b914e0e7-62a9-4c0b-91fe-a8fae207f586;["container_2_Emit_random_words_2"];5.25;1533804685.65839;52.87;643.12;1.093229254;10;149
22;paravance-65.rennes.grid5000.fr;thermos-root-devel-WordCountTopology-0-47ac886e-77a6-42c0-8f11-a8d5efa01de0;["topology_master"];5.25;1533804695.93895;4.05;10.56;0.0;9;117
22;paravance-66.rennes.grid5000.fr;thermos-root-devel-WordCountTopology-2-b914e0e7-62a9-4c0b-91fe-a8fae207f586;["container_2_Emit_random_words_2"];5.25;1533804695.88043;54.35;662.14;1.093229254;10;149
22;paravance-68.rennes.grid5000.fr;thermos-root-devel-WordCountTopology-1-8ac35b44-152c-420b-ad74-fc92319d3d1b;["container_1_Consume_and_count_1"];5.25;1533804695.8815;81.76;554.94;0.065426109;10;149
23;paravance-68.rennes.grid5000.fr;thermos-root-devel-WordCountTopology-1-8ac35b44-152c-420b-ad74-fc92319d3d1b;["container_1_Consume_and_count_1"];5.25;1533804706.1003;83.84;570.61;0.065426109;10;149
23;paravance-65.rennes.grid5000.fr;thermos-root-devel-WordCountTopology-0-47ac886e-77a6-42c0-8f11-a8d5efa01de0;["topology_master"];5.25;1533804706.15512;4.17;10.74;0.0;9;117
23;paravance-66.rennes.grid5000.fr;thermos-root-devel-WordCountTopology-2-b914e0e7-62a9-4c0b-91fe-a8fae207f586;["container_2_Emit_random_words_2"];5.25;1533804706.10136;55.88;680.99;1.093229254;10;149
24;paravance-65.rennes.grid5000.fr;thermos-root-devel-WordCountTopology-0-47ac886e-77a6-42c0-8f11-a8d5efa01de0;["topology_master"];5.25;1533804716.26994;4.19;10.77;0.0;9;117
24;paravance-68.rennes.grid5000.fr;thermos-root-devel-WordCountTopology-1-8ac35b44-152c-420b-ad74-fc92319d3d1b;["container_1_Consume_and_count_1"];5.25;1533804716.31968;86.18;585.45;0.065426109;10;149
24;paravance-66.rennes.grid5000.fr;thermos-root-devel-WordCountTopology-2-b914e0e7-62a9-4c0b-91fe-a8fae207f586;["container_2_Emit_random_words_2"];5.25;1533804716.32057;57.32;699.78;1.093229254;10;149
25;paravance-66.rennes.grid5000.fr;thermos-root-devel-WordCountTopology-2-b914e0e7-62a9-4c0b-91fe-a8fae207f586;["container_2_Emit_random_words_2"];5.25;1533804726.53809;58.81;718.52;1.093229254;10;149
25;paravance-68.rennes.grid5000.fr;thermos-root-devel-WordCountTopology-1-8ac35b44-152c-420b-ad74-fc92319d3d1b;["container_1_Consume_and_count_1"];5.25;1533804726.53997;88.41;601.0;0.065426109;10;149
25;paravance-65.rennes.grid5000.fr;thermos-root-devel-WordCountTopology-0-47ac886e-77a6-42c0-8f11-a8d5efa01de0;["topology_master"];5.25;1533804726.58342;4.28;10.89;0.0;9;117
26;paravance-66.rennes.grid5000.fr;thermos-root-devel-WordCountTopology-2-b914e0e7-62a9-4c0b-91fe-a8fae207f586;["container_2_Emit_random_words_2"];5.25;1533804736.7582;60.28;737.51;1.093229254;10;149
26;paravance-68.rennes.grid5000.fr;thermos-root-devel-WordCountTopology-1-8ac35b44-152c-420b-ad74-fc92319d3d1b;["container_1_Consume_and_count_1"];5.25;1533804736.75875;90.66;616.64;0.065426109;10;149
26;paravance-65.rennes.grid5000.fr;thermos-root-devel-WordCountTopology-0-47ac886e-77a6-42c0-8f11-a8d5efa01de0;["topology_master"];5.25;1533804736.79819;4.34;10.96;0.0;9;117
27;paravance-66.rennes.grid5000.fr;thermos-root-devel-WordCountTopology-2-b914e0e7-62a9-4c0b-91fe-a8fae207f586;["container_2_Emit_random_words_2"];5.25;1533804746.97729;61.78;756.34;1.093229254;10;149
27;paravance-68.rennes.grid5000.fr;thermos-root-devel-WordCountTopology-1-8ac35b44-152c-420b-ad74-fc92319d3d1b;["container_1_Consume_and_count_1"];5.25;1533804746.97822;92.99;632.2;0.065426109;10;149
27;paravance-65.rennes.grid5000.fr;thermos-root-devel-WordCountTopology-0-47ac886e-77a6-42c0-8f11-a8d5efa01de0;["topology_master"];5.25;1533804747.01213;4.41;11.05;0.0;9;117
28;paravance-68.rennes.grid5000.fr;thermos-root-devel-WordCountTopology-1-8ac35b44-152c-420b-ad74-fc92319d3d1b;["container_1_Consume_and_count_1"];5.25;1533804757.19463;95.02;647.72;0.065426109;10;149
28;paravance-65.rennes.grid5000.fr;thermos-root-devel-WordCountTopology-0-47ac886e-77a6-42c0-8f11-a8d5efa01de0;["topology_master"];5.25;1533804757.2251;4.46;11.12;0.0;9;117
28;paravance-66.rennes.grid5000.fr;thermos-root-devel-WordCountTopology-2-b914e0e7-62a9-4c0b-91fe-a8fae207f586;["container_2_Emit_random_words_2"];5.25;1533804757.19653;63.33;775.31;1.093229254;10;148
29;paravance-65.rennes.grid5000.fr;thermos-root-devel-WordCountTopology-0-47ac886e-77a6-42c0-8f11-a8d5efa01de0;["topology_master"];5.25;1533804767.34056;4.57;11.29;0.0;9;117
29;paravance-66.rennes.grid5000.fr;thermos-root-devel-WordCountTopology-2-b914e0e7-62a9-4c0b-91fe-a8fae207f586;["container_2_Emit_random_words_2"];5.25;1533804767.41542;64.86;794.18;1.093229254;10;149
29;paravance-68.rennes.grid5000.fr;thermos-root-devel-WordCountTopology-1-8ac35b44-152c-420b-ad74-fc92319d3d1b;["container_1_Consume_and_count_1"];5.25;1533804767.41688;97.43;662.93;0.065426109;10;149
30;paravance-68.rennes.grid5000.fr;thermos-root-devel-WordCountTopology-1-8ac35b44-152c-420b-ad74-fc92319d3d1b;["container_1_Consume_and_count_1"];5.25;1533804777.63552;99.74;678.4;0.065426109;10;149
30;paravance-66.rennes.grid5000.fr;thermos-root-devel-WordCountTopology-2-b914e0e7-62a9-4c0b-91fe-a8fae207f586;["container_2_Emit_random_words_2"];5.25;1533804777.63571;66.34;813.23;1.093229254;10;149
30;paravance-65.rennes.grid5000.fr;thermos-root-devel-WordCountTopology-0-47ac886e-77a6-42c0-8f11-a8d5efa01de0;["topology_master"];5.25;1533804777.65541;4.63;11.36;0.0;9;117
31;paravance-68.rennes.grid5000.fr;thermos-root-devel-WordCountTopology-1-8ac35b44-152c-420b-ad74-fc92319d3d1b;["container_1_Consume_and_count_1"];5.25;1533804787.8559;102.1;694.31;0.065426109;10;149
31;paravance-66.rennes.grid5000.fr;thermos-root-devel-WordCountTopology-2-b914e0e7-62a9-4c0b-91fe-a8fae207f586;["container_2_Emit_random_words_2"];5.25;1533804787.85774;67.81;832.11;1.093229254;10;149
31;paravance-65.rennes.grid5000.fr;thermos-root-devel-WordCountTopology-0-47ac886e-77a6-42c0-8f11-a8d5efa01de0;["topology_master"];5.25;1533804787.87233;4.68;11.43;0.0;9;117
32;paravance-66.rennes.grid5000.fr;thermos-root-devel-WordCountTopology-2-b914e0e7-62a9-4c0b-91fe-a8fae207f586;["container_2_Emit_random_words_2"];5.25;1533804797.9783;69.29;850.55;1.093229254;10;149
32;paravance-65.rennes.grid5000.fr;thermos-root-devel-WordCountTopology-0-47ac886e-77a6-42c0-8f11-a8d5efa01de0;["topology_master"];5.25;1533804798.08702;4.77;11.55;0.0;9;117
32;paravance-68.rennes.grid5000.fr;thermos-root-devel-WordCountTopology-1-8ac35b44-152c-420b-ad74-fc92319d3d1b;["container_1_Consume_and_count_1"];5.25;1533804798.07786;104.19;709.74;0.065426109;10;149
33;paravance-68.rennes.grid5000.fr;thermos-root-devel-WordCountTopology-1-8ac35b44-152c-420b-ad74-fc92319d3d1b;["container_1_Consume_and_count_1"];5.25;1533804808.29507;106.72;725.77;0.065426109;10;149
33;paravance-66.rennes.grid5000.fr;thermos-root-devel-WordCountTopology-2-b914e0e7-62a9-4c0b-91fe-a8fae207f586;["container_2_Emit_random_words_2"];5.25;1533804808.29698;70.82;869.52;1.093229254;10;149
33;paravance-65.rennes.grid5000.fr;thermos-root-devel-WordCountTopology-0-47ac886e-77a6-42c0-8f11-a8d5efa01de0;["topology_master"];5.25;1533804808.30295;4.8;11.58;0.0;9;117
34;paravance-68.rennes.grid5000.fr;thermos-root-devel-WordCountTopology-1-8ac35b44-152c-420b-ad74-fc92319d3d1b;["container_1_Consume_and_count_1"];5.25;1533804818.51015;109.32;742.19;0.065426109;10;149
34;paravance-65.rennes.grid5000.fr;thermos-root-devel-WordCountTopology-0-47ac886e-77a6-42c0-8f11-a8d5efa01de0;["topology_master"];5.25;1533804818.5181;4.89;11.71;0.0;9;117
34;paravance-66.rennes.grid5000.fr;thermos-root-devel-WordCountTopology-2-b914e0e7-62a9-4c0b-91fe-a8fae207f586;["container_2_Emit_random_words_2"];5.25;1533804818.51341;72.41;888.55;1.093229254;10;149
35;paravance-65.rennes.grid5000.fr;thermos-root-devel-WordCountTopology-0-47ac886e-77a6-42c0-8f11-a8d5efa01de0;["topology_master"];5.25;1533804828.73396;4.96;11.88;0.0;9;117
35;paravance-68.rennes.grid5000.fr;thermos-root-devel-WordCountTopology-1-8ac35b44-152c-420b-ad74-fc92319d3d1b;["container_1_Consume_and_count_1"];5.25;1533804828.7284;111.85;758.19;0.065426109;10;149
35;paravance-66.rennes.grid5000.fr;thermos-root-devel-WordCountTopology-2-b914e0e7-62a9-4c0b-91fe-a8fae207f586;["container_2_Emit_random_words_2"];5.25;1533804828.73125;73.95;907.4;1.093229254;10;149
36;paravance-66.rennes.grid5000.fr;thermos-root-devel-WordCountTopology-2-b914e0e7-62a9-4c0b-91fe-a8fae207f586;["container_2_Emit_random_words_2"];5.25;1533804838.94384;75.48;926.19;1.093229254;10;149
36;paravance-68.rennes.grid5000.fr;thermos-root-devel-WordCountTopology-1-8ac35b44-152c-420b-ad74-fc92319d3d1b;["container_1_Consume_and_count_1"];5.25;1533804838.94323;114.34;773.79;0.065426109;10;149
36;paravance-65.rennes.grid5000.fr;thermos-root-devel-WordCountTopology-0-47ac886e-77a6-42c0-8f11-a8d5efa01de0;["topology_master"];5.25;1533804838.95076;5.02;11.95;0.0;9;117
37;paravance-66.rennes.grid5000.fr;thermos-root-devel-WordCountTopology-2-b914e0e7-62a9-4c0b-91fe-a8fae207f586;["container_2_Emit_random_words_2"];5.25;1533804849.15906;76.92;945.08;1.093229254;10;149
37;paravance-65.rennes.grid5000.fr;thermos-root-devel-WordCountTopology-0-47ac886e-77a6-42c0-8f11-a8d5efa01de0;["topology_master"];5.25;1533804849.16457;5.07;12.02;0.0;9;117
37;paravance-68.rennes.grid5000.fr;thermos-root-devel-WordCountTopology-1-8ac35b44-152c-420b-ad74-fc92319d3d1b;["container_1_Consume_and_count_1"];5.25;1533804849.15904;116.82;789.9;0.065426109;10;149
38;paravance-68.rennes.grid5000.fr;thermos-root-devel-WordCountTopology-1-8ac35b44-152c-420b-ad74-fc92319d3d1b;["container_1_Consume_and_count_1"];5.25;1533804859.37272;119.08;805.78;0.065426109;10;149
38;paravance-66.rennes.grid5000.fr;thermos-root-devel-WordCountTopology-2-b914e0e7-62a9-4c0b-91fe-a8fae207f586;["container_2_Emit_random_words_2"];5.25;1533804859.37526;78.44;963.96;1.093229254;10;149
38;paravance-65.rennes.grid5000.fr;thermos-root-devel-WordCountTopology-0-47ac886e-77a6-42c0-8f11-a8d5efa01de0;["topology_master"];5.25;1533804859.38117;5.16;12.14;0.0;9;117
39;paravance-68.rennes.grid5000.fr;thermos-root-devel-WordCountTopology-1-8ac35b44-152c-420b-ad74-fc92319d3d1b;["container_1_Consume_and_count_1"];5.25;1533804869.58763;121.24;821.14;0.065426109;10;149
39;paravance-66.rennes.grid5000.fr;thermos-root-devel-WordCountTopology-2-b914e0e7-62a9-4c0b-91fe-a8fae207f586;["container_2_Emit_random_words_2"];5.25;1533804869.58971;79.91;982.65;1.093229254;10;149
39;paravance-65.rennes.grid5000.fr;thermos-root-devel-WordCountTopology-0-47ac886e-77a6-42c0-8f11-a8d5efa01de0;["topology_master"];5.25;1533804869.59608;5.22;12.21;0.0;9;117
40;paravance-66.rennes.grid5000.fr;thermos-root-devel-WordCountTopology-2-b914e0e7-62a9-4c0b-91fe-a8fae207f586;["container_2_Emit_random_words_2"];5.25;1533804879.815;81.45;1001.59;1.093229254;10;149
40;paravance-68.rennes.grid5000.fr;thermos-root-devel-WordCountTopology-1-8ac35b44-152c-420b-ad74-fc92319d3d1b;["container_1_Consume_and_count_1"];5.25;1533804879.81649;123.51;837.43;0.065426109;10;149
40;paravance-65.rennes.grid5000.fr;thermos-root-devel-WordCountTopology-0-47ac886e-77a6-42c0-8f11-a8d5efa01de0;["topology_master"];5.25;1533804879.82553;5.29;12.3;0.0;9;117
41;paravance-66.rennes.grid5000.fr;thermos-root-devel-WordCountTopology-2-b914e0e7-62a9-4c0b-91fe-a8fae207f586;["container_2_Emit_random_words_2"];5.25;1533804890.03363;82.99;1020.57;1.093229254;10;149
41;paravance-68.rennes.grid5000.fr;thermos-root-devel-WordCountTopology-1-8ac35b44-152c-420b-ad74-fc92319d3d1b;["container_1_Consume_and_count_1"];5.25;1533804890.03231;125.79;853.56;0.065426109;10;149
41;paravance-65.rennes.grid5000.fr;thermos-root-devel-WordCountTopology-0-47ac886e-77a6-42c0-8f11-a8d5efa01de0;["topology_master"];5.25;1533804890.03984;5.35;12.41;0.0;9;117
42;paravance-66.rennes.grid5000.fr;thermos-root-devel-WordCountTopology-2-b914e0e7-62a9-4c0b-91fe-a8fae207f586;["container_2_Emit_random_words_2"];5.25;1533804900.14999;84.55;1039.46;1.093229254;10;149
42;paravance-68.rennes.grid5000.fr;thermos-root-devel-WordCountTopology-1-8ac35b44-152c-420b-ad74-fc92319d3d1b;["container_1_Consume_and_count_1"];5.25;1533804900.24764;128.13;869.68;0.065426109;10;149
42;paravance-65.rennes.grid5000.fr;thermos-root-devel-WordCountTopology-0-47ac886e-77a6-42c0-8f11-a8d5efa01de0;["topology_master"];5.25;1533804900.25511;5.44;12.54;0.0;9;117
43;paravance-68.rennes.grid5000.fr;thermos-root-devel-WordCountTopology-1-8ac35b44-152c-420b-ad74-fc92319d3d1b;["container_1_Consume_and_count_1"];5.25;1533804910.46481;130.44;886.05;0.065426109;10;149
43;paravance-65.rennes.grid5000.fr;thermos-root-devel-WordCountTopology-0-47ac886e-77a6-42c0-8f11-a8d5efa01de0;["topology_master"];5.25;1533804910.47169;5.47;12.56;0.0;9;117
43;paravance-66.rennes.grid5000.fr;thermos-root-devel-WordCountTopology-2-b914e0e7-62a9-4c0b-91fe-a8fae207f586;["container_2_Emit_random_words_2"];5.25;1533804910.46594;86.07;1058.48;1.093229254;10;149
44;paravance-68.rennes.grid5000.fr;thermos-root-devel-WordCountTopology-1-8ac35b44-152c-420b-ad74-fc92319d3d1b;["container_1_Consume_and_count_1"];5.25;1533804920.68284;132.86;905.49;0.065426109;10;149
44;paravance-66.rennes.grid5000.fr;thermos-root-devel-WordCountTopology-2-b914e0e7-62a9-4c0b-91fe-a8fae207f586;["container_2_Emit_random_words_2"];5.25;1533804920.68358;87.56;1076.36;1.093229254;10;149
44;paravance-65.rennes.grid5000.fr;thermos-root-devel-WordCountTopology-0-47ac886e-77a6-42c0-8f11-a8d5efa01de0;["topology_master"];5.25;1533804920.69292;5.55;12.68;0.0;9;117
45;paravance-68.rennes.grid5000.fr;thermos-root-devel-WordCountTopology-1-8ac35b44-152c-420b-ad74-fc92319d3d1b;["container_1_Consume_and_count_1"];5.25;1533804930.8968;135.3;925.41;0.065426109;10;149
45;paravance-65.rennes.grid5000.fr;thermos-root-devel-WordCountTopology-0-47ac886e-77a6-42c0-8f11-a8d5efa01de0;["topology_master"];5.25;1533804930.90635;5.61;12.75;0.0;9;117
45;paravance-66.rennes.grid5000.fr;thermos-root-devel-WordCountTopology-2-b914e0e7-62a9-4c0b-91fe-a8fae207f586;["container_2_Emit_random_words_2"];5.25;1533804930.90203;89.11;1095.2;1.093229254;10;149
46;paravance-68.rennes.grid5000.fr;thermos-root-devel-WordCountTopology-1-8ac35b44-152c-420b-ad74-fc92319d3d1b;["container_1_Consume_and_count_1"];5.25;1533804941.11408;137.71;945.17;0.065426109;10;149
46;paravance-66.rennes.grid5000.fr;thermos-root-devel-WordCountTopology-2-b914e0e7-62a9-4c0b-91fe-a8fae207f586;["container_2_Emit_random_words_2"];5.25;1533804941.11545;90.65;1114.02;1.093229254;10;149
46;paravance-65.rennes.grid5000.fr;thermos-root-devel-WordCountTopology-0-47ac886e-77a6-42c0-8f11-a8d5efa01de0;["topology_master"];5.25;1533804941.12312;5.67;12.83;0.0;9;117
47;paravance-65.rennes.grid5000.fr;thermos-root-devel-WordCountTopology-0-47ac886e-77a6-42c0-8f11-a8d5efa01de0;["topology_master"];5.25;1533804951.33757;5.73;12.97;0.0;9;117
47;paravance-68.rennes.grid5000.fr;thermos-root-devel-WordCountTopology-1-8ac35b44-152c-420b-ad74-fc92319d3d1b;["container_1_Consume_and_count_1"];5.25;1533804951.33054;140.05;964.23;0.065426109;10;149
47;paravance-66.rennes.grid5000.fr;thermos-root-devel-WordCountTopology-2-b914e0e7-62a9-4c0b-91fe-a8fae207f586;["container_2_Emit_random_words_2"];5.25;1533804951.33162;92.13;1131.52;1.093229254;10;149
48;paravance-65.rennes.grid5000.fr;thermos-root-devel-WordCountTopology-0-47ac886e-77a6-42c0-8f11-a8d5efa01de0;["topology_master"];5.25;1533804961.55305;5.82;13.09;0.0;9;117
48;paravance-68.rennes.grid5000.fr;thermos-root-devel-WordCountTopology-1-8ac35b44-152c-420b-ad74-fc92319d3d1b;["container_1_Consume_and_count_1"];5.25;1533804961.5459;142.31;984.48;0.065426109;10;149
48;paravance-66.rennes.grid5000.fr;thermos-root-devel-WordCountTopology-2-b914e0e7-62a9-4c0b-91fe-a8fae207f586;["container_2_Emit_random_words_2"];5.25;1533804961.54648;93.58;1148.88;1.093229254;10;149
49;paravance-65.rennes.grid5000.fr;thermos-root-devel-WordCountTopology-0-47ac886e-77a6-42c0-8f11-a8d5efa01de0;["topology_master"];5.25;1533804971.77005;5.85;13.12;0.0;9;117
49;paravance-66.rennes.grid5000.fr;thermos-root-devel-WordCountTopology-2-b914e0e7-62a9-4c0b-91fe-a8fae207f586;["container_2_Emit_random_words_2"];5.25;1533804971.76381;95.01;1166.51;1.093229254;10;149
49;paravance-68.rennes.grid5000.fr;thermos-root-devel-WordCountTopology-1-8ac35b44-152c-420b-ad74-fc92319d3d1b;["container_1_Consume_and_count_1"];5.25;1533804971.7628;144.82;1004.19;0.065426109;10;149
50;paravance-68.rennes.grid5000.fr;thermos-root-devel-WordCountTopology-1-8ac35b44-152c-420b-ad74-fc92319d3d1b;["container_1_Consume_and_count_1"];5.25;1533804981.97851;147.25;1024.33;0.065426109;10;149
50;paravance-66.rennes.grid5000.fr;thermos-root-devel-WordCountTopology-2-b914e0e7-62a9-4c0b-91fe-a8fae207f586;["container_2_Emit_random_words_2"];5.25;1533804981.98017;96.46;1185.37;1.093229254;10;149
50;paravance-65.rennes.grid5000.fr;thermos-root-devel-WordCountTopology-0-47ac886e-77a6-42c0-8f11-a8d5efa01de0;["topology_master"];5.25;1533804981.98626;5.94;13.25;0.0;9;117
51;paravance-68.rennes.grid5000.fr;thermos-root-devel-WordCountTopology-1-8ac35b44-152c-420b-ad74-fc92319d3d1b;["container_1_Consume_and_count_1"];5.25;1533804992.19395;149.74;1043.87;0.065426109;10;149
51;paravance-65.rennes.grid5000.fr;thermos-root-devel-WordCountTopology-0-47ac886e-77a6-42c0-8f11-a8d5efa01de0;["topology_master"];5.25;1533804992.20095;6.0;13.32;0.0;9;117
51;paravance-66.rennes.grid5000.fr;thermos-root-devel-WordCountTopology-2-b914e0e7-62a9-4c0b-91fe-a8fae207f586;["container_2_Emit_random_words_2"];5.25;1533804992.19565;97.85;1202.82;1.093229254;10;149
52;paravance-68.rennes.grid5000.fr;thermos-root-devel-WordCountTopology-1-8ac35b44-152c-420b-ad74-fc92319d3d1b;["container_1_Consume_and_count_1"];5.25;1533805002.40898;152.33;1063.44;0.065426109;10;149
52;paravance-65.rennes.grid5000.fr;thermos-root-devel-WordCountTopology-0-47ac886e-77a6-42c0-8f11-a8d5efa01de0;["topology_master"];5.25;1533805002.41754;6.07;13.44;0.0;9;117
52;paravance-66.rennes.grid5000.fr;thermos-root-devel-WordCountTopology-2-b914e0e7-62a9-4c0b-91fe-a8fae207f586;["container_2_Emit_random_words_2"];5.25;1533805002.41097;99.4;1221.67;1.093229254;10;149
53;paravance-66.rennes.grid5000.fr;thermos-root-devel-WordCountTopology-2-b914e0e7-62a9-4c0b-91fe-a8fae207f586;["container_2_Emit_random_words_2"];5.25;1533805012.62571;100.94;1240.42;1.093229254;10;149
53;paravance-68.rennes.grid5000.fr;thermos-root-devel-WordCountTopology-1-8ac35b44-152c-420b-ad74-fc92319d3d1b;["container_1_Consume_and_count_1"];5.25;1533805012.62368;154.9;1083.9;0.065426109;10;149
53;paravance-65.rennes.grid5000.fr;thermos-root-devel-WordCountTopology-0-47ac886e-77a6-42c0-8f11-a8d5efa01de0;["topology_master"];5.25;1533805012.63255;6.13;13.54;0.0;9;117
54;paravance-65.rennes.grid5000.fr;thermos-root-devel-WordCountTopology-0-47ac886e-77a6-42c0-8f11-a8d5efa01de0;["topology_master"];5.25;1533805022.74765;6.22;13.66;0.0;9;117
54;paravance-68.rennes.grid5000.fr;thermos-root-devel-WordCountTopology-1-8ac35b44-152c-420b-ad74-fc92319d3d1b;["container_1_Consume_and_count_1"];5.25;1533805022.83942;157.34;1103.17;0.065426109;10;149
54;paravance-66.rennes.grid5000.fr;thermos-root-devel-WordCountTopology-2-b914e0e7-62a9-4c0b-91fe-a8fae207f586;["container_2_Emit_random_words_2"];5.25;1533805022.84048;102.4;1257.94;1.093229254;10;149
55;paravance-68.rennes.grid5000.fr;thermos-root-devel-WordCountTopology-1-8ac35b44-152c-420b-ad74-fc92319d3d1b;["container_1_Consume_and_count_1"];5.25;1533805033.05442;159.6;1122.53;0.065426109;10;149
55;paravance-65.rennes.grid5000.fr;thermos-root-devel-WordCountTopology-0-47ac886e-77a6-42c0-8f11-a8d5efa01de0;["topology_master"];5.25;1533805033.06254;6.25;13.68;0.0;9;117
55;paravance-66.rennes.grid5000.fr;thermos-root-devel-WordCountTopology-2-b914e0e7-62a9-4c0b-91fe-a8fae207f586;["container_2_Emit_random_words_2"];5.25;1533805033.05729;103.81;1275.38;1.093229254;10;149
56;paravance-68.rennes.grid5000.fr;thermos-root-devel-WordCountTopology-1-8ac35b44-152c-420b-ad74-fc92319d3d1b;["container_1_Consume_and_count_1"];5.25;1533805043.27029;162.01;1142.77;0.065426109;10;149
56;paravance-65.rennes.grid5000.fr;thermos-root-devel-WordCountTopology-0-47ac886e-77a6-42c0-8f11-a8d5efa01de0;["topology_master"];5.25;1533805043.2788;6.33;13.8;0.0;9;117
56;paravance-66.rennes.grid5000.fr;thermos-root-devel-WordCountTopology-2-b914e0e7-62a9-4c0b-91fe-a8fae207f586;["container_2_Emit_random_words_2"];5.25;1533805043.27318;105.3;1293.12;1.093229254;10;149
57;paravance-68.rennes.grid5000.fr;thermos-root-devel-WordCountTopology-1-8ac35b44-152c-420b-ad74-fc92319d3d1b;["container_1_Consume_and_count_1"];5.25;1533805053.48649;164.55;1162.48;0.065426109;10;149
57;paravance-65.rennes.grid5000.fr;thermos-root-devel-WordCountTopology-0-47ac886e-77a6-42c0-8f11-a8d5efa01de0;["topology_master"];5.25;1533805053.49611;6.39;13.88;0.0;9;117
57;paravance-66.rennes.grid5000.fr;thermos-root-devel-WordCountTopology-2-b914e0e7-62a9-4c0b-91fe-a8fae207f586;["container_2_Emit_random_words_2"];5.25;1533805053.49011;106.85;1312.09;1.093229254;10;149
58;paravance-66.rennes.grid5000.fr;thermos-root-devel-WordCountTopology-2-b914e0e7-62a9-4c0b-91fe-a8fae207f586;["container_2_Emit_random_words_2"];5.25;1533805063.70516;108.33;1329.88;1.093229254;10;149
58;paravance-65.rennes.grid5000.fr;thermos-root-devel-WordCountTopology-0-47ac886e-77a6-42c0-8f11-a8d5efa01de0;["topology_master"];5.25;1533805063.71287;6.46;13.99;0.0;9;117
58;paravance-68.rennes.grid5000.fr;thermos-root-devel-WordCountTopology-1-8ac35b44-152c-420b-ad74-fc92319d3d1b;["container_1_Consume_and_count_1"];5.25;1533805063.70504;167.01;1182.54;0.065426109;10;149
59;paravance-68.rennes.grid5000.fr;thermos-root-devel-WordCountTopology-1-8ac35b44-152c-420b-ad74-fc92319d3d1b;["container_1_Consume_and_count_1"];5.25;1533805073.91908;169.3;1201.98;0.065426109;10;149
59;paravance-66.rennes.grid5000.fr;thermos-root-devel-WordCountTopology-2-b914e0e7-62a9-4c0b-91fe-a8fae207f586;["container_2_Emit_random_words_2"];5.25;1533805073.92122;109.87;1348.85;1.093229254;10;149
59;paravance-65.rennes.grid5000.fr;thermos-root-devel-WordCountTopology-0-47ac886e-77a6-42c0-8f11-a8d5efa01de0;["topology_master"];5.25;1533805073.92876;6.52;14.06;0.0;9;117
60;paravance-68.rennes.grid5000.fr;thermos-root-devel-WordCountTopology-1-8ac35b44-152c-420b-ad74-fc92319d3d1b;["container_1_Consume_and_count_1"];5.25;1533805084.13467;171.55;1221.77;0.065426109;10;149
60;paravance-65.rennes.grid5000.fr;thermos-root-devel-WordCountTopology-0-47ac886e-77a6-42c0-8f11-a8d5efa01de0;["topology_master"];5.25;1533805084.14417;6.61;14.18;0.0;9;117
60;paravance-66.rennes.grid5000.fr;thermos-root-devel-WordCountTopology-2-b914e0e7-62a9-4c0b-91fe-a8fae207f586;["container_2_Emit_random_words_2"];5.25;1533805084.13774;111.31;1366.17;1.093229254;10;149
