mesure_id;slave_id;executor_id;heron_instances;cpus_limit;timestamp_A;cpus_system_time_secs_A;cpus_user_time_secs_A;cpus_throttled_time_secs_A;processes;threads
0;paravance-14.rennes.grid5000.fr;thermos-root-devel-WordCountTopology-1-9f047f01-5ba0-4711-96c5-d88a337cc1d0;["container_1_Consume_and_count_1"];5.25;1533759253.33384;12.03;168.44;0.160857362;10;149
0;paravance-19.rennes.grid5000.fr;thermos-root-devel-WordCountTopology-0-0aa45aa7-68ef-47f8-9c2c-1f797ac46a5c;["topology_master"];5.25;1533759253.53835;2.42;8.2;0.0;9;117
0;paravance-36.rennes.grid5000.fr;thermos-root-devel-WordCountTopology-2-8f918bdd-7597-46e9-b038-2bff83bd6bdd;["container_2_Emit_random_words_2"];5.25;1533759253.53827;9.96;220.67;0.821039253;10;149
1;paravance-14.rennes.grid5000.fr;thermos-root-devel-WordCountTopology-1-9f047f01-5ba0-4711-96c5-d88a337cc1d0;["container_1_Consume_and_count_1"];5.25;1533759263.45971;12.87;182.71;0.160857362;10;149
1;paravance-36.rennes.grid5000.fr;thermos-root-devel-WordCountTopology-2-8f918bdd-7597-46e9-b038-2bff83bd6bdd;["container_2_Emit_random_words_2"];5.25;1533759263.75711;10.67;239.19;0.821039253;10;149
1;paravance-19.rennes.grid5000.fr;thermos-root-devel-WordCountTopology-0-0aa45aa7-68ef-47f8-9c2c-1f797ac46a5c;["topology_master"];5.25;1533759263.75758;2.49;8.36;0.0;9;117
2;paravance-36.rennes.grid5000.fr;thermos-root-devel-WordCountTopology-2-8f918bdd-7597-46e9-b038-2bff83bd6bdd;["container_2_Emit_random_words_2"];5.25;1533759273.97169;11.38;257.6;0.821039253;10;149
2;paravance-14.rennes.grid5000.fr;thermos-root-devel-WordCountTopology-1-9f047f01-5ba0-4711-96c5-d88a337cc1d0;["container_1_Consume_and_count_1"];5.25;1533759273.77935;13.78;197.04;0.160857362;10;149
2;paravance-19.rennes.grid5000.fr;thermos-root-devel-WordCountTopology-0-0aa45aa7-68ef-47f8-9c2c-1f797ac46a5c;["topology_master"];5.25;1533759273.9712;2.57;8.49;0.0;9;117
3;paravance-19.rennes.grid5000.fr;thermos-root-devel-WordCountTopology-0-0aa45aa7-68ef-47f8-9c2c-1f797ac46a5c;["topology_master"];5.25;1533759284.18716;2.6;8.52;0.0;9;117
3;paravance-36.rennes.grid5000.fr;thermos-root-devel-WordCountTopology-2-8f918bdd-7597-46e9-b038-2bff83bd6bdd;["container_2_Emit_random_words_2"];5.25;1533759284.18828;12.01;275.88;0.821039253;10;149
3;paravance-14.rennes.grid5000.fr;thermos-root-devel-WordCountTopology-1-9f047f01-5ba0-4711-96c5-d88a337cc1d0;["container_1_Consume_and_count_1"];5.25;1533759284.00035;14.61;210.89;0.160857362;10;149
4;paravance-36.rennes.grid5000.fr;thermos-root-devel-WordCountTopology-2-8f918bdd-7597-46e9-b038-2bff83bd6bdd;["container_2_Emit_random_words_2"];5.25;1533759294.40448;12.71;294.15;0.821039253;10;149
4;paravance-14.rennes.grid5000.fr;thermos-root-devel-WordCountTopology-1-9f047f01-5ba0-4711-96c5-d88a337cc1d0;["container_1_Consume_and_count_1"];5.25;1533759294.22081;15.5;225.14;0.160857362;10;149
4;paravance-19.rennes.grid5000.fr;thermos-root-devel-WordCountTopology-0-0aa45aa7-68ef-47f8-9c2c-1f797ac46a5c;["topology_master"];5.25;1533759294.40408;2.69;8.64;0.0;9;117
5;paravance-19.rennes.grid5000.fr;thermos-root-devel-WordCountTopology-0-0aa45aa7-68ef-47f8-9c2c-1f797ac46a5c;["topology_master"];5.25;1533759304.52077;2.74;8.71;0.0;9;117
5;paravance-14.rennes.grid5000.fr;thermos-root-devel-WordCountTopology-1-9f047f01-5ba0-4711-96c5-d88a337cc1d0;["container_1_Consume_and_count_1"];5.25;1533759304.44433;16.33;238.34;0.160857362;10;149
5;paravance-36.rennes.grid5000.fr;thermos-root-devel-WordCountTopology-2-8f918bdd-7597-46e9-b038-2bff83bd6bdd;["container_2_Emit_random_words_2"];5.25;1533759304.62004;13.33;312.25;0.821039253;10;149
6;paravance-14.rennes.grid5000.fr;thermos-root-devel-WordCountTopology-1-9f047f01-5ba0-4711-96c5-d88a337cc1d0;["container_1_Consume_and_count_1"];5.25;1533759314.66506;17.22;252.77;0.160857362;10;149
6;paravance-19.rennes.grid5000.fr;thermos-root-devel-WordCountTopology-0-0aa45aa7-68ef-47f8-9c2c-1f797ac46a5c;["topology_master"];5.25;1533759314.83595;2.86;8.89;0.0;9;117
6;paravance-36.rennes.grid5000.fr;thermos-root-devel-WordCountTopology-2-8f918bdd-7597-46e9-b038-2bff83bd6bdd;["container_2_Emit_random_words_2"];5.25;1533759314.83687;14.05;330.73;0.821039253;10;149
7;paravance-19.rennes.grid5000.fr;thermos-root-devel-WordCountTopology-0-0aa45aa7-68ef-47f8-9c2c-1f797ac46a5c;["topology_master"];5.25;1533759325.05295;2.9;8.96;0.0;9;117
7;paravance-14.rennes.grid5000.fr;thermos-root-devel-WordCountTopology-1-9f047f01-5ba0-4711-96c5-d88a337cc1d0;["container_1_Consume_and_count_1"];5.25;1533759324.88686;18.07;266.57;0.160857362;10;149
7;paravance-36.rennes.grid5000.fr;thermos-root-devel-WordCountTopology-2-8f918bdd-7597-46e9-b038-2bff83bd6bdd;["container_2_Emit_random_words_2"];5.25;1533759325.05344;14.69;349.12;0.821039253;10;149
8;paravance-19.rennes.grid5000.fr;thermos-root-devel-WordCountTopology-0-0aa45aa7-68ef-47f8-9c2c-1f797ac46a5c;["topology_master"];5.25;1533759335.26903;2.99;9.09;0.0;9;117
8;paravance-14.rennes.grid5000.fr;thermos-root-devel-WordCountTopology-1-9f047f01-5ba0-4711-96c5-d88a337cc1d0;["container_1_Consume_and_count_1"];5.25;1533759335.10767;18.94;280.75;0.160857362;10;149
8;paravance-36.rennes.grid5000.fr;thermos-root-devel-WordCountTopology-2-8f918bdd-7597-46e9-b038-2bff83bd6bdd;["container_2_Emit_random_words_2"];5.25;1533759335.27015;15.38;367.48;0.821039253;10;149
9;paravance-19.rennes.grid5000.fr;thermos-root-devel-WordCountTopology-0-0aa45aa7-68ef-47f8-9c2c-1f797ac46a5c;["topology_master"];5.25;1533759345.48255;3.04;9.16;0.0;9;117
9;paravance-36.rennes.grid5000.fr;thermos-root-devel-WordCountTopology-2-8f918bdd-7597-46e9-b038-2bff83bd6bdd;["container_2_Emit_random_words_2"];5.25;1533759345.48343;16.04;385.84;0.821039253;10;149
9;paravance-14.rennes.grid5000.fr;thermos-root-devel-WordCountTopology-1-9f047f01-5ba0-4711-96c5-d88a337cc1d0;["container_1_Consume_and_count_1"];5.25;1533759345.328;19.74;295.07;0.160857362;10;149
10;paravance-14.rennes.grid5000.fr;thermos-root-devel-WordCountTopology-1-9f047f01-5ba0-4711-96c5-d88a337cc1d0;["container_1_Consume_and_count_1"];5.25;1533759355.54777;20.59;308.55;0.160857362;10;149
10;paravance-36.rennes.grid5000.fr;thermos-root-devel-WordCountTopology-2-8f918bdd-7597-46e9-b038-2bff83bd6bdd;["container_2_Emit_random_words_2"];5.25;1533759355.69879;16.68;404.08;0.821039253;10;149
10;paravance-19.rennes.grid5000.fr;thermos-root-devel-WordCountTopology-0-0aa45aa7-68ef-47f8-9c2c-1f797ac46a5c;["topology_master"];5.25;1533759355.69846;3.1;9.23;0.0;9;117
11;paravance-36.rennes.grid5000.fr;thermos-root-devel-WordCountTopology-2-8f918bdd-7597-46e9-b038-2bff83bd6bdd;["container_2_Emit_random_words_2"];5.25;1533759365.91287;17.34;422.42;0.821039253;10;149
11;paravance-19.rennes.grid5000.fr;thermos-root-devel-WordCountTopology-0-0aa45aa7-68ef-47f8-9c2c-1f797ac46a5c;["topology_master"];5.25;1533759365.91214;3.16;9.31;0.0;9;117
11;paravance-14.rennes.grid5000.fr;thermos-root-devel-WordCountTopology-1-9f047f01-5ba0-4711-96c5-d88a337cc1d0;["container_1_Consume_and_count_1"];5.25;1533759365.76535;21.39;323.39;0.160857362;10;149
12;paravance-36.rennes.grid5000.fr;thermos-root-devel-WordCountTopology-2-8f918bdd-7597-46e9-b038-2bff83bd6bdd;["container_2_Emit_random_words_2"];5.25;1533759376.12617;18.06;440.88;0.821039253;10;149
12;paravance-14.rennes.grid5000.fr;thermos-root-devel-WordCountTopology-1-9f047f01-5ba0-4711-96c5-d88a337cc1d0;["container_1_Consume_and_count_1"];5.25;1533759375.98564;22.28;337.16;0.160857362;10;149
12;paravance-19.rennes.grid5000.fr;thermos-root-devel-WordCountTopology-0-0aa45aa7-68ef-47f8-9c2c-1f797ac46a5c;["topology_master"];5.25;1533759376.12577;3.29;9.62;0.0;9;117
13;paravance-36.rennes.grid5000.fr;thermos-root-devel-WordCountTopology-2-8f918bdd-7597-46e9-b038-2bff83bd6bdd;["container_2_Emit_random_words_2"];5.25;1533759386.34201;18.73;459.41;0.821039253;10;149
13;paravance-19.rennes.grid5000.fr;thermos-root-devel-WordCountTopology-0-0aa45aa7-68ef-47f8-9c2c-1f797ac46a5c;["topology_master"];5.25;1533759386.34146;3.32;9.65;0.0;9;117
13;paravance-14.rennes.grid5000.fr;thermos-root-devel-WordCountTopology-1-9f047f01-5ba0-4711-96c5-d88a337cc1d0;["container_1_Consume_and_count_1"];5.25;1533759386.20673;23.11;351.56;0.160857362;10;149
14;paravance-36.rennes.grid5000.fr;thermos-root-devel-WordCountTopology-2-8f918bdd-7597-46e9-b038-2bff83bd6bdd;["container_2_Emit_random_words_2"];5.25;1533759396.55862;19.42;477.87;0.821039253;10;149
14;paravance-19.rennes.grid5000.fr;thermos-root-devel-WordCountTopology-0-0aa45aa7-68ef-47f8-9c2c-1f797ac46a5c;["topology_master"];5.25;1533759396.55735;3.4;9.78;0.0;9;117
14;paravance-14.rennes.grid5000.fr;thermos-root-devel-WordCountTopology-1-9f047f01-5ba0-4711-96c5-d88a337cc1d0;["container_1_Consume_and_count_1"];5.25;1533759396.42786;23.99;365.47;0.160857362;10;149
15;paravance-36.rennes.grid5000.fr;thermos-root-devel-WordCountTopology-2-8f918bdd-7597-46e9-b038-2bff83bd6bdd;["container_2_Emit_random_words_2"];5.25;1533759406.77306;20.09;496.24;0.821039253;10;149
15;paravance-19.rennes.grid5000.fr;thermos-root-devel-WordCountTopology-0-0aa45aa7-68ef-47f8-9c2c-1f797ac46a5c;["topology_master"];5.25;1533759406.77171;3.46;9.85;0.0;9;117
15;paravance-14.rennes.grid5000.fr;thermos-root-devel-WordCountTopology-1-9f047f01-5ba0-4711-96c5-d88a337cc1d0;["container_1_Consume_and_count_1"];5.25;1533759406.64681;24.79;379.13;0.160857362;10;149
16;paravance-36.rennes.grid5000.fr;thermos-root-devel-WordCountTopology-2-8f918bdd-7597-46e9-b038-2bff83bd6bdd;["container_2_Emit_random_words_2"];5.25;1533759416.98804;20.75;514.63;0.821039253;10;149
16;paravance-19.rennes.grid5000.fr;thermos-root-devel-WordCountTopology-0-0aa45aa7-68ef-47f8-9c2c-1f797ac46a5c;["topology_master"];5.25;1533759416.98745;3.52;9.93;0.0;9;117
16;paravance-14.rennes.grid5000.fr;thermos-root-devel-WordCountTopology-1-9f047f01-5ba0-4711-96c5-d88a337cc1d0;["container_1_Consume_and_count_1"];5.25;1533759416.8687;25.65;393.26;0.160857362;10;149
17;paravance-36.rennes.grid5000.fr;thermos-root-devel-WordCountTopology-2-8f918bdd-7597-46e9-b038-2bff83bd6bdd;["container_2_Emit_random_words_2"];5.25;1533759427.20261;21.4;532.9;0.821039253;10;149
17;paravance-14.rennes.grid5000.fr;thermos-root-devel-WordCountTopology-1-9f047f01-5ba0-4711-96c5-d88a337cc1d0;["container_1_Consume_and_count_1"];5.25;1533759427.08794;26.49;406.62;0.160857362;10;149
17;paravance-19.rennes.grid5000.fr;thermos-root-devel-WordCountTopology-0-0aa45aa7-68ef-47f8-9c2c-1f797ac46a5c;["topology_master"];5.25;1533759427.20385;3.57;10.0;0.0;9;117
18;paravance-14.rennes.grid5000.fr;thermos-root-devel-WordCountTopology-1-9f047f01-5ba0-4711-96c5-d88a337cc1d0;["container_1_Consume_and_count_1"];5.25;1533759437.20827;27.39;420.95;0.160857362;10;149
18;paravance-19.rennes.grid5000.fr;thermos-root-devel-WordCountTopology-0-0aa45aa7-68ef-47f8-9c2c-1f797ac46a5c;["topology_master"];5.25;1533759437.4174;3.69;10.22;0.0;9;117
18;paravance-36.rennes.grid5000.fr;thermos-root-devel-WordCountTopology-2-8f918bdd-7597-46e9-b038-2bff83bd6bdd;["container_2_Emit_random_words_2"];5.25;1533759437.41857;22.13;551.38;0.821039253;10;149
19;paravance-14.rennes.grid5000.fr;thermos-root-devel-WordCountTopology-1-9f047f01-5ba0-4711-96c5-d88a337cc1d0;["container_1_Consume_and_count_1"];5.25;1533759447.52621;28.24;434.23;0.160857362;10;149
19;paravance-19.rennes.grid5000.fr;thermos-root-devel-WordCountTopology-0-0aa45aa7-68ef-47f8-9c2c-1f797ac46a5c;["topology_master"];5.25;1533759447.63269;3.71;10.24;0.0;9;117
19;paravance-36.rennes.grid5000.fr;thermos-root-devel-WordCountTopology-2-8f918bdd-7597-46e9-b038-2bff83bd6bdd;["container_2_Emit_random_words_2"];5.25;1533759447.63217;22.76;569.69;0.821039253;10;149
20;paravance-19.rennes.grid5000.fr;thermos-root-devel-WordCountTopology-0-0aa45aa7-68ef-47f8-9c2c-1f797ac46a5c;["topology_master"];5.25;1533759457.84752;3.8;10.36;0.0;9;117
20;paravance-36.rennes.grid5000.fr;thermos-root-devel-WordCountTopology-2-8f918bdd-7597-46e9-b038-2bff83bd6bdd;["container_2_Emit_random_words_2"];5.25;1533759457.84962;23.45;588.16;0.821039253;10;149
20;paravance-14.rennes.grid5000.fr;thermos-root-devel-WordCountTopology-1-9f047f01-5ba0-4711-96c5-d88a337cc1d0;["container_1_Consume_and_count_1"];5.25;1533759457.74925;29.14;448.78;0.160857362;10;149
21;paravance-14.rennes.grid5000.fr;thermos-root-devel-WordCountTopology-1-9f047f01-5ba0-4711-96c5-d88a337cc1d0;["container_1_Consume_and_count_1"];5.25;1533759467.96928;29.95;464.52;0.160857362;10;149
21;paravance-19.rennes.grid5000.fr;thermos-root-devel-WordCountTopology-0-0aa45aa7-68ef-47f8-9c2c-1f797ac46a5c;["topology_master"];5.25;1533759468.06327;3.85;10.44;0.0;9;117
21;paravance-36.rennes.grid5000.fr;thermos-root-devel-WordCountTopology-2-8f918bdd-7597-46e9-b038-2bff83bd6bdd;["container_2_Emit_random_words_2"];5.25;1533759468.06434;24.12;606.57;0.821039253;10;149
22;paravance-36.rennes.grid5000.fr;thermos-root-devel-WordCountTopology-2-8f918bdd-7597-46e9-b038-2bff83bd6bdd;["container_2_Emit_random_words_2"];5.25;1533759478.27758;24.79;625.01;0.821039253;10;149
22;paravance-14.rennes.grid5000.fr;thermos-root-devel-WordCountTopology-1-9f047f01-5ba0-4711-96c5-d88a337cc1d0;["container_1_Consume_and_count_1"];5.25;1533759478.18778;30.73;479.68;0.160857362;10;149
22;paravance-19.rennes.grid5000.fr;thermos-root-devel-WordCountTopology-0-0aa45aa7-68ef-47f8-9c2c-1f797ac46a5c;["topology_master"];5.25;1533759478.27759;3.91;10.51;0.0;9;117
23;paravance-14.rennes.grid5000.fr;thermos-root-devel-WordCountTopology-1-9f047f01-5ba0-4711-96c5-d88a337cc1d0;["container_1_Consume_and_count_1"];5.25;1533759488.40869;31.55;495.21;0.160857362;10;149
23;paravance-36.rennes.grid5000.fr;thermos-root-devel-WordCountTopology-2-8f918bdd-7597-46e9-b038-2bff83bd6bdd;["container_2_Emit_random_words_2"];5.25;1533759488.49426;25.46;643.4;0.821039253;10;149
23;paravance-19.rennes.grid5000.fr;thermos-root-devel-WordCountTopology-0-0aa45aa7-68ef-47f8-9c2c-1f797ac46a5c;["topology_master"];5.25;1533759488.49461;3.97;10.58;0.0;9;117
24;paravance-19.rennes.grid5000.fr;thermos-root-devel-WordCountTopology-0-0aa45aa7-68ef-47f8-9c2c-1f797ac46a5c;["topology_master"];5.25;1533759498.70837;4.08;10.77;0.0;9;117
24;paravance-36.rennes.grid5000.fr;thermos-root-devel-WordCountTopology-2-8f918bdd-7597-46e9-b038-2bff83bd6bdd;["container_2_Emit_random_words_2"];5.25;1533759498.70928;26.19;661.88;0.821039253;10;149
24;paravance-14.rennes.grid5000.fr;thermos-root-devel-WordCountTopology-1-9f047f01-5ba0-4711-96c5-d88a337cc1d0;["container_1_Consume_and_count_1"];5.25;1533759498.62939;32.37;510.92;0.160857362;10;149
25;paravance-19.rennes.grid5000.fr;thermos-root-devel-WordCountTopology-0-0aa45aa7-68ef-47f8-9c2c-1f797ac46a5c;["topology_master"];5.25;1533759508.92426;4.11;10.79;0.0;9;117
25;paravance-14.rennes.grid5000.fr;thermos-root-devel-WordCountTopology-1-9f047f01-5ba0-4711-96c5-d88a337cc1d0;["container_1_Consume_and_count_1"];5.25;1533759508.85137;33.16;527.98;0.160857362;10;149
25;paravance-36.rennes.grid5000.fr;thermos-root-devel-WordCountTopology-2-8f918bdd-7597-46e9-b038-2bff83bd6bdd;["container_2_Emit_random_words_2"];5.25;1533759508.92556;26.83;680.21;0.821039253;10;149
26;paravance-19.rennes.grid5000.fr;thermos-root-devel-WordCountTopology-0-0aa45aa7-68ef-47f8-9c2c-1f797ac46a5c;["topology_master"];5.25;1533759519.13973;4.19;10.91;0.0;9;117
26;paravance-14.rennes.grid5000.fr;thermos-root-devel-WordCountTopology-1-9f047f01-5ba0-4711-96c5-d88a337cc1d0;["container_1_Consume_and_count_1"];5.25;1533759519.07144;33.96;542.69;0.160857362;10;149
26;paravance-36.rennes.grid5000.fr;thermos-root-devel-WordCountTopology-2-8f918bdd-7597-46e9-b038-2bff83bd6bdd;["container_2_Emit_random_words_2"];5.25;1533759519.14072;27.53;698.65;0.821039253;10;149
27;paravance-19.rennes.grid5000.fr;thermos-root-devel-WordCountTopology-0-0aa45aa7-68ef-47f8-9c2c-1f797ac46a5c;["topology_master"];5.25;1533759529.35549;4.25;10.99;0.0;9;117
27;paravance-14.rennes.grid5000.fr;thermos-root-devel-WordCountTopology-1-9f047f01-5ba0-4711-96c5-d88a337cc1d0;["container_1_Consume_and_count_1"];5.25;1533759529.29245;34.71;557.26;0.160857362;10;149
27;paravance-36.rennes.grid5000.fr;thermos-root-devel-WordCountTopology-2-8f918bdd-7597-46e9-b038-2bff83bd6bdd;["container_2_Emit_random_words_2"];5.25;1533759529.35639;28.19;717.07;0.821039253;10;149
28;paravance-14.rennes.grid5000.fr;thermos-root-devel-WordCountTopology-1-9f047f01-5ba0-4711-96c5-d88a337cc1d0;["container_1_Consume_and_count_1"];5.25;1533759539.5124;35.52;570.65;0.160857362;10;149
28;paravance-36.rennes.grid5000.fr;thermos-root-devel-WordCountTopology-2-8f918bdd-7597-46e9-b038-2bff83bd6bdd;["container_2_Emit_random_words_2"];5.25;1533759539.57239;28.82;735.15;0.821039253;10;149
28;paravance-19.rennes.grid5000.fr;thermos-root-devel-WordCountTopology-0-0aa45aa7-68ef-47f8-9c2c-1f797ac46a5c;["topology_master"];5.25;1533759539.57095;4.31;11.06;0.0;9;117
29;paravance-14.rennes.grid5000.fr;thermos-root-devel-WordCountTopology-1-9f047f01-5ba0-4711-96c5-d88a337cc1d0;["container_1_Consume_and_count_1"];5.25;1533759549.73381;36.34;584.89;0.160857362;10;147
29;paravance-36.rennes.grid5000.fr;thermos-root-devel-WordCountTopology-2-8f918bdd-7597-46e9-b038-2bff83bd6bdd;["container_2_Emit_random_words_2"];5.25;1533759549.78787;29.46;753.34;0.821039253;10;149
29;paravance-19.rennes.grid5000.fr;thermos-root-devel-WordCountTopology-0-0aa45aa7-68ef-47f8-9c2c-1f797ac46a5c;["topology_master"];5.25;1533759549.787;4.36;11.13;0.0;9;117
30;paravance-14.rennes.grid5000.fr;thermos-root-devel-WordCountTopology-1-9f047f01-5ba0-4711-96c5-d88a337cc1d0;["container_1_Consume_and_count_1"];5.25;1533759559.95555;37.17;601.27;0.160857362;10;149
30;paravance-19.rennes.grid5000.fr;thermos-root-devel-WordCountTopology-0-0aa45aa7-68ef-47f8-9c2c-1f797ac46a5c;["topology_master"];5.25;1533759560.00293;4.47;11.3;0.0;9;117
30;paravance-36.rennes.grid5000.fr;thermos-root-devel-WordCountTopology-2-8f918bdd-7597-46e9-b038-2bff83bd6bdd;["container_2_Emit_random_words_2"];5.25;1533759560.00406;30.16;771.85;0.821039253;10;149
31;paravance-36.rennes.grid5000.fr;thermos-root-devel-WordCountTopology-2-8f918bdd-7597-46e9-b038-2bff83bd6bdd;["container_2_Emit_random_words_2"];5.25;1533759570.21965;30.85;790.29;0.821039253;10;149
31;paravance-19.rennes.grid5000.fr;thermos-root-devel-WordCountTopology-0-0aa45aa7-68ef-47f8-9c2c-1f797ac46a5c;["topology_master"];5.25;1533759570.21802;4.52;11.37;0.0;9;117
31;paravance-14.rennes.grid5000.fr;thermos-root-devel-WordCountTopology-1-9f047f01-5ba0-4711-96c5-d88a337cc1d0;["container_1_Consume_and_count_1"];5.25;1533759570.17617;38.02;614.66;0.160857362;10;149
32;paravance-19.rennes.grid5000.fr;thermos-root-devel-WordCountTopology-0-0aa45aa7-68ef-47f8-9c2c-1f797ac46a5c;["topology_master"];5.25;1533759580.4341;4.58;11.45;0.0;9;117
32;paravance-36.rennes.grid5000.fr;thermos-root-devel-WordCountTopology-2-8f918bdd-7597-46e9-b038-2bff83bd6bdd;["container_2_Emit_random_words_2"];5.25;1533759580.4349;31.5;808.6;0.821039253;10;149
32;paravance-14.rennes.grid5000.fr;thermos-root-devel-WordCountTopology-1-9f047f01-5ba0-4711-96c5-d88a337cc1d0;["container_1_Consume_and_count_1"];5.25;1533759580.39629;38.82;630.15;0.160857362;10;149
33;paravance-14.rennes.grid5000.fr;thermos-root-devel-WordCountTopology-1-9f047f01-5ba0-4711-96c5-d88a337cc1d0;["container_1_Consume_and_count_1"];5.25;1533759590.51861;39.71;646.59;0.160857362;10;149
33;paravance-36.rennes.grid5000.fr;thermos-root-devel-WordCountTopology-2-8f918bdd-7597-46e9-b038-2bff83bd6bdd;["container_2_Emit_random_words_2"];5.25;1533759590.65213;32.18;827.07;0.821039253;10;149
33;paravance-19.rennes.grid5000.fr;thermos-root-devel-WordCountTopology-0-0aa45aa7-68ef-47f8-9c2c-1f797ac46a5c;["topology_master"];5.25;1533759590.65063;4.67;11.56;0.0;9;117
34;paravance-36.rennes.grid5000.fr;thermos-root-devel-WordCountTopology-2-8f918bdd-7597-46e9-b038-2bff83bd6bdd;["container_2_Emit_random_words_2"];5.25;1533759600.86697;32.8;845.41;0.821039253;10;149
34;paravance-19.rennes.grid5000.fr;thermos-root-devel-WordCountTopology-0-0aa45aa7-68ef-47f8-9c2c-1f797ac46a5c;["topology_master"];5.25;1533759600.86578;4.7;11.59;0.0;9;117
34;paravance-14.rennes.grid5000.fr;thermos-root-devel-WordCountTopology-1-9f047f01-5ba0-4711-96c5-d88a337cc1d0;["container_1_Consume_and_count_1"];5.25;1533759600.83904;40.51;664.04;0.160857362;10;149
35;paravance-14.rennes.grid5000.fr;thermos-root-devel-WordCountTopology-1-9f047f01-5ba0-4711-96c5-d88a337cc1d0;["container_1_Consume_and_count_1"];5.25;1533759611.06026;41.34;678.68;0.160857362;10;149
35;paravance-19.rennes.grid5000.fr;thermos-root-devel-WordCountTopology-0-0aa45aa7-68ef-47f8-9c2c-1f797ac46a5c;["topology_master"];5.25;1533759611.08197;4.8;11.73;0.0;9;117
35;paravance-36.rennes.grid5000.fr;thermos-root-devel-WordCountTopology-2-8f918bdd-7597-46e9-b038-2bff83bd6bdd;["container_2_Emit_random_words_2"];5.25;1533759611.0835;33.52;863.84;0.821039253;10;149
36;paravance-19.rennes.grid5000.fr;thermos-root-devel-WordCountTopology-0-0aa45aa7-68ef-47f8-9c2c-1f797ac46a5c;["topology_master"];5.25;1533759621.29739;4.87;11.91;0.0;9;117
36;paravance-14.rennes.grid5000.fr;thermos-root-devel-WordCountTopology-1-9f047f01-5ba0-4711-96c5-d88a337cc1d0;["container_1_Consume_and_count_1"];5.25;1533759621.28094;42.11;692.44;0.160857362;10;149
36;paravance-36.rennes.grid5000.fr;thermos-root-devel-WordCountTopology-2-8f918bdd-7597-46e9-b038-2bff83bd6bdd;["container_2_Emit_random_words_2"];5.25;1533759621.29874;34.19;882.28;0.821039253;10;149
37;paravance-36.rennes.grid5000.fr;thermos-root-devel-WordCountTopology-2-8f918bdd-7597-46e9-b038-2bff83bd6bdd;["container_2_Emit_random_words_2"];5.25;1533759631.51439;34.88;900.69;0.821039253;10;149
37;paravance-14.rennes.grid5000.fr;thermos-root-devel-WordCountTopology-1-9f047f01-5ba0-4711-96c5-d88a337cc1d0;["container_1_Consume_and_count_1"];5.25;1533759631.50137;42.89;706.69;0.160857362;10;149
37;paravance-19.rennes.grid5000.fr;thermos-root-devel-WordCountTopology-0-0aa45aa7-68ef-47f8-9c2c-1f797ac46a5c;["topology_master"];5.25;1533759631.51296;4.92;11.98;0.0;9;117
38;paravance-36.rennes.grid5000.fr;thermos-root-devel-WordCountTopology-2-8f918bdd-7597-46e9-b038-2bff83bd6bdd;["container_2_Emit_random_words_2"];5.25;1533759641.72828;35.53;918.95;0.821039253;10;149
38;paravance-19.rennes.grid5000.fr;thermos-root-devel-WordCountTopology-0-0aa45aa7-68ef-47f8-9c2c-1f797ac46a5c;["topology_master"];5.25;1533759641.72773;4.98;12.05;0.0;9;117
38;paravance-14.rennes.grid5000.fr;thermos-root-devel-WordCountTopology-1-9f047f01-5ba0-4711-96c5-d88a337cc1d0;["container_1_Consume_and_count_1"];5.25;1533759641.72143;43.68;720.77;0.160857362;10;149
39;paravance-19.rennes.grid5000.fr;thermos-root-devel-WordCountTopology-0-0aa45aa7-68ef-47f8-9c2c-1f797ac46a5c;["topology_master"];5.25;1533759651.94293;5.07;12.17;0.0;9;117
39;paravance-36.rennes.grid5000.fr;thermos-root-devel-WordCountTopology-2-8f918bdd-7597-46e9-b038-2bff83bd6bdd;["container_2_Emit_random_words_2"];5.25;1533759651.94366;36.24;937.36;0.821039253;10;149
39;paravance-14.rennes.grid5000.fr;thermos-root-devel-WordCountTopology-1-9f047f01-5ba0-4711-96c5-d88a337cc1d0;["container_1_Consume_and_count_1"];5.25;1533759651.94127;44.52;735.55;0.160857362;10;149
40;paravance-36.rennes.grid5000.fr;thermos-root-devel-WordCountTopology-2-8f918bdd-7597-46e9-b038-2bff83bd6bdd;["container_2_Emit_random_words_2"];5.25;1533759662.15812;36.92;955.76;0.821039253;10;149
40;paravance-14.rennes.grid5000.fr;thermos-root-devel-WordCountTopology-1-9f047f01-5ba0-4711-96c5-d88a337cc1d0;["container_1_Consume_and_count_1"];5.25;1533759662.16165;45.27;749.38;0.160857362;10;149
40;paravance-19.rennes.grid5000.fr;thermos-root-devel-WordCountTopology-0-0aa45aa7-68ef-47f8-9c2c-1f797ac46a5c;["topology_master"];5.25;1533759662.17197;5.12;12.24;0.0;9;117
41;paravance-14.rennes.grid5000.fr;thermos-root-devel-WordCountTopology-1-9f047f01-5ba0-4711-96c5-d88a337cc1d0;["container_1_Consume_and_count_1"];5.25;1533759672.3942;46.08;763.48;0.160857362;10;149
41;paravance-36.rennes.grid5000.fr;thermos-root-devel-WordCountTopology-2-8f918bdd-7597-46e9-b038-2bff83bd6bdd;["container_2_Emit_random_words_2"];5.25;1533759672.38782;37.58;974.14;0.821039253;10;149
41;paravance-19.rennes.grid5000.fr;thermos-root-devel-WordCountTopology-0-0aa45aa7-68ef-47f8-9c2c-1f797ac46a5c;["topology_master"];5.25;1533759672.38667;5.19;12.33;0.0;9;117
42;paravance-36.rennes.grid5000.fr;thermos-root-devel-WordCountTopology-2-8f918bdd-7597-46e9-b038-2bff83bd6bdd;["container_2_Emit_random_words_2"];5.25;1533759682.60184;38.25;992.61;0.821039253;10;149
42;paravance-19.rennes.grid5000.fr;thermos-root-devel-WordCountTopology-0-0aa45aa7-68ef-47f8-9c2c-1f797ac46a5c;["topology_master"];5.25;1533759682.60125;5.25;12.43;0.0;9;117
42;paravance-14.rennes.grid5000.fr;thermos-root-devel-WordCountTopology-1-9f047f01-5ba0-4711-96c5-d88a337cc1d0;["container_1_Consume_and_count_1"];5.25;1533759682.61545;46.89;777.33;0.160857362;10;149
43;paravance-19.rennes.grid5000.fr;thermos-root-devel-WordCountTopology-0-0aa45aa7-68ef-47f8-9c2c-1f797ac46a5c;["topology_master"];5.25;1533759692.81781;5.34;12.55;0.0;9;117
43;paravance-36.rennes.grid5000.fr;thermos-root-devel-WordCountTopology-2-8f918bdd-7597-46e9-b038-2bff83bd6bdd;["container_2_Emit_random_words_2"];5.25;1533759692.81893;38.95;1011.09;0.821039253;10;149
43;paravance-14.rennes.grid5000.fr;thermos-root-devel-WordCountTopology-1-9f047f01-5ba0-4711-96c5-d88a337cc1d0;["container_1_Consume_and_count_1"];5.25;1533759692.83699;47.7;791.38;0.160857362;10;149
44;paravance-36.rennes.grid5000.fr;thermos-root-devel-WordCountTopology-2-8f918bdd-7597-46e9-b038-2bff83bd6bdd;["container_2_Emit_random_words_2"];5.25;1533759703.0349;39.58;1029.45;0.821039253;10;149
44;paravance-14.rennes.grid5000.fr;thermos-root-devel-WordCountTopology-1-9f047f01-5ba0-4711-96c5-d88a337cc1d0;["container_1_Consume_and_count_1"];5.25;1533759703.05807;48.43;805.33;0.160857362;10;149
44;paravance-19.rennes.grid5000.fr;thermos-root-devel-WordCountTopology-0-0aa45aa7-68ef-47f8-9c2c-1f797ac46a5c;["topology_master"];5.25;1533759703.03479;5.36;12.58;0.0;9;117
45;paravance-19.rennes.grid5000.fr;thermos-root-devel-WordCountTopology-0-0aa45aa7-68ef-47f8-9c2c-1f797ac46a5c;["topology_master"];5.25;1533759713.25087;5.45;12.69;0.0;9;117
45;paravance-36.rennes.grid5000.fr;thermos-root-devel-WordCountTopology-2-8f918bdd-7597-46e9-b038-2bff83bd6bdd;["container_2_Emit_random_words_2"];5.25;1533759713.25225;40.28;1047.97;0.821039253;10;149
45;paravance-14.rennes.grid5000.fr;thermos-root-devel-WordCountTopology-1-9f047f01-5ba0-4711-96c5-d88a337cc1d0;["container_1_Consume_and_count_1"];5.25;1533759713.28052;49.23;818.97;0.160857362;10;149
46;paravance-36.rennes.grid5000.fr;thermos-root-devel-WordCountTopology-2-8f918bdd-7597-46e9-b038-2bff83bd6bdd;["container_2_Emit_random_words_2"];5.25;1533759723.46741;40.95;1066.44;0.821039253;10;149
46;paravance-19.rennes.grid5000.fr;thermos-root-devel-WordCountTopology-0-0aa45aa7-68ef-47f8-9c2c-1f797ac46a5c;["topology_master"];5.25;1533759723.46691;5.5;12.76;0.0;9;117
46;paravance-14.rennes.grid5000.fr;thermos-root-devel-WordCountTopology-1-9f047f01-5ba0-4711-96c5-d88a337cc1d0;["container_1_Consume_and_count_1"];5.25;1533759723.50178;50.0;833.27;0.160857362;10;149
47;paravance-36.rennes.grid5000.fr;thermos-root-devel-WordCountTopology-2-8f918bdd-7597-46e9-b038-2bff83bd6bdd;["container_2_Emit_random_words_2"];5.25;1533759733.68312;41.62;1084.85;0.821039253;10;149
47;paravance-19.rennes.grid5000.fr;thermos-root-devel-WordCountTopology-0-0aa45aa7-68ef-47f8-9c2c-1f797ac46a5c;["topology_master"];5.25;1533759733.68195;5.57;12.85;0.0;9;117
47;paravance-14.rennes.grid5000.fr;thermos-root-devel-WordCountTopology-1-9f047f01-5ba0-4711-96c5-d88a337cc1d0;["container_1_Consume_and_count_1"];5.25;1533759733.72155;50.77;846.9;0.160857362;10;149
48;paravance-14.rennes.grid5000.fr;thermos-root-devel-WordCountTopology-1-9f047f01-5ba0-4711-96c5-d88a337cc1d0;["container_1_Consume_and_count_1"];5.25;1533759743.94154;51.61;861.78;0.160857362;10;149
48;paravance-19.rennes.grid5000.fr;thermos-root-devel-WordCountTopology-0-0aa45aa7-68ef-47f8-9c2c-1f797ac46a5c;["topology_master"];5.25;1533759743.89729;5.63;12.99;0.0;9;117
48;paravance-36.rennes.grid5000.fr;thermos-root-devel-WordCountTopology-2-8f918bdd-7597-46e9-b038-2bff83bd6bdd;["container_2_Emit_random_words_2"];5.25;1533759743.89771;42.29;1103.27;0.821039253;10;149
49;paravance-19.rennes.grid5000.fr;thermos-root-devel-WordCountTopology-0-0aa45aa7-68ef-47f8-9c2c-1f797ac46a5c;["topology_master"];5.25;1533759754.11123;5.72;13.1;0.0;9;117
49;paravance-36.rennes.grid5000.fr;thermos-root-devel-WordCountTopology-2-8f918bdd-7597-46e9-b038-2bff83bd6bdd;["container_2_Emit_random_words_2"];5.25;1533759754.11215;42.98;1121.69;0.821039253;10;149
49;paravance-14.rennes.grid5000.fr;thermos-root-devel-WordCountTopology-1-9f047f01-5ba0-4711-96c5-d88a337cc1d0;["container_1_Consume_and_count_1"];5.25;1533759754.16139;52.43;875.74;0.160857362;10;149
50;paravance-36.rennes.grid5000.fr;thermos-root-devel-WordCountTopology-2-8f918bdd-7597-46e9-b038-2bff83bd6bdd;["container_2_Emit_random_words_2"];5.25;1533759764.2274;43.6;1139.89;0.821039253;10;149
50;paravance-14.rennes.grid5000.fr;thermos-root-devel-WordCountTopology-1-9f047f01-5ba0-4711-96c5-d88a337cc1d0;["container_1_Consume_and_count_1"];5.25;1533759764.38045;53.17;889.54;0.160857362;10;149
50;paravance-19.rennes.grid5000.fr;thermos-root-devel-WordCountTopology-0-0aa45aa7-68ef-47f8-9c2c-1f797ac46a5c;["topology_master"];5.25;1533759764.32499;5.75;13.13;0.0;9;117
51;paravance-36.rennes.grid5000.fr;thermos-root-devel-WordCountTopology-2-8f918bdd-7597-46e9-b038-2bff83bd6bdd;["container_2_Emit_random_words_2"];5.25;1533759774.54308;44.31;1158.58;0.821039253;10;149
51;paravance-14.rennes.grid5000.fr;thermos-root-devel-WordCountTopology-1-9f047f01-5ba0-4711-96c5-d88a337cc1d0;["container_1_Consume_and_count_1"];5.25;1533759774.6022;53.98;903.64;0.160857362;10;149
51;paravance-19.rennes.grid5000.fr;thermos-root-devel-WordCountTopology-0-0aa45aa7-68ef-47f8-9c2c-1f797ac46a5c;["topology_master"];5.25;1533759774.54155;5.83;13.26;0.0;9;117
52;paravance-36.rennes.grid5000.fr;thermos-root-devel-WordCountTopology-2-8f918bdd-7597-46e9-b038-2bff83bd6bdd;["container_2_Emit_random_words_2"];5.25;1533759784.65897;44.98;1176.85;0.821039253;10;149
52;paravance-19.rennes.grid5000.fr;thermos-root-devel-WordCountTopology-0-0aa45aa7-68ef-47f8-9c2c-1f797ac46a5c;["topology_master"];5.25;1533759784.75742;5.89;13.33;0.0;9;117
52;paravance-14.rennes.grid5000.fr;thermos-root-devel-WordCountTopology-1-9f047f01-5ba0-4711-96c5-d88a337cc1d0;["container_1_Consume_and_count_1"];5.25;1533759784.82347;54.78;917.43;0.160857362;10;149
53;paravance-36.rennes.grid5000.fr;thermos-root-devel-WordCountTopology-2-8f918bdd-7597-46e9-b038-2bff83bd6bdd;["container_2_Emit_random_words_2"];5.25;1533759794.97453;45.65;1195.51;0.821039253;10;149
53;paravance-19.rennes.grid5000.fr;thermos-root-devel-WordCountTopology-0-0aa45aa7-68ef-47f8-9c2c-1f797ac46a5c;["topology_master"];5.25;1533759794.9727;5.96;13.44;0.0;9;117
53;paravance-14.rennes.grid5000.fr;thermos-root-devel-WordCountTopology-1-9f047f01-5ba0-4711-96c5-d88a337cc1d0;["container_1_Consume_and_count_1"];5.25;1533759795.03987;55.55;931.53;0.160857362;10;149
54;paravance-19.rennes.grid5000.fr;thermos-root-devel-WordCountTopology-0-0aa45aa7-68ef-47f8-9c2c-1f797ac46a5c;["topology_master"];5.25;1533759805.18964;6.02;13.53;0.0;9;117
54;paravance-36.rennes.grid5000.fr;thermos-root-devel-WordCountTopology-2-8f918bdd-7597-46e9-b038-2bff83bd6bdd;["container_2_Emit_random_words_2"];5.25;1533759805.19096;46.33;1213.99;0.821039253;10;149
54;paravance-14.rennes.grid5000.fr;thermos-root-devel-WordCountTopology-1-9f047f01-5ba0-4711-96c5-d88a337cc1d0;["container_1_Consume_and_count_1"];5.25;1533759805.25629;56.34;945.95;0.160857362;10;149
55;paravance-19.rennes.grid5000.fr;thermos-root-devel-WordCountTopology-0-0aa45aa7-68ef-47f8-9c2c-1f797ac46a5c;["topology_master"];5.25;1533759815.40544;6.11;13.65;0.0;9;117
55;paravance-14.rennes.grid5000.fr;thermos-root-devel-WordCountTopology-1-9f047f01-5ba0-4711-96c5-d88a337cc1d0;["container_1_Consume_and_count_1"];5.25;1533759815.47186;57.17;960.29;0.160857362;10;149
55;paravance-36.rennes.grid5000.fr;thermos-root-devel-WordCountTopology-2-8f918bdd-7597-46e9-b038-2bff83bd6bdd;["container_2_Emit_random_words_2"];5.25;1533759815.40747;47.03;1232.46;0.821039253;10;149
56;paravance-14.rennes.grid5000.fr;thermos-root-devel-WordCountTopology-1-9f047f01-5ba0-4711-96c5-d88a337cc1d0;["container_1_Consume_and_count_1"];5.25;1533759825.6874;57.91;974.66;0.160857362;10;149
56;paravance-36.rennes.grid5000.fr;thermos-root-devel-WordCountTopology-2-8f918bdd-7597-46e9-b038-2bff83bd6bdd;["container_2_Emit_random_words_2"];5.25;1533759825.62504;47.66;1250.84;0.821039253;10;149
56;paravance-19.rennes.grid5000.fr;thermos-root-devel-WordCountTopology-0-0aa45aa7-68ef-47f8-9c2c-1f797ac46a5c;["topology_master"];5.25;1533759825.62405;6.13;13.68;0.0;9;117
57;paravance-19.rennes.grid5000.fr;thermos-root-devel-WordCountTopology-0-0aa45aa7-68ef-47f8-9c2c-1f797ac46a5c;["topology_master"];5.25;1533759835.8384;6.22;13.8;0.0;9;117
57;paravance-14.rennes.grid5000.fr;thermos-root-devel-WordCountTopology-1-9f047f01-5ba0-4711-96c5-d88a337cc1d0;["container_1_Consume_and_count_1"];5.25;1533759835.90415;58.72;989.09;0.160857362;10;149
57;paravance-36.rennes.grid5000.fr;thermos-root-devel-WordCountTopology-2-8f918bdd-7597-46e9-b038-2bff83bd6bdd;["container_2_Emit_random_words_2"];5.25;1533759835.8398;48.36;1269.25;0.821039253;10;149
58;paravance-19.rennes.grid5000.fr;thermos-root-devel-WordCountTopology-0-0aa45aa7-68ef-47f8-9c2c-1f797ac46a5c;["topology_master"];5.25;1533759846.05484;6.28;13.87;0.0;9;117
58;paravance-36.rennes.grid5000.fr;thermos-root-devel-WordCountTopology-2-8f918bdd-7597-46e9-b038-2bff83bd6bdd;["container_2_Emit_random_words_2"];5.25;1533759846.0563;49.03;1287.64;0.821039253;10;149
58;paravance-14.rennes.grid5000.fr;thermos-root-devel-WordCountTopology-1-9f047f01-5ba0-4711-96c5-d88a337cc1d0;["container_1_Consume_and_count_1"];5.25;1533759846.12139;59.49;1003.54;0.160857362;10;149
59;paravance-36.rennes.grid5000.fr;thermos-root-devel-WordCountTopology-2-8f918bdd-7597-46e9-b038-2bff83bd6bdd;["container_2_Emit_random_words_2"];5.25;1533759856.27215;49.68;1306.04;0.821039253;10;149
59;paravance-14.rennes.grid5000.fr;thermos-root-devel-WordCountTopology-1-9f047f01-5ba0-4711-96c5-d88a337cc1d0;["container_1_Consume_and_count_1"];5.25;1533759856.33631;60.28;1018.11;0.160857362;10;149
59;paravance-19.rennes.grid5000.fr;thermos-root-devel-WordCountTopology-0-0aa45aa7-68ef-47f8-9c2c-1f797ac46a5c;["topology_master"];5.25;1533759856.2709;6.36;14.0;0.0;9;117
60;paravance-14.rennes.grid5000.fr;thermos-root-devel-WordCountTopology-1-9f047f01-5ba0-4711-96c5-d88a337cc1d0;["container_1_Consume_and_count_1"];5.25;1533759866.55349;61.09;1032.46;0.160857362;10;149
60;paravance-36.rennes.grid5000.fr;thermos-root-devel-WordCountTopology-2-8f918bdd-7597-46e9-b038-2bff83bd6bdd;["container_2_Emit_random_words_2"];5.25;1533759866.48866;50.35;1324.41;0.821039253;10;149
60;paravance-19.rennes.grid5000.fr;thermos-root-devel-WordCountTopology-0-0aa45aa7-68ef-47f8-9c2c-1f797ac46a5c;["topology_master"];5.25;1533759866.4874;6.41;14.07;0.0;9;117
