{
  "status": "success",
  "executiontime": 0.00018095970153808594,
  "message": "",
  "result": {
    "bolts": {
      "Consume_and_count": [
        "container_1_Consume_and_count_1"
      ]
    },
    "instances": {
      "container_2_Emit_random_words_2": {
        "stmgrId": "stmgr-2",
        "logfile": "http://paravance-50.rennes.grid5000.fr:31359/file/log-files/container_2_Emit_random_words_2.log.0",
        "id": "container_2_Emit_random_words_2",
        "name": "Emit_random_words"
      },
      "container_1_Consume_and_count_1": {
        "stmgrId": "stmgr-1",
        "logfile": "http://paravance-48.rennes.grid5000.fr:31053/file/log-files/container_1_Consume_and_count_1.log.0",
        "id": "container_1_Consume_and_count_1",
        "name": "Consume_and_count"
      }
    },
    "instance_groups": {
      "container_1_Consume_and": [
        "container_1_Consume_and_count_1"
      ],
      "container_2_Emit_random": [
        "container_2_Emit_random_words_2"
      ]
    },
    "spouts": {
      "Emit_random_words": [
        "container_2_Emit_random_words_2"
      ]
    },
    "config": {
      "topology.message.timeout.secs": "30",
      "topology.team.environment": "devel",
      "topology.serializer.classname": "org.apache.heron.streamlet.impl.KryoSerializer",
      "topology.team.name": "root",
      "topology.debug": "false",
      "topology.max.spout.pending": "100",
      "topology.container.padding.percentage": "0",
      "topology.enable.message.timeouts": "true",
      "topology.component.parallelism": "1",
      "topology.name": "WordCountTopology",
      "topology.stmgrs": "2",
      "topology.reliability.mode": "ATMOST_ONCE"
    },
    "stmgrs": {
      "stmgr-1": {
        "cwd": "/var/lib/mesos/slaves/31c5fff5-e34a-403f-a528-8fd112e81690-S1/frameworks/75deb08a-eb1b-415c-8b2c-e922be5f7d98-0000/executors/thermos-root-devel-WordCountTopology-1-6d70aa2e-e8dd-47aa-a8ad-09f3d0a3279f/runs/931416e4-6d57-4832-aa8d-89366e12e49e/sandbox",
        "host": "paravance-48.rennes.grid5000.fr",
        "joburl": "http://paravance-48.rennes.grid5000.fr:31053/browse/",
        "shell_port": 31053,
        "logfiles": "http://paravance-48.rennes.grid5000.fr:31053/browse/log-files",
        "pid": 2103,
        "id": "stmgr-1",
        "instance_ids": [
          "container_1_Consume_and_count_1"
        ],
        "port": 31116
      },
      "stmgr-2": {
        "cwd": "/var/lib/mesos/slaves/31c5fff5-e34a-403f-a528-8fd112e81690-S2/frameworks/75deb08a-eb1b-415c-8b2c-e922be5f7d98-0000/executors/thermos-root-devel-WordCountTopology-2-91ebcffa-4df2-43b6-afd2-5fc9dd945537/runs/81aa429c-0f84-401f-bbc5-b502530129a8/sandbox",
        "host": "paravance-50.rennes.grid5000.fr",
        "joburl": "http://paravance-50.rennes.grid5000.fr:31359/browse/",
        "shell_port": 31359,
        "logfiles": "http://paravance-50.rennes.grid5000.fr:31359/browse/log-files",
        "pid": 2181,
        "id": "stmgr-2",
        "instance_ids": [
          "container_2_Emit_random_words_2"
        ],
        "port": 31877
      }
    }
  },
  "tracker_version": "0.17.8-61-gd7c8c62"
}