mesure_id;slave_id;executor_id;heron_instances;cpus_limit;timestamp_A;cpus_system_time_secs_A;cpus_user_time_secs_A;cpus_throttled_time_secs_A;processes;threads
0;paravance-69.rennes.grid5000.fr;thermos-root-devel-WordCountTopology-2-9f1459e6-d219-4e89-90c5-bdd2da6be802;["container_2_Emit_random_words_2"];4.25;1533112505.94037;8.2;172.1;2.696513449;10;149
0;paravance-71.rennes.grid5000.fr;thermos-root-devel-WordCountTopology-0-a885f396-4353-41e3-90cc-81548669316d;["topology_master"];4.25;1533112506.00692;2.42;7.91;0.003994842;9;117
0;paravance-72.rennes.grid5000.fr;thermos-root-devel-WordCountTopology-1-6bac4a66-f4e1-4caa-8d00-001604baa2da;["container_1_Consume_and_count_1"];4.25;1533112506.0104;32.64;228.2;2.491215076;10;151
1;paravance-71.rennes.grid5000.fr;thermos-root-devel-WordCountTopology-0-a885f396-4353-41e3-90cc-81548669316d;["topology_master"];4.25;1533112516.1234;2.48;8.05;0.003994842;9;117
1;paravance-72.rennes.grid5000.fr;thermos-root-devel-WordCountTopology-1-6bac4a66-f4e1-4caa-8d00-001604baa2da;["container_1_Consume_and_count_1"];4.25;1533112516.22481;35.94;252.35;2.491215076;10;151
1;paravance-69.rennes.grid5000.fr;thermos-root-devel-WordCountTopology-2-9f1459e6-d219-4e89-90c5-bdd2da6be802;["container_2_Emit_random_words_2"];4.25;1533112516.15793;8.89;190.45;2.696513449;10;149
2;paravance-69.rennes.grid5000.fr;thermos-root-devel-WordCountTopology-2-9f1459e6-d219-4e89-90c5-bdd2da6be802;["container_2_Emit_random_words_2"];4.25;1533112526.27223;9.58;208.42;2.696513449;10;149
2;paravance-72.rennes.grid5000.fr;thermos-root-devel-WordCountTopology-1-6bac4a66-f4e1-4caa-8d00-001604baa2da;["container_1_Consume_and_count_1"];4.25;1533112526.44031;39.22;276.75;2.491215076;10;151
2;paravance-71.rennes.grid5000.fr;thermos-root-devel-WordCountTopology-0-a885f396-4353-41e3-90cc-81548669316d;["topology_master"];4.25;1533112526.43926;2.58;8.2;0.003994842;9;117
3;paravance-72.rennes.grid5000.fr;thermos-root-devel-WordCountTopology-1-6bac4a66-f4e1-4caa-8d00-001604baa2da;["container_1_Consume_and_count_1"];4.25;1533112536.65811;42.81;301.63;2.491215076;10;151
3;paravance-71.rennes.grid5000.fr;thermos-root-devel-WordCountTopology-0-a885f396-4353-41e3-90cc-81548669316d;["topology_master"];4.25;1533112536.65759;2.64;8.28;0.003994842;9;117
3;paravance-69.rennes.grid5000.fr;thermos-root-devel-WordCountTopology-2-9f1459e6-d219-4e89-90c5-bdd2da6be802;["container_2_Emit_random_words_2"];4.25;1533112536.59139;10.23;226.67;2.696513449;10;149
4;paravance-69.rennes.grid5000.fr;thermos-root-devel-WordCountTopology-2-9f1459e6-d219-4e89-90c5-bdd2da6be802;["container_2_Emit_random_words_2"];4.25;1533112546.80784;10.94;244.99;2.696513449;10;149
4;paravance-72.rennes.grid5000.fr;thermos-root-devel-WordCountTopology-1-6bac4a66-f4e1-4caa-8d00-001604baa2da;["container_1_Consume_and_count_1"];4.25;1533112546.87944;46.52;327.77;2.499097386;10;151
4;paravance-71.rennes.grid5000.fr;thermos-root-devel-WordCountTopology-0-a885f396-4353-41e3-90cc-81548669316d;["topology_master"];4.25;1533112546.87738;2.7;8.36;0.003994842;9;117
5;paravance-69.rennes.grid5000.fr;thermos-root-devel-WordCountTopology-2-9f1459e6-d219-4e89-90c5-bdd2da6be802;["container_2_Emit_random_words_2"];4.25;1533112557.02716;11.61;263.11;2.696513449;10;149
5;paravance-72.rennes.grid5000.fr;thermos-root-devel-WordCountTopology-1-6bac4a66-f4e1-4caa-8d00-001604baa2da;["container_1_Consume_and_count_1"];4.25;1533112557.09518;49.76;351.91;2.499097386;10;151
5;paravance-71.rennes.grid5000.fr;thermos-root-devel-WordCountTopology-0-a885f396-4353-41e3-90cc-81548669316d;["topology_master"];4.25;1533112557.09282;2.76;8.44;0.003994842;9;117
6;paravance-72.rennes.grid5000.fr;thermos-root-devel-WordCountTopology-1-6bac4a66-f4e1-4caa-8d00-001604baa2da;["container_1_Consume_and_count_1"];4.25;1533112567.31093;53.59;378.05;2.551203383;10;151
6;paravance-69.rennes.grid5000.fr;thermos-root-devel-WordCountTopology-2-9f1459e6-d219-4e89-90c5-bdd2da6be802;["container_2_Emit_random_words_2"];4.25;1533112567.24475;12.29;281.39;2.696513449;10;149
6;paravance-71.rennes.grid5000.fr;thermos-root-devel-WordCountTopology-0-a885f396-4353-41e3-90cc-81548669316d;["topology_master"];4.25;1533112567.3107;2.89;8.64;0.003994842;9;117
7;paravance-72.rennes.grid5000.fr;thermos-root-devel-WordCountTopology-1-6bac4a66-f4e1-4caa-8d00-001604baa2da;["container_1_Consume_and_count_1"];4.25;1533112577.52577;57.34;404.9;2.551203383;10;151
7;paravance-69.rennes.grid5000.fr;thermos-root-devel-WordCountTopology-2-9f1459e6-d219-4e89-90c5-bdd2da6be802;["container_2_Emit_random_words_2"];4.25;1533112577.45874;12.95;299.6;2.696513449;10;149
7;paravance-71.rennes.grid5000.fr;thermos-root-devel-WordCountTopology-0-a885f396-4353-41e3-90cc-81548669316d;["topology_master"];4.25;1533112577.5237;2.92;8.67;0.003994842;9;117
8;paravance-69.rennes.grid5000.fr;thermos-root-devel-WordCountTopology-2-9f1459e6-d219-4e89-90c5-bdd2da6be802;["container_2_Emit_random_words_2"];4.25;1533112587.67569;13.65;317.84;2.696513449;10;149
8;paravance-72.rennes.grid5000.fr;thermos-root-devel-WordCountTopology-1-6bac4a66-f4e1-4caa-8d00-001604baa2da;["container_1_Consume_and_count_1"];4.25;1533112587.74485;60.87;431.54;2.551203383;10;151
8;paravance-71.rennes.grid5000.fr;thermos-root-devel-WordCountTopology-0-a885f396-4353-41e3-90cc-81548669316d;["topology_master"];4.25;1533112587.7417;3.01;8.8;0.003994842;9;117
9;paravance-69.rennes.grid5000.fr;thermos-root-devel-WordCountTopology-2-9f1459e6-d219-4e89-90c5-bdd2da6be802;["container_2_Emit_random_words_2"];4.25;1533112597.89427;14.3;336.07;2.696513449;10;149
9;paravance-72.rennes.grid5000.fr;thermos-root-devel-WordCountTopology-1-6bac4a66-f4e1-4caa-8d00-001604baa2da;["container_1_Consume_and_count_1"];4.25;1533112597.96203;64.61;456.24;2.551203383;10;151
9;paravance-71.rennes.grid5000.fr;thermos-root-devel-WordCountTopology-0-a885f396-4353-41e3-90cc-81548669316d;["topology_master"];4.25;1533112597.96042;3.06;8.87;0.003994842;9;117
10;paravance-69.rennes.grid5000.fr;thermos-root-devel-WordCountTopology-2-9f1459e6-d219-4e89-90c5-bdd2da6be802;["container_2_Emit_random_words_2"];4.25;1533112608.11133;14.98;354.3;2.696513449;10;149
10;paravance-72.rennes.grid5000.fr;thermos-root-devel-WordCountTopology-1-6bac4a66-f4e1-4caa-8d00-001604baa2da;["container_1_Consume_and_count_1"];4.25;1533112608.17877;68.35;481.03;2.551203383;10;151
10;paravance-71.rennes.grid5000.fr;thermos-root-devel-WordCountTopology-0-a885f396-4353-41e3-90cc-81548669316d;["topology_master"];4.25;1533112608.17665;3.12;8.95;0.003994842;9;117
11;paravance-69.rennes.grid5000.fr;thermos-root-devel-WordCountTopology-2-9f1459e6-d219-4e89-90c5-bdd2da6be802;["container_2_Emit_random_words_2"];4.25;1533112618.32894;15.64;372.64;2.696513449;10;149
11;paravance-72.rennes.grid5000.fr;thermos-root-devel-WordCountTopology-1-6bac4a66-f4e1-4caa-8d00-001604baa2da;["container_1_Consume_and_count_1"];4.25;1533112618.39773;71.77;505.39;2.551203383;10;151
11;paravance-71.rennes.grid5000.fr;thermos-root-devel-WordCountTopology-0-a885f396-4353-41e3-90cc-81548669316d;["topology_master"];4.25;1533112618.39365;3.18;9.02;0.003994842;9;117
12;paravance-72.rennes.grid5000.fr;thermos-root-devel-WordCountTopology-1-6bac4a66-f4e1-4caa-8d00-001604baa2da;["container_1_Consume_and_count_1"];4.25;1533112628.61373;75.27;530.84;2.551203383;10;151
12;paravance-69.rennes.grid5000.fr;thermos-root-devel-WordCountTopology-2-9f1459e6-d219-4e89-90c5-bdd2da6be802;["container_2_Emit_random_words_2"];4.25;1533112628.54668;16.36;391.09;2.696513449;10;149
12;paravance-71.rennes.grid5000.fr;thermos-root-devel-WordCountTopology-0-a885f396-4353-41e3-90cc-81548669316d;["topology_master"];4.25;1533112628.61197;3.31;9.28;0.003994842;9;117
13;paravance-71.rennes.grid5000.fr;thermos-root-devel-WordCountTopology-0-a885f396-4353-41e3-90cc-81548669316d;["topology_master"];4.25;1533112638.7293;3.33;9.3;0.003994842;9;117
13;paravance-69.rennes.grid5000.fr;thermos-root-devel-WordCountTopology-2-9f1459e6-d219-4e89-90c5-bdd2da6be802;["container_2_Emit_random_words_2"];4.25;1533112638.76335;17.0;409.32;2.696513449;10;149
13;paravance-72.rennes.grid5000.fr;thermos-root-devel-WordCountTopology-1-6bac4a66-f4e1-4caa-8d00-001604baa2da;["container_1_Consume_and_count_1"];4.25;1533112638.83065;79.2;556.22;2.551203383;10;151
14;paravance-69.rennes.grid5000.fr;thermos-root-devel-WordCountTopology-2-9f1459e6-d219-4e89-90c5-bdd2da6be802;["container_2_Emit_random_words_2"];4.25;1533112648.87812;17.67;427.29;2.696513449;10;149
14;paravance-72.rennes.grid5000.fr;thermos-root-devel-WordCountTopology-1-6bac4a66-f4e1-4caa-8d00-001604baa2da;["container_1_Consume_and_count_1"];4.25;1533112649.04625;82.76;581.0;2.551203383;10;151
14;paravance-71.rennes.grid5000.fr;thermos-root-devel-WordCountTopology-0-a885f396-4353-41e3-90cc-81548669316d;["topology_master"];4.25;1533112649.0442;3.43;9.46;0.003994842;9;117
15;paravance-69.rennes.grid5000.fr;thermos-root-devel-WordCountTopology-2-9f1459e6-d219-4e89-90c5-bdd2da6be802;["container_2_Emit_random_words_2"];4.25;1533112659.19285;18.38;445.57;2.696513449;10;149
15;paravance-72.rennes.grid5000.fr;thermos-root-devel-WordCountTopology-1-6bac4a66-f4e1-4caa-8d00-001604baa2da;["container_1_Consume_and_count_1"];4.25;1533112659.26144;87.1;607.35;2.551203383;10;151
15;paravance-71.rennes.grid5000.fr;thermos-root-devel-WordCountTopology-0-a885f396-4353-41e3-90cc-81548669316d;["topology_master"];4.25;1533112659.26011;3.48;9.54;0.003994842;9;117
16;paravance-69.rennes.grid5000.fr;thermos-root-devel-WordCountTopology-2-9f1459e6-d219-4e89-90c5-bdd2da6be802;["container_2_Emit_random_words_2"];4.25;1533112669.41099;19.05;463.81;2.696513449;10;149
16;paravance-72.rennes.grid5000.fr;thermos-root-devel-WordCountTopology-1-6bac4a66-f4e1-4caa-8d00-001604baa2da;["container_1_Consume_and_count_1"];4.25;1533112669.47853;90.52;633.39;2.551203383;10;151
16;paravance-71.rennes.grid5000.fr;thermos-root-devel-WordCountTopology-0-a885f396-4353-41e3-90cc-81548669316d;["topology_master"];4.25;1533112669.47675;3.54;9.62;0.003994842;9;117
17;paravance-69.rennes.grid5000.fr;thermos-root-devel-WordCountTopology-2-9f1459e6-d219-4e89-90c5-bdd2da6be802;["container_2_Emit_random_words_2"];4.25;1533112679.62929;19.72;482.01;2.696513449;10;149
17;paravance-72.rennes.grid5000.fr;thermos-root-devel-WordCountTopology-1-6bac4a66-f4e1-4caa-8d00-001604baa2da;["container_1_Consume_and_count_1"];4.25;1533112679.69644;94.03;658.34;2.551203383;10;151
17;paravance-71.rennes.grid5000.fr;thermos-root-devel-WordCountTopology-0-a885f396-4353-41e3-90cc-81548669316d;["topology_master"];4.25;1533112679.69515;3.6;9.7;0.003994842;9;117
18;paravance-69.rennes.grid5000.fr;thermos-root-devel-WordCountTopology-2-9f1459e6-d219-4e89-90c5-bdd2da6be802;["container_2_Emit_random_words_2"];4.25;1533112689.84665;20.44;500.37;2.696513449;10;149
18;paravance-72.rennes.grid5000.fr;thermos-root-devel-WordCountTopology-1-6bac4a66-f4e1-4caa-8d00-001604baa2da;["container_1_Consume_and_count_1"];4.25;1533112689.91477;97.74;683.28;2.551203383;10;151
18;paravance-71.rennes.grid5000.fr;thermos-root-devel-WordCountTopology-0-a885f396-4353-41e3-90cc-81548669316d;["topology_master"];4.25;1533112689.91288;3.72;9.97;0.003994842;9;117
19;paravance-71.rennes.grid5000.fr;thermos-root-devel-WordCountTopology-0-a885f396-4353-41e3-90cc-81548669316d;["topology_master"];4.25;1533112700.12868;3.75;10.0;0.003994842;9;117
19;paravance-69.rennes.grid5000.fr;thermos-root-devel-WordCountTopology-2-9f1459e6-d219-4e89-90c5-bdd2da6be802;["container_2_Emit_random_words_2"];4.25;1533112700.06395;21.08;518.61;2.696513449;10;149
19;paravance-72.rennes.grid5000.fr;thermos-root-devel-WordCountTopology-1-6bac4a66-f4e1-4caa-8d00-001604baa2da;["container_1_Consume_and_count_1"];4.25;1533112700.13257;101.05;706.26;2.551203383;10;151
20;paravance-72.rennes.grid5000.fr;thermos-root-devel-WordCountTopology-1-6bac4a66-f4e1-4caa-8d00-001604baa2da;["container_1_Consume_and_count_1"];4.25;1533112710.34612;105.0;731.95;2.551203383;10;151
20;paravance-69.rennes.grid5000.fr;thermos-root-devel-WordCountTopology-2-9f1459e6-d219-4e89-90c5-bdd2da6be802;["container_2_Emit_random_words_2"];4.25;1533112710.27646;21.77;536.97;2.696513449;10;149
20;paravance-71.rennes.grid5000.fr;thermos-root-devel-WordCountTopology-0-a885f396-4353-41e3-90cc-81548669316d;["topology_master"];4.25;1533112710.34356;3.84;10.13;0.003994842;9;117
21;paravance-72.rennes.grid5000.fr;thermos-root-devel-WordCountTopology-1-6bac4a66-f4e1-4caa-8d00-001604baa2da;["container_1_Consume_and_count_1"];4.25;1533112720.56143;108.64;756.63;2.551203383;10;151
21;paravance-69.rennes.grid5000.fr;thermos-root-devel-WordCountTopology-2-9f1459e6-d219-4e89-90c5-bdd2da6be802;["container_2_Emit_random_words_2"];4.25;1533112720.4934;22.45;555.27;2.696513449;10;149
21;paravance-71.rennes.grid5000.fr;thermos-root-devel-WordCountTopology-0-a885f396-4353-41e3-90cc-81548669316d;["topology_master"];4.25;1533112720.55866;3.9;10.2;0.003994842;9;117
22;paravance-72.rennes.grid5000.fr;thermos-root-devel-WordCountTopology-1-6bac4a66-f4e1-4caa-8d00-001604baa2da;["container_1_Consume_and_count_1"];4.25;1533112730.77914;112.54;782.79;2.551203383;10;151
22;paravance-69.rennes.grid5000.fr;thermos-root-devel-WordCountTopology-2-9f1459e6-d219-4e89-90c5-bdd2da6be802;["container_2_Emit_random_words_2"];4.25;1533112730.71092;23.09;573.38;2.696513449;10;149
22;paravance-71.rennes.grid5000.fr;thermos-root-devel-WordCountTopology-0-a885f396-4353-41e3-90cc-81548669316d;["topology_master"];4.25;1533112730.77709;3.96;10.28;0.003994842;9;117
23;paravance-69.rennes.grid5000.fr;thermos-root-devel-WordCountTopology-2-9f1459e6-d219-4e89-90c5-bdd2da6be802;["container_2_Emit_random_words_2"];4.25;1533112740.92484;23.76;591.7;2.696513449;10;149
23;paravance-71.rennes.grid5000.fr;thermos-root-devel-WordCountTopology-0-a885f396-4353-41e3-90cc-81548669316d;["topology_master"];4.25;1533112740.99012;4.02;10.35;0.003994842;9;117
23;paravance-72.rennes.grid5000.fr;thermos-root-devel-WordCountTopology-1-6bac4a66-f4e1-4caa-8d00-001604baa2da;["container_1_Consume_and_count_1"];4.25;1533112740.99346;116.37;808.14;2.551203383;10;151
24;paravance-72.rennes.grid5000.fr;thermos-root-devel-WordCountTopology-1-6bac4a66-f4e1-4caa-8d00-001604baa2da;["container_1_Consume_and_count_1"];4.25;1533112751.21008;119.86;833.24;2.551203383;10;151
24;paravance-71.rennes.grid5000.fr;thermos-root-devel-WordCountTopology-0-a885f396-4353-41e3-90cc-81548669316d;["topology_master"];4.25;1533112751.20723;4.13;10.52;0.003994842;9;117
24;paravance-69.rennes.grid5000.fr;thermos-root-devel-WordCountTopology-2-9f1459e6-d219-4e89-90c5-bdd2da6be802;["container_2_Emit_random_words_2"];4.25;1533112751.14202;24.46;609.93;2.696513449;10;149
25;paravance-71.rennes.grid5000.fr;thermos-root-devel-WordCountTopology-0-a885f396-4353-41e3-90cc-81548669316d;["topology_master"];4.25;1533112761.42393;4.16;10.55;0.003994842;9;117
25;paravance-72.rennes.grid5000.fr;thermos-root-devel-WordCountTopology-1-6bac4a66-f4e1-4caa-8d00-001604baa2da;["container_1_Consume_and_count_1"];4.25;1533112761.42718;123.06;857.76;2.551203383;10;151
25;paravance-69.rennes.grid5000.fr;thermos-root-devel-WordCountTopology-2-9f1459e6-d219-4e89-90c5-bdd2da6be802;["container_2_Emit_random_words_2"];4.25;1533112761.3586;25.09;628.25;2.696513449;10;149
26;paravance-69.rennes.grid5000.fr;thermos-root-devel-WordCountTopology-2-9f1459e6-d219-4e89-90c5-bdd2da6be802;["container_2_Emit_random_words_2"];4.25;1533112771.57621;25.79;646.87;2.696513449;10;149
26;paravance-72.rennes.grid5000.fr;thermos-root-devel-WordCountTopology-1-6bac4a66-f4e1-4caa-8d00-001604baa2da;["container_1_Consume_and_count_1"];4.25;1533112771.64466;127.01;884.09;2.551203383;10;151
26;paravance-71.rennes.grid5000.fr;thermos-root-devel-WordCountTopology-0-a885f396-4353-41e3-90cc-81548669316d;["topology_master"];4.25;1533112771.6419;4.25;10.67;0.003994842;9;117
27;paravance-71.rennes.grid5000.fr;thermos-root-devel-WordCountTopology-0-a885f396-4353-41e3-90cc-81548669316d;["topology_master"];4.25;1533112781.85849;4.31;10.75;0.003994842;9;117
27;paravance-69.rennes.grid5000.fr;thermos-root-devel-WordCountTopology-2-9f1459e6-d219-4e89-90c5-bdd2da6be802;["container_2_Emit_random_words_2"];4.25;1533112781.79339;26.44;665.52;2.696513449;10;149
27;paravance-72.rennes.grid5000.fr;thermos-root-devel-WordCountTopology-1-6bac4a66-f4e1-4caa-8d00-001604baa2da;["container_1_Consume_and_count_1"];4.25;1533112781.86298;130.75;909.06;2.551203383;10;151
28;paravance-69.rennes.grid5000.fr;thermos-root-devel-WordCountTopology-2-9f1459e6-d219-4e89-90c5-bdd2da6be802;["container_2_Emit_random_words_2"];4.25;1533112792.0136;27.11;684.02;2.696513449;10;149
28;paravance-72.rennes.grid5000.fr;thermos-root-devel-WordCountTopology-1-6bac4a66-f4e1-4caa-8d00-001604baa2da;["container_1_Consume_and_count_1"];4.25;1533112792.08221;134.82;934.86;2.551203383;10;151
28;paravance-71.rennes.grid5000.fr;thermos-root-devel-WordCountTopology-0-a885f396-4353-41e3-90cc-81548669316d;["topology_master"];4.25;1533112792.0797;4.37;10.83;0.003994842;9;117
29;paravance-72.rennes.grid5000.fr;thermos-root-devel-WordCountTopology-1-6bac4a66-f4e1-4caa-8d00-001604baa2da;["container_1_Consume_and_count_1"];4.25;1533112802.30057;138.22;960.23;2.551203383;10;151
29;paravance-71.rennes.grid5000.fr;thermos-root-devel-WordCountTopology-0-a885f396-4353-41e3-90cc-81548669316d;["topology_master"];4.25;1533112802.2983;4.49;10.98;0.003994842;9;117
29;paravance-69.rennes.grid5000.fr;thermos-root-devel-WordCountTopology-2-9f1459e6-d219-4e89-90c5-bdd2da6be802;["container_2_Emit_random_words_2"];4.25;1533112802.23201;27.8;702.55;2.696513449;10;149
30;paravance-69.rennes.grid5000.fr;thermos-root-devel-WordCountTopology-2-9f1459e6-d219-4e89-90c5-bdd2da6be802;["container_2_Emit_random_words_2"];4.25;1533112812.44969;28.45;720.9;2.696513449;10;149
30;paravance-72.rennes.grid5000.fr;thermos-root-devel-WordCountTopology-1-6bac4a66-f4e1-4caa-8d00-001604baa2da;["container_1_Consume_and_count_1"];4.25;1533112812.51914;141.64;984.76;2.551203383;10;151
30;paravance-71.rennes.grid5000.fr;thermos-root-devel-WordCountTopology-0-a885f396-4353-41e3-90cc-81548669316d;["topology_master"];4.25;1533112812.51518;4.55;11.12;0.003994842;9;117
31;paravance-71.rennes.grid5000.fr;thermos-root-devel-WordCountTopology-0-a885f396-4353-41e3-90cc-81548669316d;["topology_master"];4.25;1533112822.73314;4.62;11.2;0.003994842;9;117
31;paravance-69.rennes.grid5000.fr;thermos-root-devel-WordCountTopology-2-9f1459e6-d219-4e89-90c5-bdd2da6be802;["container_2_Emit_random_words_2"];4.25;1533112822.66869;29.09;739.12;2.696513449;10;149
31;paravance-72.rennes.grid5000.fr;thermos-root-devel-WordCountTopology-1-6bac4a66-f4e1-4caa-8d00-001604baa2da;["container_1_Consume_and_count_1"];4.25;1533112822.74331;145.17;1009.45;2.551203383;10;151
32;paravance-69.rennes.grid5000.fr;thermos-root-devel-WordCountTopology-2-9f1459e6-d219-4e89-90c5-bdd2da6be802;["container_2_Emit_random_words_2"];4.25;1533112832.88823;29.74;757.53;2.696513449;10;149
32;paravance-71.rennes.grid5000.fr;thermos-root-devel-WordCountTopology-0-a885f396-4353-41e3-90cc-81548669316d;["topology_master"];4.25;1533112832.9538;4.67;11.27;0.003994842;9;117
32;paravance-72.rennes.grid5000.fr;thermos-root-devel-WordCountTopology-1-6bac4a66-f4e1-4caa-8d00-001604baa2da;["container_1_Consume_and_count_1"];4.25;1533112832.9577;148.52;1033.85;2.551203383;10;151
33;paravance-71.rennes.grid5000.fr;thermos-root-devel-WordCountTopology-0-a885f396-4353-41e3-90cc-81548669316d;["topology_master"];4.25;1533112843.17136;4.76;11.39;0.003994842;9;117
33;paravance-69.rennes.grid5000.fr;thermos-root-devel-WordCountTopology-2-9f1459e6-d219-4e89-90c5-bdd2da6be802;["container_2_Emit_random_words_2"];4.25;1533112843.10714;30.45;775.79;2.696513449;10;149
33;paravance-72.rennes.grid5000.fr;thermos-root-devel-WordCountTopology-1-6bac4a66-f4e1-4caa-8d00-001604baa2da;["container_1_Consume_and_count_1"];4.25;1533112843.17449;152.22;1059.15;2.551203383;10;151
34;paravance-69.rennes.grid5000.fr;thermos-root-devel-WordCountTopology-2-9f1459e6-d219-4e89-90c5-bdd2da6be802;["container_2_Emit_random_words_2"];4.25;1533112853.32135;31.11;794.25;2.696513449;10;149
34;paravance-72.rennes.grid5000.fr;thermos-root-devel-WordCountTopology-1-6bac4a66-f4e1-4caa-8d00-001604baa2da;["container_1_Consume_and_count_1"];4.25;1533112853.39136;155.98;1084.56;2.551203383;10;151
34;paravance-71.rennes.grid5000.fr;thermos-root-devel-WordCountTopology-0-a885f396-4353-41e3-90cc-81548669316d;["topology_master"];4.25;1533112853.3871;4.82;11.46;0.003994842;9;117
35;paravance-69.rennes.grid5000.fr;thermos-root-devel-WordCountTopology-2-9f1459e6-d219-4e89-90c5-bdd2da6be802;["container_2_Emit_random_words_2"];4.25;1533112863.53539;31.75;811.94;2.696513449;10;149
35;paravance-72.rennes.grid5000.fr;thermos-root-devel-WordCountTopology-1-6bac4a66-f4e1-4caa-8d00-001604baa2da;["container_1_Consume_and_count_1"];4.25;1533112863.60451;159.77;1108.74;2.551203383;10;151
35;paravance-71.rennes.grid5000.fr;thermos-root-devel-WordCountTopology-0-a885f396-4353-41e3-90cc-81548669316d;["topology_master"];4.25;1533112863.6026;4.9;11.55;0.003994842;9;117
36;paravance-69.rennes.grid5000.fr;thermos-root-devel-WordCountTopology-2-9f1459e6-d219-4e89-90c5-bdd2da6be802;["container_2_Emit_random_words_2"];4.25;1533112873.65205;32.4;829.93;2.696513449;10;149
36;paravance-72.rennes.grid5000.fr;thermos-root-devel-WordCountTopology-1-6bac4a66-f4e1-4caa-8d00-001604baa2da;["container_1_Consume_and_count_1"];4.25;1533112873.82345;163.36;1134.14;2.551203383;10;151
36;paravance-71.rennes.grid5000.fr;thermos-root-devel-WordCountTopology-0-a885f396-4353-41e3-90cc-81548669316d;["topology_master"];4.25;1533112873.82191;4.96;11.68;0.003994842;9;117
37;paravance-72.rennes.grid5000.fr;thermos-root-devel-WordCountTopology-1-6bac4a66-f4e1-4caa-8d00-001604baa2da;["container_1_Consume_and_count_1"];4.25;1533112883.93892;166.76;1158.76;2.551203383;10;151
37;paravance-69.rennes.grid5000.fr;thermos-root-devel-WordCountTopology-2-9f1459e6-d219-4e89-90c5-bdd2da6be802;["container_2_Emit_random_words_2"];4.25;1533112883.97117;33.06;848.16;2.696513449;10;149
37;paravance-71.rennes.grid5000.fr;thermos-root-devel-WordCountTopology-0-a885f396-4353-41e3-90cc-81548669316d;["topology_master"];4.25;1533112884.03583;5.05;11.8;0.003994842;9;117
38;paravance-69.rennes.grid5000.fr;thermos-root-devel-WordCountTopology-2-9f1459e6-d219-4e89-90c5-bdd2da6be802;["container_2_Emit_random_words_2"];4.25;1533112894.18678;33.75;866.36;2.696513449;10;149
38;paravance-72.rennes.grid5000.fr;thermos-root-devel-WordCountTopology-1-6bac4a66-f4e1-4caa-8d00-001604baa2da;["container_1_Consume_and_count_1"];4.25;1533112894.25474;170.34;1183.88;2.551203383;10;151
38;paravance-71.rennes.grid5000.fr;thermos-root-devel-WordCountTopology-0-a885f396-4353-41e3-90cc-81548669316d;["topology_master"];4.25;1533112894.25329;5.08;11.83;0.003994842;9;117
39;paravance-69.rennes.grid5000.fr;thermos-root-devel-WordCountTopology-2-9f1459e6-d219-4e89-90c5-bdd2da6be802;["container_2_Emit_random_words_2"];4.25;1533112904.40217;34.44;884.29;2.696513449;10;149
39;paravance-71.rennes.grid5000.fr;thermos-root-devel-WordCountTopology-0-a885f396-4353-41e3-90cc-81548669316d;["topology_master"];4.25;1533112904.46858;5.17;11.95;0.003994842;9;117
39;paravance-72.rennes.grid5000.fr;thermos-root-devel-WordCountTopology-1-6bac4a66-f4e1-4caa-8d00-001604baa2da;["container_1_Consume_and_count_1"];4.25;1533112904.47209;173.72;1207.93;2.551203383;10;151
40;paravance-69.rennes.grid5000.fr;thermos-root-devel-WordCountTopology-2-9f1459e6-d219-4e89-90c5-bdd2da6be802;["container_2_Emit_random_words_2"];4.25;1533112914.61953;35.11;902.56;2.696513449;10;149
40;paravance-72.rennes.grid5000.fr;thermos-root-devel-WordCountTopology-1-6bac4a66-f4e1-4caa-8d00-001604baa2da;["container_1_Consume_and_count_1"];4.25;1533112914.68934;177.37;1233.54;2.551203383;10;151
40;paravance-71.rennes.grid5000.fr;thermos-root-devel-WordCountTopology-0-a885f396-4353-41e3-90cc-81548669316d;["topology_master"];4.25;1533112914.68631;5.23;12.02;0.003994842;9;117
41;paravance-69.rennes.grid5000.fr;thermos-root-devel-WordCountTopology-2-9f1459e6-d219-4e89-90c5-bdd2da6be802;["container_2_Emit_random_words_2"];4.25;1533112924.83853;35.78;920.87;2.696513449;10;149
41;paravance-71.rennes.grid5000.fr;thermos-root-devel-WordCountTopology-0-a885f396-4353-41e3-90cc-81548669316d;["topology_master"];4.25;1533112924.90406;5.3;12.11;0.003994842;9;117
41;paravance-72.rennes.grid5000.fr;thermos-root-devel-WordCountTopology-1-6bac4a66-f4e1-4caa-8d00-001604baa2da;["container_1_Consume_and_count_1"];4.25;1533112924.90715;181.05;1258.48;2.551203383;10;151
42;paravance-71.rennes.grid5000.fr;thermos-root-devel-WordCountTopology-0-a885f396-4353-41e3-90cc-81548669316d;["topology_master"];4.25;1533112935.12255;5.37;12.24;0.003994842;9;117
42;paravance-69.rennes.grid5000.fr;thermos-root-devel-WordCountTopology-2-9f1459e6-d219-4e89-90c5-bdd2da6be802;["container_2_Emit_random_words_2"];4.25;1533112935.057;36.44;939.12;2.696513449;10;149
42;paravance-72.rennes.grid5000.fr;thermos-root-devel-WordCountTopology-1-6bac4a66-f4e1-4caa-8d00-001604baa2da;["container_1_Consume_and_count_1"];4.25;1533112935.12697;184.94;1284.2;2.551203383;10;151
43;paravance-72.rennes.grid5000.fr;thermos-root-devel-WordCountTopology-1-6bac4a66-f4e1-4caa-8d00-001604baa2da;["container_1_Consume_and_count_1"];4.25;1533112945.3441;188.76;1308.96;2.551203383;10;151
43;paravance-71.rennes.grid5000.fr;thermos-root-devel-WordCountTopology-0-a885f396-4353-41e3-90cc-81548669316d;["topology_master"];4.25;1533112945.34141;5.46;12.36;0.003994842;9;117
43;paravance-69.rennes.grid5000.fr;thermos-root-devel-WordCountTopology-2-9f1459e6-d219-4e89-90c5-bdd2da6be802;["container_2_Emit_random_words_2"];4.25;1533112945.27845;37.16;957.3;2.696513449;10;149
44;paravance-71.rennes.grid5000.fr;thermos-root-devel-WordCountTopology-0-a885f396-4353-41e3-90cc-81548669316d;["topology_master"];4.25;1533112955.55913;5.49;12.41;0.003994842;9;117
44;paravance-72.rennes.grid5000.fr;thermos-root-devel-WordCountTopology-1-6bac4a66-f4e1-4caa-8d00-001604baa2da;["container_1_Consume_and_count_1"];4.25;1533112955.56421;192.33;1333.98;2.551203383;10;151
44;paravance-69.rennes.grid5000.fr;thermos-root-devel-WordCountTopology-2-9f1459e6-d219-4e89-90c5-bdd2da6be802;["container_2_Emit_random_words_2"];4.25;1533112955.4938;37.8;975.39;2.696513449;10;149
45;paravance-72.rennes.grid5000.fr;thermos-root-devel-WordCountTopology-1-6bac4a66-f4e1-4caa-8d00-001604baa2da;["container_1_Consume_and_count_1"];4.25;1533112965.77965;196.38;1360.13;2.551203383;10;151
45;paravance-69.rennes.grid5000.fr;thermos-root-devel-WordCountTopology-2-9f1459e6-d219-4e89-90c5-bdd2da6be802;["container_2_Emit_random_words_2"];4.25;1533112965.71092;38.5;993.52;2.696513449;10;149
45;paravance-71.rennes.grid5000.fr;thermos-root-devel-WordCountTopology-0-a885f396-4353-41e3-90cc-81548669316d;["topology_master"];4.25;1533112965.77682;5.58;12.53;0.003994842;9;117
46;paravance-69.rennes.grid5000.fr;thermos-root-devel-WordCountTopology-2-9f1459e6-d219-4e89-90c5-bdd2da6be802;["container_2_Emit_random_words_2"];4.25;1533112975.92705;39.15;1011.61;2.696513449;10;149
46;paravance-72.rennes.grid5000.fr;thermos-root-devel-WordCountTopology-1-6bac4a66-f4e1-4caa-8d00-001604baa2da;["container_1_Consume_and_count_1"];4.25;1533112975.99613;200.17;1384.87;2.551203383;10;151
46;paravance-71.rennes.grid5000.fr;thermos-root-devel-WordCountTopology-0-a885f396-4353-41e3-90cc-81548669316d;["topology_master"];4.25;1533112975.99389;5.63;12.6;0.003994842;9;117
47;paravance-69.rennes.grid5000.fr;thermos-root-devel-WordCountTopology-2-9f1459e6-d219-4e89-90c5-bdd2da6be802;["container_2_Emit_random_words_2"];4.25;1533112986.14521;39.83;1029.61;2.696513449;10;149
47;paravance-72.rennes.grid5000.fr;thermos-root-devel-WordCountTopology-1-6bac4a66-f4e1-4caa-8d00-001604baa2da;["container_1_Consume_and_count_1"];4.25;1533112986.21521;204.09;1410.29;2.551203383;10;151
47;paravance-71.rennes.grid5000.fr;thermos-root-devel-WordCountTopology-0-a885f396-4353-41e3-90cc-81548669316d;["topology_master"];4.25;1533112986.21214;5.7;12.69;0.003994842;9;117
48;paravance-69.rennes.grid5000.fr;thermos-root-devel-WordCountTopology-2-9f1459e6-d219-4e89-90c5-bdd2da6be802;["container_2_Emit_random_words_2"];4.25;1533112996.36264;40.49;1047.72;2.696513449;10;149
48;paravance-72.rennes.grid5000.fr;thermos-root-devel-WordCountTopology-1-6bac4a66-f4e1-4caa-8d00-001604baa2da;["container_1_Consume_and_count_1"];4.25;1533112996.43134;207.81;1435.38;2.551203383;10;151
48;paravance-71.rennes.grid5000.fr;thermos-root-devel-WordCountTopology-0-a885f396-4353-41e3-90cc-81548669316d;["topology_master"];4.25;1533112996.42776;5.76;12.8;0.003994842;9;117
49;paravance-71.rennes.grid5000.fr;thermos-root-devel-WordCountTopology-0-a885f396-4353-41e3-90cc-81548669316d;["topology_master"];4.25;1533113006.64516;5.85;12.93;0.003994842;9;117
49;paravance-69.rennes.grid5000.fr;thermos-root-devel-WordCountTopology-2-9f1459e6-d219-4e89-90c5-bdd2da6be802;["container_2_Emit_random_words_2"];4.25;1533113006.5793;41.19;1065.86;2.696513449;10;149
49;paravance-72.rennes.grid5000.fr;thermos-root-devel-WordCountTopology-1-6bac4a66-f4e1-4caa-8d00-001604baa2da;["container_1_Consume_and_count_1"];4.25;1533113006.64984;211.56;1460.39;2.551203383;10;151
50;paravance-69.rennes.grid5000.fr;thermos-root-devel-WordCountTopology-2-9f1459e6-d219-4e89-90c5-bdd2da6be802;["container_2_Emit_random_words_2"];4.25;1533113016.79644;41.8;1083.91;2.696513449;10;149
50;paravance-72.rennes.grid5000.fr;thermos-root-devel-WordCountTopology-1-6bac4a66-f4e1-4caa-8d00-001604baa2da;["container_1_Consume_and_count_1"];4.25;1533113016.8665;215.32;1485.81;2.551203383;10;151
50;paravance-71.rennes.grid5000.fr;thermos-root-devel-WordCountTopology-0-a885f396-4353-41e3-90cc-81548669316d;["topology_master"];4.25;1533113016.86296;5.88;12.96;0.003994842;9;117
51;paravance-69.rennes.grid5000.fr;thermos-root-devel-WordCountTopology-2-9f1459e6-d219-4e89-90c5-bdd2da6be802;["container_2_Emit_random_words_2"];4.25;1533113027.01264;42.48;1102.12;2.696513449;10;149
51;paravance-72.rennes.grid5000.fr;thermos-root-devel-WordCountTopology-1-6bac4a66-f4e1-4caa-8d00-001604baa2da;["container_1_Consume_and_count_1"];4.25;1533113027.08134;219.03;1510.99;2.551203383;10;151
51;paravance-71.rennes.grid5000.fr;thermos-root-devel-WordCountTopology-0-a885f396-4353-41e3-90cc-81548669316d;["topology_master"];4.25;1533113027.07976;5.97;13.09;0.003994842;9;117
52;paravance-69.rennes.grid5000.fr;thermos-root-devel-WordCountTopology-2-9f1459e6-d219-4e89-90c5-bdd2da6be802;["container_2_Emit_random_words_2"];4.25;1533113037.23016;43.13;1120.19;2.696513449;10;149
52;paravance-71.rennes.grid5000.fr;thermos-root-devel-WordCountTopology-0-a885f396-4353-41e3-90cc-81548669316d;["topology_master"];4.25;1533113037.29541;6.03;13.16;0.003994842;9;117
52;paravance-72.rennes.grid5000.fr;thermos-root-devel-WordCountTopology-1-6bac4a66-f4e1-4caa-8d00-001604baa2da;["container_1_Consume_and_count_1"];4.25;1533113037.30011;223.06;1538.22;2.551203383;10;151
53;paravance-69.rennes.grid5000.fr;thermos-root-devel-WordCountTopology-2-9f1459e6-d219-4e89-90c5-bdd2da6be802;["container_2_Emit_random_words_2"];4.25;1533113047.44708;43.75;1137.81;2.696513449;10;149
53;paravance-72.rennes.grid5000.fr;thermos-root-devel-WordCountTopology-1-6bac4a66-f4e1-4caa-8d00-001604baa2da;["container_1_Consume_and_count_1"];4.25;1533113047.51626;227.0;1564.05;2.551203383;10;151
53;paravance-71.rennes.grid5000.fr;thermos-root-devel-WordCountTopology-0-a885f396-4353-41e3-90cc-81548669316d;["topology_master"];4.25;1533113047.51437;6.1;13.29;0.003994842;9;117
54;paravance-69.rennes.grid5000.fr;thermos-root-devel-WordCountTopology-2-9f1459e6-d219-4e89-90c5-bdd2da6be802;["container_2_Emit_random_words_2"];4.25;1533113057.66617;44.41;1155.93;2.696513449;10;149
54;paravance-72.rennes.grid5000.fr;thermos-root-devel-WordCountTopology-1-6bac4a66-f4e1-4caa-8d00-001604baa2da;["container_1_Consume_and_count_1"];4.25;1533113057.73598;231.14;1590.22;2.551203383;10;151
54;paravance-71.rennes.grid5000.fr;thermos-root-devel-WordCountTopology-0-a885f396-4353-41e3-90cc-81548669316d;["topology_master"];4.25;1533113057.73263;6.16;13.36;0.003994842;9;117
55;paravance-72.rennes.grid5000.fr;thermos-root-devel-WordCountTopology-1-6bac4a66-f4e1-4caa-8d00-001604baa2da;["container_1_Consume_and_count_1"];4.25;1533113067.95369;235.67;1616.3;2.551203383;10;151
55;paravance-69.rennes.grid5000.fr;thermos-root-devel-WordCountTopology-2-9f1459e6-d219-4e89-90c5-bdd2da6be802;["container_2_Emit_random_words_2"];4.25;1533113067.88502;45.1;1174.1;2.696513449;10;149
55;paravance-71.rennes.grid5000.fr;thermos-root-devel-WordCountTopology-0-a885f396-4353-41e3-90cc-81548669316d;["topology_master"];4.25;1533113067.95153;6.24;13.48;0.003994842;9;117
56;paravance-72.rennes.grid5000.fr;thermos-root-devel-WordCountTopology-1-6bac4a66-f4e1-4caa-8d00-001604baa2da;["container_1_Consume_and_count_1"];4.25;1533113078.16845;239.78;1642.88;2.551203383;10;151
56;paravance-69.rennes.grid5000.fr;thermos-root-devel-WordCountTopology-2-9f1459e6-d219-4e89-90c5-bdd2da6be802;["container_2_Emit_random_words_2"];4.25;1533113078.09926;45.73;1192.13;2.696513449;10;149
56;paravance-71.rennes.grid5000.fr;thermos-root-devel-WordCountTopology-0-a885f396-4353-41e3-90cc-81548669316d;["topology_master"];4.25;1533113078.16546;6.27;13.51;0.003994842;9;117
57;paravance-69.rennes.grid5000.fr;thermos-root-devel-WordCountTopology-2-9f1459e6-d219-4e89-90c5-bdd2da6be802;["container_2_Emit_random_words_2"];4.25;1533113088.31457;46.43;1210.38;2.696513449;10;149
57;paravance-72.rennes.grid5000.fr;thermos-root-devel-WordCountTopology-1-6bac4a66-f4e1-4caa-8d00-001604baa2da;["container_1_Consume_and_count_1"];4.25;1533113088.38596;243.78;1669.67;2.551203383;10;151
57;paravance-71.rennes.grid5000.fr;thermos-root-devel-WordCountTopology-0-a885f396-4353-41e3-90cc-81548669316d;["topology_master"];4.25;1533113088.38218;6.36;13.64;0.003994842;9;117
58;paravance-72.rennes.grid5000.fr;thermos-root-devel-WordCountTopology-1-6bac4a66-f4e1-4caa-8d00-001604baa2da;["container_1_Consume_and_count_1"];4.25;1533113098.59994;248.19;1696.0;2.551203383;10;151
58;paravance-71.rennes.grid5000.fr;thermos-root-devel-WordCountTopology-0-a885f396-4353-41e3-90cc-81548669316d;["topology_master"];4.25;1533113098.59684;6.42;13.71;0.003994842;9;117
58;paravance-69.rennes.grid5000.fr;thermos-root-devel-WordCountTopology-2-9f1459e6-d219-4e89-90c5-bdd2da6be802;["container_2_Emit_random_words_2"];4.25;1533113098.53112;47.09;1228.51;2.696513449;10;149
59;paravance-72.rennes.grid5000.fr;thermos-root-devel-WordCountTopology-1-6bac4a66-f4e1-4caa-8d00-001604baa2da;["container_1_Consume_and_count_1"];4.25;1533113108.81768;252.1;1721.57;2.551203383;10;151
59;paravance-71.rennes.grid5000.fr;thermos-root-devel-WordCountTopology-0-a885f396-4353-41e3-90cc-81548669316d;["topology_master"];4.25;1533113108.81393;6.49;13.83;0.003994842;9;117
59;paravance-69.rennes.grid5000.fr;thermos-root-devel-WordCountTopology-2-9f1459e6-d219-4e89-90c5-bdd2da6be802;["container_2_Emit_random_words_2"];4.25;1533113108.74855;47.74;1246.55;2.696513449;10;149
60;paravance-72.rennes.grid5000.fr;thermos-root-devel-WordCountTopology-1-6bac4a66-f4e1-4caa-8d00-001604baa2da;["container_1_Consume_and_count_1"];4.25;1533113119.03488;256.01;1746.81;2.551203383;10;151
60;paravance-69.rennes.grid5000.fr;thermos-root-devel-WordCountTopology-2-9f1459e6-d219-4e89-90c5-bdd2da6be802;["container_2_Emit_random_words_2"];4.25;1533113118.96547;48.37;1264.56;2.696513449;10;149
60;paravance-71.rennes.grid5000.fr;thermos-root-devel-WordCountTopology-0-a885f396-4353-41e3-90cc-81548669316d;["topology_master"];4.25;1533113119.03255;6.55;13.9;0.003994842;9;117
