{
  "status": "success",
  "executiontime": 0.0001888275146484375,
  "message": "",
  "result": {
    "bolts": {
      "Consume_and_count": [
        "container_1_Consume_and_count_1"
      ]
    },
    "instances": {
      "container_2_Emit_random_words_2": {
        "stmgrId": "stmgr-2",
        "logfile": "http://paravance-70.rennes.grid5000.fr:31948/file/log-files/container_2_Emit_random_words_2.log.0",
        "id": "container_2_Emit_random_words_2",
        "name": "Emit_random_words"
      },
      "container_1_Consume_and_count_1": {
        "stmgrId": "stmgr-1",
        "logfile": "http://paravance-71.rennes.grid5000.fr:31777/file/log-files/container_1_Consume_and_count_1.log.0",
        "id": "container_1_Consume_and_count_1",
        "name": "Consume_and_count"
      }
    },
    "instance_groups": {
      "container_1_Consume_and": [
        "container_1_Consume_and_count_1"
      ],
      "container_2_Emit_random": [
        "container_2_Emit_random_words_2"
      ]
    },
    "spouts": {
      "Emit_random_words": [
        "container_2_Emit_random_words_2"
      ]
    },
    "config": {
      "topology.message.timeout.secs": "30",
      "topology.team.environment": "devel",
      "topology.serializer.classname": "org.apache.heron.streamlet.impl.KryoSerializer",
      "topology.team.name": "root",
      "topology.debug": "false",
      "topology.max.spout.pending": "100",
      "topology.container.padding.percentage": "0",
      "topology.enable.message.timeouts": "true",
      "topology.component.parallelism": "1",
      "topology.name": "WordCountTopology",
      "topology.stmgrs": "2",
      "topology.reliability.mode": "ATMOST_ONCE"
    },
    "stmgrs": {
      "stmgr-1": {
        "cwd": "/var/lib/mesos/slaves/2246368e-55ad-4cbb-b80b-d482bf654740-S0/frameworks/75deb08a-eb1b-415c-8b2c-e922be5f7d98-0000/executors/thermos-root-devel-WordCountTopology-1-906df7cd-b780-4d4d-a92d-e7cb4805cb21/runs/6dffcd8c-a1a1-457b-babc-632babca11dc/sandbox",
        "host": "paravance-71.rennes.grid5000.fr",
        "joburl": "http://paravance-71.rennes.grid5000.fr:31777/browse/",
        "shell_port": 31777,
        "logfiles": "http://paravance-71.rennes.grid5000.fr:31777/browse/log-files",
        "pid": 2743,
        "id": "stmgr-1",
        "instance_ids": [
          "container_1_Consume_and_count_1"
        ],
        "port": 31704
      },
      "stmgr-2": {
        "cwd": "/var/lib/mesos/slaves/2246368e-55ad-4cbb-b80b-d482bf654740-S2/frameworks/75deb08a-eb1b-415c-8b2c-e922be5f7d98-0000/executors/thermos-root-devel-WordCountTopology-2-e60a4844-e0d7-4602-896b-62195d65787f/runs/bfb3a85a-c4c8-4fb1-bcae-c540d8a4bcf5/sandbox",
        "host": "paravance-70.rennes.grid5000.fr",
        "joburl": "http://paravance-70.rennes.grid5000.fr:31948/browse/",
        "shell_port": 31948,
        "logfiles": "http://paravance-70.rennes.grid5000.fr:31948/browse/log-files",
        "pid": 2854,
        "id": "stmgr-2",
        "instance_ids": [
          "container_2_Emit_random_words_2"
        ],
        "port": 31816
      }
    }
  },
  "tracker_version": "0.17.8-61-gd7c8c62"
}