mesure_id;time;backpresure
0;1533759840;9581.0
1;1533759780;7461.0
2;1533759720;8738.0
3;1533760140;4508.0
4;1533759660;6530.0
5;1533760080;9030.0
6;1533760200;9077.0
7;1533760020;9408.0
8;1533759960;7449.0
9;1533759900;9322.0
