mesure_id;slave_id;executor_id;heron_instances;cpus_limit;timestamp_B;cpus_system_time_secs_B;cpus_user_time_secs_B;cpus_throttled_time_secs_B;processes;threads
0;paravance-70.rennes.grid5000.fr;thermos-root-devel-WordCountTopology-0-e1650698-c90d-447a-93bd-42a8cd7f3676;["topology_master"];5.25;1533759630.88356;2.53;8.19;0.0;9;117
0;paravance-72.rennes.grid5000.fr;thermos-root-devel-WordCountTopology-2-89dcf4b1-68c7-47b2-92ed-59f1f6117b98;["container_2_Emit_random_words_2"];5.25;1533759630.82492;26.21;227.47;0.754717456;10;149
0;paravance-69.rennes.grid5000.fr;thermos-root-devel-WordCountTopology-1-d75f682c-9f3c-43c4-b5fa-19603ff84ff8;["container_1_Consume_and_count_1"];5.25;1533759630.75498;40.39;261.32;0.128358375;10;149
1;paravance-69.rennes.grid5000.fr;thermos-root-devel-WordCountTopology-1-d75f682c-9f3c-43c4-b5fa-19603ff84ff8;["container_1_Consume_and_count_1"];5.25;1533759640.96384;43.67;282.69;0.128358375;10;149
1;paravance-72.rennes.grid5000.fr;thermos-root-devel-WordCountTopology-2-89dcf4b1-68c7-47b2-92ed-59f1f6117b98;["container_2_Emit_random_words_2"];5.25;1533759641.03567;28.21;245.21;0.754717456;10;149
1;paravance-70.rennes.grid5000.fr;thermos-root-devel-WordCountTopology-0-e1650698-c90d-447a-93bd-42a8cd7f3676;["topology_master"];5.25;1533759641.09545;2.63;8.33;0.0;9;117
2;paravance-69.rennes.grid5000.fr;thermos-root-devel-WordCountTopology-1-d75f682c-9f3c-43c4-b5fa-19603ff84ff8;["container_1_Consume_and_count_1"];5.25;1533759651.17372;46.72;303.26;0.128358375;10;149
2;paravance-70.rennes.grid5000.fr;thermos-root-devel-WordCountTopology-0-e1650698-c90d-447a-93bd-42a8cd7f3676;["topology_master"];5.25;1533759651.30337;2.65;8.36;0.0;9;117
2;paravance-72.rennes.grid5000.fr;thermos-root-devel-WordCountTopology-2-89dcf4b1-68c7-47b2-92ed-59f1f6117b98;["container_2_Emit_random_words_2"];5.25;1533759651.24383;30.07;262.0;0.754717456;10;149
3;paravance-70.rennes.grid5000.fr;thermos-root-devel-WordCountTopology-0-e1650698-c90d-447a-93bd-42a8cd7f3676;["topology_master"];5.25;1533759661.41436;2.74;8.48;0.0;9;117
3;paravance-69.rennes.grid5000.fr;thermos-root-devel-WordCountTopology-1-d75f682c-9f3c-43c4-b5fa-19603ff84ff8;["container_1_Consume_and_count_1"];5.25;1533759661.38191;49.78;323.8;0.128358375;10;149
3;paravance-72.rennes.grid5000.fr;thermos-root-devel-WordCountTopology-2-89dcf4b1-68c7-47b2-92ed-59f1f6117b98;["container_2_Emit_random_words_2"];5.25;1533759661.45471;31.97;279.26;0.754717456;10;149
4;paravance-69.rennes.grid5000.fr;thermos-root-devel-WordCountTopology-1-d75f682c-9f3c-43c4-b5fa-19603ff84ff8;["container_1_Consume_and_count_1"];5.25;1533759671.59198;52.84;345.52;0.128358375;10;149
4;paravance-70.rennes.grid5000.fr;thermos-root-devel-WordCountTopology-0-e1650698-c90d-447a-93bd-42a8cd7f3676;["topology_master"];5.25;1533759671.72266;2.8;8.56;0.0;9;117
4;paravance-72.rennes.grid5000.fr;thermos-root-devel-WordCountTopology-2-89dcf4b1-68c7-47b2-92ed-59f1f6117b98;["container_2_Emit_random_words_2"];5.25;1533759671.66409;33.87;295.91;0.754717456;10;149
5;paravance-72.rennes.grid5000.fr;thermos-root-devel-WordCountTopology-2-89dcf4b1-68c7-47b2-92ed-59f1f6117b98;["container_2_Emit_random_words_2"];5.25;1533759681.87403;35.87;313.54;0.754717456;10;149
5;paravance-70.rennes.grid5000.fr;thermos-root-devel-WordCountTopology-0-e1650698-c90d-447a-93bd-42a8cd7f3676;["topology_master"];5.25;1533759681.93352;2.89;8.69;0.0;9;117
5;paravance-69.rennes.grid5000.fr;thermos-root-devel-WordCountTopology-1-d75f682c-9f3c-43c4-b5fa-19603ff84ff8;["container_1_Consume_and_count_1"];5.25;1533759681.80393;56.2;367.77;0.128358375;10;149
6;paravance-72.rennes.grid5000.fr;thermos-root-devel-WordCountTopology-2-89dcf4b1-68c7-47b2-92ed-59f1f6117b98;["container_2_Emit_random_words_2"];5.25;1533759692.08454;37.76;330.62;0.754717456;10;149
6;paravance-70.rennes.grid5000.fr;thermos-root-devel-WordCountTopology-0-e1650698-c90d-447a-93bd-42a8cd7f3676;["topology_master"];5.25;1533759692.14474;2.96;8.86;0.0;9;117
6;paravance-69.rennes.grid5000.fr;thermos-root-devel-WordCountTopology-1-d75f682c-9f3c-43c4-b5fa-19603ff84ff8;["container_1_Consume_and_count_1"];5.25;1533759692.01501;59.32;389.61;0.128358375;10;149
7;paravance-69.rennes.grid5000.fr;thermos-root-devel-WordCountTopology-1-d75f682c-9f3c-43c4-b5fa-19603ff84ff8;["container_1_Consume_and_count_1"];5.25;1533759702.22187;62.55;410.38;0.128358375;10;149
7;paravance-70.rennes.grid5000.fr;thermos-root-devel-WordCountTopology-0-e1650698-c90d-447a-93bd-42a8cd7f3676;["topology_master"];5.25;1533759702.35322;3.06;8.99;0.0;9;117
7;paravance-72.rennes.grid5000.fr;thermos-root-devel-WordCountTopology-2-89dcf4b1-68c7-47b2-92ed-59f1f6117b98;["container_2_Emit_random_words_2"];5.25;1533759702.29394;39.67;347.27;0.754717456;10;149
8;paravance-72.rennes.grid5000.fr;thermos-root-devel-WordCountTopology-2-89dcf4b1-68c7-47b2-92ed-59f1f6117b98;["container_2_Emit_random_words_2"];5.25;1533759712.50369;41.5;363.7;0.754717456;10;149
8;paravance-70.rennes.grid5000.fr;thermos-root-devel-WordCountTopology-0-e1650698-c90d-447a-93bd-42a8cd7f3676;["topology_master"];5.25;1533759712.56284;3.11;9.07;0.0;9;117
8;paravance-69.rennes.grid5000.fr;thermos-root-devel-WordCountTopology-1-d75f682c-9f3c-43c4-b5fa-19603ff84ff8;["container_1_Consume_and_count_1"];5.25;1533759712.43237;65.73;432.09;0.128358375;10;149
9;paravance-72.rennes.grid5000.fr;thermos-root-devel-WordCountTopology-2-89dcf4b1-68c7-47b2-92ed-59f1f6117b98;["container_2_Emit_random_words_2"];5.25;1533759722.71405;43.39;380.08;0.754717456;10;149
9;paravance-70.rennes.grid5000.fr;thermos-root-devel-WordCountTopology-0-e1650698-c90d-447a-93bd-42a8cd7f3676;["topology_master"];5.25;1533759722.7728;3.18;9.14;0.0;9;117
9;paravance-69.rennes.grid5000.fr;thermos-root-devel-WordCountTopology-1-d75f682c-9f3c-43c4-b5fa-19603ff84ff8;["container_1_Consume_and_count_1"];5.25;1533759722.64372;68.71;452.42;0.128358375;10;149
10;paravance-72.rennes.grid5000.fr;thermos-root-devel-WordCountTopology-2-89dcf4b1-68c7-47b2-92ed-59f1f6117b98;["container_2_Emit_random_words_2"];5.25;1533759732.92455;45.23;396.68;0.754717456;10;149
10;paravance-70.rennes.grid5000.fr;thermos-root-devel-WordCountTopology-0-e1650698-c90d-447a-93bd-42a8cd7f3676;["topology_master"];5.25;1533759732.98384;3.23;9.22;0.0;9;117
10;paravance-69.rennes.grid5000.fr;thermos-root-devel-WordCountTopology-1-d75f682c-9f3c-43c4-b5fa-19603ff84ff8;["container_1_Consume_and_count_1"];5.25;1533759732.8548;71.82;473.7;0.128358375;10;149
11;paravance-72.rennes.grid5000.fr;thermos-root-devel-WordCountTopology-2-89dcf4b1-68c7-47b2-92ed-59f1f6117b98;["container_2_Emit_random_words_2"];5.25;1533759743.13584;47.18;413.64;0.754717456;10;149
11;paravance-69.rennes.grid5000.fr;thermos-root-devel-WordCountTopology-1-d75f682c-9f3c-43c4-b5fa-19603ff84ff8;["container_1_Consume_and_count_1"];5.25;1533759743.0657;75.1;494.61;0.128358375;10;149
11;paravance-70.rennes.grid5000.fr;thermos-root-devel-WordCountTopology-0-e1650698-c90d-447a-93bd-42a8cd7f3676;["topology_master"];5.25;1533759743.19585;3.36;9.49;0.0;9;117
12;paravance-72.rennes.grid5000.fr;thermos-root-devel-WordCountTopology-2-89dcf4b1-68c7-47b2-92ed-59f1f6117b98;["container_2_Emit_random_words_2"];5.25;1533759753.34577;49.04;430.4;0.754717456;10;149
12;paravance-70.rennes.grid5000.fr;thermos-root-devel-WordCountTopology-0-e1650698-c90d-447a-93bd-42a8cd7f3676;["topology_master"];5.25;1533759753.40572;3.39;9.51;0.0;9;117
12;paravance-69.rennes.grid5000.fr;thermos-root-devel-WordCountTopology-1-d75f682c-9f3c-43c4-b5fa-19603ff84ff8;["container_1_Consume_and_count_1"];5.25;1533759753.27657;78.17;515.72;0.128358375;10;149
13;paravance-69.rennes.grid5000.fr;thermos-root-devel-WordCountTopology-1-d75f682c-9f3c-43c4-b5fa-19603ff84ff8;["container_1_Consume_and_count_1"];5.25;1533759763.48311;81.48;537.63;0.128358375;10;149
13;paravance-72.rennes.grid5000.fr;thermos-root-devel-WordCountTopology-2-89dcf4b1-68c7-47b2-92ed-59f1f6117b98;["container_2_Emit_random_words_2"];5.25;1533759763.55526;50.99;447.46;0.754717456;10;149
13;paravance-70.rennes.grid5000.fr;thermos-root-devel-WordCountTopology-0-e1650698-c90d-447a-93bd-42a8cd7f3676;["topology_master"];5.25;1533759763.61555;3.48;9.65;0.0;9;117
14;paravance-69.rennes.grid5000.fr;thermos-root-devel-WordCountTopology-1-d75f682c-9f3c-43c4-b5fa-19603ff84ff8;["container_1_Consume_and_count_1"];5.25;1533759773.59255;84.63;557.74;0.128358375;10;149
14;paravance-72.rennes.grid5000.fr;thermos-root-devel-WordCountTopology-2-89dcf4b1-68c7-47b2-92ed-59f1f6117b98;["container_2_Emit_random_words_2"];5.25;1533759773.76605;52.87;464.63;0.754717456;10;149
14;paravance-70.rennes.grid5000.fr;thermos-root-devel-WordCountTopology-0-e1650698-c90d-447a-93bd-42a8cd7f3676;["topology_master"];5.25;1533759773.8247;3.54;9.72;0.0;9;117
15;paravance-69.rennes.grid5000.fr;thermos-root-devel-WordCountTopology-1-d75f682c-9f3c-43c4-b5fa-19603ff84ff8;["container_1_Consume_and_count_1"];5.25;1533759783.90392;87.68;578.47;0.128358375;10;149
15;paravance-72.rennes.grid5000.fr;thermos-root-devel-WordCountTopology-2-89dcf4b1-68c7-47b2-92ed-59f1f6117b98;["container_2_Emit_random_words_2"];5.25;1533759783.97701;54.68;480.73;0.754717456;10;149
15;paravance-70.rennes.grid5000.fr;thermos-root-devel-WordCountTopology-0-e1650698-c90d-447a-93bd-42a8cd7f3676;["topology_master"];5.25;1533759784.03582;3.6;9.8;0.0;9;117
16;paravance-72.rennes.grid5000.fr;thermos-root-devel-WordCountTopology-2-89dcf4b1-68c7-47b2-92ed-59f1f6117b98;["container_2_Emit_random_words_2"];5.25;1533759794.18659;56.62;498.26;0.754717456;10;149
16;paravance-69.rennes.grid5000.fr;thermos-root-devel-WordCountTopology-1-d75f682c-9f3c-43c4-b5fa-19603ff84ff8;["container_1_Consume_and_count_1"];5.25;1533759794.11604;90.93;599.97;0.128358375;10;149
16;paravance-70.rennes.grid5000.fr;thermos-root-devel-WordCountTopology-0-e1650698-c90d-447a-93bd-42a8cd7f3676;["topology_master"];5.25;1533759794.24786;3.65;9.87;0.0;9;117
17;paravance-69.rennes.grid5000.fr;thermos-root-devel-WordCountTopology-1-d75f682c-9f3c-43c4-b5fa-19603ff84ff8;["container_1_Consume_and_count_1"];5.25;1533759804.32323;94.1;621.22;0.128358375;10;149
17;paravance-70.rennes.grid5000.fr;thermos-root-devel-WordCountTopology-0-e1650698-c90d-447a-93bd-42a8cd7f3676;["topology_master"];5.25;1533759804.45589;3.77;10.09;0.0;9;117
17;paravance-72.rennes.grid5000.fr;thermos-root-devel-WordCountTopology-2-89dcf4b1-68c7-47b2-92ed-59f1f6117b98;["container_2_Emit_random_words_2"];5.25;1533759804.3987;58.61;515.97;0.754717456;10;149
18;paravance-69.rennes.grid5000.fr;thermos-root-devel-WordCountTopology-1-d75f682c-9f3c-43c4-b5fa-19603ff84ff8;["container_1_Consume_and_count_1"];5.25;1533759814.53352;96.92;641.16;0.128358375;10;149
18;paravance-70.rennes.grid5000.fr;thermos-root-devel-WordCountTopology-0-e1650698-c90d-447a-93bd-42a8cd7f3676;["topology_master"];5.25;1533759814.66615;3.79;10.11;0.0;9;117
18;paravance-72.rennes.grid5000.fr;thermos-root-devel-WordCountTopology-2-89dcf4b1-68c7-47b2-92ed-59f1f6117b98;["container_2_Emit_random_words_2"];5.25;1533759814.60809;60.29;531.17;0.754717456;10;149
19;paravance-72.rennes.grid5000.fr;thermos-root-devel-WordCountTopology-2-89dcf4b1-68c7-47b2-92ed-59f1f6117b98;["container_2_Emit_random_words_2"];5.25;1533759824.81674;62.23;548.55;0.754717456;10;149
19;paravance-69.rennes.grid5000.fr;thermos-root-devel-WordCountTopology-1-d75f682c-9f3c-43c4-b5fa-19603ff84ff8;["container_1_Consume_and_count_1"];5.25;1533759824.74584;100.02;661.96;0.128358375;10;149
19;paravance-70.rennes.grid5000.fr;thermos-root-devel-WordCountTopology-0-e1650698-c90d-447a-93bd-42a8cd7f3676;["topology_master"];5.25;1533759824.87725;3.88;10.24;0.0;9;117
20;paravance-72.rennes.grid5000.fr;thermos-root-devel-WordCountTopology-2-89dcf4b1-68c7-47b2-92ed-59f1f6117b98;["container_2_Emit_random_words_2"];5.25;1533759835.0266;63.96;563.96;0.754717456;10;149
20;paravance-69.rennes.grid5000.fr;thermos-root-devel-WordCountTopology-1-d75f682c-9f3c-43c4-b5fa-19603ff84ff8;["container_1_Consume_and_count_1"];5.25;1533759834.95597;102.82;682.38;0.128358375;10;149
20;paravance-70.rennes.grid5000.fr;thermos-root-devel-WordCountTopology-0-e1650698-c90d-447a-93bd-42a8cd7f3676;["topology_master"];5.25;1533759835.08639;3.94;10.31;0.0;9;117
21;paravance-69.rennes.grid5000.fr;thermos-root-devel-WordCountTopology-1-d75f682c-9f3c-43c4-b5fa-19603ff84ff8;["container_1_Consume_and_count_1"];5.25;1533759845.16442;105.71;702.74;0.128358375;10;149
21;paravance-72.rennes.grid5000.fr;thermos-root-devel-WordCountTopology-2-89dcf4b1-68c7-47b2-92ed-59f1f6117b98;["container_2_Emit_random_words_2"];5.25;1533759845.23757;65.76;580.06;0.754717456;10;149
21;paravance-70.rennes.grid5000.fr;thermos-root-devel-WordCountTopology-0-e1650698-c90d-447a-93bd-42a8cd7f3676;["topology_master"];5.25;1533759845.29721;4.0;10.39;0.0;9;117
22;paravance-72.rennes.grid5000.fr;thermos-root-devel-WordCountTopology-2-89dcf4b1-68c7-47b2-92ed-59f1f6117b98;["container_2_Emit_random_words_2"];5.25;1533759855.44756;67.57;596.28;0.754717456;10;149
22;paravance-69.rennes.grid5000.fr;thermos-root-devel-WordCountTopology-1-d75f682c-9f3c-43c4-b5fa-19603ff84ff8;["container_1_Consume_and_count_1"];5.25;1533759855.37613;108.71;723.76;0.128358375;10;149
22;paravance-70.rennes.grid5000.fr;thermos-root-devel-WordCountTopology-0-e1650698-c90d-447a-93bd-42a8cd7f3676;["topology_master"];5.25;1533759855.50676;4.06;10.46;0.0;9;117
23;paravance-69.rennes.grid5000.fr;thermos-root-devel-WordCountTopology-1-d75f682c-9f3c-43c4-b5fa-19603ff84ff8;["container_1_Consume_and_count_1"];5.25;1533759865.58561;111.68;744.01;0.128358375;10;149
23;paravance-72.rennes.grid5000.fr;thermos-root-devel-WordCountTopology-2-89dcf4b1-68c7-47b2-92ed-59f1f6117b98;["container_2_Emit_random_words_2"];5.25;1533759865.65745;69.4;612.64;0.754717456;10;149
23;paravance-70.rennes.grid5000.fr;thermos-root-devel-WordCountTopology-0-e1650698-c90d-447a-93bd-42a8cd7f3676;["topology_master"];5.25;1533759865.71781;4.18;10.65;0.0;9;117
24;paravance-69.rennes.grid5000.fr;thermos-root-devel-WordCountTopology-1-d75f682c-9f3c-43c4-b5fa-19603ff84ff8;["container_1_Consume_and_count_1"];5.25;1533759875.79437;114.46;764.64;0.128358375;10;149
24;paravance-72.rennes.grid5000.fr;thermos-root-devel-WordCountTopology-2-89dcf4b1-68c7-47b2-92ed-59f1f6117b98;["container_2_Emit_random_words_2"];5.25;1533759875.86928;71.2;628.85;0.754717456;10;149
24;paravance-70.rennes.grid5000.fr;thermos-root-devel-WordCountTopology-0-e1650698-c90d-447a-93bd-42a8cd7f3676;["topology_master"];5.25;1533759875.9279;4.2;10.68;0.0;9;117
25;paravance-72.rennes.grid5000.fr;thermos-root-devel-WordCountTopology-2-89dcf4b1-68c7-47b2-92ed-59f1f6117b98;["container_2_Emit_random_words_2"];5.25;1533759886.07836;72.99;644.45;0.754717456;10;149
25;paravance-69.rennes.grid5000.fr;thermos-root-devel-WordCountTopology-1-d75f682c-9f3c-43c4-b5fa-19603ff84ff8;["container_1_Consume_and_count_1"];5.25;1533759886.00696;117.58;785.4;0.128358375;10;149
25;paravance-70.rennes.grid5000.fr;thermos-root-devel-WordCountTopology-0-e1650698-c90d-447a-93bd-42a8cd7f3676;["topology_master"];5.25;1533759886.13842;4.29;10.8;0.0;9;117
26;paravance-72.rennes.grid5000.fr;thermos-root-devel-WordCountTopology-2-89dcf4b1-68c7-47b2-92ed-59f1f6117b98;["container_2_Emit_random_words_2"];5.25;1533759896.28811;74.83;660.57;0.754717456;10;149
26;paravance-70.rennes.grid5000.fr;thermos-root-devel-WordCountTopology-0-e1650698-c90d-447a-93bd-42a8cd7f3676;["topology_master"];5.25;1533759896.34881;4.35;10.87;0.0;9;117
26;paravance-69.rennes.grid5000.fr;thermos-root-devel-WordCountTopology-1-d75f682c-9f3c-43c4-b5fa-19603ff84ff8;["container_1_Consume_and_count_1"];5.25;1533759896.21732;120.64;805.74;0.128358375;10;149
27;paravance-70.rennes.grid5000.fr;thermos-root-devel-WordCountTopology-0-e1650698-c90d-447a-93bd-42a8cd7f3676;["topology_master"];5.25;1533759906.55775;4.4;10.95;0.0;9;117
27;paravance-69.rennes.grid5000.fr;thermos-root-devel-WordCountTopology-1-d75f682c-9f3c-43c4-b5fa-19603ff84ff8;["container_1_Consume_and_count_1"];5.25;1533759906.4277;123.72;826.09;0.128358375;10;149
27;paravance-72.rennes.grid5000.fr;thermos-root-devel-WordCountTopology-2-89dcf4b1-68c7-47b2-92ed-59f1f6117b98;["container_2_Emit_random_words_2"];5.25;1533759906.4996;76.62;676.99;0.754717456;10;149
28;paravance-72.rennes.grid5000.fr;thermos-root-devel-WordCountTopology-2-89dcf4b1-68c7-47b2-92ed-59f1f6117b98;["container_2_Emit_random_words_2"];5.25;1533759916.70897;78.5;693.84;0.754717456;10;149
28;paravance-69.rennes.grid5000.fr;thermos-root-devel-WordCountTopology-1-d75f682c-9f3c-43c4-b5fa-19603ff84ff8;["container_1_Consume_and_count_1"];5.25;1533759916.6385;126.94;847.54;0.128358375;10;149
28;paravance-70.rennes.grid5000.fr;thermos-root-devel-WordCountTopology-0-e1650698-c90d-447a-93bd-42a8cd7f3676;["topology_master"];5.25;1533759916.76918;4.46;11.01;0.0;9;117
29;paravance-72.rennes.grid5000.fr;thermos-root-devel-WordCountTopology-2-89dcf4b1-68c7-47b2-92ed-59f1f6117b98;["container_2_Emit_random_words_2"];5.25;1533759926.91917;80.48;711.38;0.754717456;10;149
29;paravance-69.rennes.grid5000.fr;thermos-root-devel-WordCountTopology-1-d75f682c-9f3c-43c4-b5fa-19603ff84ff8;["container_1_Consume_and_count_1"];5.25;1533759926.84685;130.18;868.89;0.128358375;10;149
29;paravance-70.rennes.grid5000.fr;thermos-root-devel-WordCountTopology-0-e1650698-c90d-447a-93bd-42a8cd7f3676;["topology_master"];5.25;1533759926.98252;4.56;11.18;0.0;9;117
30;paravance-72.rennes.grid5000.fr;thermos-root-devel-WordCountTopology-2-89dcf4b1-68c7-47b2-92ed-59f1f6117b98;["container_2_Emit_random_words_2"];5.25;1533759937.13266;82.31;728.33;0.754717456;10;149
30;paravance-69.rennes.grid5000.fr;thermos-root-devel-WordCountTopology-1-d75f682c-9f3c-43c4-b5fa-19603ff84ff8;["container_1_Consume_and_count_1"];5.25;1533759937.06077;133.23;889.63;0.128358375;10;149
30;paravance-70.rennes.grid5000.fr;thermos-root-devel-WordCountTopology-0-e1650698-c90d-447a-93bd-42a8cd7f3676;["topology_master"];5.25;1533759937.19234;4.58;11.2;0.0;9;117
31;paravance-69.rennes.grid5000.fr;thermos-root-devel-WordCountTopology-1-d75f682c-9f3c-43c4-b5fa-19603ff84ff8;["container_1_Consume_and_count_1"];5.25;1533759947.27094;136.35;909.95;0.128358375;10;149
31;paravance-70.rennes.grid5000.fr;thermos-root-devel-WordCountTopology-0-e1650698-c90d-447a-93bd-42a8cd7f3676;["topology_master"];5.25;1533759947.40071;4.67;11.33;0.0;9;117
31;paravance-72.rennes.grid5000.fr;thermos-root-devel-WordCountTopology-2-89dcf4b1-68c7-47b2-92ed-59f1f6117b98;["container_2_Emit_random_words_2"];5.25;1533759947.34247;84.26;745.4;0.754717456;10;149
32;paravance-69.rennes.grid5000.fr;thermos-root-devel-WordCountTopology-1-d75f682c-9f3c-43c4-b5fa-19603ff84ff8;["container_1_Consume_and_count_1"];5.25;1533759957.48722;139.55;931.31;0.128358375;10;149
32;paravance-72.rennes.grid5000.fr;thermos-root-devel-WordCountTopology-2-89dcf4b1-68c7-47b2-92ed-59f1f6117b98;["container_2_Emit_random_words_2"];5.25;1533759957.55116;86.15;762.07;0.754717456;10;149
32;paravance-70.rennes.grid5000.fr;thermos-root-devel-WordCountTopology-0-e1650698-c90d-447a-93bd-42a8cd7f3676;["topology_master"];5.25;1533759957.61172;4.77;11.45;0.0;9;117
33;paravance-69.rennes.grid5000.fr;thermos-root-devel-WordCountTopology-1-d75f682c-9f3c-43c4-b5fa-19603ff84ff8;["container_1_Consume_and_count_1"];5.25;1533759967.70019;142.77;952.09;0.128358375;10;149
33;paravance-72.rennes.grid5000.fr;thermos-root-devel-WordCountTopology-2-89dcf4b1-68c7-47b2-92ed-59f1f6117b98;["container_2_Emit_random_words_2"];5.25;1533759967.76103;87.99;778.74;0.754717456;10;149
33;paravance-70.rennes.grid5000.fr;thermos-root-devel-WordCountTopology-0-e1650698-c90d-447a-93bd-42a8cd7f3676;["topology_master"];5.25;1533759967.82157;4.79;11.47;0.0;9;117
34;paravance-69.rennes.grid5000.fr;thermos-root-devel-WordCountTopology-1-d75f682c-9f3c-43c4-b5fa-19603ff84ff8;["container_1_Consume_and_count_1"];5.25;1533759977.91711;145.97;973.59;0.128358375;10;149
34;paravance-72.rennes.grid5000.fr;thermos-root-devel-WordCountTopology-2-89dcf4b1-68c7-47b2-92ed-59f1f6117b98;["container_2_Emit_random_words_2"];5.25;1533759977.97072;89.9;795.66;0.754717456;10;149
34;paravance-70.rennes.grid5000.fr;thermos-root-devel-WordCountTopology-0-e1650698-c90d-447a-93bd-42a8cd7f3676;["topology_master"];5.25;1533759978.03203;4.89;11.6;0.0;9;117
35;paravance-69.rennes.grid5000.fr;thermos-root-devel-WordCountTopology-1-d75f682c-9f3c-43c4-b5fa-19603ff84ff8;["container_1_Consume_and_count_1"];5.25;1533759988.13146;149.19;994.97;0.128358375;10;149
35;paravance-72.rennes.grid5000.fr;thermos-root-devel-WordCountTopology-2-89dcf4b1-68c7-47b2-92ed-59f1f6117b98;["container_2_Emit_random_words_2"];5.25;1533759988.18267;91.8;812.44;0.754717456;10;149
35;paravance-70.rennes.grid5000.fr;thermos-root-devel-WordCountTopology-0-e1650698-c90d-447a-93bd-42a8cd7f3676;["topology_master"];5.25;1533759988.24197;4.95;11.77;0.0;9;117
36;paravance-69.rennes.grid5000.fr;thermos-root-devel-WordCountTopology-1-d75f682c-9f3c-43c4-b5fa-19603ff84ff8;["container_1_Consume_and_count_1"];5.25;1533759998.34829;152.17;1015.35;0.128358375;10;149
36;paravance-72.rennes.grid5000.fr;thermos-root-devel-WordCountTopology-2-89dcf4b1-68c7-47b2-92ed-59f1f6117b98;["container_2_Emit_random_words_2"];5.25;1533759998.39282;93.65;828.8;0.754717456;10;149
36;paravance-70.rennes.grid5000.fr;thermos-root-devel-WordCountTopology-0-e1650698-c90d-447a-93bd-42a8cd7f3676;["topology_master"];5.25;1533759998.45195;5.01;11.84;0.0;9;117
37;paravance-72.rennes.grid5000.fr;thermos-root-devel-WordCountTopology-2-89dcf4b1-68c7-47b2-92ed-59f1f6117b98;["container_2_Emit_random_words_2"];5.25;1533760008.60063;95.48;845.03;0.754717456;10;149
37;paravance-69.rennes.grid5000.fr;thermos-root-devel-WordCountTopology-1-d75f682c-9f3c-43c4-b5fa-19603ff84ff8;["container_1_Consume_and_count_1"];5.25;1533760008.56522;155.44;1036.81;0.128358375;10;149
37;paravance-70.rennes.grid5000.fr;thermos-root-devel-WordCountTopology-0-e1650698-c90d-447a-93bd-42a8cd7f3676;["topology_master"];5.25;1533760008.66252;5.07;11.92;0.0;9;117
38;paravance-69.rennes.grid5000.fr;thermos-root-devel-WordCountTopology-1-d75f682c-9f3c-43c4-b5fa-19603ff84ff8;["container_1_Consume_and_count_1"];5.25;1533760018.7801;158.42;1057.56;0.128358375;10;149
38;paravance-72.rennes.grid5000.fr;thermos-root-devel-WordCountTopology-2-89dcf4b1-68c7-47b2-92ed-59f1f6117b98;["container_2_Emit_random_words_2"];5.25;1533760018.81266;97.31;860.97;0.754717456;10;149
38;paravance-70.rennes.grid5000.fr;thermos-root-devel-WordCountTopology-0-e1650698-c90d-447a-93bd-42a8cd7f3676;["topology_master"];5.25;1533760018.87382;5.15;12.04;0.0;9;117
39;paravance-72.rennes.grid5000.fr;thermos-root-devel-WordCountTopology-2-89dcf4b1-68c7-47b2-92ed-59f1f6117b98;["container_2_Emit_random_words_2"];5.25;1533760029.02224;99.16;877.56;0.754717456;10;149
39;paravance-70.rennes.grid5000.fr;thermos-root-devel-WordCountTopology-0-e1650698-c90d-447a-93bd-42a8cd7f3676;["topology_master"];5.25;1533760029.08264;5.18;12.06;0.0;9;117
39;paravance-69.rennes.grid5000.fr;thermos-root-devel-WordCountTopology-1-d75f682c-9f3c-43c4-b5fa-19603ff84ff8;["container_1_Consume_and_count_1"];5.25;1533760028.99618;161.42;1078.21;0.128358375;10;149
40;paravance-70.rennes.grid5000.fr;thermos-root-devel-WordCountTopology-0-e1650698-c90d-447a-93bd-42a8cd7f3676;["topology_master"];5.25;1533760039.30035;5.27;12.19;0.0;9;117
40;paravance-69.rennes.grid5000.fr;thermos-root-devel-WordCountTopology-1-d75f682c-9f3c-43c4-b5fa-19603ff84ff8;["container_1_Consume_and_count_1"];5.25;1533760039.22257;164.41;1098.37;0.128358375;10;149
40;paravance-72.rennes.grid5000.fr;thermos-root-devel-WordCountTopology-2-89dcf4b1-68c7-47b2-92ed-59f1f6117b98;["container_2_Emit_random_words_2"];5.25;1533760039.24674;101.03;893.94;0.754717456;10;149
41;paravance-69.rennes.grid5000.fr;thermos-root-devel-WordCountTopology-1-d75f682c-9f3c-43c4-b5fa-19603ff84ff8;["container_1_Consume_and_count_1"];5.25;1533760049.43579;167.35;1118.83;0.128358375;10;149
41;paravance-72.rennes.grid5000.fr;thermos-root-devel-WordCountTopology-2-89dcf4b1-68c7-47b2-92ed-59f1f6117b98;["container_2_Emit_random_words_2"];5.25;1533760049.45524;102.83;909.93;0.754717456;10;149
41;paravance-70.rennes.grid5000.fr;thermos-root-devel-WordCountTopology-0-e1650698-c90d-447a-93bd-42a8cd7f3676;["topology_master"];5.25;1533760049.51466;5.34;12.3;0.0;9;117
42;paravance-70.rennes.grid5000.fr;thermos-root-devel-WordCountTopology-0-e1650698-c90d-447a-93bd-42a8cd7f3676;["topology_master"];5.25;1533760059.72447;5.42;12.42;0.0;9;117
42;paravance-69.rennes.grid5000.fr;thermos-root-devel-WordCountTopology-1-d75f682c-9f3c-43c4-b5fa-19603ff84ff8;["container_1_Consume_and_count_1"];5.25;1533760059.6514;170.29;1139.42;0.128358375;10;149
42;paravance-72.rennes.grid5000.fr;thermos-root-devel-WordCountTopology-2-89dcf4b1-68c7-47b2-92ed-59f1f6117b98;["container_2_Emit_random_words_2"];5.25;1533760059.66576;104.66;925.99;0.754717456;10;149
43;paravance-72.rennes.grid5000.fr;thermos-root-devel-WordCountTopology-2-89dcf4b1-68c7-47b2-92ed-59f1f6117b98;["container_2_Emit_random_words_2"];5.25;1533760069.775;106.45;942.04;0.754717456;10;149
43;paravance-69.rennes.grid5000.fr;thermos-root-devel-WordCountTopology-1-d75f682c-9f3c-43c4-b5fa-19603ff84ff8;["container_1_Consume_and_count_1"];5.25;1533760069.86747;173.2;1159.55;0.128358375;10;149
43;paravance-70.rennes.grid5000.fr;thermos-root-devel-WordCountTopology-0-e1650698-c90d-447a-93bd-42a8cd7f3676;["topology_master"];5.25;1533760069.93588;5.45;12.44;0.0;9;117
44;paravance-72.rennes.grid5000.fr;thermos-root-devel-WordCountTopology-2-89dcf4b1-68c7-47b2-92ed-59f1f6117b98;["container_2_Emit_random_words_2"];5.25;1533760079.98623;108.33;958.67;0.754717456;10;149
44;paravance-70.rennes.grid5000.fr;thermos-root-devel-WordCountTopology-0-e1650698-c90d-447a-93bd-42a8cd7f3676;["topology_master"];5.25;1533760080.14586;5.54;12.56;0.0;9;117
44;paravance-69.rennes.grid5000.fr;thermos-root-devel-WordCountTopology-1-d75f682c-9f3c-43c4-b5fa-19603ff84ff8;["container_1_Consume_and_count_1"];5.25;1533760080.08418;176.26;1180.42;0.128358375;10;149
45;paravance-69.rennes.grid5000.fr;thermos-root-devel-WordCountTopology-1-d75f682c-9f3c-43c4-b5fa-19603ff84ff8;["container_1_Consume_and_count_1"];5.25;1533760090.29554;179.07;1200.19;0.128358375;10;149
45;paravance-70.rennes.grid5000.fr;thermos-root-devel-WordCountTopology-0-e1650698-c90d-447a-93bd-42a8cd7f3676;["topology_master"];5.25;1533760090.35561;5.6;12.64;0.0;9;117
45;paravance-72.rennes.grid5000.fr;thermos-root-devel-WordCountTopology-2-89dcf4b1-68c7-47b2-92ed-59f1f6117b98;["container_2_Emit_random_words_2"];5.25;1533760090.30168;110.13;974.64;0.754717456;10;149
46;paravance-69.rennes.grid5000.fr;thermos-root-devel-WordCountTopology-1-d75f682c-9f3c-43c4-b5fa-19603ff84ff8;["container_1_Consume_and_count_1"];5.25;1533760100.5125;182.06;1221.47;0.128358375;10;149
46;paravance-70.rennes.grid5000.fr;thermos-root-devel-WordCountTopology-0-e1650698-c90d-447a-93bd-42a8cd7f3676;["topology_master"];5.25;1533760100.56565;5.66;12.72;0.0;9;117
46;paravance-72.rennes.grid5000.fr;thermos-root-devel-WordCountTopology-2-89dcf4b1-68c7-47b2-92ed-59f1f6117b98;["container_2_Emit_random_words_2"];5.25;1533760100.51677;112.12;992.46;0.754717456;10;149
47;paravance-69.rennes.grid5000.fr;thermos-root-devel-WordCountTopology-1-d75f682c-9f3c-43c4-b5fa-19603ff84ff8;["container_1_Consume_and_count_1"];5.25;1533760110.72797;185.12;1243.35;0.128358375;10;149
47;paravance-72.rennes.grid5000.fr;thermos-root-devel-WordCountTopology-2-89dcf4b1-68c7-47b2-92ed-59f1f6117b98;["container_2_Emit_random_words_2"];5.25;1533760110.7313;114.12;1010.24;0.754717456;10;149
47;paravance-70.rennes.grid5000.fr;thermos-root-devel-WordCountTopology-0-e1650698-c90d-447a-93bd-42a8cd7f3676;["topology_master"];5.25;1533760110.77604;5.72;12.85;0.0;9;117
48;paravance-69.rennes.grid5000.fr;thermos-root-devel-WordCountTopology-1-d75f682c-9f3c-43c4-b5fa-19603ff84ff8;["container_1_Consume_and_count_1"];5.25;1533760120.8431;188.05;1264.09;0.128358375;10;149
48;paravance-72.rennes.grid5000.fr;thermos-root-devel-WordCountTopology-2-89dcf4b1-68c7-47b2-92ed-59f1f6117b98;["container_2_Emit_random_words_2"];5.25;1533760120.94629;116.07;1027.67;0.754717456;10;149
48;paravance-70.rennes.grid5000.fr;thermos-root-devel-WordCountTopology-0-e1650698-c90d-447a-93bd-42a8cd7f3676;["topology_master"];5.25;1533760120.98682;5.81;12.97;0.0;9;117
49;paravance-72.rennes.grid5000.fr;thermos-root-devel-WordCountTopology-2-89dcf4b1-68c7-47b2-92ed-59f1f6117b98;["container_2_Emit_random_words_2"];5.25;1533760131.16113;118.12;1046.29;0.754717456;10;149
49;paravance-69.rennes.grid5000.fr;thermos-root-devel-WordCountTopology-1-d75f682c-9f3c-43c4-b5fa-19603ff84ff8;["container_1_Consume_and_count_1"];5.25;1533760131.15913;191.16;1285.9;0.128358375;10;149
49;paravance-70.rennes.grid5000.fr;thermos-root-devel-WordCountTopology-0-e1650698-c90d-447a-93bd-42a8cd7f3676;["topology_master"];5.25;1533760131.1965;5.84;13.0;0.0;9;117
50;paravance-72.rennes.grid5000.fr;thermos-root-devel-WordCountTopology-2-89dcf4b1-68c7-47b2-92ed-59f1f6117b98;["container_2_Emit_random_words_2"];5.25;1533760141.3762;120.14;1064.05;0.754717456;10;149
50;paravance-69.rennes.grid5000.fr;thermos-root-devel-WordCountTopology-1-d75f682c-9f3c-43c4-b5fa-19603ff84ff8;["container_1_Consume_and_count_1"];5.25;1533760141.3743;194.22;1307.41;0.128358375;10;149
50;paravance-70.rennes.grid5000.fr;thermos-root-devel-WordCountTopology-0-e1650698-c90d-447a-93bd-42a8cd7f3676;["topology_master"];5.25;1533760141.40644;5.93;13.13;0.0;9;117
51;paravance-72.rennes.grid5000.fr;thermos-root-devel-WordCountTopology-2-89dcf4b1-68c7-47b2-92ed-59f1f6117b98;["container_2_Emit_random_words_2"];5.25;1533760151.59105;122.12;1081.73;0.754717456;10;149
51;paravance-69.rennes.grid5000.fr;thermos-root-devel-WordCountTopology-1-d75f682c-9f3c-43c4-b5fa-19603ff84ff8;["container_1_Consume_and_count_1"];5.25;1533760151.58809;197.22;1328.09;0.128358375;10;149
51;paravance-70.rennes.grid5000.fr;thermos-root-devel-WordCountTopology-0-e1650698-c90d-447a-93bd-42a8cd7f3676;["topology_master"];5.25;1533760151.617;5.98;13.2;0.0;9;117
52;paravance-72.rennes.grid5000.fr;thermos-root-devel-WordCountTopology-2-89dcf4b1-68c7-47b2-92ed-59f1f6117b98;["container_2_Emit_random_words_2"];5.25;1533760161.80631;124.16;1099.97;0.754717456;10;149
52;paravance-69.rennes.grid5000.fr;thermos-root-devel-WordCountTopology-1-d75f682c-9f3c-43c4-b5fa-19603ff84ff8;["container_1_Consume_and_count_1"];5.25;1533760161.80368;200.27;1349.37;0.128358375;10;149
52;paravance-70.rennes.grid5000.fr;thermos-root-devel-WordCountTopology-0-e1650698-c90d-447a-93bd-42a8cd7f3676;["topology_master"];5.25;1533760161.82627;6.05;13.3;0.0;9;117
53;paravance-69.rennes.grid5000.fr;thermos-root-devel-WordCountTopology-1-d75f682c-9f3c-43c4-b5fa-19603ff84ff8;["container_1_Consume_and_count_1"];5.25;1533760171.91981;202.85;1368.83;0.128358375;10;149
53;paravance-70.rennes.grid5000.fr;thermos-root-devel-WordCountTopology-0-e1650698-c90d-447a-93bd-42a8cd7f3676;["topology_master"];5.25;1533760172.03604;6.11;13.4;0.0;9;117
53;paravance-72.rennes.grid5000.fr;thermos-root-devel-WordCountTopology-2-89dcf4b1-68c7-47b2-92ed-59f1f6117b98;["container_2_Emit_random_words_2"];5.25;1533760172.02226;125.82;1114.79;0.754717456;10;149
54;paravance-72.rennes.grid5000.fr;thermos-root-devel-WordCountTopology-2-89dcf4b1-68c7-47b2-92ed-59f1f6117b98;["container_2_Emit_random_words_2"];5.25;1533760182.23624;127.78;1132.33;0.754717456;10;149
54;paravance-70.rennes.grid5000.fr;thermos-root-devel-WordCountTopology-0-e1650698-c90d-447a-93bd-42a8cd7f3676;["topology_master"];5.25;1533760182.24588;6.2;13.52;0.0;9;117
54;paravance-69.rennes.grid5000.fr;thermos-root-devel-WordCountTopology-1-d75f682c-9f3c-43c4-b5fa-19603ff84ff8;["container_1_Consume_and_count_1"];5.25;1533760182.23316;205.89;1389.47;0.128358375;10;149
55;paravance-69.rennes.grid5000.fr;thermos-root-devel-WordCountTopology-1-d75f682c-9f3c-43c4-b5fa-19603ff84ff8;["container_1_Consume_and_count_1"];5.25;1533760192.44626;208.74;1409.59;0.128358375;10;149
55;paravance-72.rennes.grid5000.fr;thermos-root-devel-WordCountTopology-2-89dcf4b1-68c7-47b2-92ed-59f1f6117b98;["container_2_Emit_random_words_2"];5.25;1533760192.45064;129.62;1148.84;0.754717456;10;149
55;paravance-70.rennes.grid5000.fr;thermos-root-devel-WordCountTopology-0-e1650698-c90d-447a-93bd-42a8cd7f3676;["topology_master"];5.25;1533760192.4562;6.22;13.54;0.0;9;117
56;paravance-69.rennes.grid5000.fr;thermos-root-devel-WordCountTopology-1-d75f682c-9f3c-43c4-b5fa-19603ff84ff8;["container_1_Consume_and_count_1"];5.25;1533760202.66341;211.61;1429.66;0.128358375;10;149
56;paravance-72.rennes.grid5000.fr;thermos-root-devel-WordCountTopology-2-89dcf4b1-68c7-47b2-92ed-59f1f6117b98;["container_2_Emit_random_words_2"];5.25;1533760202.66702;131.44;1165.15;0.754717456;10;149
56;paravance-70.rennes.grid5000.fr;thermos-root-devel-WordCountTopology-0-e1650698-c90d-447a-93bd-42a8cd7f3676;["topology_master"];5.25;1533760202.67054;6.31;13.66;0.0;9;117
57;paravance-70.rennes.grid5000.fr;thermos-root-devel-WordCountTopology-0-e1650698-c90d-447a-93bd-42a8cd7f3676;["topology_master"];5.25;1533760212.78613;6.37;13.74;0.0;9;117
57;paravance-69.rennes.grid5000.fr;thermos-root-devel-WordCountTopology-1-d75f682c-9f3c-43c4-b5fa-19603ff84ff8;["container_1_Consume_and_count_1"];5.25;1533760212.87847;214.65;1450.77;0.128358375;10;149
57;paravance-72.rennes.grid5000.fr;thermos-root-devel-WordCountTopology-2-89dcf4b1-68c7-47b2-92ed-59f1f6117b98;["container_2_Emit_random_words_2"];5.25;1533760212.88153;133.39;1182.56;0.754717456;10;149
58;paravance-72.rennes.grid5000.fr;thermos-root-devel-WordCountTopology-2-89dcf4b1-68c7-47b2-92ed-59f1f6117b98;["container_2_Emit_random_words_2"];5.25;1533760223.09736;135.19;1198.58;0.754717456;10;149
58;paravance-69.rennes.grid5000.fr;thermos-root-devel-WordCountTopology-1-d75f682c-9f3c-43c4-b5fa-19603ff84ff8;["container_1_Consume_and_count_1"];5.25;1533760223.09387;217.49;1471.17;0.128358375;10;149
58;paravance-70.rennes.grid5000.fr;thermos-root-devel-WordCountTopology-0-e1650698-c90d-447a-93bd-42a8cd7f3676;["topology_master"];5.25;1533760223.10061;6.44;13.88;0.0;9;117
59;paravance-69.rennes.grid5000.fr;thermos-root-devel-WordCountTopology-1-d75f682c-9f3c-43c4-b5fa-19603ff84ff8;["container_1_Consume_and_count_1"];5.25;1533760233.30982;220.67;1492.32;0.128358375;10;149
59;paravance-72.rennes.grid5000.fr;thermos-root-devel-WordCountTopology-2-89dcf4b1-68c7-47b2-92ed-59f1f6117b98;["container_2_Emit_random_words_2"];5.25;1533760233.31406;137.16;1216.37;0.754717456;10;149
59;paravance-70.rennes.grid5000.fr;thermos-root-devel-WordCountTopology-0-e1650698-c90d-447a-93bd-42a8cd7f3676;["topology_master"];5.25;1533760233.31643;6.5;13.96;0.0;9;117
60;paravance-72.rennes.grid5000.fr;thermos-root-devel-WordCountTopology-2-89dcf4b1-68c7-47b2-92ed-59f1f6117b98;["container_2_Emit_random_words_2"];5.25;1533760243.52828;139.03;1232.71;0.754717456;10;149
60;paravance-69.rennes.grid5000.fr;thermos-root-devel-WordCountTopology-1-d75f682c-9f3c-43c4-b5fa-19603ff84ff8;["container_1_Consume_and_count_1"];5.25;1533760243.52478;223.54;1512.28;0.128358375;10;149
60;paravance-70.rennes.grid5000.fr;thermos-root-devel-WordCountTopology-0-e1650698-c90d-447a-93bd-42a8cd7f3676;["topology_master"];5.25;1533760243.53;6.59;14.09;0.0;9;117
