mesure_id;slave_id;executor_id;heron_instances;cpus_limit;timestamp_A;cpus_system_time_secs_A;cpus_user_time_secs_A;cpus_throttled_time_secs_A;processes;threads
0;paravance-70.rennes.grid5000.fr;thermos-root-devel-WordCountTopology-0-e1650698-c90d-447a-93bd-42a8cd7f3676;["topology_master"];5.25;1533759620.78144;2.46;8.03;0.0;9;117
0;paravance-72.rennes.grid5000.fr;thermos-root-devel-WordCountTopology-2-89dcf4b1-68c7-47b2-92ed-59f1f6117b98;["container_2_Emit_random_words_2"];5.25;1533759620.72309;24.27;210.4;0.754717456;10;149
0;paravance-69.rennes.grid5000.fr;thermos-root-devel-WordCountTopology-1-d75f682c-9f3c-43c4-b5fa-19603ff84ff8;["container_1_Consume_and_count_1"];5.25;1533759620.65049;37.37;240.17;0.128358375;10;149
1;paravance-69.rennes.grid5000.fr;thermos-root-devel-WordCountTopology-1-d75f682c-9f3c-43c4-b5fa-19603ff84ff8;["container_1_Consume_and_count_1"];5.25;1533759630.86335;40.42;261.49;0.128358375;10;149
1;paravance-72.rennes.grid5000.fr;thermos-root-devel-WordCountTopology-2-89dcf4b1-68c7-47b2-92ed-59f1f6117b98;["container_2_Emit_random_words_2"];5.25;1533759630.93503;26.23;227.67;0.754717456;10;149
1;paravance-70.rennes.grid5000.fr;thermos-root-devel-WordCountTopology-0-e1650698-c90d-447a-93bd-42a8cd7f3676;["topology_master"];5.25;1533759630.99387;2.53;8.19;0.0;9;117
2;paravance-72.rennes.grid5000.fr;thermos-root-devel-WordCountTopology-2-89dcf4b1-68c7-47b2-92ed-59f1f6117b98;["container_2_Emit_random_words_2"];5.25;1533759641.14286;28.23;245.42;0.754717456;10;149
2;paravance-69.rennes.grid5000.fr;thermos-root-devel-WordCountTopology-1-d75f682c-9f3c-43c4-b5fa-19603ff84ff8;["container_1_Consume_and_count_1"];5.25;1533759641.07251;43.7;282.86;0.128358375;10;149
2;paravance-70.rennes.grid5000.fr;thermos-root-devel-WordCountTopology-0-e1650698-c90d-447a-93bd-42a8cd7f3676;["topology_master"];5.25;1533759641.20165;2.63;8.33;0.0;9;117
3;paravance-70.rennes.grid5000.fr;thermos-root-devel-WordCountTopology-0-e1650698-c90d-447a-93bd-42a8cd7f3676;["topology_master"];5.25;1533759651.31288;2.65;8.36;0.0;9;117
3;paravance-69.rennes.grid5000.fr;thermos-root-devel-WordCountTopology-1-d75f682c-9f3c-43c4-b5fa-19603ff84ff8;["container_1_Consume_and_count_1"];5.25;1533759651.28126;46.76;303.43;0.128358375;10;149
3;paravance-72.rennes.grid5000.fr;thermos-root-devel-WordCountTopology-2-89dcf4b1-68c7-47b2-92ed-59f1f6117b98;["container_2_Emit_random_words_2"];5.25;1533759651.3534;30.09;262.2;0.754717456;10;149
4;paravance-69.rennes.grid5000.fr;thermos-root-devel-WordCountTopology-1-d75f682c-9f3c-43c4-b5fa-19603ff84ff8;["container_1_Consume_and_count_1"];5.25;1533759661.49075;49.82;323.96;0.128358375;10;149
4;paravance-70.rennes.grid5000.fr;thermos-root-devel-WordCountTopology-0-e1650698-c90d-447a-93bd-42a8cd7f3676;["topology_master"];5.25;1533759661.62106;2.74;8.48;0.0;9;117
4;paravance-72.rennes.grid5000.fr;thermos-root-devel-WordCountTopology-2-89dcf4b1-68c7-47b2-92ed-59f1f6117b98;["container_2_Emit_random_words_2"];5.25;1533759661.56241;31.99;279.46;0.754717456;10;149
5;paravance-72.rennes.grid5000.fr;thermos-root-devel-WordCountTopology-2-89dcf4b1-68c7-47b2-92ed-59f1f6117b98;["container_2_Emit_random_words_2"];5.25;1533759671.77261;33.89;296.1;0.754717456;10;149
5;paravance-70.rennes.grid5000.fr;thermos-root-devel-WordCountTopology-0-e1650698-c90d-447a-93bd-42a8cd7f3676;["topology_master"];5.25;1533759671.83218;2.8;8.56;0.0;9;117
5;paravance-69.rennes.grid5000.fr;thermos-root-devel-WordCountTopology-1-d75f682c-9f3c-43c4-b5fa-19603ff84ff8;["container_1_Consume_and_count_1"];5.25;1533759671.70274;52.87;345.8;0.128358375;10;149
6;paravance-72.rennes.grid5000.fr;thermos-root-devel-WordCountTopology-2-89dcf4b1-68c7-47b2-92ed-59f1f6117b98;["container_2_Emit_random_words_2"];5.25;1533759681.98318;35.89;313.73;0.754717456;10;149
6;paravance-69.rennes.grid5000.fr;thermos-root-devel-WordCountTopology-1-d75f682c-9f3c-43c4-b5fa-19603ff84ff8;["container_1_Consume_and_count_1"];5.25;1533759681.91421;56.24;367.94;0.128358375;10;149
6;paravance-70.rennes.grid5000.fr;thermos-root-devel-WordCountTopology-0-e1650698-c90d-447a-93bd-42a8cd7f3676;["topology_master"];5.25;1533759682.04282;2.91;8.72;0.0;9;117
7;paravance-69.rennes.grid5000.fr;thermos-root-devel-WordCountTopology-1-d75f682c-9f3c-43c4-b5fa-19603ff84ff8;["container_1_Consume_and_count_1"];5.25;1533759692.12083;59.36;389.82;0.128358375;10;149
7;paravance-72.rennes.grid5000.fr;thermos-root-devel-WordCountTopology-2-89dcf4b1-68c7-47b2-92ed-59f1f6117b98;["container_2_Emit_random_words_2"];5.25;1533759692.19275;37.78;330.81;0.754717456;10;149
7;paravance-70.rennes.grid5000.fr;thermos-root-devel-WordCountTopology-0-e1650698-c90d-447a-93bd-42a8cd7f3676;["topology_master"];5.25;1533759692.25206;2.96;8.86;0.0;9;117
8;paravance-72.rennes.grid5000.fr;thermos-root-devel-WordCountTopology-2-89dcf4b1-68c7-47b2-92ed-59f1f6117b98;["container_2_Emit_random_words_2"];5.25;1533759702.40161;39.69;347.46;0.754717456;10;149
8;paravance-70.rennes.grid5000.fr;thermos-root-devel-WordCountTopology-0-e1650698-c90d-447a-93bd-42a8cd7f3676;["topology_master"];5.25;1533759702.46139;3.06;8.99;0.0;9;117
8;paravance-69.rennes.grid5000.fr;thermos-root-devel-WordCountTopology-1-d75f682c-9f3c-43c4-b5fa-19603ff84ff8;["container_1_Consume_and_count_1"];5.25;1533759702.33129;62.59;410.56;0.128358375;10;149
9;paravance-72.rennes.grid5000.fr;thermos-root-devel-WordCountTopology-2-89dcf4b1-68c7-47b2-92ed-59f1f6117b98;["container_2_Emit_random_words_2"];5.25;1533759712.61237;41.52;363.87;0.754717456;10;149
9;paravance-70.rennes.grid5000.fr;thermos-root-devel-WordCountTopology-0-e1650698-c90d-447a-93bd-42a8cd7f3676;["topology_master"];5.25;1533759712.67177;3.11;9.07;0.0;9;117
9;paravance-69.rennes.grid5000.fr;thermos-root-devel-WordCountTopology-1-d75f682c-9f3c-43c4-b5fa-19603ff84ff8;["container_1_Consume_and_count_1"];5.25;1533759712.54242;65.75;432.25;0.128358375;10;149
10;paravance-72.rennes.grid5000.fr;thermos-root-devel-WordCountTopology-2-89dcf4b1-68c7-47b2-92ed-59f1f6117b98;["container_2_Emit_random_words_2"];5.25;1533759722.82303;43.39;380.08;0.754717456;10;149
10;paravance-70.rennes.grid5000.fr;thermos-root-devel-WordCountTopology-0-e1650698-c90d-447a-93bd-42a8cd7f3676;["topology_master"];5.25;1533759722.88221;3.18;9.14;0.0;9;117
10;paravance-69.rennes.grid5000.fr;thermos-root-devel-WordCountTopology-1-d75f682c-9f3c-43c4-b5fa-19603ff84ff8;["container_1_Consume_and_count_1"];5.25;1533759722.75281;68.72;452.57;0.128358375;10;149
11;paravance-72.rennes.grid5000.fr;thermos-root-devel-WordCountTopology-2-89dcf4b1-68c7-47b2-92ed-59f1f6117b98;["container_2_Emit_random_words_2"];5.25;1533759733.03462;45.24;396.68;0.754717456;10;149
11;paravance-69.rennes.grid5000.fr;thermos-root-devel-WordCountTopology-1-d75f682c-9f3c-43c4-b5fa-19603ff84ff8;["container_1_Consume_and_count_1"];5.25;1533759732.96407;71.83;473.88;0.128358375;10;149
11;paravance-70.rennes.grid5000.fr;thermos-root-devel-WordCountTopology-0-e1650698-c90d-447a-93bd-42a8cd7f3676;["topology_master"];5.25;1533759733.09381;3.23;9.22;0.0;9;117
12;paravance-72.rennes.grid5000.fr;thermos-root-devel-WordCountTopology-2-89dcf4b1-68c7-47b2-92ed-59f1f6117b98;["container_2_Emit_random_words_2"];5.25;1533759743.24485;47.23;413.85;0.754717456;10;149
12;paravance-70.rennes.grid5000.fr;thermos-root-devel-WordCountTopology-0-e1650698-c90d-447a-93bd-42a8cd7f3676;["topology_master"];5.25;1533759743.30477;3.36;9.49;0.0;9;117
12;paravance-69.rennes.grid5000.fr;thermos-root-devel-WordCountTopology-1-d75f682c-9f3c-43c4-b5fa-19603ff84ff8;["container_1_Consume_and_count_1"];5.25;1533759743.1758;75.17;494.84;0.128358375;10;149
13;paravance-69.rennes.grid5000.fr;thermos-root-devel-WordCountTopology-1-d75f682c-9f3c-43c4-b5fa-19603ff84ff8;["container_1_Consume_and_count_1"];5.25;1533759753.3835;78.21;515.88;0.128358375;10;149
13;paravance-72.rennes.grid5000.fr;thermos-root-devel-WordCountTopology-2-89dcf4b1-68c7-47b2-92ed-59f1f6117b98;["container_2_Emit_random_words_2"];5.25;1533759753.45399;49.06;430.6;0.754717456;10;149
13;paravance-70.rennes.grid5000.fr;thermos-root-devel-WordCountTopology-0-e1650698-c90d-447a-93bd-42a8cd7f3676;["topology_master"];5.25;1533759753.51406;3.39;9.51;0.0;9;117
14;paravance-69.rennes.grid5000.fr;thermos-root-devel-WordCountTopology-1-d75f682c-9f3c-43c4-b5fa-19603ff84ff8;["container_1_Consume_and_count_1"];5.25;1533759763.49116;81.48;537.64;0.128358375;10;149
14;paravance-72.rennes.grid5000.fr;thermos-root-devel-WordCountTopology-2-89dcf4b1-68c7-47b2-92ed-59f1f6117b98;["container_2_Emit_random_words_2"];5.25;1533759763.66502;50.99;447.46;0.754717456;10;149
14;paravance-70.rennes.grid5000.fr;thermos-root-devel-WordCountTopology-0-e1650698-c90d-447a-93bd-42a8cd7f3676;["topology_master"];5.25;1533759763.72281;3.48;9.65;0.0;9;117
15;paravance-69.rennes.grid5000.fr;thermos-root-devel-WordCountTopology-1-d75f682c-9f3c-43c4-b5fa-19603ff84ff8;["container_1_Consume_and_count_1"];5.25;1533759773.80237;84.69;558.3;0.128358375;10;149
15;paravance-70.rennes.grid5000.fr;thermos-root-devel-WordCountTopology-0-e1650698-c90d-447a-93bd-42a8cd7f3676;["topology_master"];5.25;1533759773.93374;3.54;9.72;0.0;9;117
15;paravance-72.rennes.grid5000.fr;thermos-root-devel-WordCountTopology-2-89dcf4b1-68c7-47b2-92ed-59f1f6117b98;["container_2_Emit_random_words_2"];5.25;1533759773.8745;52.89;464.84;0.754717456;10;149
16;paravance-72.rennes.grid5000.fr;thermos-root-devel-WordCountTopology-2-89dcf4b1-68c7-47b2-92ed-59f1f6117b98;["container_2_Emit_random_words_2"];5.25;1533759784.0856;54.7;480.93;0.754717456;10;149
16;paravance-69.rennes.grid5000.fr;thermos-root-devel-WordCountTopology-1-d75f682c-9f3c-43c4-b5fa-19603ff84ff8;["container_1_Consume_and_count_1"];5.25;1533759784.01532;87.72;578.64;0.128358375;10;149
16;paravance-70.rennes.grid5000.fr;thermos-root-devel-WordCountTopology-0-e1650698-c90d-447a-93bd-42a8cd7f3676;["topology_master"];5.25;1533759784.14542;3.6;9.8;0.0;9;117
17;paravance-69.rennes.grid5000.fr;thermos-root-devel-WordCountTopology-1-d75f682c-9f3c-43c4-b5fa-19603ff84ff8;["container_1_Consume_and_count_1"];5.25;1533759794.22363;90.96;600.25;0.128358375;10;149
17;paravance-70.rennes.grid5000.fr;thermos-root-devel-WordCountTopology-0-e1650698-c90d-447a-93bd-42a8cd7f3676;["topology_master"];5.25;1533759794.35488;3.65;9.87;0.0;9;117
17;paravance-72.rennes.grid5000.fr;thermos-root-devel-WordCountTopology-2-89dcf4b1-68c7-47b2-92ed-59f1f6117b98;["container_2_Emit_random_words_2"];5.25;1533759794.2975;56.64;498.47;0.754717456;10;149
18;paravance-69.rennes.grid5000.fr;thermos-root-devel-WordCountTopology-1-d75f682c-9f3c-43c4-b5fa-19603ff84ff8;["container_1_Consume_and_count_1"];5.25;1533759804.43402;94.13;621.39;0.128358375;10;149
18;paravance-70.rennes.grid5000.fr;thermos-root-devel-WordCountTopology-0-e1650698-c90d-447a-93bd-42a8cd7f3676;["topology_master"];5.25;1533759804.56445;3.77;10.09;0.0;9;117
18;paravance-72.rennes.grid5000.fr;thermos-root-devel-WordCountTopology-2-89dcf4b1-68c7-47b2-92ed-59f1f6117b98;["container_2_Emit_random_words_2"];5.25;1533759804.50529;58.63;516.07;0.754717456;10;149
19;paravance-72.rennes.grid5000.fr;thermos-root-devel-WordCountTopology-2-89dcf4b1-68c7-47b2-92ed-59f1f6117b98;["container_2_Emit_random_words_2"];5.25;1533759814.71559;60.31;531.36;0.754717456;10;149
19;paravance-69.rennes.grid5000.fr;thermos-root-devel-WordCountTopology-1-d75f682c-9f3c-43c4-b5fa-19603ff84ff8;["container_1_Consume_and_count_1"];5.25;1533759814.64407;96.95;641.48;0.128358375;10;149
19;paravance-70.rennes.grid5000.fr;thermos-root-devel-WordCountTopology-0-e1650698-c90d-447a-93bd-42a8cd7f3676;["topology_master"];5.25;1533759814.77527;3.79;10.11;0.0;9;117
20;paravance-72.rennes.grid5000.fr;thermos-root-devel-WordCountTopology-2-89dcf4b1-68c7-47b2-92ed-59f1f6117b98;["container_2_Emit_random_words_2"];5.25;1533759824.92519;62.25;548.74;0.754717456;10;149
20;paravance-70.rennes.grid5000.fr;thermos-root-devel-WordCountTopology-0-e1650698-c90d-447a-93bd-42a8cd7f3676;["topology_master"];5.25;1533759824.98472;3.88;10.24;0.0;9;117
20;paravance-69.rennes.grid5000.fr;thermos-root-devel-WordCountTopology-1-d75f682c-9f3c-43c4-b5fa-19603ff84ff8;["container_1_Consume_and_count_1"];5.25;1533759824.85454;100.06;662.24;0.128358375;10;149
21;paravance-69.rennes.grid5000.fr;thermos-root-devel-WordCountTopology-1-d75f682c-9f3c-43c4-b5fa-19603ff84ff8;["container_1_Consume_and_count_1"];5.25;1533759835.06302;102.85;682.63;0.128358375;10;149
21;paravance-72.rennes.grid5000.fr;thermos-root-devel-WordCountTopology-2-89dcf4b1-68c7-47b2-92ed-59f1f6117b98;["container_2_Emit_random_words_2"];5.25;1533759835.13654;63.98;564.16;0.754717456;10;149
21;paravance-70.rennes.grid5000.fr;thermos-root-devel-WordCountTopology-0-e1650698-c90d-447a-93bd-42a8cd7f3676;["topology_master"];5.25;1533759835.19491;3.94;10.31;0.0;9;117
22;paravance-72.rennes.grid5000.fr;thermos-root-devel-WordCountTopology-2-89dcf4b1-68c7-47b2-92ed-59f1f6117b98;["container_2_Emit_random_words_2"];5.25;1533759845.34552;65.79;580.27;0.754717456;10;149
22;paravance-69.rennes.grid5000.fr;thermos-root-devel-WordCountTopology-1-d75f682c-9f3c-43c4-b5fa-19603ff84ff8;["container_1_Consume_and_count_1"];5.25;1533759845.27465;105.75;702.9;0.128358375;10;149
22;paravance-70.rennes.grid5000.fr;thermos-root-devel-WordCountTopology-0-e1650698-c90d-447a-93bd-42a8cd7f3676;["topology_master"];5.25;1533759845.40489;4.0;10.39;0.0;9;117
23;paravance-69.rennes.grid5000.fr;thermos-root-devel-WordCountTopology-1-d75f682c-9f3c-43c4-b5fa-19603ff84ff8;["container_1_Consume_and_count_1"];5.25;1533759855.48462;108.74;723.93;0.128358375;10;149
23;paravance-72.rennes.grid5000.fr;thermos-root-devel-WordCountTopology-2-89dcf4b1-68c7-47b2-92ed-59f1f6117b98;["container_2_Emit_random_words_2"];5.25;1533759855.5559;67.59;596.48;0.754717456;10;149
23;paravance-70.rennes.grid5000.fr;thermos-root-devel-WordCountTopology-0-e1650698-c90d-447a-93bd-42a8cd7f3676;["topology_master"];5.25;1533759855.6157;4.06;10.46;0.0;9;117
24;paravance-69.rennes.grid5000.fr;thermos-root-devel-WordCountTopology-1-d75f682c-9f3c-43c4-b5fa-19603ff84ff8;["container_1_Consume_and_count_1"];5.25;1533759865.69313;111.72;744.18;0.128358375;10;149
24;paravance-72.rennes.grid5000.fr;thermos-root-devel-WordCountTopology-2-89dcf4b1-68c7-47b2-92ed-59f1f6117b98;["container_2_Emit_random_words_2"];5.25;1533759865.76819;69.42;612.85;0.754717456;10;149
24;paravance-70.rennes.grid5000.fr;thermos-root-devel-WordCountTopology-0-e1650698-c90d-447a-93bd-42a8cd7f3676;["topology_master"];5.25;1533759865.82597;4.18;10.65;0.0;9;117
25;paravance-72.rennes.grid5000.fr;thermos-root-devel-WordCountTopology-2-89dcf4b1-68c7-47b2-92ed-59f1f6117b98;["container_2_Emit_random_words_2"];5.25;1533759875.97673;71.2;628.85;0.754717456;10;149
25;paravance-69.rennes.grid5000.fr;thermos-root-devel-WordCountTopology-1-d75f682c-9f3c-43c4-b5fa-19603ff84ff8;["container_1_Consume_and_count_1"];5.25;1533759875.90689;114.47;764.88;0.128358375;10;149
25;paravance-70.rennes.grid5000.fr;thermos-root-devel-WordCountTopology-0-e1650698-c90d-447a-93bd-42a8cd7f3676;["topology_master"];5.25;1533759876.03639;4.2;10.68;0.0;9;117
26;paravance-72.rennes.grid5000.fr;thermos-root-devel-WordCountTopology-2-89dcf4b1-68c7-47b2-92ed-59f1f6117b98;["container_2_Emit_random_words_2"];5.25;1533759886.18651;73.01;644.65;0.754717456;10;149
26;paravance-70.rennes.grid5000.fr;thermos-root-devel-WordCountTopology-0-e1650698-c90d-447a-93bd-42a8cd7f3676;["topology_master"];5.25;1533759886.24713;4.29;10.8;0.0;9;117
26;paravance-69.rennes.grid5000.fr;thermos-root-devel-WordCountTopology-1-d75f682c-9f3c-43c4-b5fa-19603ff84ff8;["container_1_Consume_and_count_1"];5.25;1533759886.1161;117.62;785.55;0.128358375;10;149
27;paravance-70.rennes.grid5000.fr;thermos-root-devel-WordCountTopology-0-e1650698-c90d-447a-93bd-42a8cd7f3676;["topology_master"];5.25;1533759896.45671;4.35;10.87;0.0;9;117
27;paravance-69.rennes.grid5000.fr;thermos-root-devel-WordCountTopology-1-d75f682c-9f3c-43c4-b5fa-19603ff84ff8;["container_1_Consume_and_count_1"];5.25;1533759896.326;120.67;805.96;0.128358375;10;149
27;paravance-72.rennes.grid5000.fr;thermos-root-devel-WordCountTopology-2-89dcf4b1-68c7-47b2-92ed-59f1f6117b98;["container_2_Emit_random_words_2"];5.25;1533759896.39732;74.85;660.77;0.754717456;10;149
28;paravance-72.rennes.grid5000.fr;thermos-root-devel-WordCountTopology-2-89dcf4b1-68c7-47b2-92ed-59f1f6117b98;["container_2_Emit_random_words_2"];5.25;1533759906.6072;76.65;677.2;0.754717456;10;149
28;paravance-69.rennes.grid5000.fr;thermos-root-devel-WordCountTopology-1-d75f682c-9f3c-43c4-b5fa-19603ff84ff8;["container_1_Consume_and_count_1"];5.25;1533759906.53574;123.76;826.26;0.128358375;10;149
28;paravance-70.rennes.grid5000.fr;thermos-root-devel-WordCountTopology-0-e1650698-c90d-447a-93bd-42a8cd7f3676;["topology_master"];5.25;1533759906.66659;4.4;10.95;0.0;9;117
29;paravance-72.rennes.grid5000.fr;thermos-root-devel-WordCountTopology-2-89dcf4b1-68c7-47b2-92ed-59f1f6117b98;["container_2_Emit_random_words_2"];5.25;1533759916.81801;78.52;694.04;0.754717456;10;149
29;paravance-69.rennes.grid5000.fr;thermos-root-devel-WordCountTopology-1-d75f682c-9f3c-43c4-b5fa-19603ff84ff8;["container_1_Consume_and_count_1"];5.25;1533759916.74693;126.98;847.78;0.128358375;10;149
29;paravance-70.rennes.grid5000.fr;thermos-root-devel-WordCountTopology-0-e1650698-c90d-447a-93bd-42a8cd7f3676;["topology_master"];5.25;1533759916.87832;4.46;11.01;0.0;9;117
30;paravance-72.rennes.grid5000.fr;thermos-root-devel-WordCountTopology-2-89dcf4b1-68c7-47b2-92ed-59f1f6117b98;["container_2_Emit_random_words_2"];5.25;1533759927.03109;80.5;711.58;0.754717456;10;149
30;paravance-69.rennes.grid5000.fr;thermos-root-devel-WordCountTopology-1-d75f682c-9f3c-43c4-b5fa-19603ff84ff8;["container_1_Consume_and_count_1"];5.25;1533759926.95947;130.21;869.2;0.128358375;10;149
30;paravance-70.rennes.grid5000.fr;thermos-root-devel-WordCountTopology-0-e1650698-c90d-447a-93bd-42a8cd7f3676;["topology_master"];5.25;1533759927.09093;4.56;11.18;0.0;9;117
31;paravance-69.rennes.grid5000.fr;thermos-root-devel-WordCountTopology-1-d75f682c-9f3c-43c4-b5fa-19603ff84ff8;["container_1_Consume_and_count_1"];5.25;1533759937.16823;133.25;889.79;0.128358375;10;147
31;paravance-70.rennes.grid5000.fr;thermos-root-devel-WordCountTopology-0-e1650698-c90d-447a-93bd-42a8cd7f3676;["topology_master"];5.25;1533759937.29943;4.61;11.25;0.0;9;115
31;paravance-72.rennes.grid5000.fr;thermos-root-devel-WordCountTopology-2-89dcf4b1-68c7-47b2-92ed-59f1f6117b98;["container_2_Emit_random_words_2"];5.25;1533759937.24169;82.31;728.33;0.754717456;10;149
32;paravance-69.rennes.grid5000.fr;thermos-root-devel-WordCountTopology-1-d75f682c-9f3c-43c4-b5fa-19603ff84ff8;["container_1_Consume_and_count_1"];5.25;1533759947.38203;136.39;910.17;0.128358375;10;149
32;paravance-72.rennes.grid5000.fr;thermos-root-devel-WordCountTopology-2-89dcf4b1-68c7-47b2-92ed-59f1f6117b98;["container_2_Emit_random_words_2"];5.25;1533759947.44978;84.28;745.61;0.754717456;10;149
32;paravance-70.rennes.grid5000.fr;thermos-root-devel-WordCountTopology-0-e1650698-c90d-447a-93bd-42a8cd7f3676;["topology_master"];5.25;1533759947.50982;4.68;11.33;0.0;9;117
33;paravance-69.rennes.grid5000.fr;thermos-root-devel-WordCountTopology-1-d75f682c-9f3c-43c4-b5fa-19603ff84ff8;["container_1_Consume_and_count_1"];5.25;1533759957.59532;139.59;931.58;0.128358375;10;149
33;paravance-72.rennes.grid5000.fr;thermos-root-devel-WordCountTopology-2-89dcf4b1-68c7-47b2-92ed-59f1f6117b98;["container_2_Emit_random_words_2"];5.25;1533759957.6592;86.17;762.27;0.754717456;10;149
33;paravance-70.rennes.grid5000.fr;thermos-root-devel-WordCountTopology-0-e1650698-c90d-447a-93bd-42a8cd7f3676;["topology_master"];5.25;1533759957.71885;4.77;11.45;0.0;9;117
34;paravance-69.rennes.grid5000.fr;thermos-root-devel-WordCountTopology-1-d75f682c-9f3c-43c4-b5fa-19603ff84ff8;["container_1_Consume_and_count_1"];5.25;1533759967.81046;142.81;952.37;0.128358375;10;149
34;paravance-72.rennes.grid5000.fr;thermos-root-devel-WordCountTopology-2-89dcf4b1-68c7-47b2-92ed-59f1f6117b98;["container_2_Emit_random_words_2"];5.25;1533759967.86931;88.02;778.94;0.754717456;10;149
34;paravance-70.rennes.grid5000.fr;thermos-root-devel-WordCountTopology-0-e1650698-c90d-447a-93bd-42a8cd7f3676;["topology_master"];5.25;1533759967.92969;4.79;11.47;0.0;9;117
35;paravance-69.rennes.grid5000.fr;thermos-root-devel-WordCountTopology-1-d75f682c-9f3c-43c4-b5fa-19603ff84ff8;["container_1_Consume_and_count_1"];5.25;1533759978.02569;146.01;973.88;0.128358375;10;149
35;paravance-72.rennes.grid5000.fr;thermos-root-devel-WordCountTopology-2-89dcf4b1-68c7-47b2-92ed-59f1f6117b98;["container_2_Emit_random_words_2"];5.25;1533759978.08115;89.92;795.86;0.754717456;10;149
35;paravance-70.rennes.grid5000.fr;thermos-root-devel-WordCountTopology-0-e1650698-c90d-447a-93bd-42a8cd7f3676;["topology_master"];5.25;1533759978.14073;4.89;11.6;0.0;9;117
36;paravance-69.rennes.grid5000.fr;thermos-root-devel-WordCountTopology-1-d75f682c-9f3c-43c4-b5fa-19603ff84ff8;["container_1_Consume_and_count_1"];5.25;1533759988.24253;149.22;995.18;0.128358375;10;149
36;paravance-70.rennes.grid5000.fr;thermos-root-devel-WordCountTopology-0-e1650698-c90d-447a-93bd-42a8cd7f3676;["topology_master"];5.25;1533759988.34987;4.95;11.77;0.0;9;117
36;paravance-72.rennes.grid5000.fr;thermos-root-devel-WordCountTopology-2-89dcf4b1-68c7-47b2-92ed-59f1f6117b98;["container_2_Emit_random_words_2"];5.25;1533759988.29026;91.82;812.64;0.754717456;10;149
37;paravance-72.rennes.grid5000.fr;thermos-root-devel-WordCountTopology-2-89dcf4b1-68c7-47b2-92ed-59f1f6117b98;["container_2_Emit_random_words_2"];5.25;1533759998.50069;93.67;829.0;0.754717456;10;149
37;paravance-70.rennes.grid5000.fr;thermos-root-devel-WordCountTopology-0-e1650698-c90d-447a-93bd-42a8cd7f3676;["topology_master"];5.25;1533759998.56046;5.01;11.84;0.0;9;117
37;paravance-69.rennes.grid5000.fr;thermos-root-devel-WordCountTopology-1-d75f682c-9f3c-43c4-b5fa-19603ff84ff8;["container_1_Consume_and_count_1"];5.25;1533759998.45912;152.21;1015.52;0.128358375;10;149
38;paravance-72.rennes.grid5000.fr;thermos-root-devel-WordCountTopology-2-89dcf4b1-68c7-47b2-92ed-59f1f6117b98;["container_2_Emit_random_words_2"];5.25;1533760008.71164;95.5;845.23;0.754717456;10;149
38;paravance-69.rennes.grid5000.fr;thermos-root-devel-WordCountTopology-1-d75f682c-9f3c-43c4-b5fa-19603ff84ff8;["container_1_Consume_and_count_1"];5.25;1533760008.67497;155.48;1036.97;0.128358375;10;149
38;paravance-70.rennes.grid5000.fr;thermos-root-devel-WordCountTopology-0-e1650698-c90d-447a-93bd-42a8cd7f3676;["topology_master"];5.25;1533760008.77165;5.07;11.92;0.0;9;117
39;paravance-72.rennes.grid5000.fr;thermos-root-devel-WordCountTopology-2-89dcf4b1-68c7-47b2-92ed-59f1f6117b98;["container_2_Emit_random_words_2"];5.25;1533760018.92038;97.34;861.18;0.754717456;10;149
39;paravance-70.rennes.grid5000.fr;thermos-root-devel-WordCountTopology-0-e1650698-c90d-447a-93bd-42a8cd7f3676;["topology_master"];5.25;1533760018.98144;5.15;12.04;0.0;9;117
39;paravance-69.rennes.grid5000.fr;thermos-root-devel-WordCountTopology-1-d75f682c-9f3c-43c4-b5fa-19603ff84ff8;["container_1_Consume_and_count_1"];5.25;1533760018.88931;158.45;1057.85;0.128358375;10;149
40;paravance-70.rennes.grid5000.fr;thermos-root-devel-WordCountTopology-0-e1650698-c90d-447a-93bd-42a8cd7f3676;["topology_master"];5.25;1533760029.19115;5.19;12.07;0.0;9;117
40;paravance-69.rennes.grid5000.fr;thermos-root-devel-WordCountTopology-1-d75f682c-9f3c-43c4-b5fa-19603ff84ff8;["container_1_Consume_and_count_1"];5.25;1533760029.11624;161.46;1078.39;0.128358375;10;149
40;paravance-72.rennes.grid5000.fr;thermos-root-devel-WordCountTopology-2-89dcf4b1-68c7-47b2-92ed-59f1f6117b98;["container_2_Emit_random_words_2"];5.25;1533760029.14473;99.18;877.79;0.754717456;10;149
41;paravance-69.rennes.grid5000.fr;thermos-root-devel-WordCountTopology-1-d75f682c-9f3c-43c4-b5fa-19603ff84ff8;["container_1_Consume_and_count_1"];5.25;1533760039.32954;164.43;1098.59;0.128358375;10;149
41;paravance-72.rennes.grid5000.fr;thermos-root-devel-WordCountTopology-2-89dcf4b1-68c7-47b2-92ed-59f1f6117b98;["container_2_Emit_random_words_2"];5.25;1533760039.35334;101.05;894.13;0.754717456;10;149
41;paravance-70.rennes.grid5000.fr;thermos-root-devel-WordCountTopology-0-e1650698-c90d-447a-93bd-42a8cd7f3676;["topology_master"];5.25;1533760039.4135;5.27;12.19;0.0;9;117
42;paravance-70.rennes.grid5000.fr;thermos-root-devel-WordCountTopology-0-e1650698-c90d-447a-93bd-42a8cd7f3676;["topology_master"];5.25;1533760049.62324;5.34;12.3;0.0;9;117
42;paravance-69.rennes.grid5000.fr;thermos-root-devel-WordCountTopology-1-d75f682c-9f3c-43c4-b5fa-19603ff84ff8;["container_1_Consume_and_count_1"];5.25;1533760049.54513;167.36;1119.13;0.128358375;10;149
42;paravance-72.rennes.grid5000.fr;thermos-root-devel-WordCountTopology-2-89dcf4b1-68c7-47b2-92ed-59f1f6117b98;["container_2_Emit_random_words_2"];5.25;1533760049.56395;102.83;909.93;0.754717456;10;149
43;paravance-72.rennes.grid5000.fr;thermos-root-devel-WordCountTopology-2-89dcf4b1-68c7-47b2-92ed-59f1f6117b98;["container_2_Emit_random_words_2"];5.25;1533760059.6734;104.66;926.01;0.754717456;10;149
43;paravance-69.rennes.grid5000.fr;thermos-root-devel-WordCountTopology-1-d75f682c-9f3c-43c4-b5fa-19603ff84ff8;["container_1_Consume_and_count_1"];5.25;1533760059.7608;170.33;1139.6;0.128358375;10;149
43;paravance-70.rennes.grid5000.fr;thermos-root-devel-WordCountTopology-0-e1650698-c90d-447a-93bd-42a8cd7f3676;["topology_master"];5.25;1533760059.83358;5.42;12.42;0.0;9;117
44;paravance-72.rennes.grid5000.fr;thermos-root-devel-WordCountTopology-2-89dcf4b1-68c7-47b2-92ed-59f1f6117b98;["container_2_Emit_random_words_2"];5.25;1533760069.88421;106.48;942.23;0.754717456;10;149
44;paravance-70.rennes.grid5000.fr;thermos-root-devel-WordCountTopology-0-e1650698-c90d-447a-93bd-42a8cd7f3676;["topology_master"];5.25;1533760070.04384;5.45;12.44;0.0;9;117
44;paravance-69.rennes.grid5000.fr;thermos-root-devel-WordCountTopology-1-d75f682c-9f3c-43c4-b5fa-19603ff84ff8;["container_1_Consume_and_count_1"];5.25;1533760069.97848;173.23;1159.89;0.128358375;10;149
45;paravance-69.rennes.grid5000.fr;thermos-root-devel-WordCountTopology-1-d75f682c-9f3c-43c4-b5fa-19603ff84ff8;["container_1_Consume_and_count_1"];5.25;1533760080.19072;176.29;1180.56;0.128358375;10;149
45;paravance-70.rennes.grid5000.fr;thermos-root-devel-WordCountTopology-0-e1650698-c90d-447a-93bd-42a8cd7f3676;["topology_master"];5.25;1533760080.25417;5.54;12.56;0.0;9;117
45;paravance-72.rennes.grid5000.fr;thermos-root-devel-WordCountTopology-2-89dcf4b1-68c7-47b2-92ed-59f1f6117b98;["container_2_Emit_random_words_2"];5.25;1533760080.19535;108.36;958.95;0.754717456;10;149
46;paravance-69.rennes.grid5000.fr;thermos-root-devel-WordCountTopology-1-d75f682c-9f3c-43c4-b5fa-19603ff84ff8;["container_1_Consume_and_count_1"];5.25;1533760090.40732;179.11;1200.39;0.128358375;10;149
46;paravance-70.rennes.grid5000.fr;thermos-root-devel-WordCountTopology-0-e1650698-c90d-447a-93bd-42a8cd7f3676;["topology_master"];5.25;1533760090.46436;5.6;12.64;0.0;9;117
46;paravance-72.rennes.grid5000.fr;thermos-root-devel-WordCountTopology-2-89dcf4b1-68c7-47b2-92ed-59f1f6117b98;["container_2_Emit_random_words_2"];5.25;1533760090.40919;110.15;974.85;0.754717456;10;149
47;paravance-69.rennes.grid5000.fr;thermos-root-devel-WordCountTopology-1-d75f682c-9f3c-43c4-b5fa-19603ff84ff8;["container_1_Consume_and_count_1"];5.25;1533760100.6215;182.1;1221.68;0.128358375;10;149
47;paravance-72.rennes.grid5000.fr;thermos-root-devel-WordCountTopology-2-89dcf4b1-68c7-47b2-92ed-59f1f6117b98;["container_2_Emit_random_words_2"];5.25;1533760100.62437;112.14;992.66;0.754717456;10;149
47;paravance-70.rennes.grid5000.fr;thermos-root-devel-WordCountTopology-0-e1650698-c90d-447a-93bd-42a8cd7f3676;["topology_master"];5.25;1533760100.67374;5.66;12.72;0.0;9;117
48;paravance-69.rennes.grid5000.fr;thermos-root-devel-WordCountTopology-1-d75f682c-9f3c-43c4-b5fa-19603ff84ff8;["container_1_Consume_and_count_1"];5.25;1533760110.73702;185.12;1243.37;0.128358375;10;149
48;paravance-72.rennes.grid5000.fr;thermos-root-devel-WordCountTopology-2-89dcf4b1-68c7-47b2-92ed-59f1f6117b98;["container_2_Emit_random_words_2"];5.25;1533760110.83956;114.14;1010.45;0.754717456;10;149
48;paravance-70.rennes.grid5000.fr;thermos-root-devel-WordCountTopology-0-e1650698-c90d-447a-93bd-42a8cd7f3676;["topology_master"];5.25;1533760110.88488;5.72;12.85;0.0;9;117
49;paravance-72.rennes.grid5000.fr;thermos-root-devel-WordCountTopology-2-89dcf4b1-68c7-47b2-92ed-59f1f6117b98;["container_2_Emit_random_words_2"];5.25;1533760121.05447;116.09;1027.87;0.754717456;10;149
49;paravance-69.rennes.grid5000.fr;thermos-root-devel-WordCountTopology-1-d75f682c-9f3c-43c4-b5fa-19603ff84ff8;["container_1_Consume_and_count_1"];5.25;1533760121.05121;188.11;1264.38;0.128358375;10;149
49;paravance-70.rennes.grid5000.fr;thermos-root-devel-WordCountTopology-0-e1650698-c90d-447a-93bd-42a8cd7f3676;["topology_master"];5.25;1533760121.09443;5.81;12.97;0.0;9;117
50;paravance-72.rennes.grid5000.fr;thermos-root-devel-WordCountTopology-2-89dcf4b1-68c7-47b2-92ed-59f1f6117b98;["container_2_Emit_random_words_2"];5.25;1533760131.26991;118.14;1046.49;0.754717456;10;149
50;paravance-69.rennes.grid5000.fr;thermos-root-devel-WordCountTopology-1-d75f682c-9f3c-43c4-b5fa-19603ff84ff8;["container_1_Consume_and_count_1"];5.25;1533760131.26754;191.19;1286.07;0.128358375;10;149
50;paravance-70.rennes.grid5000.fr;thermos-root-devel-WordCountTopology-0-e1650698-c90d-447a-93bd-42a8cd7f3676;["topology_master"];5.25;1533760131.30441;5.84;13.0;0.0;9;117
51;paravance-72.rennes.grid5000.fr;thermos-root-devel-WordCountTopology-2-89dcf4b1-68c7-47b2-92ed-59f1f6117b98;["container_2_Emit_random_words_2"];5.25;1533760141.48543;120.17;1064.25;0.754717456;10;149
51;paravance-69.rennes.grid5000.fr;thermos-root-devel-WordCountTopology-1-d75f682c-9f3c-43c4-b5fa-19603ff84ff8;["container_1_Consume_and_count_1"];5.25;1533760141.48324;194.25;1307.63;0.128358375;10;149
51;paravance-70.rennes.grid5000.fr;thermos-root-devel-WordCountTopology-0-e1650698-c90d-447a-93bd-42a8cd7f3676;["topology_master"];5.25;1533760141.51538;5.93;13.13;0.0;9;117
52;paravance-72.rennes.grid5000.fr;thermos-root-devel-WordCountTopology-2-89dcf4b1-68c7-47b2-92ed-59f1f6117b98;["container_2_Emit_random_words_2"];5.25;1533760151.69987;122.14;1081.93;0.754717456;10;149
52;paravance-69.rennes.grid5000.fr;thermos-root-devel-WordCountTopology-1-d75f682c-9f3c-43c4-b5fa-19603ff84ff8;["container_1_Consume_and_count_1"];5.25;1533760151.69579;197.25;1328.42;0.128358375;10;149
52;paravance-70.rennes.grid5000.fr;thermos-root-devel-WordCountTopology-0-e1650698-c90d-447a-93bd-42a8cd7f3676;["topology_master"];5.25;1533760151.72432;5.98;13.2;0.0;9;117
53;paravance-69.rennes.grid5000.fr;thermos-root-devel-WordCountTopology-1-d75f682c-9f3c-43c4-b5fa-19603ff84ff8;["container_1_Consume_and_count_1"];5.25;1533760161.81418;200.27;1349.4;0.128358375;10;149
53;paravance-70.rennes.grid5000.fr;thermos-root-devel-WordCountTopology-0-e1650698-c90d-447a-93bd-42a8cd7f3676;["topology_master"];5.25;1533760161.93382;6.05;13.3;0.0;9;117
53;paravance-72.rennes.grid5000.fr;thermos-root-devel-WordCountTopology-2-89dcf4b1-68c7-47b2-92ed-59f1f6117b98;["container_2_Emit_random_words_2"];5.25;1533760161.91608;124.18;1100.17;0.754717456;10;149
54;paravance-72.rennes.grid5000.fr;thermos-root-devel-WordCountTopology-2-89dcf4b1-68c7-47b2-92ed-59f1f6117b98;["container_2_Emit_random_words_2"];5.25;1533760172.12994;125.84;1114.98;0.754717456;10;149
54;paravance-70.rennes.grid5000.fr;thermos-root-devel-WordCountTopology-0-e1650698-c90d-447a-93bd-42a8cd7f3676;["topology_master"];5.25;1533760172.14468;6.11;13.4;0.0;9;117
54;paravance-69.rennes.grid5000.fr;thermos-root-devel-WordCountTopology-1-d75f682c-9f3c-43c4-b5fa-19603ff84ff8;["container_1_Consume_and_count_1"];5.25;1533760172.12792;202.9;1369.35;0.128358375;10;149
55;paravance-69.rennes.grid5000.fr;thermos-root-devel-WordCountTopology-1-d75f682c-9f3c-43c4-b5fa-19603ff84ff8;["container_1_Consume_and_count_1"];5.25;1533760182.34099;205.92;1389.74;0.128358375;10;149
55;paravance-72.rennes.grid5000.fr;thermos-root-devel-WordCountTopology-2-89dcf4b1-68c7-47b2-92ed-59f1f6117b98;["container_2_Emit_random_words_2"];5.25;1533760182.3438;127.81;1132.53;0.754717456;10;149
55;paravance-70.rennes.grid5000.fr;thermos-root-devel-WordCountTopology-0-e1650698-c90d-447a-93bd-42a8cd7f3676;["topology_master"];5.25;1533760182.35339;6.2;13.52;0.0;9;117
56;paravance-69.rennes.grid5000.fr;thermos-root-devel-WordCountTopology-1-d75f682c-9f3c-43c4-b5fa-19603ff84ff8;["container_1_Consume_and_count_1"];5.25;1533760192.55734;208.78;1409.79;0.128358375;10;149
56;paravance-72.rennes.grid5000.fr;thermos-root-devel-WordCountTopology-2-89dcf4b1-68c7-47b2-92ed-59f1f6117b98;["container_2_Emit_random_words_2"];5.25;1533760192.55998;129.64;1149.04;0.754717456;10;149
56;paravance-70.rennes.grid5000.fr;thermos-root-devel-WordCountTopology-0-e1650698-c90d-447a-93bd-42a8cd7f3676;["topology_master"];5.25;1533760192.56392;6.22;13.54;0.0;9;117
57;paravance-70.rennes.grid5000.fr;thermos-root-devel-WordCountTopology-0-e1650698-c90d-447a-93bd-42a8cd7f3676;["topology_master"];5.25;1533760202.67889;6.31;13.66;0.0;9;117
57;paravance-69.rennes.grid5000.fr;thermos-root-devel-WordCountTopology-1-d75f682c-9f3c-43c4-b5fa-19603ff84ff8;["container_1_Consume_and_count_1"];5.25;1533760202.77235;211.65;1429.82;0.128358375;10;149
57;paravance-72.rennes.grid5000.fr;thermos-root-devel-WordCountTopology-2-89dcf4b1-68c7-47b2-92ed-59f1f6117b98;["container_2_Emit_random_words_2"];5.25;1533760202.77493;131.46;1165.34;0.754717456;10;149
58;paravance-69.rennes.grid5000.fr;thermos-root-devel-WordCountTopology-1-d75f682c-9f3c-43c4-b5fa-19603ff84ff8;["container_1_Consume_and_count_1"];5.25;1533760212.98766;214.69;1451.04;0.128358375;10;149
58;paravance-72.rennes.grid5000.fr;thermos-root-devel-WordCountTopology-2-89dcf4b1-68c7-47b2-92ed-59f1f6117b98;["container_2_Emit_random_words_2"];5.25;1533760212.99033;133.41;1182.75;0.754717456;10;149
58;paravance-70.rennes.grid5000.fr;thermos-root-devel-WordCountTopology-0-e1650698-c90d-447a-93bd-42a8cd7f3676;["topology_master"];5.25;1533760212.99312;6.37;13.74;0.0;9;117
59;paravance-69.rennes.grid5000.fr;thermos-root-devel-WordCountTopology-1-d75f682c-9f3c-43c4-b5fa-19603ff84ff8;["container_1_Consume_and_count_1"];5.25;1533760223.20345;217.49;1471.42;0.128358375;10;149
59;paravance-72.rennes.grid5000.fr;thermos-root-devel-WordCountTopology-2-89dcf4b1-68c7-47b2-92ed-59f1f6117b98;["container_2_Emit_random_words_2"];5.25;1533760223.20684;135.19;1198.58;0.754717456;10;149
59;paravance-70.rennes.grid5000.fr;thermos-root-devel-WordCountTopology-0-e1650698-c90d-447a-93bd-42a8cd7f3676;["topology_master"];5.25;1533760223.20883;6.45;13.88;0.0;9;117
60;paravance-72.rennes.grid5000.fr;thermos-root-devel-WordCountTopology-2-89dcf4b1-68c7-47b2-92ed-59f1f6117b98;["container_2_Emit_random_words_2"];5.25;1533760233.42136;137.18;1216.57;0.754717456;10;149
60;paravance-69.rennes.grid5000.fr;thermos-root-devel-WordCountTopology-1-d75f682c-9f3c-43c4-b5fa-19603ff84ff8;["container_1_Consume_and_count_1"];5.25;1533760233.41834;220.71;1492.6;0.128358375;10;149
60;paravance-70.rennes.grid5000.fr;thermos-root-devel-WordCountTopology-0-e1650698-c90d-447a-93bd-42a8cd7f3676;["topology_master"];5.25;1533760233.42287;6.51;13.96;0.0;9;117
