mesure_id;slave_id;executor_id;heron_instances;cpus_limit;timestamp_B;cpus_system_time_secs_B;cpus_user_time_secs_B;cpus_throttled_time_secs_B;processes;threads
0;paravance-47.rennes.grid5000.fr;thermos-root-devel-WordCountTopology-0-41836f7c-cef8-4952-b103-4a40f5ddf1ef;["topology_master"];4.25;1533759646.52179;2.56;8.39;0.0;9;117
0;paravance-18.rennes.grid5000.fr;thermos-root-devel-WordCountTopology-2-3a9b2cdc-6e02-4a8e-9c12-4a81c36d3ed4;["container_2_Emit_random_words_2"];4.25;1533759646.75779;28.05;254.75;2.420312679;10;149
0;paravance-41.rennes.grid5000.fr;thermos-root-devel-WordCountTopology-1-40496184-1cf8-4ab4-9d10-c4b1a2779f36;["container_1_Consume_and_count_1"];4.25;1533759646.54777;40.64;221.89;0.442970023;10;149
1;paravance-41.rennes.grid5000.fr;thermos-root-devel-WordCountTopology-1-40496184-1cf8-4ab4-9d10-c4b1a2779f36;["container_1_Consume_and_count_1"];4.25;1533759656.76109;43.82;243.76;0.442970023;10;149
1;paravance-47.rennes.grid5000.fr;thermos-root-devel-WordCountTopology-0-41836f7c-cef8-4952-b103-4a40f5ddf1ef;["topology_master"];4.25;1533759656.73777;2.66;8.52;0.0;9;117
1;paravance-18.rennes.grid5000.fr;thermos-root-devel-WordCountTopology-2-3a9b2cdc-6e02-4a8e-9c12-4a81c36d3ed4;["container_2_Emit_random_words_2"];4.25;1533759656.9679;30.09;272.84;2.420312679;10;149
2;paravance-41.rennes.grid5000.fr;thermos-root-devel-WordCountTopology-1-40496184-1cf8-4ab4-9d10-c4b1a2779f36;["container_1_Consume_and_count_1"];4.25;1533759666.97637;46.81;264.92;0.442970023;10;149
2;paravance-18.rennes.grid5000.fr;thermos-root-devel-WordCountTopology-2-3a9b2cdc-6e02-4a8e-9c12-4a81c36d3ed4;["container_2_Emit_random_words_2"];4.25;1533759667.17734;31.84;289.05;2.420312679;10;149
2;paravance-47.rennes.grid5000.fr;thermos-root-devel-WordCountTopology-0-41836f7c-cef8-4952-b103-4a40f5ddf1ef;["topology_master"];4.25;1533759666.95236;2.69;8.55;0.0;9;117
3;paravance-18.rennes.grid5000.fr;thermos-root-devel-WordCountTopology-2-3a9b2cdc-6e02-4a8e-9c12-4a81c36d3ed4;["container_2_Emit_random_words_2"];4.25;1533759677.38738;33.81;306.98;2.420312679;10;149
3;paravance-41.rennes.grid5000.fr;thermos-root-devel-WordCountTopology-1-40496184-1cf8-4ab4-9d10-c4b1a2779f36;["container_1_Consume_and_count_1"];4.25;1533759677.19174;50.08;286.9;0.442970023;10;149
3;paravance-47.rennes.grid5000.fr;thermos-root-devel-WordCountTopology-0-41836f7c-cef8-4952-b103-4a40f5ddf1ef;["topology_master"];4.25;1533759677.16884;2.78;8.67;0.0;9;117
4;paravance-47.rennes.grid5000.fr;thermos-root-devel-WordCountTopology-0-41836f7c-cef8-4952-b103-4a40f5ddf1ef;["topology_master"];4.25;1533759687.3827;2.84;8.75;0.0;9;117
4;paravance-18.rennes.grid5000.fr;thermos-root-devel-WordCountTopology-2-3a9b2cdc-6e02-4a8e-9c12-4a81c36d3ed4;["container_2_Emit_random_words_2"];4.25;1533759687.59794;35.75;324.76;2.420312679;10;149
4;paravance-41.rennes.grid5000.fr;thermos-root-devel-WordCountTopology-1-40496184-1cf8-4ab4-9d10-c4b1a2779f36;["container_1_Consume_and_count_1"];4.25;1533759687.40829;53.15;308.69;0.442970023;10;149
5;paravance-41.rennes.grid5000.fr;thermos-root-devel-WordCountTopology-1-40496184-1cf8-4ab4-9d10-c4b1a2779f36;["container_1_Consume_and_count_1"];4.25;1533759697.62103;56.34;329.45;0.442970023;10;149
5;paravance-18.rennes.grid5000.fr;thermos-root-devel-WordCountTopology-2-3a9b2cdc-6e02-4a8e-9c12-4a81c36d3ed4;["container_2_Emit_random_words_2"];4.25;1533759697.80713;37.65;342.55;2.420312679;10;149
5;paravance-47.rennes.grid5000.fr;thermos-root-devel-WordCountTopology-0-41836f7c-cef8-4952-b103-4a40f5ddf1ef;["topology_master"];4.25;1533759697.59827;2.95;8.92;0.0;9;117
6;paravance-41.rennes.grid5000.fr;thermos-root-devel-WordCountTopology-1-40496184-1cf8-4ab4-9d10-c4b1a2779f36;["container_1_Consume_and_count_1"];4.25;1533759707.83656;59.34;350.9;0.442970023;10;149
6;paravance-18.rennes.grid5000.fr;thermos-root-devel-WordCountTopology-2-3a9b2cdc-6e02-4a8e-9c12-4a81c36d3ed4;["container_2_Emit_random_words_2"];4.25;1533759708.01731;39.51;359.72;2.420312679;10;149
6;paravance-47.rennes.grid5000.fr;thermos-root-devel-WordCountTopology-0-41836f7c-cef8-4952-b103-4a40f5ddf1ef;["topology_master"];4.25;1533759707.81287;2.98;9.01;0.0;9;117
7;paravance-41.rennes.grid5000.fr;thermos-root-devel-WordCountTopology-1-40496184-1cf8-4ab4-9d10-c4b1a2779f36;["container_1_Consume_and_count_1"];4.25;1533759718.05106;62.23;371.3;0.442970023;10;149
7;paravance-18.rennes.grid5000.fr;thermos-root-devel-WordCountTopology-2-3a9b2cdc-6e02-4a8e-9c12-4a81c36d3ed4;["container_2_Emit_random_words_2"];4.25;1533759718.22658;41.36;375.94;2.420312679;10;149
7;paravance-47.rennes.grid5000.fr;thermos-root-devel-WordCountTopology-0-41836f7c-cef8-4952-b103-4a40f5ddf1ef;["topology_master"];4.25;1533759718.02794;3.07;9.14;0.0;9;117
8;paravance-41.rennes.grid5000.fr;thermos-root-devel-WordCountTopology-1-40496184-1cf8-4ab4-9d10-c4b1a2779f36;["container_1_Consume_and_count_1"];4.25;1533759728.26478;65.13;391.97;0.442970023;10;149
8;paravance-18.rennes.grid5000.fr;thermos-root-devel-WordCountTopology-2-3a9b2cdc-6e02-4a8e-9c12-4a81c36d3ed4;["container_2_Emit_random_words_2"];4.25;1533759728.4351;43.13;392.28;2.420312679;10;149
8;paravance-47.rennes.grid5000.fr;thermos-root-devel-WordCountTopology-0-41836f7c-cef8-4952-b103-4a40f5ddf1ef;["topology_master"];4.25;1533759728.24331;3.13;9.22;0.0;9;117
9;paravance-41.rennes.grid5000.fr;thermos-root-devel-WordCountTopology-1-40496184-1cf8-4ab4-9d10-c4b1a2779f36;["container_1_Consume_and_count_1"];4.25;1533759738.48104;68.51;413.54;0.442970023;10;149
9;paravance-18.rennes.grid5000.fr;thermos-root-devel-WordCountTopology-2-3a9b2cdc-6e02-4a8e-9c12-4a81c36d3ed4;["container_2_Emit_random_words_2"];4.25;1533759738.64646;45.2;412.11;2.420312679;10;149
9;paravance-47.rennes.grid5000.fr;thermos-root-devel-WordCountTopology-0-41836f7c-cef8-4952-b103-4a40f5ddf1ef;["topology_master"];4.25;1533759738.45747;3.19;9.3;0.0;9;117
10;paravance-18.rennes.grid5000.fr;thermos-root-devel-WordCountTopology-2-3a9b2cdc-6e02-4a8e-9c12-4a81c36d3ed4;["container_2_Emit_random_words_2"];4.25;1533759748.85522;47.18;430.59;2.420312679;10;149
10;paravance-41.rennes.grid5000.fr;thermos-root-devel-WordCountTopology-1-40496184-1cf8-4ab4-9d10-c4b1a2779f36;["container_1_Consume_and_count_1"];4.25;1533759748.69686;71.67;435.33;0.442970023;10;149
10;paravance-47.rennes.grid5000.fr;thermos-root-devel-WordCountTopology-0-41836f7c-cef8-4952-b103-4a40f5ddf1ef;["topology_master"];4.25;1533759748.67283;3.25;9.37;0.0;9;117
11;paravance-41.rennes.grid5000.fr;thermos-root-devel-WordCountTopology-1-40496184-1cf8-4ab4-9d10-c4b1a2779f36;["container_1_Consume_and_count_1"];4.25;1533759758.91105;74.86;457.02;0.442970023;10;149
11;paravance-47.rennes.grid5000.fr;thermos-root-devel-WordCountTopology-0-41836f7c-cef8-4952-b103-4a40f5ddf1ef;["topology_master"];4.25;1533759758.88595;3.38;9.59;0.0;9;117
11;paravance-18.rennes.grid5000.fr;thermos-root-devel-WordCountTopology-2-3a9b2cdc-6e02-4a8e-9c12-4a81c36d3ed4;["container_2_Emit_random_words_2"];4.25;1533759759.0651;49.28;449.74;2.420312679;10;149
12;paravance-47.rennes.grid5000.fr;thermos-root-devel-WordCountTopology-0-41836f7c-cef8-4952-b103-4a40f5ddf1ef;["topology_master"];4.25;1533759769.10161;3.41;9.62;0.0;9;117
12;paravance-41.rennes.grid5000.fr;thermos-root-devel-WordCountTopology-1-40496184-1cf8-4ab4-9d10-c4b1a2779f36;["container_1_Consume_and_count_1"];4.25;1533759769.12796;77.93;478.01;0.442970023;10;149
12;paravance-18.rennes.grid5000.fr;thermos-root-devel-WordCountTopology-2-3a9b2cdc-6e02-4a8e-9c12-4a81c36d3ed4;["container_2_Emit_random_words_2"];4.25;1533759769.27632;51.17;467.45;2.420312679;10;149
13;paravance-18.rennes.grid5000.fr;thermos-root-devel-WordCountTopology-2-3a9b2cdc-6e02-4a8e-9c12-4a81c36d3ed4;["container_2_Emit_random_words_2"];4.25;1533759779.48751;53.15;486.46;2.420312679;10;149
13;paravance-47.rennes.grid5000.fr;thermos-root-devel-WordCountTopology-0-41836f7c-cef8-4952-b103-4a40f5ddf1ef;["topology_master"];4.25;1533759779.3186;3.51;9.75;0.0;9;117
13;paravance-41.rennes.grid5000.fr;thermos-root-devel-WordCountTopology-1-40496184-1cf8-4ab4-9d10-c4b1a2779f36;["container_1_Consume_and_count_1"];4.25;1533759779.34472;81.09;499.24;0.442970023;10;149
14;paravance-18.rennes.grid5000.fr;thermos-root-devel-WordCountTopology-2-3a9b2cdc-6e02-4a8e-9c12-4a81c36d3ed4;["container_2_Emit_random_words_2"];4.25;1533759789.69844;55.07;504.35;2.420312679;10;149
14;paravance-41.rennes.grid5000.fr;thermos-root-devel-WordCountTopology-1-40496184-1cf8-4ab4-9d10-c4b1a2779f36;["container_1_Consume_and_count_1"];4.25;1533759789.56073;84.15;520.49;0.442970023;10;149
14;paravance-47.rennes.grid5000.fr;thermos-root-devel-WordCountTopology-0-41836f7c-cef8-4952-b103-4a40f5ddf1ef;["topology_master"];4.25;1533759789.53487;3.56;9.82;0.0;9;117
15;paravance-41.rennes.grid5000.fr;thermos-root-devel-WordCountTopology-1-40496184-1cf8-4ab4-9d10-c4b1a2779f36;["container_1_Consume_and_count_1"];4.25;1533759799.77407;87.51;542.46;0.442970023;10;149
15;paravance-18.rennes.grid5000.fr;thermos-root-devel-WordCountTopology-2-3a9b2cdc-6e02-4a8e-9c12-4a81c36d3ed4;["container_2_Emit_random_words_2"];4.25;1533759799.90934;57.2;524.31;2.420312679;10;149
15;paravance-47.rennes.grid5000.fr;thermos-root-devel-WordCountTopology-0-41836f7c-cef8-4952-b103-4a40f5ddf1ef;["topology_master"];4.25;1533759799.7506;3.62;9.91;0.0;9;117
16;paravance-41.rennes.grid5000.fr;thermos-root-devel-WordCountTopology-1-40496184-1cf8-4ab4-9d10-c4b1a2779f36;["container_1_Consume_and_count_1"];4.25;1533759809.99014;90.41;564.02;0.442970023;10;149
16;paravance-47.rennes.grid5000.fr;thermos-root-devel-WordCountTopology-0-41836f7c-cef8-4952-b103-4a40f5ddf1ef;["topology_master"];4.25;1533759809.96454;3.68;9.98;0.0;9;117
16;paravance-18.rennes.grid5000.fr;thermos-root-devel-WordCountTopology-2-3a9b2cdc-6e02-4a8e-9c12-4a81c36d3ed4;["container_2_Emit_random_words_2"];4.25;1533759810.11981;59.11;542.37;2.420312679;10;149
17;paravance-41.rennes.grid5000.fr;thermos-root-devel-WordCountTopology-1-40496184-1cf8-4ab4-9d10-c4b1a2779f36;["container_1_Consume_and_count_1"];4.25;1533759820.20395;93.68;586.2;0.442970023;10;149
17;paravance-47.rennes.grid5000.fr;thermos-root-devel-WordCountTopology-0-41836f7c-cef8-4952-b103-4a40f5ddf1ef;["topology_master"];4.25;1533759820.17842;3.8;10.24;0.0;9;117
17;paravance-18.rennes.grid5000.fr;thermos-root-devel-WordCountTopology-2-3a9b2cdc-6e02-4a8e-9c12-4a81c36d3ed4;["container_2_Emit_random_words_2"];4.25;1533759820.32908;61.11;561.81;2.420312679;10;149
18;paravance-18.rennes.grid5000.fr;thermos-root-devel-WordCountTopology-2-3a9b2cdc-6e02-4a8e-9c12-4a81c36d3ed4;["container_2_Emit_random_words_2"];4.25;1533759830.53798;63.03;580.76;2.420312679;10;149
18;paravance-41.rennes.grid5000.fr;thermos-root-devel-WordCountTopology-1-40496184-1cf8-4ab4-9d10-c4b1a2779f36;["container_1_Consume_and_count_1"];4.25;1533759830.41903;96.87;607.71;0.442970023;10;149
18;paravance-47.rennes.grid5000.fr;thermos-root-devel-WordCountTopology-0-41836f7c-cef8-4952-b103-4a40f5ddf1ef;["topology_master"];4.25;1533759830.39472;3.83;10.27;0.0;9;117
19;paravance-41.rennes.grid5000.fr;thermos-root-devel-WordCountTopology-1-40496184-1cf8-4ab4-9d10-c4b1a2779f36;["container_1_Consume_and_count_1"];4.25;1533759840.63478;99.76;628.79;0.442970023;10;149
19;paravance-18.rennes.grid5000.fr;thermos-root-devel-WordCountTopology-2-3a9b2cdc-6e02-4a8e-9c12-4a81c36d3ed4;["container_2_Emit_random_words_2"];4.25;1533759840.74856;64.82;597.48;2.420312679;10;149
19;paravance-47.rennes.grid5000.fr;thermos-root-devel-WordCountTopology-0-41836f7c-cef8-4952-b103-4a40f5ddf1ef;["topology_master"];4.25;1533759840.61021;3.92;10.4;0.0;9;117
20;paravance-41.rennes.grid5000.fr;thermos-root-devel-WordCountTopology-1-40496184-1cf8-4ab4-9d10-c4b1a2779f36;["container_1_Consume_and_count_1"];4.25;1533759850.8486;102.73;649.77;0.442970023;10;149
20;paravance-18.rennes.grid5000.fr;thermos-root-devel-WordCountTopology-2-3a9b2cdc-6e02-4a8e-9c12-4a81c36d3ed4;["container_2_Emit_random_words_2"];4.25;1533759850.95909;66.8;616.05;2.420312679;10;149
20;paravance-47.rennes.grid5000.fr;thermos-root-devel-WordCountTopology-0-41836f7c-cef8-4952-b103-4a40f5ddf1ef;["topology_master"];4.25;1533759850.8244;3.98;10.48;0.0;9;117
21;paravance-41.rennes.grid5000.fr;thermos-root-devel-WordCountTopology-1-40496184-1cf8-4ab4-9d10-c4b1a2779f36;["container_1_Consume_and_count_1"];4.25;1533759861.06498;105.89;671.02;0.442970023;10;149
21;paravance-47.rennes.grid5000.fr;thermos-root-devel-WordCountTopology-0-41836f7c-cef8-4952-b103-4a40f5ddf1ef;["topology_master"];4.25;1533759861.03965;4.04;10.55;0.0;9;117
21;paravance-18.rennes.grid5000.fr;thermos-root-devel-WordCountTopology-2-3a9b2cdc-6e02-4a8e-9c12-4a81c36d3ed4;["container_2_Emit_random_words_2"];4.25;1533759861.16948;68.77;634.93;2.420312679;10;149
22;paravance-41.rennes.grid5000.fr;thermos-root-devel-WordCountTopology-1-40496184-1cf8-4ab4-9d10-c4b1a2779f36;["container_1_Consume_and_count_1"];4.25;1533759871.28003;109.16;693.24;0.442970023;10;149
22;paravance-18.rennes.grid5000.fr;thermos-root-devel-WordCountTopology-2-3a9b2cdc-6e02-4a8e-9c12-4a81c36d3ed4;["container_2_Emit_random_words_2"];4.25;1533759871.37862;70.79;654.14;2.420312679;10;149
22;paravance-47.rennes.grid5000.fr;thermos-root-devel-WordCountTopology-0-41836f7c-cef8-4952-b103-4a40f5ddf1ef;["topology_master"];4.25;1533759871.25507;4.1;10.62;0.0;9;117
23;paravance-41.rennes.grid5000.fr;thermos-root-devel-WordCountTopology-1-40496184-1cf8-4ab4-9d10-c4b1a2779f36;["container_1_Consume_and_count_1"];4.25;1533759881.39664;112.37;715.05;0.442970023;10;149
23;paravance-47.rennes.grid5000.fr;thermos-root-devel-WordCountTopology-0-41836f7c-cef8-4952-b103-4a40f5ddf1ef;["topology_master"];4.25;1533759881.46926;4.21;10.83;0.0;9;117
23;paravance-18.rennes.grid5000.fr;thermos-root-devel-WordCountTopology-2-3a9b2cdc-6e02-4a8e-9c12-4a81c36d3ed4;["container_2_Emit_random_words_2"];4.25;1533759881.589;72.82;673.46;2.420312679;10;149
24;paravance-18.rennes.grid5000.fr;thermos-root-devel-WordCountTopology-2-3a9b2cdc-6e02-4a8e-9c12-4a81c36d3ed4;["container_2_Emit_random_words_2"];4.25;1533759891.79969;74.76;692.12;2.420312679;10;149
24;paravance-47.rennes.grid5000.fr;thermos-root-devel-WordCountTopology-0-41836f7c-cef8-4952-b103-4a40f5ddf1ef;["topology_master"];4.25;1533759891.68461;4.24;10.85;0.0;9;117
24;paravance-41.rennes.grid5000.fr;thermos-root-devel-WordCountTopology-1-40496184-1cf8-4ab4-9d10-c4b1a2779f36;["container_1_Consume_and_count_1"];4.25;1533759891.71249;115.45;736.13;0.442970023;10;149
25;paravance-18.rennes.grid5000.fr;thermos-root-devel-WordCountTopology-2-3a9b2cdc-6e02-4a8e-9c12-4a81c36d3ed4;["container_2_Emit_random_words_2"];4.25;1533759902.00973;76.79;710.14;2.420312679;10;149
25;paravance-41.rennes.grid5000.fr;thermos-root-devel-WordCountTopology-1-40496184-1cf8-4ab4-9d10-c4b1a2779f36;["container_1_Consume_and_count_1"];4.25;1533759901.92891;118.57;758.05;0.442970023;10;149
25;paravance-47.rennes.grid5000.fr;thermos-root-devel-WordCountTopology-0-41836f7c-cef8-4952-b103-4a40f5ddf1ef;["topology_master"];4.25;1533759901.90146;4.33;10.98;0.0;9;117
26;paravance-47.rennes.grid5000.fr;thermos-root-devel-WordCountTopology-0-41836f7c-cef8-4952-b103-4a40f5ddf1ef;["topology_master"];4.25;1533759912.11679;4.39;11.05;0.0;9;117
26;paravance-18.rennes.grid5000.fr;thermos-root-devel-WordCountTopology-2-3a9b2cdc-6e02-4a8e-9c12-4a81c36d3ed4;["container_2_Emit_random_words_2"];4.25;1533759912.22176;78.63;726.62;2.420312679;10;149
26;paravance-41.rennes.grid5000.fr;thermos-root-devel-WordCountTopology-1-40496184-1cf8-4ab4-9d10-c4b1a2779f36;["container_1_Consume_and_count_1"];4.25;1533759912.14683;121.54;778.77;0.442970023;10;149
27;paravance-41.rennes.grid5000.fr;thermos-root-devel-WordCountTopology-1-40496184-1cf8-4ab4-9d10-c4b1a2779f36;["container_1_Consume_and_count_1"];4.25;1533759922.36078;124.73;798.96;0.442970023;10;149
27;paravance-18.rennes.grid5000.fr;thermos-root-devel-WordCountTopology-2-3a9b2cdc-6e02-4a8e-9c12-4a81c36d3ed4;["container_2_Emit_random_words_2"];4.25;1533759922.43316;80.51;745.04;2.420312679;10;149
27;paravance-47.rennes.grid5000.fr;thermos-root-devel-WordCountTopology-0-41836f7c-cef8-4952-b103-4a40f5ddf1ef;["topology_master"];4.25;1533759922.33456;4.45;11.13;0.0;9;117
28;paravance-47.rennes.grid5000.fr;thermos-root-devel-WordCountTopology-0-41836f7c-cef8-4952-b103-4a40f5ddf1ef;["topology_master"];4.25;1533759932.54962;4.5;11.21;0.0;9;117
28;paravance-18.rennes.grid5000.fr;thermos-root-devel-WordCountTopology-2-3a9b2cdc-6e02-4a8e-9c12-4a81c36d3ed4;["container_2_Emit_random_words_2"];4.25;1533759932.64441;82.55;764.57;2.420312679;10;149
28;paravance-41.rennes.grid5000.fr;thermos-root-devel-WordCountTopology-1-40496184-1cf8-4ab4-9d10-c4b1a2779f36;["container_1_Consume_and_count_1"];4.25;1533759932.5776;127.91;815.36;0.442970023;10;149
29;paravance-18.rennes.grid5000.fr;thermos-root-devel-WordCountTopology-2-3a9b2cdc-6e02-4a8e-9c12-4a81c36d3ed4;["container_2_Emit_random_words_2"];4.25;1533759942.85398;84.72;783.97;2.420312679;10;149
29;paravance-41.rennes.grid5000.fr;thermos-root-devel-WordCountTopology-1-40496184-1cf8-4ab4-9d10-c4b1a2779f36;["container_1_Consume_and_count_1"];4.25;1533759942.79224;130.91;831.33;0.442970023;10;149
29;paravance-47.rennes.grid5000.fr;thermos-root-devel-WordCountTopology-0-41836f7c-cef8-4952-b103-4a40f5ddf1ef;["topology_master"];4.25;1533759942.76505;4.61;11.39;0.0;9;117
30;paravance-41.rennes.grid5000.fr;thermos-root-devel-WordCountTopology-1-40496184-1cf8-4ab4-9d10-c4b1a2779f36;["container_1_Consume_and_count_1"];4.25;1533759953.00548;134.03;847.12;0.442970023;10;149
30;paravance-18.rennes.grid5000.fr;thermos-root-devel-WordCountTopology-2-3a9b2cdc-6e02-4a8e-9c12-4a81c36d3ed4;["container_2_Emit_random_words_2"];4.25;1533759953.06234;86.81;803.59;2.420312679;10;149
30;paravance-47.rennes.grid5000.fr;thermos-root-devel-WordCountTopology-0-41836f7c-cef8-4952-b103-4a40f5ddf1ef;["topology_master"];4.25;1533759952.97912;4.68;11.47;0.0;9;117
31;paravance-18.rennes.grid5000.fr;thermos-root-devel-WordCountTopology-2-3a9b2cdc-6e02-4a8e-9c12-4a81c36d3ed4;["container_2_Emit_random_words_2"];4.25;1533759963.27239;88.81;823.92;2.420312679;10;149
31;paravance-41.rennes.grid5000.fr;thermos-root-devel-WordCountTopology-1-40496184-1cf8-4ab4-9d10-c4b1a2779f36;["container_1_Consume_and_count_1"];4.25;1533759963.22137;137.49;863.7;0.442970023;10;149
31;paravance-47.rennes.grid5000.fr;thermos-root-devel-WordCountTopology-0-41836f7c-cef8-4952-b103-4a40f5ddf1ef;["topology_master"];4.25;1533759963.19397;4.73;11.55;0.0;9;117
32;paravance-41.rennes.grid5000.fr;thermos-root-devel-WordCountTopology-1-40496184-1cf8-4ab4-9d10-c4b1a2779f36;["container_1_Consume_and_count_1"];4.25;1533759973.43292;140.95;881.07;0.442970023;10;149
32;paravance-47.rennes.grid5000.fr;thermos-root-devel-WordCountTopology-0-41836f7c-cef8-4952-b103-4a40f5ddf1ef;["topology_master"];4.25;1533759973.40744;4.83;11.68;0.0;9;117
32;paravance-18.rennes.grid5000.fr;thermos-root-devel-WordCountTopology-2-3a9b2cdc-6e02-4a8e-9c12-4a81c36d3ed4;["container_2_Emit_random_words_2"];4.25;1533759973.48191;90.88;843.44;2.420312679;10;149
33;paravance-41.rennes.grid5000.fr;thermos-root-devel-WordCountTopology-1-40496184-1cf8-4ab4-9d10-c4b1a2779f36;["container_1_Consume_and_count_1"];4.25;1533759983.64793;144.39;903.77;0.442970023;10;149
33;paravance-18.rennes.grid5000.fr;thermos-root-devel-WordCountTopology-2-3a9b2cdc-6e02-4a8e-9c12-4a81c36d3ed4;["container_2_Emit_random_words_2"];4.25;1533759983.69124;92.83;862.38;2.420312679;10;149
33;paravance-47.rennes.grid5000.fr;thermos-root-devel-WordCountTopology-0-41836f7c-cef8-4952-b103-4a40f5ddf1ef;["topology_master"];4.25;1533759983.62269;4.85;11.7;0.0;9;117
34;paravance-41.rennes.grid5000.fr;thermos-root-devel-WordCountTopology-1-40496184-1cf8-4ab4-9d10-c4b1a2779f36;["container_1_Consume_and_count_1"];4.25;1533759993.86349;147.63;924.5;0.442970023;10;149
34;paravance-47.rennes.grid5000.fr;thermos-root-devel-WordCountTopology-0-41836f7c-cef8-4952-b103-4a40f5ddf1ef;["topology_master"];4.25;1533759993.83552;4.95;11.84;0.0;9;117
34;paravance-18.rennes.grid5000.fr;thermos-root-devel-WordCountTopology-2-3a9b2cdc-6e02-4a8e-9c12-4a81c36d3ed4;["container_2_Emit_random_words_2"];4.25;1533759993.89989;94.77;879.84;2.420312679;10;149
35;paravance-41.rennes.grid5000.fr;thermos-root-devel-WordCountTopology-1-40496184-1cf8-4ab4-9d10-c4b1a2779f36;["container_1_Consume_and_count_1"];4.25;1533760004.07968;150.75;945.56;0.442970023;10;149
35;paravance-47.rennes.grid5000.fr;thermos-root-devel-WordCountTopology-0-41836f7c-cef8-4952-b103-4a40f5ddf1ef;["topology_master"];4.25;1533760004.0516;5.02;12.01;0.0;9;117
35;paravance-18.rennes.grid5000.fr;thermos-root-devel-WordCountTopology-2-3a9b2cdc-6e02-4a8e-9c12-4a81c36d3ed4;["container_2_Emit_random_words_2"];4.25;1533760004.11167;96.59;896.89;2.420312679;10;149
36;paravance-41.rennes.grid5000.fr;thermos-root-devel-WordCountTopology-1-40496184-1cf8-4ab4-9d10-c4b1a2779f36;["container_1_Consume_and_count_1"];4.25;1533760014.29705;153.95;966.93;0.442970023;10;149
36;paravance-47.rennes.grid5000.fr;thermos-root-devel-WordCountTopology-0-41836f7c-cef8-4952-b103-4a40f5ddf1ef;["topology_master"];4.25;1533760014.26958;5.08;12.09;0.0;9;117
36;paravance-18.rennes.grid5000.fr;thermos-root-devel-WordCountTopology-2-3a9b2cdc-6e02-4a8e-9c12-4a81c36d3ed4;["container_2_Emit_random_words_2"];4.25;1533760014.32431;98.55;914.62;2.420312679;10;149
37;paravance-41.rennes.grid5000.fr;thermos-root-devel-WordCountTopology-1-40496184-1cf8-4ab4-9d10-c4b1a2779f36;["container_1_Consume_and_count_1"];4.25;1533760024.51117;157.33;988.42;0.442970023;10;149
37;paravance-47.rennes.grid5000.fr;thermos-root-devel-WordCountTopology-0-41836f7c-cef8-4952-b103-4a40f5ddf1ef;["topology_master"];4.25;1533760024.48461;5.14;12.16;0.0;9;117
37;paravance-18.rennes.grid5000.fr;thermos-root-devel-WordCountTopology-2-3a9b2cdc-6e02-4a8e-9c12-4a81c36d3ed4;["container_2_Emit_random_words_2"];4.25;1533760024.53418;100.52;932.47;2.420312679;10;149
38;paravance-41.rennes.grid5000.fr;thermos-root-devel-WordCountTopology-1-40496184-1cf8-4ab4-9d10-c4b1a2779f36;["container_1_Consume_and_count_1"];4.25;1533760034.72712;160.47;1009.19;0.442970023;10;149
38;paravance-18.rennes.grid5000.fr;thermos-root-devel-WordCountTopology-2-3a9b2cdc-6e02-4a8e-9c12-4a81c36d3ed4;["container_2_Emit_random_words_2"];4.25;1533760034.74325;102.33;948.94;2.420312679;10;149
38;paravance-47.rennes.grid5000.fr;thermos-root-devel-WordCountTopology-0-41836f7c-cef8-4952-b103-4a40f5ddf1ef;["topology_master"];4.25;1533760034.70017;5.23;12.29;0.0;9;117
39;paravance-41.rennes.grid5000.fr;thermos-root-devel-WordCountTopology-1-40496184-1cf8-4ab4-9d10-c4b1a2779f36;["container_1_Consume_and_count_1"];4.25;1533760044.94373;163.6;1030.62;0.442970023;10;149
39;paravance-18.rennes.grid5000.fr;thermos-root-devel-WordCountTopology-2-3a9b2cdc-6e02-4a8e-9c12-4a81c36d3ed4;["container_2_Emit_random_words_2"];4.25;1533760044.95568;104.27;966.66;2.420312679;10;149
39;paravance-47.rennes.grid5000.fr;thermos-root-devel-WordCountTopology-0-41836f7c-cef8-4952-b103-4a40f5ddf1ef;["topology_master"];4.25;1533760044.91706;5.28;12.36;0.0;9;117
40;paravance-47.rennes.grid5000.fr;thermos-root-devel-WordCountTopology-0-41836f7c-cef8-4952-b103-4a40f5ddf1ef;["topology_master"];4.25;1533760055.1429;5.36;12.45;0.0;9;117
40;paravance-18.rennes.grid5000.fr;thermos-root-devel-WordCountTopology-2-3a9b2cdc-6e02-4a8e-9c12-4a81c36d3ed4;["container_2_Emit_random_words_2"];4.25;1533760055.17707;106.1;983.03;2.420312679;10;149
40;paravance-41.rennes.grid5000.fr;thermos-root-devel-WordCountTopology-1-40496184-1cf8-4ab4-9d10-c4b1a2779f36;["container_1_Consume_and_count_1"];4.25;1533760055.17544;166.95;1051.38;0.442970023;10;149
41;paravance-41.rennes.grid5000.fr;thermos-root-devel-WordCountTopology-1-40496184-1cf8-4ab4-9d10-c4b1a2779f36;["container_1_Consume_and_count_1"];4.25;1533760065.38612;169.97;1072.46;0.442970023;10;149
41;paravance-18.rennes.grid5000.fr;thermos-root-devel-WordCountTopology-2-3a9b2cdc-6e02-4a8e-9c12-4a81c36d3ed4;["container_2_Emit_random_words_2"];4.25;1533760065.3893;107.89;998.99;2.420312679;10;149
41;paravance-47.rennes.grid5000.fr;thermos-root-devel-WordCountTopology-0-41836f7c-cef8-4952-b103-4a40f5ddf1ef;["topology_master"];4.25;1533760065.36091;5.42;12.56;0.0;9;117
42;paravance-18.rennes.grid5000.fr;thermos-root-devel-WordCountTopology-2-3a9b2cdc-6e02-4a8e-9c12-4a81c36d3ed4;["container_2_Emit_random_words_2"];4.25;1533760075.59882;109.88;1016.86;2.420312679;10;149
42;paravance-47.rennes.grid5000.fr;thermos-root-devel-WordCountTopology-0-41836f7c-cef8-4952-b103-4a40f5ddf1ef;["topology_master"];4.25;1533760075.57442;5.51;12.68;0.0;9;117
42;paravance-41.rennes.grid5000.fr;thermos-root-devel-WordCountTopology-1-40496184-1cf8-4ab4-9d10-c4b1a2779f36;["container_1_Consume_and_count_1"];4.25;1533760075.60426;173.44;1094.46;0.443011212;10;149
43;paravance-41.rennes.grid5000.fr;thermos-root-devel-WordCountTopology-1-40496184-1cf8-4ab4-9d10-c4b1a2779f36;["container_1_Consume_and_count_1"];4.25;1533760085.81709;176.78;1116.72;0.443011212;10;149
43;paravance-18.rennes.grid5000.fr;thermos-root-devel-WordCountTopology-2-3a9b2cdc-6e02-4a8e-9c12-4a81c36d3ed4;["container_2_Emit_random_words_2"];4.25;1533760085.80904;111.84;1034.6;2.420312679;10;149
43;paravance-47.rennes.grid5000.fr;thermos-root-devel-WordCountTopology-0-41836f7c-cef8-4952-b103-4a40f5ddf1ef;["topology_master"];4.25;1533760085.79116;5.54;12.7;0.0;9;117
44;paravance-41.rennes.grid5000.fr;thermos-root-devel-WordCountTopology-1-40496184-1cf8-4ab4-9d10-c4b1a2779f36;["container_1_Consume_and_count_1"];4.25;1533760096.03232;180.01;1138.19;0.443011212;10;149
44;paravance-18.rennes.grid5000.fr;thermos-root-devel-WordCountTopology-2-3a9b2cdc-6e02-4a8e-9c12-4a81c36d3ed4;["container_2_Emit_random_words_2"];4.25;1533760096.019;113.79;1051.86;2.420312679;10;149
44;paravance-47.rennes.grid5000.fr;thermos-root-devel-WordCountTopology-0-41836f7c-cef8-4952-b103-4a40f5ddf1ef;["topology_master"];4.25;1533760096.00574;5.63;12.83;0.0;9;117
45;paravance-47.rennes.grid5000.fr;thermos-root-devel-WordCountTopology-0-41836f7c-cef8-4952-b103-4a40f5ddf1ef;["topology_master"];4.25;1533760106.21969;5.68;12.9;0.0;9;117
45;paravance-41.rennes.grid5000.fr;thermos-root-devel-WordCountTopology-1-40496184-1cf8-4ab4-9d10-c4b1a2779f36;["container_1_Consume_and_count_1"];4.25;1533760106.24914;183.32;1160.35;0.443011212;10;149
45;paravance-18.rennes.grid5000.fr;thermos-root-devel-WordCountTopology-2-3a9b2cdc-6e02-4a8e-9c12-4a81c36d3ed4;["container_2_Emit_random_words_2"];4.25;1533760106.23096;115.75;1069.64;2.420312679;10;149
46;paravance-41.rennes.grid5000.fr;thermos-root-devel-WordCountTopology-1-40496184-1cf8-4ab4-9d10-c4b1a2779f36;["container_1_Consume_and_count_1"];4.25;1533760116.46366;186.55;1182.62;0.443011212;10;149
46;paravance-18.rennes.grid5000.fr;thermos-root-devel-WordCountTopology-2-3a9b2cdc-6e02-4a8e-9c12-4a81c36d3ed4;["container_2_Emit_random_words_2"];4.25;1533760116.44072;117.67;1087.17;2.420312679;10;149
46;paravance-47.rennes.grid5000.fr;thermos-root-devel-WordCountTopology-0-41836f7c-cef8-4952-b103-4a40f5ddf1ef;["topology_master"];4.25;1533760116.43726;5.76;13.0;0.0;9;117
47;paravance-47.rennes.grid5000.fr;thermos-root-devel-WordCountTopology-0-41836f7c-cef8-4952-b103-4a40f5ddf1ef;["topology_master"];4.25;1533760126.55348;5.82;13.14;0.0;9;117
47;paravance-41.rennes.grid5000.fr;thermos-root-devel-WordCountTopology-1-40496184-1cf8-4ab4-9d10-c4b1a2779f36;["container_1_Consume_and_count_1"];4.25;1533760126.68034;189.73;1204.29;0.443011212;10;149
47;paravance-18.rennes.grid5000.fr;thermos-root-devel-WordCountTopology-2-3a9b2cdc-6e02-4a8e-9c12-4a81c36d3ed4;["container_2_Emit_random_words_2"];4.25;1533760126.65135;119.61;1104.72;2.420312679;10;149
48;paravance-41.rennes.grid5000.fr;thermos-root-devel-WordCountTopology-1-40496184-1cf8-4ab4-9d10-c4b1a2779f36;["container_1_Consume_and_count_1"];4.25;1533760136.89417;193.06;1226.82;0.443011212;10;149
48;paravance-47.rennes.grid5000.fr;thermos-root-devel-WordCountTopology-0-41836f7c-cef8-4952-b103-4a40f5ddf1ef;["topology_master"];4.25;1533760136.86692;5.91;13.26;0.0;9;117
48;paravance-18.rennes.grid5000.fr;thermos-root-devel-WordCountTopology-2-3a9b2cdc-6e02-4a8e-9c12-4a81c36d3ed4;["container_2_Emit_random_words_2"];4.25;1533760136.8609;121.64;1123.95;2.420312679;10;149
49;paravance-18.rennes.grid5000.fr;thermos-root-devel-WordCountTopology-2-3a9b2cdc-6e02-4a8e-9c12-4a81c36d3ed4;["container_2_Emit_random_words_2"];4.25;1533760146.97241;123.56;1142.17;2.420312679;10;149
49;paravance-47.rennes.grid5000.fr;thermos-root-devel-WordCountTopology-0-41836f7c-cef8-4952-b103-4a40f5ddf1ef;["topology_master"];4.25;1533760147.08197;5.94;13.29;0.0;9;117
49;paravance-41.rennes.grid5000.fr;thermos-root-devel-WordCountTopology-1-40496184-1cf8-4ab4-9d10-c4b1a2779f36;["container_1_Consume_and_count_1"];4.25;1533760147.11443;196.35;1248.65;0.443011212;10;149
50;paravance-41.rennes.grid5000.fr;thermos-root-devel-WordCountTopology-1-40496184-1cf8-4ab4-9d10-c4b1a2779f36;["container_1_Consume_and_count_1"];4.25;1533760157.32756;199.58;1269.47;0.443011212;10;149
50;paravance-47.rennes.grid5000.fr;thermos-root-devel-WordCountTopology-0-41836f7c-cef8-4952-b103-4a40f5ddf1ef;["topology_master"];4.25;1533760157.30009;6.02;13.41;0.0;9;117
50;paravance-18.rennes.grid5000.fr;thermos-root-devel-WordCountTopology-2-3a9b2cdc-6e02-4a8e-9c12-4a81c36d3ed4;["container_2_Emit_random_words_2"];4.25;1533760157.28523;125.51;1159.48;2.420312679;10;149
51;paravance-41.rennes.grid5000.fr;thermos-root-devel-WordCountTopology-1-40496184-1cf8-4ab4-9d10-c4b1a2779f36;["container_1_Consume_and_count_1"];4.25;1533760167.54385;203.13;1291.59;0.443011212;10;149
51;paravance-47.rennes.grid5000.fr;thermos-root-devel-WordCountTopology-0-41836f7c-cef8-4952-b103-4a40f5ddf1ef;["topology_master"];4.25;1533760167.51571;6.08;13.49;0.0;9;117
51;paravance-18.rennes.grid5000.fr;thermos-root-devel-WordCountTopology-2-3a9b2cdc-6e02-4a8e-9c12-4a81c36d3ed4;["container_2_Emit_random_words_2"];4.25;1533760167.49438;127.51;1177.26;2.420312679;10;149
52;paravance-41.rennes.grid5000.fr;thermos-root-devel-WordCountTopology-1-40496184-1cf8-4ab4-9d10-c4b1a2779f36;["container_1_Consume_and_count_1"];4.25;1533760177.76017;206.42;1313.07;0.443011212;10;149
52;paravance-47.rennes.grid5000.fr;thermos-root-devel-WordCountTopology-0-41836f7c-cef8-4952-b103-4a40f5ddf1ef;["topology_master"];4.25;1533760177.73082;6.15;13.58;0.0;9;117
52;paravance-18.rennes.grid5000.fr;thermos-root-devel-WordCountTopology-2-3a9b2cdc-6e02-4a8e-9c12-4a81c36d3ed4;["container_2_Emit_random_words_2"];4.25;1533760177.70537;129.47;1194.72;2.420312679;10;149
53;paravance-41.rennes.grid5000.fr;thermos-root-devel-WordCountTopology-1-40496184-1cf8-4ab4-9d10-c4b1a2779f36;["container_1_Consume_and_count_1"];4.25;1533760187.97403;209.27;1334.38;0.443011212;10;149
53;paravance-18.rennes.grid5000.fr;thermos-root-devel-WordCountTopology-2-3a9b2cdc-6e02-4a8e-9c12-4a81c36d3ed4;["container_2_Emit_random_words_2"];4.25;1533760187.91515;131.24;1211.13;2.420312679;10;149
53;paravance-47.rennes.grid5000.fr;thermos-root-devel-WordCountTopology-0-41836f7c-cef8-4952-b103-4a40f5ddf1ef;["topology_master"];4.25;1533760187.9457;6.21;13.71;0.0;9;117
54;paravance-41.rennes.grid5000.fr;thermos-root-devel-WordCountTopology-1-40496184-1cf8-4ab4-9d10-c4b1a2779f36;["container_1_Consume_and_count_1"];4.25;1533760198.19141;212.4;1355.39;0.443011212;10;149
54;paravance-47.rennes.grid5000.fr;thermos-root-devel-WordCountTopology-0-41836f7c-cef8-4952-b103-4a40f5ddf1ef;["topology_master"];4.25;1533760198.16131;6.3;13.83;0.0;9;117
54;paravance-18.rennes.grid5000.fr;thermos-root-devel-WordCountTopology-2-3a9b2cdc-6e02-4a8e-9c12-4a81c36d3ed4;["container_2_Emit_random_words_2"];4.25;1533760198.12682;133.21;1228.49;2.420312679;10;149
55;paravance-18.rennes.grid5000.fr;thermos-root-devel-WordCountTopology-2-3a9b2cdc-6e02-4a8e-9c12-4a81c36d3ed4;["container_2_Emit_random_words_2"];4.25;1533760208.34204;134.96;1244.73;2.420312679;10;149
55;paravance-41.rennes.grid5000.fr;thermos-root-devel-WordCountTopology-1-40496184-1cf8-4ab4-9d10-c4b1a2779f36;["container_1_Consume_and_count_1"];4.25;1533760208.40827;215.37;1376.63;0.443011212;10;149
55;paravance-47.rennes.grid5000.fr;thermos-root-devel-WordCountTopology-0-41836f7c-cef8-4952-b103-4a40f5ddf1ef;["topology_master"];4.25;1533760208.37934;6.33;13.86;0.0;9;117
56;paravance-41.rennes.grid5000.fr;thermos-root-devel-WordCountTopology-1-40496184-1cf8-4ab4-9d10-c4b1a2779f36;["container_1_Consume_and_count_1"];4.25;1533760218.6241;218.58;1398.82;0.443011212;10;149
56;paravance-47.rennes.grid5000.fr;thermos-root-devel-WordCountTopology-0-41836f7c-cef8-4952-b103-4a40f5ddf1ef;["topology_master"];4.25;1533760218.5947;6.42;13.98;0.0;9;117
56;paravance-18.rennes.grid5000.fr;thermos-root-devel-WordCountTopology-2-3a9b2cdc-6e02-4a8e-9c12-4a81c36d3ed4;["container_2_Emit_random_words_2"];4.25;1533760218.55815;136.94;1262.39;2.420312679;10;149
57;paravance-41.rennes.grid5000.fr;thermos-root-devel-WordCountTopology-1-40496184-1cf8-4ab4-9d10-c4b1a2779f36;["container_1_Consume_and_count_1"];4.25;1533760228.83811;221.59;1419.66;0.443011212;10;149
57;paravance-47.rennes.grid5000.fr;thermos-root-devel-WordCountTopology-0-41836f7c-cef8-4952-b103-4a40f5ddf1ef;["topology_master"];4.25;1533760228.80904;6.48;14.06;0.0;9;117
57;paravance-18.rennes.grid5000.fr;thermos-root-devel-WordCountTopology-2-3a9b2cdc-6e02-4a8e-9c12-4a81c36d3ed4;["container_2_Emit_random_words_2"];4.25;1533760228.77434;138.79;1278.93;2.420312679;10;149
58;paravance-41.rennes.grid5000.fr;thermos-root-devel-WordCountTopology-1-40496184-1cf8-4ab4-9d10-c4b1a2779f36;["container_1_Consume_and_count_1"];4.25;1533760239.05226;224.81;1440.47;0.443011212;10;149
58;paravance-18.rennes.grid5000.fr;thermos-root-devel-WordCountTopology-2-3a9b2cdc-6e02-4a8e-9c12-4a81c36d3ed4;["container_2_Emit_random_words_2"];4.25;1533760238.98757;140.67;1296.0;2.420312679;10;149
58;paravance-47.rennes.grid5000.fr;thermos-root-devel-WordCountTopology-0-41836f7c-cef8-4952-b103-4a40f5ddf1ef;["topology_master"];4.25;1533760239.02296;6.56;14.18;0.0;9;117
59;paravance-41.rennes.grid5000.fr;thermos-root-devel-WordCountTopology-1-40496184-1cf8-4ab4-9d10-c4b1a2779f36;["container_1_Consume_and_count_1"];4.25;1533760249.26607;228.19;1462.01;0.443011212;10;149
59;paravance-47.rennes.grid5000.fr;thermos-root-devel-WordCountTopology-0-41836f7c-cef8-4952-b103-4a40f5ddf1ef;["topology_master"];4.25;1533760249.23612;6.62;14.28;0.0;9;117
59;paravance-18.rennes.grid5000.fr;thermos-root-devel-WordCountTopology-2-3a9b2cdc-6e02-4a8e-9c12-4a81c36d3ed4;["container_2_Emit_random_words_2"];4.25;1533760249.20116;142.65;1314.22;2.420312679;10;149
60;paravance-41.rennes.grid5000.fr;thermos-root-devel-WordCountTopology-1-40496184-1cf8-4ab4-9d10-c4b1a2779f36;["container_1_Consume_and_count_1"];4.25;1533760259.47889;231.31;1482.71;0.443011212;10;149
60;paravance-18.rennes.grid5000.fr;thermos-root-devel-WordCountTopology-2-3a9b2cdc-6e02-4a8e-9c12-4a81c36d3ed4;["container_2_Emit_random_words_2"];4.25;1533760259.41556;144.54;1330.92;2.420312679;10;149
60;paravance-47.rennes.grid5000.fr;thermos-root-devel-WordCountTopology-0-41836f7c-cef8-4952-b103-4a40f5ddf1ef;["topology_master"];4.25;1533760259.4518;6.71;14.4;0.0;9;117
