{
  "status": "success",
  "executiontime": 0.00020503997802734375,
  "message": "",
  "result": {
    "bolts": {
      "Consume_and_count": [
        "container_1_Consume_and_count_1"
      ]
    },
    "instances": {
      "container_2_Emit_random_words_2": {
        "stmgrId": "stmgr-2",
        "logfile": "http://paravance-18.rennes.grid5000.fr:31739/file/log-files/container_2_Emit_random_words_2.log.0",
        "id": "container_2_Emit_random_words_2",
        "name": "Emit_random_words"
      },
      "container_1_Consume_and_count_1": {
        "stmgrId": "stmgr-1",
        "logfile": "http://paravance-41.rennes.grid5000.fr:31738/file/log-files/container_1_Consume_and_count_1.log.0",
        "id": "container_1_Consume_and_count_1",
        "name": "Consume_and_count"
      }
    },
    "instance_groups": {
      "container_1_Consume_and": [
        "container_1_Consume_and_count_1"
      ],
      "container_2_Emit_random": [
        "container_2_Emit_random_words_2"
      ]
    },
    "spouts": {
      "Emit_random_words": [
        "container_2_Emit_random_words_2"
      ]
    },
    "config": {
      "topology.message.timeout.secs": "30",
      "topology.team.environment": "devel",
      "topology.serializer.classname": "org.apache.heron.streamlet.impl.KryoSerializer",
      "topology.team.name": "root",
      "topology.debug": "false",
      "topology.max.spout.pending": "100",
      "topology.container.padding.percentage": "300",
      "topology.enable.message.timeouts": "true",
      "topology.component.parallelism": "1",
      "topology.name": "WordCountTopology",
      "topology.stmgrs": "2",
      "topology.reliability.mode": "ATMOST_ONCE"
    },
    "stmgrs": {
      "stmgr-1": {
        "cwd": "/var/lib/mesos/slaves/7cc54a5c-98d2-42ee-ba5f-917e46eb491c-S0/frameworks/75deb08a-eb1b-415c-8b2c-e922be5f7d98-0000/executors/thermos-root-devel-WordCountTopology-1-40496184-1cf8-4ab4-9d10-c4b1a2779f36/runs/9ede7d40-d81c-4f68-b43c-f8ebabe56bc4/sandbox",
        "host": "paravance-41.rennes.grid5000.fr",
        "joburl": "http://paravance-41.rennes.grid5000.fr:31738/browse/",
        "shell_port": 31738,
        "logfiles": "http://paravance-41.rennes.grid5000.fr:31738/browse/log-files",
        "pid": 2143,
        "id": "stmgr-1",
        "instance_ids": [
          "container_1_Consume_and_count_1"
        ],
        "port": 31859
      },
      "stmgr-2": {
        "cwd": "/var/lib/mesos/slaves/7cc54a5c-98d2-42ee-ba5f-917e46eb491c-S2/frameworks/75deb08a-eb1b-415c-8b2c-e922be5f7d98-0000/executors/thermos-root-devel-WordCountTopology-2-3a9b2cdc-6e02-4a8e-9c12-4a81c36d3ed4/runs/3c62be2e-7898-4f99-a310-e5cb34b7186f/sandbox",
        "host": "paravance-18.rennes.grid5000.fr",
        "joburl": "http://paravance-18.rennes.grid5000.fr:31739/browse/",
        "shell_port": 31739,
        "logfiles": "http://paravance-18.rennes.grid5000.fr:31739/browse/log-files",
        "pid": 2201,
        "id": "stmgr-2",
        "instance_ids": [
          "container_2_Emit_random_words_2"
        ],
        "port": 31367
      }
    }
  },
  "tracker_version": "0.17.8-61-gd7c8c62"
}