mesure_id;slave_id;executor_id;heron_instances;cpus_limit;timestamp_A;cpus_system_time_secs_A;cpus_user_time_secs_A;cpus_throttled_time_secs_A;processes;threads
0;paravance-8.rennes.grid5000.fr;thermos-root-devel-WordCountTopology-0-7277e086-6a88-4059-b43f-d381dfb0312d;["topology_master"];5.25;1533061871.24582;2.46;7.97;0.0;9;117
0;paravance-9.rennes.grid5000.fr;thermos-root-devel-WordCountTopology-2-c7359ab9-12b2-497b-a16f-027deeb0ce36;["container_2_Emit_random_words_2"];5.25;1533061871.25505;41.03;172.51;0.895867105;10;149
0;paravance-6.rennes.grid5000.fr;thermos-root-devel-WordCountTopology-1-ff83163c-3cdf-449b-9ed3-5ee6bda5f063;["container_1_Consume_and_count_1"];5.25;1533061871.24014;52.87;299.5;0.164795941;10;149
1;paravance-6.rennes.grid5000.fr;thermos-root-devel-WordCountTopology-1-ff83163c-3cdf-449b-9ed3-5ee6bda5f063;["container_1_Consume_and_count_1"];5.25;1533061881.45654;57.18;326.07;0.164795941;10;149
1;paravance-9.rennes.grid5000.fr;thermos-root-devel-WordCountTopology-2-c7359ab9-12b2-497b-a16f-027deeb0ce36;["container_2_Emit_random_words_2"];5.25;1533061881.47153;44.24;186.13;0.895867105;10;149
1;paravance-8.rennes.grid5000.fr;thermos-root-devel-WordCountTopology-0-7277e086-6a88-4059-b43f-d381dfb0312d;["topology_master"];5.25;1533061881.46172;2.53;8.15;0.0;9;117
2;paravance-8.rennes.grid5000.fr;thermos-root-devel-WordCountTopology-0-7277e086-6a88-4059-b43f-d381dfb0312d;["topology_master"];5.25;1533061891.57804;2.62;8.27;0.0;9;117
2;paravance-6.rennes.grid5000.fr;thermos-root-devel-WordCountTopology-1-ff83163c-3cdf-449b-9ed3-5ee6bda5f063;["container_1_Consume_and_count_1"];5.25;1533061891.67129;61.56;352.99;0.164795941;10;149
2;paravance-9.rennes.grid5000.fr;thermos-root-devel-WordCountTopology-2-c7359ab9-12b2-497b-a16f-027deeb0ce36;["container_2_Emit_random_words_2"];5.25;1533061891.68767;47.55;199.88;0.895867105;10;149
3;paravance-6.rennes.grid5000.fr;thermos-root-devel-WordCountTopology-1-ff83163c-3cdf-449b-9ed3-5ee6bda5f063;["container_1_Consume_and_count_1"];5.25;1533061901.88676;66.02;379.14;0.164795941;10;149
3;paravance-9.rennes.grid5000.fr;thermos-root-devel-WordCountTopology-2-c7359ab9-12b2-497b-a16f-027deeb0ce36;["container_2_Emit_random_words_2"];5.25;1533061901.90186;50.72;213.53;0.895867105;10;149
3;paravance-8.rennes.grid5000.fr;thermos-root-devel-WordCountTopology-0-7277e086-6a88-4059-b43f-d381dfb0312d;["topology_master"];5.25;1533061901.89248;2.65;8.3;0.0;9;117
4;paravance-6.rennes.grid5000.fr;thermos-root-devel-WordCountTopology-1-ff83163c-3cdf-449b-9ed3-5ee6bda5f063;["container_1_Consume_and_count_1"];5.25;1533061912.10186;70.54;406.67;0.164795941;10;149
4;paravance-9.rennes.grid5000.fr;thermos-root-devel-WordCountTopology-2-c7359ab9-12b2-497b-a16f-027deeb0ce36;["container_2_Emit_random_words_2"];5.25;1533061912.11856;54.32;228.76;0.895867105;10;149
4;paravance-8.rennes.grid5000.fr;thermos-root-devel-WordCountTopology-0-7277e086-6a88-4059-b43f-d381dfb0312d;["topology_master"];5.25;1533061912.10907;2.74;8.43;0.0;9;117
5;paravance-6.rennes.grid5000.fr;thermos-root-devel-WordCountTopology-1-ff83163c-3cdf-449b-9ed3-5ee6bda5f063;["container_1_Consume_and_count_1"];5.25;1533061922.31875;75.0;433.98;0.164795941;10;149
5;paravance-9.rennes.grid5000.fr;thermos-root-devel-WordCountTopology-2-c7359ab9-12b2-497b-a16f-027deeb0ce36;["container_2_Emit_random_words_2"];5.25;1533061922.33413;57.81;242.7;0.895867105;10;149
5;paravance-8.rennes.grid5000.fr;thermos-root-devel-WordCountTopology-0-7277e086-6a88-4059-b43f-d381dfb0312d;["topology_master"];5.25;1533061922.32415;2.8;8.51;0.0;9;117
6;paravance-6.rennes.grid5000.fr;thermos-root-devel-WordCountTopology-1-ff83163c-3cdf-449b-9ed3-5ee6bda5f063;["container_1_Consume_and_count_1"];5.25;1533061932.53415;79.67;461.5;0.164795941;10;149
6;paravance-9.rennes.grid5000.fr;thermos-root-devel-WordCountTopology-2-c7359ab9-12b2-497b-a16f-027deeb0ce36;["container_2_Emit_random_words_2"];5.25;1533061932.54959;61.36;256.97;0.895867105;10;149
6;paravance-8.rennes.grid5000.fr;thermos-root-devel-WordCountTopology-0-7277e086-6a88-4059-b43f-d381dfb0312d;["topology_master"];5.25;1533061932.53875;2.89;8.63;0.0;9;117
7;paravance-6.rennes.grid5000.fr;thermos-root-devel-WordCountTopology-1-ff83163c-3cdf-449b-9ed3-5ee6bda5f063;["container_1_Consume_and_count_1"];5.25;1533061942.75063;84.14;488.76;0.164795941;10;149
7;paravance-8.rennes.grid5000.fr;thermos-root-devel-WordCountTopology-0-7277e086-6a88-4059-b43f-d381dfb0312d;["topology_master"];5.25;1533061942.75582;2.96;8.78;0.0;9;117
7;paravance-9.rennes.grid5000.fr;thermos-root-devel-WordCountTopology-2-c7359ab9-12b2-497b-a16f-027deeb0ce36;["container_2_Emit_random_words_2"];5.25;1533061942.76626;64.84;271.09;0.895867105;10;149
8;paravance-6.rennes.grid5000.fr;thermos-root-devel-WordCountTopology-1-ff83163c-3cdf-449b-9ed3-5ee6bda5f063;["container_1_Consume_and_count_1"];5.25;1533061952.96574;88.35;514.43;0.164795941;10;149
8;paravance-8.rennes.grid5000.fr;thermos-root-devel-WordCountTopology-0-7277e086-6a88-4059-b43f-d381dfb0312d;["topology_master"];5.25;1533061952.97001;3.05;8.92;0.0;9;117
8;paravance-9.rennes.grid5000.fr;thermos-root-devel-WordCountTopology-2-c7359ab9-12b2-497b-a16f-027deeb0ce36;["container_2_Emit_random_words_2"];5.25;1533061952.98215;68.04;284.12;0.895867105;10;149
9;paravance-6.rennes.grid5000.fr;thermos-root-devel-WordCountTopology-1-ff83163c-3cdf-449b-9ed3-5ee6bda5f063;["container_1_Consume_and_count_1"];5.25;1533061963.18093;92.75;542.12;0.164795941;10;149
9;paravance-9.rennes.grid5000.fr;thermos-root-devel-WordCountTopology-2-c7359ab9-12b2-497b-a16f-027deeb0ce36;["container_2_Emit_random_words_2"];5.25;1533061963.19565;71.37;297.92;0.895867105;10;149
9;paravance-8.rennes.grid5000.fr;thermos-root-devel-WordCountTopology-0-7277e086-6a88-4059-b43f-d381dfb0312d;["topology_master"];5.25;1533061963.18609;3.08;8.95;0.0;9;117
10;paravance-6.rennes.grid5000.fr;thermos-root-devel-WordCountTopology-1-ff83163c-3cdf-449b-9ed3-5ee6bda5f063;["container_1_Consume_and_count_1"];5.25;1533061973.39639;97.22;569.24;0.164795941;10;149
10;paravance-9.rennes.grid5000.fr;thermos-root-devel-WordCountTopology-2-c7359ab9-12b2-497b-a16f-027deeb0ce36;["container_2_Emit_random_words_2"];5.25;1533061973.4115;74.75;311.83;0.895867105;10;149
10;paravance-8.rennes.grid5000.fr;thermos-root-devel-WordCountTopology-0-7277e086-6a88-4059-b43f-d381dfb0312d;["topology_master"];5.25;1533061973.40145;3.17;9.06;0.0;9;117
11;paravance-6.rennes.grid5000.fr;thermos-root-devel-WordCountTopology-1-ff83163c-3cdf-449b-9ed3-5ee6bda5f063;["container_1_Consume_and_count_1"];5.25;1533061983.61169;101.53;595.34;0.164795941;10;149
11;paravance-9.rennes.grid5000.fr;thermos-root-devel-WordCountTopology-2-c7359ab9-12b2-497b-a16f-027deeb0ce36;["container_2_Emit_random_words_2"];5.25;1533061983.62633;78.05;325.09;0.895867105;10;149
11;paravance-8.rennes.grid5000.fr;thermos-root-devel-WordCountTopology-0-7277e086-6a88-4059-b43f-d381dfb0312d;["topology_master"];5.25;1533061983.61665;3.23;9.14;0.0;9;117
12;paravance-6.rennes.grid5000.fr;thermos-root-devel-WordCountTopology-1-ff83163c-3cdf-449b-9ed3-5ee6bda5f063;["container_1_Consume_and_count_1"];5.25;1533061993.82636;105.82;622.65;0.164795941;10;149
12;paravance-8.rennes.grid5000.fr;thermos-root-devel-WordCountTopology-0-7277e086-6a88-4059-b43f-d381dfb0312d;["topology_master"];5.25;1533061993.83161;3.36;9.44;0.0;9;117
12;paravance-9.rennes.grid5000.fr;thermos-root-devel-WordCountTopology-2-c7359ab9-12b2-497b-a16f-027deeb0ce36;["container_2_Emit_random_words_2"];5.25;1533061993.84265;81.46;338.59;0.895867105;10;149
13;paravance-6.rennes.grid5000.fr;thermos-root-devel-WordCountTopology-1-ff83163c-3cdf-449b-9ed3-5ee6bda5f063;["container_1_Consume_and_count_1"];5.25;1533062004.04187;110.11;649.85;0.164795941;10;149
13;paravance-9.rennes.grid5000.fr;thermos-root-devel-WordCountTopology-2-c7359ab9-12b2-497b-a16f-027deeb0ce36;["container_2_Emit_random_words_2"];5.25;1533062004.05705;84.76;352.12;0.895867105;10;149
13;paravance-8.rennes.grid5000.fr;thermos-root-devel-WordCountTopology-0-7277e086-6a88-4059-b43f-d381dfb0312d;["topology_master"];5.25;1533062004.04755;3.39;9.47;0.0;9;117
14;paravance-6.rennes.grid5000.fr;thermos-root-devel-WordCountTopology-1-ff83163c-3cdf-449b-9ed3-5ee6bda5f063;["container_1_Consume_and_count_1"];5.25;1533062014.257;114.41;675.25;0.164795941;10;149
14;paravance-9.rennes.grid5000.fr;thermos-root-devel-WordCountTopology-2-c7359ab9-12b2-497b-a16f-027deeb0ce36;["container_2_Emit_random_words_2"];5.25;1533062014.27216;87.88;365.08;0.895867105;10;149
14;paravance-8.rennes.grid5000.fr;thermos-root-devel-WordCountTopology-0-7277e086-6a88-4059-b43f-d381dfb0312d;["topology_master"];5.25;1533062014.2626;3.48;9.6;0.0;9;117
15;paravance-6.rennes.grid5000.fr;thermos-root-devel-WordCountTopology-1-ff83163c-3cdf-449b-9ed3-5ee6bda5f063;["container_1_Consume_and_count_1"];5.25;1533062024.47071;118.62;701.27;0.164795941;10;149
15;paravance-9.rennes.grid5000.fr;thermos-root-devel-WordCountTopology-2-c7359ab9-12b2-497b-a16f-027deeb0ce36;["container_2_Emit_random_words_2"];5.25;1533062024.48726;91.08;378.0;0.895867105;10;149
15;paravance-8.rennes.grid5000.fr;thermos-root-devel-WordCountTopology-0-7277e086-6a88-4059-b43f-d381dfb0312d;["topology_master"];5.25;1533062024.47722;3.54;9.67;0.0;9;117
16;paravance-6.rennes.grid5000.fr;thermos-root-devel-WordCountTopology-1-ff83163c-3cdf-449b-9ed3-5ee6bda5f063;["container_1_Consume_and_count_1"];5.25;1533062034.68543;122.79;726.96;0.164795941;10;149
16;paravance-9.rennes.grid5000.fr;thermos-root-devel-WordCountTopology-2-c7359ab9-12b2-497b-a16f-027deeb0ce36;["container_2_Emit_random_words_2"];5.25;1533062034.7012;94.18;390.85;0.895867105;10;149
16;paravance-8.rennes.grid5000.fr;thermos-root-devel-WordCountTopology-0-7277e086-6a88-4059-b43f-d381dfb0312d;["topology_master"];5.25;1533062034.69127;3.6;9.75;0.0;9;117
17;paravance-9.rennes.grid5000.fr;thermos-root-devel-WordCountTopology-2-c7359ab9-12b2-497b-a16f-027deeb0ce36;["container_2_Emit_random_words_2"];5.25;1533062044.91581;97.52;404.84;0.895867105;10;149
17;paravance-6.rennes.grid5000.fr;thermos-root-devel-WordCountTopology-1-ff83163c-3cdf-449b-9ed3-5ee6bda5f063;["container_1_Consume_and_count_1"];5.25;1533062044.89967;127.2;754.18;0.164795941;10;149
17;paravance-8.rennes.grid5000.fr;thermos-root-devel-WordCountTopology-0-7277e086-6a88-4059-b43f-d381dfb0312d;["topology_master"];5.25;1533062044.90585;3.66;9.83;0.0;9;117
18;paravance-9.rennes.grid5000.fr;thermos-root-devel-WordCountTopology-2-c7359ab9-12b2-497b-a16f-027deeb0ce36;["container_2_Emit_random_words_2"];5.25;1533062055.12964;100.98;419.42;0.895867105;10;149
18;paravance-8.rennes.grid5000.fr;thermos-root-devel-WordCountTopology-0-7277e086-6a88-4059-b43f-d381dfb0312d;["topology_master"];5.25;1533062055.11981;3.78;10.05;0.0;9;117
18;paravance-6.rennes.grid5000.fr;thermos-root-devel-WordCountTopology-1-ff83163c-3cdf-449b-9ed3-5ee6bda5f063;["container_1_Consume_and_count_1"];5.25;1533062055.11601;131.71;780.11;0.164795941;10;149
19;paravance-6.rennes.grid5000.fr;thermos-root-devel-WordCountTopology-1-ff83163c-3cdf-449b-9ed3-5ee6bda5f063;["container_1_Consume_and_count_1"];5.25;1533062065.23133;135.84;805.25;0.164795941;10;149
19;paravance-8.rennes.grid5000.fr;thermos-root-devel-WordCountTopology-0-7277e086-6a88-4059-b43f-d381dfb0312d;["topology_master"];5.25;1533062065.33448;3.81;10.08;0.0;9;117
19;paravance-9.rennes.grid5000.fr;thermos-root-devel-WordCountTopology-2-c7359ab9-12b2-497b-a16f-027deeb0ce36;["container_2_Emit_random_words_2"];5.25;1533062065.34529;104.13;432.51;0.895867105;10;149
20;paravance-6.rennes.grid5000.fr;thermos-root-devel-WordCountTopology-1-ff83163c-3cdf-449b-9ed3-5ee6bda5f063;["container_1_Consume_and_count_1"];5.25;1533062075.54615;140.15;830.05;0.164795941;10;149
20;paravance-9.rennes.grid5000.fr;thermos-root-devel-WordCountTopology-2-c7359ab9-12b2-497b-a16f-027deeb0ce36;["container_2_Emit_random_words_2"];5.25;1533062075.56057;107.29;445.6;0.895867105;10;149
20;paravance-8.rennes.grid5000.fr;thermos-root-devel-WordCountTopology-0-7277e086-6a88-4059-b43f-d381dfb0312d;["topology_master"];5.25;1533062075.5496;3.9;10.21;0.0;9;117
21;paravance-6.rennes.grid5000.fr;thermos-root-devel-WordCountTopology-1-ff83163c-3cdf-449b-9ed3-5ee6bda5f063;["container_1_Consume_and_count_1"];5.25;1533062085.761;144.34;855.25;0.164795941;10;149
21;paravance-9.rennes.grid5000.fr;thermos-root-devel-WordCountTopology-2-c7359ab9-12b2-497b-a16f-027deeb0ce36;["container_2_Emit_random_words_2"];5.25;1533062085.77601;110.4;458.28;0.895867105;10;149
21;paravance-8.rennes.grid5000.fr;thermos-root-devel-WordCountTopology-0-7277e086-6a88-4059-b43f-d381dfb0312d;["topology_master"];5.25;1533062085.76527;3.95;10.27;0.0;9;117
22;paravance-6.rennes.grid5000.fr;thermos-root-devel-WordCountTopology-1-ff83163c-3cdf-449b-9ed3-5ee6bda5f063;["container_1_Consume_and_count_1"];5.25;1533062095.97427;148.83;882.45;0.164795941;10;149
22;paravance-9.rennes.grid5000.fr;thermos-root-devel-WordCountTopology-2-c7359ab9-12b2-497b-a16f-027deeb0ce36;["container_2_Emit_random_words_2"];5.25;1533062095.98879;113.81;472.11;0.895867105;10;149
22;paravance-8.rennes.grid5000.fr;thermos-root-devel-WordCountTopology-0-7277e086-6a88-4059-b43f-d381dfb0312d;["topology_master"];5.25;1533062095.97868;4.01;10.35;0.0;9;117
23;paravance-6.rennes.grid5000.fr;thermos-root-devel-WordCountTopology-1-ff83163c-3cdf-449b-9ed3-5ee6bda5f063;["container_1_Consume_and_count_1"];5.25;1533062106.18808;153.1;907.64;0.164795941;10;149
23;paravance-9.rennes.grid5000.fr;thermos-root-devel-WordCountTopology-2-c7359ab9-12b2-497b-a16f-027deeb0ce36;["container_2_Emit_random_words_2"];5.25;1533062106.20382;116.89;484.99;0.895867105;10;149
23;paravance-8.rennes.grid5000.fr;thermos-root-devel-WordCountTopology-0-7277e086-6a88-4059-b43f-d381dfb0312d;["topology_master"];5.25;1533062106.19412;4.07;10.42;0.0;9;117
24;paravance-6.rennes.grid5000.fr;thermos-root-devel-WordCountTopology-1-ff83163c-3cdf-449b-9ed3-5ee6bda5f063;["container_1_Consume_and_count_1"];5.25;1533062116.4039;157.39;933.51;0.164795941;10;149
24;paravance-9.rennes.grid5000.fr;thermos-root-devel-WordCountTopology-2-c7359ab9-12b2-497b-a16f-027deeb0ce36;["container_2_Emit_random_words_2"];5.25;1533062116.41906;120.19;498.22;0.895867105;10;149
24;paravance-8.rennes.grid5000.fr;thermos-root-devel-WordCountTopology-0-7277e086-6a88-4059-b43f-d381dfb0312d;["topology_master"];5.25;1533062116.40865;4.18;10.61;0.0;9;117
25;paravance-6.rennes.grid5000.fr;thermos-root-devel-WordCountTopology-1-ff83163c-3cdf-449b-9ed3-5ee6bda5f063;["container_1_Consume_and_count_1"];5.25;1533062126.61701;161.69;959.72;0.164795941;10;149
25;paravance-9.rennes.grid5000.fr;thermos-root-devel-WordCountTopology-2-c7359ab9-12b2-497b-a16f-027deeb0ce36;["container_2_Emit_random_words_2"];5.25;1533062126.63141;123.39;511.39;0.895867105;10;149
25;paravance-8.rennes.grid5000.fr;thermos-root-devel-WordCountTopology-0-7277e086-6a88-4059-b43f-d381dfb0312d;["topology_master"];5.25;1533062126.62217;4.2;10.63;0.0;9;117
26;paravance-8.rennes.grid5000.fr;thermos-root-devel-WordCountTopology-0-7277e086-6a88-4059-b43f-d381dfb0312d;["topology_master"];5.25;1533062136.83459;4.29;10.75;0.0;9;117
26;paravance-6.rennes.grid5000.fr;thermos-root-devel-WordCountTopology-1-ff83163c-3cdf-449b-9ed3-5ee6bda5f063;["container_1_Consume_and_count_1"];5.25;1533062136.83074;165.93;986.46;0.164795941;10;149
26;paravance-9.rennes.grid5000.fr;thermos-root-devel-WordCountTopology-2-c7359ab9-12b2-497b-a16f-027deeb0ce36;["container_2_Emit_random_words_2"];5.25;1533062136.84611;126.63;524.55;0.895867105;10;149
27;paravance-6.rennes.grid5000.fr;thermos-root-devel-WordCountTopology-1-ff83163c-3cdf-449b-9ed3-5ee6bda5f063;["container_1_Consume_and_count_1"];5.25;1533062147.04483;170.4;1013.16;0.164795941;10;149
27;paravance-9.rennes.grid5000.fr;thermos-root-devel-WordCountTopology-2-c7359ab9-12b2-497b-a16f-027deeb0ce36;["container_2_Emit_random_words_2"];5.25;1533062147.06119;130.0;538.54;0.895867105;10;149
27;paravance-8.rennes.grid5000.fr;thermos-root-devel-WordCountTopology-0-7277e086-6a88-4059-b43f-d381dfb0312d;["topology_master"];5.25;1533062147.05078;4.35;10.83;0.0;9;117
28;paravance-9.rennes.grid5000.fr;thermos-root-devel-WordCountTopology-2-c7359ab9-12b2-497b-a16f-027deeb0ce36;["container_2_Emit_random_words_2"];5.25;1533062157.27434;133.35;552.24;0.895867105;10;149
28;paravance-6.rennes.grid5000.fr;thermos-root-devel-WordCountTopology-1-ff83163c-3cdf-449b-9ed3-5ee6bda5f063;["container_1_Consume_and_count_1"];5.25;1533062157.25997;174.83;1039.65;0.164795941;10;149
28;paravance-8.rennes.grid5000.fr;thermos-root-devel-WordCountTopology-0-7277e086-6a88-4059-b43f-d381dfb0312d;["topology_master"];5.25;1533062157.26403;4.41;10.9;0.0;9;117
29;paravance-6.rennes.grid5000.fr;thermos-root-devel-WordCountTopology-1-ff83163c-3cdf-449b-9ed3-5ee6bda5f063;["container_1_Consume_and_count_1"];5.25;1533062167.47344;179.27;1065.97;0.164795941;10;149
29;paravance-9.rennes.grid5000.fr;thermos-root-devel-WordCountTopology-2-c7359ab9-12b2-497b-a16f-027deeb0ce36;["container_2_Emit_random_words_2"];5.25;1533062167.48757;136.65;565.6;0.895867105;10;149
29;paravance-8.rennes.grid5000.fr;thermos-root-devel-WordCountTopology-0-7277e086-6a88-4059-b43f-d381dfb0312d;["topology_master"];5.25;1533062167.47911;4.46;10.97;0.0;9;117
30;paravance-6.rennes.grid5000.fr;thermos-root-devel-WordCountTopology-1-ff83163c-3cdf-449b-9ed3-5ee6bda5f063;["container_1_Consume_and_count_1"];5.25;1533062177.68827;183.83;1092.55;0.164795941;10;149
30;paravance-8.rennes.grid5000.fr;thermos-root-devel-WordCountTopology-0-7277e086-6a88-4059-b43f-d381dfb0312d;["topology_master"];5.25;1533062177.69214;4.58;11.17;0.0;9;117
30;paravance-9.rennes.grid5000.fr;thermos-root-devel-WordCountTopology-2-c7359ab9-12b2-497b-a16f-027deeb0ce36;["container_2_Emit_random_words_2"];5.25;1533062177.70284;140.08;579.58;0.895867105;10;149
31;paravance-6.rennes.grid5000.fr;thermos-root-devel-WordCountTopology-1-ff83163c-3cdf-449b-9ed3-5ee6bda5f063;["container_1_Consume_and_count_1"];5.25;1533062187.90369;187.85;1117.36;0.164795941;10;149
31;paravance-9.rennes.grid5000.fr;thermos-root-devel-WordCountTopology-2-c7359ab9-12b2-497b-a16f-027deeb0ce36;["container_2_Emit_random_words_2"];5.25;1533062187.91783;143.05;591.81;0.895867105;10;149
31;paravance-8.rennes.grid5000.fr;thermos-root-devel-WordCountTopology-0-7277e086-6a88-4059-b43f-d381dfb0312d;["topology_master"];5.25;1533062187.90638;4.64;11.25;0.0;9;117
32;paravance-6.rennes.grid5000.fr;thermos-root-devel-WordCountTopology-1-ff83163c-3cdf-449b-9ed3-5ee6bda5f063;["container_1_Consume_and_count_1"];5.25;1533062198.11917;192.39;1143.41;0.164795941;10;149
32;paravance-9.rennes.grid5000.fr;thermos-root-devel-WordCountTopology-2-c7359ab9-12b2-497b-a16f-027deeb0ce36;["container_2_Emit_random_words_2"];5.25;1533062198.13476;146.37;605.66;0.895867105;10;149
32;paravance-8.rennes.grid5000.fr;thermos-root-devel-WordCountTopology-0-7277e086-6a88-4059-b43f-d381dfb0312d;["topology_master"];5.25;1533062198.12539;4.7;11.32;0.0;9;117
33;paravance-6.rennes.grid5000.fr;thermos-root-devel-WordCountTopology-1-ff83163c-3cdf-449b-9ed3-5ee6bda5f063;["container_1_Consume_and_count_1"];5.25;1533062208.33537;196.73;1170.3;0.164795941;10;149
33;paravance-8.rennes.grid5000.fr;thermos-root-devel-WordCountTopology-0-7277e086-6a88-4059-b43f-d381dfb0312d;["topology_master"];5.25;1533062208.33923;4.78;11.44;0.0;9;117
33;paravance-9.rennes.grid5000.fr;thermos-root-devel-WordCountTopology-2-c7359ab9-12b2-497b-a16f-027deeb0ce36;["container_2_Emit_random_words_2"];5.25;1533062208.35028;149.55;619.0;0.895867105;10;149
34;paravance-9.rennes.grid5000.fr;thermos-root-devel-WordCountTopology-2-c7359ab9-12b2-497b-a16f-027deeb0ce36;["container_2_Emit_random_words_2"];5.25;1533062218.56329;152.54;632.07;0.895867105;10;149
34;paravance-6.rennes.grid5000.fr;thermos-root-devel-WordCountTopology-1-ff83163c-3cdf-449b-9ed3-5ee6bda5f063;["container_1_Consume_and_count_1"];5.25;1533062218.54826;200.91;1196.54;0.164795941;10;149
34;paravance-8.rennes.grid5000.fr;thermos-root-devel-WordCountTopology-0-7277e086-6a88-4059-b43f-d381dfb0312d;["topology_master"];5.25;1533062218.55257;4.81;11.46;0.0;9;117
35;paravance-6.rennes.grid5000.fr;thermos-root-devel-WordCountTopology-1-ff83163c-3cdf-449b-9ed3-5ee6bda5f063;["container_1_Consume_and_count_1"];5.25;1533062228.76295;205.36;1221.63;0.164795941;10;149
35;paravance-8.rennes.grid5000.fr;thermos-root-devel-WordCountTopology-0-7277e086-6a88-4059-b43f-d381dfb0312d;["topology_master"];5.25;1533062228.76752;4.91;11.6;0.0;9;117
35;paravance-9.rennes.grid5000.fr;thermos-root-devel-WordCountTopology-2-c7359ab9-12b2-497b-a16f-027deeb0ce36;["container_2_Emit_random_words_2"];5.25;1533062228.77757;155.72;645.82;0.895867105;10;149
36;paravance-6.rennes.grid5000.fr;thermos-root-devel-WordCountTopology-1-ff83163c-3cdf-449b-9ed3-5ee6bda5f063;["container_1_Consume_and_count_1"];5.25;1533062238.97783;209.97;1248.13;0.164795941;10;149
36;paravance-9.rennes.grid5000.fr;thermos-root-devel-WordCountTopology-2-c7359ab9-12b2-497b-a16f-027deeb0ce36;["container_2_Emit_random_words_2"];5.25;1533062238.99297;159.09;660.06;0.895867105;10;149
36;paravance-8.rennes.grid5000.fr;thermos-root-devel-WordCountTopology-0-7277e086-6a88-4059-b43f-d381dfb0312d;["topology_master"];5.25;1533062238.9821;4.98;11.77;0.0;9;117
37;paravance-6.rennes.grid5000.fr;thermos-root-devel-WordCountTopology-1-ff83163c-3cdf-449b-9ed3-5ee6bda5f063;["container_1_Consume_and_count_1"];5.25;1533062249.19389;214.06;1272.17;0.164795941;10;149
37;paravance-9.rennes.grid5000.fr;thermos-root-devel-WordCountTopology-2-c7359ab9-12b2-497b-a16f-027deeb0ce36;["container_2_Emit_random_words_2"];5.25;1533062249.20981;161.86;672.13;0.895867105;10;149
37;paravance-8.rennes.grid5000.fr;thermos-root-devel-WordCountTopology-0-7277e086-6a88-4059-b43f-d381dfb0312d;["topology_master"];5.25;1533062249.19948;5.04;11.84;0.0;9;117
38;paravance-6.rennes.grid5000.fr;thermos-root-devel-WordCountTopology-1-ff83163c-3cdf-449b-9ed3-5ee6bda5f063;["container_1_Consume_and_count_1"];5.25;1533062259.4112;218.26;1297.94;0.164795941;10;149
38;paravance-9.rennes.grid5000.fr;thermos-root-devel-WordCountTopology-2-c7359ab9-12b2-497b-a16f-027deeb0ce36;["container_2_Emit_random_words_2"];5.25;1533062259.42588;164.81;685.0;0.895867105;10;149
38;paravance-8.rennes.grid5000.fr;thermos-root-devel-WordCountTopology-0-7277e086-6a88-4059-b43f-d381dfb0312d;["topology_master"];5.25;1533062259.41553;5.1;11.91;0.0;9;117
39;paravance-6.rennes.grid5000.fr;thermos-root-devel-WordCountTopology-1-ff83163c-3cdf-449b-9ed3-5ee6bda5f063;["container_1_Consume_and_count_1"];5.25;1533062269.62591;222.89;1323.82;0.164795941;10;149
39;paravance-8.rennes.grid5000.fr;thermos-root-devel-WordCountTopology-0-7277e086-6a88-4059-b43f-d381dfb0312d;["topology_master"];5.25;1533062269.63022;5.19;12.04;0.0;9;117
39;paravance-9.rennes.grid5000.fr;thermos-root-devel-WordCountTopology-2-c7359ab9-12b2-497b-a16f-027deeb0ce36;["container_2_Emit_random_words_2"];5.25;1533062269.64133;167.99;698.91;0.895867105;10;149
40;paravance-9.rennes.grid5000.fr;thermos-root-devel-WordCountTopology-2-c7359ab9-12b2-497b-a16f-027deeb0ce36;["container_2_Emit_random_words_2"];5.25;1533062279.8555;171.24;712.74;0.895867105;10;149
40;paravance-8.rennes.grid5000.fr;thermos-root-devel-WordCountTopology-0-7277e086-6a88-4059-b43f-d381dfb0312d;["topology_master"];5.25;1533062279.84554;5.21;12.06;0.0;9;117
40;paravance-6.rennes.grid5000.fr;thermos-root-devel-WordCountTopology-1-ff83163c-3cdf-449b-9ed3-5ee6bda5f063;["container_1_Consume_and_count_1"];5.25;1533062279.85504;227.43;1350.34;0.164795941;10;149
41;paravance-6.rennes.grid5000.fr;thermos-root-devel-WordCountTopology-1-ff83163c-3cdf-449b-9ed3-5ee6bda5f063;["container_1_Consume_and_count_1"];5.25;1533062290.06698;232.03;1376.62;0.164795941;10;149
41;paravance-9.rennes.grid5000.fr;thermos-root-devel-WordCountTopology-2-c7359ab9-12b2-497b-a16f-027deeb0ce36;["container_2_Emit_random_words_2"];5.25;1533062290.08105;174.47;726.84;0.895867105;10;149
41;paravance-8.rennes.grid5000.fr;thermos-root-devel-WordCountTopology-0-7277e086-6a88-4059-b43f-d381dfb0312d;["topology_master"];5.25;1533062290.07063;5.31;12.2;0.0;9;117
42;paravance-6.rennes.grid5000.fr;thermos-root-devel-WordCountTopology-1-ff83163c-3cdf-449b-9ed3-5ee6bda5f063;["container_1_Consume_and_count_1"];5.25;1533062300.28261;236.42;1402.53;0.164795941;10;149
42;paravance-9.rennes.grid5000.fr;thermos-root-devel-WordCountTopology-2-c7359ab9-12b2-497b-a16f-027deeb0ce36;["container_2_Emit_random_words_2"];5.25;1533062300.2964;177.6;740.59;0.895867105;10;149
42;paravance-8.rennes.grid5000.fr;thermos-root-devel-WordCountTopology-0-7277e086-6a88-4059-b43f-d381dfb0312d;["topology_master"];5.25;1533062300.28643;5.37;12.31;0.0;9;117
43;paravance-6.rennes.grid5000.fr;thermos-root-devel-WordCountTopology-1-ff83163c-3cdf-449b-9ed3-5ee6bda5f063;["container_1_Consume_and_count_1"];5.25;1533062310.50083;240.91;1428.18;0.164795941;10;149
43;paravance-9.rennes.grid5000.fr;thermos-root-devel-WordCountTopology-2-c7359ab9-12b2-497b-a16f-027deeb0ce36;["container_2_Emit_random_words_2"];5.25;1533062310.51561;180.88;754.54;0.895867105;10;149
43;paravance-8.rennes.grid5000.fr;thermos-root-devel-WordCountTopology-0-7277e086-6a88-4059-b43f-d381dfb0312d;["topology_master"];5.25;1533062310.50477;5.43;12.38;0.0;9;117
44;paravance-6.rennes.grid5000.fr;thermos-root-devel-WordCountTopology-1-ff83163c-3cdf-449b-9ed3-5ee6bda5f063;["container_1_Consume_and_count_1"];5.25;1533062320.71738;245.43;1454.61;0.164795941;10;149
44;paravance-9.rennes.grid5000.fr;thermos-root-devel-WordCountTopology-2-c7359ab9-12b2-497b-a16f-027deeb0ce36;["container_2_Emit_random_words_2"];5.25;1533062320.73114;184.02;768.48;0.895867105;10;149
44;paravance-8.rennes.grid5000.fr;thermos-root-devel-WordCountTopology-0-7277e086-6a88-4059-b43f-d381dfb0312d;["topology_master"];5.25;1533062320.72016;5.49;12.45;0.0;9;117
45;paravance-6.rennes.grid5000.fr;thermos-root-devel-WordCountTopology-1-ff83163c-3cdf-449b-9ed3-5ee6bda5f063;["container_1_Consume_and_count_1"];5.25;1533062330.93207;249.86;1480.03;0.164795941;10;149
45;paravance-9.rennes.grid5000.fr;thermos-root-devel-WordCountTopology-2-c7359ab9-12b2-497b-a16f-027deeb0ce36;["container_2_Emit_random_words_2"];5.25;1533062330.94731;187.22;782.3;0.895867105;10;149
45;paravance-8.rennes.grid5000.fr;thermos-root-devel-WordCountTopology-0-7277e086-6a88-4059-b43f-d381dfb0312d;["topology_master"];5.25;1533062330.93599;5.57;12.57;0.0;9;117
46;paravance-6.rennes.grid5000.fr;thermos-root-devel-WordCountTopology-1-ff83163c-3cdf-449b-9ed3-5ee6bda5f063;["container_1_Consume_and_count_1"];5.25;1533062341.14962;254.29;1505.95;0.164795941;10;149
46;paravance-8.rennes.grid5000.fr;thermos-root-devel-WordCountTopology-0-7277e086-6a88-4059-b43f-d381dfb0312d;["topology_master"];5.25;1533062341.15111;5.63;12.65;0.0;9;117
46;paravance-9.rennes.grid5000.fr;thermos-root-devel-WordCountTopology-2-c7359ab9-12b2-497b-a16f-027deeb0ce36;["container_2_Emit_random_words_2"];5.25;1533062341.16354;190.41;796.2;0.895867105;10;149
47;paravance-9.rennes.grid5000.fr;thermos-root-devel-WordCountTopology-2-c7359ab9-12b2-497b-a16f-027deeb0ce36;["container_2_Emit_random_words_2"];5.25;1533062351.37924;193.82;811.16;0.895867105;10;149
47;paravance-6.rennes.grid5000.fr;thermos-root-devel-WordCountTopology-1-ff83163c-3cdf-449b-9ed3-5ee6bda5f063;["container_1_Consume_and_count_1"];5.25;1533062351.36581;259.2;1532.43;0.164795941;10;149
47;paravance-8.rennes.grid5000.fr;thermos-root-devel-WordCountTopology-0-7277e086-6a88-4059-b43f-d381dfb0312d;["topology_master"];5.25;1533062351.36856;5.7;12.74;0.0;9;117
48;paravance-6.rennes.grid5000.fr;thermos-root-devel-WordCountTopology-1-ff83163c-3cdf-449b-9ed3-5ee6bda5f063;["container_1_Consume_and_count_1"];5.25;1533062361.58164;263.6;1558.41;0.164795941;10;149
48;paravance-9.rennes.grid5000.fr;thermos-root-devel-WordCountTopology-2-c7359ab9-12b2-497b-a16f-027deeb0ce36;["container_2_Emit_random_words_2"];5.25;1533062361.596;196.96;824.56;0.895867105;10;149
48;paravance-8.rennes.grid5000.fr;thermos-root-devel-WordCountTopology-0-7277e086-6a88-4059-b43f-d381dfb0312d;["topology_master"];5.25;1533062361.58475;5.77;12.87;0.0;9;117
49;paravance-6.rennes.grid5000.fr;thermos-root-devel-WordCountTopology-1-ff83163c-3cdf-449b-9ed3-5ee6bda5f063;["container_1_Consume_and_count_1"];5.25;1533062371.79495;267.94;1584.53;0.164795941;10;149
49;paravance-9.rennes.grid5000.fr;thermos-root-devel-WordCountTopology-2-c7359ab9-12b2-497b-a16f-027deeb0ce36;["container_2_Emit_random_words_2"];5.25;1533062371.80987;200.07;837.53;0.895867105;10;149
49;paravance-8.rennes.grid5000.fr;thermos-root-devel-WordCountTopology-0-7277e086-6a88-4059-b43f-d381dfb0312d;["topology_master"];5.25;1533062371.79902;5.86;12.99;0.0;9;117
50;paravance-8.rennes.grid5000.fr;thermos-root-devel-WordCountTopology-0-7277e086-6a88-4059-b43f-d381dfb0312d;["topology_master"];5.25;1533062382.01395;5.88;13.02;0.0;9;117
50;paravance-9.rennes.grid5000.fr;thermos-root-devel-WordCountTopology-2-c7359ab9-12b2-497b-a16f-027deeb0ce36;["container_2_Emit_random_words_2"];5.25;1533062382.02612;202.97;850.12;0.895867105;10;149
50;paravance-6.rennes.grid5000.fr;thermos-root-devel-WordCountTopology-1-ff83163c-3cdf-449b-9ed3-5ee6bda5f063;["container_1_Consume_and_count_1"];5.25;1533062382.01346;272.08;1609.45;0.164795941;10;149
51;paravance-6.rennes.grid5000.fr;thermos-root-devel-WordCountTopology-1-ff83163c-3cdf-449b-9ed3-5ee6bda5f063;["container_1_Consume_and_count_1"];5.25;1533062392.2293;276.27;1635.76;0.164795941;10;149
51;paravance-9.rennes.grid5000.fr;thermos-root-devel-WordCountTopology-2-c7359ab9-12b2-497b-a16f-027deeb0ce36;["container_2_Emit_random_words_2"];5.25;1533062392.24139;206.01;862.8;0.895867105;10;149
51;paravance-8.rennes.grid5000.fr;thermos-root-devel-WordCountTopology-0-7277e086-6a88-4059-b43f-d381dfb0312d;["topology_master"];5.25;1533062392.2311;5.97;13.15;0.0;9;117
52;paravance-6.rennes.grid5000.fr;thermos-root-devel-WordCountTopology-1-ff83163c-3cdf-449b-9ed3-5ee6bda5f063;["container_1_Consume_and_count_1"];5.25;1533062402.44376;280.65;1661.59;0.164795941;10;149
52;paravance-9.rennes.grid5000.fr;thermos-root-devel-WordCountTopology-2-c7359ab9-12b2-497b-a16f-027deeb0ce36;["container_2_Emit_random_words_2"];5.25;1533062402.45835;209.13;876.08;0.895867105;10;149
52;paravance-8.rennes.grid5000.fr;thermos-root-devel-WordCountTopology-0-7277e086-6a88-4059-b43f-d381dfb0312d;["topology_master"];5.25;1533062402.44654;6.03;13.22;0.0;9;117
53;paravance-6.rennes.grid5000.fr;thermos-root-devel-WordCountTopology-1-ff83163c-3cdf-449b-9ed3-5ee6bda5f063;["container_1_Consume_and_count_1"];5.25;1533062412.65905;284.96;1687.09;0.164795941;10;149
53;paravance-8.rennes.grid5000.fr;thermos-root-devel-WordCountTopology-0-7277e086-6a88-4059-b43f-d381dfb0312d;["topology_master"];5.25;1533062412.6626;6.1;13.31;0.0;9;117
53;paravance-9.rennes.grid5000.fr;thermos-root-devel-WordCountTopology-2-c7359ab9-12b2-497b-a16f-027deeb0ce36;["container_2_Emit_random_words_2"];5.25;1533062412.67542;212.12;889.23;0.895867105;10;149
54;paravance-9.rennes.grid5000.fr;thermos-root-devel-WordCountTopology-2-c7359ab9-12b2-497b-a16f-027deeb0ce36;["container_2_Emit_random_words_2"];5.25;1533062422.78895;215.12;902.25;0.895867105;10;149
54;paravance-6.rennes.grid5000.fr;thermos-root-devel-WordCountTopology-1-ff83163c-3cdf-449b-9ed3-5ee6bda5f063;["container_1_Consume_and_count_1"];5.25;1533062422.87402;289.18;1713.83;0.164795941;10;149
54;paravance-8.rennes.grid5000.fr;thermos-root-devel-WordCountTopology-0-7277e086-6a88-4059-b43f-d381dfb0312d;["topology_master"];5.25;1533062422.87753;6.16;13.42;0.0;9;117
55;paravance-6.rennes.grid5000.fr;thermos-root-devel-WordCountTopology-1-ff83163c-3cdf-449b-9ed3-5ee6bda5f063;["container_1_Consume_and_count_1"];5.25;1533062433.09061;293.61;1741.15;0.164795941;10;149
55;paravance-8.rennes.grid5000.fr;thermos-root-devel-WordCountTopology-0-7277e086-6a88-4059-b43f-d381dfb0312d;["topology_master"];5.25;1533062433.09281;6.25;13.54;0.0;9;117
55;paravance-9.rennes.grid5000.fr;thermos-root-devel-WordCountTopology-2-c7359ab9-12b2-497b-a16f-027deeb0ce36;["container_2_Emit_random_words_2"];5.25;1533062433.10499;218.36;916.65;0.895867105;10;149
56;paravance-6.rennes.grid5000.fr;thermos-root-devel-WordCountTopology-1-ff83163c-3cdf-449b-9ed3-5ee6bda5f063;["container_1_Consume_and_count_1"];5.25;1533062443.3057;297.86;1768.66;0.164795941;10;149
56;paravance-9.rennes.grid5000.fr;thermos-root-devel-WordCountTopology-2-c7359ab9-12b2-497b-a16f-027deeb0ce36;["container_2_Emit_random_words_2"];5.25;1533062443.31823;221.67;930.24;0.895867105;10;149
56;paravance-8.rennes.grid5000.fr;thermos-root-devel-WordCountTopology-0-7277e086-6a88-4059-b43f-d381dfb0312d;["topology_master"];5.25;1533062443.30737;6.27;13.57;0.0;9;117
57;paravance-6.rennes.grid5000.fr;thermos-root-devel-WordCountTopology-1-ff83163c-3cdf-449b-9ed3-5ee6bda5f063;["container_1_Consume_and_count_1"];5.25;1533062453.52006;302.42;1797.03;0.164795941;10;149
57;paravance-9.rennes.grid5000.fr;thermos-root-devel-WordCountTopology-2-c7359ab9-12b2-497b-a16f-027deeb0ce36;["container_2_Emit_random_words_2"];5.25;1533062453.53608;225.13;944.69;0.895867105;10;149
57;paravance-8.rennes.grid5000.fr;thermos-root-devel-WordCountTopology-0-7277e086-6a88-4059-b43f-d381dfb0312d;["topology_master"];5.25;1533062453.52509;6.36;13.69;0.0;9;117
58;paravance-9.rennes.grid5000.fr;thermos-root-devel-WordCountTopology-2-c7359ab9-12b2-497b-a16f-027deeb0ce36;["container_2_Emit_random_words_2"];5.25;1533062463.75282;228.35;958.49;0.895867105;10;149
58;paravance-6.rennes.grid5000.fr;thermos-root-devel-WordCountTopology-1-ff83163c-3cdf-449b-9ed3-5ee6bda5f063;["container_1_Consume_and_count_1"];5.25;1533062463.73816;306.73;1824.47;0.164795941;10;149
58;paravance-8.rennes.grid5000.fr;thermos-root-devel-WordCountTopology-0-7277e086-6a88-4059-b43f-d381dfb0312d;["topology_master"];5.25;1533062463.74143;6.42;13.77;0.0;9;117
59;paravance-6.rennes.grid5000.fr;thermos-root-devel-WordCountTopology-1-ff83163c-3cdf-449b-9ed3-5ee6bda5f063;["container_1_Consume_and_count_1"];5.25;1533062473.95544;311.07;1851.07;0.164795941;10;149
59;paravance-9.rennes.grid5000.fr;thermos-root-devel-WordCountTopology-2-c7359ab9-12b2-497b-a16f-027deeb0ce36;["container_2_Emit_random_words_2"];5.25;1533062473.96873;231.56;972.32;0.895867105;10;149
59;paravance-8.rennes.grid5000.fr;thermos-root-devel-WordCountTopology-0-7277e086-6a88-4059-b43f-d381dfb0312d;["topology_master"];5.25;1533062473.95751;6.5;13.88;0.0;9;117
60;paravance-9.rennes.grid5000.fr;thermos-root-devel-WordCountTopology-2-c7359ab9-12b2-497b-a16f-027deeb0ce36;["container_2_Emit_random_words_2"];5.25;1533062484.18348;234.82;986.4;0.895867105;10;149
60;paravance-6.rennes.grid5000.fr;thermos-root-devel-WordCountTopology-1-ff83163c-3cdf-449b-9ed3-5ee6bda5f063;["container_1_Consume_and_count_1"];5.25;1533062484.171;315.67;1877.9;0.164795941;10;149
60;paravance-8.rennes.grid5000.fr;thermos-root-devel-WordCountTopology-0-7277e086-6a88-4059-b43f-d381dfb0312d;["topology_master"];5.25;1533062484.17268;6.55;13.95;0.0;9;117
