{
  "status": "success",
  "executiontime": 0.00018095970153808594,
  "message": "",
  "result": {
    "bolts": {
      "Consume_and_count": [
        "container_1_Consume_and_count_1"
      ]
    },
    "instances": {
      "container_2_Emit_random_words_2": {
        "stmgrId": "stmgr-2",
        "logfile": "http://paravance-42.rennes.grid5000.fr:31017/file/log-files/container_2_Emit_random_words_2.log.0",
        "id": "container_2_Emit_random_words_2",
        "name": "Emit_random_words"
      },
      "container_1_Consume_and_count_1": {
        "stmgrId": "stmgr-1",
        "logfile": "http://paravance-8.rennes.grid5000.fr:31885/file/log-files/container_1_Consume_and_count_1.log.0",
        "id": "container_1_Consume_and_count_1",
        "name": "Consume_and_count"
      }
    },
    "instance_groups": {
      "container_1_Consume_and": [
        "container_1_Consume_and_count_1"
      ],
      "container_2_Emit_random": [
        "container_2_Emit_random_words_2"
      ]
    },
    "spouts": {
      "Emit_random_words": [
        "container_2_Emit_random_words_2"
      ]
    },
    "config": {
      "topology.message.timeout.secs": "30",
      "topology.team.environment": "devel",
      "topology.serializer.classname": "org.apache.heron.streamlet.impl.KryoSerializer",
      "topology.team.name": "root",
      "topology.debug": "false",
      "topology.max.spout.pending": "100",
      "topology.container.padding.percentage": "200",
      "topology.enable.message.timeouts": "true",
      "topology.component.parallelism": "1",
      "topology.name": "WordCountTopology",
      "topology.stmgrs": "2",
      "topology.reliability.mode": "ATMOST_ONCE"
    },
    "stmgrs": {
      "stmgr-1": {
        "cwd": "/var/lib/mesos/slaves/a4fed5af-2348-459a-8bde-ea63ff93f14b-S0/frameworks/75deb08a-eb1b-415c-8b2c-e922be5f7d98-0000/executors/thermos-root-devel-WordCountTopology-1-310d864d-5a18-4d31-850f-93ca431dc216/runs/e9443c79-414a-43bd-9685-4cd8b444401d/sandbox",
        "host": "paravance-8.rennes.grid5000.fr",
        "joburl": "http://paravance-8.rennes.grid5000.fr:31885/browse/",
        "shell_port": 31885,
        "logfiles": "http://paravance-8.rennes.grid5000.fr:31885/browse/log-files",
        "pid": 2731,
        "id": "stmgr-1",
        "instance_ids": [
          "container_1_Consume_and_count_1"
        ],
        "port": 31040
      },
      "stmgr-2": {
        "cwd": "/var/lib/mesos/slaves/a4fed5af-2348-459a-8bde-ea63ff93f14b-S2/frameworks/75deb08a-eb1b-415c-8b2c-e922be5f7d98-0000/executors/thermos-root-devel-WordCountTopology-2-7bc8584f-43f3-4358-a735-a2b55d46f24e/runs/6b488195-92de-4d86-a2e8-87734179556c/sandbox",
        "host": "paravance-42.rennes.grid5000.fr",
        "joburl": "http://paravance-42.rennes.grid5000.fr:31017/browse/",
        "shell_port": 31017,
        "logfiles": "http://paravance-42.rennes.grid5000.fr:31017/browse/log-files",
        "pid": 2814,
        "id": "stmgr-2",
        "instance_ids": [
          "container_2_Emit_random_words_2"
        ],
        "port": 31560
      }
    }
  },
  "tracker_version": "0.17.8-61-gd7c8c62"
}