{
  "status": "success",
  "executiontime": 0.0008041858673095703,
  "message": "",
  "result": {
    "bolts": {
      "Consume_and_count": [
        "container_1_Consume_and_count_1"
      ]
    },
    "instances": {
      "container_2_Emit_random_words_2": {
        "stmgrId": "stmgr-2",
        "logfile": "http://paravance-18.rennes.grid5000.fr:31641/file/log-files/container_2_Emit_random_words_2.log.0",
        "id": "container_2_Emit_random_words_2",
        "name": "Emit_random_words"
      },
      "container_1_Consume_and_count_1": {
        "stmgrId": "stmgr-1",
        "logfile": "http://paravance-51.rennes.grid5000.fr:31629/file/log-files/container_1_Consume_and_count_1.log.0",
        "id": "container_1_Consume_and_count_1",
        "name": "Consume_and_count"
      }
    },
    "instance_groups": {
      "container_1_Consume_and": [
        "container_1_Consume_and_count_1"
      ],
      "container_2_Emit_random": [
        "container_2_Emit_random_words_2"
      ]
    },
    "spouts": {
      "Emit_random_words": [
        "container_2_Emit_random_words_2"
      ]
    },
    "config": {
      "topology.message.timeout.secs": "30",
      "topology.team.environment": "devel",
      "topology.serializer.classname": "org.apache.heron.streamlet.impl.KryoSerializer",
      "topology.team.name": "root",
      "topology.debug": "false",
      "topology.max.spout.pending": "100",
      "topology.container.padding.percentage": "0",
      "topology.enable.message.timeouts": "true",
      "topology.component.parallelism": "1",
      "topology.name": "WordCountTopology",
      "topology.stmgrs": "2",
      "topology.reliability.mode": "ATMOST_ONCE"
    },
    "stmgrs": {
      "stmgr-1": {
        "cwd": "/var/lib/mesos/slaves/a21f2c18-438a-4d5f-8b51-92e5c265586a-S0/frameworks/75deb08a-eb1b-415c-8b2c-e922be5f7d98-0000/executors/thermos-root-devel-WordCountTopology-1-48bc9807-6ace-417e-bac3-234da67f6f5f/runs/8dae741a-4224-4ec9-a595-4ded934b4495/sandbox",
        "host": "paravance-51.rennes.grid5000.fr",
        "joburl": "http://paravance-51.rennes.grid5000.fr:31629/browse/",
        "shell_port": 31629,
        "logfiles": "http://paravance-51.rennes.grid5000.fr:31629/browse/log-files",
        "pid": 2103,
        "id": "stmgr-1",
        "instance_ids": [
          "container_1_Consume_and_count_1"
        ],
        "port": 31827
      },
      "stmgr-2": {
        "cwd": "/var/lib/mesos/slaves/a21f2c18-438a-4d5f-8b51-92e5c265586a-S2/frameworks/75deb08a-eb1b-415c-8b2c-e922be5f7d98-0000/executors/thermos-root-devel-WordCountTopology-2-a1c3bc96-7733-4c28-9c22-6eb390721fc0/runs/3892860e-5ee3-49fe-8f0d-44db6246fd76/sandbox",
        "host": "paravance-18.rennes.grid5000.fr",
        "joburl": "http://paravance-18.rennes.grid5000.fr:31641/browse/",
        "shell_port": 31641,
        "logfiles": "http://paravance-18.rennes.grid5000.fr:31641/browse/log-files",
        "pid": 2176,
        "id": "stmgr-2",
        "instance_ids": [
          "container_2_Emit_random_words_2"
        ],
        "port": 31129
      }
    }
  },
  "tracker_version": "0.17.8-61-gd7c8c62"
}