mesure_id;slave_id;executor_id;heron_instances;cpus_limit;timestamp_B;cpus_system_time_secs_B;cpus_user_time_secs_B;cpus_throttled_time_secs_B;processes;threads
0;paravance-34.rennes.grid5000.fr;thermos-root-devel-WordCountTopology-1-da1e4c0c-13f8-4620-88f5-63c823f40d10;["container_1_Consume_and_count_1"];1.25;1533741468.3645;32.82;115.75;299.950831061;10;152
0;paravance-5.rennes.grid5000.fr;thermos-root-devel-WordCountTopology-2-6484de8a-ce48-4be7-ba1e-bf68945f80a2;["container_2_Emit_random_words_2"];1.25;1533741468.24086;22.64;88.45;125.280931319;10;149
0;paravance-35.rennes.grid5000.fr;thermos-root-devel-WordCountTopology-0-e77885c7-65e7-4d2e-8a71-5cf5288d5998;["topology_master"];1.25;1533741468.3672;2.52;8.4;7.385171851;9;117
1;paravance-34.rennes.grid5000.fr;thermos-root-devel-WordCountTopology-1-da1e4c0c-13f8-4620-88f5-63c823f40d10;["container_1_Consume_and_count_1"];1.25;1533741478.58457;35.43;124.88;326.220355403;10;151
1;paravance-5.rennes.grid5000.fr;thermos-root-devel-WordCountTopology-2-6484de8a-ce48-4be7-ba1e-bf68945f80a2;["container_2_Emit_random_words_2"];1.25;1533741478.46323;24.31;94.6;130.906119019;10;149
1;paravance-35.rennes.grid5000.fr;thermos-root-devel-WordCountTopology-0-e77885c7-65e7-4d2e-8a71-5cf5288d5998;["topology_master"];1.25;1533741478.58725;2.61;8.53;7.385171851;9;117
2;paravance-5.rennes.grid5000.fr;thermos-root-devel-WordCountTopology-2-6484de8a-ce48-4be7-ba1e-bf68945f80a2;["container_2_Emit_random_words_2"];1.25;1533741488.57969;26.0;100.75;137.981573196;10;149
2;paravance-35.rennes.grid5000.fr;thermos-root-devel-WordCountTopology-0-e77885c7-65e7-4d2e-8a71-5cf5288d5998;["topology_master"];1.25;1533741488.80421;2.64;8.56;7.385171851;9;117
2;paravance-34.rennes.grid5000.fr;thermos-root-devel-WordCountTopology-1-da1e4c0c-13f8-4620-88f5-63c823f40d10;["container_1_Consume_and_count_1"];1.25;1533741488.80453;38.03;133.92;349.765050103;10;151
3;paravance-35.rennes.grid5000.fr;thermos-root-devel-WordCountTopology-0-e77885c7-65e7-4d2e-8a71-5cf5288d5998;["topology_master"];1.25;1533741498.91937;2.73;8.69;7.385171851;9;117
3;paravance-34.rennes.grid5000.fr;thermos-root-devel-WordCountTopology-1-da1e4c0c-13f8-4620-88f5-63c823f40d10;["container_1_Consume_and_count_1"];1.25;1533741499.0186;40.59;143.25;375.635676173;10;151
3;paravance-5.rennes.grid5000.fr;thermos-root-devel-WordCountTopology-2-6484de8a-ce48-4be7-ba1e-bf68945f80a2;["container_2_Emit_random_words_2"];1.25;1533741498.89448;27.59;106.56;143.80041931;10;149
4;paravance-35.rennes.grid5000.fr;thermos-root-devel-WordCountTopology-0-e77885c7-65e7-4d2e-8a71-5cf5288d5998;["topology_master"];1.25;1533741509.13537;2.79;8.76;7.385171851;9;117
4;paravance-34.rennes.grid5000.fr;thermos-root-devel-WordCountTopology-1-da1e4c0c-13f8-4620-88f5-63c823f40d10;["container_1_Consume_and_count_1"];1.25;1533741509.23491;43.15;152.54;405.359435827;10;151
4;paravance-5.rennes.grid5000.fr;thermos-root-devel-WordCountTopology-2-6484de8a-ce48-4be7-ba1e-bf68945f80a2;["container_2_Emit_random_words_2"];1.25;1533741509.11018;29.09;111.91;148.998158526;10;149
5;paravance-35.rennes.grid5000.fr;thermos-root-devel-WordCountTopology-0-e77885c7-65e7-4d2e-8a71-5cf5288d5998;["topology_master"];1.25;1533741519.35161;2.87;8.86;7.385171851;9;117
5;paravance-5.rennes.grid5000.fr;thermos-root-devel-WordCountTopology-2-6484de8a-ce48-4be7-ba1e-bf68945f80a2;["container_2_Emit_random_words_2"];1.25;1533741519.32849;30.72;117.64;154.833108347;10;149
5;paravance-34.rennes.grid5000.fr;thermos-root-devel-WordCountTopology-1-da1e4c0c-13f8-4620-88f5-63c823f40d10;["container_1_Consume_and_count_1"];1.25;1533741519.45208;45.7;161.84;432.565608944;10;152
6;paravance-34.rennes.grid5000.fr;thermos-root-devel-WordCountTopology-1-da1e4c0c-13f8-4620-88f5-63c823f40d10;["container_1_Consume_and_count_1"];1.25;1533741529.66779;48.31;170.97;457.668046344;10;152
6;paravance-5.rennes.grid5000.fr;thermos-root-devel-WordCountTopology-2-6484de8a-ce48-4be7-ba1e-bf68945f80a2;["container_2_Emit_random_words_2"];1.25;1533741529.54511;32.42;123.57;161.216119521;10;149
6;paravance-35.rennes.grid5000.fr;thermos-root-devel-WordCountTopology-0-e77885c7-65e7-4d2e-8a71-5cf5288d5998;["topology_master"];1.25;1533741529.66855;2.94;9.03;7.385171851;9;117
7;paravance-5.rennes.grid5000.fr;thermos-root-devel-WordCountTopology-2-6484de8a-ce48-4be7-ba1e-bf68945f80a2;["container_2_Emit_random_words_2"];1.25;1533741539.75912;34.12;129.47;167.134285238;10;149
7;paravance-34.rennes.grid5000.fr;thermos-root-devel-WordCountTopology-1-da1e4c0c-13f8-4620-88f5-63c823f40d10;["container_1_Consume_and_count_1"];1.25;1533741539.88359;50.78;180.33;485.183296559;10;151
7;paravance-35.rennes.grid5000.fr;thermos-root-devel-WordCountTopology-0-e77885c7-65e7-4d2e-8a71-5cf5288d5998;["topology_master"];1.25;1533741539.88484;3.03;9.17;7.385171851;9;117
8;paravance-34.rennes.grid5000.fr;thermos-root-devel-WordCountTopology-1-da1e4c0c-13f8-4620-88f5-63c823f40d10;["container_1_Consume_and_count_1"];1.25;1533741550.10148;53.37;189.55;510.805960204;10;151
8;paravance-35.rennes.grid5000.fr;thermos-root-devel-WordCountTopology-0-e77885c7-65e7-4d2e-8a71-5cf5288d5998;["topology_master"];1.25;1533741550.10036;3.09;9.24;7.385171851;9;117
8;paravance-5.rennes.grid5000.fr;thermos-root-devel-WordCountTopology-2-6484de8a-ce48-4be7-ba1e-bf68945f80a2;["container_2_Emit_random_words_2"];1.25;1533741549.97847;35.73;135.51;173.63157682;10;149
9;paravance-35.rennes.grid5000.fr;thermos-root-devel-WordCountTopology-0-e77885c7-65e7-4d2e-8a71-5cf5288d5998;["topology_master"];1.25;1533741560.3187;3.15;9.32;7.385171851;9;117
9;paravance-34.rennes.grid5000.fr;thermos-root-devel-WordCountTopology-1-da1e4c0c-13f8-4620-88f5-63c823f40d10;["container_1_Consume_and_count_1"];1.25;1533741560.31881;56.0;198.72;539.519350043;10;151
9;paravance-5.rennes.grid5000.fr;thermos-root-devel-WordCountTopology-2-6484de8a-ce48-4be7-ba1e-bf68945f80a2;["container_2_Emit_random_words_2"];1.25;1533741560.19531;37.29;140.91;179.589229824;10;149
10;paravance-5.rennes.grid5000.fr;thermos-root-devel-WordCountTopology-2-6484de8a-ce48-4be7-ba1e-bf68945f80a2;["container_2_Emit_random_words_2"];1.25;1533741570.41288;38.97;147.01;185.330901707;10;149
10;paravance-34.rennes.grid5000.fr;thermos-root-devel-WordCountTopology-1-da1e4c0c-13f8-4620-88f5-63c823f40d10;["container_1_Consume_and_count_1"];1.25;1533741570.53765;58.64;207.75;564.893343008;10;151
10;paravance-35.rennes.grid5000.fr;thermos-root-devel-WordCountTopology-0-e77885c7-65e7-4d2e-8a71-5cf5288d5998;["topology_master"];1.25;1533741570.53958;3.2;9.39;7.385171851;9;117
11;paravance-5.rennes.grid5000.fr;thermos-root-devel-WordCountTopology-2-6484de8a-ce48-4be7-ba1e-bf68945f80a2;["container_2_Emit_random_words_2"];1.25;1533741580.63076;40.59;152.73;190.774469965;10;149
11;paravance-34.rennes.grid5000.fr;thermos-root-devel-WordCountTopology-1-da1e4c0c-13f8-4620-88f5-63c823f40d10;["container_1_Consume_and_count_1"];1.25;1533741580.75382;61.27;217.04;590.89679717;10;151
11;paravance-35.rennes.grid5000.fr;thermos-root-devel-WordCountTopology-0-e77885c7-65e7-4d2e-8a71-5cf5288d5998;["topology_master"];1.25;1533741580.75616;3.32;9.59;7.385171851;9;117
12;paravance-34.rennes.grid5000.fr;thermos-root-devel-WordCountTopology-1-da1e4c0c-13f8-4620-88f5-63c823f40d10;["container_1_Consume_and_count_1"];1.25;1533741590.9711;63.93;226.26;622.315088574;10;151
12;paravance-5.rennes.grid5000.fr;thermos-root-devel-WordCountTopology-2-6484de8a-ce48-4be7-ba1e-bf68945f80a2;["container_2_Emit_random_words_2"];1.25;1533741590.8479;42.07;158.11;196.192988155;10;149
12;paravance-35.rennes.grid5000.fr;thermos-root-devel-WordCountTopology-0-e77885c7-65e7-4d2e-8a71-5cf5288d5998;["topology_master"];1.25;1533741590.97291;3.35;9.66;7.385171851;9;117
13;paravance-5.rennes.grid5000.fr;thermos-root-devel-WordCountTopology-2-6484de8a-ce48-4be7-ba1e-bf68945f80a2;["container_2_Emit_random_words_2"];1.25;1533741601.06495;43.73;164.21;201.763403756;10;149
13;paravance-35.rennes.grid5000.fr;thermos-root-devel-WordCountTopology-0-e77885c7-65e7-4d2e-8a71-5cf5288d5998;["topology_master"];1.25;1533741601.18843;3.45;9.84;7.385171851;9;117
13;paravance-34.rennes.grid5000.fr;thermos-root-devel-WordCountTopology-1-da1e4c0c-13f8-4620-88f5-63c823f40d10;["container_1_Consume_and_count_1"];1.25;1533741601.18955;66.63;235.34;649.303451414;10;151
14;paravance-34.rennes.grid5000.fr;thermos-root-devel-WordCountTopology-1-da1e4c0c-13f8-4620-88f5-63c823f40d10;["container_1_Consume_and_count_1"];1.25;1533741611.40554;69.35;244.41;673.851055553;10;151
14;paravance-35.rennes.grid5000.fr;thermos-root-devel-WordCountTopology-0-e77885c7-65e7-4d2e-8a71-5cf5288d5998;["topology_master"];1.25;1533741611.40566;3.51;9.91;7.385171851;9;117
14;paravance-5.rennes.grid5000.fr;thermos-root-devel-WordCountTopology-2-6484de8a-ce48-4be7-ba1e-bf68945f80a2;["container_2_Emit_random_words_2"];1.25;1533741611.28182;45.27;169.63;207.068942042;10;149
15;paravance-34.rennes.grid5000.fr;thermos-root-devel-WordCountTopology-1-da1e4c0c-13f8-4620-88f5-63c823f40d10;["container_1_Consume_and_count_1"];1.25;1533741621.62352;71.96;253.53;699.62159301;10;151
15;paravance-35.rennes.grid5000.fr;thermos-root-devel-WordCountTopology-0-e77885c7-65e7-4d2e-8a71-5cf5288d5998;["topology_master"];1.25;1533741621.62425;3.57;10.0;7.385171851;9;117
15;paravance-5.rennes.grid5000.fr;thermos-root-devel-WordCountTopology-2-6484de8a-ce48-4be7-ba1e-bf68945f80a2;["container_2_Emit_random_words_2"];1.25;1533741621.50037;47.06;175.99;213.563770311;10;149
16;paravance-35.rennes.grid5000.fr;thermos-root-devel-WordCountTopology-0-e77885c7-65e7-4d2e-8a71-5cf5288d5998;["topology_master"];1.25;1533741631.8402;3.62;10.07;7.385171851;9;117
16;paravance-5.rennes.grid5000.fr;thermos-root-devel-WordCountTopology-2-6484de8a-ce48-4be7-ba1e-bf68945f80a2;["container_2_Emit_random_words_2"];1.25;1533741631.71613;48.71;181.8;219.604359964;10;149
16;paravance-34.rennes.grid5000.fr;thermos-root-devel-WordCountTopology-1-da1e4c0c-13f8-4620-88f5-63c823f40d10;["container_1_Consume_and_count_1"];1.25;1533741631.84201;74.62;262.66;726.922996949;10;151
17;paravance-34.rennes.grid5000.fr;thermos-root-devel-WordCountTopology-1-da1e4c0c-13f8-4620-88f5-63c823f40d10;["container_1_Consume_and_count_1"];1.25;1533741642.05512;77.19;271.96;754.450331051;10;151
17;paravance-5.rennes.grid5000.fr;thermos-root-devel-WordCountTopology-2-6484de8a-ce48-4be7-ba1e-bf68945f80a2;["container_2_Emit_random_words_2"];1.25;1533741641.93327;50.36;187.72;227.014766862;10;149
17;paravance-35.rennes.grid5000.fr;thermos-root-devel-WordCountTopology-0-e77885c7-65e7-4d2e-8a71-5cf5288d5998;["topology_master"];1.25;1533741642.05841;3.74;10.28;7.385171851;9;117
18;paravance-5.rennes.grid5000.fr;thermos-root-devel-WordCountTopology-2-6484de8a-ce48-4be7-ba1e-bf68945f80a2;["container_2_Emit_random_words_2"];1.25;1533741652.04841;52.08;193.88;233.041887135;10;149
18;paravance-34.rennes.grid5000.fr;thermos-root-devel-WordCountTopology-1-da1e4c0c-13f8-4620-88f5-63c823f40d10;["container_1_Consume_and_count_1"];1.25;1533741652.2718;79.74;281.21;779.661672973;10;151
18;paravance-35.rennes.grid5000.fr;thermos-root-devel-WordCountTopology-0-e77885c7-65e7-4d2e-8a71-5cf5288d5998;["topology_master"];1.25;1533741652.27298;3.77;10.31;7.385171851;9;117
19;paravance-34.rennes.grid5000.fr;thermos-root-devel-WordCountTopology-1-da1e4c0c-13f8-4620-88f5-63c823f40d10;["container_1_Consume_and_count_1"];1.25;1533741662.48579;82.36;290.38;806.93529587;10;151
19;paravance-5.rennes.grid5000.fr;thermos-root-devel-WordCountTopology-2-6484de8a-ce48-4be7-ba1e-bf68945f80a2;["container_2_Emit_random_words_2"];1.25;1533741662.36192;53.77;199.87;239.21511268;10;149
19;paravance-35.rennes.grid5000.fr;thermos-root-devel-WordCountTopology-0-e77885c7-65e7-4d2e-8a71-5cf5288d5998;["topology_master"];1.25;1533741662.48656;3.86;10.44;7.385171851;9;117
20;paravance-5.rennes.grid5000.fr;thermos-root-devel-WordCountTopology-2-6484de8a-ce48-4be7-ba1e-bf68945f80a2;["container_2_Emit_random_words_2"];1.25;1533741672.57493;55.36;205.89;244.802392681;10;149
20;paravance-34.rennes.grid5000.fr;thermos-root-devel-WordCountTopology-1-da1e4c0c-13f8-4620-88f5-63c823f40d10;["container_1_Consume_and_count_1"];1.25;1533741672.70073;84.96;299.43;832.489016452;10;151
20;paravance-35.rennes.grid5000.fr;thermos-root-devel-WordCountTopology-0-e77885c7-65e7-4d2e-8a71-5cf5288d5998;["topology_master"];1.25;1533741672.69981;3.92;10.51;7.385171851;9;117
21;paravance-34.rennes.grid5000.fr;thermos-root-devel-WordCountTopology-1-da1e4c0c-13f8-4620-88f5-63c823f40d10;["container_1_Consume_and_count_1"];1.25;1533741682.91742;87.59;308.5;861.072918958;10;151
21;paravance-35.rennes.grid5000.fr;thermos-root-devel-WordCountTopology-0-e77885c7-65e7-4d2e-8a71-5cf5288d5998;["topology_master"];1.25;1533741682.91791;3.97;10.58;7.385171851;9;117
21;paravance-5.rennes.grid5000.fr;thermos-root-devel-WordCountTopology-2-6484de8a-ce48-4be7-ba1e-bf68945f80a2;["container_2_Emit_random_words_2"];1.25;1533741682.79367;56.98;211.48;250.458772634;10;149
22;paravance-35.rennes.grid5000.fr;thermos-root-devel-WordCountTopology-0-e77885c7-65e7-4d2e-8a71-5cf5288d5998;["topology_master"];1.25;1533741693.13558;4.03;10.66;7.385171851;9;117
22;paravance-5.rennes.grid5000.fr;thermos-root-devel-WordCountTopology-2-6484de8a-ce48-4be7-ba1e-bf68945f80a2;["container_2_Emit_random_words_2"];1.25;1533741693.01277;58.64;217.15;256.07925151;10;149
22;paravance-34.rennes.grid5000.fr;thermos-root-devel-WordCountTopology-1-da1e4c0c-13f8-4620-88f5-63c823f40d10;["container_1_Consume_and_count_1"];1.25;1533741693.14175;90.25;317.81;887.731121117;10;151
23;paravance-5.rennes.grid5000.fr;thermos-root-devel-WordCountTopology-2-6484de8a-ce48-4be7-ba1e-bf68945f80a2;["container_2_Emit_random_words_2"];1.25;1533741703.23317;60.29;222.99;262.527497211;10;149
23;paravance-35.rennes.grid5000.fr;thermos-root-devel-WordCountTopology-0-e77885c7-65e7-4d2e-8a71-5cf5288d5998;["topology_master"];1.25;1533741703.35803;4.15;10.85;7.385171851;9;117
23;paravance-34.rennes.grid5000.fr;thermos-root-devel-WordCountTopology-1-da1e4c0c-13f8-4620-88f5-63c823f40d10;["container_1_Consume_and_count_1"];1.25;1533741703.35816;92.93;326.91;914.179053832;10;151
24;paravance-5.rennes.grid5000.fr;thermos-root-devel-WordCountTopology-2-6484de8a-ce48-4be7-ba1e-bf68945f80a2;["container_2_Emit_random_words_2"];1.25;1533741713.45029;61.83;228.5;268.044892619;10;149
24;paravance-34.rennes.grid5000.fr;thermos-root-devel-WordCountTopology-1-da1e4c0c-13f8-4620-88f5-63c823f40d10;["container_1_Consume_and_count_1"];1.25;1533741713.57565;95.49;336.17;941.760869433;10;151
24;paravance-35.rennes.grid5000.fr;thermos-root-devel-WordCountTopology-0-e77885c7-65e7-4d2e-8a71-5cf5288d5998;["topology_master"];1.25;1533741713.5769;4.17;10.88;7.385171851;9;117
25;paravance-34.rennes.grid5000.fr;thermos-root-devel-WordCountTopology-1-da1e4c0c-13f8-4620-88f5-63c823f40d10;["container_1_Consume_and_count_1"];1.25;1533741723.79;98.1;345.28;969.502241582;10;151
25;paravance-5.rennes.grid5000.fr;thermos-root-devel-WordCountTopology-2-6484de8a-ce48-4be7-ba1e-bf68945f80a2;["container_2_Emit_random_words_2"];1.25;1533741723.67059;63.49;234.33;273.770574491;10;149
25;paravance-35.rennes.grid5000.fr;thermos-root-devel-WordCountTopology-0-e77885c7-65e7-4d2e-8a71-5cf5288d5998;["topology_master"];1.25;1533741723.79639;4.26;11.0;7.385171851;9;117
26;paravance-35.rennes.grid5000.fr;thermos-root-devel-WordCountTopology-0-e77885c7-65e7-4d2e-8a71-5cf5288d5998;["topology_master"];1.25;1533741734.01139;4.32;11.07;7.385171851;9;117
26;paravance-34.rennes.grid5000.fr;thermos-root-devel-WordCountTopology-1-da1e4c0c-13f8-4620-88f5-63c823f40d10;["container_1_Consume_and_count_1"];1.25;1533741734.01195;100.63;354.6;995.215731494;10;151
26;paravance-5.rennes.grid5000.fr;thermos-root-devel-WordCountTopology-2-6484de8a-ce48-4be7-ba1e-bf68945f80a2;["container_2_Emit_random_words_2"];1.25;1533741733.88824;65.07;240.11;278.996404214;10;149
27;paravance-34.rennes.grid5000.fr;thermos-root-devel-WordCountTopology-1-da1e4c0c-13f8-4620-88f5-63c823f40d10;["container_1_Consume_and_count_1"];1.25;1533741744.23028;103.22;363.8;1021.380473875;10;151
27;paravance-5.rennes.grid5000.fr;thermos-root-devel-WordCountTopology-2-6484de8a-ce48-4be7-ba1e-bf68945f80a2;["container_2_Emit_random_words_2"];1.25;1533741744.1067;66.62;245.74;284.607759665;10;149
27;paravance-35.rennes.grid5000.fr;thermos-root-devel-WordCountTopology-0-e77885c7-65e7-4d2e-8a71-5cf5288d5998;["topology_master"];1.25;1533741744.23118;4.38;11.15;7.385171851;9;117
28;paravance-35.rennes.grid5000.fr;thermos-root-devel-WordCountTopology-0-e77885c7-65e7-4d2e-8a71-5cf5288d5998;["topology_master"];1.25;1533741754.44642;4.44;11.22;7.385171851;9;117
28;paravance-34.rennes.grid5000.fr;thermos-root-devel-WordCountTopology-1-da1e4c0c-13f8-4620-88f5-63c823f40d10;["container_1_Consume_and_count_1"];1.25;1533741754.4487;105.73;373.22;1048.562013575;10;151
28;paravance-5.rennes.grid5000.fr;thermos-root-devel-WordCountTopology-2-6484de8a-ce48-4be7-ba1e-bf68945f80a2;["container_2_Emit_random_words_2"];1.25;1533741754.32435;68.2;251.12;289.808668348;10;149
29;paravance-35.rennes.grid5000.fr;thermos-root-devel-WordCountTopology-0-e77885c7-65e7-4d2e-8a71-5cf5288d5998;["topology_master"];1.25;1533741764.66541;4.55;11.4;7.385171851;9;117
29;paravance-5.rennes.grid5000.fr;thermos-root-devel-WordCountTopology-2-6484de8a-ce48-4be7-ba1e-bf68945f80a2;["container_2_Emit_random_words_2"];1.25;1533741764.54198;69.72;256.67;294.541378321;10;149
29;paravance-34.rennes.grid5000.fr;thermos-root-devel-WordCountTopology-1-da1e4c0c-13f8-4620-88f5-63c823f40d10;["container_1_Consume_and_count_1"];1.25;1533741764.66707;108.22;382.4;1077.729357327;10;151
30;paravance-5.rennes.grid5000.fr;thermos-root-devel-WordCountTopology-2-6484de8a-ce48-4be7-ba1e-bf68945f80a2;["container_2_Emit_random_words_2"];1.25;1533741774.75604;71.15;261.78;299.169028452;10;149
30;paravance-34.rennes.grid5000.fr;thermos-root-devel-WordCountTopology-1-da1e4c0c-13f8-4620-88f5-63c823f40d10;["container_1_Consume_and_count_1"];1.25;1533741774.88076;110.74;391.75;1109.26807498;10;151
30;paravance-35.rennes.grid5000.fr;thermos-root-devel-WordCountTopology-0-e77885c7-65e7-4d2e-8a71-5cf5288d5998;["topology_master"];1.25;1533741774.88057;4.6;11.47;7.385171851;9;117
31;paravance-34.rennes.grid5000.fr;thermos-root-devel-WordCountTopology-1-da1e4c0c-13f8-4620-88f5-63c823f40d10;["container_1_Consume_and_count_1"];1.25;1533741785.09736;113.24;401.16;1141.387213764;10;151
31;paravance-35.rennes.grid5000.fr;thermos-root-devel-WordCountTopology-0-e77885c7-65e7-4d2e-8a71-5cf5288d5998;["topology_master"];1.25;1533741785.09768;4.66;11.55;7.385171851;9;117
31;paravance-5.rennes.grid5000.fr;thermos-root-devel-WordCountTopology-2-6484de8a-ce48-4be7-ba1e-bf68945f80a2;["container_2_Emit_random_words_2"];1.25;1533741784.97534;72.65;266.85;303.629545945;10;149
32;paravance-35.rennes.grid5000.fr;thermos-root-devel-WordCountTopology-0-e77885c7-65e7-4d2e-8a71-5cf5288d5998;["topology_master"];1.25;1533741795.31522;4.75;11.66;7.385171851;9;117
32;paravance-34.rennes.grid5000.fr;thermos-root-devel-WordCountTopology-1-da1e4c0c-13f8-4620-88f5-63c823f40d10;["container_1_Consume_and_count_1"];1.25;1533741795.31654;115.76;410.53;1173.048820916;10;149
32;paravance-5.rennes.grid5000.fr;thermos-root-devel-WordCountTopology-2-6484de8a-ce48-4be7-ba1e-bf68945f80a2;["container_2_Emit_random_words_2"];1.25;1533741795.19311;74.14;271.88;307.954877281;10;149
33;paravance-5.rennes.grid5000.fr;thermos-root-devel-WordCountTopology-2-6484de8a-ce48-4be7-ba1e-bf68945f80a2;["container_2_Emit_random_words_2"];1.25;1533741805.4083;75.67;277.02;312.482127978;10;149
33;paravance-35.rennes.grid5000.fr;thermos-root-devel-WordCountTopology-0-e77885c7-65e7-4d2e-8a71-5cf5288d5998;["topology_master"];1.25;1533741805.53402;4.77;11.69;7.385171851;9;117
33;paravance-34.rennes.grid5000.fr;thermos-root-devel-WordCountTopology-1-da1e4c0c-13f8-4620-88f5-63c823f40d10;["container_1_Consume_and_count_1"];1.25;1533741805.53486;118.23;419.97;1204.458987718;10;151
34;paravance-35.rennes.grid5000.fr;thermos-root-devel-WordCountTopology-0-e77885c7-65e7-4d2e-8a71-5cf5288d5998;["topology_master"];1.25;1533741815.74997;4.87;11.82;7.385171851;9;117
34;paravance-5.rennes.grid5000.fr;thermos-root-devel-WordCountTopology-2-6484de8a-ce48-4be7-ba1e-bf68945f80a2;["container_2_Emit_random_words_2"];1.25;1533741815.62794;77.24;282.26;316.75161607;10;149
34;paravance-34.rennes.grid5000.fr;thermos-root-devel-WordCountTopology-1-da1e4c0c-13f8-4620-88f5-63c823f40d10;["container_1_Consume_and_count_1"];1.25;1533741815.75174;120.71;429.36;1236.339464494;10;152
35;paravance-34.rennes.grid5000.fr;thermos-root-devel-WordCountTopology-1-da1e4c0c-13f8-4620-88f5-63c823f40d10;["container_1_Consume_and_count_1"];1.25;1533741825.96728;123.19;438.66;1266.006133012;10;152
35;paravance-35.rennes.grid5000.fr;thermos-root-devel-WordCountTopology-0-e77885c7-65e7-4d2e-8a71-5cf5288d5998;["topology_master"];1.25;1533741825.96884;4.94;12.0;7.385171851;9;117
35;paravance-5.rennes.grid5000.fr;thermos-root-devel-WordCountTopology-2-6484de8a-ce48-4be7-ba1e-bf68945f80a2;["container_2_Emit_random_words_2"];1.25;1533741825.8459;78.76;287.37;321.662647202;10;149
36;paravance-5.rennes.grid5000.fr;thermos-root-devel-WordCountTopology-2-6484de8a-ce48-4be7-ba1e-bf68945f80a2;["container_2_Emit_random_words_2"];1.25;1533741836.06117;80.38;292.84;326.873247472;10;149
36;paravance-35.rennes.grid5000.fr;thermos-root-devel-WordCountTopology-0-e77885c7-65e7-4d2e-8a71-5cf5288d5998;["topology_master"];1.25;1533741836.186;4.99;12.08;7.385171851;9;117
36;paravance-34.rennes.grid5000.fr;thermos-root-devel-WordCountTopology-1-da1e4c0c-13f8-4620-88f5-63c823f40d10;["container_1_Consume_and_count_1"];1.25;1533741836.18724;125.56;448.04;1296.183679228;10;151
37;paravance-35.rennes.grid5000.fr;thermos-root-devel-WordCountTopology-0-e77885c7-65e7-4d2e-8a71-5cf5288d5998;["topology_master"];1.25;1533741846.40258;5.05;12.15;7.385171851;9;117
37;paravance-5.rennes.grid5000.fr;thermos-root-devel-WordCountTopology-2-6484de8a-ce48-4be7-ba1e-bf68945f80a2;["container_2_Emit_random_words_2"];1.25;1533741846.2797;81.91;297.89;331.776898868;10;149
37;paravance-34.rennes.grid5000.fr;thermos-root-devel-WordCountTopology-1-da1e4c0c-13f8-4620-88f5-63c823f40d10;["container_1_Consume_and_count_1"];1.25;1533741846.40465;127.97;457.46;1323.4856085;10;151
38;paravance-35.rennes.grid5000.fr;thermos-root-devel-WordCountTopology-0-e77885c7-65e7-4d2e-8a71-5cf5288d5998;["topology_master"];1.25;1533741856.61939;5.14;12.27;7.385171851;9;117
38;paravance-5.rennes.grid5000.fr;thermos-root-devel-WordCountTopology-2-6484de8a-ce48-4be7-ba1e-bf68945f80a2;["container_2_Emit_random_words_2"];1.25;1533741856.49579;83.44;303.13;336.606540837;10;149
38;paravance-34.rennes.grid5000.fr;thermos-root-devel-WordCountTopology-1-da1e4c0c-13f8-4620-88f5-63c823f40d10;["container_1_Consume_and_count_1"];1.25;1533741856.62126;130.43;466.84;1355.646006268;10;151
39;paravance-5.rennes.grid5000.fr;thermos-root-devel-WordCountTopology-2-6484de8a-ce48-4be7-ba1e-bf68945f80a2;["container_2_Emit_random_words_2"];1.25;1533741866.71294;84.97;308.32;341.433076332;10;149
39;paravance-35.rennes.grid5000.fr;thermos-root-devel-WordCountTopology-0-e77885c7-65e7-4d2e-8a71-5cf5288d5998;["topology_master"];1.25;1533741866.83739;5.17;12.3;7.385171851;9;117
39;paravance-34.rennes.grid5000.fr;thermos-root-devel-WordCountTopology-1-da1e4c0c-13f8-4620-88f5-63c823f40d10;["container_1_Consume_and_count_1"];1.25;1533741866.83826;132.95;476.14;1384.626449341;10;151
40;paravance-35.rennes.grid5000.fr;thermos-root-devel-WordCountTopology-0-e77885c7-65e7-4d2e-8a71-5cf5288d5998;["topology_master"];1.25;1533741877.05393;5.26;12.43;7.385171851;9;117
40;paravance-5.rennes.grid5000.fr;thermos-root-devel-WordCountTopology-2-6484de8a-ce48-4be7-ba1e-bf68945f80a2;["container_2_Emit_random_words_2"];1.25;1533741876.93174;86.56;313.34;346.080813607;10;149
40;paravance-34.rennes.grid5000.fr;thermos-root-devel-WordCountTopology-1-da1e4c0c-13f8-4620-88f5-63c823f40d10;["container_1_Consume_and_count_1"];1.25;1533741877.05591;135.42;485.51;1414.697981567;10;151
41;paravance-34.rennes.grid5000.fr;thermos-root-devel-WordCountTopology-1-da1e4c0c-13f8-4620-88f5-63c823f40d10;["container_1_Consume_and_count_1"];1.25;1533741887.27208;137.84;494.92;1446.125565447;10;151
41;paravance-5.rennes.grid5000.fr;thermos-root-devel-WordCountTopology-2-6484de8a-ce48-4be7-ba1e-bf68945f80a2;["container_2_Emit_random_words_2"];1.25;1533741887.14906;88.03;318.38;350.36664287;10;149
41;paravance-35.rennes.grid5000.fr;thermos-root-devel-WordCountTopology-0-e77885c7-65e7-4d2e-8a71-5cf5288d5998;["topology_master"];1.25;1533741887.27348;5.33;12.55;7.385171851;9;117
42;paravance-35.rennes.grid5000.fr;thermos-root-devel-WordCountTopology-0-e77885c7-65e7-4d2e-8a71-5cf5288d5998;["topology_master"];1.25;1533741897.48937;5.42;12.67;7.385171851;9;117
42;paravance-5.rennes.grid5000.fr;thermos-root-devel-WordCountTopology-2-6484de8a-ce48-4be7-ba1e-bf68945f80a2;["container_2_Emit_random_words_2"];1.25;1533741897.36838;89.34;322.71;354.066570219;10;149
42;paravance-34.rennes.grid5000.fr;thermos-root-devel-WordCountTopology-1-da1e4c0c-13f8-4620-88f5-63c823f40d10;["container_1_Consume_and_count_1"];1.25;1533741897.49228;140.32;504.32;1479.670115061;10;151
43;paravance-35.rennes.grid5000.fr;thermos-root-devel-WordCountTopology-0-e77885c7-65e7-4d2e-8a71-5cf5288d5998;["topology_master"];1.25;1533741907.70968;5.44;12.69;7.385171851;9;117
43;paravance-34.rennes.grid5000.fr;thermos-root-devel-WordCountTopology-1-da1e4c0c-13f8-4620-88f5-63c823f40d10;["container_1_Consume_and_count_1"];1.25;1533741907.71058;142.71;513.78;1510.910749899;10;151
43;paravance-5.rennes.grid5000.fr;thermos-root-devel-WordCountTopology-2-6484de8a-ce48-4be7-ba1e-bf68945f80a2;["container_2_Emit_random_words_2"];1.25;1533741907.58693;90.87;327.86;358.676361151;10;149
44;paravance-35.rennes.grid5000.fr;thermos-root-devel-WordCountTopology-0-e77885c7-65e7-4d2e-8a71-5cf5288d5998;["topology_master"];1.25;1533741917.92741;5.54;12.82;7.385171851;9;117
44;paravance-5.rennes.grid5000.fr;thermos-root-devel-WordCountTopology-2-6484de8a-ce48-4be7-ba1e-bf68945f80a2;["container_2_Emit_random_words_2"];1.25;1533741917.80409;92.32;332.62;362.983891556;10;149
44;paravance-34.rennes.grid5000.fr;thermos-root-devel-WordCountTopology-1-da1e4c0c-13f8-4620-88f5-63c823f40d10;["container_1_Consume_and_count_1"];1.25;1533741917.92847;145.15;523.24;1545.354770376;10;151
45;paravance-5.rennes.grid5000.fr;thermos-root-devel-WordCountTopology-2-6484de8a-ce48-4be7-ba1e-bf68945f80a2;["container_2_Emit_random_words_2"];1.25;1533741928.02106;93.85;337.85;367.109578776;10;149
45;paravance-35.rennes.grid5000.fr;thermos-root-devel-WordCountTopology-0-e77885c7-65e7-4d2e-8a71-5cf5288d5998;["topology_master"];1.25;1533741928.14605;5.59;12.89;7.385171851;9;117
45;paravance-34.rennes.grid5000.fr;thermos-root-devel-WordCountTopology-1-da1e4c0c-13f8-4620-88f5-63c823f40d10;["container_1_Consume_and_count_1"];1.25;1533741928.14703;147.71;532.58;1578.21598692;10;151
46;paravance-35.rennes.grid5000.fr;thermos-root-devel-WordCountTopology-0-e77885c7-65e7-4d2e-8a71-5cf5288d5998;["topology_master"];1.25;1533741938.36289;5.66;12.98;7.385171851;9;117
46;paravance-5.rennes.grid5000.fr;thermos-root-devel-WordCountTopology-2-6484de8a-ce48-4be7-ba1e-bf68945f80a2;["container_2_Emit_random_words_2"];1.25;1533741938.23917;95.46;343.2;372.517419365;10;149
46;paravance-34.rennes.grid5000.fr;thermos-root-devel-WordCountTopology-1-da1e4c0c-13f8-4620-88f5-63c823f40d10;["container_1_Consume_and_count_1"];1.25;1533741938.36526;150.24;541.96;1607.62303185;10;151
47;paravance-5.rennes.grid5000.fr;thermos-root-devel-WordCountTopology-2-6484de8a-ce48-4be7-ba1e-bf68945f80a2;["container_2_Emit_random_words_2"];1.25;1533741948.45895;96.87;347.94;377.264064068;10;149
47;paravance-34.rennes.grid5000.fr;thermos-root-devel-WordCountTopology-1-da1e4c0c-13f8-4620-88f5-63c823f40d10;["container_1_Consume_and_count_1"];1.25;1533741948.58338;152.69;551.33;1639.583813666;10;151
47;paravance-35.rennes.grid5000.fr;thermos-root-devel-WordCountTopology-0-e77885c7-65e7-4d2e-8a71-5cf5288d5998;["topology_master"];1.25;1533741948.58274;5.73;13.12;7.385171851;9;117
48;paravance-5.rennes.grid5000.fr;thermos-root-devel-WordCountTopology-2-6484de8a-ce48-4be7-ba1e-bf68945f80a2;["container_2_Emit_random_words_2"];1.25;1533741958.67586;98.34;352.92;382.088632895;10;149
48;paravance-35.rennes.grid5000.fr;thermos-root-devel-WordCountTopology-0-e77885c7-65e7-4d2e-8a71-5cf5288d5998;["topology_master"];1.25;1533741958.80096;5.81;13.24;7.385171851;9;117
48;paravance-34.rennes.grid5000.fr;thermos-root-devel-WordCountTopology-1-da1e4c0c-13f8-4620-88f5-63c823f40d10;["container_1_Consume_and_count_1"];1.25;1533741958.80113;155.07;560.86;1672.225865769;10;151
49;paravance-35.rennes.grid5000.fr;thermos-root-devel-WordCountTopology-0-e77885c7-65e7-4d2e-8a71-5cf5288d5998;["topology_master"];1.25;1533741968.91997;5.84;13.27;7.385171851;9;117
49;paravance-5.rennes.grid5000.fr;thermos-root-devel-WordCountTopology-2-6484de8a-ce48-4be7-ba1e-bf68945f80a2;["container_2_Emit_random_words_2"];1.25;1533741968.89224;99.84;357.97;386.098231774;10;149
49;paravance-34.rennes.grid5000.fr;thermos-root-devel-WordCountTopology-1-da1e4c0c-13f8-4620-88f5-63c823f40d10;["container_1_Consume_and_count_1"];1.25;1533741969.01942;157.53;570.18;1703.772374978;10;151
50;paravance-35.rennes.grid5000.fr;thermos-root-devel-WordCountTopology-0-e77885c7-65e7-4d2e-8a71-5cf5288d5998;["topology_master"];1.25;1533741979.23625;5.93;13.4;7.385171851;9;117
50;paravance-5.rennes.grid5000.fr;thermos-root-devel-WordCountTopology-2-6484de8a-ce48-4be7-ba1e-bf68945f80a2;["container_2_Emit_random_words_2"];1.25;1533741979.11286;101.38;363.12;390.64167463;10;149
50;paravance-34.rennes.grid5000.fr;thermos-root-devel-WordCountTopology-1-da1e4c0c-13f8-4620-88f5-63c823f40d10;["container_1_Consume_and_count_1"];1.25;1533741979.23733;160.09;579.51;1734.280539064;10;151
51;paravance-35.rennes.grid5000.fr;thermos-root-devel-WordCountTopology-0-e77885c7-65e7-4d2e-8a71-5cf5288d5998;["topology_master"];1.25;1533741989.4536;5.99;13.48;7.385171851;9;117
51;paravance-5.rennes.grid5000.fr;thermos-root-devel-WordCountTopology-2-6484de8a-ce48-4be7-ba1e-bf68945f80a2;["container_2_Emit_random_words_2"];1.25;1533741989.32993;102.89;368.19;394.457281008;10;149
51;paravance-34.rennes.grid5000.fr;thermos-root-devel-WordCountTopology-1-da1e4c0c-13f8-4620-88f5-63c823f40d10;["container_1_Consume_and_count_1"];1.25;1533741989.45526;162.62;588.91;1764.646144601;10;151
52;paravance-34.rennes.grid5000.fr;thermos-root-devel-WordCountTopology-1-da1e4c0c-13f8-4620-88f5-63c823f40d10;["container_1_Consume_and_count_1"];1.25;1533741999.66914;165.07;598.26;1795.667234683;10;151
52;paravance-35.rennes.grid5000.fr;thermos-root-devel-WordCountTopology-0-e77885c7-65e7-4d2e-8a71-5cf5288d5998;["topology_master"];1.25;1533741999.66995;6.06;13.59;7.385171851;9;117
52;paravance-5.rennes.grid5000.fr;thermos-root-devel-WordCountTopology-2-6484de8a-ce48-4be7-ba1e-bf68945f80a2;["container_2_Emit_random_words_2"];1.25;1533741999.54617;104.56;373.53;398.867733856;10;149
53;paravance-35.rennes.grid5000.fr;thermos-root-devel-WordCountTopology-0-e77885c7-65e7-4d2e-8a71-5cf5288d5998;["topology_master"];1.25;1533742009.88675;6.12;13.7;7.385171851;9;117
53;paravance-34.rennes.grid5000.fr;thermos-root-devel-WordCountTopology-1-da1e4c0c-13f8-4620-88f5-63c823f40d10;["container_1_Consume_and_count_1"];1.25;1533742009.888;167.5;607.47;1826.002949516;10;151
53;paravance-5.rennes.grid5000.fr;thermos-root-devel-WordCountTopology-2-6484de8a-ce48-4be7-ba1e-bf68945f80a2;["container_2_Emit_random_words_2"];1.25;1533742009.76364;106.04;378.46;403.165819654;10;149
54;paravance-35.rennes.grid5000.fr;thermos-root-devel-WordCountTopology-0-e77885c7-65e7-4d2e-8a71-5cf5288d5998;["topology_master"];1.25;1533742020.10359;6.21;13.82;7.385171851;9;117
54;paravance-34.rennes.grid5000.fr;thermos-root-devel-WordCountTopology-1-da1e4c0c-13f8-4620-88f5-63c823f40d10;["container_1_Consume_and_count_1"];1.25;1533742020.1037;170.01;616.79;1856.49962219;10;151
54;paravance-5.rennes.grid5000.fr;thermos-root-devel-WordCountTopology-2-6484de8a-ce48-4be7-ba1e-bf68945f80a2;["container_2_Emit_random_words_2"];1.25;1533742019.98038;107.52;383.36;407.483745154;10;149
55;paravance-5.rennes.grid5000.fr;thermos-root-devel-WordCountTopology-2-6484de8a-ce48-4be7-ba1e-bf68945f80a2;["container_2_Emit_random_words_2"];1.25;1533742030.19678;109.13;388.74;412.544464092;10;149
55;paravance-35.rennes.grid5000.fr;thermos-root-devel-WordCountTopology-0-e77885c7-65e7-4d2e-8a71-5cf5288d5998;["topology_master"];1.25;1533742030.32191;6.24;13.84;7.385171851;9;117
55;paravance-34.rennes.grid5000.fr;thermos-root-devel-WordCountTopology-1-da1e4c0c-13f8-4620-88f5-63c823f40d10;["container_1_Consume_and_count_1"];1.25;1533742030.32263;172.29;626.37;1885.95268031;10;151
56;paravance-5.rennes.grid5000.fr;thermos-root-devel-WordCountTopology-2-6484de8a-ce48-4be7-ba1e-bf68945f80a2;["container_2_Emit_random_words_2"];1.25;1533742040.41618;110.72;393.92;416.892309924;10;149
56;paravance-35.rennes.grid5000.fr;thermos-root-devel-WordCountTopology-0-e77885c7-65e7-4d2e-8a71-5cf5288d5998;["topology_master"];1.25;1533742040.53984;6.32;13.96;7.385171851;9;117
56;paravance-34.rennes.grid5000.fr;thermos-root-devel-WordCountTopology-1-da1e4c0c-13f8-4620-88f5-63c823f40d10;["container_1_Consume_and_count_1"];1.25;1533742040.54111;174.74;635.85;1917.128315864;10;151
57;paravance-5.rennes.grid5000.fr;thermos-root-devel-WordCountTopology-2-6484de8a-ce48-4be7-ba1e-bf68945f80a2;["container_2_Emit_random_words_2"];1.25;1533742050.63442;112.27;399.14;421.361566779;10;149
57;paravance-35.rennes.grid5000.fr;thermos-root-devel-WordCountTopology-0-e77885c7-65e7-4d2e-8a71-5cf5288d5998;["topology_master"];1.25;1533742050.75884;6.38;14.03;7.385171851;9;117
57;paravance-34.rennes.grid5000.fr;thermos-root-devel-WordCountTopology-1-da1e4c0c-13f8-4620-88f5-63c823f40d10;["container_1_Consume_and_count_1"];1.25;1533742050.759;177.21;645.28;1946.569128865;10;151
58;paravance-35.rennes.grid5000.fr;thermos-root-devel-WordCountTopology-0-e77885c7-65e7-4d2e-8a71-5cf5288d5998;["topology_master"];1.25;1533742060.97436;6.45;14.14;7.385171851;9;117
58;paravance-34.rennes.grid5000.fr;thermos-root-devel-WordCountTopology-1-da1e4c0c-13f8-4620-88f5-63c823f40d10;["container_1_Consume_and_count_1"];1.25;1533742060.97517;179.68;654.64;1976.909996607;10;151
58;paravance-5.rennes.grid5000.fr;thermos-root-devel-WordCountTopology-2-6484de8a-ce48-4be7-ba1e-bf68945f80a2;["container_2_Emit_random_words_2"];1.25;1533742060.85145;113.9;404.32;426.635343537;10;149
59;paravance-5.rennes.grid5000.fr;thermos-root-devel-WordCountTopology-2-6484de8a-ce48-4be7-ba1e-bf68945f80a2;["container_2_Emit_random_words_2"];1.25;1533742071.06567;115.51;409.74;431.480783044;10;149
59;paravance-35.rennes.grid5000.fr;thermos-root-devel-WordCountTopology-0-e77885c7-65e7-4d2e-8a71-5cf5288d5998;["topology_master"];1.25;1533742071.19033;6.51;14.21;7.385171851;9;117
59;paravance-34.rennes.grid5000.fr;thermos-root-devel-WordCountTopology-1-da1e4c0c-13f8-4620-88f5-63c823f40d10;["container_1_Consume_and_count_1"];1.25;1533742071.19162;182.15;664.19;2009.471566996;10;151
60;paravance-5.rennes.grid5000.fr;thermos-root-devel-WordCountTopology-2-6484de8a-ce48-4be7-ba1e-bf68945f80a2;["container_2_Emit_random_words_2"];1.25;1533742081.2821;117.11;415.0;436.265321386;10;149
60;paravance-35.rennes.grid5000.fr;thermos-root-devel-WordCountTopology-0-e77885c7-65e7-4d2e-8a71-5cf5288d5998;["topology_master"];1.25;1533742081.40595;6.6;14.34;7.385171851;9;117
60;paravance-34.rennes.grid5000.fr;thermos-root-devel-WordCountTopology-1-da1e4c0c-13f8-4620-88f5-63c823f40d10;["container_1_Consume_and_count_1"];1.25;1533742081.40682;184.66;673.48;2040.353201413;10;151
