mesure_id;slave_id;executor_id;heron_instances;cpus_limit;timestamp_B;cpus_system_time_secs_B;cpus_user_time_secs_B;cpus_throttled_time_secs_B;processes;threads
0;paravance-53.rennes.grid5000.fr;thermos-root-devel-WordCountTopology-0-9b4d9c7f-2c0a-44ff-a4c3-5243185e6e55;["topology_master"];5.25;1533255883.41772;2.54;8.23;0.0;9;117
0;paravance-65.rennes.grid5000.fr;thermos-root-devel-WordCountTopology-2-4172aaf1-bbeb-465f-804e-bfc4bc8b9cf6;["container_2_Emit_random_words_2"];5.25;1533255883.4524;26.37;227.11;1.253271645;10;149
0;paravance-70.rennes.grid5000.fr;thermos-root-devel-WordCountTopology-1-3c4a9cf4-65b5-4813-9fee-6dba5550b9cf;["container_1_Consume_and_count_1"];5.25;1533255883.5889;41.98;255.27;0.248687062;10;149
1;paravance-65.rennes.grid5000.fr;thermos-root-devel-WordCountTopology-2-4172aaf1-bbeb-465f-804e-bfc4bc8b9cf6;["container_2_Emit_random_words_2"];5.25;1533255893.66765;28.36;244.41;1.253271645;10;149
1;paravance-53.rennes.grid5000.fr;thermos-root-devel-WordCountTopology-0-9b4d9c7f-2c0a-44ff-a4c3-5243185e6e55;["topology_master"];5.25;1533255893.6315;2.63;8.36;0.0;9;117
1;paravance-70.rennes.grid5000.fr;thermos-root-devel-WordCountTopology-1-3c4a9cf4-65b5-4813-9fee-6dba5550b9cf;["container_1_Consume_and_count_1"];5.25;1533255893.79909;45.13;276.38;0.248687062;10;149
2;paravance-53.rennes.grid5000.fr;thermos-root-devel-WordCountTopology-0-9b4d9c7f-2c0a-44ff-a4c3-5243185e6e55;["topology_master"];5.25;1533255903.74105;2.66;8.39;0.0;9;117
2;paravance-65.rennes.grid5000.fr;thermos-root-devel-WordCountTopology-2-4172aaf1-bbeb-465f-804e-bfc4bc8b9cf6;["container_2_Emit_random_words_2"];5.25;1533255903.88412;30.21;261.01;1.253271645;10;149
2;paravance-70.rennes.grid5000.fr;thermos-root-devel-WordCountTopology-1-3c4a9cf4-65b5-4813-9fee-6dba5550b9cf;["container_1_Consume_and_count_1"];5.25;1533255904.00996;48.19;296.96;0.248687062;10;149
3;paravance-65.rennes.grid5000.fr;thermos-root-devel-WordCountTopology-2-4172aaf1-bbeb-465f-804e-bfc4bc8b9cf6;["container_2_Emit_random_words_2"];5.25;1533255914.09903;32.1;277.46;1.253271645;10;149
3;paravance-70.rennes.grid5000.fr;thermos-root-devel-WordCountTopology-1-3c4a9cf4-65b5-4813-9fee-6dba5550b9cf;["container_1_Consume_and_count_1"];5.25;1533255914.22068;51.43;317.18;0.248687062;10;149
3;paravance-53.rennes.grid5000.fr;thermos-root-devel-WordCountTopology-0-9b4d9c7f-2c0a-44ff-a4c3-5243185e6e55;["topology_master"];5.25;1533255914.05193;2.75;8.51;0.0;9;117
4;paravance-70.rennes.grid5000.fr;thermos-root-devel-WordCountTopology-1-3c4a9cf4-65b5-4813-9fee-6dba5550b9cf;["container_1_Consume_and_count_1"];5.25;1533255924.43242;54.53;338.72;0.248687062;10;149
4;paravance-65.rennes.grid5000.fr;thermos-root-devel-WordCountTopology-2-4172aaf1-bbeb-465f-804e-bfc4bc8b9cf6;["container_2_Emit_random_words_2"];5.25;1533255924.31684;33.99;294.19;1.253271645;10;149
4;paravance-53.rennes.grid5000.fr;thermos-root-devel-WordCountTopology-0-9b4d9c7f-2c0a-44ff-a4c3-5243185e6e55;["topology_master"];5.25;1533255924.26373;2.8;8.59;0.0;9;117
5;paravance-65.rennes.grid5000.fr;thermos-root-devel-WordCountTopology-2-4172aaf1-bbeb-465f-804e-bfc4bc8b9cf6;["container_2_Emit_random_words_2"];5.25;1533255934.53104;35.98;311.56;1.253271645;10;149
5;paravance-70.rennes.grid5000.fr;thermos-root-devel-WordCountTopology-1-3c4a9cf4-65b5-4813-9fee-6dba5550b9cf;["container_1_Consume_and_count_1"];5.25;1533255934.64218;57.84;359.63;0.248687062;10;149
5;paravance-53.rennes.grid5000.fr;thermos-root-devel-WordCountTopology-0-9b4d9c7f-2c0a-44ff-a4c3-5243185e6e55;["topology_master"];5.25;1533255934.47451;2.9;8.71;0.0;9;117
6;paravance-65.rennes.grid5000.fr;thermos-root-devel-WordCountTopology-2-4172aaf1-bbeb-465f-804e-bfc4bc8b9cf6;["container_2_Emit_random_words_2"];5.25;1533255944.74414;37.86;328.37;1.253271645;10;149
6;paravance-70.rennes.grid5000.fr;thermos-root-devel-WordCountTopology-1-3c4a9cf4-65b5-4813-9fee-6dba5550b9cf;["container_1_Consume_and_count_1"];5.25;1533255944.85194;60.89;380.5;0.248687062;10;149
6;paravance-53.rennes.grid5000.fr;thermos-root-devel-WordCountTopology-0-9b4d9c7f-2c0a-44ff-a4c3-5243185e6e55;["topology_master"];5.25;1533255944.68345;2.96;8.85;0.0;9;117
7;paravance-70.rennes.grid5000.fr;thermos-root-devel-WordCountTopology-1-3c4a9cf4-65b5-4813-9fee-6dba5550b9cf;["container_1_Consume_and_count_1"];5.25;1533255955.05676;64.18;401.18;0.248687062;10;149
7;paravance-65.rennes.grid5000.fr;thermos-root-devel-WordCountTopology-2-4172aaf1-bbeb-465f-804e-bfc4bc8b9cf6;["container_2_Emit_random_words_2"];5.25;1533255954.95843;39.87;345.95;1.253271645;10;149
7;paravance-53.rennes.grid5000.fr;thermos-root-devel-WordCountTopology-0-9b4d9c7f-2c0a-44ff-a4c3-5243185e6e55;["topology_master"];5.25;1533255954.89418;3.06;8.98;0.0;9;117
8;paravance-70.rennes.grid5000.fr;thermos-root-devel-WordCountTopology-1-3c4a9cf4-65b5-4813-9fee-6dba5550b9cf;["container_1_Consume_and_count_1"];5.25;1533255965.26863;67.21;421.72;0.248687062;10;149
8;paravance-65.rennes.grid5000.fr;thermos-root-devel-WordCountTopology-2-4172aaf1-bbeb-465f-804e-bfc4bc8b9cf6;["container_2_Emit_random_words_2"];5.25;1533255965.1737;41.76;362.6;1.253271645;10;149
8;paravance-53.rennes.grid5000.fr;thermos-root-devel-WordCountTopology-0-9b4d9c7f-2c0a-44ff-a4c3-5243185e6e55;["topology_master"];5.25;1533255965.10834;3.08;9.01;0.0;9;117
9;paravance-70.rennes.grid5000.fr;thermos-root-devel-WordCountTopology-1-3c4a9cf4-65b5-4813-9fee-6dba5550b9cf;["container_1_Consume_and_count_1"];5.25;1533255975.47964;70.37;442.7;0.248687062;10;149
9;paravance-53.rennes.grid5000.fr;thermos-root-devel-WordCountTopology-0-9b4d9c7f-2c0a-44ff-a4c3-5243185e6e55;["topology_master"];5.25;1533255975.32335;3.17;9.13;0.0;9;117
9;paravance-65.rennes.grid5000.fr;thermos-root-devel-WordCountTopology-2-4172aaf1-bbeb-465f-804e-bfc4bc8b9cf6;["container_2_Emit_random_words_2"];5.25;1533255975.38975;43.67;379.33;1.253271645;10;149
10;paravance-70.rennes.grid5000.fr;thermos-root-devel-WordCountTopology-1-3c4a9cf4-65b5-4813-9fee-6dba5550b9cf;["container_1_Consume_and_count_1"];5.25;1533255985.68681;73.54;463.7;0.248687062;10;149
10;paravance-65.rennes.grid5000.fr;thermos-root-devel-WordCountTopology-2-4172aaf1-bbeb-465f-804e-bfc4bc8b9cf6;["container_2_Emit_random_words_2"];5.25;1533255985.6029;45.59;396.17;1.253271645;10;149
10;paravance-53.rennes.grid5000.fr;thermos-root-devel-WordCountTopology-0-9b4d9c7f-2c0a-44ff-a4c3-5243185e6e55;["topology_master"];5.25;1533255985.53666;3.23;9.21;0.0;9;117
11;paravance-70.rennes.grid5000.fr;thermos-root-devel-WordCountTopology-1-3c4a9cf4-65b5-4813-9fee-6dba5550b9cf;["container_1_Consume_and_count_1"];5.25;1533255995.89654;76.62;484.41;0.248687062;10;149
11;paravance-53.rennes.grid5000.fr;thermos-root-devel-WordCountTopology-0-9b4d9c7f-2c0a-44ff-a4c3-5243185e6e55;["topology_master"];5.25;1533255995.75158;3.33;9.38;0.0;9;117
11;paravance-65.rennes.grid5000.fr;thermos-root-devel-WordCountTopology-2-4172aaf1-bbeb-465f-804e-bfc4bc8b9cf6;["container_2_Emit_random_words_2"];5.25;1533255995.81801;47.53;412.91;1.253271645;10;149
12;paravance-70.rennes.grid5000.fr;thermos-root-devel-WordCountTopology-1-3c4a9cf4-65b5-4813-9fee-6dba5550b9cf;["container_1_Consume_and_count_1"];5.25;1533256006.10589;79.73;506.16;0.248687062;10;149
12;paravance-65.rennes.grid5000.fr;thermos-root-devel-WordCountTopology-2-4172aaf1-bbeb-465f-804e-bfc4bc8b9cf6;["container_2_Emit_random_words_2"];5.25;1533256006.03159;49.34;428.99;1.253271645;10;149
12;paravance-53.rennes.grid5000.fr;thermos-root-devel-WordCountTopology-0-9b4d9c7f-2c0a-44ff-a4c3-5243185e6e55;["topology_master"];5.25;1533256005.96629;3.38;9.46;0.0;9;117
13;paravance-70.rennes.grid5000.fr;thermos-root-devel-WordCountTopology-1-3c4a9cf4-65b5-4813-9fee-6dba5550b9cf;["container_1_Consume_and_count_1"];5.25;1533256016.31738;82.81;526.02;0.248687062;10;149
13;paravance-65.rennes.grid5000.fr;thermos-root-devel-WordCountTopology-2-4172aaf1-bbeb-465f-804e-bfc4bc8b9cf6;["container_2_Emit_random_words_2"];5.25;1533256016.24776;51.21;445.37;1.253271645;10;149
13;paravance-53.rennes.grid5000.fr;thermos-root-devel-WordCountTopology-0-9b4d9c7f-2c0a-44ff-a4c3-5243185e6e55;["topology_master"];5.25;1533256016.18189;3.48;9.59;0.0;9;117
14;paravance-70.rennes.grid5000.fr;thermos-root-devel-WordCountTopology-1-3c4a9cf4-65b5-4813-9fee-6dba5550b9cf;["container_1_Consume_and_count_1"];5.25;1533256026.52715;85.93;547.29;0.248687062;10;149
14;paravance-65.rennes.grid5000.fr;thermos-root-devel-WordCountTopology-2-4172aaf1-bbeb-465f-804e-bfc4bc8b9cf6;["container_2_Emit_random_words_2"];5.25;1533256026.4638;53.08;461.82;1.253271645;10;149
14;paravance-53.rennes.grid5000.fr;thermos-root-devel-WordCountTopology-0-9b4d9c7f-2c0a-44ff-a4c3-5243185e6e55;["topology_master"];5.25;1533256026.39845;3.53;9.65;0.0;9;117
15;paravance-70.rennes.grid5000.fr;thermos-root-devel-WordCountTopology-1-3c4a9cf4-65b5-4813-9fee-6dba5550b9cf;["container_1_Consume_and_count_1"];5.25;1533256036.73827;88.87;567.94;0.248687062;10;149
15;paravance-65.rennes.grid5000.fr;thermos-root-devel-WordCountTopology-2-4172aaf1-bbeb-465f-804e-bfc4bc8b9cf6;["container_2_Emit_random_words_2"];5.25;1533256036.68007;54.94;478.33;1.253271645;10;149
15;paravance-53.rennes.grid5000.fr;thermos-root-devel-WordCountTopology-0-9b4d9c7f-2c0a-44ff-a4c3-5243185e6e55;["topology_master"];5.25;1533256036.61315;3.59;9.74;0.0;9;117
16;paravance-70.rennes.grid5000.fr;thermos-root-devel-WordCountTopology-1-3c4a9cf4-65b5-4813-9fee-6dba5550b9cf;["container_1_Consume_and_count_1"];5.25;1533256046.94822;92.07;588.25;0.248687062;10;149
16;paravance-65.rennes.grid5000.fr;thermos-root-devel-WordCountTopology-2-4172aaf1-bbeb-465f-804e-bfc4bc8b9cf6;["container_2_Emit_random_words_2"];5.25;1533256046.89613;56.9;495.62;1.253271645;10;149
16;paravance-53.rennes.grid5000.fr;thermos-root-devel-WordCountTopology-0-9b4d9c7f-2c0a-44ff-a4c3-5243185e6e55;["topology_master"];5.25;1533256046.82986;3.65;9.81;0.0;9;117
17;paravance-65.rennes.grid5000.fr;thermos-root-devel-WordCountTopology-2-4172aaf1-bbeb-465f-804e-bfc4bc8b9cf6;["container_2_Emit_random_words_2"];5.25;1533256057.11146;58.77;511.63;1.253271645;10;149
17;paravance-70.rennes.grid5000.fr;thermos-root-devel-WordCountTopology-1-3c4a9cf4-65b5-4813-9fee-6dba5550b9cf;["container_1_Consume_and_count_1"];5.25;1533256057.16132;95.11;609.52;0.248687062;10;149
17;paravance-53.rennes.grid5000.fr;thermos-root-devel-WordCountTopology-0-9b4d9c7f-2c0a-44ff-a4c3-5243185e6e55;["topology_master"];5.25;1533256057.04548;3.78;10.1;0.0;9;117
18;paravance-70.rennes.grid5000.fr;thermos-root-devel-WordCountTopology-1-3c4a9cf4-65b5-4813-9fee-6dba5550b9cf;["container_1_Consume_and_count_1"];5.25;1533256067.37046;97.92;629.37;0.248687062;10;149
18;paravance-65.rennes.grid5000.fr;thermos-root-devel-WordCountTopology-2-4172aaf1-bbeb-465f-804e-bfc4bc8b9cf6;["container_2_Emit_random_words_2"];5.25;1533256067.32635;60.58;528.17;1.253271645;10;149
18;paravance-53.rennes.grid5000.fr;thermos-root-devel-WordCountTopology-0-9b4d9c7f-2c0a-44ff-a4c3-5243185e6e55;["topology_master"];5.25;1533256067.26095;3.8;10.13;0.0;9;117
19;paravance-70.rennes.grid5000.fr;thermos-root-devel-WordCountTopology-1-3c4a9cf4-65b5-4813-9fee-6dba5550b9cf;["container_1_Consume_and_count_1"];5.25;1533256077.5798;101.0;649.82;0.248687062;10;149
19;paravance-65.rennes.grid5000.fr;thermos-root-devel-WordCountTopology-2-4172aaf1-bbeb-465f-804e-bfc4bc8b9cf6;["container_2_Emit_random_words_2"];5.25;1533256077.54209;62.47;544.69;1.253271645;10;149
19;paravance-53.rennes.grid5000.fr;thermos-root-devel-WordCountTopology-0-9b4d9c7f-2c0a-44ff-a4c3-5243185e6e55;["topology_master"];5.25;1533256077.47674;3.89;10.25;0.0;9;117
20;paravance-65.rennes.grid5000.fr;thermos-root-devel-WordCountTopology-2-4172aaf1-bbeb-465f-804e-bfc4bc8b9cf6;["container_2_Emit_random_words_2"];5.25;1533256087.75671;64.33;561.12;1.253271645;10;149
20;paravance-70.rennes.grid5000.fr;thermos-root-devel-WordCountTopology-1-3c4a9cf4-65b5-4813-9fee-6dba5550b9cf;["container_1_Consume_and_count_1"];5.25;1533256087.79281;103.85;670.65;0.248687062;10;149
20;paravance-53.rennes.grid5000.fr;thermos-root-devel-WordCountTopology-0-9b4d9c7f-2c0a-44ff-a4c3-5243185e6e55;["topology_master"];5.25;1533256087.69286;3.95;10.33;0.0;9;117
21;paravance-70.rennes.grid5000.fr;thermos-root-devel-WordCountTopology-1-3c4a9cf4-65b5-4813-9fee-6dba5550b9cf;["container_1_Consume_and_count_1"];5.25;1533256098.0013;106.98;691.11;0.248687062;10;149
21;paravance-65.rennes.grid5000.fr;thermos-root-devel-WordCountTopology-2-4172aaf1-bbeb-465f-804e-bfc4bc8b9cf6;["container_2_Emit_random_words_2"];5.25;1533256097.97348;66.29;578.43;1.253271645;10;149
21;paravance-53.rennes.grid5000.fr;thermos-root-devel-WordCountTopology-0-9b4d9c7f-2c0a-44ff-a4c3-5243185e6e55;["topology_master"];5.25;1533256097.9075;4.01;10.41;0.0;9;117
22;paravance-70.rennes.grid5000.fr;thermos-root-devel-WordCountTopology-1-3c4a9cf4-65b5-4813-9fee-6dba5550b9cf;["container_1_Consume_and_count_1"];5.25;1533256108.21193;109.8;711.93;0.248687062;10;149
22;paravance-65.rennes.grid5000.fr;thermos-root-devel-WordCountTopology-2-4172aaf1-bbeb-465f-804e-bfc4bc8b9cf6;["container_2_Emit_random_words_2"];5.25;1533256108.18891;68.09;594.49;1.253271645;10;149
22;paravance-53.rennes.grid5000.fr;thermos-root-devel-WordCountTopology-0-9b4d9c7f-2c0a-44ff-a4c3-5243185e6e55;["topology_master"];5.25;1533256108.12263;4.07;10.48;0.0;9;117
23;paravance-65.rennes.grid5000.fr;thermos-root-devel-WordCountTopology-2-4172aaf1-bbeb-465f-804e-bfc4bc8b9cf6;["container_2_Emit_random_words_2"];5.25;1533256118.40202;69.99;610.97;1.253271645;10;149
23;paravance-70.rennes.grid5000.fr;thermos-root-devel-WordCountTopology-1-3c4a9cf4-65b5-4813-9fee-6dba5550b9cf;["container_1_Consume_and_count_1"];5.25;1533256118.42129;112.87;731.95;0.248687062;10;149
23;paravance-53.rennes.grid5000.fr;thermos-root-devel-WordCountTopology-0-9b4d9c7f-2c0a-44ff-a4c3-5243185e6e55;["topology_master"];5.25;1533256118.33686;4.19;10.67;0.0;9;117
24;paravance-70.rennes.grid5000.fr;thermos-root-devel-WordCountTopology-1-3c4a9cf4-65b5-4813-9fee-6dba5550b9cf;["container_1_Consume_and_count_1"];5.25;1533256128.62973;116.04;752.6;0.248687062;10;149
24;paravance-53.rennes.grid5000.fr;thermos-root-devel-WordCountTopology-0-9b4d9c7f-2c0a-44ff-a4c3-5243185e6e55;["topology_master"];5.25;1533256128.55018;4.22;10.7;0.0;9;117
24;paravance-65.rennes.grid5000.fr;thermos-root-devel-WordCountTopology-2-4172aaf1-bbeb-465f-804e-bfc4bc8b9cf6;["container_2_Emit_random_words_2"];5.25;1533256128.61742;71.9;628.23;1.253271645;10;149
25;paravance-65.rennes.grid5000.fr;thermos-root-devel-WordCountTopology-2-4172aaf1-bbeb-465f-804e-bfc4bc8b9cf6;["container_2_Emit_random_words_2"];5.25;1533256138.83096;73.73;644.01;1.253271645;10;149
25;paravance-70.rennes.grid5000.fr;thermos-root-devel-WordCountTopology-1-3c4a9cf4-65b5-4813-9fee-6dba5550b9cf;["container_1_Consume_and_count_1"];5.25;1533256138.83921;119.04;771.93;0.248687062;10;149
25;paravance-53.rennes.grid5000.fr;thermos-root-devel-WordCountTopology-0-9b4d9c7f-2c0a-44ff-a4c3-5243185e6e55;["topology_master"];5.25;1533256138.76572;4.3;10.81;0.0;9;117
26;paravance-70.rennes.grid5000.fr;thermos-root-devel-WordCountTopology-1-3c4a9cf4-65b5-4813-9fee-6dba5550b9cf;["container_1_Consume_and_count_1"];5.25;1533256149.04821;122.2;793.2;0.248687062;10;149
26;paravance-53.rennes.grid5000.fr;thermos-root-devel-WordCountTopology-0-9b4d9c7f-2c0a-44ff-a4c3-5243185e6e55;["topology_master"];5.25;1533256148.98033;4.36;10.88;0.0;9;117
26;paravance-65.rennes.grid5000.fr;thermos-root-devel-WordCountTopology-2-4172aaf1-bbeb-465f-804e-bfc4bc8b9cf6;["container_2_Emit_random_words_2"];5.25;1533256149.04701;75.58;660.51;1.253271645;10;149
27;paravance-70.rennes.grid5000.fr;thermos-root-devel-WordCountTopology-1-3c4a9cf4-65b5-4813-9fee-6dba5550b9cf;["container_1_Consume_and_count_1"];5.25;1533256159.25967;125.11;813.11;0.248687062;10;149
27;paravance-65.rennes.grid5000.fr;thermos-root-devel-WordCountTopology-2-4172aaf1-bbeb-465f-804e-bfc4bc8b9cf6;["container_2_Emit_random_words_2"];5.25;1533256159.26173;77.36;676.5;1.253271645;10;149
27;paravance-53.rennes.grid5000.fr;thermos-root-devel-WordCountTopology-0-9b4d9c7f-2c0a-44ff-a4c3-5243185e6e55;["topology_master"];5.25;1533256159.19511;4.41;10.96;0.0;9;117
28;paravance-65.rennes.grid5000.fr;thermos-root-devel-WordCountTopology-2-4172aaf1-bbeb-465f-804e-bfc4bc8b9cf6;["container_2_Emit_random_words_2"];5.25;1533256169.47798;79.2;692.85;1.253271645;10;149
28;paravance-70.rennes.grid5000.fr;thermos-root-devel-WordCountTopology-1-3c4a9cf4-65b5-4813-9fee-6dba5550b9cf;["container_1_Consume_and_count_1"];5.25;1533256169.47063;128.25;834.15;0.248687062;10;149
28;paravance-53.rennes.grid5000.fr;thermos-root-devel-WordCountTopology-0-9b4d9c7f-2c0a-44ff-a4c3-5243185e6e55;["topology_master"];5.25;1533256169.41136;4.47;11.02;0.0;9;117
29;paravance-70.rennes.grid5000.fr;thermos-root-devel-WordCountTopology-1-3c4a9cf4-65b5-4813-9fee-6dba5550b9cf;["container_1_Consume_and_count_1"];5.25;1533256179.68056;131.48;854.82;0.248687062;10;149
29;paravance-53.rennes.grid5000.fr;thermos-root-devel-WordCountTopology-0-9b4d9c7f-2c0a-44ff-a4c3-5243185e6e55;["topology_master"];5.25;1533256179.62629;4.58;11.22;0.0;9;117
29;paravance-65.rennes.grid5000.fr;thermos-root-devel-WordCountTopology-2-4172aaf1-bbeb-465f-804e-bfc4bc8b9cf6;["container_2_Emit_random_words_2"];5.25;1533256179.69454;81.21;710.27;1.253271645;10;149
30;paravance-70.rennes.grid5000.fr;thermos-root-devel-WordCountTopology-1-3c4a9cf4-65b5-4813-9fee-6dba5550b9cf;["container_1_Consume_and_count_1"];5.25;1533256189.8897;134.64;874.72;0.248687062;10;149
30;paravance-53.rennes.grid5000.fr;thermos-root-devel-WordCountTopology-0-9b4d9c7f-2c0a-44ff-a4c3-5243185e6e55;["topology_master"];5.25;1533256189.84165;4.61;11.25;0.0;9;117
30;paravance-65.rennes.grid5000.fr;thermos-root-devel-WordCountTopology-2-4172aaf1-bbeb-465f-804e-bfc4bc8b9cf6;["container_2_Emit_random_words_2"];5.25;1533256189.90981;83.01;726.69;1.253271645;10;149
31;paravance-70.rennes.grid5000.fr;thermos-root-devel-WordCountTopology-1-3c4a9cf4-65b5-4813-9fee-6dba5550b9cf;["container_1_Consume_and_count_1"];5.25;1533256200.10164;137.88;894.76;0.248687062;10;149
31;paravance-65.rennes.grid5000.fr;thermos-root-devel-WordCountTopology-2-4172aaf1-bbeb-465f-804e-bfc4bc8b9cf6;["container_2_Emit_random_words_2"];5.25;1533256200.12329;84.94;744.01;1.253271645;10;149
31;paravance-53.rennes.grid5000.fr;thermos-root-devel-WordCountTopology-0-9b4d9c7f-2c0a-44ff-a4c3-5243185e6e55;["topology_master"];5.25;1533256200.05865;4.7;11.37;0.0;9;117
32;paravance-70.rennes.grid5000.fr;thermos-root-devel-WordCountTopology-1-3c4a9cf4-65b5-4813-9fee-6dba5550b9cf;["container_1_Consume_and_count_1"];5.25;1533256210.3125;140.99;915.66;0.248687062;10;149
32;paravance-65.rennes.grid5000.fr;thermos-root-devel-WordCountTopology-2-4172aaf1-bbeb-465f-804e-bfc4bc8b9cf6;["container_2_Emit_random_words_2"];5.25;1533256210.34125;86.91;761.34;1.253271645;10;149
32;paravance-53.rennes.grid5000.fr;thermos-root-devel-WordCountTopology-0-9b4d9c7f-2c0a-44ff-a4c3-5243185e6e55;["topology_master"];5.25;1533256210.27334;4.79;11.48;0.0;9;117
33;paravance-65.rennes.grid5000.fr;thermos-root-devel-WordCountTopology-2-4172aaf1-bbeb-465f-804e-bfc4bc8b9cf6;["container_2_Emit_random_words_2"];5.25;1533256220.55639;88.88;779.1;1.253271645;10;149
33;paravance-53.rennes.grid5000.fr;thermos-root-devel-WordCountTopology-0-9b4d9c7f-2c0a-44ff-a4c3-5243185e6e55;["topology_master"];5.25;1533256220.48941;4.82;11.51;0.0;9;117
33;paravance-70.rennes.grid5000.fr;thermos-root-devel-WordCountTopology-1-3c4a9cf4-65b5-4813-9fee-6dba5550b9cf;["container_1_Consume_and_count_1"];5.25;1533256220.52428;144.46;937.15;0.248687062;10;149
34;paravance-70.rennes.grid5000.fr;thermos-root-devel-WordCountTopology-1-3c4a9cf4-65b5-4813-9fee-6dba5550b9cf;["container_1_Consume_and_count_1"];5.25;1533256230.73258;147.72;957.49;0.248687062;10;149
34;paravance-65.rennes.grid5000.fr;thermos-root-devel-WordCountTopology-2-4172aaf1-bbeb-465f-804e-bfc4bc8b9cf6;["container_2_Emit_random_words_2"];5.25;1533256230.77174;90.93;796.84;1.253271645;10;149
34;paravance-53.rennes.grid5000.fr;thermos-root-devel-WordCountTopology-0-9b4d9c7f-2c0a-44ff-a4c3-5243185e6e55;["topology_master"];5.25;1533256230.70555;4.91;11.64;0.0;9;117
35;paravance-70.rennes.grid5000.fr;thermos-root-devel-WordCountTopology-1-3c4a9cf4-65b5-4813-9fee-6dba5550b9cf;["container_1_Consume_and_count_1"];5.25;1533256240.94151;150.98;978.89;0.248687062;10;149
35;paravance-65.rennes.grid5000.fr;thermos-root-devel-WordCountTopology-2-4172aaf1-bbeb-465f-804e-bfc4bc8b9cf6;["container_2_Emit_random_words_2"];5.25;1533256240.98703;92.8;813.36;1.253271645;10;149
35;paravance-53.rennes.grid5000.fr;thermos-root-devel-WordCountTopology-0-9b4d9c7f-2c0a-44ff-a4c3-5243185e6e55;["topology_master"];5.25;1533256240.92072;4.98;11.8;0.0;9;117
36;paravance-70.rennes.grid5000.fr;thermos-root-devel-WordCountTopology-1-3c4a9cf4-65b5-4813-9fee-6dba5550b9cf;["container_1_Consume_and_count_1"];5.25;1533256251.15266;153.99;998.16;0.248687062;10;149
36;paravance-65.rennes.grid5000.fr;thermos-root-devel-WordCountTopology-2-4172aaf1-bbeb-465f-804e-bfc4bc8b9cf6;["container_2_Emit_random_words_2"];5.25;1533256251.20262;94.67;830.16;1.253271645;10;149
36;paravance-53.rennes.grid5000.fr;thermos-root-devel-WordCountTopology-0-9b4d9c7f-2c0a-44ff-a4c3-5243185e6e55;["topology_master"];5.25;1533256251.13532;5.04;11.87;0.0;9;117
37;paravance-70.rennes.grid5000.fr;thermos-root-devel-WordCountTopology-1-3c4a9cf4-65b5-4813-9fee-6dba5550b9cf;["container_1_Consume_and_count_1"];5.25;1533256261.36097;157.18;1018.63;0.248687062;10;149
37;paravance-65.rennes.grid5000.fr;thermos-root-devel-WordCountTopology-2-4172aaf1-bbeb-465f-804e-bfc4bc8b9cf6;["container_2_Emit_random_words_2"];5.25;1533256261.41514;96.63;848.1;1.253271645;10;149
37;paravance-53.rennes.grid5000.fr;thermos-root-devel-WordCountTopology-0-9b4d9c7f-2c0a-44ff-a4c3-5243185e6e55;["topology_master"];5.25;1533256261.3486;5.09;11.94;0.0;9;117
38;paravance-70.rennes.grid5000.fr;thermos-root-devel-WordCountTopology-1-3c4a9cf4-65b5-4813-9fee-6dba5550b9cf;["container_1_Consume_and_count_1"];5.25;1533256271.57218;160.33;1039.69;0.248687062;10;149
38;paravance-65.rennes.grid5000.fr;thermos-root-devel-WordCountTopology-2-4172aaf1-bbeb-465f-804e-bfc4bc8b9cf6;["container_2_Emit_random_words_2"];5.25;1533256271.6301;98.54;865.24;1.253271645;10;149
38;paravance-53.rennes.grid5000.fr;thermos-root-devel-WordCountTopology-0-9b4d9c7f-2c0a-44ff-a4c3-5243185e6e55;["topology_master"];5.25;1533256271.56348;5.18;12.06;0.0;9;117
39;paravance-70.rennes.grid5000.fr;thermos-root-devel-WordCountTopology-1-3c4a9cf4-65b5-4813-9fee-6dba5550b9cf;["container_1_Consume_and_count_1"];5.25;1533256281.78268;163.19;1059.42;0.248687062;10;149
39;paravance-53.rennes.grid5000.fr;thermos-root-devel-WordCountTopology-0-9b4d9c7f-2c0a-44ff-a4c3-5243185e6e55;["topology_master"];5.25;1533256281.77825;5.21;12.08;0.0;9;117
39;paravance-65.rennes.grid5000.fr;thermos-root-devel-WordCountTopology-2-4172aaf1-bbeb-465f-804e-bfc4bc8b9cf6;["container_2_Emit_random_words_2"];5.25;1533256281.84779;100.37;881.74;1.253271645;10;149
40;paravance-70.rennes.grid5000.fr;thermos-root-devel-WordCountTopology-1-3c4a9cf4-65b5-4813-9fee-6dba5550b9cf;["container_1_Consume_and_count_1"];5.25;1533256292.01042;166.37;1079.84;0.248687062;10;149
40;paravance-65.rennes.grid5000.fr;thermos-root-devel-WordCountTopology-2-4172aaf1-bbeb-465f-804e-bfc4bc8b9cf6;["container_2_Emit_random_words_2"];5.25;1533256292.08208;102.32;899.52;1.253271645;10;149
40;paravance-53.rennes.grid5000.fr;thermos-root-devel-WordCountTopology-0-9b4d9c7f-2c0a-44ff-a4c3-5243185e6e55;["topology_master"];5.25;1533256292.01381;5.31;12.22;0.0;9;117
41;paravance-65.rennes.grid5000.fr;thermos-root-devel-WordCountTopology-2-4172aaf1-bbeb-465f-804e-bfc4bc8b9cf6;["container_2_Emit_random_words_2"];5.25;1533256302.29751;104.18;916.33;1.253271645;10;149
41;paravance-70.rennes.grid5000.fr;thermos-root-devel-WordCountTopology-1-3c4a9cf4-65b5-4813-9fee-6dba5550b9cf;["container_1_Consume_and_count_1"];5.25;1533256302.2336;169.47;1100.24;0.248687062;10;149
41;paravance-53.rennes.grid5000.fr;thermos-root-devel-WordCountTopology-0-9b4d9c7f-2c0a-44ff-a4c3-5243185e6e55;["topology_master"];5.25;1533256302.23046;5.37;12.34;0.0;9;117
42;paravance-65.rennes.grid5000.fr;thermos-root-devel-WordCountTopology-2-4172aaf1-bbeb-465f-804e-bfc4bc8b9cf6;["container_2_Emit_random_words_2"];5.25;1533256312.5135;106.11;933.25;1.253271645;10;149
42;paravance-53.rennes.grid5000.fr;thermos-root-devel-WordCountTopology-0-9b4d9c7f-2c0a-44ff-a4c3-5243185e6e55;["topology_master"];5.25;1533256312.44492;5.43;12.41;0.0;9;117
42;paravance-70.rennes.grid5000.fr;thermos-root-devel-WordCountTopology-1-3c4a9cf4-65b5-4813-9fee-6dba5550b9cf;["container_1_Consume_and_count_1"];5.25;1533256312.45086;172.75;1121.31;0.248687062;10;149
43;paravance-53.rennes.grid5000.fr;thermos-root-devel-WordCountTopology-0-9b4d9c7f-2c0a-44ff-a4c3-5243185e6e55;["topology_master"];5.25;1533256322.56233;5.49;12.48;0.0;9;117
43;paravance-70.rennes.grid5000.fr;thermos-root-devel-WordCountTopology-1-3c4a9cf4-65b5-4813-9fee-6dba5550b9cf;["container_1_Consume_and_count_1"];5.25;1533256322.66426;175.85;1141.6;0.248687062;10;149
43;paravance-65.rennes.grid5000.fr;thermos-root-devel-WordCountTopology-2-4172aaf1-bbeb-465f-804e-bfc4bc8b9cf6;["container_2_Emit_random_words_2"];5.25;1533256322.73097;107.96;949.51;1.253271645;10;149
44;paravance-70.rennes.grid5000.fr;thermos-root-devel-WordCountTopology-1-3c4a9cf4-65b5-4813-9fee-6dba5550b9cf;["container_1_Consume_and_count_1"];5.25;1533256332.87973;179.08;1161.46;0.248687062;10;149
44;paravance-65.rennes.grid5000.fr;thermos-root-devel-WordCountTopology-2-4172aaf1-bbeb-465f-804e-bfc4bc8b9cf6;["container_2_Emit_random_words_2"];5.25;1533256332.94583;109.82;965.94;1.253271645;10;149
44;paravance-53.rennes.grid5000.fr;thermos-root-devel-WordCountTopology-0-9b4d9c7f-2c0a-44ff-a4c3-5243185e6e55;["topology_master"];5.25;1533256332.87765;5.57;12.6;0.0;9;117
45;paravance-70.rennes.grid5000.fr;thermos-root-devel-WordCountTopology-1-3c4a9cf4-65b5-4813-9fee-6dba5550b9cf;["container_1_Consume_and_count_1"];5.25;1533256343.09547;182.33;1181.74;0.248687062;10;149
45;paravance-65.rennes.grid5000.fr;thermos-root-devel-WordCountTopology-2-4172aaf1-bbeb-465f-804e-bfc4bc8b9cf6;["container_2_Emit_random_words_2"];5.25;1533256343.16181;111.71;982.89;1.253271645;10;149
45;paravance-53.rennes.grid5000.fr;thermos-root-devel-WordCountTopology-0-9b4d9c7f-2c0a-44ff-a4c3-5243185e6e55;["topology_master"];5.25;1533256343.09304;5.63;12.67;0.0;9;117
46;paravance-70.rennes.grid5000.fr;thermos-root-devel-WordCountTopology-1-3c4a9cf4-65b5-4813-9fee-6dba5550b9cf;["container_1_Consume_and_count_1"];5.25;1533256353.31028;185.48;1202.72;0.248687062;10;149
46;paravance-65.rennes.grid5000.fr;thermos-root-devel-WordCountTopology-2-4172aaf1-bbeb-465f-804e-bfc4bc8b9cf6;["container_2_Emit_random_words_2"];5.25;1533256353.37658;113.59;1000.02;1.253271645;10;149
46;paravance-53.rennes.grid5000.fr;thermos-root-devel-WordCountTopology-0-9b4d9c7f-2c0a-44ff-a4c3-5243185e6e55;["topology_master"];5.25;1533256353.3086;5.7;12.76;0.0;9;117
47;paravance-70.rennes.grid5000.fr;thermos-root-devel-WordCountTopology-1-3c4a9cf4-65b5-4813-9fee-6dba5550b9cf;["container_1_Consume_and_count_1"];5.25;1533256363.52625;188.77;1223.43;0.248687062;10;149
47;paravance-65.rennes.grid5000.fr;thermos-root-devel-WordCountTopology-2-4172aaf1-bbeb-465f-804e-bfc4bc8b9cf6;["container_2_Emit_random_words_2"];5.25;1533256363.59181;115.59;1018.37;1.253271645;10;149
47;paravance-53.rennes.grid5000.fr;thermos-root-devel-WordCountTopology-0-9b4d9c7f-2c0a-44ff-a4c3-5243185e6e55;["topology_master"];5.25;1533256363.52396;5.76;12.89;0.0;9;117
48;paravance-70.rennes.grid5000.fr;thermos-root-devel-WordCountTopology-1-3c4a9cf4-65b5-4813-9fee-6dba5550b9cf;["container_1_Consume_and_count_1"];5.25;1533256373.74307;192.03;1244.51;0.248687062;10;149
48;paravance-53.rennes.grid5000.fr;thermos-root-devel-WordCountTopology-0-9b4d9c7f-2c0a-44ff-a4c3-5243185e6e55;["topology_master"];5.25;1533256373.73755;5.85;13.01;0.0;9;117
48;paravance-65.rennes.grid5000.fr;thermos-root-devel-WordCountTopology-2-4172aaf1-bbeb-465f-804e-bfc4bc8b9cf6;["container_2_Emit_random_words_2"];5.25;1533256373.80798;117.53;1035.27;1.253271645;10;149
49;paravance-70.rennes.grid5000.fr;thermos-root-devel-WordCountTopology-1-3c4a9cf4-65b5-4813-9fee-6dba5550b9cf;["container_1_Consume_and_count_1"];5.25;1533256383.95665;195.23;1264.94;0.248687062;10;149
49;paravance-65.rennes.grid5000.fr;thermos-root-devel-WordCountTopology-2-4172aaf1-bbeb-465f-804e-bfc4bc8b9cf6;["container_2_Emit_random_words_2"];5.25;1533256384.02283;119.44;1052.71;1.253271645;10;149
49;paravance-53.rennes.grid5000.fr;thermos-root-devel-WordCountTopology-0-9b4d9c7f-2c0a-44ff-a4c3-5243185e6e55;["topology_master"];5.25;1533256383.9541;5.88;13.04;0.0;9;117
50;paravance-70.rennes.grid5000.fr;thermos-root-devel-WordCountTopology-1-3c4a9cf4-65b5-4813-9fee-6dba5550b9cf;["container_1_Consume_and_count_1"];5.25;1533256394.17114;198.52;1285.29;0.248687062;10;149
50;paravance-65.rennes.grid5000.fr;thermos-root-devel-WordCountTopology-2-4172aaf1-bbeb-465f-804e-bfc4bc8b9cf6;["container_2_Emit_random_words_2"];5.25;1533256394.2376;121.33;1069.09;1.253271645;10;149
50;paravance-53.rennes.grid5000.fr;thermos-root-devel-WordCountTopology-0-9b4d9c7f-2c0a-44ff-a4c3-5243185e6e55;["topology_master"];5.25;1533256394.16868;5.97;13.17;0.0;9;117
51;paravance-70.rennes.grid5000.fr;thermos-root-devel-WordCountTopology-1-3c4a9cf4-65b5-4813-9fee-6dba5550b9cf;["container_1_Consume_and_count_1"];5.25;1533256404.38846;201.69;1306.56;0.248687062;10;149
51;paravance-65.rennes.grid5000.fr;thermos-root-devel-WordCountTopology-2-4172aaf1-bbeb-465f-804e-bfc4bc8b9cf6;["container_2_Emit_random_words_2"];5.25;1533256404.45275;123.22;1085.16;1.253271645;10;149
51;paravance-53.rennes.grid5000.fr;thermos-root-devel-WordCountTopology-0-9b4d9c7f-2c0a-44ff-a4c3-5243185e6e55;["topology_master"];5.25;1533256404.38446;6.02;13.24;0.0;9;117
52;paravance-70.rennes.grid5000.fr;thermos-root-devel-WordCountTopology-1-3c4a9cf4-65b5-4813-9fee-6dba5550b9cf;["container_1_Consume_and_count_1"];5.25;1533256414.60165;205.14;1328.53;0.248687062;10;149
52;paravance-65.rennes.grid5000.fr;thermos-root-devel-WordCountTopology-2-4172aaf1-bbeb-465f-804e-bfc4bc8b9cf6;["container_2_Emit_random_words_2"];5.25;1533256414.66811;125.32;1103.53;1.253271645;10;149
52;paravance-53.rennes.grid5000.fr;thermos-root-devel-WordCountTopology-0-9b4d9c7f-2c0a-44ff-a4c3-5243185e6e55;["topology_master"];5.25;1533256414.60003;6.09;13.33;0.0;9;117
53;paravance-70.rennes.grid5000.fr;thermos-root-devel-WordCountTopology-1-3c4a9cf4-65b5-4813-9fee-6dba5550b9cf;["container_1_Consume_and_count_1"];5.25;1533256424.81824;208.47;1349.66;0.248687062;10;149
53;paravance-65.rennes.grid5000.fr;thermos-root-devel-WordCountTopology-2-4172aaf1-bbeb-465f-804e-bfc4bc8b9cf6;["container_2_Emit_random_words_2"];5.25;1533256424.88302;127.34;1121.15;1.253271645;10;149
53;paravance-53.rennes.grid5000.fr;thermos-root-devel-WordCountTopology-0-9b4d9c7f-2c0a-44ff-a4c3-5243185e6e55;["topology_master"];5.25;1533256424.81405;6.15;13.43;0.0;9;117
54;paravance-70.rennes.grid5000.fr;thermos-root-devel-WordCountTopology-1-3c4a9cf4-65b5-4813-9fee-6dba5550b9cf;["container_1_Consume_and_count_1"];5.25;1533256435.03242;211.67;1370.79;0.248687062;10;149
54;paravance-65.rennes.grid5000.fr;thermos-root-devel-WordCountTopology-2-4172aaf1-bbeb-465f-804e-bfc4bc8b9cf6;["container_2_Emit_random_words_2"];5.25;1533256435.09924;129.24;1137.64;1.253271645;10;149
54;paravance-53.rennes.grid5000.fr;thermos-root-devel-WordCountTopology-0-9b4d9c7f-2c0a-44ff-a4c3-5243185e6e55;["topology_master"];5.25;1533256435.03122;6.23;13.54;0.0;9;117
55;paravance-70.rennes.grid5000.fr;thermos-root-devel-WordCountTopology-1-3c4a9cf4-65b5-4813-9fee-6dba5550b9cf;["container_1_Consume_and_count_1"];5.25;1533256445.24893;214.86;1391.51;0.248687062;10;149
55;paravance-53.rennes.grid5000.fr;thermos-root-devel-WordCountTopology-0-9b4d9c7f-2c0a-44ff-a4c3-5243185e6e55;["topology_master"];5.25;1533256445.24489;6.26;13.57;0.0;9;117
55;paravance-65.rennes.grid5000.fr;thermos-root-devel-WordCountTopology-2-4172aaf1-bbeb-465f-804e-bfc4bc8b9cf6;["container_2_Emit_random_words_2"];5.25;1533256445.31469;131.2;1155.93;1.253271645;10;149
56;paravance-70.rennes.grid5000.fr;thermos-root-devel-WordCountTopology-1-3c4a9cf4-65b5-4813-9fee-6dba5550b9cf;["container_1_Consume_and_count_1"];5.25;1533256455.46431;218.22;1412.62;0.248687062;10;149
56;paravance-65.rennes.grid5000.fr;thermos-root-devel-WordCountTopology-2-4172aaf1-bbeb-465f-804e-bfc4bc8b9cf6;["container_2_Emit_random_words_2"];5.25;1533256455.52974;133.19;1173.53;1.253271645;10;149
56;paravance-53.rennes.grid5000.fr;thermos-root-devel-WordCountTopology-0-9b4d9c7f-2c0a-44ff-a4c3-5243185e6e55;["topology_master"];5.25;1533256455.46154;6.34;13.68;0.0;9;117
57;paravance-70.rennes.grid5000.fr;thermos-root-devel-WordCountTopology-1-3c4a9cf4-65b5-4813-9fee-6dba5550b9cf;["container_1_Consume_and_count_1"];5.25;1533256465.67994;221.52;1433.63;0.248687062;10;149
57;paravance-65.rennes.grid5000.fr;thermos-root-devel-WordCountTopology-2-4172aaf1-bbeb-465f-804e-bfc4bc8b9cf6;["container_2_Emit_random_words_2"];5.25;1533256465.74581;135.17;1191.09;1.253271645;10;149
57;paravance-53.rennes.grid5000.fr;thermos-root-devel-WordCountTopology-0-9b4d9c7f-2c0a-44ff-a4c3-5243185e6e55;["topology_master"];5.25;1533256465.67622;6.4;13.75;0.0;9;117
58;paravance-70.rennes.grid5000.fr;thermos-root-devel-WordCountTopology-1-3c4a9cf4-65b5-4813-9fee-6dba5550b9cf;["container_1_Consume_and_count_1"];5.25;1533256475.89582;224.82;1455.31;0.248687062;10;149
58;paravance-65.rennes.grid5000.fr;thermos-root-devel-WordCountTopology-2-4172aaf1-bbeb-465f-804e-bfc4bc8b9cf6;["container_2_Emit_random_words_2"];5.25;1533256475.96108;137.17;1208.67;1.253271645;10;149
58;paravance-53.rennes.grid5000.fr;thermos-root-devel-WordCountTopology-0-9b4d9c7f-2c0a-44ff-a4c3-5243185e6e55;["topology_master"];5.25;1533256475.89194;6.47;13.87;0.0;9;117
59;paravance-70.rennes.grid5000.fr;thermos-root-devel-WordCountTopology-1-3c4a9cf4-65b5-4813-9fee-6dba5550b9cf;["container_1_Consume_and_count_1"];5.25;1533256486.11057;228.02;1476.35;0.248687062;10;149
59;paravance-53.rennes.grid5000.fr;thermos-root-devel-WordCountTopology-0-9b4d9c7f-2c0a-44ff-a4c3-5243185e6e55;["topology_master"];5.25;1533256486.10635;6.53;13.94;0.0;9;117
59;paravance-65.rennes.grid5000.fr;thermos-root-devel-WordCountTopology-2-4172aaf1-bbeb-465f-804e-bfc4bc8b9cf6;["container_2_Emit_random_words_2"];5.25;1533256486.17832;139.12;1226.1;1.253271645;10;149
60;paravance-65.rennes.grid5000.fr;thermos-root-devel-WordCountTopology-2-4172aaf1-bbeb-465f-804e-bfc4bc8b9cf6;["container_2_Emit_random_words_2"];5.25;1533256496.29038;141.08;1243.01;1.253271645;10;149
60;paravance-53.rennes.grid5000.fr;thermos-root-devel-WordCountTopology-0-9b4d9c7f-2c0a-44ff-a4c3-5243185e6e55;["topology_master"];5.25;1533256496.32167;6.62;14.06;0.0;9;117
60;paravance-70.rennes.grid5000.fr;thermos-root-devel-WordCountTopology-1-3c4a9cf4-65b5-4813-9fee-6dba5550b9cf;["container_1_Consume_and_count_1"];5.25;1533256496.32747;231.37;1498.47;0.248687062;10;149
