mesure_id;slave_id;executor_id;heron_instances;cpus_limit;timestamp_A;cpus_system_time_secs_A;cpus_user_time_secs_A;cpus_throttled_time_secs_A;processes;threads
0;paravance-14.rennes.grid5000.fr;thermos-root-devel-WordCountTopology-0-31a4f5fd-21e1-4eb5-ba0f-c0a09a704ac1;["topology_master"];3.25;1533764791.94672;2.5;8.25;0.0;9;117
0;paravance-36.rennes.grid5000.fr;thermos-root-devel-WordCountTopology-2-fe86977b-10c0-4f3d-8d22-8987e51311de;["container_2_Emit_random_words_2"];3.25;1533764791.93487;26.85;110.77;4.804494085;10;149
0;paravance-19.rennes.grid5000.fr;thermos-root-devel-WordCountTopology-1-e8baa4b0-06d3-4bf3-a494-9a8f6dd2e452;["container_1_Consume_and_count_1"];3.25;1533764792.04002;33.6;229.85;9.267580117;10;149
1;paravance-19.rennes.grid5000.fr;thermos-root-devel-WordCountTopology-1-e8baa4b0-06d3-4bf3-a494-9a8f6dd2e452;["container_1_Consume_and_count_1"];3.25;1533764802.26168;36.26;249.44;9.999801753;10;149
1;paravance-14.rennes.grid5000.fr;thermos-root-devel-WordCountTopology-0-31a4f5fd-21e1-4eb5-ba0f-c0a09a704ac1;["topology_master"];3.25;1533764802.17074;2.57;8.41;0.0;9;117
1;paravance-36.rennes.grid5000.fr;thermos-root-devel-WordCountTopology-2-fe86977b-10c0-4f3d-8d22-8987e51311de;["container_2_Emit_random_words_2"];3.25;1533764802.159;28.91;118.93;4.804494085;10;149
2;paravance-19.rennes.grid5000.fr;thermos-root-devel-WordCountTopology-1-e8baa4b0-06d3-4bf3-a494-9a8f6dd2e452;["container_1_Consume_and_count_1"];3.25;1533764812.48298;39.19;269.74;10.631062101;10;149
2;paravance-36.rennes.grid5000.fr;thermos-root-devel-WordCountTopology-2-fe86977b-10c0-4f3d-8d22-8987e51311de;["container_2_Emit_random_words_2"];3.25;1533764812.37791;31.15;127.55;4.804494085;10;149
2;paravance-14.rennes.grid5000.fr;thermos-root-devel-WordCountTopology-0-31a4f5fd-21e1-4eb5-ba0f-c0a09a704ac1;["topology_master"];3.25;1533764812.39242;2.66;8.54;0.0;9;117
3;paravance-36.rennes.grid5000.fr;thermos-root-devel-WordCountTopology-2-fe86977b-10c0-4f3d-8d22-8987e51311de;["container_2_Emit_random_words_2"];3.25;1533764822.59815;33.18;135.87;4.804494085;10;149
3;paravance-19.rennes.grid5000.fr;thermos-root-devel-WordCountTopology-1-e8baa4b0-06d3-4bf3-a494-9a8f6dd2e452;["container_1_Consume_and_count_1"];3.25;1533764822.7053;41.84;289.45;11.268992935;10;149
3;paravance-14.rennes.grid5000.fr;thermos-root-devel-WordCountTopology-0-31a4f5fd-21e1-4eb5-ba0f-c0a09a704ac1;["topology_master"];3.25;1533764822.6123;2.69;8.58;0.0;9;117
4;paravance-19.rennes.grid5000.fr;thermos-root-devel-WordCountTopology-1-e8baa4b0-06d3-4bf3-a494-9a8f6dd2e452;["container_1_Consume_and_count_1"];3.25;1533764832.9248;44.6;309.54;12.187364627;10;149
4;paravance-36.rennes.grid5000.fr;thermos-root-devel-WordCountTopology-2-fe86977b-10c0-4f3d-8d22-8987e51311de;["container_2_Emit_random_words_2"];3.25;1533764832.82067;35.24;144.01;4.804494085;10;149
4;paravance-14.rennes.grid5000.fr;thermos-root-devel-WordCountTopology-0-31a4f5fd-21e1-4eb5-ba0f-c0a09a704ac1;["topology_master"];3.25;1533764832.83285;2.77;8.69;0.0;9;117
5;paravance-19.rennes.grid5000.fr;thermos-root-devel-WordCountTopology-1-e8baa4b0-06d3-4bf3-a494-9a8f6dd2e452;["container_1_Consume_and_count_1"];3.25;1533764843.14685;47.09;329.39;12.850210237;10;149
5;paravance-36.rennes.grid5000.fr;thermos-root-devel-WordCountTopology-2-fe86977b-10c0-4f3d-8d22-8987e51311de;["container_2_Emit_random_words_2"];3.25;1533764843.03944;37.28;151.82;4.804494085;10;149
5;paravance-14.rennes.grid5000.fr;thermos-root-devel-WordCountTopology-0-31a4f5fd-21e1-4eb5-ba0f-c0a09a704ac1;["topology_master"];3.25;1533764843.05498;2.83;8.77;0.0;9;117
6;paravance-19.rennes.grid5000.fr;thermos-root-devel-WordCountTopology-1-e8baa4b0-06d3-4bf3-a494-9a8f6dd2e452;["container_1_Consume_and_count_1"];3.25;1533764853.36686;49.65;349.22;13.579883869;10;149
6;paravance-36.rennes.grid5000.fr;thermos-root-devel-WordCountTopology-2-fe86977b-10c0-4f3d-8d22-8987e51311de;["container_2_Emit_random_words_2"];3.25;1533764853.25996;39.13;159.26;4.804494085;10;149
6;paravance-14.rennes.grid5000.fr;thermos-root-devel-WordCountTopology-0-31a4f5fd-21e1-4eb5-ba0f-c0a09a704ac1;["topology_master"];3.25;1533764853.27498;2.95;8.95;0.0;9;117
7;paravance-19.rennes.grid5000.fr;thermos-root-devel-WordCountTopology-1-e8baa4b0-06d3-4bf3-a494-9a8f6dd2e452;["container_1_Consume_and_count_1"];3.25;1533764863.58828;52.3;369.12;14.523780773;10;149
7;paravance-14.rennes.grid5000.fr;thermos-root-devel-WordCountTopology-0-31a4f5fd-21e1-4eb5-ba0f-c0a09a704ac1;["topology_master"];3.25;1533764863.49628;2.99;9.03;0.0;9;117
7;paravance-36.rennes.grid5000.fr;thermos-root-devel-WordCountTopology-2-fe86977b-10c0-4f3d-8d22-8987e51311de;["container_2_Emit_random_words_2"];3.25;1533764863.48177;41.16;167.45;4.804494085;10;149
8;paravance-19.rennes.grid5000.fr;thermos-root-devel-WordCountTopology-1-e8baa4b0-06d3-4bf3-a494-9a8f6dd2e452;["container_1_Consume_and_count_1"];3.25;1533764873.80932;54.85;388.94;15.076252109;10;149
8;paravance-14.rennes.grid5000.fr;thermos-root-devel-WordCountTopology-0-31a4f5fd-21e1-4eb5-ba0f-c0a09a704ac1;["topology_master"];3.25;1533764873.71698;3.08;9.16;0.0;9;117
8;paravance-36.rennes.grid5000.fr;thermos-root-devel-WordCountTopology-2-fe86977b-10c0-4f3d-8d22-8987e51311de;["container_2_Emit_random_words_2"];3.25;1533764873.7037;43.16;175.05;4.804494085;10;149
9;paravance-19.rennes.grid5000.fr;thermos-root-devel-WordCountTopology-1-e8baa4b0-06d3-4bf3-a494-9a8f6dd2e452;["container_1_Consume_and_count_1"];3.25;1533764884.03157;57.62;408.38;15.77380911;10;149
9;paravance-14.rennes.grid5000.fr;thermos-root-devel-WordCountTopology-0-31a4f5fd-21e1-4eb5-ba0f-c0a09a704ac1;["topology_master"];3.25;1533764883.93933;3.14;9.23;0.0;9;117
9;paravance-36.rennes.grid5000.fr;thermos-root-devel-WordCountTopology-2-fe86977b-10c0-4f3d-8d22-8987e51311de;["container_2_Emit_random_words_2"];3.25;1533764883.92385;45.23;183.01;4.804494085;10;149
10;paravance-36.rennes.grid5000.fr;thermos-root-devel-WordCountTopology-2-fe86977b-10c0-4f3d-8d22-8987e51311de;["container_2_Emit_random_words_2"];3.25;1533764894.14465;47.2;190.7;4.804494085;10;149
10;paravance-19.rennes.grid5000.fr;thermos-root-devel-WordCountTopology-1-e8baa4b0-06d3-4bf3-a494-9a8f6dd2e452;["container_1_Consume_and_count_1"];3.25;1533764894.25167;60.23;427.74;16.459607439;10;149
10;paravance-14.rennes.grid5000.fr;thermos-root-devel-WordCountTopology-0-31a4f5fd-21e1-4eb5-ba0f-c0a09a704ac1;["topology_master"];3.25;1533764894.15848;3.2;9.31;0.0;9;117
11;paravance-36.rennes.grid5000.fr;thermos-root-devel-WordCountTopology-2-fe86977b-10c0-4f3d-8d22-8987e51311de;["container_2_Emit_random_words_2"];3.25;1533764904.36574;49.19;198.59;4.804494085;10;149
11;paravance-19.rennes.grid5000.fr;thermos-root-devel-WordCountTopology-1-e8baa4b0-06d3-4bf3-a494-9a8f6dd2e452;["container_1_Consume_and_count_1"];3.25;1533764904.47322;62.8;447.5;16.989772562;10;149
11;paravance-14.rennes.grid5000.fr;thermos-root-devel-WordCountTopology-0-31a4f5fd-21e1-4eb5-ba0f-c0a09a704ac1;["topology_master"];3.25;1533764904.38057;3.25;9.38;0.0;9;117
12;paravance-19.rennes.grid5000.fr;thermos-root-devel-WordCountTopology-1-e8baa4b0-06d3-4bf3-a494-9a8f6dd2e452;["container_1_Consume_and_count_1"];3.25;1533764914.69297;65.33;466.93;18.244427206;10;149
12;paravance-36.rennes.grid5000.fr;thermos-root-devel-WordCountTopology-2-fe86977b-10c0-4f3d-8d22-8987e51311de;["container_2_Emit_random_words_2"];3.25;1533764914.58677;51.19;206.32;4.804494085;10;149
12;paravance-14.rennes.grid5000.fr;thermos-root-devel-WordCountTopology-0-31a4f5fd-21e1-4eb5-ba0f-c0a09a704ac1;["topology_master"];3.25;1533764914.60084;3.37;9.56;0.0;9;117
13;paravance-19.rennes.grid5000.fr;thermos-root-devel-WordCountTopology-1-e8baa4b0-06d3-4bf3-a494-9a8f6dd2e452;["container_1_Consume_and_count_1"];3.25;1533764924.91514;67.77;486.19;18.760609078;10;149
13;paravance-14.rennes.grid5000.fr;thermos-root-devel-WordCountTopology-0-31a4f5fd-21e1-4eb5-ba0f-c0a09a704ac1;["topology_master"];3.25;1533764924.82252;3.41;9.64;0.0;9;117
13;paravance-36.rennes.grid5000.fr;thermos-root-devel-WordCountTopology-2-fe86977b-10c0-4f3d-8d22-8987e51311de;["container_2_Emit_random_words_2"];3.25;1533764924.80947;53.02;213.45;4.804494085;10;149
14;paravance-19.rennes.grid5000.fr;thermos-root-devel-WordCountTopology-1-e8baa4b0-06d3-4bf3-a494-9a8f6dd2e452;["container_1_Consume_and_count_1"];3.25;1533764935.13682;70.22;505.49;19.362988325;10;149
14;paravance-36.rennes.grid5000.fr;thermos-root-devel-WordCountTopology-2-fe86977b-10c0-4f3d-8d22-8987e51311de;["container_2_Emit_random_words_2"];3.25;1533764935.03064;54.87;220.64;4.804494085;10;149
14;paravance-14.rennes.grid5000.fr;thermos-root-devel-WordCountTopology-0-31a4f5fd-21e1-4eb5-ba0f-c0a09a704ac1;["topology_master"];3.25;1533764935.04512;3.5;9.78;0.0;9;117
15;paravance-19.rennes.grid5000.fr;thermos-root-devel-WordCountTopology-1-e8baa4b0-06d3-4bf3-a494-9a8f6dd2e452;["container_1_Consume_and_count_1"];3.25;1533764945.35605;72.78;523.96;19.957556197;10;149
15;paravance-36.rennes.grid5000.fr;thermos-root-devel-WordCountTopology-2-fe86977b-10c0-4f3d-8d22-8987e51311de;["container_2_Emit_random_words_2"];3.25;1533764945.25103;56.83;228.16;4.804494085;10;149
15;paravance-14.rennes.grid5000.fr;thermos-root-devel-WordCountTopology-0-31a4f5fd-21e1-4eb5-ba0f-c0a09a704ac1;["topology_master"];3.25;1533764945.26617;3.56;9.85;0.0;9;117
16;paravance-19.rennes.grid5000.fr;thermos-root-devel-WordCountTopology-1-e8baa4b0-06d3-4bf3-a494-9a8f6dd2e452;["container_1_Consume_and_count_1"];3.25;1533764955.57698;75.16;542.79;20.509928472;10;149
16;paravance-36.rennes.grid5000.fr;thermos-root-devel-WordCountTopology-2-fe86977b-10c0-4f3d-8d22-8987e51311de;["container_2_Emit_random_words_2"];3.25;1533764955.47174;58.59;235.02;4.804494085;10;149
16;paravance-14.rennes.grid5000.fr;thermos-root-devel-WordCountTopology-0-31a4f5fd-21e1-4eb5-ba0f-c0a09a704ac1;["topology_master"];3.25;1533764955.48604;3.62;9.94;0.0;9;117
17;paravance-19.rennes.grid5000.fr;thermos-root-devel-WordCountTopology-1-e8baa4b0-06d3-4bf3-a494-9a8f6dd2e452;["container_1_Consume_and_count_1"];3.25;1533764965.79656;77.65;562.55;21.28282717;10;149
17;paravance-14.rennes.grid5000.fr;thermos-root-devel-WordCountTopology-0-31a4f5fd-21e1-4eb5-ba0f-c0a09a704ac1;["topology_master"];3.25;1533764965.70566;3.68;10.01;0.0;9;117
17;paravance-36.rennes.grid5000.fr;thermos-root-devel-WordCountTopology-2-fe86977b-10c0-4f3d-8d22-8987e51311de;["container_2_Emit_random_words_2"];3.25;1533764965.69286;60.5;242.17;4.804494085;10;149
18;paravance-19.rennes.grid5000.fr;thermos-root-devel-WordCountTopology-1-e8baa4b0-06d3-4bf3-a494-9a8f6dd2e452;["container_1_Consume_and_count_1"];3.25;1533764976.01783;80.22;582.06;22.149491615;10;149
18;paravance-14.rennes.grid5000.fr;thermos-root-devel-WordCountTopology-0-31a4f5fd-21e1-4eb5-ba0f-c0a09a704ac1;["topology_master"];3.25;1533764975.92537;3.8;10.27;0.0;9;117
18;paravance-36.rennes.grid5000.fr;thermos-root-devel-WordCountTopology-2-fe86977b-10c0-4f3d-8d22-8987e51311de;["container_2_Emit_random_words_2"];3.25;1533764975.91193;62.48;249.57;4.804494085;10;149
19;paravance-19.rennes.grid5000.fr;thermos-root-devel-WordCountTopology-1-e8baa4b0-06d3-4bf3-a494-9a8f6dd2e452;["container_1_Consume_and_count_1"];3.25;1533764986.23477;82.61;601.05;22.686607419;10;149
19;paravance-36.rennes.grid5000.fr;thermos-root-devel-WordCountTopology-2-fe86977b-10c0-4f3d-8d22-8987e51311de;["container_2_Emit_random_words_2"];3.25;1533764986.12956;64.29;256.81;4.804494085;10;149
19;paravance-14.rennes.grid5000.fr;thermos-root-devel-WordCountTopology-0-31a4f5fd-21e1-4eb5-ba0f-c0a09a704ac1;["topology_master"];3.25;1533764986.14423;3.83;10.3;0.0;9;117
20;paravance-19.rennes.grid5000.fr;thermos-root-devel-WordCountTopology-1-e8baa4b0-06d3-4bf3-a494-9a8f6dd2e452;["container_1_Consume_and_count_1"];3.25;1533764996.45499;85.1;620.34;23.439733213;10;149
20;paravance-36.rennes.grid5000.fr;thermos-root-devel-WordCountTopology-2-fe86977b-10c0-4f3d-8d22-8987e51311de;["container_2_Emit_random_words_2"];3.25;1533764996.35018;66.28;264.23;4.804494085;10;149
20;paravance-14.rennes.grid5000.fr;thermos-root-devel-WordCountTopology-0-31a4f5fd-21e1-4eb5-ba0f-c0a09a704ac1;["topology_master"];3.25;1533764996.36343;3.92;10.42;0.0;9;117
21;paravance-19.rennes.grid5000.fr;thermos-root-devel-WordCountTopology-1-e8baa4b0-06d3-4bf3-a494-9a8f6dd2e452;["container_1_Consume_and_count_1"];3.25;1533765006.67531;87.39;639.8;23.854311562;10;149
21;paravance-14.rennes.grid5000.fr;thermos-root-devel-WordCountTopology-0-31a4f5fd-21e1-4eb5-ba0f-c0a09a704ac1;["topology_master"];3.25;1533765006.58403;3.97;10.49;0.0;9;117
21;paravance-36.rennes.grid5000.fr;thermos-root-devel-WordCountTopology-2-fe86977b-10c0-4f3d-8d22-8987e51311de;["container_2_Emit_random_words_2"];3.25;1533765006.56902;68.08;271.05;4.804494085;10;149
22;paravance-19.rennes.grid5000.fr;thermos-root-devel-WordCountTopology-1-e8baa4b0-06d3-4bf3-a494-9a8f6dd2e452;["container_1_Consume_and_count_1"];3.25;1533765016.894;89.87;658.62;24.652962064;10;149
22;paravance-36.rennes.grid5000.fr;thermos-root-devel-WordCountTopology-2-fe86977b-10c0-4f3d-8d22-8987e51311de;["container_2_Emit_random_words_2"];3.25;1533765016.78864;69.96;278.13;4.804494085;10;149
22;paravance-14.rennes.grid5000.fr;thermos-root-devel-WordCountTopology-0-31a4f5fd-21e1-4eb5-ba0f-c0a09a704ac1;["topology_master"];3.25;1533765016.80305;4.03;10.57;0.0;9;117
23;paravance-19.rennes.grid5000.fr;thermos-root-devel-WordCountTopology-1-e8baa4b0-06d3-4bf3-a494-9a8f6dd2e452;["container_1_Consume_and_count_1"];3.25;1533765027.11326;92.64;677.87;25.277510546;10;149
23;paravance-36.rennes.grid5000.fr;thermos-root-devel-WordCountTopology-2-fe86977b-10c0-4f3d-8d22-8987e51311de;["container_2_Emit_random_words_2"];3.25;1533765027.00873;71.92;286.11;4.804494085;10;149
23;paravance-14.rennes.grid5000.fr;thermos-root-devel-WordCountTopology-0-31a4f5fd-21e1-4eb5-ba0f-c0a09a704ac1;["topology_master"];3.25;1533765027.02208;4.09;10.64;0.0;9;117
24;paravance-19.rennes.grid5000.fr;thermos-root-devel-WordCountTopology-1-e8baa4b0-06d3-4bf3-a494-9a8f6dd2e452;["container_1_Consume_and_count_1"];3.25;1533765037.33355;95.05;697.29;26.139405584;10;149
24;paravance-36.rennes.grid5000.fr;thermos-root-devel-WordCountTopology-2-fe86977b-10c0-4f3d-8d22-8987e51311de;["container_2_Emit_random_words_2"];3.25;1533765037.22828;73.84;293.41;4.804494085;10;149
24;paravance-14.rennes.grid5000.fr;thermos-root-devel-WordCountTopology-0-31a4f5fd-21e1-4eb5-ba0f-c0a09a704ac1;["topology_master"];3.25;1533765037.24326;4.2;10.83;0.0;9;117
25;paravance-14.rennes.grid5000.fr;thermos-root-devel-WordCountTopology-0-31a4f5fd-21e1-4eb5-ba0f-c0a09a704ac1;["topology_master"];3.25;1533765047.46334;4.23;10.85;0.0;9;117
25;paravance-19.rennes.grid5000.fr;thermos-root-devel-WordCountTopology-1-e8baa4b0-06d3-4bf3-a494-9a8f6dd2e452;["container_1_Consume_and_count_1"];3.25;1533765047.55472;97.59;716.13;26.76597749;10;149
25;paravance-36.rennes.grid5000.fr;thermos-root-devel-WordCountTopology-2-fe86977b-10c0-4f3d-8d22-8987e51311de;["container_2_Emit_random_words_2"];3.25;1533765047.45007;75.6;300.05;4.804494085;10;149
26;paravance-19.rennes.grid5000.fr;thermos-root-devel-WordCountTopology-1-e8baa4b0-06d3-4bf3-a494-9a8f6dd2e452;["container_1_Consume_and_count_1"];3.25;1533765057.77331;100.15;734.76;27.260840018;10;149
26;paravance-36.rennes.grid5000.fr;thermos-root-devel-WordCountTopology-2-fe86977b-10c0-4f3d-8d22-8987e51311de;["container_2_Emit_random_words_2"];3.25;1533765057.66765;77.44;306.97;4.804494085;10;149
26;paravance-14.rennes.grid5000.fr;thermos-root-devel-WordCountTopology-0-31a4f5fd-21e1-4eb5-ba0f-c0a09a704ac1;["topology_master"];3.25;1533765057.68269;4.32;10.98;0.0;9;117
27;paravance-19.rennes.grid5000.fr;thermos-root-devel-WordCountTopology-1-e8baa4b0-06d3-4bf3-a494-9a8f6dd2e452;["container_1_Consume_and_count_1"];3.25;1533765067.99464;102.61;753.92;27.735214316;10;149
27;paravance-36.rennes.grid5000.fr;thermos-root-devel-WordCountTopology-2-fe86977b-10c0-4f3d-8d22-8987e51311de;["container_2_Emit_random_words_2"];3.25;1533765067.88988;79.21;313.83;4.804494085;10;149
27;paravance-14.rennes.grid5000.fr;thermos-root-devel-WordCountTopology-0-31a4f5fd-21e1-4eb5-ba0f-c0a09a704ac1;["topology_master"];3.25;1533765067.90394;4.37;11.05;0.0;9;117
28;paravance-36.rennes.grid5000.fr;thermos-root-devel-WordCountTopology-2-fe86977b-10c0-4f3d-8d22-8987e51311de;["container_2_Emit_random_words_2"];3.25;1533765078.10746;80.96;321.11;4.804494085;10;149
28;paravance-19.rennes.grid5000.fr;thermos-root-devel-WordCountTopology-1-e8baa4b0-06d3-4bf3-a494-9a8f6dd2e452;["container_1_Consume_and_count_1"];3.25;1533765078.21275;104.99;772.94;28.365263125;10;149
28;paravance-14.rennes.grid5000.fr;thermos-root-devel-WordCountTopology-0-31a4f5fd-21e1-4eb5-ba0f-c0a09a704ac1;["topology_master"];3.25;1533765078.12167;4.43;11.12;0.0;9;117
29;paravance-19.rennes.grid5000.fr;thermos-root-devel-WordCountTopology-1-e8baa4b0-06d3-4bf3-a494-9a8f6dd2e452;["container_1_Consume_and_count_1"];3.25;1533765088.43255;107.42;792.43;28.87403731;10;147
29;paravance-14.rennes.grid5000.fr;thermos-root-devel-WordCountTopology-0-31a4f5fd-21e1-4eb5-ba0f-c0a09a704ac1;["topology_master"];3.25;1533765088.34057;4.48;11.19;0.0;9;117
29;paravance-36.rennes.grid5000.fr;thermos-root-devel-WordCountTopology-2-fe86977b-10c0-4f3d-8d22-8987e51311de;["container_2_Emit_random_words_2"];3.25;1533765088.32747;82.8;328.41;4.804494085;10;148
30;paravance-19.rennes.grid5000.fr;thermos-root-devel-WordCountTopology-1-e8baa4b0-06d3-4bf3-a494-9a8f6dd2e452;["container_1_Consume_and_count_1"];3.25;1533765098.64693;110.02;811.88;29.521137956;10;149
30;paravance-36.rennes.grid5000.fr;thermos-root-devel-WordCountTopology-2-fe86977b-10c0-4f3d-8d22-8987e51311de;["container_2_Emit_random_words_2"];3.25;1533765098.5479;84.75;336.09;4.804494085;10;149
30;paravance-14.rennes.grid5000.fr;thermos-root-devel-WordCountTopology-0-31a4f5fd-21e1-4eb5-ba0f-c0a09a704ac1;["topology_master"];3.25;1533765098.56186;4.6;11.38;0.0;9;117
31;paravance-19.rennes.grid5000.fr;thermos-root-devel-WordCountTopology-1-e8baa4b0-06d3-4bf3-a494-9a8f6dd2e452;["container_1_Consume_and_count_1"];3.25;1533765108.86289;112.57;830.37;29.924840629;10;149
31;paravance-36.rennes.grid5000.fr;thermos-root-devel-WordCountTopology-2-fe86977b-10c0-4f3d-8d22-8987e51311de;["container_2_Emit_random_words_2"];3.25;1533765108.76787;86.63;342.74;4.804494085;10;149
31;paravance-14.rennes.grid5000.fr;thermos-root-devel-WordCountTopology-0-31a4f5fd-21e1-4eb5-ba0f-c0a09a704ac1;["topology_master"];3.25;1533765108.78298;4.66;11.45;0.0;9;117
32;paravance-19.rennes.grid5000.fr;thermos-root-devel-WordCountTopology-1-e8baa4b0-06d3-4bf3-a494-9a8f6dd2e452;["container_1_Consume_and_count_1"];3.25;1533765119.0779;115.1;849.7;30.475431712;10;149
32;paravance-14.rennes.grid5000.fr;thermos-root-devel-WordCountTopology-0-31a4f5fd-21e1-4eb5-ba0f-c0a09a704ac1;["topology_master"];3.25;1533765119.00285;4.71;11.52;0.0;9;117
32;paravance-36.rennes.grid5000.fr;thermos-root-devel-WordCountTopology-2-fe86977b-10c0-4f3d-8d22-8987e51311de;["container_2_Emit_random_words_2"];3.25;1533765118.98744;88.62;349.94;4.804494085;10;149
33;paravance-19.rennes.grid5000.fr;thermos-root-devel-WordCountTopology-1-e8baa4b0-06d3-4bf3-a494-9a8f6dd2e452;["container_1_Consume_and_count_1"];3.25;1533765129.29422;117.62;868.37;31.187545733;10;149
33;paravance-14.rennes.grid5000.fr;thermos-root-devel-WordCountTopology-0-31a4f5fd-21e1-4eb5-ba0f-c0a09a704ac1;["topology_master"];3.25;1533765129.22305;4.8;11.65;0.0;9;117
33;paravance-36.rennes.grid5000.fr;thermos-root-devel-WordCountTopology-2-fe86977b-10c0-4f3d-8d22-8987e51311de;["container_2_Emit_random_words_2"];3.25;1533765129.20808;90.47;356.77;4.804494085;10;149
34;paravance-36.rennes.grid5000.fr;thermos-root-devel-WordCountTopology-2-fe86977b-10c0-4f3d-8d22-8987e51311de;["container_2_Emit_random_words_2"];3.25;1533765139.42945;92.31;363.69;4.804494085;10;149
34;paravance-19.rennes.grid5000.fr;thermos-root-devel-WordCountTopology-1-e8baa4b0-06d3-4bf3-a494-9a8f6dd2e452;["container_1_Consume_and_count_1"];3.25;1533765139.51108;120.14;887.67;31.764312771;10;149
34;paravance-14.rennes.grid5000.fr;thermos-root-devel-WordCountTopology-0-31a4f5fd-21e1-4eb5-ba0f-c0a09a704ac1;["topology_master"];3.25;1533765139.44552;4.83;11.67;0.0;9;117
35;paravance-19.rennes.grid5000.fr;thermos-root-devel-WordCountTopology-1-e8baa4b0-06d3-4bf3-a494-9a8f6dd2e452;["container_1_Consume_and_count_1"];3.25;1533765149.72645;122.93;906.88;32.575499382;10;149
35;paravance-36.rennes.grid5000.fr;thermos-root-devel-WordCountTopology-2-fe86977b-10c0-4f3d-8d22-8987e51311de;["container_2_Emit_random_words_2"];3.25;1533765149.65074;94.36;371.35;4.804494085;10;149
35;paravance-14.rennes.grid5000.fr;thermos-root-devel-WordCountTopology-0-31a4f5fd-21e1-4eb5-ba0f-c0a09a704ac1;["topology_master"];3.25;1533765149.66455;4.93;11.81;0.0;9;117
36;paravance-19.rennes.grid5000.fr;thermos-root-devel-WordCountTopology-1-e8baa4b0-06d3-4bf3-a494-9a8f6dd2e452;["container_1_Consume_and_count_1"];3.25;1533765159.94187;125.5;926.09;33.383807535;10;149
36;paravance-36.rennes.grid5000.fr;thermos-root-devel-WordCountTopology-2-fe86977b-10c0-4f3d-8d22-8987e51311de;["container_2_Emit_random_words_2"];3.25;1533765159.87222;96.27;378.46;4.804494085;10;149
36;paravance-14.rennes.grid5000.fr;thermos-root-devel-WordCountTopology-0-31a4f5fd-21e1-4eb5-ba0f-c0a09a704ac1;["topology_master"];3.25;1533765159.88547;5.0;11.99;0.0;9;117
37;paravance-19.rennes.grid5000.fr;thermos-root-devel-WordCountTopology-1-e8baa4b0-06d3-4bf3-a494-9a8f6dd2e452;["container_1_Consume_and_count_1"];3.25;1533765170.15394;127.94;945.18;34.133914751;10;149
37;paravance-14.rennes.grid5000.fr;thermos-root-devel-WordCountTopology-0-31a4f5fd-21e1-4eb5-ba0f-c0a09a704ac1;["topology_master"];3.25;1533765170.10542;5.08;12.09;0.0;9;117
37;paravance-36.rennes.grid5000.fr;thermos-root-devel-WordCountTopology-2-fe86977b-10c0-4f3d-8d22-8987e51311de;["container_2_Emit_random_words_2"];3.25;1533765170.09041;98.12;384.91;4.804494085;10;149
38;paravance-19.rennes.grid5000.fr;thermos-root-devel-WordCountTopology-1-e8baa4b0-06d3-4bf3-a494-9a8f6dd2e452;["container_1_Consume_and_count_1"];3.25;1533765180.36977;130.46;964.2;34.745297343;10;149
38;paravance-14.rennes.grid5000.fr;thermos-root-devel-WordCountTopology-0-31a4f5fd-21e1-4eb5-ba0f-c0a09a704ac1;["topology_master"];3.25;1533765180.32466;5.12;12.14;0.0;9;117
38;paravance-36.rennes.grid5000.fr;thermos-root-devel-WordCountTopology-2-fe86977b-10c0-4f3d-8d22-8987e51311de;["container_2_Emit_random_words_2"];3.25;1533765180.31146;100.05;392.05;4.804494085;10;149
39;paravance-19.rennes.grid5000.fr;thermos-root-devel-WordCountTopology-1-e8baa4b0-06d3-4bf3-a494-9a8f6dd2e452;["container_1_Consume_and_count_1"];3.25;1533765190.58474;133.09;983.5;35.353447648;10;149
39;paravance-36.rennes.grid5000.fr;thermos-root-devel-WordCountTopology-2-fe86977b-10c0-4f3d-8d22-8987e51311de;["container_2_Emit_random_words_2"];3.25;1533765190.5309;102.03;399.39;4.804494085;10;149
39;paravance-14.rennes.grid5000.fr;thermos-root-devel-WordCountTopology-0-31a4f5fd-21e1-4eb5-ba0f-c0a09a704ac1;["topology_master"];3.25;1533765190.54584;5.2;12.26;0.0;9;117
40;paravance-14.rennes.grid5000.fr;thermos-root-devel-WordCountTopology-0-31a4f5fd-21e1-4eb5-ba0f-c0a09a704ac1;["topology_master"];3.25;1533765200.76679;5.26;12.33;0.0;9;117
40;paravance-19.rennes.grid5000.fr;thermos-root-devel-WordCountTopology-1-e8baa4b0-06d3-4bf3-a494-9a8f6dd2e452;["container_1_Consume_and_count_1"];3.25;1533765200.82569;135.81;1002.93;36.099649918;10;149
40;paravance-36.rennes.grid5000.fr;thermos-root-devel-WordCountTopology-2-fe86977b-10c0-4f3d-8d22-8987e51311de;["container_2_Emit_random_words_2"];3.25;1533765200.77676;104.02;406.72;4.804494085;10;149
41;paravance-36.rennes.grid5000.fr;thermos-root-devel-WordCountTopology-2-fe86977b-10c0-4f3d-8d22-8987e51311de;["container_2_Emit_random_words_2"];3.25;1533765210.99363;106.03;413.99;4.804494085;10;149
41;paravance-19.rennes.grid5000.fr;thermos-root-devel-WordCountTopology-1-e8baa4b0-06d3-4bf3-a494-9a8f6dd2e452;["container_1_Consume_and_count_1"];3.25;1533765211.03871;138.44;1022.56;36.576581303;10;149
41;paravance-14.rennes.grid5000.fr;thermos-root-devel-WordCountTopology-0-31a4f5fd-21e1-4eb5-ba0f-c0a09a704ac1;["topology_master"];3.25;1533765211.01072;5.33;12.42;0.0;9;117
42;paravance-19.rennes.grid5000.fr;thermos-root-devel-WordCountTopology-1-e8baa4b0-06d3-4bf3-a494-9a8f6dd2e452;["container_1_Consume_and_count_1"];3.25;1533765221.25301;141.03;1041.89;37.149702279;10;149
42;paravance-36.rennes.grid5000.fr;thermos-root-devel-WordCountTopology-2-fe86977b-10c0-4f3d-8d22-8987e51311de;["container_2_Emit_random_words_2"];3.25;1533765221.21416;107.99;421.17;4.804494085;10;149
42;paravance-14.rennes.grid5000.fr;thermos-root-devel-WordCountTopology-0-31a4f5fd-21e1-4eb5-ba0f-c0a09a704ac1;["topology_master"];3.25;1533765221.23009;5.39;12.53;0.0;9;117
43;paravance-19.rennes.grid5000.fr;thermos-root-devel-WordCountTopology-1-e8baa4b0-06d3-4bf3-a494-9a8f6dd2e452;["container_1_Consume_and_count_1"];3.25;1533765231.46973;143.74;1061.29;37.856292731;10;149
43;paravance-36.rennes.grid5000.fr;thermos-root-devel-WordCountTopology-2-fe86977b-10c0-4f3d-8d22-8987e51311de;["container_2_Emit_random_words_2"];3.25;1533765231.43427;110.04;428.49;4.804494085;10;149
43;paravance-14.rennes.grid5000.fr;thermos-root-devel-WordCountTopology-0-31a4f5fd-21e1-4eb5-ba0f-c0a09a704ac1;["topology_master"];3.25;1533765231.44993;5.48;12.65;0.0;9;117
44;paravance-19.rennes.grid5000.fr;thermos-root-devel-WordCountTopology-1-e8baa4b0-06d3-4bf3-a494-9a8f6dd2e452;["container_1_Consume_and_count_1"];3.25;1533765241.68426;146.27;1080.54;38.552046397;10;149
44;paravance-14.rennes.grid5000.fr;thermos-root-devel-WordCountTopology-0-31a4f5fd-21e1-4eb5-ba0f-c0a09a704ac1;["topology_master"];3.25;1533765241.67125;5.51;12.67;0.0;9;117
44;paravance-36.rennes.grid5000.fr;thermos-root-devel-WordCountTopology-2-fe86977b-10c0-4f3d-8d22-8987e51311de;["container_2_Emit_random_words_2"];3.25;1533765241.65605;111.92;435.47;4.804494085;10;149
45;paravance-19.rennes.grid5000.fr;thermos-root-devel-WordCountTopology-1-e8baa4b0-06d3-4bf3-a494-9a8f6dd2e452;["container_1_Consume_and_count_1"];3.25;1533765251.89966;148.95;1099.71;39.125184595;10;149
45;paravance-36.rennes.grid5000.fr;thermos-root-devel-WordCountTopology-2-fe86977b-10c0-4f3d-8d22-8987e51311de;["container_2_Emit_random_words_2"];3.25;1533765251.87627;114.0;443.15;4.804494085;10;149
45;paravance-14.rennes.grid5000.fr;thermos-root-devel-WordCountTopology-0-31a4f5fd-21e1-4eb5-ba0f-c0a09a704ac1;["topology_master"];3.25;1533765251.89198;5.6;12.79;0.0;9;117
46;paravance-19.rennes.grid5000.fr;thermos-root-devel-WordCountTopology-1-e8baa4b0-06d3-4bf3-a494-9a8f6dd2e452;["container_1_Consume_and_count_1"];3.25;1533765262.11571;151.61;1119.28;39.695550707;10;149
46;paravance-36.rennes.grid5000.fr;thermos-root-devel-WordCountTopology-2-fe86977b-10c0-4f3d-8d22-8987e51311de;["container_2_Emit_random_words_2"];3.25;1533765262.0966;115.98;450.61;4.804494085;10;149
46;paravance-14.rennes.grid5000.fr;thermos-root-devel-WordCountTopology-0-31a4f5fd-21e1-4eb5-ba0f-c0a09a704ac1;["topology_master"];3.25;1533765262.11227;5.66;12.87;0.0;9;117
47;paravance-19.rennes.grid5000.fr;thermos-root-devel-WordCountTopology-1-e8baa4b0-06d3-4bf3-a494-9a8f6dd2e452;["container_1_Consume_and_count_1"];3.25;1533765272.33099;154.1;1138.28;40.130663403;10;149
47;paravance-14.rennes.grid5000.fr;thermos-root-devel-WordCountTopology-0-31a4f5fd-21e1-4eb5-ba0f-c0a09a704ac1;["topology_master"];3.25;1533765272.33393;5.72;12.95;0.0;9;117
47;paravance-36.rennes.grid5000.fr;thermos-root-devel-WordCountTopology-2-fe86977b-10c0-4f3d-8d22-8987e51311de;["container_2_Emit_random_words_2"];3.25;1533765272.31683;117.87;457.74;4.804494085;10;149
48;paravance-19.rennes.grid5000.fr;thermos-root-devel-WordCountTopology-1-e8baa4b0-06d3-4bf3-a494-9a8f6dd2e452;["container_1_Consume_and_count_1"];3.25;1533765282.54785;156.66;1157.17;40.756596279;10;149
48;paravance-36.rennes.grid5000.fr;thermos-root-devel-WordCountTopology-2-fe86977b-10c0-4f3d-8d22-8987e51311de;["container_2_Emit_random_words_2"];3.25;1533765282.53946;119.7;464.63;4.804494085;10;149
48;paravance-14.rennes.grid5000.fr;thermos-root-devel-WordCountTopology-0-31a4f5fd-21e1-4eb5-ba0f-c0a09a704ac1;["topology_master"];3.25;1533765282.55268;5.78;13.09;0.0;9;117
49;paravance-14.rennes.grid5000.fr;thermos-root-devel-WordCountTopology-0-31a4f5fd-21e1-4eb5-ba0f-c0a09a704ac1;["topology_master"];3.25;1533765292.76817;5.87;13.21;0.0;9;117
49;paravance-36.rennes.grid5000.fr;thermos-root-devel-WordCountTopology-2-fe86977b-10c0-4f3d-8d22-8987e51311de;["container_2_Emit_random_words_2"];3.25;1533765292.76156;121.74;472.19;4.804494085;10;149
49;paravance-19.rennes.grid5000.fr;thermos-root-devel-WordCountTopology-1-e8baa4b0-06d3-4bf3-a494-9a8f6dd2e452;["container_1_Consume_and_count_1"];3.25;1533765292.76436;159.42;1176.7;41.4377126;10;149
50;paravance-19.rennes.grid5000.fr;thermos-root-devel-WordCountTopology-1-e8baa4b0-06d3-4bf3-a494-9a8f6dd2e452;["container_1_Consume_and_count_1"];3.25;1533765302.98125;162.13;1195.96;42.172125337;10;149
50;paravance-36.rennes.grid5000.fr;thermos-root-devel-WordCountTopology-2-fe86977b-10c0-4f3d-8d22-8987e51311de;["container_2_Emit_random_words_2"];3.25;1533765302.98204;123.87;480.14;4.804494085;10;149
50;paravance-14.rennes.grid5000.fr;thermos-root-devel-WordCountTopology-0-31a4f5fd-21e1-4eb5-ba0f-c0a09a704ac1;["topology_master"];3.25;1533765302.98994;5.9;13.24;0.0;9;117
51;paravance-19.rennes.grid5000.fr;thermos-root-devel-WordCountTopology-1-e8baa4b0-06d3-4bf3-a494-9a8f6dd2e452;["container_1_Consume_and_count_1"];3.25;1533765313.20076;164.88;1214.79;42.502382472;10;149
51;paravance-36.rennes.grid5000.fr;thermos-root-devel-WordCountTopology-2-fe86977b-10c0-4f3d-8d22-8987e51311de;["container_2_Emit_random_words_2"];3.25;1533765313.20267;125.93;487.87;4.804494085;10;149
51;paravance-14.rennes.grid5000.fr;thermos-root-devel-WordCountTopology-0-31a4f5fd-21e1-4eb5-ba0f-c0a09a704ac1;["topology_master"];3.25;1533765313.20498;5.99;13.37;0.0;9;117
52;paravance-19.rennes.grid5000.fr;thermos-root-devel-WordCountTopology-1-e8baa4b0-06d3-4bf3-a494-9a8f6dd2e452;["container_1_Consume_and_count_1"];3.25;1533765323.41774;167.53;1234.26;43.094162564;10;149
52;paravance-14.rennes.grid5000.fr;thermos-root-devel-WordCountTopology-0-31a4f5fd-21e1-4eb5-ba0f-c0a09a704ac1;["topology_master"];3.25;1533765323.42281;6.04;13.44;0.0;9;117
52;paravance-36.rennes.grid5000.fr;thermos-root-devel-WordCountTopology-2-fe86977b-10c0-4f3d-8d22-8987e51311de;["container_2_Emit_random_words_2"];3.25;1533765323.4191;127.92;495.45;4.804494085;10;149
53;paravance-19.rennes.grid5000.fr;thermos-root-devel-WordCountTopology-1-e8baa4b0-06d3-4bf3-a494-9a8f6dd2e452;["container_1_Consume_and_count_1"];3.25;1533765333.63555;170.09;1253.25;43.58072362;10;149
53;paravance-14.rennes.grid5000.fr;thermos-root-devel-WordCountTopology-0-31a4f5fd-21e1-4eb5-ba0f-c0a09a704ac1;["topology_master"];3.25;1533765333.6399;6.11;13.55;0.0;9;117
53;paravance-36.rennes.grid5000.fr;thermos-root-devel-WordCountTopology-2-fe86977b-10c0-4f3d-8d22-8987e51311de;["container_2_Emit_random_words_2"];3.25;1533765333.63645;129.84;502.66;4.804494085;10;149
54;paravance-14.rennes.grid5000.fr;thermos-root-devel-WordCountTopology-0-31a4f5fd-21e1-4eb5-ba0f-c0a09a704ac1;["topology_master"];3.25;1533765343.8548;6.17;13.66;0.0;9;117
54;paravance-19.rennes.grid5000.fr;thermos-root-devel-WordCountTopology-1-e8baa4b0-06d3-4bf3-a494-9a8f6dd2e452;["container_1_Consume_and_count_1"];3.25;1533765343.85056;172.71;1272.63;44.3654724;10;149
54;paravance-36.rennes.grid5000.fr;thermos-root-devel-WordCountTopology-2-fe86977b-10c0-4f3d-8d22-8987e51311de;["container_2_Emit_random_words_2"];3.25;1533765343.85256;131.76;509.55;4.804494085;10;149
55;paravance-14.rennes.grid5000.fr;thermos-root-devel-WordCountTopology-0-31a4f5fd-21e1-4eb5-ba0f-c0a09a704ac1;["topology_master"];3.25;1533765353.97179;6.26;13.78;0.0;9;117
55;paravance-19.rennes.grid5000.fr;thermos-root-devel-WordCountTopology-1-e8baa4b0-06d3-4bf3-a494-9a8f6dd2e452;["container_1_Consume_and_count_1"];3.25;1533765354.06577;175.48;1291.84;45.325821937;10;149
55;paravance-36.rennes.grid5000.fr;thermos-root-devel-WordCountTopology-2-fe86977b-10c0-4f3d-8d22-8987e51311de;["container_2_Emit_random_words_2"];3.25;1533765354.06837;133.88;517.1;4.804494085;10;149
56;paravance-19.rennes.grid5000.fr;thermos-root-devel-WordCountTopology-1-e8baa4b0-06d3-4bf3-a494-9a8f6dd2e452;["container_1_Consume_and_count_1"];3.25;1533765364.28231;177.97;1311.01;45.774966519;10;149
56;paravance-14.rennes.grid5000.fr;thermos-root-devel-WordCountTopology-0-31a4f5fd-21e1-4eb5-ba0f-c0a09a704ac1;["topology_master"];3.25;1533765364.28669;6.29;13.8;0.0;9;117
56;paravance-36.rennes.grid5000.fr;thermos-root-devel-WordCountTopology-2-fe86977b-10c0-4f3d-8d22-8987e51311de;["container_2_Emit_random_words_2"];3.25;1533765364.28405;135.6;523.94;4.804494085;10;149
57;paravance-19.rennes.grid5000.fr;thermos-root-devel-WordCountTopology-1-e8baa4b0-06d3-4bf3-a494-9a8f6dd2e452;["container_1_Consume_and_count_1"];3.25;1533765374.49683;180.57;1330.27;46.368006357;10;149
57;paravance-14.rennes.grid5000.fr;thermos-root-devel-WordCountTopology-0-31a4f5fd-21e1-4eb5-ba0f-c0a09a704ac1;["topology_master"];3.25;1533765374.50027;6.38;13.93;0.0;9;117
57;paravance-36.rennes.grid5000.fr;thermos-root-devel-WordCountTopology-2-fe86977b-10c0-4f3d-8d22-8987e51311de;["container_2_Emit_random_words_2"];3.25;1533765374.49881;137.57;531.2;4.804494085;10;149
58;paravance-19.rennes.grid5000.fr;thermos-root-devel-WordCountTopology-1-e8baa4b0-06d3-4bf3-a494-9a8f6dd2e452;["container_1_Consume_and_count_1"];3.25;1533765384.71347;183.13;1349.29;46.896957223;10;149
58;paravance-36.rennes.grid5000.fr;thermos-root-devel-WordCountTopology-2-fe86977b-10c0-4f3d-8d22-8987e51311de;["container_2_Emit_random_words_2"];3.25;1533765384.71324;139.47;538.27;4.804494085;10;149
58;paravance-14.rennes.grid5000.fr;thermos-root-devel-WordCountTopology-0-31a4f5fd-21e1-4eb5-ba0f-c0a09a704ac1;["topology_master"];3.25;1533765384.7175;6.43;13.99;0.0;9;117
59;paravance-19.rennes.grid5000.fr;thermos-root-devel-WordCountTopology-1-e8baa4b0-06d3-4bf3-a494-9a8f6dd2e452;["container_1_Consume_and_count_1"];3.25;1533765394.92872;185.66;1368.13;47.449272201;10;149
59;paravance-14.rennes.grid5000.fr;thermos-root-devel-WordCountTopology-0-31a4f5fd-21e1-4eb5-ba0f-c0a09a704ac1;["topology_master"];3.25;1533765394.93345;6.51;14.16;0.0;9;117
59;paravance-36.rennes.grid5000.fr;thermos-root-devel-WordCountTopology-2-fe86977b-10c0-4f3d-8d22-8987e51311de;["container_2_Emit_random_words_2"];3.25;1533765394.92935;141.29;545.08;4.804494085;10;149
60;paravance-19.rennes.grid5000.fr;thermos-root-devel-WordCountTopology-1-e8baa4b0-06d3-4bf3-a494-9a8f6dd2e452;["container_1_Consume_and_count_1"];3.25;1533765405.1424;188.26;1387.38;47.944093523;10;149
60;paravance-14.rennes.grid5000.fr;thermos-root-devel-WordCountTopology-0-31a4f5fd-21e1-4eb5-ba0f-c0a09a704ac1;["topology_master"];3.25;1533765405.14916;6.57;14.23;0.0;9;117
60;paravance-36.rennes.grid5000.fr;thermos-root-devel-WordCountTopology-2-fe86977b-10c0-4f3d-8d22-8987e51311de;["container_2_Emit_random_words_2"];3.25;1533765405.14534;143.36;552.74;4.804494085;10;149
