mesure_id;slave_id;executor_id;heron_instances;cpus_limit;timestamp_A;cpus_system_time_secs_A;cpus_user_time_secs_A;cpus_throttled_time_secs_A;processes;threads
0;paravance-32.rennes.grid5000.fr;thermos-root-devel-WordCountTopology-2-6923526d-1d9d-4e04-bd98-0b980ec8df46;["container_2_Emit_random_words_2"];5.25;1533386833.97442;27.78;115.14;0.828142513;10;149
0;paravance-36.rennes.grid5000.fr;thermos-root-devel-WordCountTopology-1-80a63a5d-c8ab-4c28-a846-a00c0b4a5b54;["container_1_Consume_and_count_1"];5.25;1533386834.02852;34.86;233.27;0.027810903;10;149
0;paravance-27.rennes.grid5000.fr;thermos-root-devel-WordCountTopology-0-057ecb8a-930a-49fc-b529-31b41d802e6e;["topology_master"];5.25;1533386834.0215;2.43;8.1;0.0;9;117
1;paravance-27.rennes.grid5000.fr;thermos-root-devel-WordCountTopology-0-057ecb8a-930a-49fc-b529-31b41d802e6e;["topology_master"];5.25;1533386844.24845;2.49;8.26;0.0;9;117
1;paravance-36.rennes.grid5000.fr;thermos-root-devel-WordCountTopology-1-80a63a5d-c8ab-4c28-a846-a00c0b4a5b54;["container_1_Consume_and_count_1"];5.25;1533386844.2509;37.72;253.09;0.027810903;10;149
1;paravance-32.rennes.grid5000.fr;thermos-root-devel-WordCountTopology-2-6923526d-1d9d-4e04-bd98-0b980ec8df46;["container_2_Emit_random_words_2"];5.25;1533386844.19997;29.86;123.61;0.828142513;10;149
2;paravance-36.rennes.grid5000.fr;thermos-root-devel-WordCountTopology-1-80a63a5d-c8ab-4c28-a846-a00c0b4a5b54;["container_1_Consume_and_count_1"];5.25;1533386854.47127;40.64;272.93;0.027810903;10;149
2;paravance-27.rennes.grid5000.fr;thermos-root-devel-WordCountTopology-0-057ecb8a-930a-49fc-b529-31b41d802e6e;["topology_master"];5.25;1533386854.46757;2.58;8.39;0.0;9;117
2;paravance-32.rennes.grid5000.fr;thermos-root-devel-WordCountTopology-2-6923526d-1d9d-4e04-bd98-0b980ec8df46;["container_2_Emit_random_words_2"];5.25;1533386854.41985;32.21;132.41;0.828142513;10;149
3;paravance-36.rennes.grid5000.fr;thermos-root-devel-WordCountTopology-1-80a63a5d-c8ab-4c28-a846-a00c0b4a5b54;["container_1_Consume_and_count_1"];5.25;1533386864.69247;43.48;292.57;0.027810903;10;149
3;paravance-32.rennes.grid5000.fr;thermos-root-devel-WordCountTopology-2-6923526d-1d9d-4e04-bd98-0b980ec8df46;["container_2_Emit_random_words_2"];5.25;1533386864.64077;34.14;140.19;0.828142513;10;149
3;paravance-27.rennes.grid5000.fr;thermos-root-devel-WordCountTopology-0-057ecb8a-930a-49fc-b529-31b41d802e6e;["topology_master"];5.25;1533386864.68833;2.61;8.42;0.0;9;117
4;paravance-36.rennes.grid5000.fr;thermos-root-devel-WordCountTopology-1-80a63a5d-c8ab-4c28-a846-a00c0b4a5b54;["container_1_Consume_and_count_1"];5.25;1533386874.91304;46.24;312.21;0.027810903;10;149
4;paravance-32.rennes.grid5000.fr;thermos-root-devel-WordCountTopology-2-6923526d-1d9d-4e04-bd98-0b980ec8df46;["container_2_Emit_random_words_2"];5.25;1533386874.86084;36.28;148.5;0.828142513;10;149
4;paravance-27.rennes.grid5000.fr;thermos-root-devel-WordCountTopology-0-057ecb8a-930a-49fc-b529-31b41d802e6e;["topology_master"];5.25;1533386874.90875;2.7;8.55;0.0;9;117
5;paravance-36.rennes.grid5000.fr;thermos-root-devel-WordCountTopology-1-80a63a5d-c8ab-4c28-a846-a00c0b4a5b54;["container_1_Consume_and_count_1"];5.25;1533386885.13314;49.01;332.32;0.027810903;10;149
5;paravance-32.rennes.grid5000.fr;thermos-root-devel-WordCountTopology-2-6923526d-1d9d-4e04-bd98-0b980ec8df46;["container_2_Emit_random_words_2"];5.25;1533386885.08116;38.39;157.01;0.828142513;10;149
5;paravance-27.rennes.grid5000.fr;thermos-root-devel-WordCountTopology-0-057ecb8a-930a-49fc-b529-31b41d802e6e;["topology_master"];5.25;1533386885.12843;2.75;8.62;0.0;9;117
6;paravance-27.rennes.grid5000.fr;thermos-root-devel-WordCountTopology-0-057ecb8a-930a-49fc-b529-31b41d802e6e;["topology_master"];5.25;1533386895.34907;2.86;8.79;0.0;9;117
6;paravance-36.rennes.grid5000.fr;thermos-root-devel-WordCountTopology-1-80a63a5d-c8ab-4c28-a846-a00c0b4a5b54;["container_1_Consume_and_count_1"];5.25;1533386895.35396;51.59;352.24;0.027810903;10;149
6;paravance-32.rennes.grid5000.fr;thermos-root-devel-WordCountTopology-2-6923526d-1d9d-4e04-bd98-0b980ec8df46;["container_2_Emit_random_words_2"];5.25;1533386895.30021;40.37;164.93;0.828142513;10;149
7;paravance-36.rennes.grid5000.fr;thermos-root-devel-WordCountTopology-1-80a63a5d-c8ab-4c28-a846-a00c0b4a5b54;["container_1_Consume_and_count_1"];5.25;1533386905.57083;54.34;371.99;0.027810903;10;149
7;paravance-32.rennes.grid5000.fr;thermos-root-devel-WordCountTopology-2-6923526d-1d9d-4e04-bd98-0b980ec8df46;["container_2_Emit_random_words_2"];5.25;1533386905.51878;42.37;173.14;0.828142513;10;149
7;paravance-27.rennes.grid5000.fr;thermos-root-devel-WordCountTopology-0-057ecb8a-930a-49fc-b529-31b41d802e6e;["topology_master"];5.25;1533386905.56701;2.9;8.88;0.0;9;117
8;paravance-27.rennes.grid5000.fr;thermos-root-devel-WordCountTopology-0-057ecb8a-930a-49fc-b529-31b41d802e6e;["topology_master"];5.25;1533386915.686;2.98;9.01;0.0;9;117
8;paravance-36.rennes.grid5000.fr;thermos-root-devel-WordCountTopology-1-80a63a5d-c8ab-4c28-a846-a00c0b4a5b54;["container_1_Consume_and_count_1"];5.25;1533386915.78988;57.14;391.8;0.027810903;10;149
8;paravance-32.rennes.grid5000.fr;thermos-root-devel-WordCountTopology-2-6923526d-1d9d-4e04-bd98-0b980ec8df46;["container_2_Emit_random_words_2"];5.25;1533386915.73682;44.43;181.34;0.828142513;10;149
9;paravance-36.rennes.grid5000.fr;thermos-root-devel-WordCountTopology-1-80a63a5d-c8ab-4c28-a846-a00c0b4a5b54;["container_1_Consume_and_count_1"];5.25;1533386926.01061;60.03;411.92;0.027810903;10;149
9;paravance-32.rennes.grid5000.fr;thermos-root-devel-WordCountTopology-2-6923526d-1d9d-4e04-bd98-0b980ec8df46;["container_2_Emit_random_words_2"];5.25;1533386925.95883;46.58;190.1;0.828142513;10;149
9;paravance-27.rennes.grid5000.fr;thermos-root-devel-WordCountTopology-0-057ecb8a-930a-49fc-b529-31b41d802e6e;["topology_master"];5.25;1533386926.00716;3.04;9.08;0.0;9;117
10;paravance-36.rennes.grid5000.fr;thermos-root-devel-WordCountTopology-1-80a63a5d-c8ab-4c28-a846-a00c0b4a5b54;["container_1_Consume_and_count_1"];5.25;1533386936.23087;62.79;432.31;0.027810903;10;149
10;paravance-32.rennes.grid5000.fr;thermos-root-devel-WordCountTopology-2-6923526d-1d9d-4e04-bd98-0b980ec8df46;["container_2_Emit_random_words_2"];5.25;1533386936.17836;48.73;198.69;0.828142513;10;149
10;paravance-27.rennes.grid5000.fr;thermos-root-devel-WordCountTopology-0-057ecb8a-930a-49fc-b529-31b41d802e6e;["topology_master"];5.25;1533386936.22712;3.1;9.16;0.0;9;117
11;paravance-36.rennes.grid5000.fr;thermos-root-devel-WordCountTopology-1-80a63a5d-c8ab-4c28-a846-a00c0b4a5b54;["container_1_Consume_and_count_1"];5.25;1533386946.45219;65.47;452.29;0.027810903;10;149
11;paravance-27.rennes.grid5000.fr;thermos-root-devel-WordCountTopology-0-057ecb8a-930a-49fc-b529-31b41d802e6e;["topology_master"];5.25;1533386946.44737;3.15;9.24;0.0;9;117
11;paravance-32.rennes.grid5000.fr;thermos-root-devel-WordCountTopology-2-6923526d-1d9d-4e04-bd98-0b980ec8df46;["container_2_Emit_random_words_2"];5.25;1533386946.39908;50.79;206.92;0.828142513;10;149
12;paravance-36.rennes.grid5000.fr;thermos-root-devel-WordCountTopology-1-80a63a5d-c8ab-4c28-a846-a00c0b4a5b54;["container_1_Consume_and_count_1"];5.25;1533386956.67242;68.21;472.37;0.027810903;10;149
12;paravance-32.rennes.grid5000.fr;thermos-root-devel-WordCountTopology-2-6923526d-1d9d-4e04-bd98-0b980ec8df46;["container_2_Emit_random_words_2"];5.25;1533386956.62154;52.85;215.35;0.828142513;10;149
12;paravance-27.rennes.grid5000.fr;thermos-root-devel-WordCountTopology-0-057ecb8a-930a-49fc-b529-31b41d802e6e;["topology_master"];5.25;1533386956.66997;3.28;9.52;0.0;9;117
13;paravance-36.rennes.grid5000.fr;thermos-root-devel-WordCountTopology-1-80a63a5d-c8ab-4c28-a846-a00c0b4a5b54;["container_1_Consume_and_count_1"];5.25;1533386966.89451;70.89;492.56;0.027810903;10;149
13;paravance-27.rennes.grid5000.fr;thermos-root-devel-WordCountTopology-0-057ecb8a-930a-49fc-b529-31b41d802e6e;["topology_master"];5.25;1533386966.89054;3.3;9.55;0.0;9;117
13;paravance-32.rennes.grid5000.fr;thermos-root-devel-WordCountTopology-2-6923526d-1d9d-4e04-bd98-0b980ec8df46;["container_2_Emit_random_words_2"];5.25;1533386966.84275;54.98;223.78;0.828142513;10;149
14;paravance-36.rennes.grid5000.fr;thermos-root-devel-WordCountTopology-1-80a63a5d-c8ab-4c28-a846-a00c0b4a5b54;["container_1_Consume_and_count_1"];5.25;1533386977.11592;73.57;512.08;0.027810903;10;149
14;paravance-32.rennes.grid5000.fr;thermos-root-devel-WordCountTopology-2-6923526d-1d9d-4e04-bd98-0b980ec8df46;["container_2_Emit_random_words_2"];5.25;1533386977.063;57.02;232.22;0.828142513;10;149
14;paravance-27.rennes.grid5000.fr;thermos-root-devel-WordCountTopology-0-057ecb8a-930a-49fc-b529-31b41d802e6e;["topology_master"];5.25;1533386977.11176;3.38;9.67;0.0;9;117
15;paravance-36.rennes.grid5000.fr;thermos-root-devel-WordCountTopology-1-80a63a5d-c8ab-4c28-a846-a00c0b4a5b54;["container_1_Consume_and_count_1"];5.25;1533386987.3377;76.13;531.83;0.027810903;10;149
15;paravance-32.rennes.grid5000.fr;thermos-root-devel-WordCountTopology-2-6923526d-1d9d-4e04-bd98-0b980ec8df46;["container_2_Emit_random_words_2"];5.25;1533386987.28551;59.06;240.21;0.828142513;10;149
15;paravance-27.rennes.grid5000.fr;thermos-root-devel-WordCountTopology-0-057ecb8a-930a-49fc-b529-31b41d802e6e;["topology_master"];5.25;1533386987.33373;3.44;9.75;0.0;9;117
16;paravance-36.rennes.grid5000.fr;thermos-root-devel-WordCountTopology-1-80a63a5d-c8ab-4c28-a846-a00c0b4a5b54;["container_1_Consume_and_count_1"];5.25;1533386997.55943;78.77;551.49;0.027810903;10;149
16;paravance-27.rennes.grid5000.fr;thermos-root-devel-WordCountTopology-0-057ecb8a-930a-49fc-b529-31b41d802e6e;["topology_master"];5.25;1533386997.55435;3.5;9.83;0.0;9;117
16;paravance-32.rennes.grid5000.fr;thermos-root-devel-WordCountTopology-2-6923526d-1d9d-4e04-bd98-0b980ec8df46;["container_2_Emit_random_words_2"];5.25;1533386997.50624;61.14;248.52;0.828142513;10;149
17;paravance-36.rennes.grid5000.fr;thermos-root-devel-WordCountTopology-1-80a63a5d-c8ab-4c28-a846-a00c0b4a5b54;["container_1_Consume_and_count_1"];5.25;1533387007.77996;81.37;570.89;0.027810903;10;149
17;paravance-32.rennes.grid5000.fr;thermos-root-devel-WordCountTopology-2-6923526d-1d9d-4e04-bd98-0b980ec8df46;["container_2_Emit_random_words_2"];5.25;1533387007.72653;63.08;256.23;0.828142513;10;149
17;paravance-27.rennes.grid5000.fr;thermos-root-devel-WordCountTopology-0-057ecb8a-930a-49fc-b529-31b41d802e6e;["topology_master"];5.25;1533387007.77543;3.56;9.91;0.0;9;117
18;paravance-32.rennes.grid5000.fr;thermos-root-devel-WordCountTopology-2-6923526d-1d9d-4e04-bd98-0b980ec8df46;["container_2_Emit_random_words_2"];5.25;1533387017.94893;65.25;264.22;0.828142513;10;149
18;paravance-36.rennes.grid5000.fr;thermos-root-devel-WordCountTopology-1-80a63a5d-c8ab-4c28-a846-a00c0b4a5b54;["container_1_Consume_and_count_1"];5.25;1533387018.00036;83.99;590.87;0.027810903;10;149
18;paravance-27.rennes.grid5000.fr;thermos-root-devel-WordCountTopology-0-057ecb8a-930a-49fc-b529-31b41d802e6e;["topology_master"];5.25;1533387017.99734;3.67;10.11;0.0;9;117
19;paravance-36.rennes.grid5000.fr;thermos-root-devel-WordCountTopology-1-80a63a5d-c8ab-4c28-a846-a00c0b4a5b54;["container_1_Consume_and_count_1"];5.25;1533387028.2191;86.53;610.49;0.027810903;10;149
19;paravance-32.rennes.grid5000.fr;thermos-root-devel-WordCountTopology-2-6923526d-1d9d-4e04-bd98-0b980ec8df46;["container_2_Emit_random_words_2"];5.25;1533387028.16785;67.25;271.95;0.828142513;10;149
19;paravance-27.rennes.grid5000.fr;thermos-root-devel-WordCountTopology-0-057ecb8a-930a-49fc-b529-31b41d802e6e;["topology_master"];5.25;1533387028.21613;3.7;10.13;0.0;9;117
20;paravance-36.rennes.grid5000.fr;thermos-root-devel-WordCountTopology-1-80a63a5d-c8ab-4c28-a846-a00c0b4a5b54;["container_1_Consume_and_count_1"];5.25;1533387038.43937;89.26;630.18;0.027810903;10;149
20;paravance-27.rennes.grid5000.fr;thermos-root-devel-WordCountTopology-0-057ecb8a-930a-49fc-b529-31b41d802e6e;["topology_master"];5.25;1533387038.43453;3.78;10.26;0.0;9;117
20;paravance-32.rennes.grid5000.fr;thermos-root-devel-WordCountTopology-2-6923526d-1d9d-4e04-bd98-0b980ec8df46;["container_2_Emit_random_words_2"];5.25;1533387038.38649;69.32;280.13;0.828142513;10;149
21;paravance-36.rennes.grid5000.fr;thermos-root-devel-WordCountTopology-1-80a63a5d-c8ab-4c28-a846-a00c0b4a5b54;["container_1_Consume_and_count_1"];5.25;1533387048.65982;91.91;650.19;0.027810903;10;149
21;paravance-32.rennes.grid5000.fr;thermos-root-devel-WordCountTopology-2-6923526d-1d9d-4e04-bd98-0b980ec8df46;["container_2_Emit_random_words_2"];5.25;1533387048.6078;71.39;288.35;0.828142513;10;149
21;paravance-27.rennes.grid5000.fr;thermos-root-devel-WordCountTopology-0-057ecb8a-930a-49fc-b529-31b41d802e6e;["topology_master"];5.25;1533387048.65645;3.84;10.33;0.0;9;117
22;paravance-36.rennes.grid5000.fr;thermos-root-devel-WordCountTopology-1-80a63a5d-c8ab-4c28-a846-a00c0b4a5b54;["container_1_Consume_and_count_1"];5.25;1533387058.88055;94.48;670.36;0.027810903;10;149
22;paravance-27.rennes.grid5000.fr;thermos-root-devel-WordCountTopology-0-057ecb8a-930a-49fc-b529-31b41d802e6e;["topology_master"];5.25;1533387058.87617;3.89;10.4;0.0;9;117
22;paravance-32.rennes.grid5000.fr;thermos-root-devel-WordCountTopology-2-6923526d-1d9d-4e04-bd98-0b980ec8df46;["container_2_Emit_random_words_2"];5.25;1533387058.82785;73.42;296.31;0.828142513;10;149
23;paravance-36.rennes.grid5000.fr;thermos-root-devel-WordCountTopology-1-80a63a5d-c8ab-4c28-a846-a00c0b4a5b54;["container_1_Consume_and_count_1"];5.25;1533387069.09772;97.2;690.38;0.027810903;10;149
23;paravance-32.rennes.grid5000.fr;thermos-root-devel-WordCountTopology-2-6923526d-1d9d-4e04-bd98-0b980ec8df46;["container_2_Emit_random_words_2"];5.25;1533387069.04682;75.57;304.82;0.828142513;10;149
23;paravance-27.rennes.grid5000.fr;thermos-root-devel-WordCountTopology-0-057ecb8a-930a-49fc-b529-31b41d802e6e;["topology_master"];5.25;1533387069.09538;3.94;10.47;0.0;9;117
24;paravance-36.rennes.grid5000.fr;thermos-root-devel-WordCountTopology-1-80a63a5d-c8ab-4c28-a846-a00c0b4a5b54;["container_1_Consume_and_count_1"];5.25;1533387079.31886;99.91;710.3;0.027810903;10;149
24;paravance-32.rennes.grid5000.fr;thermos-root-devel-WordCountTopology-2-6923526d-1d9d-4e04-bd98-0b980ec8df46;["container_2_Emit_random_words_2"];5.25;1533387079.26781;77.73;313.07;0.828142513;10;149
24;paravance-27.rennes.grid5000.fr;thermos-root-devel-WordCountTopology-0-057ecb8a-930a-49fc-b529-31b41d802e6e;["topology_master"];5.25;1533387079.31604;4.05;10.65;0.0;9;117
25;paravance-36.rennes.grid5000.fr;thermos-root-devel-WordCountTopology-1-80a63a5d-c8ab-4c28-a846-a00c0b4a5b54;["container_1_Consume_and_count_1"];5.25;1533387089.54054;102.56;730.16;0.027810903;10;149
25;paravance-27.rennes.grid5000.fr;thermos-root-devel-WordCountTopology-0-057ecb8a-930a-49fc-b529-31b41d802e6e;["topology_master"];5.25;1533387089.53657;4.07;10.67;0.0;9;117
25;paravance-32.rennes.grid5000.fr;thermos-root-devel-WordCountTopology-2-6923526d-1d9d-4e04-bd98-0b980ec8df46;["container_2_Emit_random_words_2"];5.25;1533387089.48853;79.79;321.32;0.828142513;10;149
26;paravance-36.rennes.grid5000.fr;thermos-root-devel-WordCountTopology-1-80a63a5d-c8ab-4c28-a846-a00c0b4a5b54;["container_1_Consume_and_count_1"];5.25;1533387099.761;105.23;750.15;0.027810903;10;149
26;paravance-27.rennes.grid5000.fr;thermos-root-devel-WordCountTopology-0-057ecb8a-930a-49fc-b529-31b41d802e6e;["topology_master"];5.25;1533387099.75672;4.16;10.8;0.0;9;117
26;paravance-32.rennes.grid5000.fr;thermos-root-devel-WordCountTopology-2-6923526d-1d9d-4e04-bd98-0b980ec8df46;["container_2_Emit_random_words_2"];5.25;1533387099.70781;81.87;329.47;0.828142513;10;149
27;paravance-27.rennes.grid5000.fr;thermos-root-devel-WordCountTopology-0-057ecb8a-930a-49fc-b529-31b41d802e6e;["topology_master"];5.25;1533387109.87874;4.22;10.87;0.0;9;117
27;paravance-36.rennes.grid5000.fr;thermos-root-devel-WordCountTopology-1-80a63a5d-c8ab-4c28-a846-a00c0b4a5b54;["container_1_Consume_and_count_1"];5.25;1533387109.9813;107.77;770.07;0.027810903;10;149
27;paravance-32.rennes.grid5000.fr;thermos-root-devel-WordCountTopology-2-6923526d-1d9d-4e04-bd98-0b980ec8df46;["container_2_Emit_random_words_2"];5.25;1533387109.92989;83.92;337.63;0.828142513;10;149
28;paravance-32.rennes.grid5000.fr;thermos-root-devel-WordCountTopology-2-6923526d-1d9d-4e04-bd98-0b980ec8df46;["container_2_Emit_random_words_2"];5.25;1533387120.1519;85.76;345.28;0.828142513;10;149
28;paravance-36.rennes.grid5000.fr;thermos-root-devel-WordCountTopology-1-80a63a5d-c8ab-4c28-a846-a00c0b4a5b54;["container_1_Consume_and_count_1"];5.25;1533387120.20394;110.28;790.08;0.027810903;10;149
28;paravance-27.rennes.grid5000.fr;thermos-root-devel-WordCountTopology-0-057ecb8a-930a-49fc-b529-31b41d802e6e;["topology_master"];5.25;1533387120.20068;4.27;10.94;0.0;9;117
29;paravance-36.rennes.grid5000.fr;thermos-root-devel-WordCountTopology-1-80a63a5d-c8ab-4c28-a846-a00c0b4a5b54;["container_1_Consume_and_count_1"];5.25;1533387130.42495;112.86;809.67;0.027810903;10;150
29;paravance-32.rennes.grid5000.fr;thermos-root-devel-WordCountTopology-2-6923526d-1d9d-4e04-bd98-0b980ec8df46;["container_2_Emit_random_words_2"];5.25;1533387130.37195;87.7;352.93;0.828142513;10;149
29;paravance-27.rennes.grid5000.fr;thermos-root-devel-WordCountTopology-0-057ecb8a-930a-49fc-b529-31b41d802e6e;["topology_master"];5.25;1533387130.41992;4.33;11.02;0.0;9;118
30;paravance-36.rennes.grid5000.fr;thermos-root-devel-WordCountTopology-1-80a63a5d-c8ab-4c28-a846-a00c0b4a5b54;["container_1_Consume_and_count_1"];5.25;1533387140.64497;115.59;829.77;0.027810903;10;149
30;paravance-27.rennes.grid5000.fr;thermos-root-devel-WordCountTopology-0-057ecb8a-930a-49fc-b529-31b41d802e6e;["topology_master"];5.25;1533387140.64081;4.44;11.22;0.0;9;117
30;paravance-32.rennes.grid5000.fr;thermos-root-devel-WordCountTopology-2-6923526d-1d9d-4e04-bd98-0b980ec8df46;["container_2_Emit_random_words_2"];5.25;1533387140.59232;89.82;361.37;0.828142513;10;149
31;paravance-36.rennes.grid5000.fr;thermos-root-devel-WordCountTopology-1-80a63a5d-c8ab-4c28-a846-a00c0b4a5b54;["container_1_Consume_and_count_1"];5.25;1533387150.86594;118.21;849.53;0.027810903;10;149
31;paravance-32.rennes.grid5000.fr;thermos-root-devel-WordCountTopology-2-6923526d-1d9d-4e04-bd98-0b980ec8df46;["container_2_Emit_random_words_2"];5.25;1533387150.81395;91.78;369.28;0.828142513;10;149
31;paravance-27.rennes.grid5000.fr;thermos-root-devel-WordCountTopology-0-057ecb8a-930a-49fc-b529-31b41d802e6e;["topology_master"];5.25;1533387150.86058;4.51;11.3;0.0;9;117
32;paravance-32.rennes.grid5000.fr;thermos-root-devel-WordCountTopology-2-6923526d-1d9d-4e04-bd98-0b980ec8df46;["container_2_Emit_random_words_2"];5.25;1533387161.03303;93.87;377.58;0.828142513;10;149
32;paravance-36.rennes.grid5000.fr;thermos-root-devel-WordCountTopology-1-80a63a5d-c8ab-4c28-a846-a00c0b4a5b54;["container_1_Consume_and_count_1"];5.25;1533387161.08638;120.95;869.56;0.027810903;10;149
32;paravance-27.rennes.grid5000.fr;thermos-root-devel-WordCountTopology-0-057ecb8a-930a-49fc-b529-31b41d802e6e;["topology_master"];5.25;1533387161.08237;4.56;11.38;0.0;9;117
33;paravance-32.rennes.grid5000.fr;thermos-root-devel-WordCountTopology-2-6923526d-1d9d-4e04-bd98-0b980ec8df46;["container_2_Emit_random_words_2"];5.25;1533387171.25209;95.94;385.48;0.828142513;10;149
33;paravance-27.rennes.grid5000.fr;thermos-root-devel-WordCountTopology-0-057ecb8a-930a-49fc-b529-31b41d802e6e;["topology_master"];5.25;1533387171.30214;4.65;11.5;0.0;9;117
33;paravance-36.rennes.grid5000.fr;thermos-root-devel-WordCountTopology-1-80a63a5d-c8ab-4c28-a846-a00c0b4a5b54;["container_1_Consume_and_count_1"];5.25;1533387171.30782;123.57;889.96;0.027810903;10;149
34;paravance-36.rennes.grid5000.fr;thermos-root-devel-WordCountTopology-1-80a63a5d-c8ab-4c28-a846-a00c0b4a5b54;["container_1_Consume_and_count_1"];5.25;1533387181.52817;126.08;909.67;0.027810903;10;149
34;paravance-27.rennes.grid5000.fr;thermos-root-devel-WordCountTopology-0-057ecb8a-930a-49fc-b529-31b41d802e6e;["topology_master"];5.25;1533387181.52282;4.68;11.52;0.0;9;117
34;paravance-32.rennes.grid5000.fr;thermos-root-devel-WordCountTopology-2-6923526d-1d9d-4e04-bd98-0b980ec8df46;["container_2_Emit_random_words_2"];5.25;1533387181.47518;97.8;392.99;0.828142513;10;149
35;paravance-36.rennes.grid5000.fr;thermos-root-devel-WordCountTopology-1-80a63a5d-c8ab-4c28-a846-a00c0b4a5b54;["container_1_Consume_and_count_1"];5.25;1533387191.74768;128.81;928.83;0.027810903;10;149
35;paravance-32.rennes.grid5000.fr;thermos-root-devel-WordCountTopology-2-6923526d-1d9d-4e04-bd98-0b980ec8df46;["container_2_Emit_random_words_2"];5.25;1533387191.6955;99.96;401.28;0.828142513;10;149
35;paravance-27.rennes.grid5000.fr;thermos-root-devel-WordCountTopology-0-057ecb8a-930a-49fc-b529-31b41d802e6e;["topology_master"];5.25;1533387191.74341;4.78;11.66;0.0;9;117
36;paravance-36.rennes.grid5000.fr;thermos-root-devel-WordCountTopology-1-80a63a5d-c8ab-4c28-a846-a00c0b4a5b54;["container_1_Consume_and_count_1"];5.25;1533387201.96888;131.34;948.67;0.027810903;10;149
36;paravance-32.rennes.grid5000.fr;thermos-root-devel-WordCountTopology-2-6923526d-1d9d-4e04-bd98-0b980ec8df46;["container_2_Emit_random_words_2"];5.25;1533387201.9166;102.0;408.67;0.828142513;10;149
36;paravance-27.rennes.grid5000.fr;thermos-root-devel-WordCountTopology-0-057ecb8a-930a-49fc-b529-31b41d802e6e;["topology_master"];5.25;1533387201.96605;4.85;11.82;0.0;9;117
37;paravance-36.rennes.grid5000.fr;thermos-root-devel-WordCountTopology-1-80a63a5d-c8ab-4c28-a846-a00c0b4a5b54;["container_1_Consume_and_count_1"];5.25;1533387212.1898;133.95;968.31;0.027810903;10;149
37;paravance-32.rennes.grid5000.fr;thermos-root-devel-WordCountTopology-2-6923526d-1d9d-4e04-bd98-0b980ec8df46;["container_2_Emit_random_words_2"];5.25;1533387212.13695;103.97;416.11;0.828142513;10;149
37;paravance-27.rennes.grid5000.fr;thermos-root-devel-WordCountTopology-0-057ecb8a-930a-49fc-b529-31b41d802e6e;["topology_master"];5.25;1533387212.18607;4.93;11.93;0.0;9;117
38;paravance-36.rennes.grid5000.fr;thermos-root-devel-WordCountTopology-1-80a63a5d-c8ab-4c28-a846-a00c0b4a5b54;["container_1_Consume_and_count_1"];5.25;1533387222.40778;136.45;987.78;0.027810903;10;149
38;paravance-32.rennes.grid5000.fr;thermos-root-devel-WordCountTopology-2-6923526d-1d9d-4e04-bd98-0b980ec8df46;["container_2_Emit_random_words_2"];5.25;1533387222.35717;105.9;423.17;0.828142513;10;149
38;paravance-27.rennes.grid5000.fr;thermos-root-devel-WordCountTopology-0-057ecb8a-930a-49fc-b529-31b41d802e6e;["topology_master"];5.25;1533387222.40692;4.96;11.97;0.0;9;117
39;paravance-36.rennes.grid5000.fr;thermos-root-devel-WordCountTopology-1-80a63a5d-c8ab-4c28-a846-a00c0b4a5b54;["container_1_Consume_and_count_1"];5.25;1533387232.62343;139.04;1007.52;0.027810903;10;149
39;paravance-27.rennes.grid5000.fr;thermos-root-devel-WordCountTopology-0-057ecb8a-930a-49fc-b529-31b41d802e6e;["topology_master"];5.25;1533387232.62324;5.05;12.09;0.0;9;117
39;paravance-32.rennes.grid5000.fr;thermos-root-devel-WordCountTopology-2-6923526d-1d9d-4e04-bd98-0b980ec8df46;["container_2_Emit_random_words_2"];5.25;1533387232.57548;107.82;430.43;0.828142513;10;149
40;paravance-27.rennes.grid5000.fr;thermos-root-devel-WordCountTopology-0-057ecb8a-930a-49fc-b529-31b41d802e6e;["topology_master"];5.25;1533387242.83717;5.11;12.16;0.0;9;117
40;paravance-32.rennes.grid5000.fr;thermos-root-devel-WordCountTopology-2-6923526d-1d9d-4e04-bd98-0b980ec8df46;["container_2_Emit_random_words_2"];5.25;1533387242.81276;109.64;437.71;0.828142513;10;149
40;paravance-36.rennes.grid5000.fr;thermos-root-devel-WordCountTopology-1-80a63a5d-c8ab-4c28-a846-a00c0b4a5b54;["container_1_Consume_and_count_1"];5.25;1533387242.85226;141.57;1027.09;0.027810903;10;149
41;paravance-32.rennes.grid5000.fr;thermos-root-devel-WordCountTopology-2-6923526d-1d9d-4e04-bd98-0b980ec8df46;["container_2_Emit_random_words_2"];5.25;1533387253.03181;111.43;444.49;0.828142513;10;149
41;paravance-36.rennes.grid5000.fr;thermos-root-devel-WordCountTopology-1-80a63a5d-c8ab-4c28-a846-a00c0b4a5b54;["container_1_Consume_and_count_1"];5.25;1533387253.06565;143.9;1046.91;0.027810903;10;149
41;paravance-27.rennes.grid5000.fr;thermos-root-devel-WordCountTopology-0-057ecb8a-930a-49fc-b529-31b41d802e6e;["topology_master"];5.25;1533387253.06795;5.18;12.25;0.0;9;117
42;paravance-32.rennes.grid5000.fr;thermos-root-devel-WordCountTopology-2-6923526d-1d9d-4e04-bd98-0b980ec8df46;["container_2_Emit_random_words_2"];5.25;1533387263.25289;113.38;451.57;0.828142513;10;149
42;paravance-27.rennes.grid5000.fr;thermos-root-devel-WordCountTopology-0-057ecb8a-930a-49fc-b529-31b41d802e6e;["topology_master"];5.25;1533387263.28249;5.24;12.37;0.0;9;117
42;paravance-36.rennes.grid5000.fr;thermos-root-devel-WordCountTopology-1-80a63a5d-c8ab-4c28-a846-a00c0b4a5b54;["container_1_Consume_and_count_1"];5.25;1533387263.28285;146.44;1066.51;0.027810903;10;149
43;paravance-36.rennes.grid5000.fr;thermos-root-devel-WordCountTopology-1-80a63a5d-c8ab-4c28-a846-a00c0b4a5b54;["container_1_Consume_and_count_1"];5.25;1533387273.49714;149.03;1086.45;0.027810903;10;149
43;paravance-32.rennes.grid5000.fr;thermos-root-devel-WordCountTopology-2-6923526d-1d9d-4e04-bd98-0b980ec8df46;["container_2_Emit_random_words_2"];5.25;1533387273.47259;115.34;459.03;0.828142513;10;149
43;paravance-27.rennes.grid5000.fr;thermos-root-devel-WordCountTopology-0-057ecb8a-930a-49fc-b529-31b41d802e6e;["topology_master"];5.25;1533387273.49857;5.33;12.49;0.0;9;117
44;paravance-36.rennes.grid5000.fr;thermos-root-devel-WordCountTopology-1-80a63a5d-c8ab-4c28-a846-a00c0b4a5b54;["container_1_Consume_and_count_1"];5.25;1533387283.71288;151.54;1106.11;0.027810903;10;149
44;paravance-32.rennes.grid5000.fr;thermos-root-devel-WordCountTopology-2-6923526d-1d9d-4e04-bd98-0b980ec8df46;["container_2_Emit_random_words_2"];5.25;1533387283.69433;117.14;466.09;0.828142513;10;149
44;paravance-27.rennes.grid5000.fr;thermos-root-devel-WordCountTopology-0-057ecb8a-930a-49fc-b529-31b41d802e6e;["topology_master"];5.25;1533387283.71499;5.36;12.52;0.0;9;117
45;paravance-27.rennes.grid5000.fr;thermos-root-devel-WordCountTopology-0-057ecb8a-930a-49fc-b529-31b41d802e6e;["topology_master"];5.25;1533387293.92998;5.45;12.64;0.0;9;117
45;paravance-36.rennes.grid5000.fr;thermos-root-devel-WordCountTopology-1-80a63a5d-c8ab-4c28-a846-a00c0b4a5b54;["container_1_Consume_and_count_1"];5.25;1533387293.93046;154.31;1126.11;0.027810903;10;149
45;paravance-32.rennes.grid5000.fr;thermos-root-devel-WordCountTopology-2-6923526d-1d9d-4e04-bd98-0b980ec8df46;["container_2_Emit_random_words_2"];5.25;1533387293.9156;119.2;473.97;0.828142513;10;149
46;paravance-27.rennes.grid5000.fr;thermos-root-devel-WordCountTopology-0-057ecb8a-930a-49fc-b529-31b41d802e6e;["topology_master"];5.25;1533387304.14668;5.51;12.72;0.0;9;117
46;paravance-36.rennes.grid5000.fr;thermos-root-devel-WordCountTopology-1-80a63a5d-c8ab-4c28-a846-a00c0b4a5b54;["container_1_Consume_and_count_1"];5.25;1533387304.14704;157.08;1145.7;0.027810903;10;149
46;paravance-32.rennes.grid5000.fr;thermos-root-devel-WordCountTopology-2-6923526d-1d9d-4e04-bd98-0b980ec8df46;["container_2_Emit_random_words_2"];5.25;1533387304.13746;121.25;481.87;0.828142513;10;149
47;paravance-36.rennes.grid5000.fr;thermos-root-devel-WordCountTopology-1-80a63a5d-c8ab-4c28-a846-a00c0b4a5b54;["container_1_Consume_and_count_1"];5.25;1533387314.36251;159.87;1165.64;0.027810903;10;149
47;paravance-27.rennes.grid5000.fr;thermos-root-devel-WordCountTopology-0-057ecb8a-930a-49fc-b529-31b41d802e6e;["topology_master"];5.25;1533387314.36376;5.58;12.8;0.0;9;117
47;paravance-32.rennes.grid5000.fr;thermos-root-devel-WordCountTopology-2-6923526d-1d9d-4e04-bd98-0b980ec8df46;["container_2_Emit_random_words_2"];5.25;1533387314.35879;123.4;490.15;0.828142513;10;149
48;paravance-36.rennes.grid5000.fr;thermos-root-devel-WordCountTopology-1-80a63a5d-c8ab-4c28-a846-a00c0b4a5b54;["container_1_Consume_and_count_1"];5.25;1533387324.57861;162.53;1185.13;0.027810903;10;149
48;paravance-32.rennes.grid5000.fr;thermos-root-devel-WordCountTopology-2-6923526d-1d9d-4e04-bd98-0b980ec8df46;["container_2_Emit_random_words_2"];5.25;1533387324.57954;125.37;497.88;0.828142513;10;149
48;paravance-27.rennes.grid5000.fr;thermos-root-devel-WordCountTopology-0-057ecb8a-930a-49fc-b529-31b41d802e6e;["topology_master"];5.25;1533387324.57986;5.64;12.95;0.0;9;117
49;paravance-32.rennes.grid5000.fr;thermos-root-devel-WordCountTopology-2-6923526d-1d9d-4e04-bd98-0b980ec8df46;["container_2_Emit_random_words_2"];5.25;1533387334.79457;127.44;505.34;0.828142513;10;149
49;paravance-36.rennes.grid5000.fr;thermos-root-devel-WordCountTopology-1-80a63a5d-c8ab-4c28-a846-a00c0b4a5b54;["container_1_Consume_and_count_1"];5.25;1533387334.7945;165.21;1205.15;0.027810903;10;149
49;paravance-27.rennes.grid5000.fr;thermos-root-devel-WordCountTopology-0-057ecb8a-930a-49fc-b529-31b41d802e6e;["topology_master"];5.25;1533387334.79591;5.73;13.08;0.0;9;117
50;paravance-36.rennes.grid5000.fr;thermos-root-devel-WordCountTopology-1-80a63a5d-c8ab-4c28-a846-a00c0b4a5b54;["container_1_Consume_and_count_1"];5.25;1533387345.00962;167.74;1225.19;0.027810903;10;149
50;paravance-32.rennes.grid5000.fr;thermos-root-devel-WordCountTopology-2-6923526d-1d9d-4e04-bd98-0b980ec8df46;["container_2_Emit_random_words_2"];5.25;1533387345.00972;129.39;512.87;0.828142513;10;149
50;paravance-27.rennes.grid5000.fr;thermos-root-devel-WordCountTopology-0-057ecb8a-930a-49fc-b529-31b41d802e6e;["topology_master"];5.25;1533387345.01153;5.76;13.1;0.0;9;117
51;paravance-36.rennes.grid5000.fr;thermos-root-devel-WordCountTopology-1-80a63a5d-c8ab-4c28-a846-a00c0b4a5b54;["container_1_Consume_and_count_1"];5.25;1533387355.22526;170.27;1245.28;0.027810903;10;149
51;paravance-27.rennes.grid5000.fr;thermos-root-devel-WordCountTopology-0-057ecb8a-930a-49fc-b529-31b41d802e6e;["topology_master"];5.25;1533387355.22654;5.85;13.23;0.0;9;117
51;paravance-32.rennes.grid5000.fr;thermos-root-devel-WordCountTopology-2-6923526d-1d9d-4e04-bd98-0b980ec8df46;["container_2_Emit_random_words_2"];5.25;1533387355.22648;131.36;520.08;0.828142513;10;149
52;paravance-36.rennes.grid5000.fr;thermos-root-devel-WordCountTopology-1-80a63a5d-c8ab-4c28-a846-a00c0b4a5b54;["container_1_Consume_and_count_1"];5.25;1533387365.44029;172.99;1265.47;0.027810903;10;149
52;paravance-32.rennes.grid5000.fr;thermos-root-devel-WordCountTopology-2-6923526d-1d9d-4e04-bd98-0b980ec8df46;["container_2_Emit_random_words_2"];5.25;1533387365.44085;133.41;527.68;0.828142513;10;149
52;paravance-27.rennes.grid5000.fr;thermos-root-devel-WordCountTopology-0-057ecb8a-930a-49fc-b529-31b41d802e6e;["topology_master"];5.25;1533387365.44244;5.91;13.31;0.0;9;117
53;paravance-36.rennes.grid5000.fr;thermos-root-devel-WordCountTopology-1-80a63a5d-c8ab-4c28-a846-a00c0b4a5b54;["container_1_Consume_and_count_1"];5.25;1533387375.65508;175.63;1284.99;0.027810903;10;149
53;paravance-27.rennes.grid5000.fr;thermos-root-devel-WordCountTopology-0-057ecb8a-930a-49fc-b529-31b41d802e6e;["topology_master"];5.25;1533387375.65609;5.98;13.43;0.0;9;117
53;paravance-32.rennes.grid5000.fr;thermos-root-devel-WordCountTopology-2-6923526d-1d9d-4e04-bd98-0b980ec8df46;["container_2_Emit_random_words_2"];5.25;1533387375.65587;135.4;534.83;0.828142513;10;149
54;paravance-36.rennes.grid5000.fr;thermos-root-devel-WordCountTopology-1-80a63a5d-c8ab-4c28-a846-a00c0b4a5b54;["container_1_Consume_and_count_1"];5.25;1533387385.87062;178.4;1304.79;0.027810903;10;149
54;paravance-27.rennes.grid5000.fr;thermos-root-devel-WordCountTopology-0-057ecb8a-930a-49fc-b529-31b41d802e6e;["topology_master"];5.25;1533387385.87103;6.04;13.51;0.0;9;117
54;paravance-32.rennes.grid5000.fr;thermos-root-devel-WordCountTopology-2-6923526d-1d9d-4e04-bd98-0b980ec8df46;["container_2_Emit_random_words_2"];5.25;1533387385.87083;137.46;542.64;0.828142513;10;149
55;paravance-36.rennes.grid5000.fr;thermos-root-devel-WordCountTopology-1-80a63a5d-c8ab-4c28-a846-a00c0b4a5b54;["container_1_Consume_and_count_1"];5.25;1533387396.08599;181.16;1324.2;0.027810903;10;149
55;paravance-27.rennes.grid5000.fr;thermos-root-devel-WordCountTopology-0-057ecb8a-930a-49fc-b529-31b41d802e6e;["topology_master"];5.25;1533387396.08741;6.13;13.64;0.0;9;117
55;paravance-32.rennes.grid5000.fr;thermos-root-devel-WordCountTopology-2-6923526d-1d9d-4e04-bd98-0b980ec8df46;["container_2_Emit_random_words_2"];5.25;1533387396.08759;139.49;550.16;0.828142513;10;149
56;paravance-36.rennes.grid5000.fr;thermos-root-devel-WordCountTopology-1-80a63a5d-c8ab-4c28-a846-a00c0b4a5b54;["container_1_Consume_and_count_1"];5.25;1533387406.302;183.75;1343.94;0.027810903;10;149
56;paravance-32.rennes.grid5000.fr;thermos-root-devel-WordCountTopology-2-6923526d-1d9d-4e04-bd98-0b980ec8df46;["container_2_Emit_random_words_2"];5.25;1533387406.30306;141.48;557.52;0.828142513;10;149
56;paravance-27.rennes.grid5000.fr;thermos-root-devel-WordCountTopology-0-057ecb8a-930a-49fc-b529-31b41d802e6e;["topology_master"];5.25;1533387406.30353;6.15;13.66;0.0;9;117
57;paravance-36.rennes.grid5000.fr;thermos-root-devel-WordCountTopology-1-80a63a5d-c8ab-4c28-a846-a00c0b4a5b54;["container_1_Consume_and_count_1"];5.25;1533387416.51898;186.45;1364.08;0.027810903;10;149
57;paravance-32.rennes.grid5000.fr;thermos-root-devel-WordCountTopology-2-6923526d-1d9d-4e04-bd98-0b980ec8df46;["container_2_Emit_random_words_2"];5.25;1533387416.51934;143.6;565.27;0.828142513;10;149
57;paravance-27.rennes.grid5000.fr;thermos-root-devel-WordCountTopology-0-057ecb8a-930a-49fc-b529-31b41d802e6e;["topology_master"];5.25;1533387416.52031;6.24;13.78;0.0;9;117
58;paravance-36.rennes.grid5000.fr;thermos-root-devel-WordCountTopology-1-80a63a5d-c8ab-4c28-a846-a00c0b4a5b54;["container_1_Consume_and_count_1"];5.25;1533387426.73577;189.08;1383.12;0.027810903;10;149
58;paravance-32.rennes.grid5000.fr;thermos-root-devel-WordCountTopology-2-6923526d-1d9d-4e04-bd98-0b980ec8df46;["container_2_Emit_random_words_2"];5.25;1533387426.7364;145.51;572.58;0.828142513;10;149
58;paravance-27.rennes.grid5000.fr;thermos-root-devel-WordCountTopology-0-057ecb8a-930a-49fc-b529-31b41d802e6e;["topology_master"];5.25;1533387426.73727;6.3;13.86;0.0;9;117
59;paravance-27.rennes.grid5000.fr;thermos-root-devel-WordCountTopology-0-057ecb8a-930a-49fc-b529-31b41d802e6e;["topology_master"];5.25;1533387436.85114;6.37;13.98;0.0;9;117
59;paravance-36.rennes.grid5000.fr;thermos-root-devel-WordCountTopology-1-80a63a5d-c8ab-4c28-a846-a00c0b4a5b54;["container_1_Consume_and_count_1"];5.25;1533387436.9496;192.02;1402.56;0.027810903;10;149
59;paravance-32.rennes.grid5000.fr;thermos-root-devel-WordCountTopology-2-6923526d-1d9d-4e04-bd98-0b980ec8df46;["container_2_Emit_random_words_2"];5.25;1533387436.95027;147.73;580.84;0.828142513;10;149
60;paravance-36.rennes.grid5000.fr;thermos-root-devel-WordCountTopology-1-80a63a5d-c8ab-4c28-a846-a00c0b4a5b54;["container_1_Consume_and_count_1"];5.25;1533387447.16343;194.57;1421.96;0.027810903;10;149
60;paravance-32.rennes.grid5000.fr;thermos-root-devel-WordCountTopology-2-6923526d-1d9d-4e04-bd98-0b980ec8df46;["container_2_Emit_random_words_2"];5.25;1533387447.1639;149.59;587.73;0.828142513;10;149
60;paravance-27.rennes.grid5000.fr;thermos-root-devel-WordCountTopology-0-057ecb8a-930a-49fc-b529-31b41d802e6e;["topology_master"];5.25;1533387447.16504;6.43;14.05;0.0;9;117
