mesure_id;slave_id;executor_id;heron_instances;cpus_limit;timestamp_B;cpus_system_time_secs_B;cpus_user_time_secs_B;cpus_throttled_time_secs_B;processes;threads
0;paravance-10.rennes.grid5000.fr;thermos-root-devel-WordCountTopology-1-aa9a7767-7783-4924-a515-b672efadf889;["container_1_Consume_and_count_1"];3.25;1533810878.35254;32.41;236.48;1.870067039;10;149
0;paravance-13.rennes.grid5000.fr;thermos-root-devel-WordCountTopology-2-64700a9b-435d-44d8-8ffb-0fe8a91d715d;["container_2_Emit_random_words_2"];3.25;1533810878.38425;20.21;233.1;6.290202579;10;149
0;paravance-12.rennes.grid5000.fr;thermos-root-devel-WordCountTopology-0-5ee4dbc7-e3b6-4244-8514-0dbecd8c47af;["topology_master"];3.25;1533810878.34071;2.53;8.29;0.0;9;117
1;paravance-10.rennes.grid5000.fr;thermos-root-devel-WordCountTopology-1-aa9a7767-7783-4924-a515-b672efadf889;["container_1_Consume_and_count_1"];3.25;1533810888.57682;34.85;255.67;1.900410683;10;149
1;paravance-13.rennes.grid5000.fr;thermos-root-devel-WordCountTopology-2-64700a9b-435d-44d8-8ffb-0fe8a91d715d;["container_2_Emit_random_words_2"];3.25;1533810888.60449;21.59;249.38;6.290202579;10;149
1;paravance-12.rennes.grid5000.fr;thermos-root-devel-WordCountTopology-0-5ee4dbc7-e3b6-4244-8514-0dbecd8c47af;["topology_master"];3.25;1533810888.56102;2.62;8.42;0.0;9;117
2;paravance-12.rennes.grid5000.fr;thermos-root-devel-WordCountTopology-0-5ee4dbc7-e3b6-4244-8514-0dbecd8c47af;["topology_master"];3.25;1533810898.68056;2.65;8.45;0.0;9;117
2;paravance-13.rennes.grid5000.fr;thermos-root-devel-WordCountTopology-2-64700a9b-435d-44d8-8ffb-0fe8a91d715d;["container_2_Emit_random_words_2"];3.25;1533810898.82382;22.81;264.38;6.290202579;10;149
2;paravance-10.rennes.grid5000.fr;thermos-root-devel-WordCountTopology-1-aa9a7767-7783-4924-a515-b672efadf889;["container_1_Consume_and_count_1"];3.25;1533810898.79962;37.07;274.28;1.920749565;10;149
3;paravance-13.rennes.grid5000.fr;thermos-root-devel-WordCountTopology-2-64700a9b-435d-44d8-8ffb-0fe8a91d715d;["container_2_Emit_random_words_2"];3.25;1533810909.04379;24.2;280.81;6.290202579;10;149
3;paravance-10.rennes.grid5000.fr;thermos-root-devel-WordCountTopology-1-aa9a7767-7783-4924-a515-b672efadf889;["container_1_Consume_and_count_1"];3.25;1533810909.01845;39.3;294.29;2.110239327;10;149
3;paravance-12.rennes.grid5000.fr;thermos-root-devel-WordCountTopology-0-5ee4dbc7-e3b6-4244-8514-0dbecd8c47af;["topology_master"];3.25;1533810909.0009;2.74;8.57;0.0;9;117
4;paravance-10.rennes.grid5000.fr;thermos-root-devel-WordCountTopology-1-aa9a7767-7783-4924-a515-b672efadf889;["container_1_Consume_and_count_1"];3.25;1533810919.23944;41.59;313.43;2.115221;10;149
4;paravance-12.rennes.grid5000.fr;thermos-root-devel-WordCountTopology-0-5ee4dbc7-e3b6-4244-8514-0dbecd8c47af;["topology_master"];3.25;1533810919.22201;2.81;8.65;0.0;9;117
4;paravance-13.rennes.grid5000.fr;thermos-root-devel-WordCountTopology-2-64700a9b-435d-44d8-8ffb-0fe8a91d715d;["container_2_Emit_random_words_2"];3.25;1533810919.26587;25.62;298.25;6.290202579;10;149
5;paravance-13.rennes.grid5000.fr;thermos-root-devel-WordCountTopology-2-64700a9b-435d-44d8-8ffb-0fe8a91d715d;["container_2_Emit_random_words_2"];3.25;1533810929.48621;27.11;315.86;6.290202579;10;149
5;paravance-10.rennes.grid5000.fr;thermos-root-devel-WordCountTopology-1-aa9a7767-7783-4924-a515-b672efadf889;["container_1_Consume_and_count_1"];3.25;1533810929.46113;43.95;332.98;2.160093174;10;149
5;paravance-12.rennes.grid5000.fr;thermos-root-devel-WordCountTopology-0-5ee4dbc7-e3b6-4244-8514-0dbecd8c47af;["topology_master"];3.25;1533810929.44317;2.89;8.78;0.0;9;117
6;paravance-10.rennes.grid5000.fr;thermos-root-devel-WordCountTopology-1-aa9a7767-7783-4924-a515-b672efadf889;["container_1_Consume_and_count_1"];3.25;1533810939.68038;46.22;352.04;2.168268042;10;149
6;paravance-13.rennes.grid5000.fr;thermos-root-devel-WordCountTopology-2-64700a9b-435d-44d8-8ffb-0fe8a91d715d;["container_2_Emit_random_words_2"];3.25;1533810939.70648;28.51;333.36;6.290202579;10;149
6;paravance-12.rennes.grid5000.fr;thermos-root-devel-WordCountTopology-0-5ee4dbc7-e3b6-4244-8514-0dbecd8c47af;["topology_master"];3.25;1533810939.66369;2.95;8.91;0.0;9;117
7;paravance-10.rennes.grid5000.fr;thermos-root-devel-WordCountTopology-1-aa9a7767-7783-4924-a515-b672efadf889;["container_1_Consume_and_count_1"];3.25;1533810949.89923;48.76;371.72;2.209515226;10;149
7;paravance-13.rennes.grid5000.fr;thermos-root-devel-WordCountTopology-2-64700a9b-435d-44d8-8ffb-0fe8a91d715d;["container_2_Emit_random_words_2"];3.25;1533810949.92447;30.05;352.06;6.290202579;10;149
7;paravance-12.rennes.grid5000.fr;thermos-root-devel-WordCountTopology-0-5ee4dbc7-e3b6-4244-8514-0dbecd8c47af;["topology_master"];3.25;1533810949.88177;3.04;9.04;0.0;9;117
8;paravance-10.rennes.grid5000.fr;thermos-root-devel-WordCountTopology-1-aa9a7767-7783-4924-a515-b672efadf889;["container_1_Consume_and_count_1"];3.25;1533810960.11814;50.9;390.75;2.2395766;10;149
8;paravance-13.rennes.grid5000.fr;thermos-root-devel-WordCountTopology-2-64700a9b-435d-44d8-8ffb-0fe8a91d715d;["container_2_Emit_random_words_2"];3.25;1533810960.14373;31.46;369.33;6.290202579;10;149
8;paravance-12.rennes.grid5000.fr;thermos-root-devel-WordCountTopology-0-5ee4dbc7-e3b6-4244-8514-0dbecd8c47af;["topology_master"];3.25;1533810960.10106;3.1;9.12;0.0;9;117
9;paravance-10.rennes.grid5000.fr;thermos-root-devel-WordCountTopology-1-aa9a7767-7783-4924-a515-b672efadf889;["container_1_Consume_and_count_1"];3.25;1533810970.33757;53.14;410.31;2.306954067;10;149
9;paravance-13.rennes.grid5000.fr;thermos-root-devel-WordCountTopology-2-64700a9b-435d-44d8-8ffb-0fe8a91d715d;["container_2_Emit_random_words_2"];3.25;1533810970.36319;32.8;385.34;6.290202579;10;149
9;paravance-12.rennes.grid5000.fr;thermos-root-devel-WordCountTopology-0-5ee4dbc7-e3b6-4244-8514-0dbecd8c47af;["topology_master"];3.25;1533810970.3198;3.16;9.2;0.0;9;117
10;paravance-10.rennes.grid5000.fr;thermos-root-devel-WordCountTopology-1-aa9a7767-7783-4924-a515-b672efadf889;["container_1_Consume_and_count_1"];3.25;1533810980.55855;55.37;429.59;2.322016808;10;149
10;paravance-12.rennes.grid5000.fr;thermos-root-devel-WordCountTopology-0-5ee4dbc7-e3b6-4244-8514-0dbecd8c47af;["topology_master"];3.25;1533810980.54091;3.22;9.27;0.0;9;117
10;paravance-13.rennes.grid5000.fr;thermos-root-devel-WordCountTopology-2-64700a9b-435d-44d8-8ffb-0fe8a91d715d;["container_2_Emit_random_words_2"];3.25;1533810980.58498;34.23;402.93;6.290202579;10;149
11;paravance-13.rennes.grid5000.fr;thermos-root-devel-WordCountTopology-2-64700a9b-435d-44d8-8ffb-0fe8a91d715d;["container_2_Emit_random_words_2"];3.25;1533810990.80102;35.74;420.51;6.290202579;10;149
11;paravance-10.rennes.grid5000.fr;thermos-root-devel-WordCountTopology-1-aa9a7767-7783-4924-a515-b672efadf889;["container_1_Consume_and_count_1"];3.25;1533810990.77687;57.57;448.42;2.426570309;10;149
11;paravance-12.rennes.grid5000.fr;thermos-root-devel-WordCountTopology-0-5ee4dbc7-e3b6-4244-8514-0dbecd8c47af;["topology_master"];3.25;1533810990.75986;3.35;9.49;0.0;9;117
12;paravance-13.rennes.grid5000.fr;thermos-root-devel-WordCountTopology-2-64700a9b-435d-44d8-8ffb-0fe8a91d715d;["container_2_Emit_random_words_2"];3.25;1533811001.02087;37.12;438.09;6.290202579;10;149
12;paravance-10.rennes.grid5000.fr;thermos-root-devel-WordCountTopology-1-aa9a7767-7783-4924-a515-b672efadf889;["container_1_Consume_and_count_1"];3.25;1533811000.99891;59.98;468.49;2.525221004;10;149
12;paravance-12.rennes.grid5000.fr;thermos-root-devel-WordCountTopology-0-5ee4dbc7-e3b6-4244-8514-0dbecd8c47af;["topology_master"];3.25;1533811000.97991;3.38;9.51;0.0;9;117
13;paravance-10.rennes.grid5000.fr;thermos-root-devel-WordCountTopology-1-aa9a7767-7783-4924-a515-b672efadf889;["container_1_Consume_and_count_1"];3.25;1533811011.21715;62.51;488.55;2.594045114;10;149
13;paravance-12.rennes.grid5000.fr;thermos-root-devel-WordCountTopology-0-5ee4dbc7-e3b6-4244-8514-0dbecd8c47af;["topology_master"];3.25;1533811011.20121;3.47;9.65;0.0;9;117
13;paravance-13.rennes.grid5000.fr;thermos-root-devel-WordCountTopology-2-64700a9b-435d-44d8-8ffb-0fe8a91d715d;["container_2_Emit_random_words_2"];3.25;1533811011.24424;38.6;455.73;6.290202579;10;149
14;paravance-10.rennes.grid5000.fr;thermos-root-devel-WordCountTopology-1-aa9a7767-7783-4924-a515-b672efadf889;["container_1_Consume_and_count_1"];3.25;1533811021.43987;64.93;507.25;2.622581365;10;149
14;paravance-13.rennes.grid5000.fr;thermos-root-devel-WordCountTopology-2-64700a9b-435d-44d8-8ffb-0fe8a91d715d;["container_2_Emit_random_words_2"];3.25;1533811021.46576;40.15;474.5;6.290202579;10;149
14;paravance-12.rennes.grid5000.fr;thermos-root-devel-WordCountTopology-0-5ee4dbc7-e3b6-4244-8514-0dbecd8c47af;["topology_master"];3.25;1533811021.42379;3.52;9.72;0.0;9;117
15;paravance-10.rennes.grid5000.fr;thermos-root-devel-WordCountTopology-1-aa9a7767-7783-4924-a515-b672efadf889;["container_1_Consume_and_count_1"];3.25;1533811031.65951;67.03;523.27;2.622581365;10;149
15;paravance-12.rennes.grid5000.fr;thermos-root-devel-WordCountTopology-0-5ee4dbc7-e3b6-4244-8514-0dbecd8c47af;["topology_master"];3.25;1533811031.64218;3.58;9.8;0.0;9;117
15;paravance-13.rennes.grid5000.fr;thermos-root-devel-WordCountTopology-2-64700a9b-435d-44d8-8ffb-0fe8a91d715d;["container_2_Emit_random_words_2"];3.25;1533811031.68605;41.66;493.19;6.290202579;10;149
16;paravance-10.rennes.grid5000.fr;thermos-root-devel-WordCountTopology-1-aa9a7767-7783-4924-a515-b672efadf889;["container_1_Consume_and_count_1"];3.25;1533811041.87946;69.46;538.71;2.622581365;10;149
16;paravance-13.rennes.grid5000.fr;thermos-root-devel-WordCountTopology-2-64700a9b-435d-44d8-8ffb-0fe8a91d715d;["container_2_Emit_random_words_2"];3.25;1533811041.90595;43.19;511.99;6.290202579;10;149
16;paravance-12.rennes.grid5000.fr;thermos-root-devel-WordCountTopology-0-5ee4dbc7-e3b6-4244-8514-0dbecd8c47af;["topology_master"];3.25;1533811041.86289;3.64;9.87;0.0;9;117
17;paravance-10.rennes.grid5000.fr;thermos-root-devel-WordCountTopology-1-aa9a7767-7783-4924-a515-b672efadf889;["container_1_Consume_and_count_1"];3.25;1533811052.09805;71.8;554.94;2.622581365;10;149
17;paravance-13.rennes.grid5000.fr;thermos-root-devel-WordCountTopology-2-64700a9b-435d-44d8-8ffb-0fe8a91d715d;["container_2_Emit_random_words_2"];3.25;1533811052.12551;44.78;530.96;6.290202579;10;149
17;paravance-12.rennes.grid5000.fr;thermos-root-devel-WordCountTopology-0-5ee4dbc7-e3b6-4244-8514-0dbecd8c47af;["topology_master"];3.25;1533811052.08324;3.76;10.13;0.0;9;117
18;paravance-13.rennes.grid5000.fr;thermos-root-devel-WordCountTopology-2-64700a9b-435d-44d8-8ffb-0fe8a91d715d;["container_2_Emit_random_words_2"];3.25;1533811062.34404;46.28;549.69;6.290202579;10;149
18;paravance-10.rennes.grid5000.fr;thermos-root-devel-WordCountTopology-1-aa9a7767-7783-4924-a515-b672efadf889;["container_1_Consume_and_count_1"];3.25;1533811062.32081;73.98;570.19;2.622581365;10;149
18;paravance-12.rennes.grid5000.fr;thermos-root-devel-WordCountTopology-0-5ee4dbc7-e3b6-4244-8514-0dbecd8c47af;["topology_master"];3.25;1533811062.30287;3.79;10.16;0.0;9;117
19;paravance-10.rennes.grid5000.fr;thermos-root-devel-WordCountTopology-1-aa9a7767-7783-4924-a515-b672efadf889;["container_1_Consume_and_count_1"];3.25;1533811072.44035;76.4;585.86;2.622581365;10;149
19;paravance-12.rennes.grid5000.fr;thermos-root-devel-WordCountTopology-0-5ee4dbc7-e3b6-4244-8514-0dbecd8c47af;["topology_master"];3.25;1533811072.523;3.88;10.28;0.0;9;117
19;paravance-13.rennes.grid5000.fr;thermos-root-devel-WordCountTopology-2-64700a9b-435d-44d8-8ffb-0fe8a91d715d;["container_2_Emit_random_words_2"];3.25;1533811072.5673;47.84;568.56;6.290202579;10;149
20;paravance-12.rennes.grid5000.fr;thermos-root-devel-WordCountTopology-0-5ee4dbc7-e3b6-4244-8514-0dbecd8c47af;["topology_master"];3.25;1533811082.64521;3.94;10.35;0.0;9;117
20;paravance-10.rennes.grid5000.fr;thermos-root-devel-WordCountTopology-1-aa9a7767-7783-4924-a515-b672efadf889;["container_1_Consume_and_count_1"];3.25;1533811082.76123;78.71;605.15;2.743307337;10;149
20;paravance-13.rennes.grid5000.fr;thermos-root-devel-WordCountTopology-2-64700a9b-435d-44d8-8ffb-0fe8a91d715d;["container_2_Emit_random_words_2"];3.25;1533811082.78732;49.38;587.35;6.290202579;10;149
21;paravance-10.rennes.grid5000.fr;thermos-root-devel-WordCountTopology-1-aa9a7767-7783-4924-a515-b672efadf889;["container_1_Consume_and_count_1"];3.25;1533811092.98137;81.21;624.63;2.761207412;10;149
21;paravance-12.rennes.grid5000.fr;thermos-root-devel-WordCountTopology-0-5ee4dbc7-e3b6-4244-8514-0dbecd8c47af;["topology_master"];3.25;1533811092.96457;4.0;10.43;0.0;9;117
21;paravance-13.rennes.grid5000.fr;thermos-root-devel-WordCountTopology-2-64700a9b-435d-44d8-8ffb-0fe8a91d715d;["container_2_Emit_random_words_2"];3.25;1533811093.00748;50.81;606.04;6.290202579;10;149
22;paravance-13.rennes.grid5000.fr;thermos-root-devel-WordCountTopology-2-64700a9b-435d-44d8-8ffb-0fe8a91d715d;["container_2_Emit_random_words_2"];3.25;1533811103.22778;52.24;624.71;6.290202579;10;149
22;paravance-10.rennes.grid5000.fr;thermos-root-devel-WordCountTopology-1-aa9a7767-7783-4924-a515-b672efadf889;["container_1_Consume_and_count_1"];3.25;1533811103.20345;83.22;640.64;2.761207412;10;149
22;paravance-12.rennes.grid5000.fr;thermos-root-devel-WordCountTopology-0-5ee4dbc7-e3b6-4244-8514-0dbecd8c47af;["topology_master"];3.25;1533811103.18652;4.06;10.51;0.0;9;117
23;paravance-13.rennes.grid5000.fr;thermos-root-devel-WordCountTopology-2-64700a9b-435d-44d8-8ffb-0fe8a91d715d;["container_2_Emit_random_words_2"];3.25;1533811113.44957;53.74;643.68;6.290202579;10;149
23;paravance-10.rennes.grid5000.fr;thermos-root-devel-WordCountTopology-1-aa9a7767-7783-4924-a515-b672efadf889;["container_1_Consume_and_count_1"];3.25;1533811113.42353;85.73;656.67;2.761207412;10;149
23;paravance-12.rennes.grid5000.fr;thermos-root-devel-WordCountTopology-0-5ee4dbc7-e3b6-4244-8514-0dbecd8c47af;["topology_master"];3.25;1533811113.40725;4.17;10.7;0.0;9;117
24;paravance-10.rennes.grid5000.fr;thermos-root-devel-WordCountTopology-1-aa9a7767-7783-4924-a515-b672efadf889;["container_1_Consume_and_count_1"];3.25;1533811123.64255;88.04;672.67;2.761207412;10;149
24;paravance-12.rennes.grid5000.fr;thermos-root-devel-WordCountTopology-0-5ee4dbc7-e3b6-4244-8514-0dbecd8c47af;["topology_master"];3.25;1533811123.62684;4.19;10.73;0.0;9;117
24;paravance-13.rennes.grid5000.fr;thermos-root-devel-WordCountTopology-2-64700a9b-435d-44d8-8ffb-0fe8a91d715d;["container_2_Emit_random_words_2"];3.25;1533811123.66954;55.19;662.5;6.290202579;10;149
25;paravance-10.rennes.grid5000.fr;thermos-root-devel-WordCountTopology-1-aa9a7767-7783-4924-a515-b672efadf889;["container_1_Consume_and_count_1"];3.25;1533811133.86205;90.33;688.02;2.761207412;10;149
25;paravance-13.rennes.grid5000.fr;thermos-root-devel-WordCountTopology-2-64700a9b-435d-44d8-8ffb-0fe8a91d715d;["container_2_Emit_random_words_2"];3.25;1533811133.88923;56.7;681.47;6.290202579;10;149
25;paravance-12.rennes.grid5000.fr;thermos-root-devel-WordCountTopology-0-5ee4dbc7-e3b6-4244-8514-0dbecd8c47af;["topology_master"];3.25;1533811133.84601;4.28;10.85;0.0;9;117
26;paravance-13.rennes.grid5000.fr;thermos-root-devel-WordCountTopology-2-64700a9b-435d-44d8-8ffb-0fe8a91d715d;["container_2_Emit_random_words_2"];3.25;1533811144.10681;58.17;700.34;6.290202579;10;149
26;paravance-12.rennes.grid5000.fr;thermos-root-devel-WordCountTopology-0-5ee4dbc7-e3b6-4244-8514-0dbecd8c47af;["topology_master"];3.25;1533811144.06728;4.34;10.92;0.0;9;117
26;paravance-10.rennes.grid5000.fr;thermos-root-devel-WordCountTopology-1-aa9a7767-7783-4924-a515-b672efadf889;["container_1_Consume_and_count_1"];3.25;1533811144.08506;92.78;704.36;2.761207412;10;149
27;paravance-10.rennes.grid5000.fr;thermos-root-devel-WordCountTopology-1-aa9a7767-7783-4924-a515-b672efadf889;["container_1_Consume_and_count_1"];3.25;1533811154.30503;94.88;719.8;2.761207412;10;149
27;paravance-13.rennes.grid5000.fr;thermos-root-devel-WordCountTopology-2-64700a9b-435d-44d8-8ffb-0fe8a91d715d;["container_2_Emit_random_words_2"];3.25;1533811154.32352;59.65;719.21;6.290202579;10;149
27;paravance-12.rennes.grid5000.fr;thermos-root-devel-WordCountTopology-0-5ee4dbc7-e3b6-4244-8514-0dbecd8c47af;["topology_master"];3.25;1533811154.28837;4.4;10.99;0.0;9;117
28;paravance-10.rennes.grid5000.fr;thermos-root-devel-WordCountTopology-1-aa9a7767-7783-4924-a515-b672efadf889;["container_1_Consume_and_count_1"];3.25;1533811164.52617;97.34;735.17;2.761207412;10;149
28;paravance-13.rennes.grid5000.fr;thermos-root-devel-WordCountTopology-2-64700a9b-435d-44d8-8ffb-0fe8a91d715d;["container_2_Emit_random_words_2"];3.25;1533811164.53976;61.12;738.06;6.290202579;10;149
28;paravance-12.rennes.grid5000.fr;thermos-root-devel-WordCountTopology-0-5ee4dbc7-e3b6-4244-8514-0dbecd8c47af;["topology_master"];3.25;1533811164.51055;4.45;11.07;0.0;9;117
29;paravance-10.rennes.grid5000.fr;thermos-root-devel-WordCountTopology-1-aa9a7767-7783-4924-a515-b672efadf889;["container_1_Consume_and_count_1"];3.25;1533811174.74676;99.7;751.27;2.761207412;10;149
29;paravance-13.rennes.grid5000.fr;thermos-root-devel-WordCountTopology-2-64700a9b-435d-44d8-8ffb-0fe8a91d715d;["container_2_Emit_random_words_2"];3.25;1533811174.75492;62.65;756.99;6.290202579;10;149
29;paravance-12.rennes.grid5000.fr;thermos-root-devel-WordCountTopology-0-5ee4dbc7-e3b6-4244-8514-0dbecd8c47af;["topology_master"];3.25;1533811174.73096;4.56;11.24;0.0;9;117
30;paravance-13.rennes.grid5000.fr;thermos-root-devel-WordCountTopology-2-64700a9b-435d-44d8-8ffb-0fe8a91d715d;["container_2_Emit_random_words_2"];3.25;1533811184.97042;64.19;775.83;6.290202579;10;149
30;paravance-10.rennes.grid5000.fr;thermos-root-devel-WordCountTopology-1-aa9a7767-7783-4924-a515-b672efadf889;["container_1_Consume_and_count_1"];3.25;1533811184.96854;102.22;767.64;2.761207412;10;149
30;paravance-12.rennes.grid5000.fr;thermos-root-devel-WordCountTopology-0-5ee4dbc7-e3b6-4244-8514-0dbecd8c47af;["topology_master"];3.25;1533811184.95237;4.62;11.32;0.0;9;117
31;paravance-13.rennes.grid5000.fr;thermos-root-devel-WordCountTopology-2-64700a9b-435d-44d8-8ffb-0fe8a91d715d;["container_2_Emit_random_words_2"];3.25;1533811195.187;65.73;794.6;6.290202579;10;149
31;paravance-10.rennes.grid5000.fr;thermos-root-devel-WordCountTopology-1-aa9a7767-7783-4924-a515-b672efadf889;["container_1_Consume_and_count_1"];3.25;1533811195.18584;104.18;783.48;2.761207412;10;149
31;paravance-12.rennes.grid5000.fr;thermos-root-devel-WordCountTopology-0-5ee4dbc7-e3b6-4244-8514-0dbecd8c47af;["topology_master"];3.25;1533811195.17328;4.68;11.39;0.0;9;117
32;paravance-10.rennes.grid5000.fr;thermos-root-devel-WordCountTopology-1-aa9a7767-7783-4924-a515-b672efadf889;["container_1_Consume_and_count_1"];3.25;1533811205.40044;106.16;799.38;2.761207412;10;149
32;paravance-13.rennes.grid5000.fr;thermos-root-devel-WordCountTopology-2-64700a9b-435d-44d8-8ffb-0fe8a91d715d;["container_2_Emit_random_words_2"];3.25;1533811205.40458;67.28;813.37;6.290202579;10;149
32;paravance-12.rennes.grid5000.fr;thermos-root-devel-WordCountTopology-0-5ee4dbc7-e3b6-4244-8514-0dbecd8c47af;["topology_master"];3.25;1533811205.39473;4.77;11.51;0.0;9;117
33;paravance-10.rennes.grid5000.fr;thermos-root-devel-WordCountTopology-1-aa9a7767-7783-4924-a515-b672efadf889;["container_1_Consume_and_count_1"];3.25;1533811215.61692;108.05;814.95;2.761207412;10;149
33;paravance-12.rennes.grid5000.fr;thermos-root-devel-WordCountTopology-0-5ee4dbc7-e3b6-4244-8514-0dbecd8c47af;["topology_master"];3.25;1533811215.61525;4.8;11.54;0.0;9;117
33;paravance-13.rennes.grid5000.fr;thermos-root-devel-WordCountTopology-2-64700a9b-435d-44d8-8ffb-0fe8a91d715d;["container_2_Emit_random_words_2"];3.25;1533811215.6197;68.78;832.12;6.290202579;10;149
34;paravance-10.rennes.grid5000.fr;thermos-root-devel-WordCountTopology-1-aa9a7767-7783-4924-a515-b672efadf889;["container_1_Consume_and_count_1"];3.25;1533811225.8306;110.02;830.76;2.761207412;10;149
34;paravance-13.rennes.grid5000.fr;thermos-root-devel-WordCountTopology-2-64700a9b-435d-44d8-8ffb-0fe8a91d715d;["container_2_Emit_random_words_2"];3.25;1533811225.8347;70.35;850.98;6.290202579;10;149
34;paravance-12.rennes.grid5000.fr;thermos-root-devel-WordCountTopology-0-5ee4dbc7-e3b6-4244-8514-0dbecd8c47af;["topology_master"];3.25;1533811225.8364;4.89;11.67;0.0;9;117
35;paravance-10.rennes.grid5000.fr;thermos-root-devel-WordCountTopology-1-aa9a7767-7783-4924-a515-b672efadf889;["container_1_Consume_and_count_1"];3.25;1533811236.04849;112.05;848.19;2.782725799;10;149
35;paravance-13.rennes.grid5000.fr;thermos-root-devel-WordCountTopology-2-64700a9b-435d-44d8-8ffb-0fe8a91d715d;["container_2_Emit_random_words_2"];3.25;1533811236.0503;71.88;869.71;6.290202579;10;149
35;paravance-12.rennes.grid5000.fr;thermos-root-devel-WordCountTopology-0-5ee4dbc7-e3b6-4244-8514-0dbecd8c47af;["topology_master"];3.25;1533811236.05287;4.96;11.83;0.0;9;117
36;paravance-13.rennes.grid5000.fr;thermos-root-devel-WordCountTopology-2-64700a9b-435d-44d8-8ffb-0fe8a91d715d;["container_2_Emit_random_words_2"];3.25;1533811246.26519;73.11;884.04;6.290202579;10;149
36;paravance-10.rennes.grid5000.fr;thermos-root-devel-WordCountTopology-1-aa9a7767-7783-4924-a515-b672efadf889;["container_1_Consume_and_count_1"];3.25;1533811246.26329;114.1;866.92;2.789409246;10;149
36;paravance-12.rennes.grid5000.fr;thermos-root-devel-WordCountTopology-0-5ee4dbc7-e3b6-4244-8514-0dbecd8c47af;["topology_master"];3.25;1533811246.26934;5.02;11.91;0.0;9;117
37;paravance-13.rennes.grid5000.fr;thermos-root-devel-WordCountTopology-2-64700a9b-435d-44d8-8ffb-0fe8a91d715d;["container_2_Emit_random_words_2"];3.25;1533811256.48058;74.62;902.76;6.290202579;10;149
37;paravance-10.rennes.grid5000.fr;thermos-root-devel-WordCountTopology-1-aa9a7767-7783-4924-a515-b672efadf889;["container_1_Consume_and_count_1"];3.25;1533811256.47952;116.69;886.62;2.790667369;10;149
37;paravance-12.rennes.grid5000.fr;thermos-root-devel-WordCountTopology-0-5ee4dbc7-e3b6-4244-8514-0dbecd8c47af;["topology_master"];3.25;1533811256.48483;5.07;11.98;0.0;9;117
38;paravance-10.rennes.grid5000.fr;thermos-root-devel-WordCountTopology-1-aa9a7767-7783-4924-a515-b672efadf889;["container_1_Consume_and_count_1"];3.25;1533811266.69445;119.17;906.53;2.848852916;10;149
38;paravance-13.rennes.grid5000.fr;thermos-root-devel-WordCountTopology-2-64700a9b-435d-44d8-8ffb-0fe8a91d715d;["container_2_Emit_random_words_2"];3.25;1533811266.69613;76.08;920.35;6.290202579;10;149
38;paravance-12.rennes.grid5000.fr;thermos-root-devel-WordCountTopology-0-5ee4dbc7-e3b6-4244-8514-0dbecd8c47af;["topology_master"];3.25;1533811266.69996;5.16;12.1;0.0;9;117
39;paravance-10.rennes.grid5000.fr;thermos-root-devel-WordCountTopology-1-aa9a7767-7783-4924-a515-b672efadf889;["container_1_Consume_and_count_1"];3.25;1533811276.90947;121.77;927.27;2.927391472;10;149
39;paravance-13.rennes.grid5000.fr;thermos-root-devel-WordCountTopology-2-64700a9b-435d-44d8-8ffb-0fe8a91d715d;["container_2_Emit_random_words_2"];3.25;1533811276.91175;77.62;939.3;6.290202579;10;149
39;paravance-12.rennes.grid5000.fr;thermos-root-devel-WordCountTopology-0-5ee4dbc7-e3b6-4244-8514-0dbecd8c47af;["topology_master"];3.25;1533811276.91476;5.22;12.17;0.0;9;117
40;paravance-13.rennes.grid5000.fr;thermos-root-devel-WordCountTopology-2-64700a9b-435d-44d8-8ffb-0fe8a91d715d;["container_2_Emit_random_words_2"];3.25;1533811287.13331;79.07;956.81;6.290202579;10;149
40;paravance-12.rennes.grid5000.fr;thermos-root-devel-WordCountTopology-0-5ee4dbc7-e3b6-4244-8514-0dbecd8c47af;["topology_master"];3.25;1533811287.1361;5.29;12.26;0.0;9;117
40;paravance-10.rennes.grid5000.fr;thermos-root-devel-WordCountTopology-1-aa9a7767-7783-4924-a515-b672efadf889;["container_1_Consume_and_count_1"];3.25;1533811287.1365;124.02;946.3;2.927410949;10;149
41;paravance-12.rennes.grid5000.fr;thermos-root-devel-WordCountTopology-0-5ee4dbc7-e3b6-4244-8514-0dbecd8c47af;["topology_master"];3.25;1533811297.25517;5.36;12.37;0.0;9;117
41;paravance-10.rennes.grid5000.fr;thermos-root-devel-WordCountTopology-1-aa9a7767-7783-4924-a515-b672efadf889;["container_1_Consume_and_count_1"];3.25;1533811297.34768;126.33;966.9;2.974584207;10;149
41;paravance-13.rennes.grid5000.fr;thermos-root-devel-WordCountTopology-2-64700a9b-435d-44d8-8ffb-0fe8a91d715d;["container_2_Emit_random_words_2"];3.25;1533811297.35124;80.61;975.66;6.290202579;10;149
42;paravance-10.rennes.grid5000.fr;thermos-root-devel-WordCountTopology-1-aa9a7767-7783-4924-a515-b672efadf889;["container_1_Consume_and_count_1"];3.25;1533811307.5597;128.41;985.75;3.088889061;10;149
42;paravance-12.rennes.grid5000.fr;thermos-root-devel-WordCountTopology-0-5ee4dbc7-e3b6-4244-8514-0dbecd8c47af;["topology_master"];3.25;1533811307.56667;5.45;12.49;0.0;9;117
42;paravance-13.rennes.grid5000.fr;thermos-root-devel-WordCountTopology-2-64700a9b-435d-44d8-8ffb-0fe8a91d715d;["container_2_Emit_random_words_2"];3.25;1533811307.56449;81.99;991.7;6.290202579;10;149
43;paravance-10.rennes.grid5000.fr;thermos-root-devel-WordCountTopology-1-aa9a7767-7783-4924-a515-b672efadf889;["container_1_Consume_and_count_1"];3.25;1533811317.77379;130.43;1004.21;3.125110133;10;149
43;paravance-12.rennes.grid5000.fr;thermos-root-devel-WordCountTopology-0-5ee4dbc7-e3b6-4244-8514-0dbecd8c47af;["topology_master"];3.25;1533811317.7801;5.47;12.52;0.0;9;117
43;paravance-13.rennes.grid5000.fr;thermos-root-devel-WordCountTopology-2-64700a9b-435d-44d8-8ffb-0fe8a91d715d;["container_2_Emit_random_words_2"];3.25;1533811317.77846;83.26;1007.42;6.290202579;10;149
44;paravance-10.rennes.grid5000.fr;thermos-root-devel-WordCountTopology-1-aa9a7767-7783-4924-a515-b672efadf889;["container_1_Consume_and_count_1"];3.25;1533811327.99084;132.78;1023.56;3.137250532;10;149
44;paravance-12.rennes.grid5000.fr;thermos-root-devel-WordCountTopology-0-5ee4dbc7-e3b6-4244-8514-0dbecd8c47af;["topology_master"];3.25;1533811327.99714;5.56;12.64;0.0;9;117
44;paravance-13.rennes.grid5000.fr;thermos-root-devel-WordCountTopology-2-64700a9b-435d-44d8-8ffb-0fe8a91d715d;["container_2_Emit_random_words_2"];3.25;1533811327.99336;84.6;1023.65;6.290202579;10;149
45;paravance-10.rennes.grid5000.fr;thermos-root-devel-WordCountTopology-1-aa9a7767-7783-4924-a515-b672efadf889;["container_1_Consume_and_count_1"];3.25;1533811338.20694;135.36;1044.48;3.146174175;10;149
45;paravance-12.rennes.grid5000.fr;thermos-root-devel-WordCountTopology-0-5ee4dbc7-e3b6-4244-8514-0dbecd8c47af;["topology_master"];3.25;1533811338.2182;5.62;12.72;0.0;9;117
45;paravance-13.rennes.grid5000.fr;thermos-root-devel-WordCountTopology-2-64700a9b-435d-44d8-8ffb-0fe8a91d715d;["container_2_Emit_random_words_2"];3.25;1533811338.21653;86.14;1042.25;6.290202579;10;149
46;paravance-10.rennes.grid5000.fr;thermos-root-devel-WordCountTopology-1-aa9a7767-7783-4924-a515-b672efadf889;["container_1_Consume_and_count_1"];3.25;1533811348.42949;137.83;1064.03;3.178399274;10;149
46;paravance-12.rennes.grid5000.fr;thermos-root-devel-WordCountTopology-0-5ee4dbc7-e3b6-4244-8514-0dbecd8c47af;["topology_master"];3.25;1533811348.43498;5.69;12.8;0.0;9;117
46;paravance-13.rennes.grid5000.fr;thermos-root-devel-WordCountTopology-2-64700a9b-435d-44d8-8ffb-0fe8a91d715d;["container_2_Emit_random_words_2"];3.25;1533811348.43385;87.55;1060.87;6.290202579;10;149
47;paravance-10.rennes.grid5000.fr;thermos-root-devel-WordCountTopology-1-aa9a7767-7783-4924-a515-b672efadf889;["container_1_Consume_and_count_1"];3.25;1533811358.64484;140.27;1083.69;3.237893266;10;149
47;paravance-13.rennes.grid5000.fr;thermos-root-devel-WordCountTopology-2-64700a9b-435d-44d8-8ffb-0fe8a91d715d;["container_2_Emit_random_words_2"];3.25;1533811358.64909;88.93;1078.3;6.290202579;10;149
47;paravance-12.rennes.grid5000.fr;thermos-root-devel-WordCountTopology-0-5ee4dbc7-e3b6-4244-8514-0dbecd8c47af;["topology_master"];3.25;1533811358.65268;5.76;12.94;0.0;9;117
48;paravance-10.rennes.grid5000.fr;thermos-root-devel-WordCountTopology-1-aa9a7767-7783-4924-a515-b672efadf889;["container_1_Consume_and_count_1"];3.25;1533811368.86094;143.0;1104.01;3.331412475;10;149
48;paravance-12.rennes.grid5000.fr;thermos-root-devel-WordCountTopology-0-5ee4dbc7-e3b6-4244-8514-0dbecd8c47af;["topology_master"];3.25;1533811368.86844;5.85;13.06;0.0;9;117
48;paravance-13.rennes.grid5000.fr;thermos-root-devel-WordCountTopology-2-64700a9b-435d-44d8-8ffb-0fe8a91d715d;["container_2_Emit_random_words_2"];3.25;1533811368.86509;90.51;1097.21;6.290202579;10;149
49;paravance-10.rennes.grid5000.fr;thermos-root-devel-WordCountTopology-1-aa9a7767-7783-4924-a515-b672efadf889;["container_1_Consume_and_count_1"];3.25;1533811379.07847;145.4;1123.2;3.350129815;10;149
49;paravance-12.rennes.grid5000.fr;thermos-root-devel-WordCountTopology-0-5ee4dbc7-e3b6-4244-8514-0dbecd8c47af;["topology_master"];3.25;1533811379.08402;5.88;13.09;0.0;9;117
49;paravance-13.rennes.grid5000.fr;thermos-root-devel-WordCountTopology-2-64700a9b-435d-44d8-8ffb-0fe8a91d715d;["container_2_Emit_random_words_2"];3.25;1533811379.08186;91.94;1114.82;6.290202579;10;149
50;paravance-10.rennes.grid5000.fr;thermos-root-devel-WordCountTopology-1-aa9a7767-7783-4924-a515-b672efadf889;["container_1_Consume_and_count_1"];3.25;1533811389.29415;147.59;1143.34;3.35924544;10;149
50;paravance-13.rennes.grid5000.fr;thermos-root-devel-WordCountTopology-2-64700a9b-435d-44d8-8ffb-0fe8a91d715d;["container_2_Emit_random_words_2"];3.25;1533811389.29668;93.39;1132.36;6.290202579;10;149
50;paravance-12.rennes.grid5000.fr;thermos-root-devel-WordCountTopology-0-5ee4dbc7-e3b6-4244-8514-0dbecd8c47af;["topology_master"];3.25;1533811389.3007;5.97;13.22;0.0;9;117
51;paravance-10.rennes.grid5000.fr;thermos-root-devel-WordCountTopology-1-aa9a7767-7783-4924-a515-b672efadf889;["container_1_Consume_and_count_1"];3.25;1533811399.51169;150.19;1162.97;3.378695541;10;149
51;paravance-13.rennes.grid5000.fr;thermos-root-devel-WordCountTopology-2-64700a9b-435d-44d8-8ffb-0fe8a91d715d;["container_2_Emit_random_words_2"];3.25;1533811399.51427;94.94;1151.38;6.290202579;10;149
51;paravance-12.rennes.grid5000.fr;thermos-root-devel-WordCountTopology-0-5ee4dbc7-e3b6-4244-8514-0dbecd8c47af;["topology_master"];3.25;1533811399.51893;6.03;13.3;0.0;9;117
52;paravance-12.rennes.grid5000.fr;thermos-root-devel-WordCountTopology-0-5ee4dbc7-e3b6-4244-8514-0dbecd8c47af;["topology_master"];3.25;1533811409.63675;6.1;13.39;0.0;9;117
52;paravance-10.rennes.grid5000.fr;thermos-root-devel-WordCountTopology-1-aa9a7767-7783-4924-a515-b672efadf889;["container_1_Consume_and_count_1"];3.25;1533811409.72833;152.36;1183.21;3.439546744;10;149
52;paravance-13.rennes.grid5000.fr;thermos-root-devel-WordCountTopology-2-64700a9b-435d-44d8-8ffb-0fe8a91d715d;["container_2_Emit_random_words_2"];3.25;1533811409.73127;96.41;1169.01;6.290202579;10;149
53;paravance-10.rennes.grid5000.fr;thermos-root-devel-WordCountTopology-1-aa9a7767-7783-4924-a515-b672efadf889;["container_1_Consume_and_count_1"];3.25;1533811419.84456;154.67;1202.43;3.5196407;10;149
53;paravance-13.rennes.grid5000.fr;thermos-root-devel-WordCountTopology-2-64700a9b-435d-44d8-8ffb-0fe8a91d715d;["container_2_Emit_random_words_2"];3.25;1533811419.94552;97.85;1186.62;6.290202579;10;149
53;paravance-12.rennes.grid5000.fr;thermos-root-devel-WordCountTopology-0-5ee4dbc7-e3b6-4244-8514-0dbecd8c47af;["topology_master"];3.25;1533811419.94975;6.16;13.51;0.0;9;117
54;paravance-13.rennes.grid5000.fr;thermos-root-devel-WordCountTopology-2-64700a9b-435d-44d8-8ffb-0fe8a91d715d;["container_2_Emit_random_words_2"];3.25;1533811430.06216;99.33;1204.22;6.290202579;10;149
54;paravance-10.rennes.grid5000.fr;thermos-root-devel-WordCountTopology-1-aa9a7767-7783-4924-a515-b672efadf889;["container_1_Consume_and_count_1"];3.25;1533811430.15806;157.18;1223.42;3.594948519;10;149
54;paravance-12.rennes.grid5000.fr;thermos-root-devel-WordCountTopology-0-5ee4dbc7-e3b6-4244-8514-0dbecd8c47af;["topology_master"];3.25;1533811430.16604;6.25;13.63;0.0;9;117
55;paravance-10.rennes.grid5000.fr;thermos-root-devel-WordCountTopology-1-aa9a7767-7783-4924-a515-b672efadf889;["container_1_Consume_and_count_1"];3.25;1533811440.37528;159.61;1242.66;3.619259755;10;149
55;paravance-12.rennes.grid5000.fr;thermos-root-devel-WordCountTopology-0-5ee4dbc7-e3b6-4244-8514-0dbecd8c47af;["topology_master"];3.25;1533811440.38197;6.27;13.65;0.0;9;117
55;paravance-13.rennes.grid5000.fr;thermos-root-devel-WordCountTopology-2-64700a9b-435d-44d8-8ffb-0fe8a91d715d;["container_2_Emit_random_words_2"];3.25;1533811440.37929;100.76;1221.87;6.290202579;10;149
56;paravance-13.rennes.grid5000.fr;thermos-root-devel-WordCountTopology-2-64700a9b-435d-44d8-8ffb-0fe8a91d715d;["container_2_Emit_random_words_2"];3.25;1533811450.59424;102.16;1239.28;6.290202579;10;149
56;paravance-10.rennes.grid5000.fr;thermos-root-devel-WordCountTopology-1-aa9a7767-7783-4924-a515-b672efadf889;["container_1_Consume_and_count_1"];3.25;1533811450.59318;162.01;1261.8;3.701057508;10;149
56;paravance-12.rennes.grid5000.fr;thermos-root-devel-WordCountTopology-0-5ee4dbc7-e3b6-4244-8514-0dbecd8c47af;["topology_master"];3.25;1533811450.59973;6.36;13.77;0.0;9;117
57;paravance-10.rennes.grid5000.fr;thermos-root-devel-WordCountTopology-1-aa9a7767-7783-4924-a515-b672efadf889;["container_1_Consume_and_count_1"];3.25;1533811460.70915;164.59;1281.76;3.741426933;10;149
57;paravance-12.rennes.grid5000.fr;thermos-root-devel-WordCountTopology-0-5ee4dbc7-e3b6-4244-8514-0dbecd8c47af;["topology_master"];3.25;1533811460.81558;6.42;13.85;0.0;9;117
57;paravance-13.rennes.grid5000.fr;thermos-root-devel-WordCountTopology-2-64700a9b-435d-44d8-8ffb-0fe8a91d715d;["container_2_Emit_random_words_2"];3.25;1533811460.81131;103.72;1258.12;6.290202579;10;149
58;paravance-13.rennes.grid5000.fr;thermos-root-devel-WordCountTopology-2-64700a9b-435d-44d8-8ffb-0fe8a91d715d;["container_2_Emit_random_words_2"];3.25;1533811471.02727;105.07;1274.29;6.290202579;10;149
58;paravance-12.rennes.grid5000.fr;thermos-root-devel-WordCountTopology-0-5ee4dbc7-e3b6-4244-8514-0dbecd8c47af;["topology_master"];3.25;1533811471.0306;6.49;13.98;0.0;9;117
58;paravance-10.rennes.grid5000.fr;thermos-root-devel-WordCountTopology-1-aa9a7767-7783-4924-a515-b672efadf889;["container_1_Consume_and_count_1"];3.25;1533811471.02443;166.94;1302.07;3.793778452;10;149
59;paravance-10.rennes.grid5000.fr;thermos-root-devel-WordCountTopology-1-aa9a7767-7783-4924-a515-b672efadf889;["container_1_Consume_and_count_1"];3.25;1533811481.23948;169.41;1322.15;3.819993546;10;149
59;paravance-13.rennes.grid5000.fr;thermos-root-devel-WordCountTopology-2-64700a9b-435d-44d8-8ffb-0fe8a91d715d;["container_2_Emit_random_words_2"];3.25;1533811481.24356;106.53;1292.19;6.290202579;10;149
59;paravance-12.rennes.grid5000.fr;thermos-root-devel-WordCountTopology-0-5ee4dbc7-e3b6-4244-8514-0dbecd8c47af;["topology_master"];3.25;1533811481.2476;6.55;14.05;0.0;9;117
60;paravance-12.rennes.grid5000.fr;thermos-root-devel-WordCountTopology-0-5ee4dbc7-e3b6-4244-8514-0dbecd8c47af;["topology_master"];3.25;1533811491.36253;6.64;14.17;0.0;9;117
60;paravance-10.rennes.grid5000.fr;thermos-root-devel-WordCountTopology-1-aa9a7767-7783-4924-a515-b672efadf889;["container_1_Consume_and_count_1"];3.25;1533811491.45561;171.78;1342.04;3.847606683;10;149
60;paravance-13.rennes.grid5000.fr;thermos-root-devel-WordCountTopology-2-64700a9b-435d-44d8-8ffb-0fe8a91d715d;["container_2_Emit_random_words_2"];3.25;1533811491.45778;107.97;1309.38;6.290202579;10;149
