mesure_id;slave_id;executor_id;heron_instances;cpus_limit;timestamp_A;cpus_system_time_secs_A;cpus_user_time_secs_A;cpus_throttled_time_secs_A;processes;threads
0;paravance-36.rennes.grid5000.fr;thermos-root-devel-WordCountTopology-1-c28decff-5648-4209-ba82-ac0e52b9ecc6;["container_1_Consume_and_count_1"];4.25;1532985971.1394;59.8;232.49;0.249537036;10;149
0;paravance-5.rennes.grid5000.fr;thermos-root-devel-WordCountTopology-2-8aba27c8-a916-4a2a-a157-3b2e57e7bca4;["container_2_Emit_random_words_2"];4.25;1532985970.9571;47.74;208.58;2.121964892;10;149
0;paravance-35.rennes.grid5000.fr;thermos-root-devel-WordCountTopology-0-e127954f-03ec-4d96-8c1a-f64468fe0a16;["topology_master"];4.25;1532985971.18956;2.36;8.24;0.0;9;117
1;paravance-36.rennes.grid5000.fr;thermos-root-devel-WordCountTopology-1-c28decff-5648-4209-ba82-ac0e52b9ecc6;["container_1_Consume_and_count_1"];4.25;1532985981.35253;64.25;259.61;0.265715047;10;149
1;paravance-5.rennes.grid5000.fr;thermos-root-devel-WordCountTopology-2-8aba27c8-a916-4a2a-a157-3b2e57e7bca4;["container_2_Emit_random_words_2"];4.25;1532985981.17704;51.07;223.17;2.121964892;10;149
1;paravance-35.rennes.grid5000.fr;thermos-root-devel-WordCountTopology-0-e127954f-03ec-4d96-8c1a-f64468fe0a16;["topology_master"];4.25;1532985981.40278;2.44;8.39;0.0;9;117
2;paravance-5.rennes.grid5000.fr;thermos-root-devel-WordCountTopology-2-8aba27c8-a916-4a2a-a157-3b2e57e7bca4;["container_2_Emit_random_words_2"];4.25;1532985991.39559;54.31;236.88;2.121964892;10;149
2;paravance-35.rennes.grid5000.fr;thermos-root-devel-WordCountTopology-0-e127954f-03ec-4d96-8c1a-f64468fe0a16;["topology_master"];4.25;1532985991.6161;2.53;8.53;0.0;9;117
2;paravance-36.rennes.grid5000.fr;thermos-root-devel-WordCountTopology-1-c28decff-5648-4209-ba82-ac0e52b9ecc6;["container_1_Consume_and_count_1"];4.25;1532985991.56688;68.61;285.6;0.265715047;10;149
3;paravance-36.rennes.grid5000.fr;thermos-root-devel-WordCountTopology-1-c28decff-5648-4209-ba82-ac0e52b9ecc6;["container_1_Consume_and_count_1"];4.25;1532986001.77886;73.29;312.13;0.265715047;10;149
3;paravance-5.rennes.grid5000.fr;thermos-root-devel-WordCountTopology-2-8aba27c8-a916-4a2a-a157-3b2e57e7bca4;["container_2_Emit_random_words_2"];4.25;1532986001.61432;57.8;252.12;2.121964892;10;149
3;paravance-35.rennes.grid5000.fr;thermos-root-devel-WordCountTopology-0-e127954f-03ec-4d96-8c1a-f64468fe0a16;["topology_master"];4.25;1532986001.8307;2.55;8.56;0.0;9;117
4;paravance-5.rennes.grid5000.fr;thermos-root-devel-WordCountTopology-2-8aba27c8-a916-4a2a-a157-3b2e57e7bca4;["container_2_Emit_random_words_2"];4.25;1532986011.83101;61.18;266.52;2.121964892;10;149
4;paravance-35.rennes.grid5000.fr;thermos-root-devel-WordCountTopology-0-e127954f-03ec-4d96-8c1a-f64468fe0a16;["topology_master"];4.25;1532986012.04168;2.64;8.68;0.0;9;117
4;paravance-36.rennes.grid5000.fr;thermos-root-devel-WordCountTopology-1-c28decff-5648-4209-ba82-ac0e52b9ecc6;["container_1_Consume_and_count_1"];4.25;1532986011.99207;77.85;339.31;0.265715047;10;149
5;paravance-5.rennes.grid5000.fr;thermos-root-devel-WordCountTopology-2-8aba27c8-a916-4a2a-a157-3b2e57e7bca4;["container_2_Emit_random_words_2"];4.25;1532986022.05175;64.46;280.07;2.121964892;10;149
5;paravance-36.rennes.grid5000.fr;thermos-root-devel-WordCountTopology-1-c28decff-5648-4209-ba82-ac0e52b9ecc6;["container_1_Consume_and_count_1"];4.25;1532986022.20766;82.23;365.64;0.265715047;10;149
5;paravance-35.rennes.grid5000.fr;thermos-root-devel-WordCountTopology-0-e127954f-03ec-4d96-8c1a-f64468fe0a16;["topology_master"];4.25;1532986022.25845;2.7;8.76;0.0;9;117
6;paravance-5.rennes.grid5000.fr;thermos-root-devel-WordCountTopology-2-8aba27c8-a916-4a2a-a157-3b2e57e7bca4;["container_2_Emit_random_words_2"];4.25;1532986032.26981;67.88;294.88;2.121964892;10;149
6;paravance-36.rennes.grid5000.fr;thermos-root-devel-WordCountTopology-1-c28decff-5648-4209-ba82-ac0e52b9ecc6;["container_1_Consume_and_count_1"];4.25;1532986032.42187;86.8;392.78;0.276237686;10;149
6;paravance-35.rennes.grid5000.fr;thermos-root-devel-WordCountTopology-0-e127954f-03ec-4d96-8c1a-f64468fe0a16;["topology_master"];4.25;1532986032.46955;2.81;8.91;0.0;9;117
7;paravance-36.rennes.grid5000.fr;thermos-root-devel-WordCountTopology-1-c28decff-5648-4209-ba82-ac0e52b9ecc6;["container_1_Consume_and_count_1"];4.25;1532986042.63429;91.41;420.02;0.276237686;10;149
7;paravance-5.rennes.grid5000.fr;thermos-root-devel-WordCountTopology-2-8aba27c8-a916-4a2a-a157-3b2e57e7bca4;["container_2_Emit_random_words_2"];4.25;1532986042.48934;71.35;310.39;2.121964892;10;149
7;paravance-35.rennes.grid5000.fr;thermos-root-devel-WordCountTopology-0-e127954f-03ec-4d96-8c1a-f64468fe0a16;["topology_master"];4.25;1532986042.68533;2.85;9.01;0.0;9;117
8;paravance-36.rennes.grid5000.fr;thermos-root-devel-WordCountTopology-1-c28decff-5648-4209-ba82-ac0e52b9ecc6;["container_1_Consume_and_count_1"];4.25;1532986052.84731;95.65;445.91;0.276237686;10;149
8;paravance-5.rennes.grid5000.fr;thermos-root-devel-WordCountTopology-2-8aba27c8-a916-4a2a-a157-3b2e57e7bca4;["container_2_Emit_random_words_2"];4.25;1532986052.70707;74.4;323.43;2.121964892;10;149
8;paravance-35.rennes.grid5000.fr;thermos-root-devel-WordCountTopology-0-e127954f-03ec-4d96-8c1a-f64468fe0a16;["topology_master"];4.25;1532986052.89779;2.94;9.15;0.0;9;117
9;paravance-35.rennes.grid5000.fr;thermos-root-devel-WordCountTopology-0-e127954f-03ec-4d96-8c1a-f64468fe0a16;["topology_master"];4.25;1532986063.11105;3.0;9.22;0.0;9;117
9;paravance-36.rennes.grid5000.fr;thermos-root-devel-WordCountTopology-1-c28decff-5648-4209-ba82-ac0e52b9ecc6;["container_1_Consume_and_count_1"];4.25;1532986063.06265;100.21;472.76;0.276237686;10;149
9;paravance-5.rennes.grid5000.fr;thermos-root-devel-WordCountTopology-2-8aba27c8-a916-4a2a-a157-3b2e57e7bca4;["container_2_Emit_random_words_2"];4.25;1532986062.92606;77.87;338.06;2.121964892;10;149
10;paravance-36.rennes.grid5000.fr;thermos-root-devel-WordCountTopology-1-c28decff-5648-4209-ba82-ac0e52b9ecc6;["container_1_Consume_and_count_1"];4.25;1532986073.27744;104.73;498.89;0.276237686;10;149
10;paravance-5.rennes.grid5000.fr;thermos-root-devel-WordCountTopology-2-8aba27c8-a916-4a2a-a157-3b2e57e7bca4;["container_2_Emit_random_words_2"];4.25;1532986073.14611;81.2;352.47;2.121964892;10;149
10;paravance-35.rennes.grid5000.fr;thermos-root-devel-WordCountTopology-0-e127954f-03ec-4d96-8c1a-f64468fe0a16;["topology_master"];4.25;1532986073.3258;3.06;9.3;0.0;9;117
11;paravance-5.rennes.grid5000.fr;thermos-root-devel-WordCountTopology-2-8aba27c8-a916-4a2a-a157-3b2e57e7bca4;["container_2_Emit_random_words_2"];4.25;1532986083.36349;84.73;367.56;2.121964892;10;149
11;paravance-36.rennes.grid5000.fr;thermos-root-devel-WordCountTopology-1-c28decff-5648-4209-ba82-ac0e52b9ecc6;["container_1_Consume_and_count_1"];4.25;1532986083.49153;109.41;526.19;0.276242123;10;149
11;paravance-35.rennes.grid5000.fr;thermos-root-devel-WordCountTopology-0-e127954f-03ec-4d96-8c1a-f64468fe0a16;["topology_master"];4.25;1532986083.5409;3.13;9.4;0.0;9;117
12;paravance-35.rennes.grid5000.fr;thermos-root-devel-WordCountTopology-0-e127954f-03ec-4d96-8c1a-f64468fe0a16;["topology_master"];4.25;1532986093.75128;3.26;9.68;0.0;9;117
12;paravance-36.rennes.grid5000.fr;thermos-root-devel-WordCountTopology-1-c28decff-5648-4209-ba82-ac0e52b9ecc6;["container_1_Consume_and_count_1"];4.25;1532986093.70253;113.38;551.74;0.276242123;10;149
12;paravance-5.rennes.grid5000.fr;thermos-root-devel-WordCountTopology-2-8aba27c8-a916-4a2a-a157-3b2e57e7bca4;["container_2_Emit_random_words_2"];4.25;1532986093.58711;87.8;380.24;2.121964892;10;149
13;paravance-5.rennes.grid5000.fr;thermos-root-devel-WordCountTopology-2-8aba27c8-a916-4a2a-a157-3b2e57e7bca4;["container_2_Emit_random_words_2"];4.25;1532986103.80256;90.86;393.26;2.121964892;10;149
13;paravance-35.rennes.grid5000.fr;thermos-root-devel-WordCountTopology-0-e127954f-03ec-4d96-8c1a-f64468fe0a16;["topology_master"];4.25;1532986103.96852;3.28;9.7;0.0;9;117
13;paravance-36.rennes.grid5000.fr;thermos-root-devel-WordCountTopology-1-c28decff-5648-4209-ba82-ac0e52b9ecc6;["container_1_Consume_and_count_1"];4.25;1532986103.92032;117.55;576.85;0.276242123;10;149
14;paravance-5.rennes.grid5000.fr;thermos-root-devel-WordCountTopology-2-8aba27c8-a916-4a2a-a157-3b2e57e7bca4;["container_2_Emit_random_words_2"];4.25;1532986114.02127;94.43;408.44;2.121964892;10;149
14;paravance-35.rennes.grid5000.fr;thermos-root-devel-WordCountTopology-0-e127954f-03ec-4d96-8c1a-f64468fe0a16;["topology_master"];4.25;1532986114.18161;3.38;9.84;0.0;9;117
14;paravance-36.rennes.grid5000.fr;thermos-root-devel-WordCountTopology-1-c28decff-5648-4209-ba82-ac0e52b9ecc6;["container_1_Consume_and_count_1"];4.25;1532986114.13403;122.29;603.9;0.276242123;10;149
15;paravance-5.rennes.grid5000.fr;thermos-root-devel-WordCountTopology-2-8aba27c8-a916-4a2a-a157-3b2e57e7bca4;["container_2_Emit_random_words_2"];4.25;1532986124.23875;97.66;422.19;2.121964892;10;149
15;paravance-36.rennes.grid5000.fr;thermos-root-devel-WordCountTopology-1-c28decff-5648-4209-ba82-ac0e52b9ecc6;["container_1_Consume_and_count_1"];4.25;1532986124.34608;126.79;630.42;0.276242123;10;149
15;paravance-35.rennes.grid5000.fr;thermos-root-devel-WordCountTopology-0-e127954f-03ec-4d96-8c1a-f64468fe0a16;["topology_master"];4.25;1532986124.39553;3.43;9.91;0.0;9;117
16;paravance-36.rennes.grid5000.fr;thermos-root-devel-WordCountTopology-1-c28decff-5648-4209-ba82-ac0e52b9ecc6;["container_1_Consume_and_count_1"];4.25;1532986134.55802;131.22;657.67;0.276242123;10;149
16;paravance-5.rennes.grid5000.fr;thermos-root-devel-WordCountTopology-2-8aba27c8-a916-4a2a-a157-3b2e57e7bca4;["container_2_Emit_random_words_2"];4.25;1532986134.45852;100.9;435.87;2.121964892;10;149
16;paravance-35.rennes.grid5000.fr;thermos-root-devel-WordCountTopology-0-e127954f-03ec-4d96-8c1a-f64468fe0a16;["topology_master"];4.25;1532986134.60993;3.49;9.99;0.0;9;117
17;paravance-35.rennes.grid5000.fr;thermos-root-devel-WordCountTopology-0-e127954f-03ec-4d96-8c1a-f64468fe0a16;["topology_master"];4.25;1532986144.82098;3.55;10.06;0.0;9;117
17;paravance-5.rennes.grid5000.fr;thermos-root-devel-WordCountTopology-2-8aba27c8-a916-4a2a-a157-3b2e57e7bca4;["container_2_Emit_random_words_2"];4.25;1532986144.67714;104.45;451.06;2.121964892;10;149
17;paravance-36.rennes.grid5000.fr;thermos-root-devel-WordCountTopology-1-c28decff-5648-4209-ba82-ac0e52b9ecc6;["container_1_Consume_and_count_1"];4.25;1532986144.77329;135.91;685.12;0.288440212;10;149
18;paravance-36.rennes.grid5000.fr;thermos-root-devel-WordCountTopology-1-c28decff-5648-4209-ba82-ac0e52b9ecc6;["container_1_Consume_and_count_1"];4.25;1532986154.98741;140.13;711.25;0.334053596;10;149
18;paravance-35.rennes.grid5000.fr;thermos-root-devel-WordCountTopology-0-e127954f-03ec-4d96-8c1a-f64468fe0a16;["topology_master"];4.25;1532986155.0348;3.67;10.29;0.0;9;117
18;paravance-5.rennes.grid5000.fr;thermos-root-devel-WordCountTopology-2-8aba27c8-a916-4a2a-a157-3b2e57e7bca4;["container_2_Emit_random_words_2"];4.25;1532986154.89652;107.67;464.79;2.121964892;10;149
19;paravance-35.rennes.grid5000.fr;thermos-root-devel-WordCountTopology-0-e127954f-03ec-4d96-8c1a-f64468fe0a16;["topology_master"];4.25;1532986165.14867;3.7;10.31;0.0;9;117
19;paravance-36.rennes.grid5000.fr;thermos-root-devel-WordCountTopology-1-c28decff-5648-4209-ba82-ac0e52b9ecc6;["container_1_Consume_and_count_1"];4.25;1532986165.1985;144.79;738.34;0.334053596;10;149
19;paravance-5.rennes.grid5000.fr;thermos-root-devel-WordCountTopology-2-8aba27c8-a916-4a2a-a157-3b2e57e7bca4;["container_2_Emit_random_words_2"];4.25;1532986165.11367;111.02;478.97;2.121964892;10;149
20;paravance-5.rennes.grid5000.fr;thermos-root-devel-WordCountTopology-2-8aba27c8-a916-4a2a-a157-3b2e57e7bca4;["container_2_Emit_random_words_2"];4.25;1532986175.33045;114.24;492.64;2.121964892;10;149
20;paravance-35.rennes.grid5000.fr;thermos-root-devel-WordCountTopology-0-e127954f-03ec-4d96-8c1a-f64468fe0a16;["topology_master"];4.25;1532986175.45941;3.78;10.43;0.0;9;117
20;paravance-36.rennes.grid5000.fr;thermos-root-devel-WordCountTopology-1-c28decff-5648-4209-ba82-ac0e52b9ecc6;["container_1_Consume_and_count_1"];4.25;1532986175.41143;149.01;763.64;0.334053596;10;149
21;paravance-5.rennes.grid5000.fr;thermos-root-devel-WordCountTopology-2-8aba27c8-a916-4a2a-a157-3b2e57e7bca4;["container_2_Emit_random_words_2"];4.25;1532986185.54822;117.65;507.23;2.121964892;10;149
21;paravance-35.rennes.grid5000.fr;thermos-root-devel-WordCountTopology-0-e127954f-03ec-4d96-8c1a-f64468fe0a16;["topology_master"];4.25;1532986185.6729;3.84;10.51;0.0;9;117
21;paravance-36.rennes.grid5000.fr;thermos-root-devel-WordCountTopology-1-c28decff-5648-4209-ba82-ac0e52b9ecc6;["container_1_Consume_and_count_1"];4.25;1532986185.62455;153.53;790.06;0.334053596;10;149
22;paravance-36.rennes.grid5000.fr;thermos-root-devel-WordCountTopology-1-c28decff-5648-4209-ba82-ac0e52b9ecc6;["container_1_Consume_and_count_1"];4.25;1532986195.83645;158.05;816.16;0.334053596;10;149
22;paravance-5.rennes.grid5000.fr;thermos-root-devel-WordCountTopology-2-8aba27c8-a916-4a2a-a157-3b2e57e7bca4;["container_2_Emit_random_words_2"];4.25;1532986195.76715;121.04;522.35;2.121964892;10;149
22;paravance-35.rennes.grid5000.fr;thermos-root-devel-WordCountTopology-0-e127954f-03ec-4d96-8c1a-f64468fe0a16;["topology_master"];4.25;1532986195.88664;3.9;10.58;0.0;9;117
23;paravance-36.rennes.grid5000.fr;thermos-root-devel-WordCountTopology-1-c28decff-5648-4209-ba82-ac0e52b9ecc6;["container_1_Consume_and_count_1"];4.25;1532986206.05001;162.3;842.72;0.334053596;10;149
23;paravance-35.rennes.grid5000.fr;thermos-root-devel-WordCountTopology-0-e127954f-03ec-4d96-8c1a-f64468fe0a16;["topology_master"];4.25;1532986206.09923;3.95;10.65;0.0;9;117
23;paravance-5.rennes.grid5000.fr;thermos-root-devel-WordCountTopology-2-8aba27c8-a916-4a2a-a157-3b2e57e7bca4;["container_2_Emit_random_words_2"];4.25;1532986205.98574;124.32;536.4;2.121964892;10;149
24;paravance-5.rennes.grid5000.fr;thermos-root-devel-WordCountTopology-2-8aba27c8-a916-4a2a-a157-3b2e57e7bca4;["container_2_Emit_random_words_2"];4.25;1532986216.10351;127.4;549.35;2.121964892;10;149
24;paravance-36.rennes.grid5000.fr;thermos-root-devel-WordCountTopology-1-c28decff-5648-4209-ba82-ac0e52b9ecc6;["container_1_Consume_and_count_1"];4.25;1532986216.26378;166.57;867.71;0.334053596;10;149
24;paravance-35.rennes.grid5000.fr;thermos-root-devel-WordCountTopology-0-e127954f-03ec-4d96-8c1a-f64468fe0a16;["topology_master"];4.25;1532986216.31434;4.07;10.84;0.0;9;117
25;paravance-5.rennes.grid5000.fr;thermos-root-devel-WordCountTopology-2-8aba27c8-a916-4a2a-a157-3b2e57e7bca4;["container_2_Emit_random_words_2"];4.25;1532986226.42085;130.72;563.09;2.121964892;10;149
25;paravance-36.rennes.grid5000.fr;thermos-root-devel-WordCountTopology-1-c28decff-5648-4209-ba82-ac0e52b9ecc6;["container_1_Consume_and_count_1"];4.25;1532986226.47737;171.04;893.58;0.334053596;10;149
25;paravance-35.rennes.grid5000.fr;thermos-root-devel-WordCountTopology-0-e127954f-03ec-4d96-8c1a-f64468fe0a16;["topology_master"];4.25;1532986226.52671;4.09;10.87;0.0;9;117
26;paravance-36.rennes.grid5000.fr;thermos-root-devel-WordCountTopology-1-c28decff-5648-4209-ba82-ac0e52b9ecc6;["container_1_Consume_and_count_1"];4.25;1532986236.68943;175.56;920.3;0.334053596;10;149
26;paravance-5.rennes.grid5000.fr;thermos-root-devel-WordCountTopology-2-8aba27c8-a916-4a2a-a157-3b2e57e7bca4;["container_2_Emit_random_words_2"];4.25;1532986236.64089;134.01;577.09;2.121964892;10;149
26;paravance-35.rennes.grid5000.fr;thermos-root-devel-WordCountTopology-0-e127954f-03ec-4d96-8c1a-f64468fe0a16;["topology_master"];4.25;1532986236.73961;4.18;10.99;0.0;9;117
27;paravance-36.rennes.grid5000.fr;thermos-root-devel-WordCountTopology-1-c28decff-5648-4209-ba82-ac0e52b9ecc6;["container_1_Consume_and_count_1"];4.25;1532986246.90296;179.95;945.56;0.334053596;10;149
27;paravance-35.rennes.grid5000.fr;thermos-root-devel-WordCountTopology-0-e127954f-03ec-4d96-8c1a-f64468fe0a16;["topology_master"];4.25;1532986246.95256;4.23;11.06;0.0;9;117
27;paravance-5.rennes.grid5000.fr;thermos-root-devel-WordCountTopology-2-8aba27c8-a916-4a2a-a157-3b2e57e7bca4;["container_2_Emit_random_words_2"];4.25;1532986246.85983;137.26;590.73;2.121964892;10;149
28;paravance-36.rennes.grid5000.fr;thermos-root-devel-WordCountTopology-1-c28decff-5648-4209-ba82-ac0e52b9ecc6;["container_1_Consume_and_count_1"];4.25;1532986257.11674;184.36;972.15;0.334053596;10;149
28;paravance-5.rennes.grid5000.fr;thermos-root-devel-WordCountTopology-2-8aba27c8-a916-4a2a-a157-3b2e57e7bca4;["container_2_Emit_random_words_2"];4.25;1532986257.07736;140.45;604.35;2.121964892;10;149
28;paravance-35.rennes.grid5000.fr;thermos-root-devel-WordCountTopology-0-e127954f-03ec-4d96-8c1a-f64468fe0a16;["topology_master"];4.25;1532986257.16637;4.29;11.13;0.0;9;117
29;paravance-36.rennes.grid5000.fr;thermos-root-devel-WordCountTopology-1-c28decff-5648-4209-ba82-ac0e52b9ecc6;["container_1_Consume_and_count_1"];4.25;1532986267.32951;188.6;998.99;0.334053596;10;149
29;paravance-5.rennes.grid5000.fr;thermos-root-devel-WordCountTopology-2-8aba27c8-a916-4a2a-a157-3b2e57e7bca4;["container_2_Emit_random_words_2"];4.25;1532986267.29585;143.55;617.16;2.121964892;10;149
29;paravance-35.rennes.grid5000.fr;thermos-root-devel-WordCountTopology-0-e127954f-03ec-4d96-8c1a-f64468fe0a16;["topology_master"];4.25;1532986267.37942;4.35;11.2;0.0;9;117
30;paravance-36.rennes.grid5000.fr;thermos-root-devel-WordCountTopology-1-c28decff-5648-4209-ba82-ac0e52b9ecc6;["container_1_Consume_and_count_1"];4.25;1532986277.5427;192.83;1024.66;0.334069934;10;149
30;paravance-35.rennes.grid5000.fr;thermos-root-devel-WordCountTopology-0-e127954f-03ec-4d96-8c1a-f64468fe0a16;["topology_master"];4.25;1532986277.59111;4.46;11.38;0.0;9;117
30;paravance-5.rennes.grid5000.fr;thermos-root-devel-WordCountTopology-2-8aba27c8-a916-4a2a-a157-3b2e57e7bca4;["container_2_Emit_random_words_2"];4.25;1532986277.51329;146.63;630.0;2.121964892;10;149
31;paravance-5.rennes.grid5000.fr;thermos-root-devel-WordCountTopology-2-8aba27c8-a916-4a2a-a157-3b2e57e7bca4;["container_2_Emit_random_words_2"];4.25;1532986287.73063;149.77;643.56;2.121964892;10;149
31;paravance-35.rennes.grid5000.fr;thermos-root-devel-WordCountTopology-0-e127954f-03ec-4d96-8c1a-f64468fe0a16;["topology_master"];4.25;1532986287.80499;4.5;11.44;0.0;9;115
31;paravance-36.rennes.grid5000.fr;thermos-root-devel-WordCountTopology-1-c28decff-5648-4209-ba82-ac0e52b9ecc6;["container_1_Consume_and_count_1"];4.25;1532986287.75627;196.98;1050.37;0.334069934;10;149
32;paravance-5.rennes.grid5000.fr;thermos-root-devel-WordCountTopology-2-8aba27c8-a916-4a2a-a157-3b2e57e7bca4;["container_2_Emit_random_words_2"];4.25;1532986297.95011;152.95;656.85;2.121964892;10;149
32;paravance-36.rennes.grid5000.fr;thermos-root-devel-WordCountTopology-1-c28decff-5648-4209-ba82-ac0e52b9ecc6;["container_1_Consume_and_count_1"];4.25;1532986297.9704;201.32;1076.27;0.334069934;10;149
32;paravance-35.rennes.grid5000.fr;thermos-root-devel-WordCountTopology-0-e127954f-03ec-4d96-8c1a-f64468fe0a16;["topology_master"];4.25;1532986298.0194;4.57;11.52;0.0;9;117
33;paravance-36.rennes.grid5000.fr;thermos-root-devel-WordCountTopology-1-c28decff-5648-4209-ba82-ac0e52b9ecc6;["container_1_Consume_and_count_1"];4.25;1532986308.18423;205.74;1102.22;0.334069934;10;149
33;paravance-5.rennes.grid5000.fr;thermos-root-devel-WordCountTopology-2-8aba27c8-a916-4a2a-a157-3b2e57e7bca4;["container_2_Emit_random_words_2"];4.25;1532986308.17008;156.24;670.58;2.121964892;10;149
33;paravance-35.rennes.grid5000.fr;thermos-root-devel-WordCountTopology-0-e127954f-03ec-4d96-8c1a-f64468fe0a16;["topology_master"];4.25;1532986308.23283;4.66;11.64;0.0;9;117
34;paravance-5.rennes.grid5000.fr;thermos-root-devel-WordCountTopology-2-8aba27c8-a916-4a2a-a157-3b2e57e7bca4;["container_2_Emit_random_words_2"];4.25;1532986318.28978;159.29;683.56;2.121964892;10;149
34;paravance-36.rennes.grid5000.fr;thermos-root-devel-WordCountTopology-1-c28decff-5648-4209-ba82-ac0e52b9ecc6;["container_1_Consume_and_count_1"];4.25;1532986318.39577;210.02;1128.82;0.334069934;10;149
34;paravance-35.rennes.grid5000.fr;thermos-root-devel-WordCountTopology-0-e127954f-03ec-4d96-8c1a-f64468fe0a16;["topology_master"];4.25;1532986318.44545;4.68;11.66;0.0;9;117
35;paravance-36.rennes.grid5000.fr;thermos-root-devel-WordCountTopology-1-c28decff-5648-4209-ba82-ac0e52b9ecc6;["container_1_Consume_and_count_1"];4.25;1532986328.60926;214.57;1155.54;0.334069934;10;149
35;paravance-5.rennes.grid5000.fr;thermos-root-devel-WordCountTopology-2-8aba27c8-a916-4a2a-a157-3b2e57e7bca4;["container_2_Emit_random_words_2"];4.25;1532986328.60708;162.72;697.5;2.121964892;10;149
35;paravance-35.rennes.grid5000.fr;thermos-root-devel-WordCountTopology-0-e127954f-03ec-4d96-8c1a-f64468fe0a16;["topology_master"];4.25;1532986328.66028;4.78;11.8;0.0;9;117
36;paravance-36.rennes.grid5000.fr;thermos-root-devel-WordCountTopology-1-c28decff-5648-4209-ba82-ac0e52b9ecc6;["container_1_Consume_and_count_1"];4.25;1532986338.82252;218.51;1180.39;0.334069934;10;149
36;paravance-5.rennes.grid5000.fr;thermos-root-devel-WordCountTopology-2-8aba27c8-a916-4a2a-a157-3b2e57e7bca4;["container_2_Emit_random_words_2"];4.25;1532986338.82362;165.64;709.08;2.121964892;10;149
36;paravance-35.rennes.grid5000.fr;thermos-root-devel-WordCountTopology-0-e127954f-03ec-4d96-8c1a-f64468fe0a16;["topology_master"];4.25;1532986338.87141;4.85;11.97;0.0;9;117
37;paravance-5.rennes.grid5000.fr;thermos-root-devel-WordCountTopology-2-8aba27c8-a916-4a2a-a157-3b2e57e7bca4;["container_2_Emit_random_words_2"];4.25;1532986349.04255;168.77;722.06;2.121964892;10;149
37;paravance-35.rennes.grid5000.fr;thermos-root-devel-WordCountTopology-0-e127954f-03ec-4d96-8c1a-f64468fe0a16;["topology_master"];4.25;1532986349.08427;4.91;12.05;0.0;9;117
37;paravance-36.rennes.grid5000.fr;thermos-root-devel-WordCountTopology-1-c28decff-5648-4209-ba82-ac0e52b9ecc6;["container_1_Consume_and_count_1"];4.25;1532986349.03656;222.8;1206.08;0.334069934;10;149
38;paravance-5.rennes.grid5000.fr;thermos-root-devel-WordCountTopology-2-8aba27c8-a916-4a2a-a157-3b2e57e7bca4;["container_2_Emit_random_words_2"];4.25;1532986359.26085;172.03;735.4;2.121964892;10;149
38;paravance-35.rennes.grid5000.fr;thermos-root-devel-WordCountTopology-0-e127954f-03ec-4d96-8c1a-f64468fe0a16;["topology_master"];4.25;1532986359.29757;4.96;12.12;0.0;9;117
38;paravance-36.rennes.grid5000.fr;thermos-root-devel-WordCountTopology-1-c28decff-5648-4209-ba82-ac0e52b9ecc6;["container_1_Consume_and_count_1"];4.25;1532986359.24881;227.2;1233.31;0.334069934;10;149
39;paravance-5.rennes.grid5000.fr;thermos-root-devel-WordCountTopology-2-8aba27c8-a916-4a2a-a157-3b2e57e7bca4;["container_2_Emit_random_words_2"];4.25;1532986369.47803;175.08;748.2;2.121964892;10;149
39;paravance-36.rennes.grid5000.fr;thermos-root-devel-WordCountTopology-1-c28decff-5648-4209-ba82-ac0e52b9ecc6;["container_1_Consume_and_count_1"];4.25;1532986369.46144;231.49;1258.27;0.334069934;10;149
39;paravance-35.rennes.grid5000.fr;thermos-root-devel-WordCountTopology-0-e127954f-03ec-4d96-8c1a-f64468fe0a16;["topology_master"];4.25;1532986369.51088;5.05;12.24;0.0;9;117
40;paravance-5.rennes.grid5000.fr;thermos-root-devel-WordCountTopology-2-8aba27c8-a916-4a2a-a157-3b2e57e7bca4;["container_2_Emit_random_words_2"];4.25;1532986379.69729;178.47;762.52;2.121964892;10;149
40;paravance-36.rennes.grid5000.fr;thermos-root-devel-WordCountTopology-1-c28decff-5648-4209-ba82-ac0e52b9ecc6;["container_1_Consume_and_count_1"];4.25;1532986379.67504;236.05;1285.49;0.334069934;10;149
40;paravance-35.rennes.grid5000.fr;thermos-root-devel-WordCountTopology-0-e127954f-03ec-4d96-8c1a-f64468fe0a16;["topology_master"];4.25;1532986379.73792;5.11;12.31;0.0;9;117
41;paravance-35.rennes.grid5000.fr;thermos-root-devel-WordCountTopology-0-e127954f-03ec-4d96-8c1a-f64468fe0a16;["topology_master"];4.25;1532986389.94971;5.17;12.39;0.0;9;117
41;paravance-5.rennes.grid5000.fr;thermos-root-devel-WordCountTopology-2-8aba27c8-a916-4a2a-a157-3b2e57e7bca4;["container_2_Emit_random_words_2"];4.25;1532986389.92759;181.79;776.49;2.121964892;10;149
41;paravance-36.rennes.grid5000.fr;thermos-root-devel-WordCountTopology-1-c28decff-5648-4209-ba82-ac0e52b9ecc6;["container_1_Consume_and_count_1"];4.25;1532986389.90122;240.5;1312.19;0.334069934;10;149
42;paravance-5.rennes.grid5000.fr;thermos-root-devel-WordCountTopology-2-8aba27c8-a916-4a2a-a157-3b2e57e7bca4;["container_2_Emit_random_words_2"];4.25;1532986400.14913;185.21;791.27;2.121964892;10;149
42;paravance-35.rennes.grid5000.fr;thermos-root-devel-WordCountTopology-0-e127954f-03ec-4d96-8c1a-f64468fe0a16;["topology_master"];4.25;1532986400.16541;5.24;12.5;0.0;9;117
42;paravance-36.rennes.grid5000.fr;thermos-root-devel-WordCountTopology-1-c28decff-5648-4209-ba82-ac0e52b9ecc6;["container_1_Consume_and_count_1"];4.25;1532986400.11714;245.1;1339.79;0.334069934;10;149
43;paravance-5.rennes.grid5000.fr;thermos-root-devel-WordCountTopology-2-8aba27c8-a916-4a2a-a157-3b2e57e7bca4;["container_2_Emit_random_words_2"];4.25;1532986410.36785;188.17;803.46;2.121964892;10;149
43;paravance-36.rennes.grid5000.fr;thermos-root-devel-WordCountTopology-1-c28decff-5648-4209-ba82-ac0e52b9ecc6;["container_1_Consume_and_count_1"];4.25;1532986410.33104;249.22;1365.56;0.334069934;10;149
43;paravance-35.rennes.grid5000.fr;thermos-root-devel-WordCountTopology-0-e127954f-03ec-4d96-8c1a-f64468fe0a16;["topology_master"];4.25;1532986410.37981;5.32;12.62;0.0;9;117
44;paravance-35.rennes.grid5000.fr;thermos-root-devel-WordCountTopology-0-e127954f-03ec-4d96-8c1a-f64468fe0a16;["topology_master"];4.25;1532986420.59397;5.35;12.64;0.0;9;117
44;paravance-36.rennes.grid5000.fr;thermos-root-devel-WordCountTopology-1-c28decff-5648-4209-ba82-ac0e52b9ecc6;["container_1_Consume_and_count_1"];4.25;1532986420.54591;254.18;1393.95;0.334069934;10;149
44;paravance-5.rennes.grid5000.fr;thermos-root-devel-WordCountTopology-2-8aba27c8-a916-4a2a-a157-3b2e57e7bca4;["container_2_Emit_random_words_2"];4.25;1532986420.58859;191.8;819.61;2.121964892;10;149
45;paravance-36.rennes.grid5000.fr;thermos-root-devel-WordCountTopology-1-c28decff-5648-4209-ba82-ac0e52b9ecc6;["container_1_Consume_and_count_1"];4.25;1532986430.77567;258.43;1420.28;0.334069934;10;149
45;paravance-35.rennes.grid5000.fr;thermos-root-devel-WordCountTopology-0-e127954f-03ec-4d96-8c1a-f64468fe0a16;["topology_master"];4.25;1532986430.8263;5.45;12.77;0.0;9;117
45;paravance-5.rennes.grid5000.fr;thermos-root-devel-WordCountTopology-2-8aba27c8-a916-4a2a-a157-3b2e57e7bca4;["container_2_Emit_random_words_2"];4.25;1532986430.82518;194.93;832.87;2.121964892;10;149
46;paravance-36.rennes.grid5000.fr;thermos-root-devel-WordCountTopology-1-c28decff-5648-4209-ba82-ac0e52b9ecc6;["container_1_Consume_and_count_1"];4.25;1532986440.9956;262.84;1446.66;0.334069934;10;149
46;paravance-35.rennes.grid5000.fr;thermos-root-devel-WordCountTopology-0-e127954f-03ec-4d96-8c1a-f64468fe0a16;["topology_master"];4.25;1532986441.046;5.5;12.84;0.0;9;117
46;paravance-5.rennes.grid5000.fr;thermos-root-devel-WordCountTopology-2-8aba27c8-a916-4a2a-a157-3b2e57e7bca4;["container_2_Emit_random_words_2"];4.25;1532986441.05039;198.19;846.44;2.121964892;10;149
47;paravance-5.rennes.grid5000.fr;thermos-root-devel-WordCountTopology-2-8aba27c8-a916-4a2a-a157-3b2e57e7bca4;["container_2_Emit_random_words_2"];4.25;1532986451.26818;201.39;860.21;2.121964892;10;149
47;paravance-36.rennes.grid5000.fr;thermos-root-devel-WordCountTopology-1-c28decff-5648-4209-ba82-ac0e52b9ecc6;["container_1_Consume_and_count_1"];4.25;1532986451.21425;267.28;1472.24;0.334069934;10;149
47;paravance-35.rennes.grid5000.fr;thermos-root-devel-WordCountTopology-0-e127954f-03ec-4d96-8c1a-f64468fe0a16;["topology_master"];4.25;1532986451.25945;5.57;12.92;0.0;9;117
48;paravance-35.rennes.grid5000.fr;thermos-root-devel-WordCountTopology-0-e127954f-03ec-4d96-8c1a-f64468fe0a16;["topology_master"];4.25;1532986461.47252;5.63;13.08;0.0;9;117
48;paravance-5.rennes.grid5000.fr;thermos-root-devel-WordCountTopology-2-8aba27c8-a916-4a2a-a157-3b2e57e7bca4;["container_2_Emit_random_words_2"];4.25;1532986461.48697;204.69;874.71;2.121964892;10;149
48;paravance-36.rennes.grid5000.fr;thermos-root-devel-WordCountTopology-1-c28decff-5648-4209-ba82-ac0e52b9ecc6;["container_1_Consume_and_count_1"];4.25;1532986461.43399;271.89;1499.06;0.334069934;10;149
49;paravance-36.rennes.grid5000.fr;thermos-root-devel-WordCountTopology-1-c28decff-5648-4209-ba82-ac0e52b9ecc6;["container_1_Consume_and_count_1"];4.25;1532986471.65085;276.21;1523.85;0.334069934;10;149
49;paravance-35.rennes.grid5000.fr;thermos-root-devel-WordCountTopology-0-e127954f-03ec-4d96-8c1a-f64468fe0a16;["topology_master"];4.25;1532986471.68692;5.72;13.2;0.0;9;117
49;paravance-5.rennes.grid5000.fr;thermos-root-devel-WordCountTopology-2-8aba27c8-a916-4a2a-a157-3b2e57e7bca4;["container_2_Emit_random_words_2"];4.25;1532986471.70647;207.81;887.83;2.121964892;10;149
50;paravance-36.rennes.grid5000.fr;thermos-root-devel-WordCountTopology-1-c28decff-5648-4209-ba82-ac0e52b9ecc6;["container_1_Consume_and_count_1"];4.25;1532986481.87152;280.8;1550.64;0.334069934;10;149
50;paravance-35.rennes.grid5000.fr;thermos-root-devel-WordCountTopology-0-e127954f-03ec-4d96-8c1a-f64468fe0a16;["topology_master"];4.25;1532986481.90058;5.75;13.23;0.0;9;117
50;paravance-5.rennes.grid5000.fr;thermos-root-devel-WordCountTopology-2-8aba27c8-a916-4a2a-a157-3b2e57e7bca4;["container_2_Emit_random_words_2"];4.25;1532986481.92577;211.22;902.19;2.121964892;10;149
51;paravance-35.rennes.grid5000.fr;thermos-root-devel-WordCountTopology-0-e127954f-03ec-4d96-8c1a-f64468fe0a16;["topology_master"];4.25;1532986492.11407;5.83;13.35;0.0;9;117
51;paravance-36.rennes.grid5000.fr;thermos-root-devel-WordCountTopology-1-c28decff-5648-4209-ba82-ac0e52b9ecc6;["container_1_Consume_and_count_1"];4.25;1532986492.08971;285.25;1576.8;0.334069934;10;149
51;paravance-5.rennes.grid5000.fr;thermos-root-devel-WordCountTopology-2-8aba27c8-a916-4a2a-a157-3b2e57e7bca4;["container_2_Emit_random_words_2"];4.25;1532986492.14532;214.5;915.64;2.121964892;10;149
52;paravance-36.rennes.grid5000.fr;thermos-root-devel-WordCountTopology-1-c28decff-5648-4209-ba82-ac0e52b9ecc6;["container_1_Consume_and_count_1"];4.25;1532986502.30847;289.81;1603.32;0.334069934;10;149
52;paravance-5.rennes.grid5000.fr;thermos-root-devel-WordCountTopology-2-8aba27c8-a916-4a2a-a157-3b2e57e7bca4;["container_2_Emit_random_words_2"];4.25;1532986502.36324;217.92;930.44;2.121964892;10;149
52;paravance-35.rennes.grid5000.fr;thermos-root-devel-WordCountTopology-0-e127954f-03ec-4d96-8c1a-f64468fe0a16;["topology_master"];4.25;1532986502.32946;5.89;13.42;0.0;9;117
53;paravance-36.rennes.grid5000.fr;thermos-root-devel-WordCountTopology-1-c28decff-5648-4209-ba82-ac0e52b9ecc6;["container_1_Consume_and_count_1"];4.25;1532986512.52706;294.3;1629.26;0.342050535;10;149
53;paravance-5.rennes.grid5000.fr;thermos-root-devel-WordCountTopology-2-8aba27c8-a916-4a2a-a157-3b2e57e7bca4;["container_2_Emit_random_words_2"];4.25;1532986512.58128;221.17;944.59;2.121964892;10;149
53;paravance-35.rennes.grid5000.fr;thermos-root-devel-WordCountTopology-0-e127954f-03ec-4d96-8c1a-f64468fe0a16;["topology_master"];4.25;1532986512.54246;5.96;13.51;0.0;9;117
54;paravance-5.rennes.grid5000.fr;thermos-root-devel-WordCountTopology-2-8aba27c8-a916-4a2a-a157-3b2e57e7bca4;["container_2_Emit_random_words_2"];4.25;1532986522.80017;224.32;957.67;2.121964892;10;149
54;paravance-36.rennes.grid5000.fr;thermos-root-devel-WordCountTopology-1-c28decff-5648-4209-ba82-ac0e52b9ecc6;["container_1_Consume_and_count_1"];4.25;1532986522.74504;298.65;1655.07;0.34207646;10;149
54;paravance-35.rennes.grid5000.fr;thermos-root-devel-WordCountTopology-0-e127954f-03ec-4d96-8c1a-f64468fe0a16;["topology_master"];4.25;1532986522.75564;6.02;13.61;0.0;9;117
55;paravance-35.rennes.grid5000.fr;thermos-root-devel-WordCountTopology-0-e127954f-03ec-4d96-8c1a-f64468fe0a16;["topology_master"];4.25;1532986532.96965;6.1;13.73;0.0;9;117
55;paravance-5.rennes.grid5000.fr;thermos-root-devel-WordCountTopology-2-8aba27c8-a916-4a2a-a157-3b2e57e7bca4;["container_2_Emit_random_words_2"];4.25;1532986533.01971;227.54;971.17;2.121964892;10;149
55;paravance-36.rennes.grid5000.fr;thermos-root-devel-WordCountTopology-1-c28decff-5648-4209-ba82-ac0e52b9ecc6;["container_1_Consume_and_count_1"];4.25;1532986532.9656;303.11;1682.16;0.34207646;10;149
56;paravance-36.rennes.grid5000.fr;thermos-root-devel-WordCountTopology-1-c28decff-5648-4209-ba82-ac0e52b9ecc6;["container_1_Consume_and_count_1"];4.25;1532986543.18253;307.83;1709.7;0.34207646;10;149
56;paravance-5.rennes.grid5000.fr;thermos-root-devel-WordCountTopology-2-8aba27c8-a916-4a2a-a157-3b2e57e7bca4;["container_2_Emit_random_words_2"];4.25;1532986543.23815;230.97;985.69;2.121964892;10;149
56;paravance-35.rennes.grid5000.fr;thermos-root-devel-WordCountTopology-0-e127954f-03ec-4d96-8c1a-f64468fe0a16;["topology_master"];4.25;1532986543.18239;6.13;13.76;0.0;9;117
57;paravance-36.rennes.grid5000.fr;thermos-root-devel-WordCountTopology-1-c28decff-5648-4209-ba82-ac0e52b9ecc6;["container_1_Consume_and_count_1"];4.25;1532986553.39937;312.82;1737.67;0.34207646;10;149
57;paravance-5.rennes.grid5000.fr;thermos-root-devel-WordCountTopology-2-8aba27c8-a916-4a2a-a157-3b2e57e7bca4;["container_2_Emit_random_words_2"];4.25;1532986553.45417;234.65;1001.22;2.121964892;10;149
57;paravance-35.rennes.grid5000.fr;thermos-root-devel-WordCountTopology-0-e127954f-03ec-4d96-8c1a-f64468fe0a16;["topology_master"];4.25;1532986553.39915;6.22;13.88;0.0;9;117
58;paravance-36.rennes.grid5000.fr;thermos-root-devel-WordCountTopology-1-c28decff-5648-4209-ba82-ac0e52b9ecc6;["container_1_Consume_and_count_1"];4.25;1532986563.61815;317.16;1763.68;0.34207646;10;149
58;paravance-5.rennes.grid5000.fr;thermos-root-devel-WordCountTopology-2-8aba27c8-a916-4a2a-a157-3b2e57e7bca4;["container_2_Emit_random_words_2"];4.25;1532986563.67386;237.84;1014.25;2.121964892;10;149
58;paravance-35.rennes.grid5000.fr;thermos-root-devel-WordCountTopology-0-e127954f-03ec-4d96-8c1a-f64468fe0a16;["topology_master"];4.25;1532986563.61905;6.27;13.95;0.0;9;117
59;paravance-5.rennes.grid5000.fr;thermos-root-devel-WordCountTopology-2-8aba27c8-a916-4a2a-a157-3b2e57e7bca4;["container_2_Emit_random_words_2"];4.25;1532986573.89022;240.9;1027.28;2.121964892;10;149
59;paravance-35.rennes.grid5000.fr;thermos-root-devel-WordCountTopology-0-e127954f-03ec-4d96-8c1a-f64468fe0a16;["topology_master"];4.25;1532986573.83679;6.35;14.06;0.0;9;117
59;paravance-36.rennes.grid5000.fr;thermos-root-devel-WordCountTopology-1-c28decff-5648-4209-ba82-ac0e52b9ecc6;["container_1_Consume_and_count_1"];4.25;1532986573.83598;321.31;1788.6;0.34207646;10;149
60;paravance-35.rennes.grid5000.fr;thermos-root-devel-WordCountTopology-0-e127954f-03ec-4d96-8c1a-f64468fe0a16;["topology_master"];4.25;1532986584.0549;6.4;14.14;0.0;9;117
60;paravance-5.rennes.grid5000.fr;thermos-root-devel-WordCountTopology-2-8aba27c8-a916-4a2a-a157-3b2e57e7bca4;["container_2_Emit_random_words_2"];4.25;1532986584.11006;244.29;1041.17;2.121964892;10;149
60;paravance-36.rennes.grid5000.fr;thermos-root-devel-WordCountTopology-1-c28decff-5648-4209-ba82-ac0e52b9ecc6;["container_1_Consume_and_count_1"];4.25;1532986584.05513;325.89;1815.67;0.34207646;10;149
