{
  "status": "success",
  "executiontime": 0.00026798248291015625,
  "message": "",
  "result": {
    "bolts": {
      "Consume_and_count": [
        "container_1_Consume_and_count_1"
      ]
    },
    "instances": {
      "container_2_Emit_random_words_2": {
        "stmgrId": "stmgr-2",
        "logfile": "http://paravance-32.rennes.grid5000.fr:31374/file/log-files/container_2_Emit_random_words_2.log.0",
        "id": "container_2_Emit_random_words_2",
        "name": "Emit_random_words"
      },
      "container_1_Consume_and_count_1": {
        "stmgrId": "stmgr-1",
        "logfile": "http://paravance-29.rennes.grid5000.fr:31736/file/log-files/container_1_Consume_and_count_1.log.0",
        "id": "container_1_Consume_and_count_1",
        "name": "Consume_and_count"
      }
    },
    "instance_groups": {
      "container_1_Consume_and": [
        "container_1_Consume_and_count_1"
      ],
      "container_2_Emit_random": [
        "container_2_Emit_random_words_2"
      ]
    },
    "spouts": {
      "Emit_random_words": [
        "container_2_Emit_random_words_2"
      ]
    },
    "config": {
      "topology.message.timeout.secs": "30",
      "topology.team.environment": "devel",
      "topology.serializer.classname": "org.apache.heron.streamlet.impl.KryoSerializer",
      "topology.team.name": "root",
      "topology.debug": "false",
      "topology.max.spout.pending": "100",
      "topology.container.padding.percentage": "0",
      "topology.enable.message.timeouts": "true",
      "topology.component.parallelism": "1",
      "topology.name": "WordCountTopology",
      "topology.stmgrs": "2",
      "topology.reliability.mode": "ATMOST_ONCE"
    },
    "stmgrs": {
      "stmgr-1": {
        "cwd": "/var/lib/mesos/slaves/a2551e72-1e3a-4b31-8942-cbd9ccbb3eea-S0/frameworks/75deb08a-eb1b-415c-8b2c-e922be5f7d98-0000/executors/thermos-root-devel-WordCountTopology-1-187c8c99-8f58-4abf-9d40-f16001bfc76d/runs/be093263-7e08-4ac8-a8d7-8df339666684/sandbox",
        "host": "paravance-29.rennes.grid5000.fr",
        "joburl": "http://paravance-29.rennes.grid5000.fr:31736/browse/",
        "shell_port": 31736,
        "logfiles": "http://paravance-29.rennes.grid5000.fr:31736/browse/log-files",
        "pid": 2136,
        "id": "stmgr-1",
        "instance_ids": [
          "container_1_Consume_and_count_1"
        ],
        "port": 31801
      },
      "stmgr-2": {
        "cwd": "/var/lib/mesos/slaves/a2551e72-1e3a-4b31-8942-cbd9ccbb3eea-S1/frameworks/75deb08a-eb1b-415c-8b2c-e922be5f7d98-0000/executors/thermos-root-devel-WordCountTopology-2-1ca796cb-bfa1-4272-90e8-dc84351defec/runs/d27ad4e0-cd3e-45ef-856c-bb671e53e9f1/sandbox",
        "host": "paravance-32.rennes.grid5000.fr",
        "joburl": "http://paravance-32.rennes.grid5000.fr:31374/browse/",
        "shell_port": 31374,
        "logfiles": "http://paravance-32.rennes.grid5000.fr:31374/browse/log-files",
        "pid": 2117,
        "id": "stmgr-2",
        "instance_ids": [
          "container_2_Emit_random_words_2"
        ],
        "port": 31423
      }
    }
  },
  "tracker_version": "0.17.8-61-gd7c8c62"
}