mesure_id;time;backpresure
0;1533727680;25467.0
1;1533727620;30427.0
2;1533727560;24326.0
3;1533727500;20264.0
4;1533727440;24859.0
5;1533727800;29484.0
6;1533727860;32108.0
7;1533727320;28156.0
8;1533727380;28490.0
9;1533727740;32799.0
