mesure_id;slave_id;executor_id;heron_instances;cpus_limit;timestamp_A;cpus_system_time_secs_A;cpus_user_time_secs_A;cpus_throttled_time_secs_A;processes;threads
0;paravance-27.rennes.grid5000.fr;thermos-root-devel-WordCountTopology-2-900135e6-573b-4caf-8d9e-2cc2b4015aa3;["container_2_Emit_random_words_2"];4.25;1533484940.64032;28.5;150.16;3.731063189;10;149
0;paravance-18.rennes.grid5000.fr;thermos-root-devel-WordCountTopology-1-5b7c31fd-aec1-411f-84b5-6c4d77c6b676;["container_1_Consume_and_count_1"];4.25;1533484940.57538;51.44;209.48;9.727814607;10;151
0;paravance-20.rennes.grid5000.fr;thermos-root-devel-WordCountTopology-0-0f3acea5-c5fd-463a-b7b0-3c458e731439;["topology_master"];4.25;1533484940.71204;2.36;7.77;0.0;9;117
1;paravance-18.rennes.grid5000.fr;thermos-root-devel-WordCountTopology-1-5b7c31fd-aec1-411f-84b5-6c4d77c6b676;["container_1_Consume_and_count_1"];4.25;1533484950.68781;58.41;234.01;10.400110722;10;151
1;paravance-27.rennes.grid5000.fr;thermos-root-devel-WordCountTopology-2-900135e6-573b-4caf-8d9e-2cc2b4015aa3;["container_2_Emit_random_words_2"];4.25;1533484950.85387;31.89;168.18;3.731063189;10;149
1;paravance-20.rennes.grid5000.fr;thermos-root-devel-WordCountTopology-0-0f3acea5-c5fd-463a-b7b0-3c458e731439;["topology_master"];4.25;1533484950.92535;2.42;7.9;0.0;9;117
2;paravance-18.rennes.grid5000.fr;thermos-root-devel-WordCountTopology-1-5b7c31fd-aec1-411f-84b5-6c4d77c6b676;["container_1_Consume_and_count_1"];4.25;1533484961.00432;65.22;258.8;10.970644032;10;151
2;paravance-20.rennes.grid5000.fr;thermos-root-devel-WordCountTopology-0-0f3acea5-c5fd-463a-b7b0-3c458e731439;["topology_master"];4.25;1533484961.14131;2.52;8.04;0.0;9;117
2;paravance-27.rennes.grid5000.fr;thermos-root-devel-WordCountTopology-2-900135e6-573b-4caf-8d9e-2cc2b4015aa3;["container_2_Emit_random_words_2"];4.25;1533484961.06989;35.4;186.25;3.731063189;10;149
3;paravance-18.rennes.grid5000.fr;thermos-root-devel-WordCountTopology-1-5b7c31fd-aec1-411f-84b5-6c4d77c6b676;["container_1_Consume_and_count_1"];4.25;1533484971.22097;71.75;282.49;11.632081489;10;151
3;paravance-27.rennes.grid5000.fr;thermos-root-devel-WordCountTopology-2-900135e6-573b-4caf-8d9e-2cc2b4015aa3;["container_2_Emit_random_words_2"];4.25;1533484971.28749;38.72;203.82;3.731063189;10;149
3;paravance-20.rennes.grid5000.fr;thermos-root-devel-WordCountTopology-0-0f3acea5-c5fd-463a-b7b0-3c458e731439;["topology_master"];4.25;1533484971.35946;2.58;8.13;0.0;9;117
4;paravance-18.rennes.grid5000.fr;thermos-root-devel-WordCountTopology-1-5b7c31fd-aec1-411f-84b5-6c4d77c6b676;["container_1_Consume_and_count_1"];4.25;1533484981.43667;78.47;307.06;12.554598575;10;151
4;paravance-27.rennes.grid5000.fr;thermos-root-devel-WordCountTopology-2-900135e6-573b-4caf-8d9e-2cc2b4015aa3;["container_2_Emit_random_words_2"];4.25;1533484981.50384;42.09;221.72;3.731063189;10;149
4;paravance-20.rennes.grid5000.fr;thermos-root-devel-WordCountTopology-0-0f3acea5-c5fd-463a-b7b0-3c458e731439;["topology_master"];4.25;1533484981.57598;2.64;8.21;0.0;9;117
5;paravance-18.rennes.grid5000.fr;thermos-root-devel-WordCountTopology-1-5b7c31fd-aec1-411f-84b5-6c4d77c6b676;["container_1_Consume_and_count_1"];4.25;1533484991.65306;85.49;333.18;13.498906955;10;151
5;paravance-27.rennes.grid5000.fr;thermos-root-devel-WordCountTopology-2-900135e6-573b-4caf-8d9e-2cc2b4015aa3;["container_2_Emit_random_words_2"];4.25;1533484991.71983;45.55;239.71;3.731063189;10;149
5;paravance-20.rennes.grid5000.fr;thermos-root-devel-WordCountTopology-0-0f3acea5-c5fd-463a-b7b0-3c458e731439;["topology_master"];4.25;1533484991.79222;2.7;8.28;0.0;9;117
6;paravance-18.rennes.grid5000.fr;thermos-root-devel-WordCountTopology-1-5b7c31fd-aec1-411f-84b5-6c4d77c6b676;["container_1_Consume_and_count_1"];4.25;1533485001.87185;92.54;360.84;14.840101233;10;151
6;paravance-27.rennes.grid5000.fr;thermos-root-devel-WordCountTopology-2-900135e6-573b-4caf-8d9e-2cc2b4015aa3;["container_2_Emit_random_words_2"];4.25;1533485001.93562;49.15;257.71;3.731063189;10;149
6;paravance-20.rennes.grid5000.fr;thermos-root-devel-WordCountTopology-0-0f3acea5-c5fd-463a-b7b0-3c458e731439;["topology_master"];4.25;1533485002.00961;2.82;8.57;0.0;9;117
7;paravance-27.rennes.grid5000.fr;thermos-root-devel-WordCountTopology-2-900135e6-573b-4caf-8d9e-2cc2b4015aa3;["container_2_Emit_random_words_2"];4.25;1533485012.15402;52.65;275.68;3.731063189;10;149
7;paravance-18.rennes.grid5000.fr;thermos-root-devel-WordCountTopology-1-5b7c31fd-aec1-411f-84b5-6c4d77c6b676;["container_1_Consume_and_count_1"];4.25;1533485012.08765;99.33;387.7;15.87819479;10;151
7;paravance-20.rennes.grid5000.fr;thermos-root-devel-WordCountTopology-0-0f3acea5-c5fd-463a-b7b0-3c458e731439;["topology_master"];4.25;1533485012.22593;2.85;8.61;0.0;9;117
8;paravance-18.rennes.grid5000.fr;thermos-root-devel-WordCountTopology-1-5b7c31fd-aec1-411f-84b5-6c4d77c6b676;["container_1_Consume_and_count_1"];4.25;1533485022.30457;105.9;415.53;16.93593685;10;151
8;paravance-27.rennes.grid5000.fr;thermos-root-devel-WordCountTopology-2-900135e6-573b-4caf-8d9e-2cc2b4015aa3;["container_2_Emit_random_words_2"];4.25;1533485022.37108;56.24;293.57;3.731063189;10;149
8;paravance-20.rennes.grid5000.fr;thermos-root-devel-WordCountTopology-0-0f3acea5-c5fd-463a-b7b0-3c458e731439;["topology_master"];4.25;1533485022.44261;2.95;8.74;0.0;9;117
9;paravance-18.rennes.grid5000.fr;thermos-root-devel-WordCountTopology-1-5b7c31fd-aec1-411f-84b5-6c4d77c6b676;["container_1_Consume_and_count_1"];4.25;1533485032.52138;112.47;443.55;18.268880121;10;151
9;paravance-27.rennes.grid5000.fr;thermos-root-devel-WordCountTopology-2-900135e6-573b-4caf-8d9e-2cc2b4015aa3;["container_2_Emit_random_words_2"];4.25;1533485032.58881;59.82;311.24;3.731063189;10;149
9;paravance-20.rennes.grid5000.fr;thermos-root-devel-WordCountTopology-0-0f3acea5-c5fd-463a-b7b0-3c458e731439;["topology_master"];4.25;1533485032.66103;3.01;8.82;0.0;9;117
10;paravance-18.rennes.grid5000.fr;thermos-root-devel-WordCountTopology-1-5b7c31fd-aec1-411f-84b5-6c4d77c6b676;["container_1_Consume_and_count_1"];4.25;1533485042.7369;119.57;472.25;19.516969049;10;151
10;paravance-27.rennes.grid5000.fr;thermos-root-devel-WordCountTopology-2-900135e6-573b-4caf-8d9e-2cc2b4015aa3;["container_2_Emit_random_words_2"];4.25;1533485042.80494;63.41;329.03;3.731063189;10;149
10;paravance-20.rennes.grid5000.fr;thermos-root-devel-WordCountTopology-0-0f3acea5-c5fd-463a-b7b0-3c458e731439;["topology_master"];4.25;1533485042.87741;3.07;8.89;0.0;9;117
11;paravance-18.rennes.grid5000.fr;thermos-root-devel-WordCountTopology-1-5b7c31fd-aec1-411f-84b5-6c4d77c6b676;["container_1_Consume_and_count_1"];4.25;1533485052.95482;126.7;501.75;22.12968528;10;151
11;paravance-27.rennes.grid5000.fr;thermos-root-devel-WordCountTopology-2-900135e6-573b-4caf-8d9e-2cc2b4015aa3;["container_2_Emit_random_words_2"];4.25;1533485053.02126;67.1;346.9;3.731063189;10;149
11;paravance-20.rennes.grid5000.fr;thermos-root-devel-WordCountTopology-0-0f3acea5-c5fd-463a-b7b0-3c458e731439;["topology_master"];4.25;1533485053.09472;3.12;8.97;0.0;9;117
12;paravance-27.rennes.grid5000.fr;thermos-root-devel-WordCountTopology-2-900135e6-573b-4caf-8d9e-2cc2b4015aa3;["container_2_Emit_random_words_2"];4.25;1533485063.2375;70.84;365.02;3.731063189;10;149
12;paravance-18.rennes.grid5000.fr;thermos-root-devel-WordCountTopology-1-5b7c31fd-aec1-411f-84b5-6c4d77c6b676;["container_1_Consume_and_count_1"];4.25;1533485063.17195;134.17;531.98;25.034655329;10;151
12;paravance-20.rennes.grid5000.fr;thermos-root-devel-WordCountTopology-0-0f3acea5-c5fd-463a-b7b0-3c458e731439;["topology_master"];4.25;1533485063.31068;3.25;9.2;0.0;9;117
13;paravance-18.rennes.grid5000.fr;thermos-root-devel-WordCountTopology-1-5b7c31fd-aec1-411f-84b5-6c4d77c6b676;["container_1_Consume_and_count_1"];4.25;1533485073.38855;141.01;559.46;25.945300166;10;151
13;paravance-27.rennes.grid5000.fr;thermos-root-devel-WordCountTopology-2-900135e6-573b-4caf-8d9e-2cc2b4015aa3;["container_2_Emit_random_words_2"];4.25;1533485073.45462;74.43;382.87;3.731063189;10;149
13;paravance-20.rennes.grid5000.fr;thermos-root-devel-WordCountTopology-0-0f3acea5-c5fd-463a-b7b0-3c458e731439;["topology_master"];4.25;1533485073.52714;3.28;9.22;0.0;9;117
14;paravance-20.rennes.grid5000.fr;thermos-root-devel-WordCountTopology-0-0f3acea5-c5fd-463a-b7b0-3c458e731439;["topology_master"];4.25;1533485083.64436;3.37;9.38;0.0;9;117
14;paravance-18.rennes.grid5000.fr;thermos-root-devel-WordCountTopology-1-5b7c31fd-aec1-411f-84b5-6c4d77c6b676;["container_1_Consume_and_count_1"];4.25;1533485083.6051;148.07;587.31;27.282259324;10;151
14;paravance-27.rennes.grid5000.fr;thermos-root-devel-WordCountTopology-2-900135e6-573b-4caf-8d9e-2cc2b4015aa3;["container_2_Emit_random_words_2"];4.25;1533485083.67163;78.06;400.83;3.731063189;10;149
15;paravance-18.rennes.grid5000.fr;thermos-root-devel-WordCountTopology-1-5b7c31fd-aec1-411f-84b5-6c4d77c6b676;["container_1_Consume_and_count_1"];4.25;1533485093.82071;155.15;615.51;28.742208693;10;151
15;paravance-27.rennes.grid5000.fr;thermos-root-devel-WordCountTopology-2-900135e6-573b-4caf-8d9e-2cc2b4015aa3;["container_2_Emit_random_words_2"];4.25;1533485093.88831;81.7;418.69;3.731063189;10;149
15;paravance-20.rennes.grid5000.fr;thermos-root-devel-WordCountTopology-0-0f3acea5-c5fd-463a-b7b0-3c458e731439;["topology_master"];4.25;1533485093.96141;3.43;9.46;0.0;9;117
16;paravance-18.rennes.grid5000.fr;thermos-root-devel-WordCountTopology-1-5b7c31fd-aec1-411f-84b5-6c4d77c6b676;["container_1_Consume_and_count_1"];4.25;1533485104.03834;162.25;643.49;30.059164206;10;151
16;paravance-27.rennes.grid5000.fr;thermos-root-devel-WordCountTopology-2-900135e6-573b-4caf-8d9e-2cc2b4015aa3;["container_2_Emit_random_words_2"];4.25;1533485104.10302;85.31;436.58;3.731063189;10;149
16;paravance-20.rennes.grid5000.fr;thermos-root-devel-WordCountTopology-0-0f3acea5-c5fd-463a-b7b0-3c458e731439;["topology_master"];4.25;1533485104.17668;3.49;9.55;0.0;9;117
17;paravance-20.rennes.grid5000.fr;thermos-root-devel-WordCountTopology-0-0f3acea5-c5fd-463a-b7b0-3c458e731439;["topology_master"];4.25;1533485114.39354;3.54;9.62;0.0;9;117
17;paravance-18.rennes.grid5000.fr;thermos-root-devel-WordCountTopology-1-5b7c31fd-aec1-411f-84b5-6c4d77c6b676;["container_1_Consume_and_count_1"];4.25;1533485114.25416;169.31;671.81;31.456589796;10;151
17;paravance-27.rennes.grid5000.fr;thermos-root-devel-WordCountTopology-2-900135e6-573b-4caf-8d9e-2cc2b4015aa3;["container_2_Emit_random_words_2"];4.25;1533485114.32125;88.92;454.26;3.731063189;10;149
18;paravance-18.rennes.grid5000.fr;thermos-root-devel-WordCountTopology-1-5b7c31fd-aec1-411f-84b5-6c4d77c6b676;["container_1_Consume_and_count_1"];4.25;1533485124.4683;176.37;699.9;32.76014947;10;151
18;paravance-20.rennes.grid5000.fr;thermos-root-devel-WordCountTopology-0-0f3acea5-c5fd-463a-b7b0-3c458e731439;["topology_master"];4.25;1533485124.6081;3.66;9.82;0.0;9;117
18;paravance-27.rennes.grid5000.fr;thermos-root-devel-WordCountTopology-2-900135e6-573b-4caf-8d9e-2cc2b4015aa3;["container_2_Emit_random_words_2"];4.25;1533485124.53481;92.57;472.12;3.731063189;10;149
19;paravance-20.rennes.grid5000.fr;thermos-root-devel-WordCountTopology-0-0f3acea5-c5fd-463a-b7b0-3c458e731439;["topology_master"];4.25;1533485134.82267;3.69;9.85;0.0;9;117
19;paravance-18.rennes.grid5000.fr;thermos-root-devel-WordCountTopology-1-5b7c31fd-aec1-411f-84b5-6c4d77c6b676;["container_1_Consume_and_count_1"];4.25;1533485134.68404;183.37;727.57;33.949321652;10;151
19;paravance-27.rennes.grid5000.fr;thermos-root-devel-WordCountTopology-2-900135e6-573b-4caf-8d9e-2cc2b4015aa3;["container_2_Emit_random_words_2"];4.25;1533485134.74909;96.16;489.94;3.731063189;10;149
20;paravance-18.rennes.grid5000.fr;thermos-root-devel-WordCountTopology-1-5b7c31fd-aec1-411f-84b5-6c4d77c6b676;["container_1_Consume_and_count_1"];4.25;1533485144.90149;190.48;755.75;35.545590527;10;151
20;paravance-20.rennes.grid5000.fr;thermos-root-devel-WordCountTopology-0-0f3acea5-c5fd-463a-b7b0-3c458e731439;["topology_master"];4.25;1533485145.04155;3.78;9.98;0.0;9;117
20;paravance-27.rennes.grid5000.fr;thermos-root-devel-WordCountTopology-2-900135e6-573b-4caf-8d9e-2cc2b4015aa3;["container_2_Emit_random_words_2"];4.25;1533485144.96794;99.84;507.71;3.731063189;10;149
21;paravance-18.rennes.grid5000.fr;thermos-root-devel-WordCountTopology-1-5b7c31fd-aec1-411f-84b5-6c4d77c6b676;["container_1_Consume_and_count_1"];4.25;1533485155.11692;197.27;782.77;36.546417397;10;151
21;paravance-27.rennes.grid5000.fr;thermos-root-devel-WordCountTopology-2-900135e6-573b-4caf-8d9e-2cc2b4015aa3;["container_2_Emit_random_words_2"];4.25;1533485155.18417;103.45;525.59;3.731063189;10;149
21;paravance-20.rennes.grid5000.fr;thermos-root-devel-WordCountTopology-0-0f3acea5-c5fd-463a-b7b0-3c458e731439;["topology_master"];4.25;1533485155.25841;3.84;10.05;0.0;9;117
22;paravance-18.rennes.grid5000.fr;thermos-root-devel-WordCountTopology-1-5b7c31fd-aec1-411f-84b5-6c4d77c6b676;["container_1_Consume_and_count_1"];4.25;1533485165.33301;203.88;809.16;37.412864637;10;151
22;paravance-27.rennes.grid5000.fr;thermos-root-devel-WordCountTopology-2-900135e6-573b-4caf-8d9e-2cc2b4015aa3;["container_2_Emit_random_words_2"];4.25;1533485165.39843;107.05;543.46;3.731063189;10;149
22;paravance-20.rennes.grid5000.fr;thermos-root-devel-WordCountTopology-0-0f3acea5-c5fd-463a-b7b0-3c458e731439;["topology_master"];4.25;1533485165.47286;3.89;10.12;0.0;9;117
23;paravance-18.rennes.grid5000.fr;thermos-root-devel-WordCountTopology-1-5b7c31fd-aec1-411f-84b5-6c4d77c6b676;["container_1_Consume_and_count_1"];4.25;1533485175.5494;210.95;836.21;38.23992456;10;151
23;paravance-20.rennes.grid5000.fr;thermos-root-devel-WordCountTopology-0-0f3acea5-c5fd-463a-b7b0-3c458e731439;["topology_master"];4.25;1533485175.6896;3.95;10.19;0.0;9;117
23;paravance-27.rennes.grid5000.fr;thermos-root-devel-WordCountTopology-2-900135e6-573b-4caf-8d9e-2cc2b4015aa3;["container_2_Emit_random_words_2"];4.25;1533485175.61569;110.61;561.42;3.731063189;10;149
24;paravance-18.rennes.grid5000.fr;thermos-root-devel-WordCountTopology-1-5b7c31fd-aec1-411f-84b5-6c4d77c6b676;["container_1_Consume_and_count_1"];4.25;1533485185.76686;217.77;863.23;39.350954528;10;151
24;paravance-20.rennes.grid5000.fr;thermos-root-devel-WordCountTopology-0-0f3acea5-c5fd-463a-b7b0-3c458e731439;["topology_master"];4.25;1533485185.90754;4.06;10.37;0.0;9;117
24;paravance-27.rennes.grid5000.fr;thermos-root-devel-WordCountTopology-2-900135e6-573b-4caf-8d9e-2cc2b4015aa3;["container_2_Emit_random_words_2"];4.25;1533485185.8336;114.21;578.95;3.731063189;10;149
25;paravance-27.rennes.grid5000.fr;thermos-root-devel-WordCountTopology-2-900135e6-573b-4caf-8d9e-2cc2b4015aa3;["container_2_Emit_random_words_2"];4.25;1533485196.04986;117.81;596.38;3.731063189;10;149
25;paravance-18.rennes.grid5000.fr;thermos-root-devel-WordCountTopology-1-5b7c31fd-aec1-411f-84b5-6c4d77c6b676;["container_1_Consume_and_count_1"];4.25;1533485195.98496;224.79;890.19;40.270557189;10;151
25;paravance-20.rennes.grid5000.fr;thermos-root-devel-WordCountTopology-0-0f3acea5-c5fd-463a-b7b0-3c458e731439;["topology_master"];4.25;1533485196.12393;4.09;10.4;0.0;9;117
26;paravance-18.rennes.grid5000.fr;thermos-root-devel-WordCountTopology-1-5b7c31fd-aec1-411f-84b5-6c4d77c6b676;["container_1_Consume_and_count_1"];4.25;1533485206.20255;231.31;917.16;41.432551195;10;151
26;paravance-20.rennes.grid5000.fr;thermos-root-devel-WordCountTopology-0-0f3acea5-c5fd-463a-b7b0-3c458e731439;["topology_master"];4.25;1533485206.34371;4.18;10.53;0.0;9;117
26;paravance-27.rennes.grid5000.fr;thermos-root-devel-WordCountTopology-2-900135e6-573b-4caf-8d9e-2cc2b4015aa3;["container_2_Emit_random_words_2"];4.25;1533485206.2689;121.45;614.03;3.731063189;10;149
27;paravance-27.rennes.grid5000.fr;thermos-root-devel-WordCountTopology-2-900135e6-573b-4caf-8d9e-2cc2b4015aa3;["container_2_Emit_random_words_2"];4.25;1533485216.48623;125.09;631.56;3.731063189;10;149
27;paravance-18.rennes.grid5000.fr;thermos-root-devel-WordCountTopology-1-5b7c31fd-aec1-411f-84b5-6c4d77c6b676;["container_1_Consume_and_count_1"];4.25;1533485216.41952;238.31;944.34;42.260356025;10;151
27;paravance-20.rennes.grid5000.fr;thermos-root-devel-WordCountTopology-0-0f3acea5-c5fd-463a-b7b0-3c458e731439;["topology_master"];4.25;1533485216.56102;4.24;10.6;0.0;9;117
28;paravance-18.rennes.grid5000.fr;thermos-root-devel-WordCountTopology-1-5b7c31fd-aec1-411f-84b5-6c4d77c6b676;["container_1_Consume_and_count_1"];4.25;1533485226.63496;245.36;971.48;43.139569757;10;151
28;paravance-27.rennes.grid5000.fr;thermos-root-devel-WordCountTopology-2-900135e6-573b-4caf-8d9e-2cc2b4015aa3;["container_2_Emit_random_words_2"];4.25;1533485226.7032;128.76;649.06;3.731063189;10;149
28;paravance-20.rennes.grid5000.fr;thermos-root-devel-WordCountTopology-0-0f3acea5-c5fd-463a-b7b0-3c458e731439;["topology_master"];4.25;1533485226.77738;4.3;10.68;0.0;9;117
29;paravance-18.rennes.grid5000.fr;thermos-root-devel-WordCountTopology-1-5b7c31fd-aec1-411f-84b5-6c4d77c6b676;["container_1_Consume_and_count_1"];4.25;1533485236.85336;252.3;998.26;43.852976312;10;151
29;paravance-27.rennes.grid5000.fr;thermos-root-devel-WordCountTopology-2-900135e6-573b-4caf-8d9e-2cc2b4015aa3;["container_2_Emit_random_words_2"];4.25;1533485236.92043;132.46;667.28;3.731063189;10;149
29;paravance-20.rennes.grid5000.fr;thermos-root-devel-WordCountTopology-0-0f3acea5-c5fd-463a-b7b0-3c458e731439;["topology_master"];4.25;1533485236.99487;4.4;10.82;0.0;9;117
30;paravance-18.rennes.grid5000.fr;thermos-root-devel-WordCountTopology-1-5b7c31fd-aec1-411f-84b5-6c4d77c6b676;["container_1_Consume_and_count_1"];4.25;1533485247.07129;259.37;1025.76;45.061150978;10;151
30;paravance-27.rennes.grid5000.fr;thermos-root-devel-WordCountTopology-2-900135e6-573b-4caf-8d9e-2cc2b4015aa3;["container_2_Emit_random_words_2"];4.25;1533485247.1398;136.08;684.9;3.731063189;10;149
30;paravance-20.rennes.grid5000.fr;thermos-root-devel-WordCountTopology-0-0f3acea5-c5fd-463a-b7b0-3c458e731439;["topology_master"];4.25;1533485247.21484;4.47;10.96;0.0;9;117
31;paravance-27.rennes.grid5000.fr;thermos-root-devel-WordCountTopology-2-900135e6-573b-4caf-8d9e-2cc2b4015aa3;["container_2_Emit_random_words_2"];4.25;1533485257.35438;139.67;702.5;3.731063189;10;149
31;paravance-18.rennes.grid5000.fr;thermos-root-devel-WordCountTopology-1-5b7c31fd-aec1-411f-84b5-6c4d77c6b676;["container_1_Consume_and_count_1"];4.25;1533485257.28852;266.14;1052.49;45.986763903;10;151
31;paravance-20.rennes.grid5000.fr;thermos-root-devel-WordCountTopology-0-0f3acea5-c5fd-463a-b7b0-3c458e731439;["topology_master"];4.25;1533485257.42923;4.53;11.03;0.0;9;117
32;paravance-27.rennes.grid5000.fr;thermos-root-devel-WordCountTopology-2-900135e6-573b-4caf-8d9e-2cc2b4015aa3;["container_2_Emit_random_words_2"];4.25;1533485267.5721;143.31;720.06;3.731063189;10;149
32;paravance-18.rennes.grid5000.fr;thermos-root-devel-WordCountTopology-1-5b7c31fd-aec1-411f-84b5-6c4d77c6b676;["container_1_Consume_and_count_1"];4.25;1533485267.50606;273.16;1079.81;47.177610851;10;151
32;paravance-20.rennes.grid5000.fr;thermos-root-devel-WordCountTopology-0-0f3acea5-c5fd-463a-b7b0-3c458e731439;["topology_master"];4.25;1533485267.64729;4.58;11.11;0.0;9;117
33;paravance-18.rennes.grid5000.fr;thermos-root-devel-WordCountTopology-1-5b7c31fd-aec1-411f-84b5-6c4d77c6b676;["container_1_Consume_and_count_1"];4.25;1533485277.72118;280.18;1106.33;47.803519945;10;151
33;paravance-27.rennes.grid5000.fr;thermos-root-devel-WordCountTopology-2-900135e6-573b-4caf-8d9e-2cc2b4015aa3;["container_2_Emit_random_words_2"];4.25;1533485277.78931;146.95;737.55;3.731063189;10;149
33;paravance-20.rennes.grid5000.fr;thermos-root-devel-WordCountTopology-0-0f3acea5-c5fd-463a-b7b0-3c458e731439;["topology_master"];4.25;1533485277.86339;4.67;11.23;0.0;9;117
34;paravance-18.rennes.grid5000.fr;thermos-root-devel-WordCountTopology-1-5b7c31fd-aec1-411f-84b5-6c4d77c6b676;["container_1_Consume_and_count_1"];4.25;1533485287.9392;286.98;1133.1;48.607257743;10;151
34;paravance-27.rennes.grid5000.fr;thermos-root-devel-WordCountTopology-2-900135e6-573b-4caf-8d9e-2cc2b4015aa3;["container_2_Emit_random_words_2"];4.25;1533485288.00607;150.56;755.26;3.731063189;10;149
34;paravance-20.rennes.grid5000.fr;thermos-root-devel-WordCountTopology-0-0f3acea5-c5fd-463a-b7b0-3c458e731439;["topology_master"];4.25;1533485288.08095;4.73;11.3;0.0;9;117
35;paravance-27.rennes.grid5000.fr;thermos-root-devel-WordCountTopology-2-900135e6-573b-4caf-8d9e-2cc2b4015aa3;["container_2_Emit_random_words_2"];4.25;1533485298.22233;154.18;773.01;3.731063189;10;149
35;paravance-18.rennes.grid5000.fr;thermos-root-devel-WordCountTopology-1-5b7c31fd-aec1-411f-84b5-6c4d77c6b676;["container_1_Consume_and_count_1"];4.25;1533485298.15573;293.69;1160.09;49.86229786;10;151
35;paravance-20.rennes.grid5000.fr;thermos-root-devel-WordCountTopology-0-0f3acea5-c5fd-463a-b7b0-3c458e731439;["topology_master"];4.25;1533485298.29818;4.8;11.4;0.0;9;117
36;paravance-27.rennes.grid5000.fr;thermos-root-devel-WordCountTopology-2-900135e6-573b-4caf-8d9e-2cc2b4015aa3;["container_2_Emit_random_words_2"];4.25;1533485308.43819;157.85;790.81;3.731063189;10;149
36;paravance-20.rennes.grid5000.fr;thermos-root-devel-WordCountTopology-0-0f3acea5-c5fd-463a-b7b0-3c458e731439;["topology_master"];4.25;1533485308.51423;4.87;11.53;0.0;9;117
36;paravance-18.rennes.grid5000.fr;thermos-root-devel-WordCountTopology-1-5b7c31fd-aec1-411f-84b5-6c4d77c6b676;["container_1_Consume_and_count_1"];4.25;1533485308.37305;300.53;1186.16;50.5140463;10;151
37;paravance-27.rennes.grid5000.fr;thermos-root-devel-WordCountTopology-2-900135e6-573b-4caf-8d9e-2cc2b4015aa3;["container_2_Emit_random_words_2"];4.25;1533485318.65622;161.51;808.6;3.731063189;10;149
37;paravance-20.rennes.grid5000.fr;thermos-root-devel-WordCountTopology-0-0f3acea5-c5fd-463a-b7b0-3c458e731439;["topology_master"];4.25;1533485318.73106;4.96;11.65;0.0;9;117
37;paravance-18.rennes.grid5000.fr;thermos-root-devel-WordCountTopology-1-5b7c31fd-aec1-411f-84b5-6c4d77c6b676;["container_1_Consume_and_count_1"];4.25;1533485318.58996;307.49;1212.95;51.27298669;10;151
38;paravance-27.rennes.grid5000.fr;thermos-root-devel-WordCountTopology-2-900135e6-573b-4caf-8d9e-2cc2b4015aa3;["container_2_Emit_random_words_2"];4.25;1533485328.87335;165.11;826.24;3.731063189;10;149
38;paravance-18.rennes.grid5000.fr;thermos-root-devel-WordCountTopology-1-5b7c31fd-aec1-411f-84b5-6c4d77c6b676;["container_1_Consume_and_count_1"];4.25;1533485328.80925;314.26;1239.57;52.010637123;10;151
38;paravance-20.rennes.grid5000.fr;thermos-root-devel-WordCountTopology-0-0f3acea5-c5fd-463a-b7b0-3c458e731439;["topology_master"];4.25;1533485328.95052;4.99;11.68;0.0;9;117
39;paravance-18.rennes.grid5000.fr;thermos-root-devel-WordCountTopology-1-5b7c31fd-aec1-411f-84b5-6c4d77c6b676;["container_1_Consume_and_count_1"];4.25;1533485339.0249;321.19;1266.52;52.886658504;10;151
39;paravance-27.rennes.grid5000.fr;thermos-root-devel-WordCountTopology-2-900135e6-573b-4caf-8d9e-2cc2b4015aa3;["container_2_Emit_random_words_2"];4.25;1533485339.09086;168.8;844.13;3.731063189;10;149
39;paravance-20.rennes.grid5000.fr;thermos-root-devel-WordCountTopology-0-0f3acea5-c5fd-463a-b7b0-3c458e731439;["topology_master"];4.25;1533485339.1674;5.08;11.8;0.0;9;117
40;paravance-18.rennes.grid5000.fr;thermos-root-devel-WordCountTopology-1-5b7c31fd-aec1-411f-84b5-6c4d77c6b676;["container_1_Consume_and_count_1"];4.25;1533485349.24069;328.2;1294.24;54.190326795;10;151
40;paravance-27.rennes.grid5000.fr;thermos-root-devel-WordCountTopology-2-900135e6-573b-4caf-8d9e-2cc2b4015aa3;["container_2_Emit_random_words_2"];4.25;1533485349.30751;172.5;862.0;3.731063189;10;149
40;paravance-20.rennes.grid5000.fr;thermos-root-devel-WordCountTopology-0-0f3acea5-c5fd-463a-b7b0-3c458e731439;["topology_master"];4.25;1533485349.38301;5.15;11.87;0.0;9;117
41;paravance-27.rennes.grid5000.fr;thermos-root-devel-WordCountTopology-2-900135e6-573b-4caf-8d9e-2cc2b4015aa3;["container_2_Emit_random_words_2"];4.25;1533485359.52473;176.22;879.77;3.731063189;10;149
41;paravance-18.rennes.grid5000.fr;thermos-root-devel-WordCountTopology-1-5b7c31fd-aec1-411f-84b5-6c4d77c6b676;["container_1_Consume_and_count_1"];4.25;1533485359.45837;334.98;1320.12;54.829684154;10;151
41;paravance-20.rennes.grid5000.fr;thermos-root-devel-WordCountTopology-0-0f3acea5-c5fd-463a-b7b0-3c458e731439;["topology_master"];4.25;1533485359.60091;5.22;11.96;0.0;9;117
42;paravance-27.rennes.grid5000.fr;thermos-root-devel-WordCountTopology-2-900135e6-573b-4caf-8d9e-2cc2b4015aa3;["container_2_Emit_random_words_2"];4.25;1533485369.74216;179.88;897.73;3.731063189;10;149
42;paravance-18.rennes.grid5000.fr;thermos-root-devel-WordCountTopology-1-5b7c31fd-aec1-411f-84b5-6c4d77c6b676;["container_1_Consume_and_count_1"];4.25;1533485369.67638;341.84;1346.42;55.612891652;10;151
42;paravance-20.rennes.grid5000.fr;thermos-root-devel-WordCountTopology-0-0f3acea5-c5fd-463a-b7b0-3c458e731439;["topology_master"];4.25;1533485369.81953;5.28;12.11;0.0;9;117
43;paravance-27.rennes.grid5000.fr;thermos-root-devel-WordCountTopology-2-900135e6-573b-4caf-8d9e-2cc2b4015aa3;["container_2_Emit_random_words_2"];4.25;1533485379.95919;183.57;915.51;3.731063189;10;149
43;paravance-20.rennes.grid5000.fr;thermos-root-devel-WordCountTopology-0-0f3acea5-c5fd-463a-b7b0-3c458e731439;["topology_master"];4.25;1533485380.03514;5.37;12.23;0.0;9;117
43;paravance-18.rennes.grid5000.fr;thermos-root-devel-WordCountTopology-1-5b7c31fd-aec1-411f-84b5-6c4d77c6b676;["container_1_Consume_and_count_1"];4.25;1533485379.89449;348.63;1372.97;56.260834424;10;151
44;paravance-27.rennes.grid5000.fr;thermos-root-devel-WordCountTopology-2-900135e6-573b-4caf-8d9e-2cc2b4015aa3;["container_2_Emit_random_words_2"];4.25;1533485390.17555;186.9;933.18;3.731063189;10;149
44;paravance-18.rennes.grid5000.fr;thermos-root-devel-WordCountTopology-1-5b7c31fd-aec1-411f-84b5-6c4d77c6b676;["container_1_Consume_and_count_1"];4.25;1533485390.11019;355.37;1398.97;57.145594067;10;151
44;paravance-20.rennes.grid5000.fr;thermos-root-devel-WordCountTopology-0-0f3acea5-c5fd-463a-b7b0-3c458e731439;["topology_master"];4.25;1533485390.25252;5.4;12.26;0.0;9;117
45;paravance-27.rennes.grid5000.fr;thermos-root-devel-WordCountTopology-2-900135e6-573b-4caf-8d9e-2cc2b4015aa3;["container_2_Emit_random_words_2"];4.25;1533485400.39349;190.56;950.93;3.731063189;10;149
45;paravance-18.rennes.grid5000.fr;thermos-root-devel-WordCountTopology-1-5b7c31fd-aec1-411f-84b5-6c4d77c6b676;["container_1_Consume_and_count_1"];4.25;1533485400.32729;362.07;1425.29;57.8335451;10;151
45;paravance-20.rennes.grid5000.fr;thermos-root-devel-WordCountTopology-0-0f3acea5-c5fd-463a-b7b0-3c458e731439;["topology_master"];4.25;1533485400.46918;5.49;12.38;0.0;9;117
46;paravance-27.rennes.grid5000.fr;thermos-root-devel-WordCountTopology-2-900135e6-573b-4caf-8d9e-2cc2b4015aa3;["container_2_Emit_random_words_2"];4.25;1533485410.61276;194.14;968.62;3.731063189;10;149
46;paravance-18.rennes.grid5000.fr;thermos-root-devel-WordCountTopology-1-5b7c31fd-aec1-411f-84b5-6c4d77c6b676;["container_1_Consume_and_count_1"];4.25;1533485410.54616;368.88;1452.16;58.72203938;10;151
46;paravance-20.rennes.grid5000.fr;thermos-root-devel-WordCountTopology-0-0f3acea5-c5fd-463a-b7b0-3c458e731439;["topology_master"];4.25;1533485410.68954;5.55;12.46;0.0;9;117
47;paravance-27.rennes.grid5000.fr;thermos-root-devel-WordCountTopology-2-900135e6-573b-4caf-8d9e-2cc2b4015aa3;["container_2_Emit_random_words_2"];4.25;1533485420.82999;197.83;986.5;3.731063189;10;149
47;paravance-20.rennes.grid5000.fr;thermos-root-devel-WordCountTopology-0-0f3acea5-c5fd-463a-b7b0-3c458e731439;["topology_master"];4.25;1533485420.9066;5.61;12.54;0.0;9;117
47;paravance-18.rennes.grid5000.fr;thermos-root-devel-WordCountTopology-1-5b7c31fd-aec1-411f-84b5-6c4d77c6b676;["container_1_Consume_and_count_1"];4.25;1533485420.76491;375.9;1479.03;59.380049325;10;151
48;paravance-18.rennes.grid5000.fr;thermos-root-devel-WordCountTopology-1-5b7c31fd-aec1-411f-84b5-6c4d77c6b676;["container_1_Consume_and_count_1"];4.25;1533485430.98029;382.69;1505.3;59.953198154;10;151
48;paravance-20.rennes.grid5000.fr;thermos-root-devel-WordCountTopology-0-0f3acea5-c5fd-463a-b7b0-3c458e731439;["topology_master"];4.25;1533485431.12279;5.68;12.67;0.0;9;117
48;paravance-27.rennes.grid5000.fr;thermos-root-devel-WordCountTopology-2-900135e6-573b-4caf-8d9e-2cc2b4015aa3;["container_2_Emit_random_words_2"];4.25;1533485431.04713;201.42;1004.31;3.731063189;10;149
49;paravance-27.rennes.grid5000.fr;thermos-root-devel-WordCountTopology-2-900135e6-573b-4caf-8d9e-2cc2b4015aa3;["container_2_Emit_random_words_2"];4.25;1533485441.26285;205.06;1022.16;3.731063189;10;149
49;paravance-18.rennes.grid5000.fr;thermos-root-devel-WordCountTopology-1-5b7c31fd-aec1-411f-84b5-6c4d77c6b676;["container_1_Consume_and_count_1"];4.25;1533485441.19752;389.6;1531.83;60.701653837;10;151
49;paravance-20.rennes.grid5000.fr;thermos-root-devel-WordCountTopology-0-0f3acea5-c5fd-463a-b7b0-3c458e731439;["topology_master"];4.25;1533485441.34061;5.77;12.79;0.0;9;117
50;paravance-18.rennes.grid5000.fr;thermos-root-devel-WordCountTopology-1-5b7c31fd-aec1-411f-84b5-6c4d77c6b676;["container_1_Consume_and_count_1"];4.25;1533485451.41208;396.56;1558.66;61.199868466;10;151
50;paravance-27.rennes.grid5000.fr;thermos-root-devel-WordCountTopology-2-900135e6-573b-4caf-8d9e-2cc2b4015aa3;["container_2_Emit_random_words_2"];4.25;1533485451.47986;208.71;1039.86;3.731063189;10;149
50;paravance-20.rennes.grid5000.fr;thermos-root-devel-WordCountTopology-0-0f3acea5-c5fd-463a-b7b0-3c458e731439;["topology_master"];4.25;1533485451.55564;5.81;12.83;0.0;9;117
51;paravance-27.rennes.grid5000.fr;thermos-root-devel-WordCountTopology-2-900135e6-573b-4caf-8d9e-2cc2b4015aa3;["container_2_Emit_random_words_2"];4.25;1533485461.69624;212.29;1057.88;3.731063189;10;149
51;paravance-18.rennes.grid5000.fr;thermos-root-devel-WordCountTopology-1-5b7c31fd-aec1-411f-84b5-6c4d77c6b676;["container_1_Consume_and_count_1"];4.25;1533485461.62923;403.39;1585.07;61.742215448;10;151
51;paravance-20.rennes.grid5000.fr;thermos-root-devel-WordCountTopology-0-0f3acea5-c5fd-463a-b7b0-3c458e731439;["topology_master"];4.25;1533485461.77377;5.9;12.96;0.0;9;117
52;paravance-18.rennes.grid5000.fr;thermos-root-devel-WordCountTopology-1-5b7c31fd-aec1-411f-84b5-6c4d77c6b676;["container_1_Consume_and_count_1"];4.25;1533485471.84851;410.23;1612.1;62.374956729;10;151
52;paravance-27.rennes.grid5000.fr;thermos-root-devel-WordCountTopology-2-900135e6-573b-4caf-8d9e-2cc2b4015aa3;["container_2_Emit_random_words_2"];4.25;1533485471.91416;215.94;1075.71;3.731063189;10;149
52;paravance-20.rennes.grid5000.fr;thermos-root-devel-WordCountTopology-0-0f3acea5-c5fd-463a-b7b0-3c458e731439;["topology_master"];4.25;1533485471.99079;5.96;13.03;0.0;9;117
53;paravance-18.rennes.grid5000.fr;thermos-root-devel-WordCountTopology-1-5b7c31fd-aec1-411f-84b5-6c4d77c6b676;["container_1_Consume_and_count_1"];4.25;1533485482.06316;417.27;1640.01;63.751717899;10;151
53;paravance-27.rennes.grid5000.fr;thermos-root-devel-WordCountTopology-2-900135e6-573b-4caf-8d9e-2cc2b4015aa3;["container_2_Emit_random_words_2"];4.25;1533485482.13108;219.54;1093.53;3.731063189;10;149
53;paravance-20.rennes.grid5000.fr;thermos-root-devel-WordCountTopology-0-0f3acea5-c5fd-463a-b7b0-3c458e731439;["topology_master"];4.25;1533485482.20718;6.03;13.15;0.0;9;117
54;paravance-18.rennes.grid5000.fr;thermos-root-devel-WordCountTopology-1-5b7c31fd-aec1-411f-84b5-6c4d77c6b676;["container_1_Consume_and_count_1"];4.25;1533485492.28208;423.97;1667.27;64.850555016;10;151
54;paravance-27.rennes.grid5000.fr;thermos-root-devel-WordCountTopology-2-900135e6-573b-4caf-8d9e-2cc2b4015aa3;["container_2_Emit_random_words_2"];4.25;1533485492.34929;223.15;1111.27;3.731063189;10;149
54;paravance-20.rennes.grid5000.fr;thermos-root-devel-WordCountTopology-0-0f3acea5-c5fd-463a-b7b0-3c458e731439;["topology_master"];4.25;1533485492.42682;6.09;13.22;0.0;9;117
55;paravance-18.rennes.grid5000.fr;thermos-root-devel-WordCountTopology-1-5b7c31fd-aec1-411f-84b5-6c4d77c6b676;["container_1_Consume_and_count_1"];4.25;1533485502.49829;430.72;1692.96;65.321081595;10;151
55;paravance-20.rennes.grid5000.fr;thermos-root-devel-WordCountTopology-0-0f3acea5-c5fd-463a-b7b0-3c458e731439;["topology_master"];4.25;1533485502.64197;6.18;13.34;0.0;9;117
55;paravance-27.rennes.grid5000.fr;thermos-root-devel-WordCountTopology-2-900135e6-573b-4caf-8d9e-2cc2b4015aa3;["container_2_Emit_random_words_2"];4.25;1533485502.565;226.82;1128.87;3.731063189;10;149
56;paravance-27.rennes.grid5000.fr;thermos-root-devel-WordCountTopology-2-900135e6-573b-4caf-8d9e-2cc2b4015aa3;["container_2_Emit_random_words_2"];4.25;1533485512.78045;230.53;1146.37;3.731063189;10;149
56;paravance-18.rennes.grid5000.fr;thermos-root-devel-WordCountTopology-1-5b7c31fd-aec1-411f-84b5-6c4d77c6b676;["container_1_Consume_and_count_1"];4.25;1533485512.71352;437.91;1721.24;66.618680846;10;151
56;paravance-20.rennes.grid5000.fr;thermos-root-devel-WordCountTopology-0-0f3acea5-c5fd-463a-b7b0-3c458e731439;["topology_master"];4.25;1533485512.85795;6.21;13.37;0.0;9;117
57;paravance-18.rennes.grid5000.fr;thermos-root-devel-WordCountTopology-1-5b7c31fd-aec1-411f-84b5-6c4d77c6b676;["container_1_Consume_and_count_1"];4.25;1533485522.93108;444.98;1748.35;67.614582826;10;151
57;paravance-27.rennes.grid5000.fr;thermos-root-devel-WordCountTopology-2-900135e6-573b-4caf-8d9e-2cc2b4015aa3;["container_2_Emit_random_words_2"];4.25;1533485522.99837;234.13;1163.98;3.731063189;10;149
57;paravance-20.rennes.grid5000.fr;thermos-root-devel-WordCountTopology-0-0f3acea5-c5fd-463a-b7b0-3c458e731439;["topology_master"];4.25;1533485523.07555;6.3;13.49;0.0;9;117
58;paravance-20.rennes.grid5000.fr;thermos-root-devel-WordCountTopology-0-0f3acea5-c5fd-463a-b7b0-3c458e731439;["topology_master"];4.25;1533485533.2902;6.35;13.56;0.0;9;117
58;paravance-18.rennes.grid5000.fr;thermos-root-devel-WordCountTopology-1-5b7c31fd-aec1-411f-84b5-6c4d77c6b676;["container_1_Consume_and_count_1"];4.25;1533485533.14631;452.07;1775.38;68.604576953;10;151
58;paravance-27.rennes.grid5000.fr;thermos-root-devel-WordCountTopology-2-900135e6-573b-4caf-8d9e-2cc2b4015aa3;["container_2_Emit_random_words_2"];4.25;1533485533.21455;237.8;1181.54;3.731063189;10;149
59;paravance-18.rennes.grid5000.fr;thermos-root-devel-WordCountTopology-1-5b7c31fd-aec1-411f-84b5-6c4d77c6b676;["container_1_Consume_and_count_1"];4.25;1533485543.36188;459.05;1801.51;69.244975929;10;151
59;paravance-27.rennes.grid5000.fr;thermos-root-devel-WordCountTopology-2-900135e6-573b-4caf-8d9e-2cc2b4015aa3;["container_2_Emit_random_words_2"];4.25;1533485543.42811;241.45;1199.07;3.731063189;10;149
59;paravance-20.rennes.grid5000.fr;thermos-root-devel-WordCountTopology-0-0f3acea5-c5fd-463a-b7b0-3c458e731439;["topology_master"];4.25;1533485543.50712;6.42;13.66;0.0;9;117
60;paravance-20.rennes.grid5000.fr;thermos-root-devel-WordCountTopology-0-0f3acea5-c5fd-463a-b7b0-3c458e731439;["topology_master"];4.25;1533485553.62372;6.49;13.74;0.0;9;117
60;paravance-27.rennes.grid5000.fr;thermos-root-devel-WordCountTopology-2-900135e6-573b-4caf-8d9e-2cc2b4015aa3;["container_2_Emit_random_words_2"];4.25;1533485553.64651;245.14;1216.56;3.731063189;10;149
60;paravance-18.rennes.grid5000.fr;thermos-root-devel-WordCountTopology-1-5b7c31fd-aec1-411f-84b5-6c4d77c6b676;["container_1_Consume_and_count_1"];4.25;1533485553.57935;465.96;1827.78;69.781149557;10;151
