mesure_id;time;backpresure
0;1533756000;38563.0
1;1533755520;31312.0
2;1533755940;36652.0
3;1533755880;39543.0
4;1533755580;35440.0
5;1533755820;38443.0
6;1533755760;35233.0
7;1533755700;34443.0
8;1533755640;33117.0
9;1533756060;42546.0
