{
  "status": "success",
  "executiontime": 0.00018215179443359375,
  "message": "",
  "result": {
    "bolts": {
      "Consume_and_count": [
        "container_1_Consume_and_count_1"
      ]
    },
    "instances": {
      "container_2_Emit_random_words_2": {
        "stmgrId": "stmgr-2",
        "logfile": "http://paravance-6.rennes.grid5000.fr:31787/file/log-files/container_2_Emit_random_words_2.log.0",
        "id": "container_2_Emit_random_words_2",
        "name": "Emit_random_words"
      },
      "container_1_Consume_and_count_1": {
        "stmgrId": "stmgr-1",
        "logfile": "http://paravance-9.rennes.grid5000.fr:31028/file/log-files/container_1_Consume_and_count_1.log.0",
        "id": "container_1_Consume_and_count_1",
        "name": "Consume_and_count"
      }
    },
    "instance_groups": {
      "container_1_Consume_and": [
        "container_1_Consume_and_count_1"
      ],
      "container_2_Emit_random": [
        "container_2_Emit_random_words_2"
      ]
    },
    "spouts": {
      "Emit_random_words": [
        "container_2_Emit_random_words_2"
      ]
    },
    "config": {
      "topology.message.timeout.secs": "30",
      "topology.team.environment": "devel",
      "topology.serializer.classname": "org.apache.heron.streamlet.impl.KryoSerializer",
      "topology.team.name": "root",
      "topology.debug": "false",
      "topology.max.spout.pending": "100",
      "topology.container.padding.percentage": "0",
      "topology.enable.message.timeouts": "true",
      "topology.component.parallelism": "1",
      "topology.name": "WordCountTopology",
      "topology.stmgrs": "2",
      "topology.reliability.mode": "ATMOST_ONCE"
    },
    "stmgrs": {
      "stmgr-1": {
        "cwd": "/var/lib/mesos/slaves/3e467950-0fdc-4c5f-8ce5-3608e57c17bc-S2/frameworks/75deb08a-eb1b-415c-8b2c-e922be5f7d98-0000/executors/thermos-root-devel-WordCountTopology-1-3d21b8d6-7ae2-4dc3-a7f7-8a91395c8389/runs/26e07446-0315-4ad7-85fa-85600442540d/sandbox",
        "host": "paravance-9.rennes.grid5000.fr",
        "joburl": "http://paravance-9.rennes.grid5000.fr:31028/browse/",
        "shell_port": 31028,
        "logfiles": "http://paravance-9.rennes.grid5000.fr:31028/browse/log-files",
        "pid": 2851,
        "id": "stmgr-1",
        "instance_ids": [
          "container_1_Consume_and_count_1"
        ],
        "port": 31896
      },
      "stmgr-2": {
        "cwd": "/var/lib/mesos/slaves/3e467950-0fdc-4c5f-8ce5-3608e57c17bc-S1/frameworks/75deb08a-eb1b-415c-8b2c-e922be5f7d98-0000/executors/thermos-root-devel-WordCountTopology-2-de514e72-9bb7-4e0b-afa2-2475bdb8e87f/runs/f4cb65cc-65e9-443e-ac5c-e92e10439095/sandbox",
        "host": "paravance-6.rennes.grid5000.fr",
        "joburl": "http://paravance-6.rennes.grid5000.fr:31787/browse/",
        "shell_port": 31787,
        "logfiles": "http://paravance-6.rennes.grid5000.fr:31787/browse/log-files",
        "pid": 2761,
        "id": "stmgr-2",
        "instance_ids": [
          "container_2_Emit_random_words_2"
        ],
        "port": 31501
      }
    }
  },
  "tracker_version": "0.17.8-61-gd7c8c62"
}