mesure_id;slave_id;executor_id;heron_instances;cpus_limit;timestamp_B;cpus_system_time_secs_B;cpus_user_time_secs_B;cpus_throttled_time_secs_B;word_size;throttle;run_id
0;paravance-70.rennes.grid5000.fr;thermos-root-devel-WordCountTopology-1-3dc75aa7-6272-4278-ab5a-081aa8582e37;["container_1_Consume_and_count_1"];3.25;1532697713.30945;127.61;492.8;195.714902662;1500;0;1
0;paravance-67.rennes.grid5000.fr;thermos-root-devel-WordCountTopology-0-2dd1a62c-66d2-4573-8af6-c8a7fbbfbf00;["topology_master"];3.25;1532697713.30741;3.29;9.37;0.218517864;1500;0;1
0;paravance-71.rennes.grid5000.fr;thermos-root-devel-WordCountTopology-2-9240e387-b2a1-4692-bccb-7f05df5b1a59;["container_2_Emit_random_words_2"];3.25;1532697713.37164;74.69;345.56;9.368034586;1500;0;1
1;paravance-71.rennes.grid5000.fr;thermos-root-devel-WordCountTopology-2-9240e387-b2a1-4692-bccb-7f05df5b1a59;["container_2_Emit_random_words_2"];3.25;1532697723.58508;78.39;362.93;9.37203289;1500;0;1
1;paravance-67.rennes.grid5000.fr;thermos-root-devel-WordCountTopology-0-2dd1a62c-66d2-4573-8af6-c8a7fbbfbf00;["topology_master"];3.25;1532697723.52318;3.37;9.48;0.218517864;1500;0;1
1;paravance-70.rennes.grid5000.fr;thermos-root-devel-WordCountTopology-1-3dc75aa7-6272-4278-ab5a-081aa8582e37;["container_1_Consume_and_count_1"];3.25;1532697723.52684;134.05;517.94;206.035364846;1500;0;1
2;paravance-70.rennes.grid5000.fr;thermos-root-devel-WordCountTopology-1-3dc75aa7-6272-4278-ab5a-081aa8582e37;["container_1_Consume_and_count_1"];3.25;1532697733.74152;140.3;543.39;217.564154839;1500;0;1
2;paravance-71.rennes.grid5000.fr;thermos-root-devel-WordCountTopology-2-9240e387-b2a1-4692-bccb-7f05df5b1a59;["container_2_Emit_random_words_2"];3.25;1532697733.80334;81.94;378.72;9.37203289;1500;0;1
2;paravance-67.rennes.grid5000.fr;thermos-root-devel-WordCountTopology-0-2dd1a62c-66d2-4573-8af6-c8a7fbbfbf00;["topology_master"];3.25;1532697733.74114;3.41;9.55;0.218517864;1500;0;1
3;paravance-70.rennes.grid5000.fr;thermos-root-devel-WordCountTopology-1-3dc75aa7-6272-4278-ab5a-081aa8582e37;["container_1_Consume_and_count_1"];3.25;1532697743.9582;146.71;568.6;228.169829428;1500;0;1
3;paravance-71.rennes.grid5000.fr;thermos-root-devel-WordCountTopology-2-9240e387-b2a1-4692-bccb-7f05df5b1a59;["container_2_Emit_random_words_2"];3.25;1532697744.02241;85.62;394.89;9.37203289;1500;0;1
3;paravance-67.rennes.grid5000.fr;thermos-root-devel-WordCountTopology-0-2dd1a62c-66d2-4573-8af6-c8a7fbbfbf00;["topology_master"];3.25;1532697743.9577;3.5;9.68;0.218517864;1500;0;1
4;paravance-70.rennes.grid5000.fr;thermos-root-devel-WordCountTopology-1-3dc75aa7-6272-4278-ab5a-081aa8582e37;["container_1_Consume_and_count_1"];3.25;1532697754.17687;153.17;593.81;238.609273252;1500;0;1
4;paravance-71.rennes.grid5000.fr;thermos-root-devel-WordCountTopology-2-9240e387-b2a1-4692-bccb-7f05df5b1a59;["container_2_Emit_random_words_2"];3.25;1532697754.23834;89.36;411.72;9.37203289;1500;0;1
4;paravance-67.rennes.grid5000.fr;thermos-root-devel-WordCountTopology-0-2dd1a62c-66d2-4573-8af6-c8a7fbbfbf00;["topology_master"];3.25;1532697754.17587;3.56;9.76;0.218517864;1500;0;1
5;paravance-70.rennes.grid5000.fr;thermos-root-devel-WordCountTopology-1-3dc75aa7-6272-4278-ab5a-081aa8582e37;["container_1_Consume_and_count_1"];3.25;1532697764.39205;159.38;619.21;251.395813806;1500;0;1
5;paravance-71.rennes.grid5000.fr;thermos-root-devel-WordCountTopology-2-9240e387-b2a1-4692-bccb-7f05df5b1a59;["container_2_Emit_random_words_2"];3.25;1532697764.4538;92.91;427.88;9.372054932;1500;0;1
5;paravance-67.rennes.grid5000.fr;thermos-root-devel-WordCountTopology-0-2dd1a62c-66d2-4573-8af6-c8a7fbbfbf00;["topology_master"];3.25;1532697764.39181;3.65;9.91;0.218517864;1500;0;1
6;paravance-70.rennes.grid5000.fr;thermos-root-devel-WordCountTopology-1-3dc75aa7-6272-4278-ab5a-081aa8582e37;["container_1_Consume_and_count_1"];3.25;1532697774.60945;165.9;644.32;264.429196622;1500;0;1
6;paravance-71.rennes.grid5000.fr;thermos-root-devel-WordCountTopology-2-9240e387-b2a1-4692-bccb-7f05df5b1a59;["container_2_Emit_random_words_2"];3.25;1532697774.67088;96.4;443.63;9.372054932;1500;0;1
6;paravance-67.rennes.grid5000.fr;thermos-root-devel-WordCountTopology-0-2dd1a62c-66d2-4573-8af6-c8a7fbbfbf00;["topology_master"];3.25;1532697774.60803;3.71;9.98;0.218517864;1500;0;1
7;paravance-71.rennes.grid5000.fr;thermos-root-devel-WordCountTopology-2-9240e387-b2a1-4692-bccb-7f05df5b1a59;["container_2_Emit_random_words_2"];3.25;1532697784.88775;100.15;460.84;9.372054932;1500;0;1
7;paravance-70.rennes.grid5000.fr;thermos-root-devel-WordCountTopology-1-3dc75aa7-6272-4278-ab5a-081aa8582e37;["container_1_Consume_and_count_1"];3.25;1532697784.82787;172.18;669.79;274.31773689;1500;0;1
7;paravance-67.rennes.grid5000.fr;thermos-root-devel-WordCountTopology-0-2dd1a62c-66d2-4573-8af6-c8a7fbbfbf00;["topology_master"];3.25;1532697784.82519;3.8;10.11;0.218517864;1500;0;1
8;paravance-70.rennes.grid5000.fr;thermos-root-devel-WordCountTopology-1-3dc75aa7-6272-4278-ab5a-081aa8582e37;["container_1_Consume_and_count_1"];3.25;1532697795.04296;178.28;695.31;287.422524025;1500;0;1
8;paravance-71.rennes.grid5000.fr;thermos-root-devel-WordCountTopology-2-9240e387-b2a1-4692-bccb-7f05df5b1a59;["container_2_Emit_random_words_2"];3.25;1532697795.10477;103.51;477.65;9.372054932;1500;0;1
8;paravance-67.rennes.grid5000.fr;thermos-root-devel-WordCountTopology-0-2dd1a62c-66d2-4573-8af6-c8a7fbbfbf00;["topology_master"];3.25;1532697795.04316;3.86;10.19;0.218517864;1500;0;1
9;paravance-70.rennes.grid5000.fr;thermos-root-devel-WordCountTopology-1-3dc75aa7-6272-4278-ab5a-081aa8582e37;["container_1_Consume_and_count_1"];3.25;1532697805.26066;184.57;720.73;299.655609643;1500;0;1
9;paravance-67.rennes.grid5000.fr;thermos-root-devel-WordCountTopology-0-2dd1a62c-66d2-4573-8af6-c8a7fbbfbf00;["topology_master"];3.25;1532697805.26001;3.91;10.27;0.218517864;1500;0;1
9;paravance-71.rennes.grid5000.fr;thermos-root-devel-WordCountTopology-2-9240e387-b2a1-4692-bccb-7f05df5b1a59;["container_2_Emit_random_words_2"];3.25;1532697805.32332;106.95;492.82;9.372054932;1500;0;1
10;paravance-70.rennes.grid5000.fr;thermos-root-devel-WordCountTopology-1-3dc75aa7-6272-4278-ab5a-081aa8582e37;["container_1_Consume_and_count_1"];3.25;1532697815.47807;190.67;746.43;312.361817981;1500;0;1
10;paravance-71.rennes.grid5000.fr;thermos-root-devel-WordCountTopology-2-9240e387-b2a1-4692-bccb-7f05df5b1a59;["container_2_Emit_random_words_2"];3.25;1532697815.53809;110.33;508.47;9.372054932;1500;0;1
10;paravance-67.rennes.grid5000.fr;thermos-root-devel-WordCountTopology-0-2dd1a62c-66d2-4573-8af6-c8a7fbbfbf00;["topology_master"];3.25;1532697815.47609;3.97;10.34;0.218517864;1500;0;1
11;paravance-70.rennes.grid5000.fr;thermos-root-devel-WordCountTopology-1-3dc75aa7-6272-4278-ab5a-081aa8582e37;["container_1_Consume_and_count_1"];3.25;1532697825.69468;196.81;771.88;325.613594146;1500;0;1
11;paravance-71.rennes.grid5000.fr;thermos-root-devel-WordCountTopology-2-9240e387-b2a1-4692-bccb-7f05df5b1a59;["container_2_Emit_random_words_2"];3.25;1532697825.75512;113.64;524.12;9.372054932;1500;0;1
11;paravance-67.rennes.grid5000.fr;thermos-root-devel-WordCountTopology-0-2dd1a62c-66d2-4573-8af6-c8a7fbbfbf00;["topology_master"];3.25;1532697825.69269;4.08;10.52;0.218517864;1500;0;1
12;paravance-70.rennes.grid5000.fr;thermos-root-devel-WordCountTopology-1-3dc75aa7-6272-4278-ab5a-081aa8582e37;["container_1_Consume_and_count_1"];3.25;1532697835.91045;203.06;797.21;338.607237326;1500;0;1
12;paravance-71.rennes.grid5000.fr;thermos-root-devel-WordCountTopology-2-9240e387-b2a1-4692-bccb-7f05df5b1a59;["container_2_Emit_random_words_2"];3.25;1532697835.97256;117.08;539.72;9.379585057;1500;0;1
12;paravance-67.rennes.grid5000.fr;thermos-root-devel-WordCountTopology-0-2dd1a62c-66d2-4573-8af6-c8a7fbbfbf00;["topology_master"];3.25;1532697835.91074;4.1;10.54;0.218517864;1500;0;1
13;paravance-71.rennes.grid5000.fr;thermos-root-devel-WordCountTopology-2-9240e387-b2a1-4692-bccb-7f05df5b1a59;["container_2_Emit_random_words_2"];3.25;1532697846.18911;120.5;556.1;9.379585057;1500;0;1
13;paravance-67.rennes.grid5000.fr;thermos-root-devel-WordCountTopology-0-2dd1a62c-66d2-4573-8af6-c8a7fbbfbf00;["topology_master"];3.25;1532697846.1267;4.2;10.67;0.218517864;1500;0;1
13;paravance-70.rennes.grid5000.fr;thermos-root-devel-WordCountTopology-1-3dc75aa7-6272-4278-ab5a-081aa8582e37;["container_1_Consume_and_count_1"];3.25;1532697846.13086;209.46;822.49;350.738831543;1500;0;1
14;paravance-67.rennes.grid5000.fr;thermos-root-devel-WordCountTopology-0-2dd1a62c-66d2-4573-8af6-c8a7fbbfbf00;["topology_master"];3.25;1532697856.34253;4.25;10.74;0.218517864;1500;0;1
14;paravance-71.rennes.grid5000.fr;thermos-root-devel-WordCountTopology-2-9240e387-b2a1-4692-bccb-7f05df5b1a59;["container_2_Emit_random_words_2"];3.25;1532697856.40725;123.97;571.48;9.380346119;1500;0;1
14;paravance-70.rennes.grid5000.fr;thermos-root-devel-WordCountTopology-1-3dc75aa7-6272-4278-ab5a-081aa8582e37;["container_1_Consume_and_count_1"];3.25;1532697856.34708;215.78;847.8;363.252481306;1500;0;1
15;paravance-70.rennes.grid5000.fr;thermos-root-devel-WordCountTopology-1-3dc75aa7-6272-4278-ab5a-081aa8582e37;["container_1_Consume_and_count_1"];3.25;1532697866.56141;222.17;872.97;375.27600819;1500;0;1
15;paravance-71.rennes.grid5000.fr;thermos-root-devel-WordCountTopology-2-9240e387-b2a1-4692-bccb-7f05df5b1a59;["container_2_Emit_random_words_2"];3.25;1532697866.62413;127.46;586.99;9.380346119;1500;0;1
15;paravance-67.rennes.grid5000.fr;thermos-root-devel-WordCountTopology-0-2dd1a62c-66d2-4573-8af6-c8a7fbbfbf00;["topology_master"];3.25;1532697866.56173;4.32;10.82;0.218517864;1500;0;1
16;paravance-71.rennes.grid5000.fr;thermos-root-devel-WordCountTopology-2-9240e387-b2a1-4692-bccb-7f05df5b1a59;["container_2_Emit_random_words_2"];3.25;1532697876.84024;131.03;603.13;9.380346119;1500;0;1
16;paravance-70.rennes.grid5000.fr;thermos-root-devel-WordCountTopology-1-3dc75aa7-6272-4278-ab5a-081aa8582e37;["container_1_Consume_and_count_1"];3.25;1532697876.7802;228.58;898.21;387.771495585;1500;0;1
16;paravance-67.rennes.grid5000.fr;thermos-root-devel-WordCountTopology-0-2dd1a62c-66d2-4573-8af6-c8a7fbbfbf00;["topology_master"];3.25;1532697876.7782;4.38;10.9;0.218517864;1500;0;1
17;paravance-70.rennes.grid5000.fr;thermos-root-devel-WordCountTopology-1-3dc75aa7-6272-4278-ab5a-081aa8582e37;["container_1_Consume_and_count_1"];3.25;1532697886.99622;234.9;923.44;400.17776754;1500;0;1
17;paravance-71.rennes.grid5000.fr;thermos-root-devel-WordCountTopology-2-9240e387-b2a1-4692-bccb-7f05df5b1a59;["container_2_Emit_random_words_2"];3.25;1532697887.05775;134.44;618.53;9.437686545;1500;0;1
17;paravance-67.rennes.grid5000.fr;thermos-root-devel-WordCountTopology-0-2dd1a62c-66d2-4573-8af6-c8a7fbbfbf00;["topology_master"];3.25;1532697886.99588;4.48;11.09;0.218517864;1500;0;1
18;paravance-70.rennes.grid5000.fr;thermos-root-devel-WordCountTopology-1-3dc75aa7-6272-4278-ab5a-081aa8582e37;["container_1_Consume_and_count_1"];3.25;1532697897.21343;240.89;949.07;412.200990898;1500;0;1
18;paravance-71.rennes.grid5000.fr;thermos-root-devel-WordCountTopology-2-9240e387-b2a1-4692-bccb-7f05df5b1a59;["container_2_Emit_random_words_2"];3.25;1532697897.27378;138.1;634.71;9.437686545;1500;0;1
18;paravance-67.rennes.grid5000.fr;thermos-root-devel-WordCountTopology-0-2dd1a62c-66d2-4573-8af6-c8a7fbbfbf00;["topology_master"];3.25;1532697897.21084;4.51;11.11;0.218517864;1500;0;1
19;paravance-71.rennes.grid5000.fr;thermos-root-devel-WordCountTopology-2-9240e387-b2a1-4692-bccb-7f05df5b1a59;["container_2_Emit_random_words_2"];3.25;1532697907.48976;141.6;650.26;9.437686545;1500;0;1
19;paravance-67.rennes.grid5000.fr;thermos-root-devel-WordCountTopology-0-2dd1a62c-66d2-4573-8af6-c8a7fbbfbf00;["topology_master"];3.25;1532697907.42657;4.6;11.24;0.218517864;1500;0;1
19;paravance-70.rennes.grid5000.fr;thermos-root-devel-WordCountTopology-1-3dc75aa7-6272-4278-ab5a-081aa8582e37;["container_1_Consume_and_count_1"];3.25;1532697907.42937;247.19;974.36;424.799116257;1500;0;1
20;paravance-67.rennes.grid5000.fr;thermos-root-devel-WordCountTopology-0-2dd1a62c-66d2-4573-8af6-c8a7fbbfbf00;["topology_master"];3.25;1532697917.64293;4.65;11.31;0.218517864;1500;0;1
20;paravance-71.rennes.grid5000.fr;thermos-root-devel-WordCountTopology-2-9240e387-b2a1-4692-bccb-7f05df5b1a59;["container_2_Emit_random_words_2"];3.25;1532697917.70634;145.19;666.29;9.437686545;1500;0;1
20;paravance-70.rennes.grid5000.fr;thermos-root-devel-WordCountTopology-1-3dc75aa7-6272-4278-ab5a-081aa8582e37;["container_1_Consume_and_count_1"];3.25;1532697917.64712;253.68;999.46;437.083332388;1500;0;1
21;paravance-71.rennes.grid5000.fr;thermos-root-devel-WordCountTopology-2-9240e387-b2a1-4692-bccb-7f05df5b1a59;["container_2_Emit_random_words_2"];3.25;1532697927.92173;148.6;681.59;9.437686545;1500;0;1
21;paravance-67.rennes.grid5000.fr;thermos-root-devel-WordCountTopology-0-2dd1a62c-66d2-4573-8af6-c8a7fbbfbf00;["topology_master"];3.25;1532697927.85982;4.71;11.39;0.218517864;1500;0;1
21;paravance-70.rennes.grid5000.fr;thermos-root-devel-WordCountTopology-1-3dc75aa7-6272-4278-ab5a-081aa8582e37;["container_1_Consume_and_count_1"];3.25;1532697927.86385;260.09;1024.69;448.78548204;1500;0;1
22;paravance-67.rennes.grid5000.fr;thermos-root-devel-WordCountTopology-0-2dd1a62c-66d2-4573-8af6-c8a7fbbfbf00;["topology_master"];3.25;1532697938.07882;4.76;11.46;0.218517864;1500;0;1
22;paravance-70.rennes.grid5000.fr;thermos-root-devel-WordCountTopology-1-3dc75aa7-6272-4278-ab5a-081aa8582e37;["container_1_Consume_and_count_1"];3.25;1532697938.08518;266.53;1049.86;461.211391089;1500;0;1
22;paravance-71.rennes.grid5000.fr;thermos-root-devel-WordCountTopology-2-9240e387-b2a1-4692-bccb-7f05df5b1a59;["container_2_Emit_random_words_2"];3.25;1532697938.14361;152.24;698.08;9.437686545;1500;0;1
23;paravance-71.rennes.grid5000.fr;thermos-root-devel-WordCountTopology-2-9240e387-b2a1-4692-bccb-7f05df5b1a59;["container_2_Emit_random_words_2"];3.25;1532697948.26027;155.67;714.09;9.438725679;1500;0;1
23;paravance-70.rennes.grid5000.fr;thermos-root-devel-WordCountTopology-1-3dc75aa7-6272-4278-ab5a-081aa8582e37;["container_1_Consume_and_count_1"];3.25;1532697948.29692;272.73;1075.3;473.536983096;1500;0;1
23;paravance-67.rennes.grid5000.fr;thermos-root-devel-WordCountTopology-0-2dd1a62c-66d2-4573-8af6-c8a7fbbfbf00;["topology_master"];3.25;1532697948.30094;4.87;11.64;0.218517864;1500;0;1
24;paravance-70.rennes.grid5000.fr;thermos-root-devel-WordCountTopology-1-3dc75aa7-6272-4278-ab5a-081aa8582e37;["container_1_Consume_and_count_1"];3.25;1532697958.52449;278.93;1100.83;485.982254376;1500;0;1
24;paravance-71.rennes.grid5000.fr;thermos-root-devel-WordCountTopology-2-9240e387-b2a1-4692-bccb-7f05df5b1a59;["container_2_Emit_random_words_2"];3.25;1532697958.58484;159.2;730.05;9.438725679;1500;0;1
24;paravance-67.rennes.grid5000.fr;thermos-root-devel-WordCountTopology-0-2dd1a62c-66d2-4573-8af6-c8a7fbbfbf00;["topology_master"];3.25;1532697958.52571;4.9;11.67;0.218517864;1500;0;1
25;paravance-71.rennes.grid5000.fr;thermos-root-devel-WordCountTopology-2-9240e387-b2a1-4692-bccb-7f05df5b1a59;["container_2_Emit_random_words_2"];3.25;1532697968.80469;162.7;745.11;9.438725679;1500;0;1
25;paravance-67.rennes.grid5000.fr;thermos-root-devel-WordCountTopology-0-2dd1a62c-66d2-4573-8af6-c8a7fbbfbf00;["topology_master"];3.25;1532697968.74198;5.0;11.8;0.218517864;1500;0;1
25;paravance-70.rennes.grid5000.fr;thermos-root-devel-WordCountTopology-1-3dc75aa7-6272-4278-ab5a-081aa8582e37;["container_1_Consume_and_count_1"];3.25;1532697968.75321;285.25;1126.17;499.025652043;1500;0;1
26;paravance-67.rennes.grid5000.fr;thermos-root-devel-WordCountTopology-0-2dd1a62c-66d2-4573-8af6-c8a7fbbfbf00;["topology_master"];3.25;1532697978.96585;5.06;11.87;0.218517864;1500;0;1
26;paravance-70.rennes.grid5000.fr;thermos-root-devel-WordCountTopology-1-3dc75aa7-6272-4278-ab5a-081aa8582e37;["container_1_Consume_and_count_1"];3.25;1532697978.96987;291.73;1151.23;510.645865812;1500;0;1
26;paravance-71.rennes.grid5000.fr;thermos-root-devel-WordCountTopology-2-9240e387-b2a1-4692-bccb-7f05df5b1a59;["container_2_Emit_random_words_2"];3.25;1532697979.02882;166.24;760.82;9.438725679;1500;0;1
27;paravance-70.rennes.grid5000.fr;thermos-root-devel-WordCountTopology-1-3dc75aa7-6272-4278-ab5a-081aa8582e37;["container_1_Consume_and_count_1"];3.25;1532697989.18174;298.15;1176.34;522.550345237;1500;0;1
27;paravance-71.rennes.grid5000.fr;thermos-root-devel-WordCountTopology-2-9240e387-b2a1-4692-bccb-7f05df5b1a59;["container_2_Emit_random_words_2"];3.25;1532697989.24332;169.73;776.93;9.438725679;1500;0;1
27;paravance-67.rennes.grid5000.fr;thermos-root-devel-WordCountTopology-0-2dd1a62c-66d2-4573-8af6-c8a7fbbfbf00;["topology_master"];3.25;1532697989.18134;5.12;11.95;0.218517864;1500;0;1
28;paravance-70.rennes.grid5000.fr;thermos-root-devel-WordCountTopology-1-3dc75aa7-6272-4278-ab5a-081aa8582e37;["container_1_Consume_and_count_1"];3.25;1532697999.39843;304.69;1201.29;535.621360106;1500;0;1
28;paravance-67.rennes.grid5000.fr;thermos-root-devel-WordCountTopology-0-2dd1a62c-66d2-4573-8af6-c8a7fbbfbf00;["topology_master"];3.25;1532697999.39556;5.23;12.09;0.218517864;1500;0;1
28;paravance-71.rennes.grid5000.fr;thermos-root-devel-WordCountTopology-2-9240e387-b2a1-4692-bccb-7f05df5b1a59;["container_2_Emit_random_words_2"];3.25;1532697999.45935;173.29;792.39;9.438725679;1500;0;1
29;paravance-70.rennes.grid5000.fr;thermos-root-devel-WordCountTopology-1-3dc75aa7-6272-4278-ab5a-081aa8582e37;["container_1_Consume_and_count_1"];3.25;1532698009.61116;311.08;1226.44;548.136674535;1500;0;1
29;paravance-71.rennes.grid5000.fr;thermos-root-devel-WordCountTopology-2-9240e387-b2a1-4692-bccb-7f05df5b1a59;["container_2_Emit_random_words_2"];3.25;1532698009.67174;176.82;807.91;9.438725679;1500;0;1
29;paravance-67.rennes.grid5000.fr;thermos-root-devel-WordCountTopology-0-2dd1a62c-66d2-4573-8af6-c8a7fbbfbf00;["topology_master"];3.25;1532698009.60937;5.29;12.23;0.218517864;1500;0;1
30;paravance-71.rennes.grid5000.fr;thermos-root-devel-WordCountTopology-2-9240e387-b2a1-4692-bccb-7f05df5b1a59;["container_2_Emit_random_words_2"];3.25;1532698019.88691;180.23;823.47;9.438725679;1500;0;1
30;paravance-70.rennes.grid5000.fr;thermos-root-devel-WordCountTopology-1-3dc75aa7-6272-4278-ab5a-081aa8582e37;["container_1_Consume_and_count_1"];3.25;1532698019.82843;317.16;1252.14;560.216377391;1500;0;1
30;paravance-67.rennes.grid5000.fr;thermos-root-devel-WordCountTopology-0-2dd1a62c-66d2-4573-8af6-c8a7fbbfbf00;["topology_master"];3.25;1532698019.8242;5.37;12.33;0.218517864;1500;0;1
31;paravance-67.rennes.grid5000.fr;thermos-root-devel-WordCountTopology-0-2dd1a62c-66d2-4573-8af6-c8a7fbbfbf00;["topology_master"];3.25;1532698030.04219;5.42;12.41;0.218517864;1500;0;1
31;paravance-70.rennes.grid5000.fr;thermos-root-devel-WordCountTopology-1-3dc75aa7-6272-4278-ab5a-081aa8582e37;["container_1_Consume_and_count_1"];3.25;1532698030.04733;323.36;1277.59;571.69974725;1500;0;1
31;paravance-71.rennes.grid5000.fr;thermos-root-devel-WordCountTopology-2-9240e387-b2a1-4692-bccb-7f05df5b1a59;["container_2_Emit_random_words_2"];3.25;1532698030.10633;183.84;839.99;9.438725679;1500;0;1
32;paravance-71.rennes.grid5000.fr;thermos-root-devel-WordCountTopology-2-9240e387-b2a1-4692-bccb-7f05df5b1a59;["container_2_Emit_random_words_2"];3.25;1532698040.32097;187.56;856.71;9.438725679;1500;0;1
32;paravance-70.rennes.grid5000.fr;thermos-root-devel-WordCountTopology-1-3dc75aa7-6272-4278-ab5a-081aa8582e37;["container_1_Consume_and_count_1"];3.25;1532698040.26217;329.2;1303.43;584.429773149;1500;0;1
32;paravance-67.rennes.grid5000.fr;thermos-root-devel-WordCountTopology-0-2dd1a62c-66d2-4573-8af6-c8a7fbbfbf00;["topology_master"];3.25;1532698040.25959;5.51;12.53;0.218517864;1500;0;1
33;paravance-67.rennes.grid5000.fr;thermos-root-devel-WordCountTopology-0-2dd1a62c-66d2-4573-8af6-c8a7fbbfbf00;["topology_master"];3.25;1532698050.475;5.54;12.56;0.218517864;1500;0;1
33;paravance-71.rennes.grid5000.fr;thermos-root-devel-WordCountTopology-2-9240e387-b2a1-4692-bccb-7f05df5b1a59;["container_2_Emit_random_words_2"];3.25;1532698050.53793;191.09;872.5;9.438725679;1500;0;1
33;paravance-70.rennes.grid5000.fr;thermos-root-devel-WordCountTopology-1-3dc75aa7-6272-4278-ab5a-081aa8582e37;["container_1_Consume_and_count_1"];3.25;1532698050.47822;335.79;1328.44;596.377712026;1500;0;1
34;paravance-71.rennes.grid5000.fr;thermos-root-devel-WordCountTopology-2-9240e387-b2a1-4692-bccb-7f05df5b1a59;["container_2_Emit_random_words_2"];3.25;1532698060.75452;194.65;888.56;9.438725679;1500;0;1
34;paravance-67.rennes.grid5000.fr;thermos-root-devel-WordCountTopology-0-2dd1a62c-66d2-4573-8af6-c8a7fbbfbf00;["topology_master"];3.25;1532698060.6923;5.64;12.7;0.218517864;1500;0;1
34;paravance-70.rennes.grid5000.fr;thermos-root-devel-WordCountTopology-1-3dc75aa7-6272-4278-ab5a-081aa8582e37;["container_1_Consume_and_count_1"];3.25;1532698060.69672;342.27;1353.54;608.65302826;1500;0;1
35;paravance-70.rennes.grid5000.fr;thermos-root-devel-WordCountTopology-1-3dc75aa7-6272-4278-ab5a-081aa8582e37;["container_1_Consume_and_count_1"];3.25;1532698070.90915;348.61;1378.74;621.332288065;1500;0;1
35;paravance-71.rennes.grid5000.fr;thermos-root-devel-WordCountTopology-2-9240e387-b2a1-4692-bccb-7f05df5b1a59;["container_2_Emit_random_words_2"];3.25;1532698070.96839;198.12;903.91;9.438725679;1500;0;1
35;paravance-67.rennes.grid5000.fr;thermos-root-devel-WordCountTopology-0-2dd1a62c-66d2-4573-8af6-c8a7fbbfbf00;["topology_master"];3.25;1532698070.90781;5.7;12.8;0.218517864;1500;0;1
36;paravance-67.rennes.grid5000.fr;thermos-root-devel-WordCountTopology-0-2dd1a62c-66d2-4573-8af6-c8a7fbbfbf00;["topology_master"];3.25;1532698081.12384;5.76;12.87;0.218517864;1500;0;1
36;paravance-71.rennes.grid5000.fr;thermos-root-devel-WordCountTopology-2-9240e387-b2a1-4692-bccb-7f05df5b1a59;["container_2_Emit_random_words_2"];3.25;1532698081.18653;201.56;919.6;9.438725679;1500;0;1
36;paravance-70.rennes.grid5000.fr;thermos-root-devel-WordCountTopology-1-3dc75aa7-6272-4278-ab5a-081aa8582e37;["container_1_Consume_and_count_1"];3.25;1532698081.12904;354.88;1404.2;633.412719262;1500;0;1
37;paravance-71.rennes.grid5000.fr;thermos-root-devel-WordCountTopology-2-9240e387-b2a1-4692-bccb-7f05df5b1a59;["container_2_Emit_random_words_2"];3.25;1532698091.40077;205.03;934.91;9.438725679;1500;0;1
37;paravance-70.rennes.grid5000.fr;thermos-root-devel-WordCountTopology-1-3dc75aa7-6272-4278-ab5a-081aa8582e37;["container_1_Consume_and_count_1"];3.25;1532698091.34441;361.22;1429.46;644.884473046;1500;0;1
37;paravance-67.rennes.grid5000.fr;thermos-root-devel-WordCountTopology-0-2dd1a62c-66d2-4573-8af6-c8a7fbbfbf00;["topology_master"];3.25;1532698091.34142;5.82;12.95;0.218517864;1500;0;1
38;paravance-70.rennes.grid5000.fr;thermos-root-devel-WordCountTopology-1-3dc75aa7-6272-4278-ab5a-081aa8582e37;["container_1_Consume_and_count_1"];3.25;1532698101.56089;367.62;1454.78;656.735339706;1500;0;1
38;paravance-71.rennes.grid5000.fr;thermos-root-devel-WordCountTopology-2-9240e387-b2a1-4692-bccb-7f05df5b1a59;["container_2_Emit_random_words_2"];3.25;1532698101.61875;208.6;950.74;9.438725679;1500;0;1
38;paravance-67.rennes.grid5000.fr;thermos-root-devel-WordCountTopology-0-2dd1a62c-66d2-4573-8af6-c8a7fbbfbf00;["topology_master"];3.25;1532698101.55731;5.91;13.08;0.218517864;1500;0;1
39;paravance-70.rennes.grid5000.fr;thermos-root-devel-WordCountTopology-1-3dc75aa7-6272-4278-ab5a-081aa8582e37;["container_1_Consume_and_count_1"];3.25;1532698111.77613;374.19;1479.66;669.332069676;1500;0;1
39;paravance-71.rennes.grid5000.fr;thermos-root-devel-WordCountTopology-2-9240e387-b2a1-4692-bccb-7f05df5b1a59;["container_2_Emit_random_words_2"];3.25;1532698111.83671;212.08;965.94;9.438725679;1500;0;1
39;paravance-67.rennes.grid5000.fr;thermos-root-devel-WordCountTopology-0-2dd1a62c-66d2-4573-8af6-c8a7fbbfbf00;["topology_master"];3.25;1532698111.77448;5.97;13.16;0.218517864;1500;0;1
40;paravance-70.rennes.grid5000.fr;thermos-root-devel-WordCountTopology-1-3dc75aa7-6272-4278-ab5a-081aa8582e37;["container_1_Consume_and_count_1"];3.25;1532698121.99335;380.71;1504.69;682.159899161;1500;0;1
40;paravance-71.rennes.grid5000.fr;thermos-root-devel-WordCountTopology-2-9240e387-b2a1-4692-bccb-7f05df5b1a59;["container_2_Emit_random_words_2"];3.25;1532698122.05186;215.5;981.49;9.438725679;1500;0;1
40;paravance-67.rennes.grid5000.fr;thermos-root-devel-WordCountTopology-0-2dd1a62c-66d2-4573-8af6-c8a7fbbfbf00;["topology_master"];3.25;1532698121.98919;6.03;13.25;0.218517864;1500;0;1
41;paravance-70.rennes.grid5000.fr;thermos-root-devel-WordCountTopology-1-3dc75aa7-6272-4278-ab5a-081aa8582e37;["container_1_Consume_and_count_1"];3.25;1532698132.20788;387.1;1529.87;695.424251354;1500;0;1
41;paravance-71.rennes.grid5000.fr;thermos-root-devel-WordCountTopology-2-9240e387-b2a1-4692-bccb-7f05df5b1a59;["container_2_Emit_random_words_2"];3.25;1532698132.2678;218.86;996.24;9.438725679;1500;0;1
41;paravance-67.rennes.grid5000.fr;thermos-root-devel-WordCountTopology-0-2dd1a62c-66d2-4573-8af6-c8a7fbbfbf00;["topology_master"];3.25;1532698132.20511;6.1;13.36;0.218517864;1500;0;1
42;paravance-67.rennes.grid5000.fr;thermos-root-devel-WordCountTopology-0-2dd1a62c-66d2-4573-8af6-c8a7fbbfbf00;["topology_master"];3.25;1532698142.4193;6.18;13.48;0.218517864;1500;0;1
42;paravance-70.rennes.grid5000.fr;thermos-root-devel-WordCountTopology-1-3dc75aa7-6272-4278-ab5a-081aa8582e37;["container_1_Consume_and_count_1"];3.25;1532698142.42421;393.56;1555.0;707.776377212;1500;0;1
42;paravance-71.rennes.grid5000.fr;thermos-root-devel-WordCountTopology-2-9240e387-b2a1-4692-bccb-7f05df5b1a59;["container_2_Emit_random_words_2"];3.25;1532698142.4834;222.4;1011.93;9.438725679;1500;0;1
43;paravance-70.rennes.grid5000.fr;thermos-root-devel-WordCountTopology-1-3dc75aa7-6272-4278-ab5a-081aa8582e37;["container_1_Consume_and_count_1"];3.25;1532698152.63998;400.12;1580.05;719.980941835;1500;0;1
43;paravance-67.rennes.grid5000.fr;thermos-root-devel-WordCountTopology-0-2dd1a62c-66d2-4573-8af6-c8a7fbbfbf00;["topology_master"];3.25;1532698152.63725;6.21;13.51;0.218517864;1500;0;1
43;paravance-71.rennes.grid5000.fr;thermos-root-devel-WordCountTopology-2-9240e387-b2a1-4692-bccb-7f05df5b1a59;["container_2_Emit_random_words_2"];3.25;1532698152.69956;225.83;1027.67;9.438725679;1500;0;1
44;paravance-71.rennes.grid5000.fr;thermos-root-devel-WordCountTopology-2-9240e387-b2a1-4692-bccb-7f05df5b1a59;["container_2_Emit_random_words_2"];3.25;1532698162.91458;229.23;1043.27;9.438725679;1500;0;1
44;paravance-70.rennes.grid5000.fr;thermos-root-devel-WordCountTopology-1-3dc75aa7-6272-4278-ab5a-081aa8582e37;["container_1_Consume_and_count_1"];3.25;1532698162.8565;406.41;1605.36;732.177254242;1500;0;1
44;paravance-67.rennes.grid5000.fr;thermos-root-devel-WordCountTopology-0-2dd1a62c-66d2-4573-8af6-c8a7fbbfbf00;["topology_master"];3.25;1532698162.85406;6.3;13.63;0.218517864;1500;0;1
45;paravance-71.rennes.grid5000.fr;thermos-root-devel-WordCountTopology-2-9240e387-b2a1-4692-bccb-7f05df5b1a59;["container_2_Emit_random_words_2"];3.25;1532698173.13005;232.61;1060.54;9.438725679;1500;0;1
45;paravance-70.rennes.grid5000.fr;thermos-root-devel-WordCountTopology-1-3dc75aa7-6272-4278-ab5a-081aa8582e37;["container_1_Consume_and_count_1"];3.25;1532698173.07165;412.66;1630.53;742.154842802;1500;0;1
45;paravance-67.rennes.grid5000.fr;thermos-root-devel-WordCountTopology-0-2dd1a62c-66d2-4573-8af6-c8a7fbbfbf00;["topology_master"];3.25;1532698173.06898;6.36;13.7;0.218517864;1500;0;1
46;paravance-71.rennes.grid5000.fr;thermos-root-devel-WordCountTopology-2-9240e387-b2a1-4692-bccb-7f05df5b1a59;["container_2_Emit_random_words_2"];3.25;1532698183.34554;236.19;1077.72;9.438725679;1500;0;1
46;paravance-67.rennes.grid5000.fr;thermos-root-devel-WordCountTopology-0-2dd1a62c-66d2-4573-8af6-c8a7fbbfbf00;["topology_master"];3.25;1532698183.28339;6.43;13.8;0.218517864;1500;0;1
46;paravance-70.rennes.grid5000.fr;thermos-root-devel-WordCountTopology-1-3dc75aa7-6272-4278-ab5a-081aa8582e37;["container_1_Consume_and_count_1"];3.25;1532698183.288;419.21;1655.45;754.833986485;1500;0;1
47;paravance-70.rennes.grid5000.fr;thermos-root-devel-WordCountTopology-1-3dc75aa7-6272-4278-ab5a-081aa8582e37;["container_1_Consume_and_count_1"];3.25;1532698193.50205;425.67;1680.44;767.368606304;1500;0;1
47;paravance-71.rennes.grid5000.fr;thermos-root-devel-WordCountTopology-2-9240e387-b2a1-4692-bccb-7f05df5b1a59;["container_2_Emit_random_words_2"];3.25;1532698193.56055;239.65;1093.53;9.438725679;1500;0;1
47;paravance-67.rennes.grid5000.fr;thermos-root-devel-WordCountTopology-0-2dd1a62c-66d2-4573-8af6-c8a7fbbfbf00;["topology_master"];3.25;1532698193.49909;6.49;13.9;0.218517864;1500;0;1
48;paravance-71.rennes.grid5000.fr;thermos-root-devel-WordCountTopology-2-9240e387-b2a1-4692-bccb-7f05df5b1a59;["container_2_Emit_random_words_2"];3.25;1532698203.7767;243.12;1109.05;9.438725679;1500;0;1
48;paravance-70.rennes.grid5000.fr;thermos-root-devel-WordCountTopology-1-3dc75aa7-6272-4278-ab5a-081aa8582e37;["container_1_Consume_and_count_1"];3.25;1532698203.71887;432.11;1705.55;779.380870353;1500;0;1
48;paravance-67.rennes.grid5000.fr;thermos-root-devel-WordCountTopology-0-2dd1a62c-66d2-4573-8af6-c8a7fbbfbf00;["topology_master"];3.25;1532698203.71468;6.58;14.02;0.218517864;1500;0;1
49;paravance-71.rennes.grid5000.fr;thermos-root-devel-WordCountTopology-2-9240e387-b2a1-4692-bccb-7f05df5b1a59;["container_2_Emit_random_words_2"];3.25;1532698213.9914;246.67;1124.84;9.438725679;1500;0;1
49;paravance-67.rennes.grid5000.fr;thermos-root-devel-WordCountTopology-0-2dd1a62c-66d2-4573-8af6-c8a7fbbfbf00;["topology_master"];3.25;1532698213.93068;6.61;14.05;0.218517864;1500;0;1
49;paravance-70.rennes.grid5000.fr;thermos-root-devel-WordCountTopology-1-3dc75aa7-6272-4278-ab5a-081aa8582e37;["container_1_Consume_and_count_1"];3.25;1532698213.93565;438.57;1730.89;791.371411625;1500;0;1
50;paravance-71.rennes.grid5000.fr;thermos-root-devel-WordCountTopology-2-9240e387-b2a1-4692-bccb-7f05df5b1a59;["container_2_Emit_random_words_2"];3.25;1532698224.21142;250.23;1140.8;9.438725679;1500;0;1
50;paravance-70.rennes.grid5000.fr;thermos-root-devel-WordCountTopology-1-3dc75aa7-6272-4278-ab5a-081aa8582e37;["container_1_Consume_and_count_1"];3.25;1532698224.15434;444.93;1756.28;802.869837221;1500;0;1
50;paravance-67.rennes.grid5000.fr;thermos-root-devel-WordCountTopology-0-2dd1a62c-66d2-4573-8af6-c8a7fbbfbf00;["topology_master"];3.25;1532698224.14853;6.7;14.17;0.218517864;1500;0;1
51;paravance-71.rennes.grid5000.fr;thermos-root-devel-WordCountTopology-2-9240e387-b2a1-4692-bccb-7f05df5b1a59;["container_2_Emit_random_words_2"];3.25;1532698234.32808;253.65;1156.29;9.438725679;1500;0;1
51;paravance-67.rennes.grid5000.fr;thermos-root-devel-WordCountTopology-0-2dd1a62c-66d2-4573-8af6-c8a7fbbfbf00;["topology_master"];3.25;1532698234.26729;6.76;14.25;0.218517864;1500;0;1
51;paravance-70.rennes.grid5000.fr;thermos-root-devel-WordCountTopology-1-3dc75aa7-6272-4278-ab5a-081aa8582e37;["container_1_Consume_and_count_1"];3.25;1532698234.37153;451.25;1781.65;814.164475826;1500;0;1
52;paravance-67.rennes.grid5000.fr;thermos-root-devel-WordCountTopology-0-2dd1a62c-66d2-4573-8af6-c8a7fbbfbf00;["topology_master"];3.25;1532698244.58028;6.83;14.37;0.218517864;1500;0;1
52;paravance-70.rennes.grid5000.fr;thermos-root-devel-WordCountTopology-1-3dc75aa7-6272-4278-ab5a-081aa8582e37;["container_1_Consume_and_count_1"];3.25;1532698244.58523;457.68;1806.98;824.508234832;1500;0;1
52;paravance-71.rennes.grid5000.fr;thermos-root-devel-WordCountTopology-2-9240e387-b2a1-4692-bccb-7f05df5b1a59;["container_2_Emit_random_words_2"];3.25;1532698244.64388;257.43;1173.41;9.438725679;1500;0;1
53;paravance-70.rennes.grid5000.fr;thermos-root-devel-WordCountTopology-1-3dc75aa7-6272-4278-ab5a-081aa8582e37;["container_1_Consume_and_count_1"];3.25;1532698254.80061;463.82;1832.47;835.044545775;1500;0;1
53;paravance-71.rennes.grid5000.fr;thermos-root-devel-WordCountTopology-2-9240e387-b2a1-4692-bccb-7f05df5b1a59;["container_2_Emit_random_words_2"];3.25;1532698254.85966;260.95;1189.66;9.438725679;1500;0;1
53;paravance-67.rennes.grid5000.fr;thermos-root-devel-WordCountTopology-0-2dd1a62c-66d2-4573-8af6-c8a7fbbfbf00;["topology_master"];3.25;1532698254.79645;6.89;14.44;0.218517864;1500;0;1
54;paravance-71.rennes.grid5000.fr;thermos-root-devel-WordCountTopology-2-9240e387-b2a1-4692-bccb-7f05df5b1a59;["container_2_Emit_random_words_2"];3.25;1532698265.07502;264.36;1205.53;9.438821506;1500;0;1
54;paravance-70.rennes.grid5000.fr;thermos-root-devel-WordCountTopology-1-3dc75aa7-6272-4278-ab5a-081aa8582e37;["container_1_Consume_and_count_1"];3.25;1532698265.01743;470.01;1857.93;847.895455719;1500;0;1
54;paravance-67.rennes.grid5000.fr;thermos-root-devel-WordCountTopology-0-2dd1a62c-66d2-4573-8af6-c8a7fbbfbf00;["topology_master"];3.25;1532698265.01398;6.98;14.57;0.218517864;1500;0;1
55;paravance-67.rennes.grid5000.fr;thermos-root-devel-WordCountTopology-0-2dd1a62c-66d2-4573-8af6-c8a7fbbfbf00;["topology_master"];3.25;1532698275.22933;7.01;14.61;0.218517864;1500;0;1
55;paravance-71.rennes.grid5000.fr;thermos-root-devel-WordCountTopology-2-9240e387-b2a1-4692-bccb-7f05df5b1a59;["container_2_Emit_random_words_2"];3.25;1532698275.29201;267.62;1220.16;9.438821506;1500;0;1
55;paravance-70.rennes.grid5000.fr;thermos-root-devel-WordCountTopology-1-3dc75aa7-6272-4278-ab5a-081aa8582e37;["container_1_Consume_and_count_1"];3.25;1532698275.23394;476.21;1883.43;862.365596677;1500;0;1
56;paravance-67.rennes.grid5000.fr;thermos-root-devel-WordCountTopology-0-2dd1a62c-66d2-4573-8af6-c8a7fbbfbf00;["topology_master"];3.25;1532698285.44671;7.1;14.73;0.218517864;1500;0;1
56;paravance-70.rennes.grid5000.fr;thermos-root-devel-WordCountTopology-1-3dc75aa7-6272-4278-ab5a-081aa8582e37;["container_1_Consume_and_count_1"];3.25;1532698285.45268;482.65;1908.71;873.912224313;1500;0;1
56;paravance-71.rennes.grid5000.fr;thermos-root-devel-WordCountTopology-2-9240e387-b2a1-4692-bccb-7f05df5b1a59;["container_2_Emit_random_words_2"];3.25;1532698285.50968;271.11;1236.38;9.438821506;1500;0;1
57;paravance-70.rennes.grid5000.fr;thermos-root-devel-WordCountTopology-1-3dc75aa7-6272-4278-ab5a-081aa8582e37;["container_1_Consume_and_count_1"];3.25;1532698295.6691;488.85;1934.45;885.441264551;1500;0;1
57;paravance-67.rennes.grid5000.fr;thermos-root-devel-WordCountTopology-0-2dd1a62c-66d2-4573-8af6-c8a7fbbfbf00;["topology_master"];3.25;1532698295.66375;7.15;14.8;0.218517864;1500;0;1
57;paravance-71.rennes.grid5000.fr;thermos-root-devel-WordCountTopology-2-9240e387-b2a1-4692-bccb-7f05df5b1a59;["container_2_Emit_random_words_2"];3.25;1532698295.7273;274.9;1253.11;9.438821506;1500;0;1
58;paravance-70.rennes.grid5000.fr;thermos-root-devel-WordCountTopology-1-3dc75aa7-6272-4278-ab5a-081aa8582e37;["container_1_Consume_and_count_1"];3.25;1532698305.88315;495.1;1959.85;896.741327532;1500;0;1
58;paravance-71.rennes.grid5000.fr;thermos-root-devel-WordCountTopology-2-9240e387-b2a1-4692-bccb-7f05df5b1a59;["container_2_Emit_random_words_2"];3.25;1532698305.94231;278.63;1269.76;9.438821506;1500;0;1
58;paravance-67.rennes.grid5000.fr;thermos-root-devel-WordCountTopology-0-2dd1a62c-66d2-4573-8af6-c8a7fbbfbf00;["topology_master"];3.25;1532698305.88118;7.23;14.93;0.218517864;1500;0;1
59;paravance-70.rennes.grid5000.fr;thermos-root-devel-WordCountTopology-1-3dc75aa7-6272-4278-ab5a-081aa8582e37;["container_1_Consume_and_count_1"];3.25;1532698316.10121;501.47;1985.2;910.869512069;1500;0;1
59;paravance-67.rennes.grid5000.fr;thermos-root-devel-WordCountTopology-0-2dd1a62c-66d2-4573-8af6-c8a7fbbfbf00;["topology_master"];3.25;1532698316.09807;7.28;15.0;0.218517864;1500;0;1
59;paravance-71.rennes.grid5000.fr;thermos-root-devel-WordCountTopology-2-9240e387-b2a1-4692-bccb-7f05df5b1a59;["container_2_Emit_random_words_2"];3.25;1532698316.16097;281.97;1284.68;9.438821506;1500;0;1
60;paravance-70.rennes.grid5000.fr;thermos-root-devel-WordCountTopology-1-3dc75aa7-6272-4278-ab5a-081aa8582e37;["container_1_Consume_and_count_1"];3.25;1532698326.31658;507.85;2010.43;922.78544819;1500;0;1
60;paravance-71.rennes.grid5000.fr;thermos-root-devel-WordCountTopology-2-9240e387-b2a1-4692-bccb-7f05df5b1a59;["container_2_Emit_random_words_2"];3.25;1532698326.37672;285.44;1300.45;9.438821506;1500;0;1
60;paravance-67.rennes.grid5000.fr;thermos-root-devel-WordCountTopology-0-2dd1a62c-66d2-4573-8af6-c8a7fbbfbf00;["topology_master"];3.25;1532698326.31542;7.37;15.12;0.218517864;1500;0;1
