mesure_id;slave_id;executor_id;heron_instances;cpus_limit;timestamp_A;cpus_system_time_secs_A;cpus_user_time_secs_A;cpus_throttled_time_secs_A;processes;threads
0;paravance-24.rennes.grid5000.fr;thermos-root-devel-WordCountTopology-2-52a1add8-f05f-42dc-b8a2-59632f31ec8e;["container_2_Emit_random_words_2"];4.25;1533809497.83959;32.23;187.18;2.201299132;10;149
0;paravance-26.rennes.grid5000.fr;thermos-root-devel-WordCountTopology-0-78a040cd-37e1-4bac-9326-c381f83c5fb1;["topology_master"];4.25;1533809497.7302;2.38;7.96;0.002356034;9;117
0;paravance-25.rennes.grid5000.fr;thermos-root-devel-WordCountTopology-1-a81556cc-1c96-4ea3-a146-e55f744aa2be;["container_1_Consume_and_count_1"];4.25;1533809497.84818;55.66;230.87;7.527691399;10;151
1;paravance-26.rennes.grid5000.fr;thermos-root-devel-WordCountTopology-0-78a040cd-37e1-4bac-9326-c381f83c5fb1;["topology_master"];4.25;1533809507.94595;2.44;8.08;0.002356034;9;117
1;paravance-24.rennes.grid5000.fr;thermos-root-devel-WordCountTopology-2-52a1add8-f05f-42dc-b8a2-59632f31ec8e;["container_2_Emit_random_words_2"];4.25;1533809508.05521;35.56;206.68;2.201299132;10;149
1;paravance-25.rennes.grid5000.fr;thermos-root-devel-WordCountTopology-1-a81556cc-1c96-4ea3-a146-e55f744aa2be;["container_1_Consume_and_count_1"];4.25;1533809508.06377;61.82;256.82;7.527691399;10;151
2;paravance-26.rennes.grid5000.fr;thermos-root-devel-WordCountTopology-0-78a040cd-37e1-4bac-9326-c381f83c5fb1;["topology_master"];4.25;1533809518.06204;2.53;8.22;0.002356034;9;117
2;paravance-24.rennes.grid5000.fr;thermos-root-devel-WordCountTopology-2-52a1add8-f05f-42dc-b8a2-59632f31ec8e;["container_2_Emit_random_words_2"];4.25;1533809518.27104;38.93;226.39;2.201299132;10;149
2;paravance-25.rennes.grid5000.fr;thermos-root-devel-WordCountTopology-1-a81556cc-1c96-4ea3-a146-e55f744aa2be;["container_1_Consume_and_count_1"];4.25;1533809518.28041;68.19;283.15;7.527761016;10;151
3;paravance-25.rennes.grid5000.fr;thermos-root-devel-WordCountTopology-1-a81556cc-1c96-4ea3-a146-e55f744aa2be;["container_1_Consume_and_count_1"];4.25;1533809528.49536;74.42;307.98;7.527761016;10;151
3;paravance-24.rennes.grid5000.fr;thermos-root-devel-WordCountTopology-2-52a1add8-f05f-42dc-b8a2-59632f31ec8e;["container_2_Emit_random_words_2"];4.25;1533809528.48763;42.17;246.04;2.201299132;10;149
3;paravance-26.rennes.grid5000.fr;thermos-root-devel-WordCountTopology-0-78a040cd-37e1-4bac-9326-c381f83c5fb1;["topology_master"];4.25;1533809528.37704;2.6;8.33;0.002356034;9;117
4;paravance-24.rennes.grid5000.fr;thermos-root-devel-WordCountTopology-2-52a1add8-f05f-42dc-b8a2-59632f31ec8e;["container_2_Emit_random_words_2"];4.25;1533809538.60383;45.45;265.53;2.201299132;10;149
4;paravance-26.rennes.grid5000.fr;thermos-root-devel-WordCountTopology-0-78a040cd-37e1-4bac-9326-c381f83c5fb1;["topology_master"];4.25;1533809538.59375;2.66;8.41;0.002356034;9;117
4;paravance-25.rennes.grid5000.fr;thermos-root-devel-WordCountTopology-1-a81556cc-1c96-4ea3-a146-e55f744aa2be;["container_1_Consume_and_count_1"];4.25;1533809538.7127;80.78;333.68;7.531797262;10;151
5;paravance-24.rennes.grid5000.fr;thermos-root-devel-WordCountTopology-2-52a1add8-f05f-42dc-b8a2-59632f31ec8e;["container_2_Emit_random_words_2"];4.25;1533809548.91883;48.93;285.29;2.201299132;10;149
5;paravance-26.rennes.grid5000.fr;thermos-root-devel-WordCountTopology-0-78a040cd-37e1-4bac-9326-c381f83c5fb1;["topology_master"];4.25;1533809548.80993;2.71;8.48;0.002356034;9;117
5;paravance-25.rennes.grid5000.fr;thermos-root-devel-WordCountTopology-1-a81556cc-1c96-4ea3-a146-e55f744aa2be;["container_1_Consume_and_count_1"];4.25;1533809548.92748;87.2;358.68;7.531797262;10;151
6;paravance-24.rennes.grid5000.fr;thermos-root-devel-WordCountTopology-2-52a1add8-f05f-42dc-b8a2-59632f31ec8e;["container_2_Emit_random_words_2"];4.25;1533809559.13481;52.12;304.8;2.201299132;10;149
6;paravance-26.rennes.grid5000.fr;thermos-root-devel-WordCountTopology-0-78a040cd-37e1-4bac-9326-c381f83c5fb1;["topology_master"];4.25;1533809559.02587;2.84;8.68;0.002356034;9;117
6;paravance-25.rennes.grid5000.fr;thermos-root-devel-WordCountTopology-1-a81556cc-1c96-4ea3-a146-e55f744aa2be;["container_1_Consume_and_count_1"];4.25;1533809559.14384;93.71;383.87;7.531797262;10;151
7;paravance-25.rennes.grid5000.fr;thermos-root-devel-WordCountTopology-1-a81556cc-1c96-4ea3-a146-e55f744aa2be;["container_1_Consume_and_count_1"];4.25;1533809569.36104;100.18;409.91;7.531822402;10;151
7;paravance-24.rennes.grid5000.fr;thermos-root-devel-WordCountTopology-2-52a1add8-f05f-42dc-b8a2-59632f31ec8e;["container_2_Emit_random_words_2"];4.25;1533809569.3534;55.37;324.16;2.201299132;10;149
7;paravance-26.rennes.grid5000.fr;thermos-root-devel-WordCountTopology-0-78a040cd-37e1-4bac-9326-c381f83c5fb1;["topology_master"];4.25;1533809569.24278;2.87;8.72;0.002356034;9;117
8;paravance-24.rennes.grid5000.fr;thermos-root-devel-WordCountTopology-2-52a1add8-f05f-42dc-b8a2-59632f31ec8e;["container_2_Emit_random_words_2"];4.25;1533809579.57128;58.83;343.64;2.201299132;10;149
8;paravance-25.rennes.grid5000.fr;thermos-root-devel-WordCountTopology-1-a81556cc-1c96-4ea3-a146-e55f744aa2be;["container_1_Consume_and_count_1"];4.25;1533809579.57946;106.56;436.3;7.531822402;10;151
8;paravance-26.rennes.grid5000.fr;thermos-root-devel-WordCountTopology-0-78a040cd-37e1-4bac-9326-c381f83c5fb1;["topology_master"];4.25;1533809579.46046;2.96;8.86;0.002356034;9;117
9;paravance-24.rennes.grid5000.fr;thermos-root-devel-WordCountTopology-2-52a1add8-f05f-42dc-b8a2-59632f31ec8e;["container_2_Emit_random_words_2"];4.25;1533809589.79;62.1;363.23;2.201299132;10;149
9;paravance-26.rennes.grid5000.fr;thermos-root-devel-WordCountTopology-0-78a040cd-37e1-4bac-9326-c381f83c5fb1;["topology_master"];4.25;1533809589.68003;3.02;8.93;0.002356034;9;117
9;paravance-25.rennes.grid5000.fr;thermos-root-devel-WordCountTopology-1-a81556cc-1c96-4ea3-a146-e55f744aa2be;["container_1_Consume_and_count_1"];4.25;1533809589.79814;113.15;462.46;7.531822402;10;151
10;paravance-26.rennes.grid5000.fr;thermos-root-devel-WordCountTopology-0-78a040cd-37e1-4bac-9326-c381f83c5fb1;["topology_master"];4.25;1533809599.89735;3.08;9.01;0.002356034;9;117
10;paravance-24.rennes.grid5000.fr;thermos-root-devel-WordCountTopology-2-52a1add8-f05f-42dc-b8a2-59632f31ec8e;["container_2_Emit_random_words_2"];4.25;1533809600.00742;65.46;382.66;2.201299132;10;149
10;paravance-25.rennes.grid5000.fr;thermos-root-devel-WordCountTopology-1-a81556cc-1c96-4ea3-a146-e55f744aa2be;["container_1_Consume_and_count_1"];4.25;1533809600.01668;119.67;488.74;7.536874096;10;151
11;paravance-26.rennes.grid5000.fr;thermos-root-devel-WordCountTopology-0-78a040cd-37e1-4bac-9326-c381f83c5fb1;["topology_master"];4.25;1533809610.11437;3.14;9.08;0.002356034;9;117
11;paravance-24.rennes.grid5000.fr;thermos-root-devel-WordCountTopology-2-52a1add8-f05f-42dc-b8a2-59632f31ec8e;["container_2_Emit_random_words_2"];4.25;1533809610.22553;68.8;402.04;2.201299132;10;149
11;paravance-25.rennes.grid5000.fr;thermos-root-devel-WordCountTopology-1-a81556cc-1c96-4ea3-a146-e55f744aa2be;["container_1_Consume_and_count_1"];4.25;1533809610.23275;126.25;515.55;7.536874096;10;151
12;paravance-26.rennes.grid5000.fr;thermos-root-devel-WordCountTopology-0-78a040cd-37e1-4bac-9326-c381f83c5fb1;["topology_master"];4.25;1533809620.33184;3.27;9.4;0.002356034;9;117
12;paravance-24.rennes.grid5000.fr;thermos-root-devel-WordCountTopology-2-52a1add8-f05f-42dc-b8a2-59632f31ec8e;["container_2_Emit_random_words_2"];4.25;1533809620.4431;72.01;421.46;2.201299132;10;149
12;paravance-25.rennes.grid5000.fr;thermos-root-devel-WordCountTopology-1-a81556cc-1c96-4ea3-a146-e55f744aa2be;["container_1_Consume_and_count_1"];4.25;1533809620.45079;132.64;541.98;7.593409789;10;151
13;paravance-26.rennes.grid5000.fr;thermos-root-devel-WordCountTopology-0-78a040cd-37e1-4bac-9326-c381f83c5fb1;["topology_master"];4.25;1533809630.54863;3.29;9.43;0.002356034;9;117
13;paravance-24.rennes.grid5000.fr;thermos-root-devel-WordCountTopology-2-52a1add8-f05f-42dc-b8a2-59632f31ec8e;["container_2_Emit_random_words_2"];4.25;1533809630.65944;75.2;440.67;2.201299132;10;149
13;paravance-25.rennes.grid5000.fr;thermos-root-devel-WordCountTopology-1-a81556cc-1c96-4ea3-a146-e55f744aa2be;["container_1_Consume_and_count_1"];4.25;1533809630.66717;139.05;568.09;7.593409789;10;151
14;paravance-25.rennes.grid5000.fr;thermos-root-devel-WordCountTopology-1-a81556cc-1c96-4ea3-a146-e55f744aa2be;["container_1_Consume_and_count_1"];4.25;1533809640.89364;145.2;592.96;7.601503223;10;151
14;paravance-24.rennes.grid5000.fr;thermos-root-devel-WordCountTopology-2-52a1add8-f05f-42dc-b8a2-59632f31ec8e;["container_2_Emit_random_words_2"];4.25;1533809640.88634;78.55;459.92;2.201299132;10;149
14;paravance-26.rennes.grid5000.fr;thermos-root-devel-WordCountTopology-0-78a040cd-37e1-4bac-9326-c381f83c5fb1;["topology_master"];4.25;1533809640.77616;3.39;9.59;0.002356034;9;117
15;paravance-24.rennes.grid5000.fr;thermos-root-devel-WordCountTopology-2-52a1add8-f05f-42dc-b8a2-59632f31ec8e;["container_2_Emit_random_words_2"];4.25;1533809651.10438;81.83;479.15;2.201299132;10;149
15;paravance-25.rennes.grid5000.fr;thermos-root-devel-WordCountTopology-1-a81556cc-1c96-4ea3-a146-e55f744aa2be;["container_1_Consume_and_count_1"];4.25;1533809651.11154;151.14;617.58;7.601503223;10;151
15;paravance-26.rennes.grid5000.fr;thermos-root-devel-WordCountTopology-0-78a040cd-37e1-4bac-9326-c381f83c5fb1;["topology_master"];4.25;1533809650.99249;3.44;9.66;0.002356034;9;117
16;paravance-26.rennes.grid5000.fr;thermos-root-devel-WordCountTopology-0-78a040cd-37e1-4bac-9326-c381f83c5fb1;["topology_master"];4.25;1533809661.2099;3.5;9.75;0.002356034;9;117
16;paravance-25.rennes.grid5000.fr;thermos-root-devel-WordCountTopology-1-a81556cc-1c96-4ea3-a146-e55f744aa2be;["container_1_Consume_and_count_1"];4.25;1533809661.32954;157.29;642.59;7.601503223;10;151
16;paravance-24.rennes.grid5000.fr;thermos-root-devel-WordCountTopology-2-52a1add8-f05f-42dc-b8a2-59632f31ec8e;["container_2_Emit_random_words_2"];4.25;1533809661.32173;85.2;498.46;2.201299132;10;149
17;paravance-25.rennes.grid5000.fr;thermos-root-devel-WordCountTopology-1-a81556cc-1c96-4ea3-a146-e55f744aa2be;["container_1_Consume_and_count_1"];4.25;1533809671.54667;163.48;668.16;7.601503223;10;151
17;paravance-24.rennes.grid5000.fr;thermos-root-devel-WordCountTopology-2-52a1add8-f05f-42dc-b8a2-59632f31ec8e;["container_2_Emit_random_words_2"];4.25;1533809671.53791;88.57;517.75;2.201299132;10;149
17;paravance-26.rennes.grid5000.fr;thermos-root-devel-WordCountTopology-0-78a040cd-37e1-4bac-9326-c381f83c5fb1;["topology_master"];4.25;1533809671.42794;3.56;9.83;0.002356034;9;117
18;paravance-24.rennes.grid5000.fr;thermos-root-devel-WordCountTopology-2-52a1add8-f05f-42dc-b8a2-59632f31ec8e;["container_2_Emit_random_words_2"];4.25;1533809681.75522;92.05;537.15;2.201299132;10;149
18;paravance-26.rennes.grid5000.fr;thermos-root-devel-WordCountTopology-0-78a040cd-37e1-4bac-9326-c381f83c5fb1;["topology_master"];4.25;1533809681.64539;3.68;10.02;0.002356034;9;117
18;paravance-25.rennes.grid5000.fr;thermos-root-devel-WordCountTopology-1-a81556cc-1c96-4ea3-a146-e55f744aa2be;["container_1_Consume_and_count_1"];4.25;1533809681.7637;169.75;694.51;7.619251283;10;151
19;paravance-26.rennes.grid5000.fr;thermos-root-devel-WordCountTopology-0-78a040cd-37e1-4bac-9326-c381f83c5fb1;["topology_master"];4.25;1533809691.86354;3.71;10.05;0.002356034;9;117
19;paravance-24.rennes.grid5000.fr;thermos-root-devel-WordCountTopology-2-52a1add8-f05f-42dc-b8a2-59632f31ec8e;["container_2_Emit_random_words_2"];4.25;1533809691.974;95.48;556.45;2.201299132;10;149
19;paravance-25.rennes.grid5000.fr;thermos-root-devel-WordCountTopology-1-a81556cc-1c96-4ea3-a146-e55f744aa2be;["container_1_Consume_and_count_1"];4.25;1533809691.9821;175.84;723.45;7.633569274;10;151
20;paravance-24.rennes.grid5000.fr;thermos-root-devel-WordCountTopology-2-52a1add8-f05f-42dc-b8a2-59632f31ec8e;["container_2_Emit_random_words_2"];4.25;1533809702.19225;98.82;575.57;2.201299132;10;149
20;paravance-26.rennes.grid5000.fr;thermos-root-devel-WordCountTopology-0-78a040cd-37e1-4bac-9326-c381f83c5fb1;["topology_master"];4.25;1533809702.0822;3.8;10.18;0.002356034;9;117
20;paravance-25.rennes.grid5000.fr;thermos-root-devel-WordCountTopology-1-a81556cc-1c96-4ea3-a146-e55f744aa2be;["container_1_Consume_and_count_1"];4.25;1533809702.2003;182.03;749.49;7.637198931;10;151
21;paravance-24.rennes.grid5000.fr;thermos-root-devel-WordCountTopology-2-52a1add8-f05f-42dc-b8a2-59632f31ec8e;["container_2_Emit_random_words_2"];4.25;1533809712.41078;101.98;594.8;2.201299132;10;149
21;paravance-26.rennes.grid5000.fr;thermos-root-devel-WordCountTopology-0-78a040cd-37e1-4bac-9326-c381f83c5fb1;["topology_master"];4.25;1533809712.30123;3.86;10.26;0.002356034;9;117
21;paravance-25.rennes.grid5000.fr;thermos-root-devel-WordCountTopology-1-a81556cc-1c96-4ea3-a146-e55f744aa2be;["container_1_Consume_and_count_1"];4.25;1533809712.41932;188.24;774.9;7.637198931;10;151
22;paravance-25.rennes.grid5000.fr;thermos-root-devel-WordCountTopology-1-a81556cc-1c96-4ea3-a146-e55f744aa2be;["container_1_Consume_and_count_1"];4.25;1533809722.63735;194.48;800.51;7.637198931;10;151
22;paravance-26.rennes.grid5000.fr;thermos-root-devel-WordCountTopology-0-78a040cd-37e1-4bac-9326-c381f83c5fb1;["topology_master"];4.25;1533809722.51798;3.92;10.33;0.002356034;9;117
22;paravance-24.rennes.grid5000.fr;thermos-root-devel-WordCountTopology-2-52a1add8-f05f-42dc-b8a2-59632f31ec8e;["container_2_Emit_random_words_2"];4.25;1533809722.62882;105.31;614.19;2.201299132;10;149
23;paravance-26.rennes.grid5000.fr;thermos-root-devel-WordCountTopology-0-78a040cd-37e1-4bac-9326-c381f83c5fb1;["topology_master"];4.25;1533809732.73901;3.97;10.4;0.002356034;9;117
23;paravance-25.rennes.grid5000.fr;thermos-root-devel-WordCountTopology-1-a81556cc-1c96-4ea3-a146-e55f744aa2be;["container_1_Consume_and_count_1"];4.25;1533809732.85521;200.83;826.42;7.637665129;10;151
23;paravance-24.rennes.grid5000.fr;thermos-root-devel-WordCountTopology-2-52a1add8-f05f-42dc-b8a2-59632f31ec8e;["container_2_Emit_random_words_2"];4.25;1533809732.84955;108.7;633.35;2.201299132;10;149
24;paravance-26.rennes.grid5000.fr;thermos-root-devel-WordCountTopology-0-78a040cd-37e1-4bac-9326-c381f83c5fb1;["topology_master"];4.25;1533809742.85618;4.08;10.58;0.002356034;9;117
24;paravance-25.rennes.grid5000.fr;thermos-root-devel-WordCountTopology-1-a81556cc-1c96-4ea3-a146-e55f744aa2be;["container_1_Consume_and_count_1"];4.25;1533809743.07297;207.22;852.6;7.641551097;10;151
24;paravance-24.rennes.grid5000.fr;thermos-root-devel-WordCountTopology-2-52a1add8-f05f-42dc-b8a2-59632f31ec8e;["container_2_Emit_random_words_2"];4.25;1533809743.06625;112.18;652.54;2.201299132;10;149
25;paravance-25.rennes.grid5000.fr;thermos-root-devel-WordCountTopology-1-a81556cc-1c96-4ea3-a146-e55f744aa2be;["container_1_Consume_and_count_1"];4.25;1533809753.28868;213.47;881.09;7.764887924;10;151
25;paravance-26.rennes.grid5000.fr;thermos-root-devel-WordCountTopology-0-78a040cd-37e1-4bac-9326-c381f83c5fb1;["topology_master"];4.25;1533809753.17306;4.1;10.6;0.002356034;9;117
25;paravance-24.rennes.grid5000.fr;thermos-root-devel-WordCountTopology-2-52a1add8-f05f-42dc-b8a2-59632f31ec8e;["container_2_Emit_random_words_2"];4.25;1533809753.2818;115.59;671.9;2.201299132;10;149
26;paravance-24.rennes.grid5000.fr;thermos-root-devel-WordCountTopology-2-52a1add8-f05f-42dc-b8a2-59632f31ec8e;["container_2_Emit_random_words_2"];4.25;1533809763.49623;118.86;691.02;2.201299132;10;149
26;paravance-26.rennes.grid5000.fr;thermos-root-devel-WordCountTopology-0-78a040cd-37e1-4bac-9326-c381f83c5fb1;["topology_master"];4.25;1533809763.38636;4.2;10.75;0.002356034;9;117
26;paravance-25.rennes.grid5000.fr;thermos-root-devel-WordCountTopology-1-a81556cc-1c96-4ea3-a146-e55f744aa2be;["container_1_Consume_and_count_1"];4.25;1533809763.50472;219.41;905.93;7.76531503;10;151
27;paravance-25.rennes.grid5000.fr;thermos-root-devel-WordCountTopology-1-a81556cc-1c96-4ea3-a146-e55f744aa2be;["container_1_Consume_and_count_1"];4.25;1533809773.72111;225.78;931.47;7.76531503;10;149
27;paravance-26.rennes.grid5000.fr;thermos-root-devel-WordCountTopology-0-78a040cd-37e1-4bac-9326-c381f83c5fb1;["topology_master"];4.25;1533809773.60325;4.25;10.82;0.002356034;9;117
27;paravance-24.rennes.grid5000.fr;thermos-root-devel-WordCountTopology-2-52a1add8-f05f-42dc-b8a2-59632f31ec8e;["container_2_Emit_random_words_2"];4.25;1533809773.71382;122.16;710.58;2.201299132;10;147
28;paravance-26.rennes.grid5000.fr;thermos-root-devel-WordCountTopology-0-78a040cd-37e1-4bac-9326-c381f83c5fb1;["topology_master"];4.25;1533809783.81854;4.32;10.9;0.002356034;9;117
28;paravance-24.rennes.grid5000.fr;thermos-root-devel-WordCountTopology-2-52a1add8-f05f-42dc-b8a2-59632f31ec8e;["container_2_Emit_random_words_2"];4.25;1533809783.92783;125.53;729.98;2.201299132;10;149
28;paravance-25.rennes.grid5000.fr;thermos-root-devel-WordCountTopology-1-a81556cc-1c96-4ea3-a146-e55f744aa2be;["container_1_Consume_and_count_1"];4.25;1533809783.93667;232.03;957.14;7.791696747;10;151
29;paravance-24.rennes.grid5000.fr;thermos-root-devel-WordCountTopology-2-52a1add8-f05f-42dc-b8a2-59632f31ec8e;["container_2_Emit_random_words_2"];4.25;1533809794.1435;128.94;749.04;2.201299132;10;149
29;paravance-25.rennes.grid5000.fr;thermos-root-devel-WordCountTopology-1-a81556cc-1c96-4ea3-a146-e55f744aa2be;["container_1_Consume_and_count_1"];4.25;1533809794.15276;238.42;983.12;7.818516466;10;151
29;paravance-26.rennes.grid5000.fr;thermos-root-devel-WordCountTopology-0-78a040cd-37e1-4bac-9326-c381f83c5fb1;["topology_master"];4.25;1533809794.03591;4.42;11.05;0.002356034;9;117
30;paravance-24.rennes.grid5000.fr;thermos-root-devel-WordCountTopology-2-52a1add8-f05f-42dc-b8a2-59632f31ec8e;["container_2_Emit_random_words_2"];4.25;1533809804.36141;132.31;768.1;2.201299132;10;149
30;paravance-25.rennes.grid5000.fr;thermos-root-devel-WordCountTopology-1-a81556cc-1c96-4ea3-a146-e55f744aa2be;["container_1_Consume_and_count_1"];4.25;1533809804.37054;244.68;1009.63;7.818516466;10;151
30;paravance-26.rennes.grid5000.fr;thermos-root-devel-WordCountTopology-0-78a040cd-37e1-4bac-9326-c381f83c5fb1;["topology_master"];4.25;1533809804.25118;4.49;11.19;0.002356034;9;117
31;paravance-25.rennes.grid5000.fr;thermos-root-devel-WordCountTopology-1-a81556cc-1c96-4ea3-a146-e55f744aa2be;["container_1_Consume_and_count_1"];4.25;1533809814.58757;250.76;1034.94;7.818516466;10;151
31;paravance-24.rennes.grid5000.fr;thermos-root-devel-WordCountTopology-2-52a1add8-f05f-42dc-b8a2-59632f31ec8e;["container_2_Emit_random_words_2"];4.25;1533809814.58152;135.52;786.71;2.201299132;10;149
31;paravance-26.rennes.grid5000.fr;thermos-root-devel-WordCountTopology-0-78a040cd-37e1-4bac-9326-c381f83c5fb1;["topology_master"];4.25;1533809814.47076;4.54;11.26;0.002356034;9;117
32;paravance-26.rennes.grid5000.fr;thermos-root-devel-WordCountTopology-0-78a040cd-37e1-4bac-9326-c381f83c5fb1;["topology_master"];4.25;1533809824.68841;4.6;11.35;0.002356034;9;117
32;paravance-24.rennes.grid5000.fr;thermos-root-devel-WordCountTopology-2-52a1add8-f05f-42dc-b8a2-59632f31ec8e;["container_2_Emit_random_words_2"];4.25;1533809824.79871;138.66;805.4;2.201299132;10;149
32;paravance-25.rennes.grid5000.fr;thermos-root-devel-WordCountTopology-1-a81556cc-1c96-4ea3-a146-e55f744aa2be;["container_1_Consume_and_count_1"];4.25;1533809824.80623;256.88;1060.13;7.818516466;10;151
33;paravance-24.rennes.grid5000.fr;thermos-root-devel-WordCountTopology-2-52a1add8-f05f-42dc-b8a2-59632f31ec8e;["container_2_Emit_random_words_2"];4.25;1533809835.01753;142.07;824.62;2.201299132;10;149
33;paravance-26.rennes.grid5000.fr;thermos-root-devel-WordCountTopology-0-78a040cd-37e1-4bac-9326-c381f83c5fb1;["topology_master"];4.25;1533809834.9089;4.7;11.48;0.002356034;9;117
33;paravance-25.rennes.grid5000.fr;thermos-root-devel-WordCountTopology-1-a81556cc-1c96-4ea3-a146-e55f744aa2be;["container_1_Consume_and_count_1"];4.25;1533809835.0258;263.3;1086.18;7.818516466;10;151
34;paravance-25.rennes.grid5000.fr;thermos-root-devel-WordCountTopology-1-a81556cc-1c96-4ea3-a146-e55f744aa2be;["container_1_Consume_and_count_1"];4.25;1533809845.24405;269.48;1111.53;7.818516466;10;151
34;paravance-24.rennes.grid5000.fr;thermos-root-devel-WordCountTopology-2-52a1add8-f05f-42dc-b8a2-59632f31ec8e;["container_2_Emit_random_words_2"];4.25;1533809845.23635;145.28;843.51;2.201299132;10;149
34;paravance-26.rennes.grid5000.fr;thermos-root-devel-WordCountTopology-0-78a040cd-37e1-4bac-9326-c381f83c5fb1;["topology_master"];4.25;1533809845.126;4.73;11.5;0.002356034;9;117
35;paravance-25.rennes.grid5000.fr;thermos-root-devel-WordCountTopology-1-a81556cc-1c96-4ea3-a146-e55f744aa2be;["container_1_Consume_and_count_1"];4.25;1533809855.46221;275.76;1137.33;7.818516466;10;151
35;paravance-26.rennes.grid5000.fr;thermos-root-devel-WordCountTopology-0-78a040cd-37e1-4bac-9326-c381f83c5fb1;["topology_master"];4.25;1533809855.34437;4.82;11.64;0.002356034;9;117
35;paravance-24.rennes.grid5000.fr;thermos-root-devel-WordCountTopology-2-52a1add8-f05f-42dc-b8a2-59632f31ec8e;["container_2_Emit_random_words_2"];4.25;1533809855.45474;148.58;863.17;2.201299132;10;149
36;paravance-25.rennes.grid5000.fr;thermos-root-devel-WordCountTopology-1-a81556cc-1c96-4ea3-a146-e55f744aa2be;["container_1_Consume_and_count_1"];4.25;1533809865.67781;281.89;1165.08;7.864450964;10;151
36;paravance-24.rennes.grid5000.fr;thermos-root-devel-WordCountTopology-2-52a1add8-f05f-42dc-b8a2-59632f31ec8e;["container_2_Emit_random_words_2"];4.25;1533809865.67063;151.97;882.37;2.201299132;10;149
36;paravance-26.rennes.grid5000.fr;thermos-root-devel-WordCountTopology-0-78a040cd-37e1-4bac-9326-c381f83c5fb1;["topology_master"];4.25;1533809865.57119;4.88;11.75;0.002356034;9;117
37;paravance-25.rennes.grid5000.fr;thermos-root-devel-WordCountTopology-1-a81556cc-1c96-4ea3-a146-e55f744aa2be;["container_1_Consume_and_count_1"];4.25;1533809875.90319;288.26;1191.05;7.864450964;10;151
37;paravance-24.rennes.grid5000.fr;thermos-root-devel-WordCountTopology-2-52a1add8-f05f-42dc-b8a2-59632f31ec8e;["container_2_Emit_random_words_2"];4.25;1533809875.89599;155.38;901.66;2.201299132;10;149
37;paravance-26.rennes.grid5000.fr;thermos-root-devel-WordCountTopology-0-78a040cd-37e1-4bac-9326-c381f83c5fb1;["topology_master"];4.25;1533809875.78694;4.97;11.87;0.002356034;9;117
38;paravance-25.rennes.grid5000.fr;thermos-root-devel-WordCountTopology-1-a81556cc-1c96-4ea3-a146-e55f744aa2be;["container_1_Consume_and_count_1"];4.25;1533809886.12195;294.62;1216.84;7.864450964;10;151
38;paravance-26.rennes.grid5000.fr;thermos-root-devel-WordCountTopology-0-78a040cd-37e1-4bac-9326-c381f83c5fb1;["topology_master"];4.25;1533809886.00439;5.0;11.9;0.002356034;9;117
38;paravance-24.rennes.grid5000.fr;thermos-root-devel-WordCountTopology-2-52a1add8-f05f-42dc-b8a2-59632f31ec8e;["container_2_Emit_random_words_2"];4.25;1533809886.11435;158.72;921.3;2.201299132;10;149
39;paravance-24.rennes.grid5000.fr;thermos-root-devel-WordCountTopology-2-52a1add8-f05f-42dc-b8a2-59632f31ec8e;["container_2_Emit_random_words_2"];4.25;1533809896.23107;162.17;940.93;2.201299132;10;149
39;paravance-26.rennes.grid5000.fr;thermos-root-devel-WordCountTopology-0-78a040cd-37e1-4bac-9326-c381f83c5fb1;["topology_master"];4.25;1533809896.22153;5.09;12.02;0.002356034;9;117
39;paravance-25.rennes.grid5000.fr;thermos-root-devel-WordCountTopology-1-a81556cc-1c96-4ea3-a146-e55f744aa2be;["container_1_Consume_and_count_1"];4.25;1533809896.33863;300.98;1242.6;7.867999554;10;151
40;paravance-26.rennes.grid5000.fr;thermos-root-devel-WordCountTopology-0-78a040cd-37e1-4bac-9326-c381f83c5fb1;["topology_master"];4.25;1533809906.43776;5.15;12.09;0.002356034;9;117
40;paravance-24.rennes.grid5000.fr;thermos-root-devel-WordCountTopology-2-52a1add8-f05f-42dc-b8a2-59632f31ec8e;["container_2_Emit_random_words_2"];4.25;1533809906.54772;165.65;960.09;2.201299132;10;149
40;paravance-25.rennes.grid5000.fr;thermos-root-devel-WordCountTopology-1-a81556cc-1c96-4ea3-a146-e55f744aa2be;["container_1_Consume_and_count_1"];4.25;1533809906.55576;307.46;1268.81;7.867999554;10;151
41;paravance-25.rennes.grid5000.fr;thermos-root-devel-WordCountTopology-1-a81556cc-1c96-4ea3-a146-e55f744aa2be;["container_1_Consume_and_count_1"];4.25;1533809916.77263;314.02;1295.01;7.892235216;10;151
41;paravance-26.rennes.grid5000.fr;thermos-root-devel-WordCountTopology-0-78a040cd-37e1-4bac-9326-c381f83c5fb1;["topology_master"];4.25;1533809916.65482;5.21;12.18;0.002356034;9;117
41;paravance-24.rennes.grid5000.fr;thermos-root-devel-WordCountTopology-2-52a1add8-f05f-42dc-b8a2-59632f31ec8e;["container_2_Emit_random_words_2"];4.25;1533809916.76637;169.12;979.46;2.201299132;10;149
42;paravance-24.rennes.grid5000.fr;thermos-root-devel-WordCountTopology-2-52a1add8-f05f-42dc-b8a2-59632f31ec8e;["container_2_Emit_random_words_2"];4.25;1533809926.98492;172.47;998.79;2.201299132;10;149
42;paravance-26.rennes.grid5000.fr;thermos-root-devel-WordCountTopology-0-78a040cd-37e1-4bac-9326-c381f83c5fb1;["topology_master"];4.25;1533809926.87466;5.28;12.33;0.002356034;9;117
42;paravance-25.rennes.grid5000.fr;thermos-root-devel-WordCountTopology-1-a81556cc-1c96-4ea3-a146-e55f744aa2be;["container_1_Consume_and_count_1"];4.25;1533809926.99715;320.32;1320.82;7.892235216;10;151
43;paravance-26.rennes.grid5000.fr;thermos-root-devel-WordCountTopology-0-78a040cd-37e1-4bac-9326-c381f83c5fb1;["topology_master"];4.25;1533809937.09414;5.36;12.45;0.002356034;9;117
43;paravance-24.rennes.grid5000.fr;thermos-root-devel-WordCountTopology-2-52a1add8-f05f-42dc-b8a2-59632f31ec8e;["container_2_Emit_random_words_2"];4.25;1533809937.20338;175.87;1018.45;2.201299132;10;149
43;paravance-25.rennes.grid5000.fr;thermos-root-devel-WordCountTopology-1-a81556cc-1c96-4ea3-a146-e55f744aa2be;["container_1_Consume_and_count_1"];4.25;1533809937.21247;326.61;1348.7;7.892235216;10;151
44;paravance-26.rennes.grid5000.fr;thermos-root-devel-WordCountTopology-0-78a040cd-37e1-4bac-9326-c381f83c5fb1;["topology_master"];4.25;1533809947.31099;5.39;12.48;0.002356034;9;117
44;paravance-25.rennes.grid5000.fr;thermos-root-devel-WordCountTopology-1-a81556cc-1c96-4ea3-a146-e55f744aa2be;["container_1_Consume_and_count_1"];4.25;1533809947.42806;332.75;1376.92;7.892235216;10;151
44;paravance-24.rennes.grid5000.fr;thermos-root-devel-WordCountTopology-2-52a1add8-f05f-42dc-b8a2-59632f31ec8e;["container_2_Emit_random_words_2"];4.25;1533809947.42043;179.21;1037.85;2.201299132;10;149
45;paravance-25.rennes.grid5000.fr;thermos-root-devel-WordCountTopology-1-a81556cc-1c96-4ea3-a146-e55f744aa2be;["container_1_Consume_and_count_1"];4.25;1533809957.64486;339.01;1404.6;7.892235216;10;151
45;paravance-26.rennes.grid5000.fr;thermos-root-devel-WordCountTopology-0-78a040cd-37e1-4bac-9326-c381f83c5fb1;["topology_master"];4.25;1533809957.52785;5.48;12.61;0.002356034;9;117
45;paravance-24.rennes.grid5000.fr;thermos-root-devel-WordCountTopology-2-52a1add8-f05f-42dc-b8a2-59632f31ec8e;["container_2_Emit_random_words_2"];4.25;1533809957.63823;182.48;1057.4;2.201299132;10;149
46;paravance-26.rennes.grid5000.fr;thermos-root-devel-WordCountTopology-0-78a040cd-37e1-4bac-9326-c381f83c5fb1;["topology_master"];4.25;1533809967.7441;5.55;12.68;0.002356034;9;117
46;paravance-24.rennes.grid5000.fr;thermos-root-devel-WordCountTopology-2-52a1add8-f05f-42dc-b8a2-59632f31ec8e;["container_2_Emit_random_words_2"];4.25;1533809967.85276;185.92;1076.86;2.201299132;10;149
47;paravance-25.rennes.grid5000.fr;thermos-root-devel-WordCountTopology-1-a81556cc-1c96-4ea3-a146-e55f744aa2be;["container_1_Consume_and_count_1"];4.25;1533809978.07627;351.79;1459.55;7.89537123;10;151
47;paravance-26.rennes.grid5000.fr;thermos-root-devel-WordCountTopology-0-78a040cd-37e1-4bac-9326-c381f83c5fb1;["topology_master"];4.25;1533809977.96006;5.61;12.77;0.002356034;9;117
47;paravance-24.rennes.grid5000.fr;thermos-root-devel-WordCountTopology-2-52a1add8-f05f-42dc-b8a2-59632f31ec8e;["container_2_Emit_random_words_2"];4.25;1533809978.06975;189.36;1096.44;2.201299132;10;149
48;paravance-26.rennes.grid5000.fr;thermos-root-devel-WordCountTopology-0-78a040cd-37e1-4bac-9326-c381f83c5fb1;["topology_master"];4.25;1533809988.1766;5.67;12.87;0.002356034;9;117
48;paravance-24.rennes.grid5000.fr;thermos-root-devel-WordCountTopology-2-52a1add8-f05f-42dc-b8a2-59632f31ec8e;["container_2_Emit_random_words_2"];4.25;1533809988.28668;192.73;1115.91;2.201299132;10;149
48;paravance-25.rennes.grid5000.fr;thermos-root-devel-WordCountTopology-1-a81556cc-1c96-4ea3-a146-e55f744aa2be;["container_1_Consume_and_count_1"];4.25;1533809988.29443;358.04;1485.25;7.89537123;10;151
49;paravance-25.rennes.grid5000.fr;thermos-root-devel-WordCountTopology-1-a81556cc-1c96-4ea3-a146-e55f744aa2be;["container_1_Consume_and_count_1"];4.25;1533809998.51079;364.45;1512.0;7.90999406;10;151
49;paravance-26.rennes.grid5000.fr;thermos-root-devel-WordCountTopology-0-78a040cd-37e1-4bac-9326-c381f83c5fb1;["topology_master"];4.25;1533809998.39481;5.76;13.01;0.002356034;9;117
49;paravance-24.rennes.grid5000.fr;thermos-root-devel-WordCountTopology-2-52a1add8-f05f-42dc-b8a2-59632f31ec8e;["container_2_Emit_random_words_2"];4.25;1533809998.50263;196.17;1135.42;2.201299132;10;149
50;paravance-25.rennes.grid5000.fr;thermos-root-devel-WordCountTopology-1-a81556cc-1c96-4ea3-a146-e55f744aa2be;["container_1_Consume_and_count_1"];4.25;1533810008.73046;370.87;1539.59;7.90999406;10;151
50;paravance-26.rennes.grid5000.fr;thermos-root-devel-WordCountTopology-0-78a040cd-37e1-4bac-9326-c381f83c5fb1;["topology_master"];4.25;1533810008.61258;5.79;13.04;0.002356034;9;117
50;paravance-24.rennes.grid5000.fr;thermos-root-devel-WordCountTopology-2-52a1add8-f05f-42dc-b8a2-59632f31ec8e;["container_2_Emit_random_words_2"];4.25;1533810008.72151;199.52;1154.81;2.201299132;10;149
51;paravance-24.rennes.grid5000.fr;thermos-root-devel-WordCountTopology-2-52a1add8-f05f-42dc-b8a2-59632f31ec8e;["container_2_Emit_random_words_2"];4.25;1533810018.83818;202.95;1174.22;2.201299132;10;149
51;paravance-26.rennes.grid5000.fr;thermos-root-devel-WordCountTopology-0-78a040cd-37e1-4bac-9326-c381f83c5fb1;["topology_master"];4.25;1533810018.72993;5.88;13.17;0.002356034;9;117
51;paravance-25.rennes.grid5000.fr;thermos-root-devel-WordCountTopology-1-a81556cc-1c96-4ea3-a146-e55f744aa2be;["container_1_Consume_and_count_1"];4.25;1533810018.94632;377.29;1566.58;7.93457286;10;151
52;paravance-24.rennes.grid5000.fr;thermos-root-devel-WordCountTopology-2-52a1add8-f05f-42dc-b8a2-59632f31ec8e;["container_2_Emit_random_words_2"];4.25;1533810029.15373;206.45;1193.7;2.201299132;10;149
52;paravance-25.rennes.grid5000.fr;thermos-root-devel-WordCountTopology-1-a81556cc-1c96-4ea3-a146-e55f744aa2be;["container_1_Consume_and_count_1"];4.25;1533810029.16279;383.92;1594.79;7.935999273;10;151
52;paravance-26.rennes.grid5000.fr;thermos-root-devel-WordCountTopology-0-78a040cd-37e1-4bac-9326-c381f83c5fb1;["topology_master"];4.25;1533810029.04646;5.94;13.25;0.002356034;9;117
53;paravance-25.rennes.grid5000.fr;thermos-root-devel-WordCountTopology-1-a81556cc-1c96-4ea3-a146-e55f744aa2be;["container_1_Consume_and_count_1"];4.25;1533810039.37534;390.19;1624.94;8.408740497;10;151
53;paravance-26.rennes.grid5000.fr;thermos-root-devel-WordCountTopology-0-78a040cd-37e1-4bac-9326-c381f83c5fb1;["topology_master"];4.25;1533810039.26029;6.02;13.37;0.002356034;9;117
53;paravance-24.rennes.grid5000.fr;thermos-root-devel-WordCountTopology-2-52a1add8-f05f-42dc-b8a2-59632f31ec8e;["container_2_Emit_random_words_2"];4.25;1533810039.36882;209.88;1213.11;2.201299132;10;149
54;paravance-24.rennes.grid5000.fr;thermos-root-devel-WordCountTopology-2-52a1add8-f05f-42dc-b8a2-59632f31ec8e;["container_2_Emit_random_words_2"];4.25;1533810049.58666;213.25;1232.34;2.201299132;10;149
54;paravance-25.rennes.grid5000.fr;thermos-root-devel-WordCountTopology-1-a81556cc-1c96-4ea3-a146-e55f744aa2be;["container_1_Consume_and_count_1"];4.25;1533810049.59529;396.6;1653.01;9.138159663;10;151
54;paravance-26.rennes.grid5000.fr;thermos-root-devel-WordCountTopology-0-78a040cd-37e1-4bac-9326-c381f83c5fb1;["topology_master"];4.25;1533810049.47727;6.07;13.44;0.002356034;9;117
55;paravance-25.rennes.grid5000.fr;thermos-root-devel-WordCountTopology-1-a81556cc-1c96-4ea3-a146-e55f744aa2be;["container_1_Consume_and_count_1"];4.25;1533810059.81176;402.8;1681.72;9.19276215;10;151
55;paravance-26.rennes.grid5000.fr;thermos-root-devel-WordCountTopology-0-78a040cd-37e1-4bac-9326-c381f83c5fb1;["topology_master"];4.25;1533810059.6963;6.16;13.56;0.002356034;9;117
55;paravance-24.rennes.grid5000.fr;thermos-root-devel-WordCountTopology-2-52a1add8-f05f-42dc-b8a2-59632f31ec8e;["container_2_Emit_random_words_2"];4.25;1533810059.804;216.59;1251.53;2.201299132;10;149
56;paravance-24.rennes.grid5000.fr;thermos-root-devel-WordCountTopology-2-52a1add8-f05f-42dc-b8a2-59632f31ec8e;["container_2_Emit_random_words_2"];4.25;1533810070.02174;219.98;1271.13;2.201299132;10;149
56;paravance-26.rennes.grid5000.fr;thermos-root-devel-WordCountTopology-0-78a040cd-37e1-4bac-9326-c381f83c5fb1;["topology_master"];4.25;1533810069.91271;6.19;13.59;0.002356034;9;117
56;paravance-25.rennes.grid5000.fr;thermos-root-devel-WordCountTopology-1-a81556cc-1c96-4ea3-a146-e55f744aa2be;["container_1_Consume_and_count_1"];4.25;1533810070.03028;409.13;1710.64;9.222126733;10;151
57;paravance-24.rennes.grid5000.fr;thermos-root-devel-WordCountTopology-2-52a1add8-f05f-42dc-b8a2-59632f31ec8e;["container_2_Emit_random_words_2"];4.25;1533810080.23957;223.44;1290.85;2.201299132;10;149
57;paravance-25.rennes.grid5000.fr;thermos-root-devel-WordCountTopology-1-a81556cc-1c96-4ea3-a146-e55f744aa2be;["container_1_Consume_and_count_1"];4.25;1533810080.24794;415.44;1739.34;9.273668604;10;151
57;paravance-26.rennes.grid5000.fr;thermos-root-devel-WordCountTopology-0-78a040cd-37e1-4bac-9326-c381f83c5fb1;["topology_master"];4.25;1533810080.13064;6.28;13.71;0.002356034;9;117
58;paravance-24.rennes.grid5000.fr;thermos-root-devel-WordCountTopology-2-52a1add8-f05f-42dc-b8a2-59632f31ec8e;["container_2_Emit_random_words_2"];4.25;1533810090.45393;226.76;1310.49;2.201299132;10;149
58;paravance-26.rennes.grid5000.fr;thermos-root-devel-WordCountTopology-0-78a040cd-37e1-4bac-9326-c381f83c5fb1;["topology_master"];4.25;1533810090.345;6.33;13.79;0.002356034;9;117
58;paravance-25.rennes.grid5000.fr;thermos-root-devel-WordCountTopology-1-a81556cc-1c96-4ea3-a146-e55f744aa2be;["container_1_Consume_and_count_1"];4.25;1533810090.46179;421.73;1765.72;9.273668604;10;151
59;paravance-24.rennes.grid5000.fr;thermos-root-devel-WordCountTopology-2-52a1add8-f05f-42dc-b8a2-59632f31ec8e;["container_2_Emit_random_words_2"];4.25;1533810100.66933;230.12;1330.02;2.201299132;10;149
59;paravance-26.rennes.grid5000.fr;thermos-root-devel-WordCountTopology-0-78a040cd-37e1-4bac-9326-c381f83c5fb1;["topology_master"];4.25;1533810100.56217;6.41;13.9;0.002356034;9;117
59;paravance-25.rennes.grid5000.fr;thermos-root-devel-WordCountTopology-1-a81556cc-1c96-4ea3-a146-e55f744aa2be;["container_1_Consume_and_count_1"];4.25;1533810100.67853;428.11;1793.15;9.273742074;10;151
60;paravance-26.rennes.grid5000.fr;thermos-root-devel-WordCountTopology-0-78a040cd-37e1-4bac-9326-c381f83c5fb1;["topology_master"];4.25;1533810110.77735;6.46;13.98;0.002356034;9;117
60;paravance-25.rennes.grid5000.fr;thermos-root-devel-WordCountTopology-1-a81556cc-1c96-4ea3-a146-e55f744aa2be;["container_1_Consume_and_count_1"];4.25;1533810110.8948;434.64;1819.88;9.273742074;10;151
60;paravance-24.rennes.grid5000.fr;thermos-root-devel-WordCountTopology-2-52a1add8-f05f-42dc-b8a2-59632f31ec8e;["container_2_Emit_random_words_2"];4.25;1533810110.88711;233.48;1349.33;2.201299132;10;149
