mesure_id;slave_id;executor_id;heron_instances;cpus_limit;timestamp_B;cpus_system_time_secs_B;cpus_user_time_secs_B;cpus_throttled_time_secs_B;processes;threads
0;paravance-46.rennes.grid5000.fr;thermos-root-devel-WordCountTopology-2-3a510104-88cf-4f40-a2f2-69fdb0588be3;["container_2_Emit_random_words_2"];3.25;1533749859.08204;10.47;235.54;4.743965711;10;149
0;paravance-48.rennes.grid5000.fr;thermos-root-devel-WordCountTopology-0-bd93cd4c-bd52-4e6d-af7a-56adebee533b;["topology_master"];3.25;1533749859.16936;2.58;8.34;0.0;9;117
0;paravance-51.rennes.grid5000.fr;thermos-root-devel-WordCountTopology-1-65d82c5e-d0b2-4481-a331-a4022214385e;["container_1_Consume_and_count_1"];3.25;1533749859.18569;11.94;179.19;1.633630301;10;149
1;paravance-48.rennes.grid5000.fr;thermos-root-devel-WordCountTopology-0-bd93cd4c-bd52-4e6d-af7a-56adebee533b;["topology_master"];3.25;1533749869.28488;2.67;8.47;0.0;9;117
1;paravance-51.rennes.grid5000.fr;thermos-root-devel-WordCountTopology-1-65d82c5e-d0b2-4481-a331-a4022214385e;["container_1_Consume_and_count_1"];3.25;1533749869.39847;12.73;192.83;1.633630301;10;149
1;paravance-46.rennes.grid5000.fr;thermos-root-devel-WordCountTopology-2-3a510104-88cf-4f40-a2f2-69fdb0588be3;["container_2_Emit_random_words_2"];3.25;1533749869.39787;11.14;253.87;4.743965711;10;149
2;paravance-51.rennes.grid5000.fr;thermos-root-devel-WordCountTopology-1-65d82c5e-d0b2-4481-a331-a4022214385e;["container_1_Consume_and_count_1"];3.25;1533749879.61352;13.48;206.43;1.633630301;10;149
2;paravance-46.rennes.grid5000.fr;thermos-root-devel-WordCountTopology-2-3a510104-88cf-4f40-a2f2-69fdb0588be3;["container_2_Emit_random_words_2"];3.25;1533749879.61248;11.8;271.97;4.743965711;10;149
2;paravance-48.rennes.grid5000.fr;thermos-root-devel-WordCountTopology-0-bd93cd4c-bd52-4e6d-af7a-56adebee533b;["topology_master"];3.25;1533749879.60007;2.7;8.5;0.0;9;117
3;paravance-46.rennes.grid5000.fr;thermos-root-devel-WordCountTopology-2-3a510104-88cf-4f40-a2f2-69fdb0588be3;["container_2_Emit_random_words_2"];3.25;1533749889.72958;12.48;290.03;4.743965711;10;149
3;paravance-51.rennes.grid5000.fr;thermos-root-devel-WordCountTopology-1-65d82c5e-d0b2-4481-a331-a4022214385e;["container_1_Consume_and_count_1"];3.25;1533749889.83184;14.28;220.25;1.633630301;10;149
3;paravance-48.rennes.grid5000.fr;thermos-root-devel-WordCountTopology-0-bd93cd4c-bd52-4e6d-af7a-56adebee533b;["topology_master"];3.25;1533749889.81725;2.79;8.62;0.0;9;117
4;paravance-46.rennes.grid5000.fr;thermos-root-devel-WordCountTopology-2-3a510104-88cf-4f40-a2f2-69fdb0588be3;["container_2_Emit_random_words_2"];3.25;1533749900.04364;13.14;308.2;4.743965711;10;149
4;paravance-51.rennes.grid5000.fr;thermos-root-devel-WordCountTopology-1-65d82c5e-d0b2-4481-a331-a4022214385e;["container_1_Consume_and_count_1"];3.25;1533749900.04651;15.05;233.8;1.633630301;10;149
4;paravance-48.rennes.grid5000.fr;thermos-root-devel-WordCountTopology-0-bd93cd4c-bd52-4e6d-af7a-56adebee533b;["topology_master"];3.25;1533749900.03297;2.84;8.69;0.0;9;117
5;paravance-46.rennes.grid5000.fr;thermos-root-devel-WordCountTopology-2-3a510104-88cf-4f40-a2f2-69fdb0588be3;["container_2_Emit_random_words_2"];3.25;1533749910.25998;13.82;326.32;4.743965711;10;149
5;paravance-51.rennes.grid5000.fr;thermos-root-devel-WordCountTopology-1-65d82c5e-d0b2-4481-a331-a4022214385e;["container_1_Consume_and_count_1"];3.25;1533749910.26186;15.85;247.39;1.633630301;10;149
5;paravance-48.rennes.grid5000.fr;thermos-root-devel-WordCountTopology-0-bd93cd4c-bd52-4e6d-af7a-56adebee533b;["topology_master"];3.25;1533749910.24857;2.93;8.79;0.0;9;117
6;paravance-51.rennes.grid5000.fr;thermos-root-devel-WordCountTopology-1-65d82c5e-d0b2-4481-a331-a4022214385e;["container_1_Consume_and_count_1"];3.25;1533749920.37782;16.64;261.13;1.633630301;10;149
6;paravance-48.rennes.grid5000.fr;thermos-root-devel-WordCountTopology-0-bd93cd4c-bd52-4e6d-af7a-56adebee533b;["topology_master"];3.25;1533749920.46278;3.0;8.97;0.0;9;117
6;paravance-46.rennes.grid5000.fr;thermos-root-devel-WordCountTopology-2-3a510104-88cf-4f40-a2f2-69fdb0588be3;["container_2_Emit_random_words_2"];3.25;1533749920.47697;14.49;344.63;4.743965711;10;149
7;paravance-46.rennes.grid5000.fr;thermos-root-devel-WordCountTopology-2-3a510104-88cf-4f40-a2f2-69fdb0588be3;["container_2_Emit_random_words_2"];3.25;1533749930.69003;15.18;362.68;4.743965711;10;149
7;paravance-48.rennes.grid5000.fr;thermos-root-devel-WordCountTopology-0-bd93cd4c-bd52-4e6d-af7a-56adebee533b;["topology_master"];3.25;1533749930.67899;3.1;9.1;0.0;9;117
7;paravance-51.rennes.grid5000.fr;thermos-root-devel-WordCountTopology-1-65d82c5e-d0b2-4481-a331-a4022214385e;["container_1_Consume_and_count_1"];3.25;1533749930.6929;17.43;275.37;1.633630301;10;149
8;paravance-46.rennes.grid5000.fr;thermos-root-devel-WordCountTopology-2-3a510104-88cf-4f40-a2f2-69fdb0588be3;["container_2_Emit_random_words_2"];3.25;1533749940.90491;15.83;380.74;4.743965711;10;149
8;paravance-48.rennes.grid5000.fr;thermos-root-devel-WordCountTopology-0-bd93cd4c-bd52-4e6d-af7a-56adebee533b;["topology_master"];3.25;1533749940.89475;3.12;9.12;0.0;9;117
8;paravance-51.rennes.grid5000.fr;thermos-root-devel-WordCountTopology-1-65d82c5e-d0b2-4481-a331-a4022214385e;["container_1_Consume_and_count_1"];3.25;1533749940.90878;18.17;289.16;1.633630301;10;149
9;paravance-46.rennes.grid5000.fr;thermos-root-devel-WordCountTopology-2-3a510104-88cf-4f40-a2f2-69fdb0588be3;["container_2_Emit_random_words_2"];3.25;1533749951.02347;16.51;398.81;4.743965711;10;149
9;paravance-51.rennes.grid5000.fr;thermos-root-devel-WordCountTopology-1-65d82c5e-d0b2-4481-a331-a4022214385e;["container_1_Consume_and_count_1"];3.25;1533749951.12487;18.98;302.98;1.633630301;10;149
9;paravance-48.rennes.grid5000.fr;thermos-root-devel-WordCountTopology-0-bd93cd4c-bd52-4e6d-af7a-56adebee533b;["topology_master"];3.25;1533749951.1105;3.21;9.25;0.0;9;117
10;paravance-46.rennes.grid5000.fr;thermos-root-devel-WordCountTopology-2-3a510104-88cf-4f40-a2f2-69fdb0588be3;["container_2_Emit_random_words_2"];3.25;1533749961.33647;17.17;417.11;4.743965711;10;149
10;paravance-51.rennes.grid5000.fr;thermos-root-devel-WordCountTopology-1-65d82c5e-d0b2-4481-a331-a4022214385e;["container_1_Consume_and_count_1"];3.25;1533749961.33997;19.75;316.45;1.633630301;10;149
10;paravance-48.rennes.grid5000.fr;thermos-root-devel-WordCountTopology-0-bd93cd4c-bd52-4e6d-af7a-56adebee533b;["topology_master"];3.25;1533749961.32528;3.27;9.32;0.0;9;117
11;paravance-46.rennes.grid5000.fr;thermos-root-devel-WordCountTopology-2-3a510104-88cf-4f40-a2f2-69fdb0588be3;["container_2_Emit_random_words_2"];3.25;1533749971.55129;17.86;435.39;4.743965711;10;149
11;paravance-48.rennes.grid5000.fr;thermos-root-devel-WordCountTopology-0-bd93cd4c-bd52-4e6d-af7a-56adebee533b;["topology_master"];3.25;1533749971.54121;3.38;9.45;0.0;9;117
11;paravance-51.rennes.grid5000.fr;thermos-root-devel-WordCountTopology-1-65d82c5e-d0b2-4481-a331-a4022214385e;["container_1_Consume_and_count_1"];3.25;1533749971.55509;20.56;330.02;1.633630301;10;149
12;paravance-48.rennes.grid5000.fr;thermos-root-devel-WordCountTopology-0-bd93cd4c-bd52-4e6d-af7a-56adebee533b;["topology_master"];3.25;1533749981.7559;3.43;9.63;0.0;9;117
12;paravance-51.rennes.grid5000.fr;thermos-root-devel-WordCountTopology-1-65d82c5e-d0b2-4481-a331-a4022214385e;["container_1_Consume_and_count_1"];3.25;1533749981.77077;21.32;343.51;1.633630301;10;149
12;paravance-46.rennes.grid5000.fr;thermos-root-devel-WordCountTopology-2-3a510104-88cf-4f40-a2f2-69fdb0588be3;["container_2_Emit_random_words_2"];3.25;1533749981.76965;18.48;453.45;4.743965711;10;149
13;paravance-51.rennes.grid5000.fr;thermos-root-devel-WordCountTopology-1-65d82c5e-d0b2-4481-a331-a4022214385e;["container_1_Consume_and_count_1"];3.25;1533749991.9858;22.13;356.98;1.633630301;10;149
13;paravance-48.rennes.grid5000.fr;thermos-root-devel-WordCountTopology-0-bd93cd4c-bd52-4e6d-af7a-56adebee533b;["topology_master"];3.25;1533749991.97109;3.52;9.76;0.0;9;117
13;paravance-46.rennes.grid5000.fr;thermos-root-devel-WordCountTopology-2-3a510104-88cf-4f40-a2f2-69fdb0588be3;["container_2_Emit_random_words_2"];3.25;1533749991.98519;19.16;471.65;4.743965711;10;149
14;paravance-46.rennes.grid5000.fr;thermos-root-devel-WordCountTopology-2-3a510104-88cf-4f40-a2f2-69fdb0588be3;["container_2_Emit_random_words_2"];3.25;1533750002.19884;19.81;489.69;4.743965711;10;149
14;paravance-48.rennes.grid5000.fr;thermos-root-devel-WordCountTopology-0-bd93cd4c-bd52-4e6d-af7a-56adebee533b;["topology_master"];3.25;1533750002.18826;3.58;9.84;0.0;9;117
14;paravance-51.rennes.grid5000.fr;thermos-root-devel-WordCountTopology-1-65d82c5e-d0b2-4481-a331-a4022214385e;["container_1_Consume_and_count_1"];3.25;1533750002.20295;22.89;370.26;1.633630301;10;149
15;paravance-51.rennes.grid5000.fr;thermos-root-devel-WordCountTopology-1-65d82c5e-d0b2-4481-a331-a4022214385e;["container_1_Consume_and_count_1"];3.25;1533750012.31915;23.66;383.77;1.633630301;10;149
15;paravance-46.rennes.grid5000.fr;thermos-root-devel-WordCountTopology-2-3a510104-88cf-4f40-a2f2-69fdb0588be3;["container_2_Emit_random_words_2"];3.25;1533750012.41705;20.47;507.73;4.743965711;10;149
15;paravance-48.rennes.grid5000.fr;thermos-root-devel-WordCountTopology-0-bd93cd4c-bd52-4e6d-af7a-56adebee533b;["topology_master"];3.25;1533750012.40672;3.63;9.92;0.0;9;117
16;paravance-48.rennes.grid5000.fr;thermos-root-devel-WordCountTopology-0-bd93cd4c-bd52-4e6d-af7a-56adebee533b;["topology_master"];3.25;1533750022.52175;3.69;9.99;0.0;9;117
16;paravance-51.rennes.grid5000.fr;thermos-root-devel-WordCountTopology-1-65d82c5e-d0b2-4481-a331-a4022214385e;["container_1_Consume_and_count_1"];3.25;1533750022.63484;24.42;397.41;1.633630301;10;149
16;paravance-46.rennes.grid5000.fr;thermos-root-devel-WordCountTopology-2-3a510104-88cf-4f40-a2f2-69fdb0588be3;["container_2_Emit_random_words_2"];3.25;1533750022.63476;21.1;525.69;4.743965711;10;149
17;paravance-46.rennes.grid5000.fr;thermos-root-devel-WordCountTopology-2-3a510104-88cf-4f40-a2f2-69fdb0588be3;["container_2_Emit_random_words_2"];3.25;1533750032.84742;21.81;543.88;4.743965711;10;149
17;paravance-48.rennes.grid5000.fr;thermos-root-devel-WordCountTopology-0-bd93cd4c-bd52-4e6d-af7a-56adebee533b;["topology_master"];3.25;1533750032.83622;3.81;10.2;0.0;9;117
17;paravance-51.rennes.grid5000.fr;thermos-root-devel-WordCountTopology-1-65d82c5e-d0b2-4481-a331-a4022214385e;["container_1_Consume_and_count_1"];3.25;1533750032.85028;25.24;410.92;1.633630301;10;149
18;paravance-46.rennes.grid5000.fr;thermos-root-devel-WordCountTopology-2-3a510104-88cf-4f40-a2f2-69fdb0588be3;["container_2_Emit_random_words_2"];3.25;1533750043.06136;22.44;561.93;4.743965711;10;149
18;paravance-51.rennes.grid5000.fr;thermos-root-devel-WordCountTopology-1-65d82c5e-d0b2-4481-a331-a4022214385e;["container_1_Consume_and_count_1"];3.25;1533750043.06551;25.99;424.48;1.633630301;10;149
18;paravance-48.rennes.grid5000.fr;thermos-root-devel-WordCountTopology-0-bd93cd4c-bd52-4e6d-af7a-56adebee533b;["topology_master"];3.25;1533750043.05258;3.84;10.23;0.0;9;117
19;paravance-46.rennes.grid5000.fr;thermos-root-devel-WordCountTopology-2-3a510104-88cf-4f40-a2f2-69fdb0588be3;["container_2_Emit_random_words_2"];3.25;1533750053.27892;23.13;580.3;4.743965711;10;149
19;paravance-48.rennes.grid5000.fr;thermos-root-devel-WordCountTopology-0-bd93cd4c-bd52-4e6d-af7a-56adebee533b;["topology_master"];3.25;1533750053.26729;3.93;10.36;0.0;9;117
19;paravance-51.rennes.grid5000.fr;thermos-root-devel-WordCountTopology-1-65d82c5e-d0b2-4481-a331-a4022214385e;["container_1_Consume_and_count_1"];3.25;1533750053.28121;26.8;438.2;1.633630301;10;149
20;paravance-51.rennes.grid5000.fr;thermos-root-devel-WordCountTopology-1-65d82c5e-d0b2-4481-a331-a4022214385e;["container_1_Consume_and_count_1"];3.25;1533750063.49499;27.55;452.25;1.633630301;10;149
20;paravance-46.rennes.grid5000.fr;thermos-root-devel-WordCountTopology-2-3a510104-88cf-4f40-a2f2-69fdb0588be3;["container_2_Emit_random_words_2"];3.25;1533750063.49537;23.79;598.48;4.743965711;10;149
20;paravance-48.rennes.grid5000.fr;thermos-root-devel-WordCountTopology-0-bd93cd4c-bd52-4e6d-af7a-56adebee533b;["topology_master"];3.25;1533750063.48261;3.99;10.43;0.0;9;117
21;paravance-51.rennes.grid5000.fr;thermos-root-devel-WordCountTopology-1-65d82c5e-d0b2-4481-a331-a4022214385e;["container_1_Consume_and_count_1"];3.25;1533750073.70922;28.34;466.7;1.633630301;10;149
21;paravance-46.rennes.grid5000.fr;thermos-root-devel-WordCountTopology-2-3a510104-88cf-4f40-a2f2-69fdb0588be3;["container_2_Emit_random_words_2"];3.25;1533750073.70801;24.45;616.59;4.743965711;10;149
21;paravance-48.rennes.grid5000.fr;thermos-root-devel-WordCountTopology-0-bd93cd4c-bd52-4e6d-af7a-56adebee533b;["topology_master"];3.25;1533750073.69675;4.05;10.5;0.0;9;117
22;paravance-51.rennes.grid5000.fr;thermos-root-devel-WordCountTopology-1-65d82c5e-d0b2-4481-a331-a4022214385e;["container_1_Consume_and_count_1"];3.25;1533750083.9234;29.14;481.16;1.633630301;10;149
22;paravance-48.rennes.grid5000.fr;thermos-root-devel-WordCountTopology-0-bd93cd4c-bd52-4e6d-af7a-56adebee533b;["topology_master"];3.25;1533750083.91019;4.1;10.58;0.0;9;117
22;paravance-46.rennes.grid5000.fr;thermos-root-devel-WordCountTopology-2-3a510104-88cf-4f40-a2f2-69fdb0588be3;["container_2_Emit_random_words_2"];3.25;1533750083.92237;25.11;634.8;4.743965711;10;149
23;paravance-46.rennes.grid5000.fr;thermos-root-devel-WordCountTopology-2-3a510104-88cf-4f40-a2f2-69fdb0588be3;["container_2_Emit_random_words_2"];3.25;1533750094.13625;25.83;653.08;4.743965711;10;149
23;paravance-51.rennes.grid5000.fr;thermos-root-devel-WordCountTopology-1-65d82c5e-d0b2-4481-a331-a4022214385e;["container_1_Consume_and_count_1"];3.25;1533750094.13848;30.0;495.81;1.633630301;10;149
23;paravance-48.rennes.grid5000.fr;thermos-root-devel-WordCountTopology-0-bd93cd4c-bd52-4e6d-af7a-56adebee533b;["topology_master"];3.25;1533750094.12544;4.21;10.77;0.0;9;117
24;paravance-46.rennes.grid5000.fr;thermos-root-devel-WordCountTopology-2-3a510104-88cf-4f40-a2f2-69fdb0588be3;["container_2_Emit_random_words_2"];3.25;1533750104.35082;26.46;671.25;4.743965711;10;149
24;paravance-51.rennes.grid5000.fr;thermos-root-devel-WordCountTopology-1-65d82c5e-d0b2-4481-a331-a4022214385e;["container_1_Consume_and_count_1"];3.25;1533750104.35263;30.76;509.55;1.633630301;10;149
24;paravance-48.rennes.grid5000.fr;thermos-root-devel-WordCountTopology-0-bd93cd4c-bd52-4e6d-af7a-56adebee533b;["topology_master"];3.25;1533750104.34119;4.24;10.79;0.0;9;117
25;paravance-46.rennes.grid5000.fr;thermos-root-devel-WordCountTopology-2-3a510104-88cf-4f40-a2f2-69fdb0588be3;["container_2_Emit_random_words_2"];3.25;1533750114.56758;27.15;689.34;4.743965711;10;149
25;paravance-48.rennes.grid5000.fr;thermos-root-devel-WordCountTopology-0-bd93cd4c-bd52-4e6d-af7a-56adebee533b;["topology_master"];3.25;1533750114.55617;4.33;10.92;0.0;9;117
25;paravance-51.rennes.grid5000.fr;thermos-root-devel-WordCountTopology-1-65d82c5e-d0b2-4481-a331-a4022214385e;["container_1_Consume_and_count_1"];3.25;1533750114.57084;31.57;523.25;1.633630301;10;149
26;paravance-46.rennes.grid5000.fr;thermos-root-devel-WordCountTopology-2-3a510104-88cf-4f40-a2f2-69fdb0588be3;["container_2_Emit_random_words_2"];3.25;1533750124.78279;27.8;707.48;4.743965711;10;149
26;paravance-51.rennes.grid5000.fr;thermos-root-devel-WordCountTopology-1-65d82c5e-d0b2-4481-a331-a4022214385e;["container_1_Consume_and_count_1"];3.25;1533750124.78515;32.34;536.77;1.633630301;10;149
26;paravance-48.rennes.grid5000.fr;thermos-root-devel-WordCountTopology-0-bd93cd4c-bd52-4e6d-af7a-56adebee533b;["topology_master"];3.25;1533750124.77209;4.39;10.99;0.0;9;117
27;paravance-46.rennes.grid5000.fr;thermos-root-devel-WordCountTopology-2-3a510104-88cf-4f40-a2f2-69fdb0588be3;["container_2_Emit_random_words_2"];3.25;1533750134.99727;28.47;725.64;4.743965711;10;149
27;paravance-48.rennes.grid5000.fr;thermos-root-devel-WordCountTopology-0-bd93cd4c-bd52-4e6d-af7a-56adebee533b;["topology_master"];3.25;1533750134.98565;4.45;11.06;0.0;9;117
27;paravance-51.rennes.grid5000.fr;thermos-root-devel-WordCountTopology-1-65d82c5e-d0b2-4481-a331-a4022214385e;["container_1_Consume_and_count_1"];3.25;1533750134.99997;33.12;550.42;1.633630301;10;149
28;paravance-48.rennes.grid5000.fr;thermos-root-devel-WordCountTopology-0-bd93cd4c-bd52-4e6d-af7a-56adebee533b;["topology_master"];3.25;1533750145.19891;4.51;11.13;0.0;9;117
28;paravance-46.rennes.grid5000.fr;thermos-root-devel-WordCountTopology-2-3a510104-88cf-4f40-a2f2-69fdb0588be3;["container_2_Emit_random_words_2"];3.25;1533750145.21223;29.14;743.75;4.743965711;10;149
28;paravance-51.rennes.grid5000.fr;thermos-root-devel-WordCountTopology-1-65d82c5e-d0b2-4481-a331-a4022214385e;["container_1_Consume_and_count_1"];3.25;1533750145.21494;33.89;564.14;1.633630301;10;149
29;paravance-46.rennes.grid5000.fr;thermos-root-devel-WordCountTopology-2-3a510104-88cf-4f40-a2f2-69fdb0588be3;["container_2_Emit_random_words_2"];3.25;1533750155.4271;29.86;761.97;4.743965711;10;149
29;paravance-51.rennes.grid5000.fr;thermos-root-devel-WordCountTopology-1-65d82c5e-d0b2-4481-a331-a4022214385e;["container_1_Consume_and_count_1"];3.25;1533750155.42942;34.72;577.79;1.633630301;10;149
29;paravance-48.rennes.grid5000.fr;thermos-root-devel-WordCountTopology-0-bd93cd4c-bd52-4e6d-af7a-56adebee533b;["topology_master"];3.25;1533750155.41637;4.62;11.3;0.0;9;117
30;paravance-48.rennes.grid5000.fr;thermos-root-devel-WordCountTopology-0-bd93cd4c-bd52-4e6d-af7a-56adebee533b;["topology_master"];3.25;1533750165.63121;4.68;11.38;0.0;9;117
30;paravance-51.rennes.grid5000.fr;thermos-root-devel-WordCountTopology-1-65d82c5e-d0b2-4481-a331-a4022214385e;["container_1_Consume_and_count_1"];3.25;1533750165.64595;35.48;591.09;1.633630301;10;149
30;paravance-46.rennes.grid5000.fr;thermos-root-devel-WordCountTopology-2-3a510104-88cf-4f40-a2f2-69fdb0588be3;["container_2_Emit_random_words_2"];3.25;1533750165.64314;30.52;779.87;4.743965711;10;149
31;paravance-46.rennes.grid5000.fr;thermos-root-devel-WordCountTopology-2-3a510104-88cf-4f40-a2f2-69fdb0588be3;["container_2_Emit_random_words_2"];3.25;1533750175.85816;31.19;798.06;4.743965711;10;149
31;paravance-51.rennes.grid5000.fr;thermos-root-devel-WordCountTopology-1-65d82c5e-d0b2-4481-a331-a4022214385e;["container_1_Consume_and_count_1"];3.25;1533750175.86024;36.23;604.82;1.633630301;10;149
31;paravance-48.rennes.grid5000.fr;thermos-root-devel-WordCountTopology-0-bd93cd4c-bd52-4e6d-af7a-56adebee533b;["topology_master"];3.25;1533750175.84735;4.73;11.45;0.0;9;117
32;paravance-46.rennes.grid5000.fr;thermos-root-devel-WordCountTopology-2-3a510104-88cf-4f40-a2f2-69fdb0588be3;["container_2_Emit_random_words_2"];3.25;1533750186.07205;31.89;816.28;4.743965711;10;149
32;paravance-48.rennes.grid5000.fr;thermos-root-devel-WordCountTopology-0-bd93cd4c-bd52-4e6d-af7a-56adebee533b;["topology_master"];3.25;1533750186.06228;4.82;11.57;0.0;9;117
32;paravance-51.rennes.grid5000.fr;thermos-root-devel-WordCountTopology-1-65d82c5e-d0b2-4481-a331-a4022214385e;["container_1_Consume_and_count_1"];3.25;1533750186.07564;37.05;618.44;1.633630301;10;149
33;paravance-46.rennes.grid5000.fr;thermos-root-devel-WordCountTopology-2-3a510104-88cf-4f40-a2f2-69fdb0588be3;["container_2_Emit_random_words_2"];3.25;1533750196.28969;32.52;834.3;4.743965711;10;149
33;paravance-51.rennes.grid5000.fr;thermos-root-devel-WordCountTopology-1-65d82c5e-d0b2-4481-a331-a4022214385e;["container_1_Consume_and_count_1"];3.25;1533750196.29204;37.79;631.96;1.633630301;10;149
33;paravance-48.rennes.grid5000.fr;thermos-root-devel-WordCountTopology-0-bd93cd4c-bd52-4e6d-af7a-56adebee533b;["topology_master"];3.25;1533750196.2791;4.85;11.59;0.0;9;117
34;paravance-51.rennes.grid5000.fr;thermos-root-devel-WordCountTopology-1-65d82c5e-d0b2-4481-a331-a4022214385e;["container_1_Consume_and_count_1"];3.25;1533750206.50749;38.63;645.71;1.633630301;10;149
34;paravance-46.rennes.grid5000.fr;thermos-root-devel-WordCountTopology-2-3a510104-88cf-4f40-a2f2-69fdb0588be3;["container_2_Emit_random_words_2"];3.25;1533750206.50526;33.25;852.61;4.743965711;10;149
34;paravance-48.rennes.grid5000.fr;thermos-root-devel-WordCountTopology-0-bd93cd4c-bd52-4e6d-af7a-56adebee533b;["topology_master"];3.25;1533750206.49429;4.94;11.72;0.0;9;117
35;paravance-46.rennes.grid5000.fr;thermos-root-devel-WordCountTopology-2-3a510104-88cf-4f40-a2f2-69fdb0588be3;["container_2_Emit_random_words_2"];3.25;1533750216.72079;33.92;870.83;4.743965711;10;149
35;paravance-51.rennes.grid5000.fr;thermos-root-devel-WordCountTopology-1-65d82c5e-d0b2-4481-a331-a4022214385e;["container_1_Consume_and_count_1"];3.25;1533750216.72325;39.4;659.58;1.633630301;10;149
35;paravance-48.rennes.grid5000.fr;thermos-root-devel-WordCountTopology-0-bd93cd4c-bd52-4e6d-af7a-56adebee533b;["topology_master"];3.25;1533750216.71035;5.01;11.89;0.0;9;117
36;paravance-51.rennes.grid5000.fr;thermos-root-devel-WordCountTopology-1-65d82c5e-d0b2-4481-a331-a4022214385e;["container_1_Consume_and_count_1"];3.25;1533750226.93853;40.18;673.06;1.633630301;10;149
36;paravance-46.rennes.grid5000.fr;thermos-root-devel-WordCountTopology-2-3a510104-88cf-4f40-a2f2-69fdb0588be3;["container_2_Emit_random_words_2"];3.25;1533750226.93691;34.61;889.13;4.743965711;10;149
36;paravance-48.rennes.grid5000.fr;thermos-root-devel-WordCountTopology-0-bd93cd4c-bd52-4e6d-af7a-56adebee533b;["topology_master"];3.25;1533750226.92641;5.07;11.96;0.0;9;117
37;paravance-46.rennes.grid5000.fr;thermos-root-devel-WordCountTopology-2-3a510104-88cf-4f40-a2f2-69fdb0588be3;["container_2_Emit_random_words_2"];3.25;1533750237.15221;35.28;907.45;4.743965711;10;149
37;paravance-51.rennes.grid5000.fr;thermos-root-devel-WordCountTopology-1-65d82c5e-d0b2-4481-a331-a4022214385e;["container_1_Consume_and_count_1"];3.25;1533750237.1542;40.95;686.36;1.633630301;10;149
37;paravance-48.rennes.grid5000.fr;thermos-root-devel-WordCountTopology-0-bd93cd4c-bd52-4e6d-af7a-56adebee533b;["topology_master"];3.25;1533750237.14124;5.12;12.03;0.0;9;117
38;paravance-46.rennes.grid5000.fr;thermos-root-devel-WordCountTopology-2-3a510104-88cf-4f40-a2f2-69fdb0588be3;["container_2_Emit_random_words_2"];3.25;1533750247.36687;35.97;925.63;4.743965711;10;149
38;paravance-48.rennes.grid5000.fr;thermos-root-devel-WordCountTopology-0-bd93cd4c-bd52-4e6d-af7a-56adebee533b;["topology_master"];3.25;1533750247.35687;5.21;12.15;0.0;9;117
38;paravance-51.rennes.grid5000.fr;thermos-root-devel-WordCountTopology-1-65d82c5e-d0b2-4481-a331-a4022214385e;["container_1_Consume_and_count_1"];3.25;1533750247.37058;41.76;700.06;1.633630301;10;149
39;paravance-46.rennes.grid5000.fr;thermos-root-devel-WordCountTopology-2-3a510104-88cf-4f40-a2f2-69fdb0588be3;["container_2_Emit_random_words_2"];3.25;1533750257.58286;36.62;943.88;4.743965711;10;149
39;paravance-51.rennes.grid5000.fr;thermos-root-devel-WordCountTopology-1-65d82c5e-d0b2-4481-a331-a4022214385e;["container_1_Consume_and_count_1"];3.25;1533750257.58474;42.51;713.45;1.633630301;10;149
39;paravance-48.rennes.grid5000.fr;thermos-root-devel-WordCountTopology-0-bd93cd4c-bd52-4e6d-af7a-56adebee533b;["topology_master"];3.25;1533750257.57305;5.24;12.18;0.0;9;117
40;paravance-46.rennes.grid5000.fr;thermos-root-devel-WordCountTopology-2-3a510104-88cf-4f40-a2f2-69fdb0588be3;["container_2_Emit_random_words_2"];3.25;1533750267.82079;37.34;962.19;4.743965711;10;149
40;paravance-51.rennes.grid5000.fr;thermos-root-devel-WordCountTopology-1-65d82c5e-d0b2-4481-a331-a4022214385e;["container_1_Consume_and_count_1"];3.25;1533750267.82449;43.34;727.06;1.633630301;10;149
40;paravance-48.rennes.grid5000.fr;thermos-root-devel-WordCountTopology-0-bd93cd4c-bd52-4e6d-af7a-56adebee533b;["topology_master"];3.25;1533750267.81626;5.33;12.31;0.0;9;117
41;paravance-46.rennes.grid5000.fr;thermos-root-devel-WordCountTopology-2-3a510104-88cf-4f40-a2f2-69fdb0588be3;["container_2_Emit_random_words_2"];3.25;1533750278.0417;38.03;980.48;4.743965711;10;149
41;paravance-51.rennes.grid5000.fr;thermos-root-devel-WordCountTopology-1-65d82c5e-d0b2-4481-a331-a4022214385e;["container_1_Consume_and_count_1"];3.25;1533750278.04444;44.14;740.79;1.633630301;10;149
41;paravance-48.rennes.grid5000.fr;thermos-root-devel-WordCountTopology-0-bd93cd4c-bd52-4e6d-af7a-56adebee533b;["topology_master"];3.25;1533750278.03134;5.39;12.42;0.0;9;117
42;paravance-46.rennes.grid5000.fr;thermos-root-devel-WordCountTopology-2-3a510104-88cf-4f40-a2f2-69fdb0588be3;["container_2_Emit_random_words_2"];3.25;1533750288.25777;38.74;998.82;4.743965711;10;149
42;paravance-51.rennes.grid5000.fr;thermos-root-devel-WordCountTopology-1-65d82c5e-d0b2-4481-a331-a4022214385e;["container_1_Consume_and_count_1"];3.25;1533750288.25993;44.93;754.53;1.633630301;10;149
42;paravance-48.rennes.grid5000.fr;thermos-root-devel-WordCountTopology-0-bd93cd4c-bd52-4e6d-af7a-56adebee533b;["topology_master"];3.25;1533750288.24693;5.45;12.49;0.0;9;117
43;paravance-48.rennes.grid5000.fr;thermos-root-devel-WordCountTopology-0-bd93cd4c-bd52-4e6d-af7a-56adebee533b;["topology_master"];3.25;1533750298.36217;5.51;12.56;0.0;9;117
43;paravance-46.rennes.grid5000.fr;thermos-root-devel-WordCountTopology-2-3a510104-88cf-4f40-a2f2-69fdb0588be3;["container_2_Emit_random_words_2"];3.25;1533750298.47211;39.38;1017.01;4.743965711;10;149
43;paravance-51.rennes.grid5000.fr;thermos-root-devel-WordCountTopology-1-65d82c5e-d0b2-4481-a331-a4022214385e;["container_1_Consume_and_count_1"];3.25;1533750298.47542;45.72;768.27;1.633630301;10;149
44;paravance-46.rennes.grid5000.fr;thermos-root-devel-WordCountTopology-2-3a510104-88cf-4f40-a2f2-69fdb0588be3;["container_2_Emit_random_words_2"];3.25;1533750308.68837;40.08;1035.26;4.743965711;10;149
44;paravance-48.rennes.grid5000.fr;thermos-root-devel-WordCountTopology-0-bd93cd4c-bd52-4e6d-af7a-56adebee533b;["topology_master"];3.25;1533750308.67734;5.6;12.67;0.0;9;117
44;paravance-51.rennes.grid5000.fr;thermos-root-devel-WordCountTopology-1-65d82c5e-d0b2-4481-a331-a4022214385e;["container_1_Consume_and_count_1"];3.25;1533750308.69112;46.53;782.05;1.633630301;10;149
45;paravance-46.rennes.grid5000.fr;thermos-root-devel-WordCountTopology-2-3a510104-88cf-4f40-a2f2-69fdb0588be3;["container_2_Emit_random_words_2"];3.25;1533750318.90388;40.76;1053.45;4.743965711;10;149
45;paravance-51.rennes.grid5000.fr;thermos-root-devel-WordCountTopology-1-65d82c5e-d0b2-4481-a331-a4022214385e;["container_1_Consume_and_count_1"];3.25;1533750318.90676;47.3;795.9;1.633630301;10;149
45;paravance-48.rennes.grid5000.fr;thermos-root-devel-WordCountTopology-0-bd93cd4c-bd52-4e6d-af7a-56adebee533b;["topology_master"];3.25;1533750318.89346;5.65;12.75;0.0;9;117
46;paravance-46.rennes.grid5000.fr;thermos-root-devel-WordCountTopology-2-3a510104-88cf-4f40-a2f2-69fdb0588be3;["container_2_Emit_random_words_2"];3.25;1533750329.12023;41.45;1071.74;4.743965711;10;149
46;paravance-48.rennes.grid5000.fr;thermos-root-devel-WordCountTopology-0-bd93cd4c-bd52-4e6d-af7a-56adebee533b;["topology_master"];3.25;1533750329.10902;5.72;12.83;0.0;9;117
46;paravance-51.rennes.grid5000.fr;thermos-root-devel-WordCountTopology-1-65d82c5e-d0b2-4481-a331-a4022214385e;["container_1_Consume_and_count_1"];3.25;1533750329.1231;48.08;809.59;1.633630301;10;149
47;paravance-46.rennes.grid5000.fr;thermos-root-devel-WordCountTopology-2-3a510104-88cf-4f40-a2f2-69fdb0588be3;["container_2_Emit_random_words_2"];3.25;1533750339.3343;42.14;1089.98;4.743965711;10;149
47;paravance-51.rennes.grid5000.fr;thermos-root-devel-WordCountTopology-1-65d82c5e-d0b2-4481-a331-a4022214385e;["container_1_Consume_and_count_1"];3.25;1533750339.33817;48.85;823.34;1.633630301;10;149
47;paravance-48.rennes.grid5000.fr;thermos-root-devel-WordCountTopology-0-bd93cd4c-bd52-4e6d-af7a-56adebee533b;["topology_master"];3.25;1533750339.32654;5.79;12.97;0.0;9;117
48;paravance-51.rennes.grid5000.fr;thermos-root-devel-WordCountTopology-1-65d82c5e-d0b2-4481-a331-a4022214385e;["container_1_Consume_and_count_1"];3.25;1533750349.56039;49.67;837.05;1.633630301;10;149
48;paravance-46.rennes.grid5000.fr;thermos-root-devel-WordCountTopology-2-3a510104-88cf-4f40-a2f2-69fdb0588be3;["container_2_Emit_random_words_2"];3.25;1533750349.55992;42.85;1108.32;4.743965711;10;149
48;paravance-48.rennes.grid5000.fr;thermos-root-devel-WordCountTopology-0-bd93cd4c-bd52-4e6d-af7a-56adebee533b;["topology_master"];3.25;1533750349.54959;5.87;13.09;0.0;9;117
49;paravance-48.rennes.grid5000.fr;thermos-root-devel-WordCountTopology-0-bd93cd4c-bd52-4e6d-af7a-56adebee533b;["topology_master"];3.25;1533750359.764;5.9;13.12;0.0;9;117
49;paravance-51.rennes.grid5000.fr;thermos-root-devel-WordCountTopology-1-65d82c5e-d0b2-4481-a331-a4022214385e;["container_1_Consume_and_count_1"];3.25;1533750359.7782;50.43;850.71;1.633630301;10;149
49;paravance-46.rennes.grid5000.fr;thermos-root-devel-WordCountTopology-2-3a510104-88cf-4f40-a2f2-69fdb0588be3;["container_2_Emit_random_words_2"];3.25;1533750359.77717;43.5;1126.52;4.743965711;10;149
50;paravance-46.rennes.grid5000.fr;thermos-root-devel-WordCountTopology-2-3a510104-88cf-4f40-a2f2-69fdb0588be3;["container_2_Emit_random_words_2"];3.25;1533750369.99137;44.21;1144.68;4.743965711;10;149
50;paravance-51.rennes.grid5000.fr;thermos-root-devel-WordCountTopology-1-65d82c5e-d0b2-4481-a331-a4022214385e;["container_1_Consume_and_count_1"];3.25;1533750369.99403;51.23;864.14;1.633630301;10;149
50;paravance-48.rennes.grid5000.fr;thermos-root-devel-WordCountTopology-0-bd93cd4c-bd52-4e6d-af7a-56adebee533b;["topology_master"];3.25;1533750369.98143;5.98;13.24;0.0;9;117
51;paravance-46.rennes.grid5000.fr;thermos-root-devel-WordCountTopology-2-3a510104-88cf-4f40-a2f2-69fdb0588be3;["container_2_Emit_random_words_2"];3.25;1533750380.20673;44.89;1162.93;4.743965711;10;149
51;paravance-48.rennes.grid5000.fr;thermos-root-devel-WordCountTopology-0-bd93cd4c-bd52-4e6d-af7a-56adebee533b;["topology_master"];3.25;1533750380.19712;6.04;13.32;0.0;9;117
51;paravance-51.rennes.grid5000.fr;thermos-root-devel-WordCountTopology-1-65d82c5e-d0b2-4481-a331-a4022214385e;["container_1_Consume_and_count_1"];3.25;1533750380.21019;52.01;877.77;1.633630301;10;149
52;paravance-46.rennes.grid5000.fr;thermos-root-devel-WordCountTopology-2-3a510104-88cf-4f40-a2f2-69fdb0588be3;["container_2_Emit_random_words_2"];3.25;1533750390.42215;45.57;1181.15;4.743965711;10;149
52;paravance-51.rennes.grid5000.fr;thermos-root-devel-WordCountTopology-1-65d82c5e-d0b2-4481-a331-a4022214385e;["container_1_Consume_and_count_1"];3.25;1533750390.42456;52.8;891.47;1.633630301;10;149
52;paravance-48.rennes.grid5000.fr;thermos-root-devel-WordCountTopology-0-bd93cd4c-bd52-4e6d-af7a-56adebee533b;["topology_master"];3.25;1533750390.41423;6.11;13.4;0.0;9;117
53;paravance-46.rennes.grid5000.fr;thermos-root-devel-WordCountTopology-2-3a510104-88cf-4f40-a2f2-69fdb0588be3;["container_2_Emit_random_words_2"];3.25;1533750400.6391;46.25;1199.41;4.743965711;10;149
53;paravance-51.rennes.grid5000.fr;thermos-root-devel-WordCountTopology-1-65d82c5e-d0b2-4481-a331-a4022214385e;["container_1_Consume_and_count_1"];3.25;1533750400.64139;53.59;905.2;1.633630301;10;149
53;paravance-48.rennes.grid5000.fr;thermos-root-devel-WordCountTopology-0-bd93cd4c-bd52-4e6d-af7a-56adebee533b;["topology_master"];3.25;1533750400.62958;6.17;13.51;0.0;9;117
54;paravance-46.rennes.grid5000.fr;thermos-root-devel-WordCountTopology-2-3a510104-88cf-4f40-a2f2-69fdb0588be3;["container_2_Emit_random_words_2"];3.25;1533750410.85491;46.96;1217.69;4.743965711;10;149
54;paravance-51.rennes.grid5000.fr;thermos-root-devel-WordCountTopology-1-65d82c5e-d0b2-4481-a331-a4022214385e;["container_1_Consume_and_count_1"];3.25;1533750410.85708;54.4;918.86;1.633630301;10;149
54;paravance-48.rennes.grid5000.fr;thermos-root-devel-WordCountTopology-0-bd93cd4c-bd52-4e6d-af7a-56adebee533b;["topology_master"];3.25;1533750410.84452;6.26;13.64;0.0;9;117
55;paravance-51.rennes.grid5000.fr;thermos-root-devel-WordCountTopology-1-65d82c5e-d0b2-4481-a331-a4022214385e;["container_1_Consume_and_count_1"];3.25;1533750421.07258;55.16;932.4;1.633630301;10;149
55;paravance-46.rennes.grid5000.fr;thermos-root-devel-WordCountTopology-2-3a510104-88cf-4f40-a2f2-69fdb0588be3;["container_2_Emit_random_words_2"];3.25;1533750421.07092;47.6;1235.88;4.743965711;10;149
55;paravance-48.rennes.grid5000.fr;thermos-root-devel-WordCountTopology-0-bd93cd4c-bd52-4e6d-af7a-56adebee533b;["topology_master"];3.25;1533750421.0607;6.28;13.66;0.0;9;117
56;paravance-46.rennes.grid5000.fr;thermos-root-devel-WordCountTopology-2-3a510104-88cf-4f40-a2f2-69fdb0588be3;["container_2_Emit_random_words_2"];3.25;1533750431.28624;48.31;1254.12;4.743965711;10;149
56;paravance-51.rennes.grid5000.fr;thermos-root-devel-WordCountTopology-1-65d82c5e-d0b2-4481-a331-a4022214385e;["container_1_Consume_and_count_1"];3.25;1533750431.28904;55.98;946.04;1.633630301;10;149
56;paravance-48.rennes.grid5000.fr;thermos-root-devel-WordCountTopology-0-bd93cd4c-bd52-4e6d-af7a-56adebee533b;["topology_master"];3.25;1533750431.27778;6.37;13.78;0.0;9;117
57;paravance-51.rennes.grid5000.fr;thermos-root-devel-WordCountTopology-1-65d82c5e-d0b2-4481-a331-a4022214385e;["container_1_Consume_and_count_1"];3.25;1533750441.50479;56.76;959.61;1.633630301;10;149
57;paravance-46.rennes.grid5000.fr;thermos-root-devel-WordCountTopology-2-3a510104-88cf-4f40-a2f2-69fdb0588be3;["container_2_Emit_random_words_2"];3.25;1533750441.50314;49.01;1272.41;4.743965711;10;149
57;paravance-48.rennes.grid5000.fr;thermos-root-devel-WordCountTopology-0-bd93cd4c-bd52-4e6d-af7a-56adebee533b;["topology_master"];3.25;1533750441.49331;6.43;13.86;0.0;9;117
58;paravance-46.rennes.grid5000.fr;thermos-root-devel-WordCountTopology-2-3a510104-88cf-4f40-a2f2-69fdb0588be3;["container_2_Emit_random_words_2"];3.25;1533750451.71905;49.69;1290.56;4.743965711;10;149
58;paravance-51.rennes.grid5000.fr;thermos-root-devel-WordCountTopology-1-65d82c5e-d0b2-4481-a331-a4022214385e;["container_1_Consume_and_count_1"];3.25;1533750451.72087;57.55;973.14;1.633630301;10;149
58;paravance-48.rennes.grid5000.fr;thermos-root-devel-WordCountTopology-0-bd93cd4c-bd52-4e6d-af7a-56adebee533b;["topology_master"];3.25;1533750451.70929;6.51;13.99;0.0;9;117
59;paravance-51.rennes.grid5000.fr;thermos-root-devel-WordCountTopology-1-65d82c5e-d0b2-4481-a331-a4022214385e;["container_1_Consume_and_count_1"];3.25;1533750461.93583;58.34;986.74;1.633630301;10;149
59;paravance-46.rennes.grid5000.fr;thermos-root-devel-WordCountTopology-2-3a510104-88cf-4f40-a2f2-69fdb0588be3;["container_2_Emit_random_words_2"];3.25;1533750461.93468;50.37;1308.9;4.743965711;10;149
59;paravance-48.rennes.grid5000.fr;thermos-root-devel-WordCountTopology-0-bd93cd4c-bd52-4e6d-af7a-56adebee533b;["topology_master"];3.25;1533750461.92523;6.57;14.07;0.0;9;117
60;paravance-51.rennes.grid5000.fr;thermos-root-devel-WordCountTopology-1-65d82c5e-d0b2-4481-a331-a4022214385e;["container_1_Consume_and_count_1"];3.25;1533750472.15135;59.16;1000.27;1.633630301;10;149
60;paravance-46.rennes.grid5000.fr;thermos-root-devel-WordCountTopology-2-3a510104-88cf-4f40-a2f2-69fdb0588be3;["container_2_Emit_random_words_2"];3.25;1533750472.15176;51.04;1327.03;4.743965711;10;149
60;paravance-48.rennes.grid5000.fr;thermos-root-devel-WordCountTopology-0-bd93cd4c-bd52-4e6d-af7a-56adebee533b;["topology_master"];3.25;1533750472.14107;6.65;14.19;0.0;9;117
