mesure_id;slave_id;executor_id;heron_instances;cpus_limit;timestamp_A;cpus_system_time_secs_A;cpus_user_time_secs_A;cpus_throttled_time_secs_A;processes;threads
0;paravance-57.rennes.grid5000.fr;thermos-root-devel-WordCountTopology-1-a9b8fc92-a42f-45a7-b547-9ccf1c63c9fd;["container_1_Consume_and_count_1"];2.25;1533381169.63024;39.58;213.16;127.950058199;10;149
0;paravance-31.rennes.grid5000.fr;thermos-root-devel-WordCountTopology-2-3f8bcc80-6fae-4dbf-bee4-76c5e5a3aad4;["container_2_Emit_random_words_2"];2.25;1533381169.92535;30.62;126.35;20.727896952;10;149
0;paravance-16.rennes.grid5000.fr;thermos-root-devel-WordCountTopology-0-052adf65-ea02-42bb-9041-ddf8d7b4172e;["topology_master"];2.25;1533381170.10685;2.44;7.94;0.02563936;9;117
1;paravance-16.rennes.grid5000.fr;thermos-root-devel-WordCountTopology-0-052adf65-ea02-42bb-9041-ddf8d7b4172e;["topology_master"];2.25;1533381180.31878;2.5;8.11;0.02563936;9;117
1;paravance-31.rennes.grid5000.fr;thermos-root-devel-WordCountTopology-2-3f8bcc80-6fae-4dbf-bee4-76c5e5a3aad4;["container_2_Emit_random_words_2"];2.25;1533381180.14;33.09;136.13;21.113312029;10;149
1;paravance-57.rennes.grid5000.fr;thermos-root-devel-WordCountTopology-1-a9b8fc92-a42f-45a7-b547-9ccf1c63c9fd;["container_1_Consume_and_count_1"];2.25;1533381179.85359;42.92;231.9;139.094062211;10;149
2;paravance-31.rennes.grid5000.fr;thermos-root-devel-WordCountTopology-2-3f8bcc80-6fae-4dbf-bee4-76c5e5a3aad4;["container_2_Emit_random_words_2"];2.25;1533381190.3522;35.5;145.79;21.389296145;10;149
2;paravance-16.rennes.grid5000.fr;thermos-root-devel-WordCountTopology-0-052adf65-ea02-42bb-9041-ddf8d7b4172e;["topology_master"];2.25;1533381190.53147;2.59;8.25;0.02563936;9;117
2;paravance-57.rennes.grid5000.fr;thermos-root-devel-WordCountTopology-1-a9b8fc92-a42f-45a7-b547-9ccf1c63c9fd;["container_1_Consume_and_count_1"];2.25;1533381190.07809;46.19;250.48;151.169310695;10;149
3;paravance-57.rennes.grid5000.fr;thermos-root-devel-WordCountTopology-1-a9b8fc92-a42f-45a7-b547-9ccf1c63c9fd;["container_1_Consume_and_count_1"];2.25;1533381200.29692;49.42;269.24;162.40771212;10;149
3;paravance-31.rennes.grid5000.fr;thermos-root-devel-WordCountTopology-2-3f8bcc80-6fae-4dbf-bee4-76c5e5a3aad4;["container_2_Emit_random_words_2"];2.25;1533381200.56385;38.02;155.46;21.665963729;10;149
3;paravance-16.rennes.grid5000.fr;thermos-root-devel-WordCountTopology-0-052adf65-ea02-42bb-9041-ddf8d7b4172e;["topology_master"];2.25;1533381200.74398;2.62;8.28;0.02563936;9;117
4;paravance-57.rennes.grid5000.fr;thermos-root-devel-WordCountTopology-1-a9b8fc92-a42f-45a7-b547-9ccf1c63c9fd;["container_1_Consume_and_count_1"];2.25;1533381210.5174;52.57;288.11;174.741588515;10;149
4;paravance-31.rennes.grid5000.fr;thermos-root-devel-WordCountTopology-2-3f8bcc80-6fae-4dbf-bee4-76c5e5a3aad4;["container_2_Emit_random_words_2"];2.25;1533381210.77408;40.64;165.95;21.856141432;10;149
4;paravance-16.rennes.grid5000.fr;thermos-root-devel-WordCountTopology-0-052adf65-ea02-42bb-9041-ddf8d7b4172e;["topology_master"];2.25;1533381210.95272;2.7;8.4;0.02563936;9;117
5;paravance-57.rennes.grid5000.fr;thermos-root-devel-WordCountTopology-1-a9b8fc92-a42f-45a7-b547-9ccf1c63c9fd;["container_1_Consume_and_count_1"];2.25;1533381220.73822;55.44;307.12;185.72740444;10;149
5;paravance-16.rennes.grid5000.fr;thermos-root-devel-WordCountTopology-0-052adf65-ea02-42bb-9041-ddf8d7b4172e;["topology_master"];2.25;1533381221.16283;2.76;8.48;0.02563936;9;117
5;paravance-31.rennes.grid5000.fr;thermos-root-devel-WordCountTopology-2-3f8bcc80-6fae-4dbf-bee4-76c5e5a3aad4;["container_2_Emit_random_words_2"];2.25;1533381220.98499;42.75;174.26;22.024289203;10;149
6;paravance-31.rennes.grid5000.fr;thermos-root-devel-WordCountTopology-2-3f8bcc80-6fae-4dbf-bee4-76c5e5a3aad4;["container_2_Emit_random_words_2"];2.25;1533381231.19468;44.95;182.77;22.246699342;10;149
6;paravance-57.rennes.grid5000.fr;thermos-root-devel-WordCountTopology-1-a9b8fc92-a42f-45a7-b547-9ccf1c63c9fd;["container_1_Consume_and_count_1"];2.25;1533381230.95976;58.54;325.59;196.466972693;10;149
6;paravance-16.rennes.grid5000.fr;thermos-root-devel-WordCountTopology-0-052adf65-ea02-42bb-9041-ddf8d7b4172e;["topology_master"];2.25;1533381231.37358;2.85;8.58;0.02563936;9;117
7;paravance-57.rennes.grid5000.fr;thermos-root-devel-WordCountTopology-1-a9b8fc92-a42f-45a7-b547-9ccf1c63c9fd;["container_1_Consume_and_count_1"];2.25;1533381241.18059;61.74;344.47;207.638671245;10;149
7;paravance-31.rennes.grid5000.fr;thermos-root-devel-WordCountTopology-2-3f8bcc80-6fae-4dbf-bee4-76c5e5a3aad4;["container_2_Emit_random_words_2"];2.25;1533381241.40559;47.39;192.47;22.809629;10;149
7;paravance-16.rennes.grid5000.fr;thermos-root-devel-WordCountTopology-0-052adf65-ea02-42bb-9041-ddf8d7b4172e;["topology_master"];2.25;1533381241.58595;2.92;8.77;0.02563936;9;117
8;paravance-57.rennes.grid5000.fr;thermos-root-devel-WordCountTopology-1-a9b8fc92-a42f-45a7-b547-9ccf1c63c9fd;["container_1_Consume_and_count_1"];2.25;1533381251.40094;65.02;362.93;218.390863009;10;149
8;paravance-31.rennes.grid5000.fr;thermos-root-devel-WordCountTopology-2-3f8bcc80-6fae-4dbf-bee4-76c5e5a3aad4;["container_2_Emit_random_words_2"];2.25;1533381251.6167;49.78;202.11;22.867182569;10;149
8;paravance-16.rennes.grid5000.fr;thermos-root-devel-WordCountTopology-0-052adf65-ea02-42bb-9041-ddf8d7b4172e;["topology_master"];2.25;1533381251.79518;3.01;8.9;0.02563936;9;117
9;paravance-57.rennes.grid5000.fr;thermos-root-devel-WordCountTopology-1-a9b8fc92-a42f-45a7-b547-9ccf1c63c9fd;["container_1_Consume_and_count_1"];2.25;1533381261.62329;68.13;381.98;229.861645229;10;149
9;paravance-16.rennes.grid5000.fr;thermos-root-devel-WordCountTopology-0-052adf65-ea02-42bb-9041-ddf8d7b4172e;["topology_master"];2.25;1533381262.00688;3.03;8.93;0.02563936;9;117
9;paravance-31.rennes.grid5000.fr;thermos-root-devel-WordCountTopology-2-3f8bcc80-6fae-4dbf-bee4-76c5e5a3aad4;["container_2_Emit_random_words_2"];2.25;1533381261.82936;52.14;211.29;22.979651658;10;149
10;paravance-57.rennes.grid5000.fr;thermos-root-devel-WordCountTopology-1-a9b8fc92-a42f-45a7-b547-9ccf1c63c9fd;["container_1_Consume_and_count_1"];2.25;1533381271.84345;71.4;400.88;241.634082396;10;149
10;paravance-16.rennes.grid5000.fr;thermos-root-devel-WordCountTopology-0-052adf65-ea02-42bb-9041-ddf8d7b4172e;["topology_master"];2.25;1533381272.21673;3.12;9.05;0.02563936;9;117
10;paravance-31.rennes.grid5000.fr;thermos-root-devel-WordCountTopology-2-3f8bcc80-6fae-4dbf-bee4-76c5e5a3aad4;["container_2_Emit_random_words_2"];2.25;1533381272.03917;54.58;220.7;23.075876027;10;149
11;paravance-57.rennes.grid5000.fr;thermos-root-devel-WordCountTopology-1-a9b8fc92-a42f-45a7-b547-9ccf1c63c9fd;["container_1_Consume_and_count_1"];2.25;1533381282.06314;74.62;419.83;253.34134861;10;149
11;paravance-31.rennes.grid5000.fr;thermos-root-devel-WordCountTopology-2-3f8bcc80-6fae-4dbf-bee4-76c5e5a3aad4;["container_2_Emit_random_words_2"];2.25;1533381282.24776;57.03;230.34;23.304808364;10;149
11;paravance-16.rennes.grid5000.fr;thermos-root-devel-WordCountTopology-0-052adf65-ea02-42bb-9041-ddf8d7b4172e;["topology_master"];2.25;1533381282.42677;3.17;9.13;0.02563936;9;117
12;paravance-16.rennes.grid5000.fr;thermos-root-devel-WordCountTopology-0-052adf65-ea02-42bb-9041-ddf8d7b4172e;["topology_master"];2.25;1533381292.63603;3.25;9.22;0.02563936;9;117
12;paravance-57.rennes.grid5000.fr;thermos-root-devel-WordCountTopology-1-a9b8fc92-a42f-45a7-b547-9ccf1c63c9fd;["container_1_Consume_and_count_1"];2.25;1533381292.28379;77.8;438.62;265.744206575;10;149
12;paravance-31.rennes.grid5000.fr;thermos-root-devel-WordCountTopology-2-3f8bcc80-6fae-4dbf-bee4-76c5e5a3aad4;["container_2_Emit_random_words_2"];2.25;1533381292.4584;59.33;239.15;23.70403749;10;149
13;paravance-57.rennes.grid5000.fr;thermos-root-devel-WordCountTopology-1-a9b8fc92-a42f-45a7-b547-9ccf1c63c9fd;["container_1_Consume_and_count_1"];2.25;1533381302.50546;80.8;457.67;277.751469462;10;149
13;paravance-31.rennes.grid5000.fr;thermos-root-devel-WordCountTopology-2-3f8bcc80-6fae-4dbf-bee4-76c5e5a3aad4;["container_2_Emit_random_words_2"];2.25;1533381302.66821;61.52;247.92;23.873268102;10;149
13;paravance-16.rennes.grid5000.fr;thermos-root-devel-WordCountTopology-0-052adf65-ea02-42bb-9041-ddf8d7b4172e;["topology_master"];2.25;1533381302.8468;3.32;9.44;0.02563936;9;117
14;paravance-57.rennes.grid5000.fr;thermos-root-devel-WordCountTopology-1-a9b8fc92-a42f-45a7-b547-9ccf1c63c9fd;["container_1_Consume_and_count_1"];2.25;1533381312.72642;84.0;476.63;289.48651729;10;149
14;paravance-16.rennes.grid5000.fr;thermos-root-devel-WordCountTopology-0-052adf65-ea02-42bb-9041-ddf8d7b4172e;["topology_master"];2.25;1533381313.05979;3.41;9.56;0.02563936;9;117
14;paravance-31.rennes.grid5000.fr;thermos-root-devel-WordCountTopology-2-3f8bcc80-6fae-4dbf-bee4-76c5e5a3aad4;["container_2_Emit_random_words_2"];2.25;1533381312.88121;63.89;256.91;24.205891749;10;149
15;paravance-57.rennes.grid5000.fr;thermos-root-devel-WordCountTopology-1-a9b8fc92-a42f-45a7-b547-9ccf1c63c9fd;["container_1_Consume_and_count_1"];2.25;1533381322.94537;87.04;495.65;300.384663609;10;149
15;paravance-31.rennes.grid5000.fr;thermos-root-devel-WordCountTopology-2-3f8bcc80-6fae-4dbf-bee4-76c5e5a3aad4;["container_2_Emit_random_words_2"];2.25;1533381323.08992;66.35;266.44;24.456173949;10;149
15;paravance-16.rennes.grid5000.fr;thermos-root-devel-WordCountTopology-0-052adf65-ea02-42bb-9041-ddf8d7b4172e;["topology_master"];2.25;1533381323.26941;3.43;9.59;0.02563936;9;117
16;paravance-57.rennes.grid5000.fr;thermos-root-devel-WordCountTopology-1-a9b8fc92-a42f-45a7-b547-9ccf1c63c9fd;["container_1_Consume_and_count_1"];2.25;1533381333.16576;90.15;514.74;312.533071243;10;149
16;paravance-31.rennes.grid5000.fr;thermos-root-devel-WordCountTopology-2-3f8bcc80-6fae-4dbf-bee4-76c5e5a3aad4;["container_2_Emit_random_words_2"];2.25;1533381333.29922;68.55;274.97;24.598347637;10;149
16;paravance-16.rennes.grid5000.fr;thermos-root-devel-WordCountTopology-0-052adf65-ea02-42bb-9041-ddf8d7b4172e;["topology_master"];2.25;1533381333.47929;3.52;9.72;0.02563936;9;117
17;paravance-57.rennes.grid5000.fr;thermos-root-devel-WordCountTopology-1-a9b8fc92-a42f-45a7-b547-9ccf1c63c9fd;["container_1_Consume_and_count_1"];2.25;1533381343.38528;93.47;533.61;323.465772494;10;149
17;paravance-16.rennes.grid5000.fr;thermos-root-devel-WordCountTopology-0-052adf65-ea02-42bb-9041-ddf8d7b4172e;["topology_master"];2.25;1533381343.68794;3.58;9.79;0.02563936;9;117
17;paravance-31.rennes.grid5000.fr;thermos-root-devel-WordCountTopology-2-3f8bcc80-6fae-4dbf-bee4-76c5e5a3aad4;["container_2_Emit_random_words_2"];2.25;1533381343.50973;70.97;284.54;24.672372211;10;149
18;paravance-57.rennes.grid5000.fr;thermos-root-devel-WordCountTopology-1-a9b8fc92-a42f-45a7-b547-9ccf1c63c9fd;["container_1_Consume_and_count_1"];2.25;1533381353.60442;96.86;552.28;335.530712428;10;149
18;paravance-16.rennes.grid5000.fr;thermos-root-devel-WordCountTopology-0-052adf65-ea02-42bb-9041-ddf8d7b4172e;["topology_master"];2.25;1533381353.89713;3.66;9.93;0.02563936;9;117
18;paravance-31.rennes.grid5000.fr;thermos-root-devel-WordCountTopology-2-3f8bcc80-6fae-4dbf-bee4-76c5e5a3aad4;["container_2_Emit_random_words_2"];2.25;1533381353.71952;73.55;294.57;25.222291319;10;149
19;paravance-57.rennes.grid5000.fr;thermos-root-devel-WordCountTopology-1-a9b8fc92-a42f-45a7-b547-9ccf1c63c9fd;["container_1_Consume_and_count_1"];2.25;1533381363.82494;100.14;571.08;346.801178013;10;149
19;paravance-31.rennes.grid5000.fr;thermos-root-devel-WordCountTopology-2-3f8bcc80-6fae-4dbf-bee4-76c5e5a3aad4;["container_2_Emit_random_words_2"];2.25;1533381363.92831;76.01;304.17;25.443355282;10;149
19;paravance-16.rennes.grid5000.fr;thermos-root-devel-WordCountTopology-0-052adf65-ea02-42bb-9041-ddf8d7b4172e;["topology_master"];2.25;1533381364.10772;3.72;10.01;0.02563936;9;117
20;paravance-57.rennes.grid5000.fr;thermos-root-devel-WordCountTopology-1-a9b8fc92-a42f-45a7-b547-9ccf1c63c9fd;["container_1_Consume_and_count_1"];2.25;1533381374.04493;103.59;589.86;358.787395667;10;149
20;paravance-16.rennes.grid5000.fr;thermos-root-devel-WordCountTopology-0-052adf65-ea02-42bb-9041-ddf8d7b4172e;["topology_master"];2.25;1533381374.31746;3.81;10.13;0.02563936;9;117
20;paravance-31.rennes.grid5000.fr;thermos-root-devel-WordCountTopology-2-3f8bcc80-6fae-4dbf-bee4-76c5e5a3aad4;["container_2_Emit_random_words_2"];2.25;1533381374.13937;78.61;314.21;25.695848795;10;149
21;paravance-57.rennes.grid5000.fr;thermos-root-devel-WordCountTopology-1-a9b8fc92-a42f-45a7-b547-9ccf1c63c9fd;["container_1_Consume_and_count_1"];2.25;1533381384.26617;106.71;608.63;369.638598727;10;149
21;paravance-16.rennes.grid5000.fr;thermos-root-devel-WordCountTopology-0-052adf65-ea02-42bb-9041-ddf8d7b4172e;["topology_master"];2.25;1533381384.52806;3.86;10.2;0.02563936;9;117
21;paravance-31.rennes.grid5000.fr;thermos-root-devel-WordCountTopology-2-3f8bcc80-6fae-4dbf-bee4-76c5e5a3aad4;["container_2_Emit_random_words_2"];2.25;1533381384.34856;80.94;323.04;26.011386927;10;149
22;paravance-57.rennes.grid5000.fr;thermos-root-devel-WordCountTopology-1-a9b8fc92-a42f-45a7-b547-9ccf1c63c9fd;["container_1_Consume_and_count_1"];2.25;1533381394.48959;109.94;627.53;380.270417988;10;149
22;paravance-31.rennes.grid5000.fr;thermos-root-devel-WordCountTopology-2-3f8bcc80-6fae-4dbf-bee4-76c5e5a3aad4;["container_2_Emit_random_words_2"];2.25;1533381394.55977;83.4;332.86;26.163571168;10;149
22;paravance-16.rennes.grid5000.fr;thermos-root-devel-WordCountTopology-0-052adf65-ea02-42bb-9041-ddf8d7b4172e;["topology_master"];2.25;1533381394.74152;3.92;10.27;0.02563936;9;117
23;paravance-57.rennes.grid5000.fr;thermos-root-devel-WordCountTopology-1-a9b8fc92-a42f-45a7-b547-9ccf1c63c9fd;["container_1_Consume_and_count_1"];2.25;1533381404.71045;113.28;645.86;388.918623429;10;149
23;paravance-16.rennes.grid5000.fr;thermos-root-devel-WordCountTopology-0-052adf65-ea02-42bb-9041-ddf8d7b4172e;["topology_master"];2.25;1533381404.95069;3.98;10.35;0.02563936;9;117
23;paravance-31.rennes.grid5000.fr;thermos-root-devel-WordCountTopology-2-3f8bcc80-6fae-4dbf-bee4-76c5e5a3aad4;["container_2_Emit_random_words_2"];2.25;1533381404.77294;85.71;341.82;26.514226632;10;149
24;paravance-57.rennes.grid5000.fr;thermos-root-devel-WordCountTopology-1-a9b8fc92-a42f-45a7-b547-9ccf1c63c9fd;["container_1_Consume_and_count_1"];2.25;1533381414.93154;116.57;664.31;400.119088852;10;149
24;paravance-16.rennes.grid5000.fr;thermos-root-devel-WordCountTopology-0-052adf65-ea02-42bb-9041-ddf8d7b4172e;["topology_master"];2.25;1533381415.16215;4.09;10.55;0.02563936;9;117
24;paravance-31.rennes.grid5000.fr;thermos-root-devel-WordCountTopology-2-3f8bcc80-6fae-4dbf-bee4-76c5e5a3aad4;["container_2_Emit_random_words_2"];2.25;1533381414.9842;88.35;352.28;26.700257072;10;149
25;paravance-57.rennes.grid5000.fr;thermos-root-devel-WordCountTopology-1-a9b8fc92-a42f-45a7-b547-9ccf1c63c9fd;["container_1_Consume_and_count_1"];2.25;1533381425.14928;119.64;682.97;411.321943512;10;149
25;paravance-16.rennes.grid5000.fr;thermos-root-devel-WordCountTopology-0-052adf65-ea02-42bb-9041-ddf8d7b4172e;["topology_master"];2.25;1533381425.37168;4.12;10.57;0.02563936;9;117
25;paravance-31.rennes.grid5000.fr;thermos-root-devel-WordCountTopology-2-3f8bcc80-6fae-4dbf-bee4-76c5e5a3aad4;["container_2_Emit_random_words_2"];2.25;1533381425.19204;90.62;361.15;26.881697264;10;149
26;paravance-57.rennes.grid5000.fr;thermos-root-devel-WordCountTopology-1-a9b8fc92-a42f-45a7-b547-9ccf1c63c9fd;["container_1_Consume_and_count_1"];2.25;1533381435.36914;122.93;701.79;420.88146716;10;149
26;paravance-16.rennes.grid5000.fr;thermos-root-devel-WordCountTopology-0-052adf65-ea02-42bb-9041-ddf8d7b4172e;["topology_master"];2.25;1533381435.57939;4.2;10.69;0.02563936;9;117
26;paravance-31.rennes.grid5000.fr;thermos-root-devel-WordCountTopology-2-3f8bcc80-6fae-4dbf-bee4-76c5e5a3aad4;["container_2_Emit_random_words_2"];2.25;1533381435.40236;92.97;370.3;27.092743424;10;149
27;paravance-16.rennes.grid5000.fr;thermos-root-devel-WordCountTopology-0-052adf65-ea02-42bb-9041-ddf8d7b4172e;["topology_master"];2.25;1533381445.68983;4.25;10.76;0.02563936;9;117
27;paravance-31.rennes.grid5000.fr;thermos-root-devel-WordCountTopology-2-3f8bcc80-6fae-4dbf-bee4-76c5e5a3aad4;["container_2_Emit_random_words_2"];2.25;1533381445.60983;95.73;381.16;27.262209233;10;149
27;paravance-57.rennes.grid5000.fr;thermos-root-devel-WordCountTopology-1-a9b8fc92-a42f-45a7-b547-9ccf1c63c9fd;["container_1_Consume_and_count_1"];2.25;1533381445.58943;126.43;720.41;432.660110293;10;149
28;paravance-16.rennes.grid5000.fr;thermos-root-devel-WordCountTopology-0-052adf65-ea02-42bb-9041-ddf8d7b4172e;["topology_master"];2.25;1533381455.99916;4.32;10.86;0.02563936;9;117
28;paravance-57.rennes.grid5000.fr;thermos-root-devel-WordCountTopology-1-a9b8fc92-a42f-45a7-b547-9ccf1c63c9fd;["container_1_Consume_and_count_1"];2.25;1533381455.80999;129.6;739.11;441.84855341;10;149
28;paravance-31.rennes.grid5000.fr;thermos-root-devel-WordCountTopology-2-3f8bcc80-6fae-4dbf-bee4-76c5e5a3aad4;["container_2_Emit_random_words_2"];2.25;1533381455.82585;98.22;391.35;27.411353352;10;149
29;paravance-16.rennes.grid5000.fr;thermos-root-devel-WordCountTopology-0-052adf65-ea02-42bb-9041-ddf8d7b4172e;["topology_master"];2.25;1533381466.21089;4.38;10.93;0.02563936;9;117
29;paravance-57.rennes.grid5000.fr;thermos-root-devel-WordCountTopology-1-a9b8fc92-a42f-45a7-b547-9ccf1c63c9fd;["container_1_Consume_and_count_1"];2.25;1533381466.03132;132.94;757.71;454.063747516;10;149
29;paravance-31.rennes.grid5000.fr;thermos-root-devel-WordCountTopology-2-3f8bcc80-6fae-4dbf-bee4-76c5e5a3aad4;["container_2_Emit_random_words_2"];2.25;1533381466.04255;100.84;401.37;27.699445542;10;149
30;paravance-57.rennes.grid5000.fr;thermos-root-devel-WordCountTopology-1-a9b8fc92-a42f-45a7-b547-9ccf1c63c9fd;["container_1_Consume_and_count_1"];2.25;1533381476.25245;136.2;776.26;464.13228541;10;149
30;paravance-31.rennes.grid5000.fr;thermos-root-devel-WordCountTopology-2-3f8bcc80-6fae-4dbf-bee4-76c5e5a3aad4;["container_2_Emit_random_words_2"];2.25;1533381476.25911;103.31;411.05;27.981292446;10;149
30;paravance-16.rennes.grid5000.fr;thermos-root-devel-WordCountTopology-0-052adf65-ea02-42bb-9041-ddf8d7b4172e;["topology_master"];2.25;1533381476.42305;4.49;11.11;0.02563936;9;117
31;paravance-57.rennes.grid5000.fr;thermos-root-devel-WordCountTopology-1-a9b8fc92-a42f-45a7-b547-9ccf1c63c9fd;["container_1_Consume_and_count_1"];2.25;1533381486.47342;139.44;794.84;475.020846361;10;149
31;paravance-31.rennes.grid5000.fr;thermos-root-devel-WordCountTopology-2-3f8bcc80-6fae-4dbf-bee4-76c5e5a3aad4;["container_2_Emit_random_words_2"];2.25;1533381486.47408;105.79;420.76;28.129944893;10;149
31;paravance-16.rennes.grid5000.fr;thermos-root-devel-WordCountTopology-0-052adf65-ea02-42bb-9041-ddf8d7b4172e;["topology_master"];2.25;1533381486.63381;4.55;11.19;0.02563936;9;117
32;paravance-57.rennes.grid5000.fr;thermos-root-devel-WordCountTopology-1-a9b8fc92-a42f-45a7-b547-9ccf1c63c9fd;["container_1_Consume_and_count_1"];2.25;1533381496.69283;142.71;813.66;486.317279875;10;149
32;paravance-16.rennes.grid5000.fr;thermos-root-devel-WordCountTopology-0-052adf65-ea02-42bb-9041-ddf8d7b4172e;["topology_master"];2.25;1533381496.84309;4.61;11.26;0.02563936;9;117
32;paravance-31.rennes.grid5000.fr;thermos-root-devel-WordCountTopology-2-3f8bcc80-6fae-4dbf-bee4-76c5e5a3aad4;["container_2_Emit_random_words_2"];2.25;1533381496.68998;108.23;430.05;28.353470556;10;149
33;paravance-16.rennes.grid5000.fr;thermos-root-devel-WordCountTopology-0-052adf65-ea02-42bb-9041-ddf8d7b4172e;["topology_master"];2.25;1533381507.05371;4.69;11.38;0.02563936;9;117
33;paravance-57.rennes.grid5000.fr;thermos-root-devel-WordCountTopology-1-a9b8fc92-a42f-45a7-b547-9ccf1c63c9fd;["container_1_Consume_and_count_1"];2.25;1533381506.91476;146.09;832.34;498.339239675;10;149
33;paravance-31.rennes.grid5000.fr;thermos-root-devel-WordCountTopology-2-3f8bcc80-6fae-4dbf-bee4-76c5e5a3aad4;["container_2_Emit_random_words_2"];2.25;1533381506.90531;110.84;440.41;28.518278758;10;149
34;paravance-57.rennes.grid5000.fr;thermos-root-devel-WordCountTopology-1-a9b8fc92-a42f-45a7-b547-9ccf1c63c9fd;["container_1_Consume_and_count_1"];2.25;1533381517.13625;149.29;851.04;508.722624767;10;149
34;paravance-16.rennes.grid5000.fr;thermos-root-devel-WordCountTopology-0-052adf65-ea02-42bb-9041-ddf8d7b4172e;["topology_master"];2.25;1533381517.26476;4.72;11.41;0.02563936;9;117
34;paravance-31.rennes.grid5000.fr;thermos-root-devel-WordCountTopology-2-3f8bcc80-6fae-4dbf-bee4-76c5e5a3aad4;["container_2_Emit_random_words_2"];2.25;1533381517.12172;113.22;449.64;28.630143937;10;149
35;paravance-57.rennes.grid5000.fr;thermos-root-devel-WordCountTopology-1-a9b8fc92-a42f-45a7-b547-9ccf1c63c9fd;["container_1_Consume_and_count_1"];2.25;1533381527.35756;152.58;869.88;520.512591975;10;149
35;paravance-31.rennes.grid5000.fr;thermos-root-devel-WordCountTopology-2-3f8bcc80-6fae-4dbf-bee4-76c5e5a3aad4;["container_2_Emit_random_words_2"];2.25;1533381527.33832;115.67;458.8;28.755845943;10;149
35;paravance-16.rennes.grid5000.fr;thermos-root-devel-WordCountTopology-0-052adf65-ea02-42bb-9041-ddf8d7b4172e;["topology_master"];2.25;1533381527.47588;4.81;11.54;0.02563936;9;117
36;paravance-57.rennes.grid5000.fr;thermos-root-devel-WordCountTopology-1-a9b8fc92-a42f-45a7-b547-9ccf1c63c9fd;["container_1_Consume_and_count_1"];2.25;1533381537.5791;156.17;888.29;532.796464918;10;149
36;paravance-16.rennes.grid5000.fr;thermos-root-devel-WordCountTopology-0-052adf65-ea02-42bb-9041-ddf8d7b4172e;["topology_master"];2.25;1533381537.68818;4.88;11.71;0.02563936;9;117
36;paravance-31.rennes.grid5000.fr;thermos-root-devel-WordCountTopology-2-3f8bcc80-6fae-4dbf-bee4-76c5e5a3aad4;["container_2_Emit_random_words_2"];2.25;1533381537.5549;118.74;470.84;28.990120145;10;149
37;paravance-31.rennes.grid5000.fr;thermos-root-devel-WordCountTopology-2-3f8bcc80-6fae-4dbf-bee4-76c5e5a3aad4;["container_2_Emit_random_words_2"];2.25;1533381547.77004;121.43;481.3;29.345765672;10;149
37;paravance-16.rennes.grid5000.fr;thermos-root-devel-WordCountTopology-0-052adf65-ea02-42bb-9041-ddf8d7b4172e;["topology_master"];2.25;1533381547.89808;4.93;11.78;0.02563936;9;117
37;paravance-57.rennes.grid5000.fr;thermos-root-devel-WordCountTopology-1-a9b8fc92-a42f-45a7-b547-9ccf1c63c9fd;["container_1_Consume_and_count_1"];2.25;1533381547.80013;159.49;906.55;543.986708389;10;149
38;paravance-31.rennes.grid5000.fr;thermos-root-devel-WordCountTopology-2-3f8bcc80-6fae-4dbf-bee4-76c5e5a3aad4;["container_2_Emit_random_words_2"];2.25;1533381557.98614;123.93;491.33;29.496712042;10;149
38;paravance-57.rennes.grid5000.fr;thermos-root-devel-WordCountTopology-1-a9b8fc92-a42f-45a7-b547-9ccf1c63c9fd;["container_1_Consume_and_count_1"];2.25;1533381558.02123;162.8;925.55;554.782982681;10;149
38;paravance-16.rennes.grid5000.fr;thermos-root-devel-WordCountTopology-0-052adf65-ea02-42bb-9041-ddf8d7b4172e;["topology_master"];2.25;1533381558.10933;4.98;11.85;0.02563936;9;117
39;paravance-31.rennes.grid5000.fr;thermos-root-devel-WordCountTopology-2-3f8bcc80-6fae-4dbf-bee4-76c5e5a3aad4;["container_2_Emit_random_words_2"];2.25;1533381568.19912;126.44;501.0;29.675938931;10;149
39;paravance-16.rennes.grid5000.fr;thermos-root-devel-WordCountTopology-0-052adf65-ea02-42bb-9041-ddf8d7b4172e;["topology_master"];2.25;1533381568.31952;5.07;11.97;0.02563936;9;117
39;paravance-57.rennes.grid5000.fr;thermos-root-devel-WordCountTopology-1-a9b8fc92-a42f-45a7-b547-9ccf1c63c9fd;["container_1_Consume_and_count_1"];2.25;1533381568.24111;166.11;944.59;566.117676928;10;149
40;paravance-57.rennes.grid5000.fr;thermos-root-devel-WordCountTopology-1-a9b8fc92-a42f-45a7-b547-9ccf1c63c9fd;["container_1_Consume_and_count_1"];2.25;1533381578.46031;169.17;963.24;577.13417421;10;149
40;paravance-16.rennes.grid5000.fr;thermos-root-devel-WordCountTopology-0-052adf65-ea02-42bb-9041-ddf8d7b4172e;["topology_master"];2.25;1533381578.52789;5.09;11.99;0.02563936;9;117
40;paravance-31.rennes.grid5000.fr;thermos-root-devel-WordCountTopology-2-3f8bcc80-6fae-4dbf-bee4-76c5e5a3aad4;["container_2_Emit_random_words_2"];2.25;1533381578.43045;128.74;509.92;29.851231125;10;149
41;paravance-31.rennes.grid5000.fr;thermos-root-devel-WordCountTopology-2-3f8bcc80-6fae-4dbf-bee4-76c5e5a3aad4;["container_2_Emit_random_words_2"];2.25;1533381588.6441;131.2;519.43;30.028220658;10;149
41;paravance-57.rennes.grid5000.fr;thermos-root-devel-WordCountTopology-1-a9b8fc92-a42f-45a7-b547-9ccf1c63c9fd;["container_1_Consume_and_count_1"];2.25;1533381588.69443;172.45;982.08;588.328209064;10;149
41;paravance-16.rennes.grid5000.fr;thermos-root-devel-WordCountTopology-0-052adf65-ea02-42bb-9041-ddf8d7b4172e;["topology_master"];2.25;1533381588.75211;5.19;12.12;0.02563936;9;117
42;paravance-57.rennes.grid5000.fr;thermos-root-devel-WordCountTopology-1-a9b8fc92-a42f-45a7-b547-9ccf1c63c9fd;["container_1_Consume_and_count_1"];2.25;1533381598.91535;175.7;1000.72;599.424389519;10;149
42;paravance-31.rennes.grid5000.fr;thermos-root-devel-WordCountTopology-2-3f8bcc80-6fae-4dbf-bee4-76c5e5a3aad4;["container_2_Emit_random_words_2"];2.25;1533381598.86054;133.49;528.39;30.160646844;10;149
42;paravance-16.rennes.grid5000.fr;thermos-root-devel-WordCountTopology-0-052adf65-ea02-42bb-9041-ddf8d7b4172e;["topology_master"];2.25;1533381598.96283;5.25;12.24;0.02563936;9;117
43;paravance-57.rennes.grid5000.fr;thermos-root-devel-WordCountTopology-1-a9b8fc92-a42f-45a7-b547-9ccf1c63c9fd;["container_1_Consume_and_count_1"];2.25;1533381609.13674;179.15;1019.34;611.311084065;10;149
43;paravance-16.rennes.grid5000.fr;thermos-root-devel-WordCountTopology-0-052adf65-ea02-42bb-9041-ddf8d7b4172e;["topology_master"];2.25;1533381609.1752;5.31;12.31;0.02563936;9;117
43;paravance-31.rennes.grid5000.fr;thermos-root-devel-WordCountTopology-2-3f8bcc80-6fae-4dbf-bee4-76c5e5a3aad4;["container_2_Emit_random_words_2"];2.25;1533381609.076;135.91;537.69;30.236662434;10;149
44;paravance-57.rennes.grid5000.fr;thermos-root-devel-WordCountTopology-1-a9b8fc92-a42f-45a7-b547-9ccf1c63c9fd;["container_1_Consume_and_count_1"];2.25;1533381619.35833;182.49;1038.1;622.565727574;10;149
44;paravance-16.rennes.grid5000.fr;thermos-root-devel-WordCountTopology-0-052adf65-ea02-42bb-9041-ddf8d7b4172e;["topology_master"];2.25;1533381619.3846;5.37;12.38;0.02563936;9;117
44;paravance-31.rennes.grid5000.fr;thermos-root-devel-WordCountTopology-2-3f8bcc80-6fae-4dbf-bee4-76c5e5a3aad4;["container_2_Emit_random_words_2"];2.25;1533381619.29388;138.3;547.07;30.323255007;10;149
45;paravance-57.rennes.grid5000.fr;thermos-root-devel-WordCountTopology-1-a9b8fc92-a42f-45a7-b547-9ccf1c63c9fd;["container_1_Consume_and_count_1"];2.25;1533381629.57913;185.8;1056.93;634.035898093;10;149
45;paravance-16.rennes.grid5000.fr;thermos-root-devel-WordCountTopology-0-052adf65-ea02-42bb-9041-ddf8d7b4172e;["topology_master"];2.25;1533381629.59593;5.45;12.5;0.02563936;9;117
45;paravance-31.rennes.grid5000.fr;thermos-root-devel-WordCountTopology-2-3f8bcc80-6fae-4dbf-bee4-76c5e5a3aad4;["container_2_Emit_random_words_2"];2.25;1533381629.50871;140.97;557.2;30.491189745;10;149
46;paravance-57.rennes.grid5000.fr;thermos-root-devel-WordCountTopology-1-a9b8fc92-a42f-45a7-b547-9ccf1c63c9fd;["container_1_Consume_and_count_1"];2.25;1533381639.79886;189.09;1075.63;644.63612539;10;149
46;paravance-16.rennes.grid5000.fr;thermos-root-devel-WordCountTopology-0-052adf65-ea02-42bb-9041-ddf8d7b4172e;["topology_master"];2.25;1533381639.80638;5.48;12.53;0.02563936;9;117
46;paravance-31.rennes.grid5000.fr;thermos-root-devel-WordCountTopology-2-3f8bcc80-6fae-4dbf-bee4-76c5e5a3aad4;["container_2_Emit_random_words_2"];2.25;1533381639.72357;143.39;566.76;30.608059756;10;149
47;paravance-57.rennes.grid5000.fr;thermos-root-devel-WordCountTopology-1-a9b8fc92-a42f-45a7-b547-9ccf1c63c9fd;["container_1_Consume_and_count_1"];2.25;1533381650.01905;192.37;1094.45;656.27858196;10;149
47;paravance-16.rennes.grid5000.fr;thermos-root-devel-WordCountTopology-0-052adf65-ea02-42bb-9041-ddf8d7b4172e;["topology_master"];2.25;1533381650.01655;5.57;12.66;0.02563936;9;117
47;paravance-31.rennes.grid5000.fr;thermos-root-devel-WordCountTopology-2-3f8bcc80-6fae-4dbf-bee4-76c5e5a3aad4;["container_2_Emit_random_words_2"];2.25;1533381649.93886;145.72;575.93;30.794144743;10;149
48;paravance-16.rennes.grid5000.fr;thermos-root-devel-WordCountTopology-0-052adf65-ea02-42bb-9041-ddf8d7b4172e;["topology_master"];2.25;1533381660.22728;5.63;12.79;0.02563936;9;117
48;paravance-57.rennes.grid5000.fr;thermos-root-devel-WordCountTopology-1-a9b8fc92-a42f-45a7-b547-9ccf1c63c9fd;["container_1_Consume_and_count_1"];2.25;1533381660.24126;195.79;1113.18;667.41253642;10;149
48;paravance-31.rennes.grid5000.fr;thermos-root-devel-WordCountTopology-2-3f8bcc80-6fae-4dbf-bee4-76c5e5a3aad4;["container_2_Emit_random_words_2"];2.25;1533381660.15402;148.28;586.02;30.924273365;10;149
49;paravance-57.rennes.grid5000.fr;thermos-root-devel-WordCountTopology-1-a9b8fc92-a42f-45a7-b547-9ccf1c63c9fd;["container_1_Consume_and_count_1"];2.25;1533381670.4627;199.09;1131.94;678.507013395;10;149
49;paravance-31.rennes.grid5000.fr;thermos-root-devel-WordCountTopology-2-3f8bcc80-6fae-4dbf-bee4-76c5e5a3aad4;["container_2_Emit_random_words_2"];2.25;1533381670.37112;150.83;595.7;31.197509271;10;149
49;paravance-16.rennes.grid5000.fr;thermos-root-devel-WordCountTopology-0-052adf65-ea02-42bb-9041-ddf8d7b4172e;["topology_master"];2.25;1533381670.44083;5.69;12.87;0.02563936;9;117
50;paravance-57.rennes.grid5000.fr;thermos-root-devel-WordCountTopology-1-a9b8fc92-a42f-45a7-b547-9ccf1c63c9fd;["container_1_Consume_and_count_1"];2.25;1533381680.68157;202.18;1150.83;690.063687646;10;149
50;paravance-16.rennes.grid5000.fr;thermos-root-devel-WordCountTopology-0-052adf65-ea02-42bb-9041-ddf8d7b4172e;["topology_master"];2.25;1533381680.64857;5.74;12.94;0.02563936;9;117
50;paravance-31.rennes.grid5000.fr;thermos-root-devel-WordCountTopology-2-3f8bcc80-6fae-4dbf-bee4-76c5e5a3aad4;["container_2_Emit_random_words_2"];2.25;1533381680.58655;153.2;604.77;31.346765226;10;149
51;paravance-16.rennes.grid5000.fr;thermos-root-devel-WordCountTopology-0-052adf65-ea02-42bb-9041-ddf8d7b4172e;["topology_master"];2.25;1533381690.85823;5.83;13.06;0.02563936;9;117
51;paravance-31.rennes.grid5000.fr;thermos-root-devel-WordCountTopology-2-3f8bcc80-6fae-4dbf-bee4-76c5e5a3aad4;["container_2_Emit_random_words_2"];2.25;1533381690.8013;155.97;615.11;31.471749272;10;149
51;paravance-57.rennes.grid5000.fr;thermos-root-devel-WordCountTopology-1-a9b8fc92-a42f-45a7-b547-9ccf1c63c9fd;["container_1_Consume_and_count_1"];2.25;1533381690.90374;205.62;1169.54;701.415621723;10;149
52;paravance-16.rennes.grid5000.fr;thermos-root-devel-WordCountTopology-0-052adf65-ea02-42bb-9041-ddf8d7b4172e;["topology_master"];2.25;1533381701.06999;5.88;13.14;0.02563936;9;117
52;paravance-57.rennes.grid5000.fr;thermos-root-devel-WordCountTopology-1-a9b8fc92-a42f-45a7-b547-9ccf1c63c9fd;["container_1_Consume_and_count_1"];2.25;1533381701.12455;208.97;1188.17;712.368979458;10;149
52;paravance-31.rennes.grid5000.fr;thermos-root-devel-WordCountTopology-2-3f8bcc80-6fae-4dbf-bee4-76c5e5a3aad4;["container_2_Emit_random_words_2"];2.25;1533381701.01801;158.38;624.21;31.532787342;10;149
53;paravance-57.rennes.grid5000.fr;thermos-root-devel-WordCountTopology-1-a9b8fc92-a42f-45a7-b547-9ccf1c63c9fd;["container_1_Consume_and_count_1"];2.25;1533381711.34368;212.28;1206.76;722.597693267;10;149
53;paravance-31.rennes.grid5000.fr;thermos-root-devel-WordCountTopology-2-3f8bcc80-6fae-4dbf-bee4-76c5e5a3aad4;["container_2_Emit_random_words_2"];2.25;1533381711.23292;160.74;632.89;31.583419443;10;149
53;paravance-16.rennes.grid5000.fr;thermos-root-devel-WordCountTopology-0-052adf65-ea02-42bb-9041-ddf8d7b4172e;["topology_master"];2.25;1533381711.28029;5.95;13.22;0.02563936;9;117
54;paravance-57.rennes.grid5000.fr;thermos-root-devel-WordCountTopology-1-a9b8fc92-a42f-45a7-b547-9ccf1c63c9fd;["container_1_Consume_and_count_1"];2.25;1533381721.56403;215.6;1225.57;733.739458858;10;149
54;paravance-31.rennes.grid5000.fr;thermos-root-devel-WordCountTopology-2-3f8bcc80-6fae-4dbf-bee4-76c5e5a3aad4;["container_2_Emit_random_words_2"];2.25;1533381721.4485;163.24;642.69;31.62208236;10;149
54;paravance-16.rennes.grid5000.fr;thermos-root-devel-WordCountTopology-0-052adf65-ea02-42bb-9041-ddf8d7b4172e;["topology_master"];2.25;1533381721.49022;6.01;13.34;0.02563936;9;117
55;paravance-57.rennes.grid5000.fr;thermos-root-devel-WordCountTopology-1-a9b8fc92-a42f-45a7-b547-9ccf1c63c9fd;["container_1_Consume_and_count_1"];2.25;1533381731.78426;218.89;1243.96;744.936119133;10;149
55;paravance-31.rennes.grid5000.fr;thermos-root-devel-WordCountTopology-2-3f8bcc80-6fae-4dbf-bee4-76c5e5a3aad4;["container_2_Emit_random_words_2"];2.25;1533381731.66245;165.76;651.96;31.800824219;10;149
55;paravance-16.rennes.grid5000.fr;thermos-root-devel-WordCountTopology-0-052adf65-ea02-42bb-9041-ddf8d7b4172e;["topology_master"];2.25;1533381731.69979;6.09;13.46;0.02563936;9;117
56;paravance-57.rennes.grid5000.fr;thermos-root-devel-WordCountTopology-1-a9b8fc92-a42f-45a7-b547-9ccf1c63c9fd;["container_1_Consume_and_count_1"];2.25;1533381742.00202;222.37;1262.52;756.739628723;10;149
56;paravance-16.rennes.grid5000.fr;thermos-root-devel-WordCountTopology-0-052adf65-ea02-42bb-9041-ddf8d7b4172e;["topology_master"];2.25;1533381741.91032;6.12;13.48;0.02563936;9;117
56;paravance-31.rennes.grid5000.fr;thermos-root-devel-WordCountTopology-2-3f8bcc80-6fae-4dbf-bee4-76c5e5a3aad4;["container_2_Emit_random_words_2"];2.25;1533381741.87896;168.28;661.43;31.838063825;10;149
57;paravance-57.rennes.grid5000.fr;thermos-root-devel-WordCountTopology-1-a9b8fc92-a42f-45a7-b547-9ccf1c63c9fd;["container_1_Consume_and_count_1"];2.25;1533381752.21601;225.71;1281.19;768.642312812;10;149
57;paravance-16.rennes.grid5000.fr;thermos-root-devel-WordCountTopology-0-052adf65-ea02-42bb-9041-ddf8d7b4172e;["topology_master"];2.25;1533381752.12041;6.2;13.6;0.02563936;9;117
57;paravance-31.rennes.grid5000.fr;thermos-root-devel-WordCountTopology-2-3f8bcc80-6fae-4dbf-bee4-76c5e5a3aad4;["container_2_Emit_random_words_2"];2.25;1533381752.09401;170.8;670.92;31.955116942;10;149
58;paravance-57.rennes.grid5000.fr;thermos-root-devel-WordCountTopology-1-a9b8fc92-a42f-45a7-b547-9ccf1c63c9fd;["container_1_Consume_and_count_1"];2.25;1533381762.43239;229.13;1299.73;780.129312411;10;149
58;paravance-31.rennes.grid5000.fr;thermos-root-devel-WordCountTopology-2-3f8bcc80-6fae-4dbf-bee4-76c5e5a3aad4;["container_2_Emit_random_words_2"];2.25;1533381762.30951;173.29;680.29;32.048888992;10;149
58;paravance-16.rennes.grid5000.fr;thermos-root-devel-WordCountTopology-0-052adf65-ea02-42bb-9041-ddf8d7b4172e;["topology_master"];2.25;1533381762.33089;6.26;13.67;0.02563936;9;117
59;paravance-31.rennes.grid5000.fr;thermos-root-devel-WordCountTopology-2-3f8bcc80-6fae-4dbf-bee4-76c5e5a3aad4;["container_2_Emit_random_words_2"];2.25;1533381772.52485;175.7;689.32;32.272560279;10;149
59;paravance-57.rennes.grid5000.fr;thermos-root-devel-WordCountTopology-1-a9b8fc92-a42f-45a7-b547-9ccf1c63c9fd;["container_1_Consume_and_count_1"];2.25;1533381772.64929;232.34;1318.21;790.245363905;10;149
59;paravance-16.rennes.grid5000.fr;thermos-root-devel-WordCountTopology-0-052adf65-ea02-42bb-9041-ddf8d7b4172e;["topology_master"];2.25;1533381772.5423;6.32;13.78;0.02563936;9;117
60;paravance-57.rennes.grid5000.fr;thermos-root-devel-WordCountTopology-1-a9b8fc92-a42f-45a7-b547-9ccf1c63c9fd;["container_1_Consume_and_count_1"];2.25;1533381782.86474;235.81;1337.0;801.287242603;10;149
60;paravance-31.rennes.grid5000.fr;thermos-root-devel-WordCountTopology-2-3f8bcc80-6fae-4dbf-bee4-76c5e5a3aad4;["container_2_Emit_random_words_2"];2.25;1533381782.74193;178.16;698.21;32.425713394;10;149
60;paravance-16.rennes.grid5000.fr;thermos-root-devel-WordCountTopology-0-052adf65-ea02-42bb-9041-ddf8d7b4172e;["topology_master"];2.25;1533381782.75248;6.38;13.87;0.02563936;9;117
