{
  "status": "success",
  "executiontime": 9.989738464355469e-05,
  "message": "",
  "result": {
    "bolts": {
      "Consume_and_count": [
        "container_1_Consume_and_count_1"
      ]
    },
    "instances": {
      "container_2_Emit_random_words_2": {
        "stmgrId": "stmgr-2",
        "logfile": "http://paravance-14.rennes.grid5000.fr:31214/file/log-files/container_2_Emit_random_words_2.log.0",
        "id": "container_2_Emit_random_words_2",
        "name": "Emit_random_words"
      },
      "container_1_Consume_and_count_1": {
        "stmgrId": "stmgr-1",
        "logfile": "http://paravance-19.rennes.grid5000.fr:31023/file/log-files/container_1_Consume_and_count_1.log.0",
        "id": "container_1_Consume_and_count_1",
        "name": "Consume_and_count"
      }
    },
    "instance_groups": {
      "container_1_Consume_and": [
        "container_1_Consume_and_count_1"
      ],
      "container_2_Emit_random": [
        "container_2_Emit_random_words_2"
      ]
    },
    "spouts": {
      "Emit_random_words": [
        "container_2_Emit_random_words_2"
      ]
    },
    "config": {
      "topology.message.timeout.secs": "30",
      "topology.team.environment": "devel",
      "topology.serializer.classname": "org.apache.heron.streamlet.impl.KryoSerializer",
      "topology.team.name": "root",
      "topology.debug": "false",
      "topology.max.spout.pending": "100",
      "topology.container.padding.percentage": "400",
      "topology.enable.message.timeouts": "true",
      "topology.component.parallelism": "1",
      "topology.name": "WordCountTopology",
      "topology.stmgrs": "2",
      "topology.reliability.mode": "ATMOST_ONCE"
    },
    "stmgrs": {
      "stmgr-1": {
        "cwd": "/var/lib/mesos/slaves/1733c0ab-7325-434e-beb8-a809b5a30a34-S2/frameworks/75deb08a-eb1b-415c-8b2c-e922be5f7d98-0000/executors/thermos-root-devel-WordCountTopology-1-1568ea9f-3750-4d9b-a480-d5bbad210631/runs/64740294-4ef9-4093-88f0-659c9d3f4c8a/sandbox",
        "host": "paravance-19.rennes.grid5000.fr",
        "joburl": "http://paravance-19.rennes.grid5000.fr:31023/browse/",
        "shell_port": 31023,
        "logfiles": "http://paravance-19.rennes.grid5000.fr:31023/browse/log-files",
        "pid": 2767,
        "id": "stmgr-1",
        "instance_ids": [
          "container_1_Consume_and_count_1"
        ],
        "port": 31816
      },
      "stmgr-2": {
        "cwd": "/var/lib/mesos/slaves/1733c0ab-7325-434e-beb8-a809b5a30a34-S0/frameworks/75deb08a-eb1b-415c-8b2c-e922be5f7d98-0000/executors/thermos-root-devel-WordCountTopology-2-f1183ef3-2153-441b-a0a1-0cc88c6352e7/runs/9aa55951-ae3f-43c4-ab9f-1e6baff9892f/sandbox",
        "host": "paravance-14.rennes.grid5000.fr",
        "joburl": "http://paravance-14.rennes.grid5000.fr:31214/browse/",
        "shell_port": 31214,
        "logfiles": "http://paravance-14.rennes.grid5000.fr:31214/browse/log-files",
        "pid": 2846,
        "id": "stmgr-2",
        "instance_ids": [
          "container_2_Emit_random_words_2"
        ],
        "port": 31299
      }
    }
  },
  "tracker_version": "0.17.8-61-gd7c8c62"
}