mesure_id;time;backpresure
0;1533762720;11990.0
1;1533762960;0.0
2;1533762660;14258.0
3;1533762600;9892.0
4;1533762540;13909.0
5;1533762480;12116.0
6;1533762900;12262.0
7;1533762840;12825.0
8;1533762420;12386.0
9;1533762780;12769.0
