------------------------------------------------------
 submission_time: 1533239462
------------------------------------------------------
timeslice start: 1533240000; backpressure time in ms: 23422.0
timeslice start: 1533239940; backpressure time in ms: 24943.0
timeslice start: 1533239880; backpressure time in ms: 25277.0
timeslice start: 1533239820; backpressure time in ms: 24594.0
timeslice start: 1533239760; backpressure time in ms: 23639.0
timeslice start: 1533240120; backpressure time in ms: 25040.0
timeslice start: 1533240180; backpressure time in ms: 0.0
timeslice start: 1533239640; backpressure time in ms: 21999.0
timeslice start: 1533239700; backpressure time in ms: 24167.0
timeslice start: 1533240060; backpressure time in ms: 26351.0
