mesure_id;slave_id;executor_id;heron_instances;cpus_limit;timestamp_A;cpus_system_time_secs_A;cpus_user_time_secs_A;cpus_throttled_time_secs_A;processes;threads
0;paravance-44.rennes.grid5000.fr;thermos-root-devel-WordCountTopology-1-d87bdb72-5053-41a1-ba14-2bf2edca2222;["container_1_Consume_and_count_1"];4.25;1533761880.37683;30.25;296.03;8.325147731;10;151
0;paravance-39.rennes.grid5000.fr;thermos-root-devel-WordCountTopology-2-63c09d85-fd53-4105-ae50-4914c6f17fd3;["container_2_Emit_random_words_2"];4.25;1533761880.35803;7.66;146.55;2.563726261;10;149
0;paravance-40.rennes.grid5000.fr;thermos-root-devel-WordCountTopology-0-a24991c6-9df7-41cd-be46-ef7f381c2115;["topology_master"];4.25;1533761880.48021;2.39;7.99;0.003953053;9;117
1;paravance-40.rennes.grid5000.fr;thermos-root-devel-WordCountTopology-0-a24991c6-9df7-41cd-be46-ef7f381c2115;["topology_master"];4.25;1533761890.59552;2.46;8.12;0.003953053;9;117
1;paravance-44.rennes.grid5000.fr;thermos-root-devel-WordCountTopology-1-d87bdb72-5053-41a1-ba14-2bf2edca2222;["container_1_Consume_and_count_1"];4.25;1533761890.59386;32.99;330.27;9.292823509;10;151
1;paravance-39.rennes.grid5000.fr;thermos-root-devel-WordCountTopology-2-63c09d85-fd53-4105-ae50-4914c6f17fd3;["container_2_Emit_random_words_2"];4.25;1533761890.57497;8.35;164.81;2.563726261;10;149
2;paravance-39.rennes.grid5000.fr;thermos-root-devel-WordCountTopology-2-63c09d85-fd53-4105-ae50-4914c6f17fd3;["container_2_Emit_random_words_2"];4.25;1533761900.78801;8.86;176.13;2.563726261;10;149
2;paravance-44.rennes.grid5000.fr;thermos-root-devel-WordCountTopology-1-d87bdb72-5053-41a1-ba14-2bf2edca2222;["container_1_Consume_and_count_1"];4.25;1533761900.80931;35.45;362.23;9.910536143;10;151
2;paravance-40.rennes.grid5000.fr;thermos-root-devel-WordCountTopology-0-a24991c6-9df7-41cd-be46-ef7f381c2115;["topology_master"];4.25;1533761900.91061;2.55;8.26;0.003953053;9;117
3;paravance-44.rennes.grid5000.fr;thermos-root-devel-WordCountTopology-1-d87bdb72-5053-41a1-ba14-2bf2edca2222;["container_1_Consume_and_count_1"];4.25;1533761911.02397;38.22;396.48;10.509033483;10;151
3;paravance-39.rennes.grid5000.fr;thermos-root-devel-WordCountTopology-2-63c09d85-fd53-4105-ae50-4914c6f17fd3;["container_2_Emit_random_words_2"];4.25;1533761911.00387;9.2;183.77;2.563726261;10;149
3;paravance-40.rennes.grid5000.fr;thermos-root-devel-WordCountTopology-0-a24991c6-9df7-41cd-be46-ef7f381c2115;["topology_master"];4.25;1533761911.12598;2.61;8.34;0.003953053;9;117
4;paravance-44.rennes.grid5000.fr;thermos-root-devel-WordCountTopology-1-d87bdb72-5053-41a1-ba14-2bf2edca2222;["container_1_Consume_and_count_1"];4.25;1533761921.24037;41.09;432.61;11.419609731;10;151
4;paravance-39.rennes.grid5000.fr;thermos-root-devel-WordCountTopology-2-63c09d85-fd53-4105-ae50-4914c6f17fd3;["container_2_Emit_random_words_2"];4.25;1533761921.22105;9.72;197.11;2.563726261;10;149
4;paravance-40.rennes.grid5000.fr;thermos-root-devel-WordCountTopology-0-a24991c6-9df7-41cd-be46-ef7f381c2115;["topology_master"];4.25;1533761921.34261;2.67;8.42;0.003953053;9;117
5;paravance-44.rennes.grid5000.fr;thermos-root-devel-WordCountTopology-1-d87bdb72-5053-41a1-ba14-2bf2edca2222;["container_1_Consume_and_count_1"];4.25;1533761931.45728;44.24;468.62;12.449140363;10;151
5;paravance-39.rennes.grid5000.fr;thermos-root-devel-WordCountTopology-2-63c09d85-fd53-4105-ae50-4914c6f17fd3;["container_2_Emit_random_words_2"];4.25;1533761931.43682;10.34;213.38;2.563726261;10;149
5;paravance-40.rennes.grid5000.fr;thermos-root-devel-WordCountTopology-0-a24991c6-9df7-41cd-be46-ef7f381c2115;["topology_master"];4.25;1533761931.55853;2.73;8.49;0.003953053;9;117
6;paravance-44.rennes.grid5000.fr;thermos-root-devel-WordCountTopology-1-d87bdb72-5053-41a1-ba14-2bf2edca2222;["container_1_Consume_and_count_1"];4.25;1533761941.67684;47.23;503.95;13.287139033;10;151
6;paravance-40.rennes.grid5000.fr;thermos-root-devel-WordCountTopology-0-a24991c6-9df7-41cd-be46-ef7f381c2115;["topology_master"];4.25;1533761941.77917;2.86;8.7;0.003953053;9;117
6;paravance-39.rennes.grid5000.fr;thermos-root-devel-WordCountTopology-2-63c09d85-fd53-4105-ae50-4914c6f17fd3;["container_2_Emit_random_words_2"];4.25;1533761941.65705;10.92;226.5;2.563726261;10;149
7;paravance-44.rennes.grid5000.fr;thermos-root-devel-WordCountTopology-1-d87bdb72-5053-41a1-ba14-2bf2edca2222;["container_1_Consume_and_count_1"];4.25;1533761951.8936;49.56;535.94;13.893275501;10;151
7;paravance-39.rennes.grid5000.fr;thermos-root-devel-WordCountTopology-2-63c09d85-fd53-4105-ae50-4914c6f17fd3;["container_2_Emit_random_words_2"];4.25;1533761951.87514;11.33;237.63;2.563726261;10;149
7;paravance-40.rennes.grid5000.fr;thermos-root-devel-WordCountTopology-0-a24991c6-9df7-41cd-be46-ef7f381c2115;["topology_master"];4.25;1533761951.9964;2.89;8.73;0.003953053;9;117
8;paravance-40.rennes.grid5000.fr;thermos-root-devel-WordCountTopology-0-a24991c6-9df7-41cd-be46-ef7f381c2115;["topology_master"];4.25;1533761962.21324;2.98;8.87;0.003953053;9;117
8;paravance-44.rennes.grid5000.fr;thermos-root-devel-WordCountTopology-1-d87bdb72-5053-41a1-ba14-2bf2edca2222;["container_1_Consume_and_count_1"];4.25;1533761962.11302;52.64;571.57;14.495557262;10;151
8;paravance-39.rennes.grid5000.fr;thermos-root-devel-WordCountTopology-2-63c09d85-fd53-4105-ae50-4914c6f17fd3;["container_2_Emit_random_words_2"];4.25;1533761962.09237;11.86;250.04;2.563726261;10;149
9;paravance-44.rennes.grid5000.fr;thermos-root-devel-WordCountTopology-1-d87bdb72-5053-41a1-ba14-2bf2edca2222;["container_1_Consume_and_count_1"];4.25;1533761972.3293;55.37;605.16;14.992058581;10;151
9;paravance-39.rennes.grid5000.fr;thermos-root-devel-WordCountTopology-2-63c09d85-fd53-4105-ae50-4914c6f17fd3;["container_2_Emit_random_words_2"];4.25;1533761972.30936;12.31;261.36;2.563726261;10;149
9;paravance-40.rennes.grid5000.fr;thermos-root-devel-WordCountTopology-0-a24991c6-9df7-41cd-be46-ef7f381c2115;["topology_master"];4.25;1533761972.43121;3.04;8.94;0.003953053;9;117
10;paravance-44.rennes.grid5000.fr;thermos-root-devel-WordCountTopology-1-d87bdb72-5053-41a1-ba14-2bf2edca2222;["container_1_Consume_and_count_1"];4.25;1533761982.5466;58.27;641.58;15.769601254;10;151
10;paravance-39.rennes.grid5000.fr;thermos-root-devel-WordCountTopology-2-63c09d85-fd53-4105-ae50-4914c6f17fd3;["container_2_Emit_random_words_2"];4.25;1533761982.52655;12.77;272.95;2.563726261;10;149
10;paravance-40.rennes.grid5000.fr;thermos-root-devel-WordCountTopology-0-a24991c6-9df7-41cd-be46-ef7f381c2115;["topology_master"];4.25;1533761982.64985;3.1;9.02;0.003953053;9;117
11;paravance-44.rennes.grid5000.fr;thermos-root-devel-WordCountTopology-1-d87bdb72-5053-41a1-ba14-2bf2edca2222;["container_1_Consume_and_count_1"];4.25;1533761992.7656;61.24;678.06;16.801594957;10;151
11;paravance-39.rennes.grid5000.fr;thermos-root-devel-WordCountTopology-2-63c09d85-fd53-4105-ae50-4914c6f17fd3;["container_2_Emit_random_words_2"];4.25;1533761992.74551;13.43;291.17;2.563726261;10;149
11;paravance-40.rennes.grid5000.fr;thermos-root-devel-WordCountTopology-0-a24991c6-9df7-41cd-be46-ef7f381c2115;["topology_master"];4.25;1533761992.86718;3.15;9.09;0.003953053;9;117
12;paravance-44.rennes.grid5000.fr;thermos-root-devel-WordCountTopology-1-d87bdb72-5053-41a1-ba14-2bf2edca2222;["container_1_Consume_and_count_1"];4.25;1533762002.98255;64.15;714.78;17.675294591;10;151
12;paravance-40.rennes.grid5000.fr;thermos-root-devel-WordCountTopology-0-a24991c6-9df7-41cd-be46-ef7f381c2115;["topology_master"];4.25;1533762003.08543;3.27;9.32;0.003953053;9;117
12;paravance-39.rennes.grid5000.fr;thermos-root-devel-WordCountTopology-2-63c09d85-fd53-4105-ae50-4914c6f17fd3;["container_2_Emit_random_words_2"];4.25;1533762002.96335;14.04;305.09;2.563726261;10;149
13;paravance-39.rennes.grid5000.fr;thermos-root-devel-WordCountTopology-2-63c09d85-fd53-4105-ae50-4914c6f17fd3;["container_2_Emit_random_words_2"];4.25;1533762013.18157;14.45;315.65;2.563726261;10;149
13;paravance-44.rennes.grid5000.fr;thermos-root-devel-WordCountTopology-1-d87bdb72-5053-41a1-ba14-2bf2edca2222;["container_1_Consume_and_count_1"];4.25;1533762013.2017;66.55;748.5;18.069720374;10;151
13;paravance-40.rennes.grid5000.fr;thermos-root-devel-WordCountTopology-0-a24991c6-9df7-41cd-be46-ef7f381c2115;["topology_master"];4.25;1533762013.30413;3.3;9.34;0.003953053;9;117
14;paravance-44.rennes.grid5000.fr;thermos-root-devel-WordCountTopology-1-d87bdb72-5053-41a1-ba14-2bf2edca2222;["container_1_Consume_and_count_1"];4.25;1533762023.41532;69.08;784.72;18.719442295;10;151
14;paravance-39.rennes.grid5000.fr;thermos-root-devel-WordCountTopology-2-63c09d85-fd53-4105-ae50-4914c6f17fd3;["container_2_Emit_random_words_2"];4.25;1533762023.39669;14.95;327.47;2.563726261;10;149
14;paravance-40.rennes.grid5000.fr;thermos-root-devel-WordCountTopology-0-a24991c6-9df7-41cd-be46-ef7f381c2115;["topology_master"];4.25;1533762023.51779;3.39;9.5;0.003953053;9;117
15;paravance-39.rennes.grid5000.fr;thermos-root-devel-WordCountTopology-2-63c09d85-fd53-4105-ae50-4914c6f17fd3;["container_2_Emit_random_words_2"];4.25;1533762033.61295;15.58;345.19;2.563726261;10;149
15;paravance-44.rennes.grid5000.fr;thermos-root-devel-WordCountTopology-1-d87bdb72-5053-41a1-ba14-2bf2edca2222;["container_1_Consume_and_count_1"];4.25;1533762033.63395;72.19;818.85;19.472915028;10;151
15;paravance-40.rennes.grid5000.fr;thermos-root-devel-WordCountTopology-0-a24991c6-9df7-41cd-be46-ef7f381c2115;["topology_master"];4.25;1533762033.73548;3.44;9.57;0.003953053;9;117
16;paravance-44.rennes.grid5000.fr;thermos-root-devel-WordCountTopology-1-d87bdb72-5053-41a1-ba14-2bf2edca2222;["container_1_Consume_and_count_1"];4.25;1533762043.85052;74.98;855.14;20.114891944;10;151
16;paravance-39.rennes.grid5000.fr;thermos-root-devel-WordCountTopology-2-63c09d85-fd53-4105-ae50-4914c6f17fd3;["container_2_Emit_random_words_2"];4.25;1533762043.8312;16.06;357.47;2.563726261;10;149
16;paravance-40.rennes.grid5000.fr;thermos-root-devel-WordCountTopology-0-a24991c6-9df7-41cd-be46-ef7f381c2115;["topology_master"];4.25;1533762043.95353;3.5;9.66;0.003953053;9;117
17;paravance-44.rennes.grid5000.fr;thermos-root-devel-WordCountTopology-1-d87bdb72-5053-41a1-ba14-2bf2edca2222;["container_1_Consume_and_count_1"];4.25;1533762054.06533;77.94;891.05;20.726295484;10;151
17;paravance-39.rennes.grid5000.fr;thermos-root-devel-WordCountTopology-2-63c09d85-fd53-4105-ae50-4914c6f17fd3;["container_2_Emit_random_words_2"];4.25;1533762054.04703;16.54;369.9;2.563726261;10;149
17;paravance-40.rennes.grid5000.fr;thermos-root-devel-WordCountTopology-0-a24991c6-9df7-41cd-be46-ef7f381c2115;["topology_master"];4.25;1533762054.16841;3.56;9.73;0.003953053;9;117
18;paravance-44.rennes.grid5000.fr;thermos-root-devel-WordCountTopology-1-d87bdb72-5053-41a1-ba14-2bf2edca2222;["container_1_Consume_and_count_1"];4.25;1533762064.28349;80.53;926.06;21.625568006;10;151
18;paravance-39.rennes.grid5000.fr;thermos-root-devel-WordCountTopology-2-63c09d85-fd53-4105-ae50-4914c6f17fd3;["container_2_Emit_random_words_2"];4.25;1533762064.26171;17.1;383.34;2.563726261;10;149
18;paravance-40.rennes.grid5000.fr;thermos-root-devel-WordCountTopology-0-a24991c6-9df7-41cd-be46-ef7f381c2115;["topology_master"];4.25;1533762064.38583;3.69;10.03;0.003953053;9;117
19;paravance-39.rennes.grid5000.fr;thermos-root-devel-WordCountTopology-2-63c09d85-fd53-4105-ae50-4914c6f17fd3;["container_2_Emit_random_words_2"];4.25;1533762074.47643;17.72;401.29;2.563726261;10;149
19;paravance-44.rennes.grid5000.fr;thermos-root-devel-WordCountTopology-1-d87bdb72-5053-41a1-ba14-2bf2edca2222;["container_1_Consume_and_count_1"];4.25;1533762074.49732;83.8;960.25;22.352055872;10;151
19;paravance-40.rennes.grid5000.fr;thermos-root-devel-WordCountTopology-0-a24991c6-9df7-41cd-be46-ef7f381c2115;["topology_master"];4.25;1533762074.59894;3.71;10.05;0.003953053;9;117
20;paravance-44.rennes.grid5000.fr;thermos-root-devel-WordCountTopology-1-d87bdb72-5053-41a1-ba14-2bf2edca2222;["container_1_Consume_and_count_1"];4.25;1533762084.71532;86.23;993.74;22.938695447;10;151
20;paravance-39.rennes.grid5000.fr;thermos-root-devel-WordCountTopology-2-63c09d85-fd53-4105-ae50-4914c6f17fd3;["container_2_Emit_random_words_2"];4.25;1533762084.69469;18.17;411.07;2.563726261;10;149
20;paravance-40.rennes.grid5000.fr;thermos-root-devel-WordCountTopology-0-a24991c6-9df7-41cd-be46-ef7f381c2115;["topology_master"];4.25;1533762084.81666;3.81;10.19;0.003953053;9;117
21;paravance-44.rennes.grid5000.fr;thermos-root-devel-WordCountTopology-1-d87bdb72-5053-41a1-ba14-2bf2edca2222;["container_1_Consume_and_count_1"];4.25;1533762094.9303;89.4;1022.36;23.109636322;10;151
21;paravance-39.rennes.grid5000.fr;thermos-root-devel-WordCountTopology-2-63c09d85-fd53-4105-ae50-4914c6f17fd3;["container_2_Emit_random_words_2"];4.25;1533762094.90999;18.84;429.28;2.563726261;10;149
21;paravance-40.rennes.grid5000.fr;thermos-root-devel-WordCountTopology-0-a24991c6-9df7-41cd-be46-ef7f381c2115;["topology_master"];4.25;1533762095.03248;3.86;10.26;0.003953053;9;117
22;paravance-39.rennes.grid5000.fr;thermos-root-devel-WordCountTopology-2-63c09d85-fd53-4105-ae50-4914c6f17fd3;["container_2_Emit_random_words_2"];4.25;1533762105.12673;19.48;447.34;2.563726261;10;149
22;paravance-40.rennes.grid5000.fr;thermos-root-devel-WordCountTopology-0-a24991c6-9df7-41cd-be46-ef7f381c2115;["topology_master"];4.25;1533762105.24935;3.92;10.34;0.003953053;9;117
22;paravance-44.rennes.grid5000.fr;thermos-root-devel-WordCountTopology-1-d87bdb72-5053-41a1-ba14-2bf2edca2222;["container_1_Consume_and_count_1"];4.25;1533762105.14879;92.78;1046.27;23.109636322;10;151
23;paravance-40.rennes.grid5000.fr;thermos-root-devel-WordCountTopology-0-a24991c6-9df7-41cd-be46-ef7f381c2115;["topology_master"];4.25;1533762115.46766;3.97;10.41;0.003953053;9;117
23;paravance-39.rennes.grid5000.fr;thermos-root-devel-WordCountTopology-2-63c09d85-fd53-4105-ae50-4914c6f17fd3;["container_2_Emit_random_words_2"];4.25;1533762115.34497;20.14;465.53;2.563726261;10;149
23;paravance-44.rennes.grid5000.fr;thermos-root-devel-WordCountTopology-1-d87bdb72-5053-41a1-ba14-2bf2edca2222;["container_1_Consume_and_count_1"];4.25;1533762115.366;96.0;1069.81;23.109636322;10;151
24;paravance-44.rennes.grid5000.fr;thermos-root-devel-WordCountTopology-1-d87bdb72-5053-41a1-ba14-2bf2edca2222;["container_1_Consume_and_count_1"];4.25;1533762125.58327;99.55;1094.67;23.109636322;10;151
24;paravance-40.rennes.grid5000.fr;thermos-root-devel-WordCountTopology-0-a24991c6-9df7-41cd-be46-ef7f381c2115;["topology_master"];4.25;1533762125.68521;4.09;10.58;0.003953053;9;117
24;paravance-39.rennes.grid5000.fr;thermos-root-devel-WordCountTopology-2-63c09d85-fd53-4105-ae50-4914c6f17fd3;["container_2_Emit_random_words_2"];4.25;1533762125.56288;20.86;483.9;2.563726261;10;149
25;paravance-44.rennes.grid5000.fr;thermos-root-devel-WordCountTopology-1-d87bdb72-5053-41a1-ba14-2bf2edca2222;["container_1_Consume_and_count_1"];4.25;1533762135.79945;102.64;1118.05;23.109636322;10;151
25;paravance-40.rennes.grid5000.fr;thermos-root-devel-WordCountTopology-0-a24991c6-9df7-41cd-be46-ef7f381c2115;["topology_master"];4.25;1533762135.90197;4.12;10.61;0.003953053;9;117
25;paravance-39.rennes.grid5000.fr;thermos-root-devel-WordCountTopology-2-63c09d85-fd53-4105-ae50-4914c6f17fd3;["container_2_Emit_random_words_2"];4.25;1533762135.77908;21.48;501.99;2.563726261;10;149
26;paravance-44.rennes.grid5000.fr;thermos-root-devel-WordCountTopology-1-d87bdb72-5053-41a1-ba14-2bf2edca2222;["container_1_Consume_and_count_1"];4.25;1533762146.01546;106.12;1142.03;23.109636322;10;151
26;paravance-39.rennes.grid5000.fr;thermos-root-devel-WordCountTopology-2-63c09d85-fd53-4105-ae50-4914c6f17fd3;["container_2_Emit_random_words_2"];4.25;1533762145.99438;22.15;520.16;2.563726261;10;149
26;paravance-40.rennes.grid5000.fr;thermos-root-devel-WordCountTopology-0-a24991c6-9df7-41cd-be46-ef7f381c2115;["topology_master"];4.25;1533762146.11828;4.2;10.73;0.003953053;9;117
27;paravance-44.rennes.grid5000.fr;thermos-root-devel-WordCountTopology-1-d87bdb72-5053-41a1-ba14-2bf2edca2222;["container_1_Consume_and_count_1"];4.25;1533762156.23057;109.44;1167.14;23.109636322;10;151
27;paravance-40.rennes.grid5000.fr;thermos-root-devel-WordCountTopology-0-a24991c6-9df7-41cd-be46-ef7f381c2115;["topology_master"];4.25;1533762156.3344;4.26;10.8;0.003953053;9;117
27;paravance-39.rennes.grid5000.fr;thermos-root-devel-WordCountTopology-2-63c09d85-fd53-4105-ae50-4914c6f17fd3;["container_2_Emit_random_words_2"];4.25;1533762156.21116;22.8;538.34;2.563726261;10;149
28;paravance-44.rennes.grid5000.fr;thermos-root-devel-WordCountTopology-1-d87bdb72-5053-41a1-ba14-2bf2edca2222;["container_1_Consume_and_count_1"];4.25;1533762166.44767;112.89;1194.09;23.154102371;10;151
28;paravance-40.rennes.grid5000.fr;thermos-root-devel-WordCountTopology-0-a24991c6-9df7-41cd-be46-ef7f381c2115;["topology_master"];4.25;1533762166.55092;4.32;10.88;0.003953053;9;117
28;paravance-39.rennes.grid5000.fr;thermos-root-devel-WordCountTopology-2-63c09d85-fd53-4105-ae50-4914c6f17fd3;["container_2_Emit_random_words_2"];4.25;1533762166.42835;23.47;556.67;2.563726261;10;149
29;paravance-44.rennes.grid5000.fr;thermos-root-devel-WordCountTopology-1-d87bdb72-5053-41a1-ba14-2bf2edca2222;["container_1_Consume_and_count_1"];4.25;1533762176.66397;115.5;1229.27;23.957088929;10;151
29;paravance-40.rennes.grid5000.fr;thermos-root-devel-WordCountTopology-0-a24991c6-9df7-41cd-be46-ef7f381c2115;["topology_master"];4.25;1533762176.76678;4.42;11.01;0.003953053;9;117
29;paravance-39.rennes.grid5000.fr;thermos-root-devel-WordCountTopology-2-63c09d85-fd53-4105-ae50-4914c6f17fd3;["container_2_Emit_random_words_2"];4.25;1533762176.6439;24.2;574.93;2.563726261;10;149
30;paravance-44.rennes.grid5000.fr;thermos-root-devel-WordCountTopology-1-d87bdb72-5053-41a1-ba14-2bf2edca2222;["container_1_Consume_and_count_1"];4.25;1533762186.88076;117.73;1266.23;25.303749097;10;151
30;paravance-39.rennes.grid5000.fr;thermos-root-devel-WordCountTopology-2-63c09d85-fd53-4105-ae50-4914c6f17fd3;["container_2_Emit_random_words_2"];4.25;1533762186.85937;24.83;593.0;2.563726261;10;149
30;paravance-40.rennes.grid5000.fr;thermos-root-devel-WordCountTopology-0-a24991c6-9df7-41cd-be46-ef7f381c2115;["topology_master"];4.25;1533762186.9837;4.48;11.15;0.003953053;9;117
31;paravance-44.rennes.grid5000.fr;thermos-root-devel-WordCountTopology-1-d87bdb72-5053-41a1-ba14-2bf2edca2222;["container_1_Consume_and_count_1"];4.25;1533762197.0979;120.2;1300.36;25.830962914;10;151
31;paravance-39.rennes.grid5000.fr;thermos-root-devel-WordCountTopology-2-63c09d85-fd53-4105-ae50-4914c6f17fd3;["container_2_Emit_random_words_2"];4.25;1533762197.07719;25.27;603.53;2.563726261;10;149
31;paravance-40.rennes.grid5000.fr;thermos-root-devel-WordCountTopology-0-a24991c6-9df7-41cd-be46-ef7f381c2115;["topology_master"];4.25;1533762197.20084;4.54;11.22;0.003953053;9;117
32;paravance-44.rennes.grid5000.fr;thermos-root-devel-WordCountTopology-1-d87bdb72-5053-41a1-ba14-2bf2edca2222;["container_1_Consume_and_count_1"];4.25;1533762207.31339;123.68;1334.94;26.207127197;10;151
32;paravance-39.rennes.grid5000.fr;thermos-root-devel-WordCountTopology-2-63c09d85-fd53-4105-ae50-4914c6f17fd3;["container_2_Emit_random_words_2"];4.25;1533762207.29402;25.73;614.63;2.563726261;10;149
32;paravance-40.rennes.grid5000.fr;thermos-root-devel-WordCountTopology-0-a24991c6-9df7-41cd-be46-ef7f381c2115;["topology_master"];4.25;1533762207.41788;4.6;11.3;0.003953053;9;117
33;paravance-44.rennes.grid5000.fr;thermos-root-devel-WordCountTopology-1-d87bdb72-5053-41a1-ba14-2bf2edca2222;["container_1_Consume_and_count_1"];4.25;1533762217.53102;126.74;1368.47;26.63822277;10;151
33;paravance-39.rennes.grid5000.fr;thermos-root-devel-WordCountTopology-2-63c09d85-fd53-4105-ae50-4914c6f17fd3;["container_2_Emit_random_words_2"];4.25;1533762217.5089;26.25;626.67;2.563726261;10;149
33;paravance-40.rennes.grid5000.fr;thermos-root-devel-WordCountTopology-0-a24991c6-9df7-41cd-be46-ef7f381c2115;["topology_master"];4.25;1533762217.63358;4.68;11.42;0.003953053;9;117
34;paravance-44.rennes.grid5000.fr;thermos-root-devel-WordCountTopology-1-d87bdb72-5053-41a1-ba14-2bf2edca2222;["container_1_Consume_and_count_1"];4.25;1533762227.74658;129.51;1404.28;27.416573408;10;151
34;paravance-40.rennes.grid5000.fr;thermos-root-devel-WordCountTopology-0-a24991c6-9df7-41cd-be46-ef7f381c2115;["topology_master"];4.25;1533762227.85007;4.73;11.47;0.003953053;9;117
34;paravance-39.rennes.grid5000.fr;thermos-root-devel-WordCountTopology-2-63c09d85-fd53-4105-ae50-4914c6f17fd3;["container_2_Emit_random_words_2"];4.25;1533762227.72664;26.9;644.76;2.563726261;10;149
35;paravance-44.rennes.grid5000.fr;thermos-root-devel-WordCountTopology-1-d87bdb72-5053-41a1-ba14-2bf2edca2222;["container_1_Consume_and_count_1"];4.25;1533762237.96362;132.35;1439.79;28.220052418;10;151
35;paravance-39.rennes.grid5000.fr;thermos-root-devel-WordCountTopology-2-63c09d85-fd53-4105-ae50-4914c6f17fd3;["container_2_Emit_random_words_2"];4.25;1533762237.94225;27.54;662.79;2.563726261;10;149
35;paravance-40.rennes.grid5000.fr;thermos-root-devel-WordCountTopology-0-a24991c6-9df7-41cd-be46-ef7f381c2115;["topology_master"];4.25;1533762238.06611;4.82;11.59;0.003953053;9;117
36;paravance-44.rennes.grid5000.fr;thermos-root-devel-WordCountTopology-1-d87bdb72-5053-41a1-ba14-2bf2edca2222;["container_1_Consume_and_count_1"];4.25;1533762248.17757;135.36;1476.47;28.997288787;10;151
36;paravance-40.rennes.grid5000.fr;thermos-root-devel-WordCountTopology-0-a24991c6-9df7-41cd-be46-ef7f381c2115;["topology_master"];4.25;1533762248.28098;4.88;11.71;0.003953053;9;117
36;paravance-39.rennes.grid5000.fr;thermos-root-devel-WordCountTopology-2-63c09d85-fd53-4105-ae50-4914c6f17fd3;["container_2_Emit_random_words_2"];4.25;1533762248.15812;28.09;676.74;2.563726261;10;149
37;paravance-44.rennes.grid5000.fr;thermos-root-devel-WordCountTopology-1-d87bdb72-5053-41a1-ba14-2bf2edca2222;["container_1_Consume_and_count_1"];4.25;1533762258.39451;137.61;1507.89;29.555657876;10;151
37;paravance-39.rennes.grid5000.fr;thermos-root-devel-WordCountTopology-2-63c09d85-fd53-4105-ae50-4914c6f17fd3;["container_2_Emit_random_words_2"];4.25;1533762258.37363;28.51;685.91;2.563726261;10;149
37;paravance-40.rennes.grid5000.fr;thermos-root-devel-WordCountTopology-0-a24991c6-9df7-41cd-be46-ef7f381c2115;["topology_master"];4.25;1533762258.49743;4.97;11.83;0.003953053;9;117
38;paravance-44.rennes.grid5000.fr;thermos-root-devel-WordCountTopology-1-d87bdb72-5053-41a1-ba14-2bf2edca2222;["container_1_Consume_and_count_1"];4.25;1533762268.61135;140.05;1542.37;30.07164106;10;151
38;paravance-39.rennes.grid5000.fr;thermos-root-devel-WordCountTopology-2-63c09d85-fd53-4105-ae50-4914c6f17fd3;["container_2_Emit_random_words_2"];4.25;1533762268.58991;28.94;696.53;2.563726261;10;149
38;paravance-40.rennes.grid5000.fr;thermos-root-devel-WordCountTopology-0-a24991c6-9df7-41cd-be46-ef7f381c2115;["topology_master"];4.25;1533762268.7139;5.0;11.86;0.003953053;9;117
39;paravance-44.rennes.grid5000.fr;thermos-root-devel-WordCountTopology-1-d87bdb72-5053-41a1-ba14-2bf2edca2222;["container_1_Consume_and_count_1"];4.25;1533762278.82621;142.88;1576.91;30.988453188;10;151
39;paravance-40.rennes.grid5000.fr;thermos-root-devel-WordCountTopology-0-a24991c6-9df7-41cd-be46-ef7f381c2115;["topology_master"];4.25;1533762278.92894;5.09;11.99;0.003953053;9;117
39;paravance-39.rennes.grid5000.fr;thermos-root-devel-WordCountTopology-2-63c09d85-fd53-4105-ae50-4914c6f17fd3;["container_2_Emit_random_words_2"];4.25;1533762278.80589;29.57;713.8;2.563726261;10;149
40;paravance-44.rennes.grid5000.fr;thermos-root-devel-WordCountTopology-1-d87bdb72-5053-41a1-ba14-2bf2edca2222;["container_1_Consume_and_count_1"];4.25;1533762289.04395;145.36;1610.99;31.798028993;10;151
40;paravance-40.rennes.grid5000.fr;thermos-root-devel-WordCountTopology-0-a24991c6-9df7-41cd-be46-ef7f381c2115;["topology_master"];4.25;1533762289.14533;5.14;12.06;0.003953053;9;117
40;paravance-39.rennes.grid5000.fr;thermos-root-devel-WordCountTopology-2-63c09d85-fd53-4105-ae50-4914c6f17fd3;["container_2_Emit_random_words_2"];4.25;1533762289.02021;30.07;725.82;2.563726261;10;149
41;paravance-44.rennes.grid5000.fr;thermos-root-devel-WordCountTopology-1-d87bdb72-5053-41a1-ba14-2bf2edca2222;["container_1_Consume_and_count_1"];4.25;1533762299.26025;148.24;1646.44;32.454743404;10;151
41;paravance-39.rennes.grid5000.fr;thermos-root-devel-WordCountTopology-2-63c09d85-fd53-4105-ae50-4914c6f17fd3;["container_2_Emit_random_words_2"];4.25;1533762299.23743;30.58;737.88;2.563726261;10;149
41;paravance-40.rennes.grid5000.fr;thermos-root-devel-WordCountTopology-0-a24991c6-9df7-41cd-be46-ef7f381c2115;["topology_master"];4.25;1533762299.36264;5.21;12.14;0.003953053;9;117
42;paravance-39.rennes.grid5000.fr;thermos-root-devel-WordCountTopology-2-63c09d85-fd53-4105-ae50-4914c6f17fd3;["container_2_Emit_random_words_2"];4.25;1533762309.35689;31.02;748.38;2.563726261;10;149
42;paravance-44.rennes.grid5000.fr;thermos-root-devel-WordCountTopology-1-d87bdb72-5053-41a1-ba14-2bf2edca2222;["container_1_Consume_and_count_1"];4.25;1533762309.47689;150.53;1680.53;33.08175724;10;151
42;paravance-40.rennes.grid5000.fr;thermos-root-devel-WordCountTopology-0-a24991c6-9df7-41cd-be46-ef7f381c2115;["topology_master"];4.25;1533762309.5801;5.27;12.26;0.003953053;9;117
43;paravance-44.rennes.grid5000.fr;thermos-root-devel-WordCountTopology-1-d87bdb72-5053-41a1-ba14-2bf2edca2222;["container_1_Consume_and_count_1"];4.25;1533762319.69121;153.0;1715.77;34.116338881;10;151
43;paravance-39.rennes.grid5000.fr;thermos-root-devel-WordCountTopology-2-63c09d85-fd53-4105-ae50-4914c6f17fd3;["container_2_Emit_random_words_2"];4.25;1533762319.669;31.71;765.66;2.563726261;10;149
43;paravance-40.rennes.grid5000.fr;thermos-root-devel-WordCountTopology-0-a24991c6-9df7-41cd-be46-ef7f381c2115;["topology_master"];4.25;1533762319.79375;5.36;12.38;0.003953053;9;117
44;paravance-44.rennes.grid5000.fr;thermos-root-devel-WordCountTopology-1-d87bdb72-5053-41a1-ba14-2bf2edca2222;["container_1_Consume_and_count_1"];4.25;1533762329.90751;155.94;1751.36;34.568452868;10;151
44;paravance-39.rennes.grid5000.fr;thermos-root-devel-WordCountTopology-2-63c09d85-fd53-4105-ae50-4914c6f17fd3;["container_2_Emit_random_words_2"];4.25;1533762329.88812;32.21;778.93;2.563726261;10;149
44;paravance-40.rennes.grid5000.fr;thermos-root-devel-WordCountTopology-0-a24991c6-9df7-41cd-be46-ef7f381c2115;["topology_master"];4.25;1533762330.01111;5.39;12.43;0.003953053;9;117
45;paravance-44.rennes.grid5000.fr;thermos-root-devel-WordCountTopology-1-d87bdb72-5053-41a1-ba14-2bf2edca2222;["container_1_Consume_and_count_1"];4.25;1533762340.12207;158.68;1787.0;35.355841807;10;151
45;paravance-40.rennes.grid5000.fr;thermos-root-devel-WordCountTopology-0-a24991c6-9df7-41cd-be46-ef7f381c2115;["topology_master"];4.25;1533762340.22669;5.48;12.55;0.003953053;9;117
45;paravance-39.rennes.grid5000.fr;thermos-root-devel-WordCountTopology-2-63c09d85-fd53-4105-ae50-4914c6f17fd3;["container_2_Emit_random_words_2"];4.25;1533762340.1033;32.7;791.09;2.563726261;10;149
46;paravance-44.rennes.grid5000.fr;thermos-root-devel-WordCountTopology-1-d87bdb72-5053-41a1-ba14-2bf2edca2222;["container_1_Consume_and_count_1"];4.25;1533762350.33991;161.62;1823.45;36.018913258;10;151
46;paravance-40.rennes.grid5000.fr;thermos-root-devel-WordCountTopology-0-a24991c6-9df7-41cd-be46-ef7f381c2115;["topology_master"];4.25;1533762350.44318;5.53;12.62;0.003953053;9;117
46;paravance-39.rennes.grid5000.fr;thermos-root-devel-WordCountTopology-2-63c09d85-fd53-4105-ae50-4914c6f17fd3;["container_2_Emit_random_words_2"];4.25;1533762350.31842;33.19;803.63;2.563726261;10;149
47;paravance-39.rennes.grid5000.fr;thermos-root-devel-WordCountTopology-2-63c09d85-fd53-4105-ae50-4914c6f17fd3;["container_2_Emit_random_words_2"];4.25;1533762360.53251;33.78;818.62;2.563726261;10;149
47;paravance-40.rennes.grid5000.fr;thermos-root-devel-WordCountTopology-0-a24991c6-9df7-41cd-be46-ef7f381c2115;["topology_master"];4.25;1533762360.65761;5.6;12.7;0.003953053;9;117
47;paravance-44.rennes.grid5000.fr;thermos-root-devel-WordCountTopology-1-d87bdb72-5053-41a1-ba14-2bf2edca2222;["container_1_Consume_and_count_1"];4.25;1533762360.55401;163.91;1856.1;36.578035914;10;151
48;paravance-39.rennes.grid5000.fr;thermos-root-devel-WordCountTopology-2-63c09d85-fd53-4105-ae50-4914c6f17fd3;["container_2_Emit_random_words_2"];4.25;1533762370.74833;34.33;832.16;2.563726261;10;149
48;paravance-44.rennes.grid5000.fr;thermos-root-devel-WordCountTopology-1-d87bdb72-5053-41a1-ba14-2bf2edca2222;["container_1_Consume_and_count_1"];4.25;1533762370.77062;166.9;1891.85;37.349438586;10;151
48;paravance-40.rennes.grid5000.fr;thermos-root-devel-WordCountTopology-0-a24991c6-9df7-41cd-be46-ef7f381c2115;["topology_master"];4.25;1533762370.87277;5.66;12.82;0.003953053;9;117
49;paravance-44.rennes.grid5000.fr;thermos-root-devel-WordCountTopology-1-d87bdb72-5053-41a1-ba14-2bf2edca2222;["container_1_Consume_and_count_1"];4.25;1533762380.98618;169.21;1926.54;37.971769396;10;151
49;paravance-39.rennes.grid5000.fr;thermos-root-devel-WordCountTopology-2-63c09d85-fd53-4105-ae50-4914c6f17fd3;["container_2_Emit_random_words_2"];4.25;1533762380.96469;34.82;843.05;2.563726261;10;149
49;paravance-40.rennes.grid5000.fr;thermos-root-devel-WordCountTopology-0-a24991c6-9df7-41cd-be46-ef7f381c2115;["topology_master"];4.25;1533762381.08995;5.75;12.95;0.003953053;9;117
50;paravance-44.rennes.grid5000.fr;thermos-root-devel-WordCountTopology-1-d87bdb72-5053-41a1-ba14-2bf2edca2222;["container_1_Consume_and_count_1"];4.25;1533762391.20145;172.17;1961.73;38.74404917;10;151
50;paravance-40.rennes.grid5000.fr;thermos-root-devel-WordCountTopology-0-a24991c6-9df7-41cd-be46-ef7f381c2115;["topology_master"];4.25;1533762391.30492;5.77;12.98;0.003953053;9;117
50;paravance-39.rennes.grid5000.fr;thermos-root-devel-WordCountTopology-2-63c09d85-fd53-4105-ae50-4914c6f17fd3;["container_2_Emit_random_words_2"];4.25;1533762391.18123;35.43;860.96;2.563726261;10;149
51;paravance-44.rennes.grid5000.fr;thermos-root-devel-WordCountTopology-1-d87bdb72-5053-41a1-ba14-2bf2edca2222;["container_1_Consume_and_count_1"];4.25;1533762401.41962;175.17;1996.82;39.311285021;10;151
51;paravance-40.rennes.grid5000.fr;thermos-root-devel-WordCountTopology-0-a24991c6-9df7-41cd-be46-ef7f381c2115;["topology_master"];4.25;1533762401.5237;5.86;13.11;0.003953053;9;117
51;paravance-39.rennes.grid5000.fr;thermos-root-devel-WordCountTopology-2-63c09d85-fd53-4105-ae50-4914c6f17fd3;["container_2_Emit_random_words_2"];4.25;1533762401.39786;36.03;876.75;2.563726261;10;149
52;paravance-44.rennes.grid5000.fr;thermos-root-devel-WordCountTopology-1-d87bdb72-5053-41a1-ba14-2bf2edca2222;["container_1_Consume_and_count_1"];4.25;1533762411.63556;177.64;2028.87;39.629170725;10;151
52;paravance-40.rennes.grid5000.fr;thermos-root-devel-WordCountTopology-0-a24991c6-9df7-41cd-be46-ef7f381c2115;["topology_master"];4.25;1533762411.73939;5.92;13.18;0.003953053;9;117
52;paravance-39.rennes.grid5000.fr;thermos-root-devel-WordCountTopology-2-63c09d85-fd53-4105-ae50-4914c6f17fd3;["container_2_Emit_random_words_2"];4.25;1533762411.61468;36.39;884.57;2.563726261;10;149
53;paravance-40.rennes.grid5000.fr;thermos-root-devel-WordCountTopology-0-a24991c6-9df7-41cd-be46-ef7f381c2115;["topology_master"];4.25;1533762421.85441;5.99;13.3;0.003953053;9;117
53;paravance-44.rennes.grid5000.fr;thermos-root-devel-WordCountTopology-1-d87bdb72-5053-41a1-ba14-2bf2edca2222;["container_1_Consume_and_count_1"];4.25;1533762421.8519;180.38;2065.02;40.287262125;10;151
53;paravance-39.rennes.grid5000.fr;thermos-root-devel-WordCountTopology-2-63c09d85-fd53-4105-ae50-4914c6f17fd3;["container_2_Emit_random_words_2"];4.25;1533762421.8295;36.82;894.97;2.563726261;10;149
54;paravance-44.rennes.grid5000.fr;thermos-root-devel-WordCountTopology-1-d87bdb72-5053-41a1-ba14-2bf2edca2222;["container_1_Consume_and_count_1"];4.25;1533762432.06745;183.51;2099.88;40.878815898;10;151
54;paravance-40.rennes.grid5000.fr;thermos-root-devel-WordCountTopology-0-a24991c6-9df7-41cd-be46-ef7f381c2115;["topology_master"];4.25;1533762432.17072;6.05;13.37;0.003953053;9;117
54;paravance-39.rennes.grid5000.fr;thermos-root-devel-WordCountTopology-2-63c09d85-fd53-4105-ae50-4914c6f17fd3;["container_2_Emit_random_words_2"];4.25;1533762432.04577;37.49;913.06;2.563726261;10;149
55;paravance-39.rennes.grid5000.fr;thermos-root-devel-WordCountTopology-2-63c09d85-fd53-4105-ae50-4914c6f17fd3;["container_2_Emit_random_words_2"];4.25;1533762442.26173;38.15;931.15;2.563726261;10;149
55;paravance-44.rennes.grid5000.fr;thermos-root-devel-WordCountTopology-1-d87bdb72-5053-41a1-ba14-2bf2edca2222;["container_1_Consume_and_count_1"];4.25;1533762442.2832;186.67;2134.56;41.426596901;10;151
55;paravance-40.rennes.grid5000.fr;thermos-root-devel-WordCountTopology-0-a24991c6-9df7-41cd-be46-ef7f381c2115;["topology_master"];4.25;1533762442.38913;6.14;13.49;0.003953053;9;117
56;paravance-40.rennes.grid5000.fr;thermos-root-devel-WordCountTopology-0-a24991c6-9df7-41cd-be46-ef7f381c2115;["topology_master"];4.25;1533762452.60213;6.17;13.52;0.003953053;9;117
56;paravance-39.rennes.grid5000.fr;thermos-root-devel-WordCountTopology-2-63c09d85-fd53-4105-ae50-4914c6f17fd3;["container_2_Emit_random_words_2"];4.25;1533762452.47758;38.78;949.26;2.563726261;10;149
56;paravance-44.rennes.grid5000.fr;thermos-root-devel-WordCountTopology-1-d87bdb72-5053-41a1-ba14-2bf2edca2222;["container_1_Consume_and_count_1"];4.25;1533762452.50046;189.6;2170.52;42.379764269;10;151
57;paravance-44.rennes.grid5000.fr;thermos-root-devel-WordCountTopology-1-d87bdb72-5053-41a1-ba14-2bf2edca2222;["container_1_Consume_and_count_1"];4.25;1533762462.71543;192.77;2206.91;43.404461805;10;151
57;paravance-39.rennes.grid5000.fr;thermos-root-devel-WordCountTopology-2-63c09d85-fd53-4105-ae50-4914c6f17fd3;["container_2_Emit_random_words_2"];4.25;1533762462.69445;39.45;967.17;2.563726261;10;149
57;paravance-40.rennes.grid5000.fr;thermos-root-devel-WordCountTopology-0-a24991c6-9df7-41cd-be46-ef7f381c2115;["topology_master"];4.25;1533762462.81896;6.25;13.63;0.003953053;9;117
58;paravance-44.rennes.grid5000.fr;thermos-root-devel-WordCountTopology-1-d87bdb72-5053-41a1-ba14-2bf2edca2222;["container_1_Consume_and_count_1"];4.25;1533762472.93203;195.31;2244.25;44.632028826;10;151
58;paravance-39.rennes.grid5000.fr;thermos-root-devel-WordCountTopology-2-63c09d85-fd53-4105-ae50-4914c6f17fd3;["container_2_Emit_random_words_2"];4.25;1533762472.90995;40.08;984.73;2.563726261;10;149
58;paravance-40.rennes.grid5000.fr;thermos-root-devel-WordCountTopology-0-a24991c6-9df7-41cd-be46-ef7f381c2115;["topology_master"];4.25;1533762473.0357;6.31;13.71;0.003953053;9;117
59;paravance-44.rennes.grid5000.fr;thermos-root-devel-WordCountTopology-1-d87bdb72-5053-41a1-ba14-2bf2edca2222;["container_1_Consume_and_count_1"];4.25;1533762483.14836;197.99;2278.38;45.193832134;10;151
59;paravance-39.rennes.grid5000.fr;thermos-root-devel-WordCountTopology-2-63c09d85-fd53-4105-ae50-4914c6f17fd3;["container_2_Emit_random_words_2"];4.25;1533762483.12484;40.73;1002.67;2.563726261;10;149
59;paravance-40.rennes.grid5000.fr;thermos-root-devel-WordCountTopology-0-a24991c6-9df7-41cd-be46-ef7f381c2115;["topology_master"];4.25;1533762483.25146;6.38;13.83;0.003953053;9;117
60;paravance-44.rennes.grid5000.fr;thermos-root-devel-WordCountTopology-1-d87bdb72-5053-41a1-ba14-2bf2edca2222;["container_1_Consume_and_count_1"];4.25;1533762493.36357;200.76;2314.69;46.327933301;10;151
60;paravance-39.rennes.grid5000.fr;thermos-root-devel-WordCountTopology-2-63c09d85-fd53-4105-ae50-4914c6f17fd3;["container_2_Emit_random_words_2"];4.25;1533762493.3416;41.38;1020.67;2.563726261;10;149
60;paravance-40.rennes.grid5000.fr;thermos-root-devel-WordCountTopology-0-a24991c6-9df7-41cd-be46-ef7f381c2115;["topology_master"];4.25;1533762493.46711;6.44;13.91;0.003953053;9;117
