{
  "status": "success",
  "executiontime": 0.00018310546875,
  "message": "",
  "result": {
    "bolts": {
      "Consume_and_count": [
        "container_1_Consume_and_count_1"
      ]
    },
    "instances": {
      "container_2_Emit_random_words_2": {
        "stmgrId": "stmgr-2",
        "logfile": "http://paravance-55.rennes.grid5000.fr:31632/file/log-files/container_2_Emit_random_words_2.log.0",
        "id": "container_2_Emit_random_words_2",
        "name": "Emit_random_words"
      },
      "container_1_Consume_and_count_1": {
        "stmgrId": "stmgr-1",
        "logfile": "http://paravance-53.rennes.grid5000.fr:31430/file/log-files/container_1_Consume_and_count_1.log.0",
        "id": "container_1_Consume_and_count_1",
        "name": "Consume_and_count"
      }
    },
    "instance_groups": {
      "container_1_Consume_and": [
        "container_1_Consume_and_count_1"
      ],
      "container_2_Emit_random": [
        "container_2_Emit_random_words_2"
      ]
    },
    "spouts": {
      "Emit_random_words": [
        "container_2_Emit_random_words_2"
      ]
    },
    "config": {
      "topology.message.timeout.secs": "30",
      "topology.team.environment": "devel",
      "topology.serializer.classname": "org.apache.heron.streamlet.impl.KryoSerializer",
      "topology.team.name": "root",
      "topology.debug": "false",
      "topology.max.spout.pending": "100",
      "topology.container.padding.percentage": "100",
      "topology.enable.message.timeouts": "true",
      "topology.component.parallelism": "1",
      "topology.name": "WordCountTopology",
      "topology.stmgrs": "2",
      "topology.reliability.mode": "ATMOST_ONCE"
    },
    "stmgrs": {
      "stmgr-1": {
        "cwd": "/var/lib/mesos/slaves/cd8c54c1-cdd7-45bb-8025-e5f426519ee9-S0/frameworks/75deb08a-eb1b-415c-8b2c-e922be5f7d98-0000/executors/thermos-root-devel-WordCountTopology-1-180d3824-b2c6-48ca-8e6d-81ab90dc6701/runs/76ea6575-3c63-4b7f-bc5e-ec7bc71d3a1b/sandbox",
        "host": "paravance-53.rennes.grid5000.fr",
        "joburl": "http://paravance-53.rennes.grid5000.fr:31430/browse/",
        "shell_port": 31430,
        "logfiles": "http://paravance-53.rennes.grid5000.fr:31430/browse/log-files",
        "pid": 2845,
        "id": "stmgr-1",
        "instance_ids": [
          "container_1_Consume_and_count_1"
        ],
        "port": 31938
      },
      "stmgr-2": {
        "cwd": "/var/lib/mesos/slaves/cd8c54c1-cdd7-45bb-8025-e5f426519ee9-S2/frameworks/75deb08a-eb1b-415c-8b2c-e922be5f7d98-0000/executors/thermos-root-devel-WordCountTopology-2-68a4fa09-8fd2-44f6-83f7-df98868efb51/runs/e01e5e41-479a-49cb-b593-648c35df7cb0/sandbox",
        "host": "paravance-55.rennes.grid5000.fr",
        "joburl": "http://paravance-55.rennes.grid5000.fr:31632/browse/",
        "shell_port": 31632,
        "logfiles": "http://paravance-55.rennes.grid5000.fr:31632/browse/log-files",
        "pid": 2852,
        "id": "stmgr-2",
        "instance_ids": [
          "container_2_Emit_random_words_2"
        ],
        "port": 31089
      }
    }
  },
  "tracker_version": "0.17.8-61-gd7c8c62"
}