{
  "status": "success",
  "executiontime": 0.0001850128173828125,
  "message": "",
  "result": {
    "bolts": {
      "Consume_and_count": [
        "container_1_Consume_and_count_1"
      ]
    },
    "instances": {
      "container_2_Emit_random_words_2": {
        "stmgrId": "stmgr-2",
        "logfile": "http://paravance-4.rennes.grid5000.fr:31645/file/log-files/container_2_Emit_random_words_2.log.0",
        "id": "container_2_Emit_random_words_2",
        "name": "Emit_random_words"
      },
      "container_1_Consume_and_count_1": {
        "stmgrId": "stmgr-1",
        "logfile": "http://paravance-18.rennes.grid5000.fr:31594/file/log-files/container_1_Consume_and_count_1.log.0",
        "id": "container_1_Consume_and_count_1",
        "name": "Consume_and_count"
      }
    },
    "instance_groups": {
      "container_1_Consume_and": [
        "container_1_Consume_and_count_1"
      ],
      "container_2_Emit_random": [
        "container_2_Emit_random_words_2"
      ]
    },
    "spouts": {
      "Emit_random_words": [
        "container_2_Emit_random_words_2"
      ]
    },
    "config": {
      "topology.message.timeout.secs": "30",
      "topology.team.environment": "devel",
      "topology.serializer.classname": "org.apache.heron.streamlet.impl.KryoSerializer",
      "topology.team.name": "root",
      "topology.debug": "false",
      "topology.max.spout.pending": "100",
      "topology.container.padding.percentage": "0",
      "topology.enable.message.timeouts": "true",
      "topology.component.parallelism": "1",
      "topology.name": "WordCountTopology",
      "topology.stmgrs": "2",
      "topology.reliability.mode": "ATMOST_ONCE"
    },
    "stmgrs": {
      "stmgr-1": {
        "cwd": "/var/lib/mesos/slaves/ece45fe3-db7b-42d6-a2f8-5d76f365526f-S1/frameworks/75deb08a-eb1b-415c-8b2c-e922be5f7d98-0000/executors/thermos-root-devel-WordCountTopology-1-e3d8c1cf-f686-457c-9097-aa7061d3180d/runs/c897c045-849d-40fc-bf07-281803e457f0/sandbox",
        "host": "paravance-18.rennes.grid5000.fr",
        "joburl": "http://paravance-18.rennes.grid5000.fr:31594/browse/",
        "shell_port": 31594,
        "logfiles": "http://paravance-18.rennes.grid5000.fr:31594/browse/log-files",
        "pid": 2141,
        "id": "stmgr-1",
        "instance_ids": [
          "container_1_Consume_and_count_1"
        ],
        "port": 31917
      },
      "stmgr-2": {
        "cwd": "/var/lib/mesos/slaves/ece45fe3-db7b-42d6-a2f8-5d76f365526f-S2/frameworks/75deb08a-eb1b-415c-8b2c-e922be5f7d98-0000/executors/thermos-root-devel-WordCountTopology-2-3f70fe6d-f309-423e-a420-506ff910c466/runs/ba14ab1b-881e-4be0-a5df-b77979ca1d3b/sandbox",
        "host": "paravance-4.rennes.grid5000.fr",
        "joburl": "http://paravance-4.rennes.grid5000.fr:31645/browse/",
        "shell_port": 31645,
        "logfiles": "http://paravance-4.rennes.grid5000.fr:31645/browse/log-files",
        "pid": 2131,
        "id": "stmgr-2",
        "instance_ids": [
          "container_2_Emit_random_words_2"
        ],
        "port": 31669
      }
    }
  },
  "tracker_version": "0.17.8-61-gd7c8c62"
}