mesure_id;slave_id;executor_id;heron_instances;cpus_limit;timestamp_A;cpus_system_time_secs_A;cpus_user_time_secs_A;cpus_throttled_time_secs_A;processes;threads
0;paravance-30.rennes.grid5000.fr;thermos-root-devel-WordCountTopology-1-26b5cf39-417b-48d7-8a01-b6d315dacd69;["container_1_Consume_and_count_1"];4.25;1533809241.28911;42.72;243.58;2.942029999;10;151
0;paravance-37.rennes.grid5000.fr;thermos-root-devel-WordCountTopology-0-c1751a38-1e1e-49af-8936-68c6a8e1345a;["topology_master"];4.25;1533809241.28902;2.43;8.12;0.002154856;9;117
0;paravance-8.rennes.grid5000.fr;thermos-root-devel-WordCountTopology-2-b8dc5ba7-e0a8-4cb9-b5e5-a0896f521b0d;["container_2_Emit_random_words_2"];4.25;1533809241.28906;15.5;177.98;2.210102215;10;149
1;paravance-8.rennes.grid5000.fr;thermos-root-devel-WordCountTopology-2-b8dc5ba7-e0a8-4cb9-b5e5-a0896f521b0d;["container_2_Emit_random_words_2"];4.25;1533809251.40383;16.97;197.71;2.210102215;10;149
1;paravance-37.rennes.grid5000.fr;thermos-root-devel-WordCountTopology-0-c1751a38-1e1e-49af-8936-68c6a8e1345a;["topology_master"];4.25;1533809251.5051;2.49;8.25;0.002154856;9;117
1;paravance-30.rennes.grid5000.fr;thermos-root-devel-WordCountTopology-1-26b5cf39-417b-48d7-8a01-b6d315dacd69;["container_1_Consume_and_count_1"];4.25;1533809251.50769;47.44;270.85;2.942029999;10;151
2;paravance-8.rennes.grid5000.fr;thermos-root-devel-WordCountTopology-2-b8dc5ba7-e0a8-4cb9-b5e5-a0896f521b0d;["container_2_Emit_random_words_2"];4.25;1533809261.61937;18.5;217.16;2.210102215;10;149
2;paravance-37.rennes.grid5000.fr;thermos-root-devel-WordCountTopology-0-c1751a38-1e1e-49af-8936-68c6a8e1345a;["topology_master"];4.25;1533809261.72073;2.59;8.39;0.002154856;9;117
2;paravance-30.rennes.grid5000.fr;thermos-root-devel-WordCountTopology-1-26b5cf39-417b-48d7-8a01-b6d315dacd69;["container_1_Consume_and_count_1"];4.25;1533809261.72252;52.4;298.38;2.942029999;10;151
3;paravance-37.rennes.grid5000.fr;thermos-root-devel-WordCountTopology-0-c1751a38-1e1e-49af-8936-68c6a8e1345a;["topology_master"];4.25;1533809271.8394;2.62;8.43;0.002154856;9;117
3;paravance-8.rennes.grid5000.fr;thermos-root-devel-WordCountTopology-2-b8dc5ba7-e0a8-4cb9-b5e5-a0896f521b0d;["container_2_Emit_random_words_2"];4.25;1533809271.93806;19.96;236.08;2.210102215;10;149
3;paravance-30.rennes.grid5000.fr;thermos-root-devel-WordCountTopology-1-26b5cf39-417b-48d7-8a01-b6d315dacd69;["container_1_Consume_and_count_1"];4.25;1533809271.93943;57.16;325.1;2.942029999;10;151
4;paravance-37.rennes.grid5000.fr;thermos-root-devel-WordCountTopology-0-c1751a38-1e1e-49af-8936-68c6a8e1345a;["topology_master"];4.25;1533809282.15312;2.71;8.56;0.002154856;9;117
4;paravance-8.rennes.grid5000.fr;thermos-root-devel-WordCountTopology-2-b8dc5ba7-e0a8-4cb9-b5e5-a0896f521b0d;["container_2_Emit_random_words_2"];4.25;1533809282.15192;21.45;255.01;2.210102215;10;149
4;paravance-30.rennes.grid5000.fr;thermos-root-devel-WordCountTopology-1-26b5cf39-417b-48d7-8a01-b6d315dacd69;["container_1_Consume_and_count_1"];4.25;1533809282.1538;61.67;353.26;2.942029999;10;151
5;paravance-8.rennes.grid5000.fr;thermos-root-devel-WordCountTopology-2-b8dc5ba7-e0a8-4cb9-b5e5-a0896f521b0d;["container_2_Emit_random_words_2"];4.25;1533809292.37005;22.93;273.68;2.210102215;10;149
5;paravance-30.rennes.grid5000.fr;thermos-root-devel-WordCountTopology-1-26b5cf39-417b-48d7-8a01-b6d315dacd69;["container_1_Consume_and_count_1"];4.25;1533809292.37219;65.67;378.68;2.942029999;10;151
5;paravance-37.rennes.grid5000.fr;thermos-root-devel-WordCountTopology-0-c1751a38-1e1e-49af-8936-68c6a8e1345a;["topology_master"];4.25;1533809292.3722;2.77;8.63;0.002154856;9;117
6;paravance-30.rennes.grid5000.fr;thermos-root-devel-WordCountTopology-1-26b5cf39-417b-48d7-8a01-b6d315dacd69;["container_1_Consume_and_count_1"];4.25;1533809302.586;69.8;404.81;2.944256412;10;151
6;paravance-37.rennes.grid5000.fr;thermos-root-devel-WordCountTopology-0-c1751a38-1e1e-49af-8936-68c6a8e1345a;["topology_master"];4.25;1533809302.58484;2.89;8.85;0.002154856;9;117
6;paravance-8.rennes.grid5000.fr;thermos-root-devel-WordCountTopology-2-b8dc5ba7-e0a8-4cb9-b5e5-a0896f521b0d;["container_2_Emit_random_words_2"];4.25;1533809302.58391;24.56;292.88;2.210102215;10;149
7;paravance-30.rennes.grid5000.fr;thermos-root-devel-WordCountTopology-1-26b5cf39-417b-48d7-8a01-b6d315dacd69;["container_1_Consume_and_count_1"];4.25;1533809312.80419;73.97;430.94;2.944256412;10;151
7;paravance-37.rennes.grid5000.fr;thermos-root-devel-WordCountTopology-0-c1751a38-1e1e-49af-8936-68c6a8e1345a;["topology_master"];4.25;1533809312.80216;2.92;8.88;0.002154856;9;117
7;paravance-8.rennes.grid5000.fr;thermos-root-devel-WordCountTopology-2-b8dc5ba7-e0a8-4cb9-b5e5-a0896f521b0d;["container_2_Emit_random_words_2"];4.25;1533809312.80191;26.1;311.85;2.210102215;10;149
8;paravance-30.rennes.grid5000.fr;thermos-root-devel-WordCountTopology-1-26b5cf39-417b-48d7-8a01-b6d315dacd69;["container_1_Consume_and_count_1"];4.25;1533809323.02087;78.65;458.57;2.944256412;10;151
8;paravance-8.rennes.grid5000.fr;thermos-root-devel-WordCountTopology-2-b8dc5ba7-e0a8-4cb9-b5e5-a0896f521b0d;["container_2_Emit_random_words_2"];4.25;1533809323.01911;27.69;330.86;2.210102215;10;149
8;paravance-37.rennes.grid5000.fr;thermos-root-devel-WordCountTopology-0-c1751a38-1e1e-49af-8936-68c6a8e1345a;["topology_master"];4.25;1533809323.02114;3.01;9.01;0.002154856;9;117
9;paravance-37.rennes.grid5000.fr;thermos-root-devel-WordCountTopology-0-c1751a38-1e1e-49af-8936-68c6a8e1345a;["topology_master"];4.25;1533809333.13807;3.07;9.09;0.002154856;9;117
9;paravance-30.rennes.grid5000.fr;thermos-root-devel-WordCountTopology-1-26b5cf39-417b-48d7-8a01-b6d315dacd69;["container_1_Consume_and_count_1"];4.25;1533809333.23701;83.38;487.13;2.945873112;10;151
9;paravance-8.rennes.grid5000.fr;thermos-root-devel-WordCountTopology-2-b8dc5ba7-e0a8-4cb9-b5e5-a0896f521b0d;["container_2_Emit_random_words_2"];4.25;1533809333.23646;29.25;349.85;2.210102215;10;149
10;paravance-8.rennes.grid5000.fr;thermos-root-devel-WordCountTopology-2-b8dc5ba7-e0a8-4cb9-b5e5-a0896f521b0d;["container_2_Emit_random_words_2"];4.25;1533809343.45295;30.76;368.63;2.210102215;10;149
10;paravance-30.rennes.grid5000.fr;thermos-root-devel-WordCountTopology-1-26b5cf39-417b-48d7-8a01-b6d315dacd69;["container_1_Consume_and_count_1"];4.25;1533809343.455;87.97;514.43;2.945873112;10;151
10;paravance-37.rennes.grid5000.fr;thermos-root-devel-WordCountTopology-0-c1751a38-1e1e-49af-8936-68c6a8e1345a;["topology_master"];4.25;1533809343.45419;3.14;9.17;0.002154856;9;117
11;paravance-30.rennes.grid5000.fr;thermos-root-devel-WordCountTopology-1-26b5cf39-417b-48d7-8a01-b6d315dacd69;["container_1_Consume_and_count_1"];4.25;1533809353.67616;92.59;541.45;2.945873112;10;151
11;paravance-8.rennes.grid5000.fr;thermos-root-devel-WordCountTopology-2-b8dc5ba7-e0a8-4cb9-b5e5-a0896f521b0d;["container_2_Emit_random_words_2"];4.25;1533809353.67316;32.14;387.31;2.210102215;10;149
11;paravance-37.rennes.grid5000.fr;thermos-root-devel-WordCountTopology-0-c1751a38-1e1e-49af-8936-68c6a8e1345a;["topology_master"];4.25;1533809353.67443;3.19;9.25;0.002154856;9;117
12;paravance-30.rennes.grid5000.fr;thermos-root-devel-WordCountTopology-1-26b5cf39-417b-48d7-8a01-b6d315dacd69;["container_1_Consume_and_count_1"];4.25;1533809363.89062;97.71;567.97;2.945873112;10;151
12;paravance-37.rennes.grid5000.fr;thermos-root-devel-WordCountTopology-0-c1751a38-1e1e-49af-8936-68c6a8e1345a;["topology_master"];4.25;1533809363.89155;3.32;9.51;0.002154856;9;117
12;paravance-8.rennes.grid5000.fr;thermos-root-devel-WordCountTopology-2-b8dc5ba7-e0a8-4cb9-b5e5-a0896f521b0d;["container_2_Emit_random_words_2"];4.25;1533809363.88906;33.63;406.2;2.210102215;10;149
13;paravance-30.rennes.grid5000.fr;thermos-root-devel-WordCountTopology-1-26b5cf39-417b-48d7-8a01-b6d315dacd69;["container_1_Consume_and_count_1"];4.25;1533809374.10563;102.37;594.78;2.945873112;10;151
13;paravance-8.rennes.grid5000.fr;thermos-root-devel-WordCountTopology-2-b8dc5ba7-e0a8-4cb9-b5e5-a0896f521b0d;["container_2_Emit_random_words_2"];4.25;1533809374.10396;35.1;425.23;2.210102215;10;149
13;paravance-37.rennes.grid5000.fr;thermos-root-devel-WordCountTopology-0-c1751a38-1e1e-49af-8936-68c6a8e1345a;["topology_master"];4.25;1533809374.10535;3.35;9.53;0.002154856;9;117
14;paravance-30.rennes.grid5000.fr;thermos-root-devel-WordCountTopology-1-26b5cf39-417b-48d7-8a01-b6d315dacd69;["container_1_Consume_and_count_1"];4.25;1533809384.32312;107.5;621.69;2.949982429;10;151
14;paravance-37.rennes.grid5000.fr;thermos-root-devel-WordCountTopology-0-c1751a38-1e1e-49af-8936-68c6a8e1345a;["topology_master"];4.25;1533809384.32146;3.44;9.7;0.002154856;9;117
14;paravance-8.rennes.grid5000.fr;thermos-root-devel-WordCountTopology-2-b8dc5ba7-e0a8-4cb9-b5e5-a0896f521b0d;["container_2_Emit_random_words_2"];4.25;1533809384.32069;36.58;444.05;2.210102215;10;149
15;paravance-37.rennes.grid5000.fr;thermos-root-devel-WordCountTopology-0-c1751a38-1e1e-49af-8936-68c6a8e1345a;["topology_master"];4.25;1533809394.53888;3.5;9.78;0.002154856;9;117
15;paravance-30.rennes.grid5000.fr;thermos-root-devel-WordCountTopology-1-26b5cf39-417b-48d7-8a01-b6d315dacd69;["container_1_Consume_and_count_1"];4.25;1533809394.5405;112.05;647.83;2.949982429;10;151
15;paravance-8.rennes.grid5000.fr;thermos-root-devel-WordCountTopology-2-b8dc5ba7-e0a8-4cb9-b5e5-a0896f521b0d;["container_2_Emit_random_words_2"];4.25;1533809394.53784;38.03;462.95;2.210102215;10;149
16;paravance-8.rennes.grid5000.fr;thermos-root-devel-WordCountTopology-2-b8dc5ba7-e0a8-4cb9-b5e5-a0896f521b0d;["container_2_Emit_random_words_2"];4.25;1533809404.75559;39.55;481.75;2.210102215;10;149
16;paravance-37.rennes.grid5000.fr;thermos-root-devel-WordCountTopology-0-c1751a38-1e1e-49af-8936-68c6a8e1345a;["topology_master"];4.25;1533809404.75685;3.56;9.87;0.002154856;9;117
16;paravance-30.rennes.grid5000.fr;thermos-root-devel-WordCountTopology-1-26b5cf39-417b-48d7-8a01-b6d315dacd69;["container_1_Consume_and_count_1"];4.25;1533809404.75789;116.55;675.19;2.949982429;10;151
17;paravance-30.rennes.grid5000.fr;thermos-root-devel-WordCountTopology-1-26b5cf39-417b-48d7-8a01-b6d315dacd69;["container_1_Consume_and_count_1"];4.25;1533809414.97593;121.17;701.64;2.949982429;10;151
17;paravance-8.rennes.grid5000.fr;thermos-root-devel-WordCountTopology-2-b8dc5ba7-e0a8-4cb9-b5e5-a0896f521b0d;["container_2_Emit_random_words_2"];4.25;1533809414.97365;40.94;500.36;2.210102215;10;149
17;paravance-37.rennes.grid5000.fr;thermos-root-devel-WordCountTopology-0-c1751a38-1e1e-49af-8936-68c6a8e1345a;["topology_master"];4.25;1533809414.97559;3.62;9.95;0.002154856;9;117
18;paravance-30.rennes.grid5000.fr;thermos-root-devel-WordCountTopology-1-26b5cf39-417b-48d7-8a01-b6d315dacd69;["container_1_Consume_and_count_1"];4.25;1533809425.1934;125.7;728.08;2.965888622;10;151
18;paravance-37.rennes.grid5000.fr;thermos-root-devel-WordCountTopology-0-c1751a38-1e1e-49af-8936-68c6a8e1345a;["topology_master"];4.25;1533809425.19268;3.75;10.21;0.002154856;9;117
18;paravance-8.rennes.grid5000.fr;thermos-root-devel-WordCountTopology-2-b8dc5ba7-e0a8-4cb9-b5e5-a0896f521b0d;["container_2_Emit_random_words_2"];4.25;1533809425.19111;42.49;519.44;2.210102215;10;149
19;paravance-30.rennes.grid5000.fr;thermos-root-devel-WordCountTopology-1-26b5cf39-417b-48d7-8a01-b6d315dacd69;["container_1_Consume_and_count_1"];4.25;1533809435.40783;130.59;755.78;2.965888622;10;151
19;paravance-8.rennes.grid5000.fr;thermos-root-devel-WordCountTopology-2-b8dc5ba7-e0a8-4cb9-b5e5-a0896f521b0d;["container_2_Emit_random_words_2"];4.25;1533809435.40646;43.93;538.31;2.210102215;10;149
19;paravance-37.rennes.grid5000.fr;thermos-root-devel-WordCountTopology-0-c1751a38-1e1e-49af-8936-68c6a8e1345a;["topology_master"];4.25;1533809435.40879;3.77;10.24;0.002154856;9;117
20;paravance-30.rennes.grid5000.fr;thermos-root-devel-WordCountTopology-1-26b5cf39-417b-48d7-8a01-b6d315dacd69;["container_1_Consume_and_count_1"];4.25;1533809445.62339;135.49;782.29;2.993020944;10;151
20;paravance-37.rennes.grid5000.fr;thermos-root-devel-WordCountTopology-0-c1751a38-1e1e-49af-8936-68c6a8e1345a;["topology_master"];4.25;1533809445.62285;3.87;10.38;0.002154856;9;117
20;paravance-8.rennes.grid5000.fr;thermos-root-devel-WordCountTopology-2-b8dc5ba7-e0a8-4cb9-b5e5-a0896f521b0d;["container_2_Emit_random_words_2"];4.25;1533809445.62188;45.49;557.25;2.210102215;10;149
21;paravance-30.rennes.grid5000.fr;thermos-root-devel-WordCountTopology-1-26b5cf39-417b-48d7-8a01-b6d315dacd69;["container_1_Consume_and_count_1"];4.25;1533809455.83653;140.44;810.22;2.993020944;10;151
21;paravance-8.rennes.grid5000.fr;thermos-root-devel-WordCountTopology-2-b8dc5ba7-e0a8-4cb9-b5e5-a0896f521b0d;["container_2_Emit_random_words_2"];4.25;1533809455.83423;46.95;576.12;2.210102215;10;149
21;paravance-37.rennes.grid5000.fr;thermos-root-devel-WordCountTopology-0-c1751a38-1e1e-49af-8936-68c6a8e1345a;["topology_master"];4.25;1533809455.83516;3.92;10.45;0.002154856;9;117
22;paravance-30.rennes.grid5000.fr;thermos-root-devel-WordCountTopology-1-26b5cf39-417b-48d7-8a01-b6d315dacd69;["container_1_Consume_and_count_1"];4.25;1533809466.05476;145.13;837.3;2.993020944;10;151
22;paravance-37.rennes.grid5000.fr;thermos-root-devel-WordCountTopology-0-c1751a38-1e1e-49af-8936-68c6a8e1345a;["topology_master"];4.25;1533809466.05309;3.98;10.53;0.002154856;9;117
22;paravance-8.rennes.grid5000.fr;thermos-root-devel-WordCountTopology-2-b8dc5ba7-e0a8-4cb9-b5e5-a0896f521b0d;["container_2_Emit_random_words_2"];4.25;1533809466.05209;48.42;595.13;2.210102215;10;149
23;paravance-8.rennes.grid5000.fr;thermos-root-devel-WordCountTopology-2-b8dc5ba7-e0a8-4cb9-b5e5-a0896f521b0d;["container_2_Emit_random_words_2"];4.25;1533809476.26984;49.8;613.72;2.210102215;10;149
23;paravance-30.rennes.grid5000.fr;thermos-root-devel-WordCountTopology-1-26b5cf39-417b-48d7-8a01-b6d315dacd69;["container_1_Consume_and_count_1"];4.25;1533809476.27208;149.45;861.66;2.993020944;10;151
23;paravance-37.rennes.grid5000.fr;thermos-root-devel-WordCountTopology-0-c1751a38-1e1e-49af-8936-68c6a8e1345a;["topology_master"];4.25;1533809476.27066;4.04;10.6;0.002154856;9;117
24;paravance-8.rennes.grid5000.fr;thermos-root-devel-WordCountTopology-2-b8dc5ba7-e0a8-4cb9-b5e5-a0896f521b0d;["container_2_Emit_random_words_2"];4.25;1533809486.48572;51.35;632.77;2.210102215;10;149
24;paravance-30.rennes.grid5000.fr;thermos-root-devel-WordCountTopology-1-26b5cf39-417b-48d7-8a01-b6d315dacd69;["container_1_Consume_and_count_1"];4.25;1533809486.48798;153.92;887.3;2.993020944;10;151
24;paravance-37.rennes.grid5000.fr;thermos-root-devel-WordCountTopology-0-c1751a38-1e1e-49af-8936-68c6a8e1345a;["topology_master"];4.25;1533809486.48842;4.15;10.77;0.002154856;9;117
25;paravance-37.rennes.grid5000.fr;thermos-root-devel-WordCountTopology-0-c1751a38-1e1e-49af-8936-68c6a8e1345a;["topology_master"];4.25;1533809496.70496;4.18;10.8;0.002154856;9;117
25;paravance-30.rennes.grid5000.fr;thermos-root-devel-WordCountTopology-1-26b5cf39-417b-48d7-8a01-b6d315dacd69;["container_1_Consume_and_count_1"];4.25;1533809496.70697;158.43;914.35;2.993020944;10;151
25;paravance-8.rennes.grid5000.fr;thermos-root-devel-WordCountTopology-2-b8dc5ba7-e0a8-4cb9-b5e5-a0896f521b0d;["container_2_Emit_random_words_2"];4.25;1533809496.70381;52.81;651.68;2.210102215;10;149
26;paravance-8.rennes.grid5000.fr;thermos-root-devel-WordCountTopology-2-b8dc5ba7-e0a8-4cb9-b5e5-a0896f521b0d;["container_2_Emit_random_words_2"];4.25;1533809506.9181;54.33;670.67;2.210102215;10;149
26;paravance-37.rennes.grid5000.fr;thermos-root-devel-WordCountTopology-0-c1751a38-1e1e-49af-8936-68c6a8e1345a;["topology_master"];4.25;1533809506.92024;4.27;10.93;0.002154856;9;117
26;paravance-30.rennes.grid5000.fr;thermos-root-devel-WordCountTopology-1-26b5cf39-417b-48d7-8a01-b6d315dacd69;["container_1_Consume_and_count_1"];4.25;1533809506.92099;163.38;942.35;2.993020944;10;151
27;paravance-8.rennes.grid5000.fr;thermos-root-devel-WordCountTopology-2-b8dc5ba7-e0a8-4cb9-b5e5-a0896f521b0d;["container_2_Emit_random_words_2"];4.25;1533809517.03369;55.87;689.33;2.210102215;10;149
27;paravance-30.rennes.grid5000.fr;thermos-root-devel-WordCountTopology-1-26b5cf39-417b-48d7-8a01-b6d315dacd69;["container_1_Consume_and_count_1"];4.25;1533809517.13739;168.19;969.94;2.993020944;10;151
27;paravance-37.rennes.grid5000.fr;thermos-root-devel-WordCountTopology-0-c1751a38-1e1e-49af-8936-68c6a8e1345a;["topology_master"];4.25;1533809517.13548;4.33;11.0;0.002154856;9;117
28;paravance-30.rennes.grid5000.fr;thermos-root-devel-WordCountTopology-1-26b5cf39-417b-48d7-8a01-b6d315dacd69;["container_1_Consume_and_count_1"];4.25;1533809527.3519;172.92;997.8;2.993519379;10;151
28;paravance-8.rennes.grid5000.fr;thermos-root-devel-WordCountTopology-2-b8dc5ba7-e0a8-4cb9-b5e5-a0896f521b0d;["container_2_Emit_random_words_2"];4.25;1533809527.35083;57.4;708.03;2.210102215;10;149
28;paravance-37.rennes.grid5000.fr;thermos-root-devel-WordCountTopology-0-c1751a38-1e1e-49af-8936-68c6a8e1345a;["topology_master"];4.25;1533809527.3523;4.39;11.08;0.002154856;9;117
29;paravance-30.rennes.grid5000.fr;thermos-root-devel-WordCountTopology-1-26b5cf39-417b-48d7-8a01-b6d315dacd69;["container_1_Consume_and_count_1"];4.25;1533809537.56713;178.14;1027.39;3.071187367;10;151
29;paravance-8.rennes.grid5000.fr;thermos-root-devel-WordCountTopology-2-b8dc5ba7-e0a8-4cb9-b5e5-a0896f521b0d;["container_2_Emit_random_words_2"];4.25;1533809537.56552;59.0;727.0;2.210102215;10;149
29;paravance-37.rennes.grid5000.fr;thermos-root-devel-WordCountTopology-0-c1751a38-1e1e-49af-8936-68c6a8e1345a;["topology_master"];4.25;1533809537.56738;4.5;11.23;0.002154856;9;117
30;paravance-30.rennes.grid5000.fr;thermos-root-devel-WordCountTopology-1-26b5cf39-417b-48d7-8a01-b6d315dacd69;["container_1_Consume_and_count_1"];4.25;1533809547.78439;182.92;1055.82;3.071227045;10;151
30;paravance-8.rennes.grid5000.fr;thermos-root-devel-WordCountTopology-2-b8dc5ba7-e0a8-4cb9-b5e5-a0896f521b0d;["container_2_Emit_random_words_2"];4.25;1533809547.7813;60.47;745.92;2.210102215;10;149
30;paravance-37.rennes.grid5000.fr;thermos-root-devel-WordCountTopology-0-c1751a38-1e1e-49af-8936-68c6a8e1345a;["topology_master"];4.25;1533809547.7838;4.56;11.37;0.002154856;9;117
31;paravance-30.rennes.grid5000.fr;thermos-root-devel-WordCountTopology-1-26b5cf39-417b-48d7-8a01-b6d315dacd69;["container_1_Consume_and_count_1"];4.25;1533809558.00025;187.62;1083.06;3.071227045;10;151
31;paravance-37.rennes.grid5000.fr;thermos-root-devel-WordCountTopology-0-c1751a38-1e1e-49af-8936-68c6a8e1345a;["topology_master"];4.25;1533809557.9995;4.62;11.45;0.002154856;9;117
31;paravance-8.rennes.grid5000.fr;thermos-root-devel-WordCountTopology-2-b8dc5ba7-e0a8-4cb9-b5e5-a0896f521b0d;["container_2_Emit_random_words_2"];4.25;1533809557.99772;61.98;764.9;2.210102215;10;149
32;paravance-37.rennes.grid5000.fr;thermos-root-devel-WordCountTopology-0-c1751a38-1e1e-49af-8936-68c6a8e1345a;["topology_master"];4.25;1533809568.21757;4.68;11.53;0.002154856;9;117
32;paravance-8.rennes.grid5000.fr;thermos-root-devel-WordCountTopology-2-b8dc5ba7-e0a8-4cb9-b5e5-a0896f521b0d;["container_2_Emit_random_words_2"];4.25;1533809568.21636;63.41;783.73;2.210102215;10;149
32;paravance-30.rennes.grid5000.fr;thermos-root-devel-WordCountTopology-1-26b5cf39-417b-48d7-8a01-b6d315dacd69;["container_1_Consume_and_count_1"];4.25;1533809568.21956;192.23;1110.0;3.071227045;10;151
33;paravance-8.rennes.grid5000.fr;thermos-root-devel-WordCountTopology-2-b8dc5ba7-e0a8-4cb9-b5e5-a0896f521b0d;["container_2_Emit_random_words_2"];4.25;1533809578.43024;64.9;802.68;2.210102215;10;149
33;paravance-30.rennes.grid5000.fr;thermos-root-devel-WordCountTopology-1-26b5cf39-417b-48d7-8a01-b6d315dacd69;["container_1_Consume_and_count_1"];4.25;1533809578.43493;196.86;1137.34;3.071227045;10;151
33;paravance-37.rennes.grid5000.fr;thermos-root-devel-WordCountTopology-0-c1751a38-1e1e-49af-8936-68c6a8e1345a;["topology_master"];4.25;1533809578.43349;4.77;11.66;0.002154856;9;117
34;paravance-8.rennes.grid5000.fr;thermos-root-devel-WordCountTopology-2-b8dc5ba7-e0a8-4cb9-b5e5-a0896f521b0d;["container_2_Emit_random_words_2"];4.25;1533809588.64776;66.37;821.63;2.210102215;10;149
34;paravance-30.rennes.grid5000.fr;thermos-root-devel-WordCountTopology-1-26b5cf39-417b-48d7-8a01-b6d315dacd69;["container_1_Consume_and_count_1"];4.25;1533809588.65114;201.54;1163.74;3.071227045;10;151
34;paravance-37.rennes.grid5000.fr;thermos-root-devel-WordCountTopology-0-c1751a38-1e1e-49af-8936-68c6a8e1345a;["topology_master"];4.25;1533809588.649;4.8;11.68;0.002154856;9;117
35;paravance-30.rennes.grid5000.fr;thermos-root-devel-WordCountTopology-1-26b5cf39-417b-48d7-8a01-b6d315dacd69;["container_1_Consume_and_count_1"];4.25;1533809598.86576;206.44;1190.9;3.071227045;10;151
35;paravance-37.rennes.grid5000.fr;thermos-root-devel-WordCountTopology-0-c1751a38-1e1e-49af-8936-68c6a8e1345a;["topology_master"];4.25;1533809598.86497;4.9;11.82;0.002154856;9;117
35;paravance-8.rennes.grid5000.fr;thermos-root-devel-WordCountTopology-2-b8dc5ba7-e0a8-4cb9-b5e5-a0896f521b0d;["container_2_Emit_random_words_2"];4.25;1533809598.86333;67.86;840.65;2.210102215;10;149
36;paravance-30.rennes.grid5000.fr;thermos-root-devel-WordCountTopology-1-26b5cf39-417b-48d7-8a01-b6d315dacd69;["container_1_Consume_and_count_1"];4.25;1533809609.08114;211.04;1217.46;3.071227045;10;151
36;paravance-8.rennes.grid5000.fr;thermos-root-devel-WordCountTopology-2-b8dc5ba7-e0a8-4cb9-b5e5-a0896f521b0d;["container_2_Emit_random_words_2"];4.25;1533809609.07724;69.35;859.54;2.210102215;10;149
36;paravance-37.rennes.grid5000.fr;thermos-root-devel-WordCountTopology-0-c1751a38-1e1e-49af-8936-68c6a8e1345a;["topology_master"];4.25;1533809609.08121;4.96;11.94;0.002154856;9;117
37;paravance-30.rennes.grid5000.fr;thermos-root-devel-WordCountTopology-1-26b5cf39-417b-48d7-8a01-b6d315dacd69;["container_1_Consume_and_count_1"];4.25;1533809619.29767;216.2;1245.85;3.071227045;10;151
37;paravance-37.rennes.grid5000.fr;thermos-root-devel-WordCountTopology-0-c1751a38-1e1e-49af-8936-68c6a8e1345a;["topology_master"];4.25;1533809619.29596;5.05;12.07;0.002154856;9;117
37;paravance-8.rennes.grid5000.fr;thermos-root-devel-WordCountTopology-2-b8dc5ba7-e0a8-4cb9-b5e5-a0896f521b0d;["container_2_Emit_random_words_2"];4.25;1533809619.29355;70.88;878.53;2.210102215;10;149
38;paravance-37.rennes.grid5000.fr;thermos-root-devel-WordCountTopology-0-c1751a38-1e1e-49af-8936-68c6a8e1345a;["topology_master"];4.25;1533809629.51279;5.08;12.1;0.002154856;9;117
38;paravance-8.rennes.grid5000.fr;thermos-root-devel-WordCountTopology-2-b8dc5ba7-e0a8-4cb9-b5e5-a0896f521b0d;["container_2_Emit_random_words_2"];4.25;1533809629.51139;72.35;897.5;2.210102215;10;149
38;paravance-30.rennes.grid5000.fr;thermos-root-devel-WordCountTopology-1-26b5cf39-417b-48d7-8a01-b6d315dacd69;["container_1_Consume_and_count_1"];4.25;1533809629.5147;220.73;1272.89;3.071227045;10;151
39;paravance-30.rennes.grid5000.fr;thermos-root-devel-WordCountTopology-1-26b5cf39-417b-48d7-8a01-b6d315dacd69;["container_1_Consume_and_count_1"];4.25;1533809639.73204;225.59;1301.32;3.100229559;10;151
39;paravance-8.rennes.grid5000.fr;thermos-root-devel-WordCountTopology-2-b8dc5ba7-e0a8-4cb9-b5e5-a0896f521b0d;["container_2_Emit_random_words_2"];4.25;1533809639.72879;73.87;916.5;2.210102215;10;149
39;paravance-37.rennes.grid5000.fr;thermos-root-devel-WordCountTopology-0-c1751a38-1e1e-49af-8936-68c6a8e1345a;["topology_master"];4.25;1533809639.72984;5.17;12.23;0.002154856;9;117
40;paravance-30.rennes.grid5000.fr;thermos-root-devel-WordCountTopology-1-26b5cf39-417b-48d7-8a01-b6d315dacd69;["container_1_Consume_and_count_1"];4.25;1533809649.94923;230.29;1329.26;3.100229559;10;151
40;paravance-37.rennes.grid5000.fr;thermos-root-devel-WordCountTopology-0-c1751a38-1e1e-49af-8936-68c6a8e1345a;["topology_master"];4.25;1533809649.94729;5.22;12.3;0.002154856;9;117
40;paravance-8.rennes.grid5000.fr;thermos-root-devel-WordCountTopology-2-b8dc5ba7-e0a8-4cb9-b5e5-a0896f521b0d;["container_2_Emit_random_words_2"];4.25;1533809649.94604;75.32;935.24;2.210102215;10;149
41;paravance-8.rennes.grid5000.fr;thermos-root-devel-WordCountTopology-2-b8dc5ba7-e0a8-4cb9-b5e5-a0896f521b0d;["container_2_Emit_random_words_2"];4.25;1533809660.06253;76.74;953.91;2.210102215;10;149
41;paravance-30.rennes.grid5000.fr;thermos-root-devel-WordCountTopology-1-26b5cf39-417b-48d7-8a01-b6d315dacd69;["container_1_Consume_and_count_1"];4.25;1533809660.16603;234.98;1356.44;3.100229559;10;151
41;paravance-37.rennes.grid5000.fr;thermos-root-devel-WordCountTopology-0-c1751a38-1e1e-49af-8936-68c6a8e1345a;["topology_master"];4.25;1533809660.16412;5.29;12.39;0.002154856;9;117
42;paravance-30.rennes.grid5000.fr;thermos-root-devel-WordCountTopology-1-26b5cf39-417b-48d7-8a01-b6d315dacd69;["container_1_Consume_and_count_1"];4.25;1533809670.38026;239.6;1384.37;3.100272726;10;151
42;paravance-37.rennes.grid5000.fr;thermos-root-devel-WordCountTopology-0-c1751a38-1e1e-49af-8936-68c6a8e1345a;["topology_master"];4.25;1533809670.37943;5.36;12.53;0.002154856;9;117
42;paravance-8.rennes.grid5000.fr;thermos-root-devel-WordCountTopology-2-b8dc5ba7-e0a8-4cb9-b5e5-a0896f521b0d;["container_2_Emit_random_words_2"];4.25;1533809670.37777;78.24;973.13;2.210102215;10;149
43;paravance-37.rennes.grid5000.fr;thermos-root-devel-WordCountTopology-0-c1751a38-1e1e-49af-8936-68c6a8e1345a;["topology_master"];4.25;1533809680.59588;5.45;12.66;0.002154856;9;117
43;paravance-30.rennes.grid5000.fr;thermos-root-devel-WordCountTopology-1-26b5cf39-417b-48d7-8a01-b6d315dacd69;["container_1_Consume_and_count_1"];4.25;1533809680.59837;244.17;1412.56;3.100272726;10;151
43;paravance-8.rennes.grid5000.fr;thermos-root-devel-WordCountTopology-2-b8dc5ba7-e0a8-4cb9-b5e5-a0896f521b0d;["container_2_Emit_random_words_2"];4.25;1533809680.59443;79.75;992.0;2.210102215;10;149
44;paravance-30.rennes.grid5000.fr;thermos-root-devel-WordCountTopology-1-26b5cf39-417b-48d7-8a01-b6d315dacd69;["container_1_Consume_and_count_1"];4.25;1533809690.8128;248.85;1440.39;3.103980818;10;151
44;paravance-8.rennes.grid5000.fr;thermos-root-devel-WordCountTopology-2-b8dc5ba7-e0a8-4cb9-b5e5-a0896f521b0d;["container_2_Emit_random_words_2"];4.25;1533809690.81059;81.23;1010.64;2.210102215;10;149
44;paravance-37.rennes.grid5000.fr;thermos-root-devel-WordCountTopology-0-c1751a38-1e1e-49af-8936-68c6a8e1345a;["topology_master"];4.25;1533809690.81348;5.47;12.69;0.002154856;9;117
45;paravance-8.rennes.grid5000.fr;thermos-root-devel-WordCountTopology-2-b8dc5ba7-e0a8-4cb9-b5e5-a0896f521b0d;["container_2_Emit_random_words_2"];4.25;1533809701.02776;82.81;1029.63;2.210102215;10;149
45;paravance-30.rennes.grid5000.fr;thermos-root-devel-WordCountTopology-1-26b5cf39-417b-48d7-8a01-b6d315dacd69;["container_1_Consume_and_count_1"];4.25;1533809701.03112;253.88;1468.53;3.103980818;10;151
45;paravance-37.rennes.grid5000.fr;thermos-root-devel-WordCountTopology-0-c1751a38-1e1e-49af-8936-68c6a8e1345a;["topology_master"];4.25;1533809701.03093;5.56;12.82;0.002154856;9;117
46;paravance-30.rennes.grid5000.fr;thermos-root-devel-WordCountTopology-1-26b5cf39-417b-48d7-8a01-b6d315dacd69;["container_1_Consume_and_count_1"];4.25;1533809711.24686;258.51;1495.16;3.103980818;10;151
46;paravance-8.rennes.grid5000.fr;thermos-root-devel-WordCountTopology-2-b8dc5ba7-e0a8-4cb9-b5e5-a0896f521b0d;["container_2_Emit_random_words_2"];4.25;1533809711.24467;84.24;1048.44;2.210102215;10;149
46;paravance-37.rennes.grid5000.fr;thermos-root-devel-WordCountTopology-0-c1751a38-1e1e-49af-8936-68c6a8e1345a;["topology_master"];4.25;1533809711.24655;5.62;12.89;0.002154856;9;117
47;paravance-30.rennes.grid5000.fr;thermos-root-devel-WordCountTopology-1-26b5cf39-417b-48d7-8a01-b6d315dacd69;["container_1_Consume_and_count_1"];4.25;1533809721.4648;263.26;1521.95;3.103995643;10;151
47;paravance-8.rennes.grid5000.fr;thermos-root-devel-WordCountTopology-2-b8dc5ba7-e0a8-4cb9-b5e5-a0896f521b0d;["container_2_Emit_random_words_2"];4.25;1533809721.46176;85.72;1067.21;2.210102215;10;149
47;paravance-37.rennes.grid5000.fr;thermos-root-devel-WordCountTopology-0-c1751a38-1e1e-49af-8936-68c6a8e1345a;["topology_master"];4.25;1533809721.46483;5.69;12.98;0.002154856;9;117
48;paravance-30.rennes.grid5000.fr;thermos-root-devel-WordCountTopology-1-26b5cf39-417b-48d7-8a01-b6d315dacd69;["container_1_Consume_and_count_1"];4.25;1533809731.68076;268.09;1549.42;3.103995643;10;151
48;paravance-37.rennes.grid5000.fr;thermos-root-devel-WordCountTopology-0-c1751a38-1e1e-49af-8936-68c6a8e1345a;["topology_master"];4.25;1533809731.67998;5.76;13.1;0.002154856;9;117
48;paravance-8.rennes.grid5000.fr;thermos-root-devel-WordCountTopology-2-b8dc5ba7-e0a8-4cb9-b5e5-a0896f521b0d;["container_2_Emit_random_words_2"];4.25;1533809731.67894;87.21;1086.18;2.210102215;10;149
49;paravance-30.rennes.grid5000.fr;thermos-root-devel-WordCountTopology-1-26b5cf39-417b-48d7-8a01-b6d315dacd69;["container_1_Consume_and_count_1"];4.25;1533809741.89751;272.91;1576.81;3.103995643;10;151
49;paravance-37.rennes.grid5000.fr;thermos-root-devel-WordCountTopology-0-c1751a38-1e1e-49af-8936-68c6a8e1345a;["topology_master"];4.25;1533809741.89571;5.85;13.23;0.002154856;9;117
49;paravance-8.rennes.grid5000.fr;thermos-root-devel-WordCountTopology-2-b8dc5ba7-e0a8-4cb9-b5e5-a0896f521b0d;["container_2_Emit_random_words_2"];4.25;1533809741.89455;88.73;1105.27;2.210102215;10;149
50;paravance-30.rennes.grid5000.fr;thermos-root-devel-WordCountTopology-1-26b5cf39-417b-48d7-8a01-b6d315dacd69;["container_1_Consume_and_count_1"];4.25;1533809752.11068;277.44;1602.95;3.103995643;10;151
50;paravance-37.rennes.grid5000.fr;thermos-root-devel-WordCountTopology-0-c1751a38-1e1e-49af-8936-68c6a8e1345a;["topology_master"];4.25;1533809752.11059;5.87;13.26;0.002154856;9;117
50;paravance-8.rennes.grid5000.fr;thermos-root-devel-WordCountTopology-2-b8dc5ba7-e0a8-4cb9-b5e5-a0896f521b0d;["container_2_Emit_random_words_2"];4.25;1533809752.10881;90.12;1123.91;2.210102215;10;149
51;paravance-30.rennes.grid5000.fr;thermos-root-devel-WordCountTopology-1-26b5cf39-417b-48d7-8a01-b6d315dacd69;["container_1_Consume_and_count_1"];4.25;1533809762.32517;282.49;1629.88;3.103995643;10;151
51;paravance-8.rennes.grid5000.fr;thermos-root-devel-WordCountTopology-2-b8dc5ba7-e0a8-4cb9-b5e5-a0896f521b0d;["container_2_Emit_random_words_2"];4.25;1533809762.32263;91.58;1142.49;2.210102215;10;149
51;paravance-37.rennes.grid5000.fr;thermos-root-devel-WordCountTopology-0-c1751a38-1e1e-49af-8936-68c6a8e1345a;["topology_master"];4.25;1533809762.3257;5.96;13.4;0.002154856;9;117
52;paravance-8.rennes.grid5000.fr;thermos-root-devel-WordCountTopology-2-b8dc5ba7-e0a8-4cb9-b5e5-a0896f521b0d;["container_2_Emit_random_words_2"];4.25;1533809772.53953;92.97;1161.07;2.210102215;10;149
52;paravance-30.rennes.grid5000.fr;thermos-root-devel-WordCountTopology-1-26b5cf39-417b-48d7-8a01-b6d315dacd69;["container_1_Consume_and_count_1"];4.25;1533809772.54266;287.05;1656.6;3.103995643;10;151
52;paravance-37.rennes.grid5000.fr;thermos-root-devel-WordCountTopology-0-c1751a38-1e1e-49af-8936-68c6a8e1345a;["topology_master"];4.25;1533809772.54196;6.02;13.47;0.002154856;9;117
53;paravance-30.rennes.grid5000.fr;thermos-root-devel-WordCountTopology-1-26b5cf39-417b-48d7-8a01-b6d315dacd69;["container_1_Consume_and_count_1"];4.25;1533809782.75869;291.64;1685.39;3.140091181;10;151
53;paravance-8.rennes.grid5000.fr;thermos-root-devel-WordCountTopology-2-b8dc5ba7-e0a8-4cb9-b5e5-a0896f521b0d;["container_2_Emit_random_words_2"];4.25;1533809782.75441;94.4;1179.88;2.210102215;10;149
53;paravance-37.rennes.grid5000.fr;thermos-root-devel-WordCountTopology-0-c1751a38-1e1e-49af-8936-68c6a8e1345a;["topology_master"];4.25;1533809782.75672;6.1;13.59;0.002154856;9;117
54;paravance-30.rennes.grid5000.fr;thermos-root-devel-WordCountTopology-1-26b5cf39-417b-48d7-8a01-b6d315dacd69;["container_1_Consume_and_count_1"];4.25;1533809792.9725;296.74;1713.26;3.140091181;10;151
54;paravance-8.rennes.grid5000.fr;thermos-root-devel-WordCountTopology-2-b8dc5ba7-e0a8-4cb9-b5e5-a0896f521b0d;["container_2_Emit_random_words_2"];4.25;1533809792.96929;95.83;1198.55;2.210102215;10;149
54;paravance-37.rennes.grid5000.fr;thermos-root-devel-WordCountTopology-0-c1751a38-1e1e-49af-8936-68c6a8e1345a;["topology_master"];4.25;1533809792.97128;6.16;13.67;0.002154856;9;117
55;paravance-30.rennes.grid5000.fr;thermos-root-devel-WordCountTopology-1-26b5cf39-417b-48d7-8a01-b6d315dacd69;["container_1_Consume_and_count_1"];4.25;1533809803.19195;301.65;1739.62;3.140091181;10;151
55;paravance-37.rennes.grid5000.fr;thermos-root-devel-WordCountTopology-0-c1751a38-1e1e-49af-8936-68c6a8e1345a;["topology_master"];4.25;1533809803.18946;6.25;13.79;0.002154856;9;117
55;paravance-8.rennes.grid5000.fr;thermos-root-devel-WordCountTopology-2-b8dc5ba7-e0a8-4cb9-b5e5-a0896f521b0d;["container_2_Emit_random_words_2"];4.25;1533809803.18795;97.32;1217.49;2.210102215;10;149
56;paravance-8.rennes.grid5000.fr;thermos-root-devel-WordCountTopology-2-b8dc5ba7-e0a8-4cb9-b5e5-a0896f521b0d;["container_2_Emit_random_words_2"];4.25;1533809813.40428;98.75;1236.42;2.210102215;10;149
56;paravance-30.rennes.grid5000.fr;thermos-root-devel-WordCountTopology-1-26b5cf39-417b-48d7-8a01-b6d315dacd69;["container_1_Consume_and_count_1"];4.25;1533809813.40719;306.13;1766.19;3.140091181;10;151
56;paravance-37.rennes.grid5000.fr;thermos-root-devel-WordCountTopology-0-c1751a38-1e1e-49af-8936-68c6a8e1345a;["topology_master"];4.25;1533809813.40684;6.28;13.82;0.002154856;9;117
57;paravance-8.rennes.grid5000.fr;thermos-root-devel-WordCountTopology-2-b8dc5ba7-e0a8-4cb9-b5e5-a0896f521b0d;["container_2_Emit_random_words_2"];4.25;1533809823.62079;100.2;1255.61;2.210102215;10;149
57;paravance-30.rennes.grid5000.fr;thermos-root-devel-WordCountTopology-1-26b5cf39-417b-48d7-8a01-b6d315dacd69;["container_1_Consume_and_count_1"];4.25;1533809823.62495;310.84;1792.31;3.140091181;10;151
57;paravance-37.rennes.grid5000.fr;thermos-root-devel-WordCountTopology-0-c1751a38-1e1e-49af-8936-68c6a8e1345a;["topology_master"];4.25;1533809823.62269;6.37;13.95;0.002154856;9;117
58;paravance-30.rennes.grid5000.fr;thermos-root-devel-WordCountTopology-1-26b5cf39-417b-48d7-8a01-b6d315dacd69;["container_1_Consume_and_count_1"];4.25;1533809833.84077;315.34;1817.99;3.140091181;10;151
58;paravance-37.rennes.grid5000.fr;thermos-root-devel-WordCountTopology-0-c1751a38-1e1e-49af-8936-68c6a8e1345a;["topology_master"];4.25;1533809833.83978;6.43;14.03;0.002154856;9;117
58;paravance-8.rennes.grid5000.fr;thermos-root-devel-WordCountTopology-2-b8dc5ba7-e0a8-4cb9-b5e5-a0896f521b0d;["container_2_Emit_random_words_2"];4.25;1533809833.83871;101.64;1274.88;2.210102215;10;149
59;paravance-37.rennes.grid5000.fr;thermos-root-devel-WordCountTopology-0-c1751a38-1e1e-49af-8936-68c6a8e1345a;["topology_master"];4.25;1533809844.05555;6.5;14.14;0.002154856;9;117
59;paravance-8.rennes.grid5000.fr;thermos-root-devel-WordCountTopology-2-b8dc5ba7-e0a8-4cb9-b5e5-a0896f521b0d;["container_2_Emit_random_words_2"];4.25;1533809844.05379;103.11;1293.87;2.210102215;10;149
59;paravance-30.rennes.grid5000.fr;thermos-root-devel-WordCountTopology-1-26b5cf39-417b-48d7-8a01-b6d315dacd69;["container_1_Consume_and_count_1"];4.25;1533809844.05743;320.01;1844.24;3.140147651;10;151
60;paravance-30.rennes.grid5000.fr;thermos-root-devel-WordCountTopology-1-26b5cf39-417b-48d7-8a01-b6d315dacd69;["container_1_Consume_and_count_1"];4.25;1533809854.27249;324.48;1870.03;3.140147651;10;151
60;paravance-8.rennes.grid5000.fr;thermos-root-devel-WordCountTopology-2-b8dc5ba7-e0a8-4cb9-b5e5-a0896f521b0d;["container_2_Emit_random_words_2"];4.25;1533809854.27006;104.58;1312.8;2.210102215;10;149
60;paravance-37.rennes.grid5000.fr;thermos-root-devel-WordCountTopology-0-c1751a38-1e1e-49af-8936-68c6a8e1345a;["topology_master"];4.25;1533809854.27209;6.56;14.21;0.002154856;9;117
