{
  "status": "success",
  "executiontime": 0.0001888275146484375,
  "message": "",
  "result": {
    "bolts": {
      "Consume_and_count": [
        "container_1_Consume_and_count_1"
      ]
    },
    "instances": {
      "container_2_Emit_random_words_2": {
        "stmgrId": "stmgr-2",
        "logfile": "http://paravance-68.rennes.grid5000.fr:31872/file/log-files/container_2_Emit_random_words_2.log.0",
        "id": "container_2_Emit_random_words_2",
        "name": "Emit_random_words"
      },
      "container_1_Consume_and_count_1": {
        "stmgrId": "stmgr-1",
        "logfile": "http://paravance-67.rennes.grid5000.fr:31141/file/log-files/container_1_Consume_and_count_1.log.0",
        "id": "container_1_Consume_and_count_1",
        "name": "Consume_and_count"
      }
    },
    "instance_groups": {
      "container_1_Consume_and": [
        "container_1_Consume_and_count_1"
      ],
      "container_2_Emit_random": [
        "container_2_Emit_random_words_2"
      ]
    },
    "spouts": {
      "Emit_random_words": [
        "container_2_Emit_random_words_2"
      ]
    },
    "config": {
      "topology.message.timeout.secs": "30",
      "topology.team.environment": "devel",
      "topology.serializer.classname": "org.apache.heron.streamlet.impl.KryoSerializer",
      "topology.team.name": "root",
      "topology.debug": "false",
      "topology.max.spout.pending": "100",
      "topology.container.padding.percentage": "400",
      "topology.enable.message.timeouts": "true",
      "topology.component.parallelism": "1",
      "topology.name": "WordCountTopology",
      "topology.stmgrs": "2",
      "topology.reliability.mode": "ATMOST_ONCE"
    },
    "stmgrs": {
      "stmgr-1": {
        "cwd": "/var/lib/mesos/slaves/3832f2a3-5dfa-423a-8d87-73c4230f5f21-S0/frameworks/75deb08a-eb1b-415c-8b2c-e922be5f7d98-0000/executors/thermos-root-devel-WordCountTopology-1-19a28265-7ea5-4ae2-9bf7-97245a4e3bc6/runs/54e2aaff-02ab-42ff-a837-0e190c90d8ff/sandbox",
        "host": "paravance-67.rennes.grid5000.fr",
        "joburl": "http://paravance-67.rennes.grid5000.fr:31141/browse/",
        "shell_port": 31141,
        "logfiles": "http://paravance-67.rennes.grid5000.fr:31141/browse/log-files",
        "pid": 2853,
        "id": "stmgr-1",
        "instance_ids": [
          "container_1_Consume_and_count_1"
        ],
        "port": 31177
      },
      "stmgr-2": {
        "cwd": "/var/lib/mesos/slaves/3832f2a3-5dfa-423a-8d87-73c4230f5f21-S1/frameworks/75deb08a-eb1b-415c-8b2c-e922be5f7d98-0000/executors/thermos-root-devel-WordCountTopology-2-a3b00226-50e4-4a5b-9d83-84e1209b5db2/runs/fef21f93-a07c-4f10-a444-cf0f6e85c66c/sandbox",
        "host": "paravance-68.rennes.grid5000.fr",
        "joburl": "http://paravance-68.rennes.grid5000.fr:31872/browse/",
        "shell_port": 31872,
        "logfiles": "http://paravance-68.rennes.grid5000.fr:31872/browse/log-files",
        "pid": 2852,
        "id": "stmgr-2",
        "instance_ids": [
          "container_2_Emit_random_words_2"
        ],
        "port": 31041
      }
    }
  },
  "tracker_version": "0.17.8-61-gd7c8c62"
}