mesure_id;slave_id;executor_id;heron_instances;cpus_limit;timestamp_B;cpus_system_time_secs_B;cpus_user_time_secs_B;cpus_throttled_time_secs_B;processes;threads
0;paravance-31.rennes.grid5000.fr;thermos-root-devel-WordCountTopology-2-5e038408-92ea-4685-8e8d-9d2a472acfe6;["container_2_Emit_random_words_2"];1.25;1532990933.04017;23.02;86.34;110.168999151;10;149
0;paravance-32.rennes.grid5000.fr;thermos-root-devel-WordCountTopology-1-0cbe4cf5-94ac-4d2a-a1aa-51401b0ac367;["container_1_Consume_and_count_1"];1.25;1532990933.16114;31.9;103.75;308.362873488;10;152
0;paravance-34.rennes.grid5000.fr;thermos-root-devel-WordCountTopology-0-0dc97528-c0d8-41e4-994f-f660bc73aae9;["topology_master"];1.25;1532990933.14501;2.48;8.49;5.148756692;9;117
1;paravance-34.rennes.grid5000.fr;thermos-root-devel-WordCountTopology-0-0dc97528-c0d8-41e4-994f-f660bc73aae9;["topology_master"];1.25;1532990943.26666;2.57;8.62;5.148756692;9;117
1;paravance-32.rennes.grid5000.fr;thermos-root-devel-WordCountTopology-1-0cbe4cf5-94ac-4d2a-a1aa-51401b0ac367;["container_1_Consume_and_count_1"];1.25;1532990943.28265;34.84;112.55;334.994549598;10;151
1;paravance-31.rennes.grid5000.fr;thermos-root-devel-WordCountTopology-2-5e038408-92ea-4685-8e8d-9d2a472acfe6;["container_2_Emit_random_words_2"];1.25;1532990943.26091;24.78;92.85;116.540619312;10;149
2;paravance-31.rennes.grid5000.fr;thermos-root-devel-WordCountTopology-2-5e038408-92ea-4685-8e8d-9d2a472acfe6;["container_2_Emit_random_words_2"];1.25;1532990953.48004;26.6;99.55;122.992032069;10;149
2;paravance-34.rennes.grid5000.fr;thermos-root-devel-WordCountTopology-0-0dc97528-c0d8-41e4-994f-f660bc73aae9;["topology_master"];1.25;1532990953.58641;2.6;8.66;5.148756692;9;117
2;paravance-32.rennes.grid5000.fr;thermos-root-devel-WordCountTopology-1-0cbe4cf5-94ac-4d2a-a1aa-51401b0ac367;["container_1_Consume_and_count_1"];1.25;1532990953.60426;37.86;121.6;362.43849704;10;151
3;paravance-34.rennes.grid5000.fr;thermos-root-devel-WordCountTopology-0-0dc97528-c0d8-41e4-994f-f660bc73aae9;["topology_master"];1.25;1532990963.80845;2.69;8.78;5.148756692;9;117
3;paravance-31.rennes.grid5000.fr;thermos-root-devel-WordCountTopology-2-5e038408-92ea-4685-8e8d-9d2a472acfe6;["container_2_Emit_random_words_2"];1.25;1532990963.7042;28.53;106.1;130.27029772;10;149
3;paravance-32.rennes.grid5000.fr;thermos-root-devel-WordCountTopology-1-0cbe4cf5-94ac-4d2a-a1aa-51401b0ac367;["container_1_Consume_and_count_1"];1.25;1532990963.82646;40.83;130.5;390.171397353;10;151
4;paravance-34.rennes.grid5000.fr;thermos-root-devel-WordCountTopology-0-0dc97528-c0d8-41e4-994f-f660bc73aae9;["topology_master"];1.25;1532990974.02964;2.75;8.86;5.148756692;9;117
4;paravance-31.rennes.grid5000.fr;thermos-root-devel-WordCountTopology-2-5e038408-92ea-4685-8e8d-9d2a472acfe6;["container_2_Emit_random_words_2"];1.25;1532990973.92651;30.57;113.58;137.905250221;10;149
4;paravance-32.rennes.grid5000.fr;thermos-root-devel-WordCountTopology-1-0cbe4cf5-94ac-4d2a-a1aa-51401b0ac367;["container_1_Consume_and_count_1"];1.25;1532990974.04924;43.78;139.52;416.171923556;10;151
5;paravance-32.rennes.grid5000.fr;thermos-root-devel-WordCountTopology-1-0cbe4cf5-94ac-4d2a-a1aa-51401b0ac367;["container_1_Consume_and_count_1"];1.25;1532990984.26747;46.7;148.58;444.00747502;10;152
5;paravance-34.rennes.grid5000.fr;thermos-root-devel-WordCountTopology-0-0dc97528-c0d8-41e4-994f-f660bc73aae9;["topology_master"];1.25;1532990984.25224;2.84;8.95;5.148756692;9;117
5;paravance-31.rennes.grid5000.fr;thermos-root-devel-WordCountTopology-2-5e038408-92ea-4685-8e8d-9d2a472acfe6;["container_2_Emit_random_words_2"];1.25;1532990984.14913;32.35;120.28;143.975327948;10;149
6;paravance-32.rennes.grid5000.fr;thermos-root-devel-WordCountTopology-1-0cbe4cf5-94ac-4d2a-a1aa-51401b0ac367;["container_1_Consume_and_count_1"];1.25;1532990994.48626;49.48;157.45;469.870051836;10;152
6;paravance-34.rennes.grid5000.fr;thermos-root-devel-WordCountTopology-0-0dc97528-c0d8-41e4-994f-f660bc73aae9;["topology_master"];1.25;1532990994.47316;2.9;9.11;5.148756692;9;117
6;paravance-31.rennes.grid5000.fr;thermos-root-devel-WordCountTopology-2-5e038408-92ea-4685-8e8d-9d2a472acfe6;["container_2_Emit_random_words_2"];1.25;1532990994.3684;34.3;127.57;153.176358181;10;149
7;paravance-34.rennes.grid5000.fr;thermos-root-devel-WordCountTopology-0-0dc97528-c0d8-41e4-994f-f660bc73aae9;["topology_master"];1.25;1532991004.69124;2.98;9.25;5.148756692;9;117
7;paravance-31.rennes.grid5000.fr;thermos-root-devel-WordCountTopology-2-5e038408-92ea-4685-8e8d-9d2a472acfe6;["container_2_Emit_random_words_2"];1.25;1532991004.58693;36.55;134.87;162.558308236;10;149
7;paravance-32.rennes.grid5000.fr;thermos-root-devel-WordCountTopology-1-0cbe4cf5-94ac-4d2a-a1aa-51401b0ac367;["container_1_Consume_and_count_1"];1.25;1532991004.70891;52.25;166.4;496.398749007;10;151
8;paravance-32.rennes.grid5000.fr;thermos-root-devel-WordCountTopology-1-0cbe4cf5-94ac-4d2a-a1aa-51401b0ac367;["container_1_Consume_and_count_1"];1.25;1532991014.9288;55.04;175.42;524.296213085;10;151
8;paravance-34.rennes.grid5000.fr;thermos-root-devel-WordCountTopology-0-0dc97528-c0d8-41e4-994f-f660bc73aae9;["topology_master"];1.25;1532991014.91483;3.01;9.27;5.148756692;9;117
8;paravance-31.rennes.grid5000.fr;thermos-root-devel-WordCountTopology-2-5e038408-92ea-4685-8e8d-9d2a472acfe6;["container_2_Emit_random_words_2"];1.25;1532991014.80973;38.38;141.63;169.219189015;10;149
9;paravance-34.rennes.grid5000.fr;thermos-root-devel-WordCountTopology-0-0dc97528-c0d8-41e4-994f-f660bc73aae9;["topology_master"];1.25;1532991025.13507;3.1;9.4;5.148756692;9;117
9;paravance-31.rennes.grid5000.fr;thermos-root-devel-WordCountTopology-2-5e038408-92ea-4685-8e8d-9d2a472acfe6;["container_2_Emit_random_words_2"];1.25;1532991025.03012;40.25;148.44;176.114910106;10;149
9;paravance-32.rennes.grid5000.fr;thermos-root-devel-WordCountTopology-1-0cbe4cf5-94ac-4d2a-a1aa-51401b0ac367;["container_1_Consume_and_count_1"];1.25;1532991025.15259;57.95;184.4;552.785906852;10;151
10;paravance-32.rennes.grid5000.fr;thermos-root-devel-WordCountTopology-1-0cbe4cf5-94ac-4d2a-a1aa-51401b0ac367;["container_1_Consume_and_count_1"];1.25;1532991035.37119;60.89;193.29;578.519853078;10;151
10;paravance-31.rennes.grid5000.fr;thermos-root-devel-WordCountTopology-2-5e038408-92ea-4685-8e8d-9d2a472acfe6;["container_2_Emit_random_words_2"];1.25;1532991035.25165;42.03;155.14;182.24675383;10;149
10;paravance-34.rennes.grid5000.fr;thermos-root-devel-WordCountTopology-0-0dc97528-c0d8-41e4-994f-f660bc73aae9;["topology_master"];1.25;1532991035.35714;3.15;9.47;5.148756692;9;117
11;paravance-34.rennes.grid5000.fr;thermos-root-devel-WordCountTopology-0-0dc97528-c0d8-41e4-994f-f660bc73aae9;["topology_master"];1.25;1532991045.57537;3.28;9.67;5.148756692;9;117
11;paravance-31.rennes.grid5000.fr;thermos-root-devel-WordCountTopology-2-5e038408-92ea-4685-8e8d-9d2a472acfe6;["container_2_Emit_random_words_2"];1.25;1532991045.47285;43.84;161.95;189.497594838;10;149
11;paravance-32.rennes.grid5000.fr;thermos-root-devel-WordCountTopology-1-0cbe4cf5-94ac-4d2a-a1aa-51401b0ac367;["container_1_Consume_and_count_1"];1.25;1532991045.59361;63.79;202.18;603.872718273;10;151
12;paravance-34.rennes.grid5000.fr;thermos-root-devel-WordCountTopology-0-0dc97528-c0d8-41e4-994f-f660bc73aae9;["topology_master"];1.25;1532991055.79813;3.31;9.72;5.148756692;9;117
12;paravance-32.rennes.grid5000.fr;thermos-root-devel-WordCountTopology-1-0cbe4cf5-94ac-4d2a-a1aa-51401b0ac367;["container_1_Consume_and_count_1"];1.25;1532991055.81553;66.62;211.24;629.223855607;10;151
12;paravance-31.rennes.grid5000.fr;thermos-root-devel-WordCountTopology-2-5e038408-92ea-4685-8e8d-9d2a472acfe6;["container_2_Emit_random_words_2"];1.25;1532991055.69445;45.66;168.81;196.726125241;10;149
13;paravance-31.rennes.grid5000.fr;thermos-root-devel-WordCountTopology-2-5e038408-92ea-4685-8e8d-9d2a472acfe6;["container_2_Emit_random_words_2"];1.25;1532991065.91344;47.42;175.26;203.650779456;10;149
13;paravance-32.rennes.grid5000.fr;thermos-root-devel-WordCountTopology-1-0cbe4cf5-94ac-4d2a-a1aa-51401b0ac367;["container_1_Consume_and_count_1"];1.25;1532991066.03509;69.33;220.36;657.216478675;10;151
13;paravance-34.rennes.grid5000.fr;thermos-root-devel-WordCountTopology-0-0dc97528-c0d8-41e4-994f-f660bc73aae9;["topology_master"];1.25;1532991066.0199;3.4;9.87;5.148756692;9;117
14;paravance-34.rennes.grid5000.fr;thermos-root-devel-WordCountTopology-0-0dc97528-c0d8-41e4-994f-f660bc73aae9;["topology_master"];1.25;1532991076.23746;3.46;9.94;5.148756692;9;117
14;paravance-31.rennes.grid5000.fr;thermos-root-devel-WordCountTopology-2-5e038408-92ea-4685-8e8d-9d2a472acfe6;["container_2_Emit_random_words_2"];1.25;1532991076.13308;49.24;182.19;210.832937873;10;149
14;paravance-32.rennes.grid5000.fr;thermos-root-devel-WordCountTopology-1-0cbe4cf5-94ac-4d2a-a1aa-51401b0ac367;["container_1_Consume_and_count_1"];1.25;1532991076.25526;72.06;229.49;683.039373339;10;151
15;paravance-32.rennes.grid5000.fr;thermos-root-devel-WordCountTopology-1-0cbe4cf5-94ac-4d2a-a1aa-51401b0ac367;["container_1_Consume_and_count_1"];1.25;1532991086.47029;74.8;238.63;711.843562529;10;151
15;paravance-31.rennes.grid5000.fr;thermos-root-devel-WordCountTopology-2-5e038408-92ea-4685-8e8d-9d2a472acfe6;["container_2_Emit_random_words_2"];1.25;1532991086.35143;51.13;189.13;217.85874066;10;149
15;paravance-34.rennes.grid5000.fr;thermos-root-devel-WordCountTopology-0-0dc97528-c0d8-41e4-994f-f660bc73aae9;["topology_master"];1.25;1532991086.45713;3.51;10.02;5.148756692;9;117
16;paravance-32.rennes.grid5000.fr;thermos-root-devel-WordCountTopology-1-0cbe4cf5-94ac-4d2a-a1aa-51401b0ac367;["container_1_Consume_and_count_1"];1.25;1532991096.69155;77.49;247.89;737.665364072;10;151
16;paravance-31.rennes.grid5000.fr;thermos-root-devel-WordCountTopology-2-5e038408-92ea-4685-8e8d-9d2a472acfe6;["container_2_Emit_random_words_2"];1.25;1532991096.5714;52.8;195.22;223.539333782;10;149
16;paravance-34.rennes.grid5000.fr;thermos-root-devel-WordCountTopology-0-0dc97528-c0d8-41e4-994f-f660bc73aae9;["topology_master"];1.25;1532991096.67647;3.57;10.09;5.148756692;9;117
17;paravance-32.rennes.grid5000.fr;thermos-root-devel-WordCountTopology-1-0cbe4cf5-94ac-4d2a-a1aa-51401b0ac367;["container_1_Consume_and_count_1"];1.25;1532991106.90852;80.12;257.09;767.067452972;10;151
17;paravance-34.rennes.grid5000.fr;thermos-root-devel-WordCountTopology-0-0dc97528-c0d8-41e4-994f-f660bc73aae9;["topology_master"];1.25;1532991106.89361;3.69;10.35;5.176857375;9;117
17;paravance-31.rennes.grid5000.fr;thermos-root-devel-WordCountTopology-2-5e038408-92ea-4685-8e8d-9d2a472acfe6;["container_2_Emit_random_words_2"];1.25;1532991106.79088;54.48;201.31;231.005511412;10;149
18;paravance-34.rennes.grid5000.fr;thermos-root-devel-WordCountTopology-0-0dc97528-c0d8-41e4-994f-f660bc73aae9;["topology_master"];1.25;1532991117.11395;3.72;10.41;5.176857375;9;117
18;paravance-32.rennes.grid5000.fr;thermos-root-devel-WordCountTopology-1-0cbe4cf5-94ac-4d2a-a1aa-51401b0ac367;["container_1_Consume_and_count_1"];1.25;1532991117.12926;82.73;266.27;793.157509803;10;151
18;paravance-31.rennes.grid5000.fr;thermos-root-devel-WordCountTopology-2-5e038408-92ea-4685-8e8d-9d2a472acfe6;["container_2_Emit_random_words_2"];1.25;1532991117.01059;56.21;207.75;237.946196314;10;149
19;paravance-34.rennes.grid5000.fr;thermos-root-devel-WordCountTopology-0-0dc97528-c0d8-41e4-994f-f660bc73aae9;["topology_master"];1.25;1532991127.33358;3.81;10.54;5.176857375;9;117
19;paravance-32.rennes.grid5000.fr;thermos-root-devel-WordCountTopology-1-0cbe4cf5-94ac-4d2a-a1aa-51401b0ac367;["container_1_Consume_and_count_1"];1.25;1532991127.3492;85.51;275.49;821.261146025;10;151
19;paravance-31.rennes.grid5000.fr;thermos-root-devel-WordCountTopology-2-5e038408-92ea-4685-8e8d-9d2a472acfe6;["container_2_Emit_random_words_2"];1.25;1532991127.23064;58.21;215.08;245.346931738;10;149
20;paravance-32.rennes.grid5000.fr;thermos-root-devel-WordCountTopology-1-0cbe4cf5-94ac-4d2a-a1aa-51401b0ac367;["container_1_Consume_and_count_1"];1.25;1532991137.56983;88.27;284.72;844.810148516;10;151
20;paravance-34.rennes.grid5000.fr;thermos-root-devel-WordCountTopology-0-0dc97528-c0d8-41e4-994f-f660bc73aae9;["topology_master"];1.25;1532991137.55453;3.87;10.61;5.176857375;9;117
20;paravance-31.rennes.grid5000.fr;thermos-root-devel-WordCountTopology-2-5e038408-92ea-4685-8e8d-9d2a472acfe6;["container_2_Emit_random_words_2"];1.25;1532991137.45125;60.35;222.8;254.269588392;10;149
21;paravance-32.rennes.grid5000.fr;thermos-root-devel-WordCountTopology-1-0cbe4cf5-94ac-4d2a-a1aa-51401b0ac367;["container_1_Consume_and_count_1"];1.25;1532991147.78856;90.95;293.87;870.261098906;10;151
21;paravance-34.rennes.grid5000.fr;thermos-root-devel-WordCountTopology-0-0dc97528-c0d8-41e4-994f-f660bc73aae9;["topology_master"];1.25;1532991147.77461;3.93;10.68;5.176857375;9;117
21;paravance-31.rennes.grid5000.fr;thermos-root-devel-WordCountTopology-2-5e038408-92ea-4685-8e8d-9d2a472acfe6;["container_2_Emit_random_words_2"];1.25;1532991147.67019;62.18;229.48;260.562699745;10;149
22;paravance-32.rennes.grid5000.fr;thermos-root-devel-WordCountTopology-1-0cbe4cf5-94ac-4d2a-a1aa-51401b0ac367;["container_1_Consume_and_count_1"];1.25;1532991158.00664;93.65;303.05;896.389398762;10;151
22;paravance-31.rennes.grid5000.fr;thermos-root-devel-WordCountTopology-2-5e038408-92ea-4685-8e8d-9d2a472acfe6;["container_2_Emit_random_words_2"];1.25;1532991157.88594;64.03;236.2;266.825199751;10;149
22;paravance-34.rennes.grid5000.fr;thermos-root-devel-WordCountTopology-0-0dc97528-c0d8-41e4-994f-f660bc73aae9;["topology_master"];1.25;1532991157.99244;3.99;10.75;5.176857375;9;117
23;paravance-31.rennes.grid5000.fr;thermos-root-devel-WordCountTopology-2-5e038408-92ea-4685-8e8d-9d2a472acfe6;["container_2_Emit_random_words_2"];1.25;1532991168.10687;66.03;243.76;274.049954289;10;149
23;paravance-34.rennes.grid5000.fr;thermos-root-devel-WordCountTopology-0-0dc97528-c0d8-41e4-994f-f660bc73aae9;["topology_master"];1.25;1532991168.21281;4.1;10.94;5.176857375;9;117
23;paravance-32.rennes.grid5000.fr;thermos-root-devel-WordCountTopology-1-0cbe4cf5-94ac-4d2a-a1aa-51401b0ac367;["container_1_Consume_and_count_1"];1.25;1532991168.22852;96.38;312.18;922.054517809;10;151
24;paravance-34.rennes.grid5000.fr;thermos-root-devel-WordCountTopology-0-0dc97528-c0d8-41e4-994f-f660bc73aae9;["topology_master"];1.25;1532991178.43281;4.13;10.97;5.176857375;9;117
24;paravance-31.rennes.grid5000.fr;thermos-root-devel-WordCountTopology-2-5e038408-92ea-4685-8e8d-9d2a472acfe6;["container_2_Emit_random_words_2"];1.25;1532991178.3292;67.97;250.68;280.704152846;10;149
24;paravance-32.rennes.grid5000.fr;thermos-root-devel-WordCountTopology-1-0cbe4cf5-94ac-4d2a-a1aa-51401b0ac367;["container_1_Consume_and_count_1"];1.25;1532991178.45161;99.13;321.39;946.866949787;10;151
25;paravance-32.rennes.grid5000.fr;thermos-root-devel-WordCountTopology-1-0cbe4cf5-94ac-4d2a-a1aa-51401b0ac367;["container_1_Consume_and_count_1"];1.25;1532991188.67269;101.86;330.49;972.165847024;10;151
25;paravance-31.rennes.grid5000.fr;thermos-root-devel-WordCountTopology-2-5e038408-92ea-4685-8e8d-9d2a472acfe6;["container_2_Emit_random_words_2"];1.25;1532991188.55231;69.89;257.69;287.995322216;10;149
25;paravance-34.rennes.grid5000.fr;thermos-root-devel-WordCountTopology-0-0dc97528-c0d8-41e4-994f-f660bc73aae9;["topology_master"];1.25;1532991188.65732;4.22;11.1;5.176857375;9;117
26;paravance-32.rennes.grid5000.fr;thermos-root-devel-WordCountTopology-1-0cbe4cf5-94ac-4d2a-a1aa-51401b0ac367;["container_1_Consume_and_count_1"];1.25;1532991198.89313;104.59;339.58;997.114998178;10;151
26;paravance-34.rennes.grid5000.fr;thermos-root-devel-WordCountTopology-0-0dc97528-c0d8-41e4-994f-f660bc73aae9;["topology_master"];1.25;1532991198.87785;4.27;11.17;5.176857375;9;117
26;paravance-31.rennes.grid5000.fr;thermos-root-devel-WordCountTopology-2-5e038408-92ea-4685-8e8d-9d2a472acfe6;["container_2_Emit_random_words_2"];1.25;1532991198.77421;71.91;265.38;295.669675411;10;149
27;paravance-31.rennes.grid5000.fr;thermos-root-devel-WordCountTopology-2-5e038408-92ea-4685-8e8d-9d2a472acfe6;["container_2_Emit_random_words_2"];1.25;1532991208.993;73.87;272.82;303.327130606;10;149
27;paravance-34.rennes.grid5000.fr;thermos-root-devel-WordCountTopology-0-0dc97528-c0d8-41e4-994f-f660bc73aae9;["topology_master"];1.25;1532991209.0984;4.33;11.24;5.176857375;9;117
27;paravance-32.rennes.grid5000.fr;thermos-root-devel-WordCountTopology-1-0cbe4cf5-94ac-4d2a-a1aa-51401b0ac367;["container_1_Consume_and_count_1"];1.25;1532991209.11438;107.36;348.73;1021.190930179;10;151
28;paravance-34.rennes.grid5000.fr;thermos-root-devel-WordCountTopology-0-0dc97528-c0d8-41e4-994f-f660bc73aae9;["topology_master"];1.25;1532991219.318;4.38;11.31;5.176857375;9;117
28;paravance-31.rennes.grid5000.fr;thermos-root-devel-WordCountTopology-2-5e038408-92ea-4685-8e8d-9d2a472acfe6;["container_2_Emit_random_words_2"];1.25;1532991219.21463;75.65;279.45;309.542500233;10;149
28;paravance-32.rennes.grid5000.fr;thermos-root-devel-WordCountTopology-1-0cbe4cf5-94ac-4d2a-a1aa-51401b0ac367;["container_1_Consume_and_count_1"];1.25;1532991219.33642;110.06;357.98;1048.477013346;10;151
29;paravance-32.rennes.grid5000.fr;thermos-root-devel-WordCountTopology-1-0cbe4cf5-94ac-4d2a-a1aa-51401b0ac367;["container_1_Consume_and_count_1"];1.25;1532991229.45656;112.76;367.18;1073.930729029;10;152
29;paravance-34.rennes.grid5000.fr;thermos-root-devel-WordCountTopology-0-0dc97528-c0d8-41e4-994f-f660bc73aae9;["topology_master"];1.25;1532991229.54034;4.5;11.49;5.176857375;9;117
29;paravance-31.rennes.grid5000.fr;thermos-root-devel-WordCountTopology-2-5e038408-92ea-4685-8e8d-9d2a472acfe6;["container_2_Emit_random_words_2"];1.25;1532991229.43725;77.55;286.4;316.566923804;10;149
30;paravance-32.rennes.grid5000.fr;thermos-root-devel-WordCountTopology-1-0cbe4cf5-94ac-4d2a-a1aa-51401b0ac367;["container_1_Consume_and_count_1"];1.25;1532991239.77538;115.35;376.56;1103.038944525;10;152
30;paravance-31.rennes.grid5000.fr;thermos-root-devel-WordCountTopology-2-5e038408-92ea-4685-8e8d-9d2a472acfe6;["container_2_Emit_random_words_2"];1.25;1532991239.6559;79.3;292.73;323.003506456;10;149
30;paravance-34.rennes.grid5000.fr;thermos-root-devel-WordCountTopology-0-0dc97528-c0d8-41e4-994f-f660bc73aae9;["topology_master"];1.25;1532991239.76042;4.53;11.52;5.176857375;9;117
31;paravance-32.rennes.grid5000.fr;thermos-root-devel-WordCountTopology-1-0cbe4cf5-94ac-4d2a-a1aa-51401b0ac367;["container_1_Consume_and_count_1"];1.25;1532991249.9955;118.13;385.74;1128.184987258;10;151
31;paravance-34.rennes.grid5000.fr;thermos-root-devel-WordCountTopology-0-0dc97528-c0d8-41e4-994f-f660bc73aae9;["topology_master"];1.25;1532991249.97961;4.61;11.64;5.176857375;9;117
31;paravance-31.rennes.grid5000.fr;thermos-root-devel-WordCountTopology-2-5e038408-92ea-4685-8e8d-9d2a472acfe6;["container_2_Emit_random_words_2"];1.25;1532991249.87837;81.24;299.6;329.633307453;10;149
32;paravance-31.rennes.grid5000.fr;thermos-root-devel-WordCountTopology-2-5e038408-92ea-4685-8e8d-9d2a472acfe6;["container_2_Emit_random_words_2"];1.25;1532991260.09604;83.24;306.77;336.782461584;10;147
32;paravance-34.rennes.grid5000.fr;thermos-root-devel-WordCountTopology-0-0dc97528-c0d8-41e4-994f-f660bc73aae9;["topology_master"];1.25;1532991260.20093;4.7;11.76;5.176857375;9;117
32;paravance-32.rennes.grid5000.fr;thermos-root-devel-WordCountTopology-1-0cbe4cf5-94ac-4d2a-a1aa-51401b0ac367;["container_1_Consume_and_count_1"];1.25;1532991260.21922;120.9;394.92;1152.961109436;10;149
33;paravance-31.rennes.grid5000.fr;thermos-root-devel-WordCountTopology-2-5e038408-92ea-4685-8e8d-9d2a472acfe6;["container_2_Emit_random_words_2"];1.25;1532991270.21798;85.1;313.79;343.499707304;10;149
33;paravance-34.rennes.grid5000.fr;thermos-root-devel-WordCountTopology-0-0dc97528-c0d8-41e4-994f-f660bc73aae9;["topology_master"];1.25;1532991270.42122;4.73;11.79;5.176857375;9;117
33;paravance-32.rennes.grid5000.fr;thermos-root-devel-WordCountTopology-1-0cbe4cf5-94ac-4d2a-a1aa-51401b0ac367;["container_1_Consume_and_count_1"];1.25;1532991270.44063;123.7;403.98;1178.596300585;10;151
34;paravance-32.rennes.grid5000.fr;thermos-root-devel-WordCountTopology-1-0cbe4cf5-94ac-4d2a-a1aa-51401b0ac367;["container_1_Consume_and_count_1"];1.25;1532991280.66161;126.44;413.19;1206.06853802;10;151
34;paravance-34.rennes.grid5000.fr;thermos-root-devel-WordCountTopology-0-0dc97528-c0d8-41e4-994f-f660bc73aae9;["topology_master"];1.25;1532991280.6461;4.83;11.92;5.176857375;9;117
34;paravance-31.rennes.grid5000.fr;thermos-root-devel-WordCountTopology-2-5e038408-92ea-4685-8e8d-9d2a472acfe6;["container_2_Emit_random_words_2"];1.25;1532991280.54255;87.08;321.08;350.766025444;10;149
35;paravance-32.rennes.grid5000.fr;thermos-root-devel-WordCountTopology-1-0cbe4cf5-94ac-4d2a-a1aa-51401b0ac367;["container_1_Consume_and_count_1"];1.25;1532991290.88097;129.09;422.49;1232.05206576;10;151
35;paravance-34.rennes.grid5000.fr;thermos-root-devel-WordCountTopology-0-0dc97528-c0d8-41e4-994f-f660bc73aae9;["topology_master"];1.25;1532991290.8666;4.9;12.08;5.176857375;9;117
35;paravance-31.rennes.grid5000.fr;thermos-root-devel-WordCountTopology-2-5e038408-92ea-4685-8e8d-9d2a472acfe6;["container_2_Emit_random_words_2"];1.25;1532991290.76313;88.97;327.95;357.400505452;10;149
36;paravance-34.rennes.grid5000.fr;thermos-root-devel-WordCountTopology-0-0dc97528-c0d8-41e4-994f-f660bc73aae9;["topology_master"];1.25;1532991301.08595;4.96;12.18;5.176857375;9;117
36;paravance-31.rennes.grid5000.fr;thermos-root-devel-WordCountTopology-2-5e038408-92ea-4685-8e8d-9d2a472acfe6;["container_2_Emit_random_words_2"];1.25;1532991300.98277;90.88;335.12;364.405960433;10;149
36;paravance-32.rennes.grid5000.fr;thermos-root-devel-WordCountTopology-1-0cbe4cf5-94ac-4d2a-a1aa-51401b0ac367;["container_1_Consume_and_count_1"];1.25;1532991301.10411;131.89;431.66;1256.975229526;10;151
37;paravance-32.rennes.grid5000.fr;thermos-root-devel-WordCountTopology-1-0cbe4cf5-94ac-4d2a-a1aa-51401b0ac367;["container_1_Consume_and_count_1"];1.25;1532991311.32163;134.66;440.77;1281.503464947;10;151
37;paravance-31.rennes.grid5000.fr;thermos-root-devel-WordCountTopology-2-5e038408-92ea-4685-8e8d-9d2a472acfe6;["container_2_Emit_random_words_2"];1.25;1532991311.20388;92.74;342.01;371.169001239;10;149
37;paravance-34.rennes.grid5000.fr;thermos-root-devel-WordCountTopology-0-0dc97528-c0d8-41e4-994f-f660bc73aae9;["topology_master"];1.25;1532991311.30783;5.02;12.25;5.176857375;9;117
38;paravance-34.rennes.grid5000.fr;thermos-root-devel-WordCountTopology-0-0dc97528-c0d8-41e4-994f-f660bc73aae9;["topology_master"];1.25;1532991321.52674;5.11;12.37;5.176857375;9;117
38;paravance-32.rennes.grid5000.fr;thermos-root-devel-WordCountTopology-1-0cbe4cf5-94ac-4d2a-a1aa-51401b0ac367;["container_1_Consume_and_count_1"];1.25;1532991321.54646;137.51;449.83;1305.862235231;10;151
38;paravance-31.rennes.grid5000.fr;thermos-root-devel-WordCountTopology-2-5e038408-92ea-4685-8e8d-9d2a472acfe6;["container_2_Emit_random_words_2"];1.25;1532991321.42693;94.6;348.89;377.99462335;10;149
39;paravance-34.rennes.grid5000.fr;thermos-root-devel-WordCountTopology-0-0dc97528-c0d8-41e4-994f-f660bc73aae9;["topology_master"];1.25;1532991331.74928;5.14;12.4;5.176857375;9;117
39;paravance-32.rennes.grid5000.fr;thermos-root-devel-WordCountTopology-1-0cbe4cf5-94ac-4d2a-a1aa-51401b0ac367;["container_1_Consume_and_count_1"];1.25;1532991331.76822;140.25;459.01;1331.876307725;10;151
39;paravance-31.rennes.grid5000.fr;thermos-root-devel-WordCountTopology-2-5e038408-92ea-4685-8e8d-9d2a472acfe6;["container_2_Emit_random_words_2"];1.25;1532991331.64849;96.33;355.41;384.324197924;10;149
40;paravance-32.rennes.grid5000.fr;thermos-root-devel-WordCountTopology-1-0cbe4cf5-94ac-4d2a-a1aa-51401b0ac367;["container_1_Consume_and_count_1"];1.25;1532991341.98523;143.02;468.03;1356.048914432;10;151
40;paravance-34.rennes.grid5000.fr;thermos-root-devel-WordCountTopology-0-0dc97528-c0d8-41e4-994f-f660bc73aae9;["topology_master"];1.25;1532991341.97343;5.24;12.53;5.176857375;9;117
40;paravance-31.rennes.grid5000.fr;thermos-root-devel-WordCountTopology-2-5e038408-92ea-4685-8e8d-9d2a472acfe6;["container_2_Emit_random_words_2"];1.25;1532991341.87025;98.31;362.79;391.494582629;10;149
41;paravance-31.rennes.grid5000.fr;thermos-root-devel-WordCountTopology-2-5e038408-92ea-4685-8e8d-9d2a472acfe6;["container_2_Emit_random_words_2"];1.25;1532991352.08856;100.16;369.79;399.055105979;10;149
41;paravance-34.rennes.grid5000.fr;thermos-root-devel-WordCountTopology-0-0dc97528-c0d8-41e4-994f-f660bc73aae9;["topology_master"];1.25;1532991352.19258;5.3;12.64;5.176857375;9;117
41;paravance-32.rennes.grid5000.fr;thermos-root-devel-WordCountTopology-1-0cbe4cf5-94ac-4d2a-a1aa-51401b0ac367;["container_1_Consume_and_count_1"];1.25;1532991352.21041;145.74;477.07;1381.663298318;10;151
42;paravance-34.rennes.grid5000.fr;thermos-root-devel-WordCountTopology-0-0dc97528-c0d8-41e4-994f-f660bc73aae9;["topology_master"];1.25;1532991362.41092;5.39;12.77;5.176857375;9;117
42;paravance-31.rennes.grid5000.fr;thermos-root-devel-WordCountTopology-2-5e038408-92ea-4685-8e8d-9d2a472acfe6;["container_2_Emit_random_words_2"];1.25;1532991362.30781;101.96;376.56;406.186590435;10;149
42;paravance-32.rennes.grid5000.fr;thermos-root-devel-WordCountTopology-1-0cbe4cf5-94ac-4d2a-a1aa-51401b0ac367;["container_1_Consume_and_count_1"];1.25;1532991362.42759;148.56;485.99;1406.423296312;10;151
43;paravance-34.rennes.grid5000.fr;thermos-root-devel-WordCountTopology-0-0dc97528-c0d8-41e4-994f-f660bc73aae9;["topology_master"];1.25;1532991372.52817;5.42;12.79;5.176857375;9;117
43;paravance-31.rennes.grid5000.fr;thermos-root-devel-WordCountTopology-2-5e038408-92ea-4685-8e8d-9d2a472acfe6;["container_2_Emit_random_words_2"];1.25;1532991372.52658;103.95;383.96;414.17852455;10;149
43;paravance-32.rennes.grid5000.fr;thermos-root-devel-WordCountTopology-1-0cbe4cf5-94ac-4d2a-a1aa-51401b0ac367;["container_1_Consume_and_count_1"];1.25;1532991372.64773;151.36;494.97;1430.290336608;10;151
44;paravance-32.rennes.grid5000.fr;thermos-root-devel-WordCountTopology-1-0cbe4cf5-94ac-4d2a-a1aa-51401b0ac367;["container_1_Consume_and_count_1"];1.25;1532991382.8652;154.17;504.01;1456.290922963;10;151
44;paravance-31.rennes.grid5000.fr;thermos-root-devel-WordCountTopology-2-5e038408-92ea-4685-8e8d-9d2a472acfe6;["container_2_Emit_random_words_2"];1.25;1532991382.7457;105.77;390.88;421.396198718;10;149
44;paravance-34.rennes.grid5000.fr;thermos-root-devel-WordCountTopology-0-0dc97528-c0d8-41e4-994f-f660bc73aae9;["topology_master"];1.25;1532991382.85045;5.51;12.91;5.176857375;9;117
45;paravance-34.rennes.grid5000.fr;thermos-root-devel-WordCountTopology-0-0dc97528-c0d8-41e4-994f-f660bc73aae9;["topology_master"];1.25;1532991393.07235;5.56;12.99;5.176857375;9;117
45;paravance-32.rennes.grid5000.fr;thermos-root-devel-WordCountTopology-1-0cbe4cf5-94ac-4d2a-a1aa-51401b0ac367;["container_1_Consume_and_count_1"];1.25;1532991393.08897;156.85;513.15;1482.877637757;10;151
45;paravance-31.rennes.grid5000.fr;thermos-root-devel-WordCountTopology-2-5e038408-92ea-4685-8e8d-9d2a472acfe6;["container_2_Emit_random_words_2"];1.25;1532991392.96991;107.73;398.21;428.913279897;10;149
46;paravance-32.rennes.grid5000.fr;thermos-root-devel-WordCountTopology-1-0cbe4cf5-94ac-4d2a-a1aa-51401b0ac367;["container_1_Consume_and_count_1"];1.25;1532991403.30931;159.56;522.3;1508.431559852;10;151
46;paravance-31.rennes.grid5000.fr;thermos-root-devel-WordCountTopology-2-5e038408-92ea-4685-8e8d-9d2a472acfe6;["container_2_Emit_random_words_2"];1.25;1532991403.19062;109.78;405.34;436.508864052;10;149
46;paravance-34.rennes.grid5000.fr;thermos-root-devel-WordCountTopology-0-0dc97528-c0d8-41e4-994f-f660bc73aae9;["topology_master"];1.25;1532991403.29476;5.63;13.08;5.176857375;9;117
47;paravance-34.rennes.grid5000.fr;thermos-root-devel-WordCountTopology-0-0dc97528-c0d8-41e4-994f-f660bc73aae9;["topology_master"];1.25;1532991413.51486;5.69;13.18;5.176857375;9;117
47;paravance-31.rennes.grid5000.fr;thermos-root-devel-WordCountTopology-2-5e038408-92ea-4685-8e8d-9d2a472acfe6;["container_2_Emit_random_words_2"];1.25;1532991413.41325;111.71;412.29;443.514150749;10;149
47;paravance-32.rennes.grid5000.fr;thermos-root-devel-WordCountTopology-1-0cbe4cf5-94ac-4d2a-a1aa-51401b0ac367;["container_1_Consume_and_count_1"];1.25;1532991413.53396;162.43;531.54;1534.624829738;10;151
48;paravance-34.rennes.grid5000.fr;thermos-root-devel-WordCountTopology-0-0dc97528-c0d8-41e4-994f-f660bc73aae9;["topology_master"];1.25;1532991423.73512;5.78;13.32;5.176857375;9;117
48;paravance-32.rennes.grid5000.fr;thermos-root-devel-WordCountTopology-1-0cbe4cf5-94ac-4d2a-a1aa-51401b0ac367;["container_1_Consume_and_count_1"];1.25;1532991423.7554;165.21;540.65;1560.67842698;10;151
48;paravance-31.rennes.grid5000.fr;thermos-root-devel-WordCountTopology-2-5e038408-92ea-4685-8e8d-9d2a472acfe6;["container_2_Emit_random_words_2"];1.25;1532991423.63669;113.62;419.27;450.897417572;10;149
49;paravance-32.rennes.grid5000.fr;thermos-root-devel-WordCountTopology-1-0cbe4cf5-94ac-4d2a-a1aa-51401b0ac367;["container_1_Consume_and_count_1"];1.25;1532991433.97373;168.01;549.67;1584.969493124;10;151
49;paravance-34.rennes.grid5000.fr;thermos-root-devel-WordCountTopology-0-0dc97528-c0d8-41e4-994f-f660bc73aae9;["topology_master"];1.25;1532991433.95829;5.81;13.35;5.176857375;9;117
49;paravance-31.rennes.grid5000.fr;thermos-root-devel-WordCountTopology-2-5e038408-92ea-4685-8e8d-9d2a472acfe6;["container_2_Emit_random_words_2"];1.25;1532991433.85622;115.6;426.48;458.116903848;10;149
50;paravance-32.rennes.grid5000.fr;thermos-root-devel-WordCountTopology-1-0cbe4cf5-94ac-4d2a-a1aa-51401b0ac367;["container_1_Consume_and_count_1"];1.25;1532991444.19176;170.84;558.62;1609.101491333;10;151
50;paravance-31.rennes.grid5000.fr;thermos-root-devel-WordCountTopology-2-5e038408-92ea-4685-8e8d-9d2a472acfe6;["container_2_Emit_random_words_2"];1.25;1532991444.0736;117.68;433.88;466.489446808;10;149
50;paravance-34.rennes.grid5000.fr;thermos-root-devel-WordCountTopology-0-0dc97528-c0d8-41e4-994f-f660bc73aae9;["topology_master"];1.25;1532991444.17761;5.9;13.48;5.176857375;9;117
51;paravance-31.rennes.grid5000.fr;thermos-root-devel-WordCountTopology-2-5e038408-92ea-4685-8e8d-9d2a472acfe6;["container_2_Emit_random_words_2"];1.25;1532991454.29089;119.75;441.2;473.77587511;10;149
51;paravance-32.rennes.grid5000.fr;thermos-root-devel-WordCountTopology-1-0cbe4cf5-94ac-4d2a-a1aa-51401b0ac367;["container_1_Consume_and_count_1"];1.25;1532991454.41127;173.6;567.64;1634.052856132;10;151
51;paravance-34.rennes.grid5000.fr;thermos-root-devel-WordCountTopology-0-0dc97528-c0d8-41e4-994f-f660bc73aae9;["topology_master"];1.25;1532991454.39634;5.96;13.56;5.176857375;9;117
52;paravance-34.rennes.grid5000.fr;thermos-root-devel-WordCountTopology-0-0dc97528-c0d8-41e4-994f-f660bc73aae9;["topology_master"];1.25;1532991464.61368;6.03;13.65;5.176857375;9;117
52;paravance-32.rennes.grid5000.fr;thermos-root-devel-WordCountTopology-1-0cbe4cf5-94ac-4d2a-a1aa-51401b0ac367;["container_1_Consume_and_count_1"];1.25;1532991464.63276;176.34;576.71;1658.749881967;10;151
52;paravance-31.rennes.grid5000.fr;thermos-root-devel-WordCountTopology-2-5e038408-92ea-4685-8e8d-9d2a472acfe6;["container_2_Emit_random_words_2"];1.25;1532991464.51339;121.85;448.77;481.688026008;10;149
53;paravance-34.rennes.grid5000.fr;thermos-root-devel-WordCountTopology-0-0dc97528-c0d8-41e4-994f-f660bc73aae9;["topology_master"];1.25;1532991474.83643;6.09;13.78;5.176857375;9;117
53;paravance-31.rennes.grid5000.fr;thermos-root-devel-WordCountTopology-2-5e038408-92ea-4685-8e8d-9d2a472acfe6;["container_2_Emit_random_words_2"];1.25;1532991474.73306;123.61;455.32;487.958711187;10;149
53;paravance-32.rennes.grid5000.fr;thermos-root-devel-WordCountTopology-1-0cbe4cf5-94ac-4d2a-a1aa-51401b0ac367;["container_1_Consume_and_count_1"];1.25;1532991474.85444;179.06;585.91;1685.753417878;10;151
54;paravance-31.rennes.grid5000.fr;thermos-root-devel-WordCountTopology-2-5e038408-92ea-4685-8e8d-9d2a472acfe6;["container_2_Emit_random_words_2"];1.25;1532991484.95228;125.25;461.26;493.704050973;10;149
54;paravance-34.rennes.grid5000.fr;thermos-root-devel-WordCountTopology-0-0dc97528-c0d8-41e4-994f-f660bc73aae9;["topology_master"];1.25;1532991485.05514;6.19;13.91;5.176857375;9;117
54;paravance-32.rennes.grid5000.fr;thermos-root-devel-WordCountTopology-1-0cbe4cf5-94ac-4d2a-a1aa-51401b0ac367;["container_1_Consume_and_count_1"];1.25;1532991485.07393;181.76;595.09;1714.501090449;10;151
55;paravance-32.rennes.grid5000.fr;thermos-root-devel-WordCountTopology-1-0cbe4cf5-94ac-4d2a-a1aa-51401b0ac367;["container_1_Consume_and_count_1"];1.25;1532991495.29346;184.42;604.25;1741.445649125;10;151
55;paravance-34.rennes.grid5000.fr;thermos-root-devel-WordCountTopology-0-0dc97528-c0d8-41e4-994f-f660bc73aae9;["topology_master"];1.25;1532991495.27713;6.22;13.94;5.176857375;9;117
55;paravance-31.rennes.grid5000.fr;thermos-root-devel-WordCountTopology-2-5e038408-92ea-4685-8e8d-9d2a472acfe6;["container_2_Emit_random_words_2"];1.25;1532991495.17433;127.03;467.72;500.321193698;10;149
56;paravance-34.rennes.grid5000.fr;thermos-root-devel-WordCountTopology-0-0dc97528-c0d8-41e4-994f-f660bc73aae9;["topology_master"];1.25;1532991505.40821;6.3;14.06;5.176857375;9;117
56;paravance-31.rennes.grid5000.fr;thermos-root-devel-WordCountTopology-2-5e038408-92ea-4685-8e8d-9d2a472acfe6;["container_2_Emit_random_words_2"];1.25;1532991505.40574;128.91;474.61;507.376035837;10;149
56;paravance-32.rennes.grid5000.fr;thermos-root-devel-WordCountTopology-1-0cbe4cf5-94ac-4d2a-a1aa-51401b0ac367;["container_1_Consume_and_count_1"];1.25;1532991505.52514;187.19;613.4;1768.306580559;10;151
57;paravance-34.rennes.grid5000.fr;thermos-root-devel-WordCountTopology-0-0dc97528-c0d8-41e4-994f-f660bc73aae9;["topology_master"];1.25;1532991515.7275;6.36;14.13;5.176857375;9;117
57;paravance-31.rennes.grid5000.fr;thermos-root-devel-WordCountTopology-2-5e038408-92ea-4685-8e8d-9d2a472acfe6;["container_2_Emit_random_words_2"];1.25;1532991515.62548;130.7;481.17;512.967839822;10;149
57;paravance-32.rennes.grid5000.fr;thermos-root-devel-WordCountTopology-1-0cbe4cf5-94ac-4d2a-a1aa-51401b0ac367;["container_1_Consume_and_count_1"];1.25;1532991515.74736;189.97;622.5;1793.246203019;10;151
58;paravance-34.rennes.grid5000.fr;thermos-root-devel-WordCountTopology-0-0dc97528-c0d8-41e4-994f-f660bc73aae9;["topology_master"];1.25;1532991525.94727;6.44;14.26;5.176857375;9;117
58;paravance-32.rennes.grid5000.fr;thermos-root-devel-WordCountTopology-1-0cbe4cf5-94ac-4d2a-a1aa-51401b0ac367;["container_1_Consume_and_count_1"];1.25;1532991525.96531;192.76;631.54;1816.932511566;10;151
58;paravance-31.rennes.grid5000.fr;thermos-root-devel-WordCountTopology-2-5e038408-92ea-4685-8e8d-9d2a472acfe6;["container_2_Emit_random_words_2"];1.25;1532991525.84674;132.75;488.65;520.877570498;10;149
59;paravance-34.rennes.grid5000.fr;thermos-root-devel-WordCountTopology-0-0dc97528-c0d8-41e4-994f-f660bc73aae9;["topology_master"];1.25;1532991536.16787;6.5;14.34;5.176857375;9;117
59;paravance-32.rennes.grid5000.fr;thermos-root-devel-WordCountTopology-1-0cbe4cf5-94ac-4d2a-a1aa-51401b0ac367;["container_1_Consume_and_count_1"];1.25;1532991536.1849;195.48;640.66;1842.428302134;10;151
59;paravance-31.rennes.grid5000.fr;thermos-root-devel-WordCountTopology-2-5e038408-92ea-4685-8e8d-9d2a472acfe6;["container_2_Emit_random_words_2"];1.25;1532991536.06619;134.57;495.43;527.458657957;10;149
60;paravance-32.rennes.grid5000.fr;thermos-root-devel-WordCountTopology-1-0cbe4cf5-94ac-4d2a-a1aa-51401b0ac367;["container_1_Consume_and_count_1"];1.25;1532991546.402;198.34;649.68;1869.103061276;10;151
60;paravance-34.rennes.grid5000.fr;thermos-root-devel-WordCountTopology-0-0dc97528-c0d8-41e4-994f-f660bc73aae9;["topology_master"];1.25;1532991546.38726;6.59;14.46;5.176857375;9;117
60;paravance-31.rennes.grid5000.fr;thermos-root-devel-WordCountTopology-2-5e038408-92ea-4685-8e8d-9d2a472acfe6;["container_2_Emit_random_words_2"];1.25;1532991546.28468;136.35;501.88;533.941660512;10;149
