{
  "status": "success",
  "executiontime": 0.00016689300537109375,
  "message": "",
  "result": {
    "bolts": {
      "Consume_and_count": [
        "container_1_Consume_and_count_1"
      ]
    },
    "instances": {
      "container_2_Emit_random_words_2": {
        "stmgrId": "stmgr-2",
        "logfile": "http://paravance-39.rennes.grid5000.fr:31746/file/log-files/container_2_Emit_random_words_2.log.0",
        "id": "container_2_Emit_random_words_2",
        "name": "Emit_random_words"
      },
      "container_1_Consume_and_count_1": {
        "stmgrId": "stmgr-1",
        "logfile": "http://paravance-43.rennes.grid5000.fr:31985/file/log-files/container_1_Consume_and_count_1.log.0",
        "id": "container_1_Consume_and_count_1",
        "name": "Consume_and_count"
      }
    },
    "instance_groups": {
      "container_1_Consume_and": [
        "container_1_Consume_and_count_1"
      ],
      "container_2_Emit_random": [
        "container_2_Emit_random_words_2"
      ]
    },
    "spouts": {
      "Emit_random_words": [
        "container_2_Emit_random_words_2"
      ]
    },
    "config": {
      "topology.message.timeout.secs": "30",
      "topology.team.environment": "devel",
      "topology.serializer.classname": "org.apache.heron.streamlet.impl.KryoSerializer",
      "topology.team.name": "root",
      "topology.debug": "false",
      "topology.max.spout.pending": "100",
      "topology.container.padding.percentage": "600",
      "topology.enable.message.timeouts": "true",
      "topology.component.parallelism": "1",
      "topology.name": "WordCountTopology",
      "topology.stmgrs": "2",
      "topology.reliability.mode": "ATMOST_ONCE"
    },
    "stmgrs": {
      "stmgr-1": {
        "cwd": "/var/lib/mesos/slaves/8aa582d3-eaa6-461c-808b-be420d628d9e-S1/frameworks/75deb08a-eb1b-415c-8b2c-e922be5f7d98-0000/executors/thermos-root-devel-WordCountTopology-1-97d0862c-7300-469a-beb0-7f486c95d407/runs/fac27883-8663-4c35-bc20-a5a71b14b6be/sandbox",
        "host": "paravance-43.rennes.grid5000.fr",
        "joburl": "http://paravance-43.rennes.grid5000.fr:31985/browse/",
        "shell_port": 31985,
        "logfiles": "http://paravance-43.rennes.grid5000.fr:31985/browse/log-files",
        "pid": 4582,
        "id": "stmgr-1",
        "instance_ids": [
          "container_1_Consume_and_count_1"
        ],
        "port": 31545
      },
      "stmgr-2": {
        "cwd": "/var/lib/mesos/slaves/8aa582d3-eaa6-461c-808b-be420d628d9e-S0/frameworks/75deb08a-eb1b-415c-8b2c-e922be5f7d98-0000/executors/thermos-root-devel-WordCountTopology-2-69b7a27f-1237-451e-a952-5f7a9f6a3d53/runs/c0fc797d-a0c5-4a84-baf0-3b7d04b1f4ed/sandbox",
        "host": "paravance-39.rennes.grid5000.fr",
        "joburl": "http://paravance-39.rennes.grid5000.fr:31746/browse/",
        "shell_port": 31746,
        "logfiles": "http://paravance-39.rennes.grid5000.fr:31746/browse/log-files",
        "pid": 4458,
        "id": "stmgr-2",
        "instance_ids": [
          "container_2_Emit_random_words_2"
        ],
        "port": 31681
      }
    }
  },
  "tracker_version": "0.17.8-61-gd7c8c62"
}