{
  "status": "success",
  "executiontime": 0.0002079010009765625,
  "message": "",
  "result": {
    "bolts": {
      "Consume_and_count": [
        "container_1_Consume_and_count_1"
      ]
    },
    "instances": {
      "container_2_Emit_random_words_2": {
        "stmgrId": "stmgr-2",
        "logfile": "http://paravance-36.rennes.grid5000.fr:31302/file/log-files/container_2_Emit_random_words_2.log.0",
        "id": "container_2_Emit_random_words_2",
        "name": "Emit_random_words"
      },
      "container_1_Consume_and_count_1": {
        "stmgrId": "stmgr-1",
        "logfile": "http://paravance-27.rennes.grid5000.fr:31038/file/log-files/container_1_Consume_and_count_1.log.0",
        "id": "container_1_Consume_and_count_1",
        "name": "Consume_and_count"
      }
    },
    "instance_groups": {
      "container_1_Consume_and": [
        "container_1_Consume_and_count_1"
      ],
      "container_2_Emit_random": [
        "container_2_Emit_random_words_2"
      ]
    },
    "spouts": {
      "Emit_random_words": [
        "container_2_Emit_random_words_2"
      ]
    },
    "config": {
      "topology.message.timeout.secs": "30",
      "topology.team.environment": "devel",
      "topology.serializer.classname": "org.apache.heron.streamlet.impl.KryoSerializer",
      "topology.team.name": "root",
      "topology.debug": "false",
      "topology.max.spout.pending": "100",
      "topology.container.padding.percentage": "100",
      "topology.enable.message.timeouts": "true",
      "topology.component.parallelism": "1",
      "topology.name": "WordCountTopology",
      "topology.stmgrs": "2",
      "topology.reliability.mode": "ATMOST_ONCE"
    },
    "stmgrs": {
      "stmgr-1": {
        "cwd": "/var/lib/mesos/slaves/d160b142-c5ac-4322-8c2c-00790925e00c-S2/frameworks/75deb08a-eb1b-415c-8b2c-e922be5f7d98-0000/executors/thermos-root-devel-WordCountTopology-1-06d5b821-06e2-40cd-9cd6-d12fea532c14/runs/3c543fd5-fa5a-4448-9be3-7143f6a2077d/sandbox",
        "host": "paravance-27.rennes.grid5000.fr",
        "joburl": "http://paravance-27.rennes.grid5000.fr:31038/browse/",
        "shell_port": 31038,
        "logfiles": "http://paravance-27.rennes.grid5000.fr:31038/browse/log-files",
        "pid": 2142,
        "id": "stmgr-1",
        "instance_ids": [
          "container_1_Consume_and_count_1"
        ],
        "port": 31443
      },
      "stmgr-2": {
        "cwd": "/var/lib/mesos/slaves/d160b142-c5ac-4322-8c2c-00790925e00c-S1/frameworks/75deb08a-eb1b-415c-8b2c-e922be5f7d98-0000/executors/thermos-root-devel-WordCountTopology-2-e34eb6bd-931d-4ae4-b6fc-7c3cd9a3c7f2/runs/8ff7069c-8642-480f-aaeb-782376d79368/sandbox",
        "host": "paravance-36.rennes.grid5000.fr",
        "joburl": "http://paravance-36.rennes.grid5000.fr:31302/browse/",
        "shell_port": 31302,
        "logfiles": "http://paravance-36.rennes.grid5000.fr:31302/browse/log-files",
        "pid": 2183,
        "id": "stmgr-2",
        "instance_ids": [
          "container_2_Emit_random_words_2"
        ],
        "port": 31955
      }
    }
  },
  "tracker_version": "0.17.8-61-gd7c8c62"
}