mesure_id;time;backpresure
0;1533764160;0.0
1;1533763680;36684.0
2;1533763620;35626.0
3;1533764040;36424.0
4;1533763980;36456.0
5;1533763920;36467.0
6;1533763860;37102.0
7;1533763800;36181.0
8;1533764100;35821.0
9;1533763740;36892.0
