mesure_id;slave_id;executor_id;heron_instances;cpus_limit;timestamp_B;cpus_system_time_secs_B;cpus_user_time_secs_B;cpus_throttled_time_secs_B;processes;threads
0;paravance-29.rennes.grid5000.fr;thermos-root-devel-WordCountTopology-1-8026c466-e30f-44cf-8a6c-2685f89290e9;["container_1_Consume_and_count_1"];3.25;1533763604.7951;38.64;217.12;51.389971488;10;151
0;paravance-6.rennes.grid5000.fr;thermos-root-devel-WordCountTopology-0-8089812b-9175-4fad-ab88-101e8db97f65;["topology_master"];3.25;1533763604.91381;2.45;7.95;0.240438148;9;117
0;paravance-7.rennes.grid5000.fr;thermos-root-devel-WordCountTopology-2-d9770c35-0ca5-474b-a10d-c34f5dff09d1;["container_2_Emit_random_words_2"];3.25;1533763604.85414;22.23;87.57;4.631610281;10;149
1;paravance-29.rennes.grid5000.fr;thermos-root-devel-WordCountTopology-1-8026c466-e30f-44cf-8a6c-2685f89290e9;["container_1_Consume_and_count_1"];3.25;1533763615.0142;42.72;239.37;55.796734204;10;151
1;paravance-7.rennes.grid5000.fr;thermos-root-devel-WordCountTopology-2-d9770c35-0ca5-474b-a10d-c34f5dff09d1;["container_2_Emit_random_words_2"];3.25;1533763615.06938;24.49;96.57;4.631610281;10;149
1;paravance-6.rennes.grid5000.fr;thermos-root-devel-WordCountTopology-0-8089812b-9175-4fad-ab88-101e8db97f65;["topology_master"];3.25;1533763615.13627;2.54;8.1;0.240438148;9;117
2;paravance-29.rennes.grid5000.fr;thermos-root-devel-WordCountTopology-1-8026c466-e30f-44cf-8a6c-2685f89290e9;["container_1_Consume_and_count_1"];3.25;1533763625.2271;46.76;261.01;60.569982825;10;151
2;paravance-7.rennes.grid5000.fr;thermos-root-devel-WordCountTopology-2-d9770c35-0ca5-474b-a10d-c34f5dff09d1;["container_2_Emit_random_words_2"];3.25;1533763625.2836;26.71;104.76;4.631610281;10;149
2;paravance-6.rennes.grid5000.fr;thermos-root-devel-WordCountTopology-0-8089812b-9175-4fad-ab88-101e8db97f65;["topology_master"];3.25;1533763625.35415;2.59;8.17;0.240438148;9;117
3;paravance-29.rennes.grid5000.fr;thermos-root-devel-WordCountTopology-1-8026c466-e30f-44cf-8a6c-2685f89290e9;["container_1_Consume_and_count_1"];3.25;1533763635.44193;50.53;282.18;65.928114438;10;151
3;paravance-6.rennes.grid5000.fr;thermos-root-devel-WordCountTopology-0-8089812b-9175-4fad-ab88-101e8db97f65;["topology_master"];3.25;1533763635.57142;2.66;8.26;0.240438148;9;117
3;paravance-7.rennes.grid5000.fr;thermos-root-devel-WordCountTopology-2-d9770c35-0ca5-474b-a10d-c34f5dff09d1;["container_2_Emit_random_words_2"];3.25;1533763635.5;28.65;111.86;4.631610281;10;149
4;paravance-29.rennes.grid5000.fr;thermos-root-devel-WordCountTopology-1-8026c466-e30f-44cf-8a6c-2685f89290e9;["container_1_Consume_and_count_1"];3.25;1533763645.65955;54.22;304.01;71.081918646;10;151
4;paravance-7.rennes.grid5000.fr;thermos-root-devel-WordCountTopology-2-d9770c35-0ca5-474b-a10d-c34f5dff09d1;["container_2_Emit_random_words_2"];3.25;1533763645.71467;30.42;118.84;4.631610281;10;149
4;paravance-6.rennes.grid5000.fr;thermos-root-devel-WordCountTopology-0-8089812b-9175-4fad-ab88-101e8db97f65;["topology_master"];3.25;1533763645.78807;2.72;8.34;0.240438148;9;117
5;paravance-29.rennes.grid5000.fr;thermos-root-devel-WordCountTopology-1-8026c466-e30f-44cf-8a6c-2685f89290e9;["container_1_Consume_and_count_1"];3.25;1533763655.87815;57.82;325.15;75.687563734;10;151
5;paravance-7.rennes.grid5000.fr;thermos-root-devel-WordCountTopology-2-d9770c35-0ca5-474b-a10d-c34f5dff09d1;["container_2_Emit_random_words_2"];3.25;1533763655.9332;32.35;125.78;4.631610281;10;149
5;paravance-6.rennes.grid5000.fr;thermos-root-devel-WordCountTopology-0-8089812b-9175-4fad-ab88-101e8db97f65;["topology_master"];3.25;1533763656.00523;2.84;8.54;0.240438148;9;117
6;paravance-29.rennes.grid5000.fr;thermos-root-devel-WordCountTopology-1-8026c466-e30f-44cf-8a6c-2685f89290e9;["container_1_Consume_and_count_1"];3.25;1533763666.09558;61.34;346.65;80.610171496;10;151
6;paravance-6.rennes.grid5000.fr;thermos-root-devel-WordCountTopology-0-8089812b-9175-4fad-ab88-101e8db97f65;["topology_master"];3.25;1533763666.22319;2.87;8.58;0.240438148;9;117
6;paravance-7.rennes.grid5000.fr;thermos-root-devel-WordCountTopology-2-d9770c35-0ca5-474b-a10d-c34f5dff09d1;["container_2_Emit_random_words_2"];3.25;1533763666.15169;34.25;132.97;4.631610281;10;149
7;paravance-7.rennes.grid5000.fr;thermos-root-devel-WordCountTopology-2-d9770c35-0ca5-474b-a10d-c34f5dff09d1;["container_2_Emit_random_words_2"];3.25;1533763676.26678;36.55;141.39;4.631610281;10;149
7;paravance-29.rennes.grid5000.fr;thermos-root-devel-WordCountTopology-1-8026c466-e30f-44cf-8a6c-2685f89290e9;["container_1_Consume_and_count_1"];3.25;1533763676.31006;65.36;368.55;85.420944371;10;151
7;paravance-6.rennes.grid5000.fr;thermos-root-devel-WordCountTopology-0-8089812b-9175-4fad-ab88-101e8db97f65;["topology_master"];3.25;1533763676.44055;2.96;8.72;0.240438148;9;117
8;paravance-29.rennes.grid5000.fr;thermos-root-devel-WordCountTopology-1-8026c466-e30f-44cf-8a6c-2685f89290e9;["container_1_Consume_and_count_1"];3.25;1533763686.53026;68.97;389.98;90.332462427;10;151
8;paravance-7.rennes.grid5000.fr;thermos-root-devel-WordCountTopology-2-d9770c35-0ca5-474b-a10d-c34f5dff09d1;["container_2_Emit_random_words_2"];3.25;1533763686.58576;38.5;148.54;4.631610281;10;149
8;paravance-6.rennes.grid5000.fr;thermos-root-devel-WordCountTopology-0-8089812b-9175-4fad-ab88-101e8db97f65;["topology_master"];3.25;1533763686.65707;3.02;8.79;0.240438148;9;117
9;paravance-7.rennes.grid5000.fr;thermos-root-devel-WordCountTopology-2-d9770c35-0ca5-474b-a10d-c34f5dff09d1;["container_2_Emit_random_words_2"];3.25;1533763696.80043;40.72;156.94;4.631610281;10;149
9;paravance-29.rennes.grid5000.fr;thermos-root-devel-WordCountTopology-1-8026c466-e30f-44cf-8a6c-2685f89290e9;["container_1_Consume_and_count_1"];3.25;1533763696.747;72.76;410.47;94.234587763;10;151
9;paravance-6.rennes.grid5000.fr;thermos-root-devel-WordCountTopology-0-8089812b-9175-4fad-ab88-101e8db97f65;["topology_master"];3.25;1533763696.87464;3.08;8.87;0.240438148;9;117
10;paravance-7.rennes.grid5000.fr;thermos-root-devel-WordCountTopology-2-d9770c35-0ca5-474b-a10d-c34f5dff09d1;["container_2_Emit_random_words_2"];3.25;1533763707.0178;42.5;163.33;4.631610281;10;149
10;paravance-29.rennes.grid5000.fr;thermos-root-devel-WordCountTopology-1-8026c466-e30f-44cf-8a6c-2685f89290e9;["container_1_Consume_and_count_1"];3.25;1533763706.96323;76.13;431.05;98.675308944;10;151
10;paravance-6.rennes.grid5000.fr;thermos-root-devel-WordCountTopology-0-8089812b-9175-4fad-ab88-101e8db97f65;["topology_master"];3.25;1533763707.09066;3.14;8.95;0.240438148;9;117
11;paravance-7.rennes.grid5000.fr;thermos-root-devel-WordCountTopology-2-d9770c35-0ca5-474b-a10d-c34f5dff09d1;["container_2_Emit_random_words_2"];3.25;1533763717.23311;44.53;170.45;4.644975092;10;149
11;paravance-29.rennes.grid5000.fr;thermos-root-devel-WordCountTopology-1-8026c466-e30f-44cf-8a6c-2685f89290e9;["container_1_Consume_and_count_1"];3.25;1533763717.17937;79.78;452.78;104.062063334;10;151
11;paravance-6.rennes.grid5000.fr;thermos-root-devel-WordCountTopology-0-8089812b-9175-4fad-ab88-101e8db97f65;["topology_master"];3.25;1533763717.30616;3.26;9.19;0.240438148;9;117
12;paravance-6.rennes.grid5000.fr;thermos-root-devel-WordCountTopology-0-8089812b-9175-4fad-ab88-101e8db97f65;["topology_master"];3.25;1533763727.52412;3.29;9.21;0.240438148;9;117
12;paravance-7.rennes.grid5000.fr;thermos-root-devel-WordCountTopology-2-d9770c35-0ca5-474b-a10d-c34f5dff09d1;["container_2_Emit_random_words_2"];3.25;1533763727.45344;46.32;177.18;4.644975092;10;149
12;paravance-29.rennes.grid5000.fr;thermos-root-devel-WordCountTopology-1-8026c466-e30f-44cf-8a6c-2685f89290e9;["container_1_Consume_and_count_1"];3.25;1533763727.39867;83.16;473.77;108.710126837;10;151
13;paravance-29.rennes.grid5000.fr;thermos-root-devel-WordCountTopology-1-8026c466-e30f-44cf-8a6c-2685f89290e9;["container_1_Consume_and_count_1"];3.25;1533763737.61489;86.64;494.37;113.046339226;10;151
13;paravance-6.rennes.grid5000.fr;thermos-root-devel-WordCountTopology-0-8089812b-9175-4fad-ab88-101e8db97f65;["topology_master"];3.25;1533763737.74243;3.39;9.36;0.240438148;9;117
13;paravance-7.rennes.grid5000.fr;thermos-root-devel-WordCountTopology-2-d9770c35-0ca5-474b-a10d-c34f5dff09d1;["container_2_Emit_random_words_2"];3.25;1533763737.67015;48.17;183.99;4.644975092;10;149
14;paravance-7.rennes.grid5000.fr;thermos-root-devel-WordCountTopology-2-d9770c35-0ca5-474b-a10d-c34f5dff09d1;["container_2_Emit_random_words_2"];3.25;1533763747.78546;50.14;191.12;4.644975092;10;149
14;paravance-29.rennes.grid5000.fr;thermos-root-devel-WordCountTopology-1-8026c466-e30f-44cf-8a6c-2685f89290e9;["container_1_Consume_and_count_1"];3.25;1533763747.82897;90.33;516.25;117.68229795;10;151
14;paravance-6.rennes.grid5000.fr;thermos-root-devel-WordCountTopology-0-8089812b-9175-4fad-ab88-101e8db97f65;["topology_master"];3.25;1533763747.95756;3.44;9.43;0.240438148;9;117
15;paravance-29.rennes.grid5000.fr;thermos-root-devel-WordCountTopology-1-8026c466-e30f-44cf-8a6c-2685f89290e9;["container_1_Consume_and_count_1"];3.25;1533763758.04361;94.14;537.57;122.319712849;10;151
15;paravance-6.rennes.grid5000.fr;thermos-root-devel-WordCountTopology-0-8089812b-9175-4fad-ab88-101e8db97f65;["topology_master"];3.25;1533763758.17362;3.5;9.52;0.240438148;9;117
15;paravance-7.rennes.grid5000.fr;thermos-root-devel-WordCountTopology-2-d9770c35-0ca5-474b-a10d-c34f5dff09d1;["container_2_Emit_random_words_2"];3.25;1533763758.10413;52.25;198.84;4.644975092;10;149
16;paravance-29.rennes.grid5000.fr;thermos-root-devel-WordCountTopology-1-8026c466-e30f-44cf-8a6c-2685f89290e9;["container_1_Consume_and_count_1"];3.25;1533763768.26257;97.69;558.28;126.363812982;10;151
16;paravance-6.rennes.grid5000.fr;thermos-root-devel-WordCountTopology-0-8089812b-9175-4fad-ab88-101e8db97f65;["topology_master"];3.25;1533763768.39254;3.56;9.6;0.240438148;9;117
16;paravance-7.rennes.grid5000.fr;thermos-root-devel-WordCountTopology-2-d9770c35-0ca5-474b-a10d-c34f5dff09d1;["container_2_Emit_random_words_2"];3.25;1533763768.31874;54.23;205.66;4.644975092;10;149
17;paravance-29.rennes.grid5000.fr;thermos-root-devel-WordCountTopology-1-8026c466-e30f-44cf-8a6c-2685f89290e9;["container_1_Consume_and_count_1"];3.25;1533763778.4797;101.46;579.83;131.434967817;10;151
17;paravance-6.rennes.grid5000.fr;thermos-root-devel-WordCountTopology-0-8089812b-9175-4fad-ab88-101e8db97f65;["topology_master"];3.25;1533763778.60968;3.69;9.85;0.240438148;9;117
17;paravance-7.rennes.grid5000.fr;thermos-root-devel-WordCountTopology-2-d9770c35-0ca5-474b-a10d-c34f5dff09d1;["container_2_Emit_random_words_2"];3.25;1533763778.53766;56.5;213.63;4.644975092;10;149
18;paravance-29.rennes.grid5000.fr;thermos-root-devel-WordCountTopology-1-8026c466-e30f-44cf-8a6c-2685f89290e9;["container_1_Consume_and_count_1"];3.25;1533763788.69867;104.6;600.01;136.318387343;10;151
18;paravance-6.rennes.grid5000.fr;thermos-root-devel-WordCountTopology-0-8089812b-9175-4fad-ab88-101e8db97f65;["topology_master"];3.25;1533763788.82571;3.72;9.88;0.240438148;9;117
18;paravance-7.rennes.grid5000.fr;thermos-root-devel-WordCountTopology-2-d9770c35-0ca5-474b-a10d-c34f5dff09d1;["container_2_Emit_random_words_2"];3.25;1533763788.753;58.13;219.32;4.644975092;10;149
19;paravance-29.rennes.grid5000.fr;thermos-root-devel-WordCountTopology-1-8026c466-e30f-44cf-8a6c-2685f89290e9;["container_1_Consume_and_count_1"];3.25;1533763798.91387;108.21;621.25;140.206677775;10;151
19;paravance-7.rennes.grid5000.fr;thermos-root-devel-WordCountTopology-2-d9770c35-0ca5-474b-a10d-c34f5dff09d1;["container_2_Emit_random_words_2"];3.25;1533763798.97032;59.98;226.58;4.645002867;10;149
19;paravance-6.rennes.grid5000.fr;thermos-root-devel-WordCountTopology-0-8089812b-9175-4fad-ab88-101e8db97f65;["topology_master"];3.25;1533763799.04406;3.81;10.01;0.240438148;9;117
20;paravance-29.rennes.grid5000.fr;thermos-root-devel-WordCountTopology-1-8026c466-e30f-44cf-8a6c-2685f89290e9;["container_1_Consume_and_count_1"];3.25;1533763809.13134;111.89;642.71;145.544134684;10;151
20;paravance-6.rennes.grid5000.fr;thermos-root-devel-WordCountTopology-0-8089812b-9175-4fad-ab88-101e8db97f65;["topology_master"];3.25;1533763809.25933;3.87;10.09;0.240438148;9;117
20;paravance-7.rennes.grid5000.fr;thermos-root-devel-WordCountTopology-2-d9770c35-0ca5-474b-a10d-c34f5dff09d1;["container_2_Emit_random_words_2"];3.25;1533763809.18503;62.0;234.25;4.645002867;10;149
21;paravance-29.rennes.grid5000.fr;thermos-root-devel-WordCountTopology-1-8026c466-e30f-44cf-8a6c-2685f89290e9;["container_1_Consume_and_count_1"];3.25;1533763819.34737;115.42;663.57;149.545790703;10;151
21;paravance-7.rennes.grid5000.fr;thermos-root-devel-WordCountTopology-2-d9770c35-0ca5-474b-a10d-c34f5dff09d1;["container_2_Emit_random_words_2"];3.25;1533763819.4034;63.74;240.21;4.645002867;10;149
21;paravance-6.rennes.grid5000.fr;thermos-root-devel-WordCountTopology-0-8089812b-9175-4fad-ab88-101e8db97f65;["topology_master"];3.25;1533763819.47723;3.93;10.17;0.240438148;9;117
22;paravance-29.rennes.grid5000.fr;thermos-root-devel-WordCountTopology-1-8026c466-e30f-44cf-8a6c-2685f89290e9;["container_1_Consume_and_count_1"];3.25;1533763829.56477;119.21;685.21;154.543671018;10;151
22;paravance-6.rennes.grid5000.fr;thermos-root-devel-WordCountTopology-0-8089812b-9175-4fad-ab88-101e8db97f65;["topology_master"];3.25;1533763829.6936;3.99;10.25;0.240438148;9;117
22;paravance-7.rennes.grid5000.fr;thermos-root-devel-WordCountTopology-2-d9770c35-0ca5-474b-a10d-c34f5dff09d1;["container_2_Emit_random_words_2"];3.25;1533763829.62139;65.96;248.19;4.645002867;10;149
23;paravance-6.rennes.grid5000.fr;thermos-root-devel-WordCountTopology-0-8089812b-9175-4fad-ab88-101e8db97f65;["topology_master"];3.25;1533763839.91017;4.11;10.45;0.240438148;9;117
23;paravance-29.rennes.grid5000.fr;thermos-root-devel-WordCountTopology-1-8026c466-e30f-44cf-8a6c-2685f89290e9;["container_1_Consume_and_count_1"];3.25;1533763839.78332;122.76;706.16;159.531618916;10;151
23;paravance-7.rennes.grid5000.fr;thermos-root-devel-WordCountTopology-2-d9770c35-0ca5-474b-a10d-c34f5dff09d1;["container_2_Emit_random_words_2"];3.25;1533763839.83717;67.94;255.22;4.64503827;10;149
24;paravance-6.rennes.grid5000.fr;thermos-root-devel-WordCountTopology-0-8089812b-9175-4fad-ab88-101e8db97f65;["topology_master"];3.25;1533763850.12578;4.14;10.48;0.240438148;9;117
24;paravance-29.rennes.grid5000.fr;thermos-root-devel-WordCountTopology-1-8026c466-e30f-44cf-8a6c-2685f89290e9;["container_1_Consume_and_count_1"];3.25;1533763849.99875;126.06;726.18;163.049733482;10;151
24;paravance-7.rennes.grid5000.fr;thermos-root-devel-WordCountTopology-2-d9770c35-0ca5-474b-a10d-c34f5dff09d1;["container_2_Emit_random_words_2"];3.25;1533763850.05277;69.81;262.1;4.64503827;10;149
25;paravance-6.rennes.grid5000.fr;thermos-root-devel-WordCountTopology-0-8089812b-9175-4fad-ab88-101e8db97f65;["topology_master"];3.25;1533763860.34296;4.24;10.61;0.240438148;9;117
25;paravance-29.rennes.grid5000.fr;thermos-root-devel-WordCountTopology-1-8026c466-e30f-44cf-8a6c-2685f89290e9;["container_1_Consume_and_count_1"];3.25;1533763860.21675;129.23;745.97;166.327494732;10;151
25;paravance-7.rennes.grid5000.fr;thermos-root-devel-WordCountTopology-2-d9770c35-0ca5-474b-a10d-c34f5dff09d1;["container_2_Emit_random_words_2"];3.25;1533763860.27062;71.65;269.23;4.64503827;10;149
26;paravance-29.rennes.grid5000.fr;thermos-root-devel-WordCountTopology-1-8026c466-e30f-44cf-8a6c-2685f89290e9;["container_1_Consume_and_count_1"];3.25;1533763870.43183;132.72;766.17;170.04951297;10;151
26;paravance-7.rennes.grid5000.fr;thermos-root-devel-WordCountTopology-2-d9770c35-0ca5-474b-a10d-c34f5dff09d1;["container_2_Emit_random_words_2"];3.25;1533763870.4863;73.51;276.18;4.64503827;10;149
26;paravance-6.rennes.grid5000.fr;thermos-root-devel-WordCountTopology-0-8089812b-9175-4fad-ab88-101e8db97f65;["topology_master"];3.25;1533763870.56057;4.3;10.69;0.240438148;9;117
27;paravance-29.rennes.grid5000.fr;thermos-root-devel-WordCountTopology-1-8026c466-e30f-44cf-8a6c-2685f89290e9;["container_1_Consume_and_count_1"];3.25;1533763880.64693;136.25;787.5;175.229864303;10;151
27;paravance-7.rennes.grid5000.fr;thermos-root-devel-WordCountTopology-2-d9770c35-0ca5-474b-a10d-c34f5dff09d1;["container_2_Emit_random_words_2"];3.25;1533763880.70214;75.59;283.76;4.64503827;10;149
27;paravance-6.rennes.grid5000.fr;thermos-root-devel-WordCountTopology-0-8089812b-9175-4fad-ab88-101e8db97f65;["topology_master"];3.25;1533763880.77796;4.35;10.76;0.240438148;9;117
28;paravance-29.rennes.grid5000.fr;thermos-root-devel-WordCountTopology-1-8026c466-e30f-44cf-8a6c-2685f89290e9;["container_1_Consume_and_count_1"];3.25;1533763890.86124;139.87;808.07;179.952454302;10;151
28;paravance-7.rennes.grid5000.fr;thermos-root-devel-WordCountTopology-2-d9770c35-0ca5-474b-a10d-c34f5dff09d1;["container_2_Emit_random_words_2"];3.25;1533763890.9178;77.62;291.2;4.64503827;10;149
28;paravance-6.rennes.grid5000.fr;thermos-root-devel-WordCountTopology-0-8089812b-9175-4fad-ab88-101e8db97f65;["topology_master"];3.25;1533763890.99231;4.46;10.9;0.240438148;9;117
29;paravance-7.rennes.grid5000.fr;thermos-root-devel-WordCountTopology-2-d9770c35-0ca5-474b-a10d-c34f5dff09d1;["container_2_Emit_random_words_2"];3.25;1533763901.13208;79.64;298.45;4.64503827;10;149
29;paravance-6.rennes.grid5000.fr;thermos-root-devel-WordCountTopology-0-8089812b-9175-4fad-ab88-101e8db97f65;["topology_master"];3.25;1533763901.20649;4.52;11.08;0.240438148;9;117
29;paravance-29.rennes.grid5000.fr;thermos-root-devel-WordCountTopology-1-8026c466-e30f-44cf-8a6c-2685f89290e9;["container_1_Consume_and_count_1"];3.25;1533763901.07834;143.47;828.73;184.176891993;10;151
30;paravance-29.rennes.grid5000.fr;thermos-root-devel-WordCountTopology-1-8026c466-e30f-44cf-8a6c-2685f89290e9;["container_1_Consume_and_count_1"];3.25;1533763911.29396;147.25;849.58;189.646299341;10;151
30;paravance-6.rennes.grid5000.fr;thermos-root-devel-WordCountTopology-0-8089812b-9175-4fad-ab88-101e8db97f65;["topology_master"];3.25;1533763911.42506;4.59;11.17;0.240438148;9;117
30;paravance-7.rennes.grid5000.fr;thermos-root-devel-WordCountTopology-2-d9770c35-0ca5-474b-a10d-c34f5dff09d1;["container_2_Emit_random_words_2"];3.25;1533763911.35041;81.74;306.12;4.64503827;10;149
31;paravance-7.rennes.grid5000.fr;thermos-root-devel-WordCountTopology-2-d9770c35-0ca5-474b-a10d-c34f5dff09d1;["container_2_Emit_random_words_2"];3.25;1533763921.46792;83.41;312.08;4.64503827;10;149
31;paravance-29.rennes.grid5000.fr;thermos-root-devel-WordCountTopology-1-8026c466-e30f-44cf-8a6c-2685f89290e9;["container_1_Consume_and_count_1"];3.25;1533763921.51228;150.58;871.02;194.685264622;10;151
31;paravance-6.rennes.grid5000.fr;thermos-root-devel-WordCountTopology-0-8089812b-9175-4fad-ab88-101e8db97f65;["topology_master"];3.25;1533763921.64174;4.65;11.25;0.240438148;9;117
32;paravance-29.rennes.grid5000.fr;thermos-root-devel-WordCountTopology-1-8026c466-e30f-44cf-8a6c-2685f89290e9;["container_1_Consume_and_count_1"];3.25;1533763931.72837;154.18;891.72;199.109721858;10;151
32;paravance-6.rennes.grid5000.fr;thermos-root-devel-WordCountTopology-0-8089812b-9175-4fad-ab88-101e8db97f65;["topology_master"];3.25;1533763931.85667;4.74;11.38;0.240438148;9;117
32;paravance-7.rennes.grid5000.fr;thermos-root-devel-WordCountTopology-2-d9770c35-0ca5-474b-a10d-c34f5dff09d1;["container_2_Emit_random_words_2"];3.25;1533763931.78218;85.48;319.41;4.64503827;10;149
33;paravance-6.rennes.grid5000.fr;thermos-root-devel-WordCountTopology-0-8089812b-9175-4fad-ab88-101e8db97f65;["topology_master"];3.25;1533763942.07108;4.77;11.4;0.240438148;9;117
33;paravance-7.rennes.grid5000.fr;thermos-root-devel-WordCountTopology-2-d9770c35-0ca5-474b-a10d-c34f5dff09d1;["container_2_Emit_random_words_2"];3.25;1533763941.9966;87.31;325.68;4.64503827;10;149
33;paravance-29.rennes.grid5000.fr;thermos-root-devel-WordCountTopology-1-8026c466-e30f-44cf-8a6c-2685f89290e9;["container_1_Consume_and_count_1"];3.25;1533763941.94327;157.47;912.71;203.47719016;10;151
34;paravance-6.rennes.grid5000.fr;thermos-root-devel-WordCountTopology-0-8089812b-9175-4fad-ab88-101e8db97f65;["topology_master"];3.25;1533763952.28494;4.87;11.55;0.240438148;9;117
34;paravance-7.rennes.grid5000.fr;thermos-root-devel-WordCountTopology-2-d9770c35-0ca5-474b-a10d-c34f5dff09d1;["container_2_Emit_random_words_2"];3.25;1533763952.21096;89.22;331.62;4.64503827;10;149
34;paravance-29.rennes.grid5000.fr;thermos-root-devel-WordCountTopology-1-8026c466-e30f-44cf-8a6c-2685f89290e9;["container_1_Consume_and_count_1"];3.25;1533763952.15831;160.79;932.98;208.066420129;10;151
35;paravance-6.rennes.grid5000.fr;thermos-root-devel-WordCountTopology-0-8089812b-9175-4fad-ab88-101e8db97f65;["topology_master"];3.25;1533763962.50216;4.94;11.68;0.240438148;9;117
35;paravance-29.rennes.grid5000.fr;thermos-root-devel-WordCountTopology-1-8026c466-e30f-44cf-8a6c-2685f89290e9;["container_1_Consume_and_count_1"];3.25;1533763962.37437;164.57;954.15;212.614892739;10;151
35;paravance-7.rennes.grid5000.fr;thermos-root-devel-WordCountTopology-2-d9770c35-0ca5-474b-a10d-c34f5dff09d1;["container_2_Emit_random_words_2"];3.25;1533763962.42875;91.31;338.77;4.64503827;10;149
36;paravance-7.rennes.grid5000.fr;thermos-root-devel-WordCountTopology-2-d9770c35-0ca5-474b-a10d-c34f5dff09d1;["container_2_Emit_random_words_2"];3.25;1533763972.64478;93.37;345.88;4.64503827;10;149
36;paravance-6.rennes.grid5000.fr;thermos-root-devel-WordCountTopology-0-8089812b-9175-4fad-ab88-101e8db97f65;["topology_master"];3.25;1533763972.72018;5.03;11.81;0.240438148;9;117
36;paravance-29.rennes.grid5000.fr;thermos-root-devel-WordCountTopology-1-8026c466-e30f-44cf-8a6c-2685f89290e9;["container_1_Consume_and_count_1"];3.25;1533763972.59337;168.23;975.23;217.617885717;10;151
37;paravance-6.rennes.grid5000.fr;thermos-root-devel-WordCountTopology-0-8089812b-9175-4fad-ab88-101e8db97f65;["topology_master"];3.25;1533763982.93596;5.05;11.83;0.240438148;9;117
37;paravance-29.rennes.grid5000.fr;thermos-root-devel-WordCountTopology-1-8026c466-e30f-44cf-8a6c-2685f89290e9;["container_1_Consume_and_count_1"];3.25;1533763982.80958;172.02;997.04;221.917654898;10;151
37;paravance-7.rennes.grid5000.fr;thermos-root-devel-WordCountTopology-2-d9770c35-0ca5-474b-a10d-c34f5dff09d1;["container_2_Emit_random_words_2"];3.25;1533763982.86318;95.37;352.97;4.64503827;10;149
38;paravance-29.rennes.grid5000.fr;thermos-root-devel-WordCountTopology-1-8026c466-e30f-44cf-8a6c-2685f89290e9;["container_1_Consume_and_count_1"];3.25;1533763993.02336;175.28;1017.54;225.750783541;10;151
38;paravance-6.rennes.grid5000.fr;thermos-root-devel-WordCountTopology-0-8089812b-9175-4fad-ab88-101e8db97f65;["topology_master"];3.25;1533763993.1534;5.14;11.96;0.240438148;9;117
38;paravance-7.rennes.grid5000.fr;thermos-root-devel-WordCountTopology-2-d9770c35-0ca5-474b-a10d-c34f5dff09d1;["container_2_Emit_random_words_2"];3.25;1533763993.07963;97.03;358.39;4.64503827;10;149
39;paravance-29.rennes.grid5000.fr;thermos-root-devel-WordCountTopology-1-8026c466-e30f-44cf-8a6c-2685f89290e9;["container_1_Consume_and_count_1"];3.25;1533764003.23928;178.9;1038.92;229.827662446;10;151
39;paravance-7.rennes.grid5000.fr;thermos-root-devel-WordCountTopology-2-d9770c35-0ca5-474b-a10d-c34f5dff09d1;["container_2_Emit_random_words_2"];3.25;1533764003.29437;98.97;365.54;4.64503827;10;149
39;paravance-6.rennes.grid5000.fr;thermos-root-devel-WordCountTopology-0-8089812b-9175-4fad-ab88-101e8db97f65;["topology_master"];3.25;1533764003.36966;5.2;12.03;0.240438148;9;117
40;paravance-29.rennes.grid5000.fr;thermos-root-devel-WordCountTopology-1-8026c466-e30f-44cf-8a6c-2685f89290e9;["container_1_Consume_and_count_1"];3.25;1533764013.45769;182.64;1060.19;233.821017643;10;151
40;paravance-6.rennes.grid5000.fr;thermos-root-devel-WordCountTopology-0-8089812b-9175-4fad-ab88-101e8db97f65;["topology_master"];3.25;1533764013.58478;5.27;12.12;0.240438148;9;117
40;paravance-7.rennes.grid5000.fr;thermos-root-devel-WordCountTopology-2-d9770c35-0ca5-474b-a10d-c34f5dff09d1;["container_2_Emit_random_words_2"];3.25;1533764013.51169;100.95;372.52;4.64503827;10;149
41;paravance-6.rennes.grid5000.fr;thermos-root-devel-WordCountTopology-0-8089812b-9175-4fad-ab88-101e8db97f65;["topology_master"];3.25;1533764023.80286;5.33;12.24;0.240438148;9;117
41;paravance-7.rennes.grid5000.fr;thermos-root-devel-WordCountTopology-2-d9770c35-0ca5-474b-a10d-c34f5dff09d1;["container_2_Emit_random_words_2"];3.25;1533764023.72767;102.94;379.39;4.64503827;10;149
41;paravance-29.rennes.grid5000.fr;thermos-root-devel-WordCountTopology-1-8026c466-e30f-44cf-8a6c-2685f89290e9;["container_1_Consume_and_count_1"];3.25;1533764023.67398;186.19;1081.08;237.930051194;10;151
42;paravance-7.rennes.grid5000.fr;thermos-root-devel-WordCountTopology-2-d9770c35-0ca5-474b-a10d-c34f5dff09d1;["container_2_Emit_random_words_2"];3.25;1533764033.943;104.85;386.02;4.64503827;10;149
42;paravance-29.rennes.grid5000.fr;thermos-root-devel-WordCountTopology-1-8026c466-e30f-44cf-8a6c-2685f89290e9;["container_1_Consume_and_count_1"];3.25;1533764033.89132;189.77;1102.83;242.902781846;10;151
42;paravance-6.rennes.grid5000.fr;thermos-root-devel-WordCountTopology-0-8089812b-9175-4fad-ab88-101e8db97f65;["topology_master"];3.25;1533764034.01965;5.43;12.37;0.240438148;9;117
43;paravance-29.rennes.grid5000.fr;thermos-root-devel-WordCountTopology-1-8026c466-e30f-44cf-8a6c-2685f89290e9;["container_1_Consume_and_count_1"];3.25;1533764044.10921;193.25;1123.68;246.980981429;10;151
43;paravance-6.rennes.grid5000.fr;thermos-root-devel-WordCountTopology-0-8089812b-9175-4fad-ab88-101e8db97f65;["topology_master"];3.25;1533764044.23643;5.45;12.4;0.240438148;9;117
43;paravance-7.rennes.grid5000.fr;thermos-root-devel-WordCountTopology-2-d9770c35-0ca5-474b-a10d-c34f5dff09d1;["container_2_Emit_random_words_2"];3.25;1533764044.16126;106.76;392.79;4.64503827;10;149
44;paravance-6.rennes.grid5000.fr;thermos-root-devel-WordCountTopology-0-8089812b-9175-4fad-ab88-101e8db97f65;["topology_master"];3.25;1533764054.45446;5.54;12.52;0.240438148;9;117
44;paravance-29.rennes.grid5000.fr;thermos-root-devel-WordCountTopology-1-8026c466-e30f-44cf-8a6c-2685f89290e9;["container_1_Consume_and_count_1"];3.25;1533764054.32746;196.78;1144.59;251.660263879;10;151
44;paravance-7.rennes.grid5000.fr;thermos-root-devel-WordCountTopology-2-d9770c35-0ca5-474b-a10d-c34f5dff09d1;["container_2_Emit_random_words_2"];3.25;1533764054.38029;108.68;399.24;4.64503827;10;149
45;paravance-29.rennes.grid5000.fr;thermos-root-devel-WordCountTopology-1-8026c466-e30f-44cf-8a6c-2685f89290e9;["container_1_Consume_and_count_1"];3.25;1533764064.54273;200.7;1165.13;256.296305723;10;151
45;paravance-7.rennes.grid5000.fr;thermos-root-devel-WordCountTopology-2-d9770c35-0ca5-474b-a10d-c34f5dff09d1;["container_2_Emit_random_words_2"];3.25;1533764064.59548;110.85;406.51;4.64503827;10;149
45;paravance-6.rennes.grid5000.fr;thermos-root-devel-WordCountTopology-0-8089812b-9175-4fad-ab88-101e8db97f65;["topology_master"];3.25;1533764064.67127;5.6;12.6;0.240438148;9;117
46;paravance-6.rennes.grid5000.fr;thermos-root-devel-WordCountTopology-0-8089812b-9175-4fad-ab88-101e8db97f65;["topology_master"];;;;;;;
46;paravance-29.rennes.grid5000.fr;thermos-root-devel-WordCountTopology-1-8026c466-e30f-44cf-8a6c-2685f89290e9;["container_1_Consume_and_count_1"];3.25;1533764074.76042;204.33;1185.5;260.860496328;10;151
46;paravance-7.rennes.grid5000.fr;thermos-root-devel-WordCountTopology-2-d9770c35-0ca5-474b-a10d-c34f5dff09d1;["container_2_Emit_random_words_2"];3.25;1533764074.81338;112.81;413.42;4.64503827;10;149
47;paravance-29.rennes.grid5000.fr;thermos-root-devel-WordCountTopology-1-8026c466-e30f-44cf-8a6c-2685f89290e9;["container_1_Consume_and_count_1"];3.25;1533764084.97583;207.89;1205.83;265.308035644;10;151
47;paravance-6.rennes.grid5000.fr;thermos-root-devel-WordCountTopology-0-8089812b-9175-4fad-ab88-101e8db97f65;["topology_master"];3.25;1533764085.10847;5.74;12.84;0.240438148;9;117
47;paravance-7.rennes.grid5000.fr;thermos-root-devel-WordCountTopology-2-d9770c35-0ca5-474b-a10d-c34f5dff09d1;["container_2_Emit_random_words_2"];3.25;1533764085.03383;114.83;420.14;4.64503827;10;149
48;paravance-6.rennes.grid5000.fr;thermos-root-devel-WordCountTopology-0-8089812b-9175-4fad-ab88-101e8db97f65;["topology_master"];3.25;1533764095.22446;5.83;12.97;0.240438148;9;117
48;paravance-29.rennes.grid5000.fr;thermos-root-devel-WordCountTopology-1-8026c466-e30f-44cf-8a6c-2685f89290e9;["container_1_Consume_and_count_1"];3.25;1533764095.19322;211.42;1226.26;269.329807528;10;151
48;paravance-7.rennes.grid5000.fr;thermos-root-devel-WordCountTopology-2-d9770c35-0ca5-474b-a10d-c34f5dff09d1;["container_2_Emit_random_words_2"];3.25;1533764095.24737;116.83;426.96;4.64503827;10;149
49;paravance-29.rennes.grid5000.fr;thermos-root-devel-WordCountTopology-1-8026c466-e30f-44cf-8a6c-2685f89290e9;["container_1_Consume_and_count_1"];3.25;1533764105.40911;214.87;1246.41;273.571076182;10;151
49;paravance-6.rennes.grid5000.fr;thermos-root-devel-WordCountTopology-0-8089812b-9175-4fad-ab88-101e8db97f65;["topology_master"];3.25;1533764105.53808;5.85;13.01;0.240438148;9;117
49;paravance-7.rennes.grid5000.fr;thermos-root-devel-WordCountTopology-2-d9770c35-0ca5-474b-a10d-c34f5dff09d1;["container_2_Emit_random_words_2"];3.25;1533764105.46352;118.76;433.58;4.64503827;10;149
50;paravance-29.rennes.grid5000.fr;thermos-root-devel-WordCountTopology-1-8026c466-e30f-44cf-8a6c-2685f89290e9;["container_1_Consume_and_count_1"];3.25;1533764115.62645;218.67;1267.09;277.588852696;10;151
50;paravance-6.rennes.grid5000.fr;thermos-root-devel-WordCountTopology-0-8089812b-9175-4fad-ab88-101e8db97f65;["topology_master"];3.25;1533764115.75461;5.94;13.14;0.240438148;9;117
50;paravance-7.rennes.grid5000.fr;thermos-root-devel-WordCountTopology-2-d9770c35-0ca5-474b-a10d-c34f5dff09d1;["container_2_Emit_random_words_2"];3.25;1533764115.68009;120.8;440.97;4.64503827;10;149
51;paravance-6.rennes.grid5000.fr;thermos-root-devel-WordCountTopology-0-8089812b-9175-4fad-ab88-101e8db97f65;["topology_master"];3.25;1533764125.97251;6.0;13.22;0.240438148;9;117
51;paravance-7.rennes.grid5000.fr;thermos-root-devel-WordCountTopology-2-d9770c35-0ca5-474b-a10d-c34f5dff09d1;["container_2_Emit_random_words_2"];3.25;1533764125.89679;122.62;447.52;4.64503827;10;149
52;paravance-29.rennes.grid5000.fr;thermos-root-devel-WordCountTopology-1-8026c466-e30f-44cf-8a6c-2685f89290e9;["container_1_Consume_and_count_1"];3.25;1533764136.05933;225.94;1308.73;285.423663332;10;151
52;paravance-7.rennes.grid5000.fr;thermos-root-devel-WordCountTopology-2-d9770c35-0ca5-474b-a10d-c34f5dff09d1;["container_2_Emit_random_words_2"];3.25;1533764136.11156;124.7;454.76;4.64503827;10;149
52;paravance-6.rennes.grid5000.fr;thermos-root-devel-WordCountTopology-0-8089812b-9175-4fad-ab88-101e8db97f65;["topology_master"];3.25;1533764136.18812;6.07;13.33;0.240438148;9;117
53;paravance-7.rennes.grid5000.fr;thermos-root-devel-WordCountTopology-2-d9770c35-0ca5-474b-a10d-c34f5dff09d1;["container_2_Emit_random_words_2"];3.25;1533764146.33021;126.8;462.39;4.64503827;10;149
53;paravance-6.rennes.grid5000.fr;thermos-root-devel-WordCountTopology-0-8089812b-9175-4fad-ab88-101e8db97f65;["topology_master"];3.25;1533764146.40609;6.13;13.4;0.240438148;9;117
53;paravance-29.rennes.grid5000.fr;thermos-root-devel-WordCountTopology-1-8026c466-e30f-44cf-8a6c-2685f89290e9;["container_1_Consume_and_count_1"];3.25;1533764146.27821;229.71;1329.95;289.907480084;10;151
54;paravance-29.rennes.grid5000.fr;thermos-root-devel-WordCountTopology-1-8026c466-e30f-44cf-8a6c-2685f89290e9;["container_1_Consume_and_count_1"];3.25;1533764156.49433;233.73;1351.61;294.683270295;10;151
54;paravance-7.rennes.grid5000.fr;thermos-root-devel-WordCountTopology-2-d9770c35-0ca5-474b-a10d-c34f5dff09d1;["container_2_Emit_random_words_2"];3.25;1533764156.5471;129.0;470.3;4.64503827;10;149
54;paravance-6.rennes.grid5000.fr;thermos-root-devel-WordCountTopology-0-8089812b-9175-4fad-ab88-101e8db97f65;["topology_master"];3.25;1533764156.6249;6.22;13.53;0.240438148;9;117
55;paravance-29.rennes.grid5000.fr;thermos-root-devel-WordCountTopology-1-8026c466-e30f-44cf-8a6c-2685f89290e9;["container_1_Consume_and_count_1"];3.25;1533764166.70836;237.29;1372.59;299.916348657;10;151
55;paravance-7.rennes.grid5000.fr;thermos-root-devel-WordCountTopology-2-d9770c35-0ca5-474b-a10d-c34f5dff09d1;["container_2_Emit_random_words_2"];3.25;1533764166.76194;130.96;477.12;4.64503827;10;149
55;paravance-6.rennes.grid5000.fr;thermos-root-devel-WordCountTopology-0-8089812b-9175-4fad-ab88-101e8db97f65;["topology_master"];3.25;1533764166.83783;6.25;13.55;0.240438148;9;117
56;paravance-6.rennes.grid5000.fr;thermos-root-devel-WordCountTopology-0-8089812b-9175-4fad-ab88-101e8db97f65;["topology_master"];3.25;1533764177.05423;6.35;13.69;0.240438148;9;117
56;paravance-29.rennes.grid5000.fr;thermos-root-devel-WordCountTopology-1-8026c466-e30f-44cf-8a6c-2685f89290e9;["container_1_Consume_and_count_1"];3.25;1533764176.92621;241.1;1393.69;304.330801731;10;151
56;paravance-7.rennes.grid5000.fr;thermos-root-devel-WordCountTopology-2-d9770c35-0ca5-474b-a10d-c34f5dff09d1;["container_2_Emit_random_words_2"];3.25;1533764176.979;132.99;484.5;4.64503827;10;149
57;paravance-29.rennes.grid5000.fr;thermos-root-devel-WordCountTopology-1-8026c466-e30f-44cf-8a6c-2685f89290e9;["container_1_Consume_and_count_1"];3.25;1533764187.14245;244.87;1414.42;309.516047945;10;151
57;paravance-6.rennes.grid5000.fr;thermos-root-devel-WordCountTopology-0-8089812b-9175-4fad-ab88-101e8db97f65;["topology_master"];3.25;1533764187.27112;6.41;13.77;0.240438148;9;117
57;paravance-7.rennes.grid5000.fr;thermos-root-devel-WordCountTopology-2-d9770c35-0ca5-474b-a10d-c34f5dff09d1;["container_2_Emit_random_words_2"];3.25;1533764187.20071;135.03;491.52;4.64503827;10;149
58;paravance-29.rennes.grid5000.fr;thermos-root-devel-WordCountTopology-1-8026c466-e30f-44cf-8a6c-2685f89290e9;["container_1_Consume_and_count_1"];3.25;1533764197.36385;248.56;1435.49;314.049203413;10;151
58;paravance-6.rennes.grid5000.fr;thermos-root-devel-WordCountTopology-0-8089812b-9175-4fad-ab88-101e8db97f65;["topology_master"];3.25;1533764197.49222;6.48;13.88;0.240438148;9;117
58;paravance-7.rennes.grid5000.fr;thermos-root-devel-WordCountTopology-2-d9770c35-0ca5-474b-a10d-c34f5dff09d1;["container_2_Emit_random_words_2"];3.25;1533764197.41572;137.02;498.43;4.70146563;10;149
59;paravance-29.rennes.grid5000.fr;thermos-root-devel-WordCountTopology-1-8026c466-e30f-44cf-8a6c-2685f89290e9;["container_1_Consume_and_count_1"];3.25;1533764207.57854;251.96;1456.26;318.291630943;10;151
59;paravance-6.rennes.grid5000.fr;thermos-root-devel-WordCountTopology-0-8089812b-9175-4fad-ab88-101e8db97f65;["topology_master"];3.25;1533764207.70788;6.54;13.95;0.240438148;9;117
59;paravance-7.rennes.grid5000.fr;thermos-root-devel-WordCountTopology-2-d9770c35-0ca5-474b-a10d-c34f5dff09d1;["container_2_Emit_random_words_2"];3.25;1533764207.63145;138.83;504.73;4.70146563;10;149
60;paravance-7.rennes.grid5000.fr;thermos-root-devel-WordCountTopology-2-d9770c35-0ca5-474b-a10d-c34f5dff09d1;["container_2_Emit_random_words_2"];3.25;1533764217.8464;140.68;511.43;4.70146563;10;149
60;paravance-29.rennes.grid5000.fr;thermos-root-devel-WordCountTopology-1-8026c466-e30f-44cf-8a6c-2685f89290e9;["container_1_Consume_and_count_1"];3.25;1533764217.79511;255.57;1476.9;322.770743797;10;151
60;paravance-6.rennes.grid5000.fr;thermos-root-devel-WordCountTopology-0-8089812b-9175-4fad-ab88-101e8db97f65;["topology_master"];3.25;1533764217.92466;6.63;14.08;0.240438148;9;117
