{
  "status": "success",
  "executiontime": 0.00017881393432617188,
  "message": "",
  "result": {
    "bolts": {
      "Consume_and_count": [
        "container_1_Consume_and_count_1"
      ]
    },
    "instances": {
      "container_2_Emit_random_words_2": {
        "stmgrId": "stmgr-2",
        "logfile": "http://paravance-7.rennes.grid5000.fr:31209/file/log-files/container_2_Emit_random_words_2.log.0",
        "id": "container_2_Emit_random_words_2",
        "name": "Emit_random_words"
      },
      "container_1_Consume_and_count_1": {
        "stmgrId": "stmgr-1",
        "logfile": "http://paravance-29.rennes.grid5000.fr:31609/file/log-files/container_1_Consume_and_count_1.log.0",
        "id": "container_1_Consume_and_count_1",
        "name": "Consume_and_count"
      }
    },
    "instance_groups": {
      "container_1_Consume_and": [
        "container_1_Consume_and_count_1"
      ],
      "container_2_Emit_random": [
        "container_2_Emit_random_words_2"
      ]
    },
    "spouts": {
      "Emit_random_words": [
        "container_2_Emit_random_words_2"
      ]
    },
    "config": {
      "topology.message.timeout.secs": "30",
      "topology.team.environment": "devel",
      "topology.serializer.classname": "org.apache.heron.streamlet.impl.KryoSerializer",
      "topology.team.name": "root",
      "topology.debug": "false",
      "topology.max.spout.pending": "100",
      "topology.container.padding.percentage": "200",
      "topology.enable.message.timeouts": "true",
      "topology.component.parallelism": "1",
      "topology.name": "WordCountTopology",
      "topology.stmgrs": "2",
      "topology.reliability.mode": "ATMOST_ONCE"
    },
    "stmgrs": {
      "stmgr-1": {
        "cwd": "/var/lib/mesos/slaves/3377466f-a351-4ac8-9612-b98e0500d19a-S0/frameworks/75deb08a-eb1b-415c-8b2c-e922be5f7d98-0000/executors/thermos-root-devel-WordCountTopology-1-8026c466-e30f-44cf-8a6c-2685f89290e9/runs/5ed19315-6f40-439f-b2d4-f62384b1adb7/sandbox",
        "host": "paravance-29.rennes.grid5000.fr",
        "joburl": "http://paravance-29.rennes.grid5000.fr:31609/browse/",
        "shell_port": 31609,
        "logfiles": "http://paravance-29.rennes.grid5000.fr:31609/browse/log-files",
        "pid": 2847,
        "id": "stmgr-1",
        "instance_ids": [
          "container_1_Consume_and_count_1"
        ],
        "port": 31327
      },
      "stmgr-2": {
        "cwd": "/var/lib/mesos/slaves/3377466f-a351-4ac8-9612-b98e0500d19a-S2/frameworks/75deb08a-eb1b-415c-8b2c-e922be5f7d98-0000/executors/thermos-root-devel-WordCountTopology-2-d9770c35-0ca5-474b-a10d-c34f5dff09d1/runs/0e89be4d-a5f3-45e9-87b3-5bef9a296d3e/sandbox",
        "host": "paravance-7.rennes.grid5000.fr",
        "joburl": "http://paravance-7.rennes.grid5000.fr:31209/browse/",
        "shell_port": 31209,
        "logfiles": "http://paravance-7.rennes.grid5000.fr:31209/browse/log-files",
        "pid": 2763,
        "id": "stmgr-2",
        "instance_ids": [
          "container_2_Emit_random_words_2"
        ],
        "port": 31104
      }
    }
  },
  "tracker_version": "0.17.8-61-gd7c8c62"
}