------------------------------------------------------
 submission_time: 1533480061
------------------------------------------------------
timeslice start: 1533480480; backpressure time in ms: 34545.0
timeslice start: 1533480240; backpressure time in ms: 32452.0
timeslice start: 1533480420; backpressure time in ms: 34226.0
timeslice start: 1533480360; backpressure time in ms: 33784.0
timeslice start: 1533480780; backpressure time in ms: 35878.0
timeslice start: 1533480300; backpressure time in ms: 33754.0
timeslice start: 1533480720; backpressure time in ms: 35075.0
timeslice start: 1533480660; backpressure time in ms: 34492.0
timeslice start: 1533480600; backpressure time in ms: 35769.0
timeslice start: 1533480540; backpressure time in ms: 35519.0
