{
  "status": "success",
  "executiontime": 0.00018215179443359375,
  "message": "",
  "result": {
    "bolts": {
      "Consume_and_count": [
        "container_1_Consume_and_count_1"
      ]
    },
    "instances": {
      "container_2_Emit_random_words_2": {
        "stmgrId": "stmgr-2",
        "logfile": "http://paravance-43.rennes.grid5000.fr:31309/file/log-files/container_2_Emit_random_words_2.log.0",
        "id": "container_2_Emit_random_words_2",
        "name": "Emit_random_words"
      },
      "container_1_Consume_and_count_1": {
        "stmgrId": "stmgr-1",
        "logfile": "http://paravance-49.rennes.grid5000.fr:31958/file/log-files/container_1_Consume_and_count_1.log.0",
        "id": "container_1_Consume_and_count_1",
        "name": "Consume_and_count"
      }
    },
    "instance_groups": {
      "container_1_Consume_and": [
        "container_1_Consume_and_count_1"
      ],
      "container_2_Emit_random": [
        "container_2_Emit_random_words_2"
      ]
    },
    "spouts": {
      "Emit_random_words": [
        "container_2_Emit_random_words_2"
      ]
    },
    "config": {
      "topology.message.timeout.secs": "30",
      "topology.team.environment": "devel",
      "topology.serializer.classname": "org.apache.heron.streamlet.impl.KryoSerializer",
      "topology.team.name": "root",
      "topology.debug": "false",
      "topology.max.spout.pending": "100",
      "topology.container.padding.percentage": "400",
      "topology.enable.message.timeouts": "true",
      "topology.component.parallelism": "1",
      "topology.name": "WordCountTopology",
      "topology.stmgrs": "2",
      "topology.reliability.mode": "ATMOST_ONCE"
    },
    "stmgrs": {
      "stmgr-1": {
        "cwd": "/var/lib/mesos/slaves/f7dc0d4a-603b-4aea-ae4e-0b17ddecc4cf-S1/frameworks/75deb08a-eb1b-415c-8b2c-e922be5f7d98-0000/executors/thermos-root-devel-WordCountTopology-1-3a83c6ec-e64c-43c1-ba15-ba5351286959/runs/e0ea6eb3-adde-48fd-a305-11be912841bd/sandbox",
        "host": "paravance-49.rennes.grid5000.fr",
        "joburl": "http://paravance-49.rennes.grid5000.fr:31958/browse/",
        "shell_port": 31958,
        "logfiles": "http://paravance-49.rennes.grid5000.fr:31958/browse/log-files",
        "pid": 2141,
        "id": "stmgr-1",
        "instance_ids": [
          "container_1_Consume_and_count_1"
        ],
        "port": 31700
      },
      "stmgr-2": {
        "cwd": "/var/lib/mesos/slaves/f7dc0d4a-603b-4aea-ae4e-0b17ddecc4cf-S2/frameworks/75deb08a-eb1b-415c-8b2c-e922be5f7d98-0000/executors/thermos-root-devel-WordCountTopology-2-26498829-40ab-4272-88cc-c8a0bebbd7c7/runs/3376d074-9600-4b4b-a70b-70f3c59d98e7/sandbox",
        "host": "paravance-43.rennes.grid5000.fr",
        "joburl": "http://paravance-43.rennes.grid5000.fr:31309/browse/",
        "shell_port": 31309,
        "logfiles": "http://paravance-43.rennes.grid5000.fr:31309/browse/log-files",
        "pid": 2144,
        "id": "stmgr-2",
        "instance_ids": [
          "container_2_Emit_random_words_2"
        ],
        "port": 31036
      }
    }
  },
  "tracker_version": "0.17.8-61-gd7c8c62"
}