------------------------------------------------------
 submission_time: 1533258315
------------------------------------------------------
timeslice start: 1533258720; backpressure time in ms: 32657.0
timeslice start: 1533258960; backpressure time in ms: 30992.0
timeslice start: 1533258660; backpressure time in ms: 31591.0
timeslice start: 1533258600; backpressure time in ms: 33054.0
timeslice start: 1533258540; backpressure time in ms: 33651.0
timeslice start: 1533259020; backpressure time in ms: 0.0
timeslice start: 1533258480; backpressure time in ms: 34803.0
timeslice start: 1533258900; backpressure time in ms: 33323.0
timeslice start: 1533258840; backpressure time in ms: 29421.0
timeslice start: 1533258780; backpressure time in ms: 35092.0
