mesure_id;slave_id;executor_id;heron_instances;cpus_limit;timestamp_B;cpus_system_time_secs_B;cpus_user_time_secs_B;cpus_throttled_time_secs_B;processes;threads
0;paravance-70.rennes.grid5000.fr;thermos-root-devel-WordCountTopology-0-f993bf2d-1f82-4dc8-8433-a03ab75d8d26;["topology_master"];2.25;1533808592.18282;2.49;8.15;0.135936353;9;117
0;paravance-71.rennes.grid5000.fr;thermos-root-devel-WordCountTopology-1-09755289-4567-442c-b0a4-b0b83e984910;["container_1_Consume_and_count_1"];2.25;1533808592.06608;29.36;223.66;38.93754677;10;149
0;paravance-69.rennes.grid5000.fr;thermos-root-devel-WordCountTopology-2-5f48e033-333e-4be4-8392-f62287ce7e86;["container_2_Emit_random_words_2"];2.25;1533808592.12778;19.48;224.79;15.711231053;10;149
1;paravance-69.rennes.grid5000.fr;thermos-root-devel-WordCountTopology-2-5f48e033-333e-4be4-8392-f62287ce7e86;["container_2_Emit_random_words_2"];2.25;1533808602.34736;20.88;241.91;15.812489346;10;149
1;paravance-70.rennes.grid5000.fr;thermos-root-devel-WordCountTopology-0-f993bf2d-1f82-4dc8-8433-a03ab75d8d26;["topology_master"];2.25;1533808602.49384;2.57;8.28;0.135936353;9;117
1;paravance-71.rennes.grid5000.fr;thermos-root-devel-WordCountTopology-1-09755289-4567-442c-b0a4-b0b83e984910;["container_1_Consume_and_count_1"];2.25;1533808602.38023;31.55;242.0;41.971460557;10;149
2;paravance-69.rennes.grid5000.fr;thermos-root-devel-WordCountTopology-2-5f48e033-333e-4be4-8392-f62287ce7e86;["container_2_Emit_random_words_2"];2.25;1533808612.56819;22.23;259.2;15.832377186;10;149
2;paravance-70.rennes.grid5000.fr;thermos-root-devel-WordCountTopology-0-f993bf2d-1f82-4dc8-8433-a03ab75d8d26;["topology_master"];2.25;1533808612.71106;2.6;8.31;0.135936353;9;117
2;paravance-71.rennes.grid5000.fr;thermos-root-devel-WordCountTopology-1-09755289-4567-442c-b0a4-b0b83e984910;["container_1_Consume_and_count_1"];2.25;1533808612.60166;33.75;260.43;45.138841391;10;149
3;paravance-70.rennes.grid5000.fr;thermos-root-devel-WordCountTopology-0-f993bf2d-1f82-4dc8-8433-a03ab75d8d26;["topology_master"];2.25;1533808622.92582;2.68;8.43;0.135936353;9;117
3;paravance-69.rennes.grid5000.fr;thermos-root-devel-WordCountTopology-2-5f48e033-333e-4be4-8392-f62287ce7e86;["container_2_Emit_random_words_2"];2.25;1533808622.78933;23.71;277.0;15.880031984;10;149
3;paravance-71.rennes.grid5000.fr;thermos-root-devel-WordCountTopology-1-09755289-4567-442c-b0a4-b0b83e984910;["container_1_Consume_and_count_1"];2.25;1533808622.82209;35.99;278.61;49.323856515;10;149
4;paravance-70.rennes.grid5000.fr;thermos-root-devel-WordCountTopology-0-f993bf2d-1f82-4dc8-8433-a03ab75d8d26;["topology_master"];2.25;1533808633.04177;2.74;8.51;0.135936353;9;117
4;paravance-71.rennes.grid5000.fr;thermos-root-devel-WordCountTopology-1-09755289-4567-442c-b0a4-b0b83e984910;["container_1_Consume_and_count_1"];2.25;1533808633.04196;38.07;297.03;52.936050346;10;149
4;paravance-69.rennes.grid5000.fr;thermos-root-devel-WordCountTopology-2-5f48e033-333e-4be4-8392-f62287ce7e86;["container_2_Emit_random_words_2"];2.25;1533808633.01057;25.01;293.16;15.929524186;10;149
5;paravance-69.rennes.grid5000.fr;thermos-root-devel-WordCountTopology-2-5f48e033-333e-4be4-8392-f62287ce7e86;["container_2_Emit_random_words_2"];2.25;1533808643.23004;26.36;309.65;15.987883038;10;149
5;paravance-70.rennes.grid5000.fr;thermos-root-devel-WordCountTopology-0-f993bf2d-1f82-4dc8-8433-a03ab75d8d26;["topology_master"];2.25;1533808643.35651;2.86;8.68;0.135936353;9;117
5;paravance-71.rennes.grid5000.fr;thermos-root-devel-WordCountTopology-1-09755289-4567-442c-b0a4-b0b83e984910;["container_1_Consume_and_count_1"];2.25;1533808643.26276;40.26;315.17;56.008837563;10;149
6;paravance-69.rennes.grid5000.fr;thermos-root-devel-WordCountTopology-2-5f48e033-333e-4be4-8392-f62287ce7e86;["container_2_Emit_random_words_2"];2.25;1533808653.45064;27.8;326.87;16.225822883;10;149
6;paravance-71.rennes.grid5000.fr;thermos-root-devel-WordCountTopology-1-09755289-4567-442c-b0a4-b0b83e984910;["container_1_Consume_and_count_1"];2.25;1533808653.48248;42.46;333.36;59.32211691;10;149
6;paravance-70.rennes.grid5000.fr;thermos-root-devel-WordCountTopology-0-f993bf2d-1f82-4dc8-8433-a03ab75d8d26;["topology_master"];2.25;1533808653.57318;2.9;8.78;0.135936353;9;117
7;paravance-69.rennes.grid5000.fr;thermos-root-devel-WordCountTopology-2-5f48e033-333e-4be4-8392-f62287ce7e86;["container_2_Emit_random_words_2"];2.25;1533808663.67135;29.23;344.24;16.346677655;10;149
7;paravance-71.rennes.grid5000.fr;thermos-root-devel-WordCountTopology-1-09755289-4567-442c-b0a4-b0b83e984910;["container_1_Consume_and_count_1"];2.25;1533808663.70379;44.72;351.43;62.770151466;10;149
7;paravance-70.rennes.grid5000.fr;thermos-root-devel-WordCountTopology-0-f993bf2d-1f82-4dc8-8433-a03ab75d8d26;["topology_master"];2.25;1533808663.78908;2.99;8.91;0.135936353;9;117
8;paravance-70.rennes.grid5000.fr;thermos-root-devel-WordCountTopology-0-f993bf2d-1f82-4dc8-8433-a03ab75d8d26;["topology_master"];2.25;1533808674.00379;3.05;8.99;0.135936353;9;117
8;paravance-71.rennes.grid5000.fr;thermos-root-devel-WordCountTopology-1-09755289-4567-442c-b0a4-b0b83e984910;["container_1_Consume_and_count_1"];2.25;1533808673.92544;46.86;369.4;65.650356994;10;149
8;paravance-69.rennes.grid5000.fr;thermos-root-devel-WordCountTopology-2-5f48e033-333e-4be4-8392-f62287ce7e86;["container_2_Emit_random_words_2"];2.25;1533808673.89334;30.54;360.76;16.354741399;10;149
9;paravance-70.rennes.grid5000.fr;thermos-root-devel-WordCountTopology-0-f993bf2d-1f82-4dc8-8433-a03ab75d8d26;["topology_master"];2.25;1533808684.21942;3.11;9.06;0.135936353;9;117
9;paravance-69.rennes.grid5000.fr;thermos-root-devel-WordCountTopology-2-5f48e033-333e-4be4-8392-f62287ce7e86;["container_2_Emit_random_words_2"];2.25;1533808684.11391;31.93;377.96;16.42199962;10;149
9;paravance-71.rennes.grid5000.fr;thermos-root-devel-WordCountTopology-1-09755289-4567-442c-b0a4-b0b83e984910;["container_1_Consume_and_count_1"];2.25;1533808684.14586;48.98;387.4;68.657758224;10;149
10;paravance-70.rennes.grid5000.fr;thermos-root-devel-WordCountTopology-0-f993bf2d-1f82-4dc8-8433-a03ab75d8d26;["topology_master"];2.25;1533808694.43537;3.16;9.13;0.135936353;9;117
10;paravance-69.rennes.grid5000.fr;thermos-root-devel-WordCountTopology-2-5f48e033-333e-4be4-8392-f62287ce7e86;["container_2_Emit_random_words_2"];2.25;1533808694.33484;33.37;395.75;16.472784397;10;149
10;paravance-71.rennes.grid5000.fr;thermos-root-devel-WordCountTopology-1-09755289-4567-442c-b0a4-b0b83e984910;["container_1_Consume_and_count_1"];2.25;1533808694.36687;51.18;405.42;72.084807721;10;149
11;paravance-69.rennes.grid5000.fr;thermos-root-devel-WordCountTopology-2-5f48e033-333e-4be4-8392-f62287ce7e86;["container_2_Emit_random_words_2"];2.25;1533808704.55515;34.81;413.27;16.580510988;10;149
11;paravance-70.rennes.grid5000.fr;thermos-root-devel-WordCountTopology-0-f993bf2d-1f82-4dc8-8433-a03ab75d8d26;["topology_master"];2.25;1533808704.65165;3.28;9.36;0.135936353;9;117
11;paravance-71.rennes.grid5000.fr;thermos-root-devel-WordCountTopology-1-09755289-4567-442c-b0a4-b0b83e984910;["container_1_Consume_and_count_1"];2.25;1533808704.58783;53.42;423.86;76.898420412;10;149
12;paravance-71.rennes.grid5000.fr;thermos-root-devel-WordCountTopology-1-09755289-4567-442c-b0a4-b0b83e984910;["container_1_Consume_and_count_1"];2.25;1533808714.80638;55.66;442.13;80.005302556;10;149
12;paravance-69.rennes.grid5000.fr;thermos-root-devel-WordCountTopology-2-5f48e033-333e-4be4-8392-f62287ce7e86;["container_2_Emit_random_words_2"];2.25;1533808714.77538;36.26;431.07;16.584813038;10;149
12;paravance-70.rennes.grid5000.fr;thermos-root-devel-WordCountTopology-0-f993bf2d-1f82-4dc8-8433-a03ab75d8d26;["topology_master"];2.25;1533808714.86747;3.3;9.38;0.135936353;9;117
13;paravance-70.rennes.grid5000.fr;thermos-root-devel-WordCountTopology-0-f993bf2d-1f82-4dc8-8433-a03ab75d8d26;["topology_master"];2.25;1533808725.08163;3.4;9.52;0.135936353;9;117
13;paravance-69.rennes.grid5000.fr;thermos-root-devel-WordCountTopology-2-5f48e033-333e-4be4-8392-f62287ce7e86;["container_2_Emit_random_words_2"];2.25;1533808724.99555;37.7;448.99;16.647820094;10;149
13;paravance-71.rennes.grid5000.fr;thermos-root-devel-WordCountTopology-1-09755289-4567-442c-b0a4-b0b83e984910;["container_1_Consume_and_count_1"];2.25;1533808725.02793;57.89;459.93;83.025497499;10;149
14;paravance-69.rennes.grid5000.fr;thermos-root-devel-WordCountTopology-2-5f48e033-333e-4be4-8392-f62287ce7e86;["container_2_Emit_random_words_2"];2.25;1533808735.21553;39.14;466.15;16.6839208;10;149
14;paravance-71.rennes.grid5000.fr;thermos-root-devel-WordCountTopology-1-09755289-4567-442c-b0a4-b0b83e984910;["container_1_Consume_and_count_1"];2.25;1533808735.24756;60.01;477.79;86.390326988;10;149
14;paravance-70.rennes.grid5000.fr;thermos-root-devel-WordCountTopology-0-f993bf2d-1f82-4dc8-8433-a03ab75d8d26;["topology_master"];2.25;1533808735.29741;3.45;9.59;0.135936353;9;117
15;paravance-71.rennes.grid5000.fr;thermos-root-devel-WordCountTopology-1-09755289-4567-442c-b0a4-b0b83e984910;["container_1_Consume_and_count_1"];2.25;1533808745.36666;62.07;495.64;90.443125452;10;149
15;paravance-69.rennes.grid5000.fr;thermos-root-devel-WordCountTopology-2-5f48e033-333e-4be4-8392-f62287ce7e86;["container_2_Emit_random_words_2"];2.25;1533808745.43376;40.5;483.63;16.720604631;10;149
15;paravance-70.rennes.grid5000.fr;thermos-root-devel-WordCountTopology-0-f993bf2d-1f82-4dc8-8433-a03ab75d8d26;["topology_master"];2.25;1533808745.51029;3.51;9.67;0.135936353;9;117
16;paravance-69.rennes.grid5000.fr;thermos-root-devel-WordCountTopology-2-5f48e033-333e-4be4-8392-f62287ce7e86;["container_2_Emit_random_words_2"];2.25;1533808755.65206;41.85;499.58;16.77481134;10;149
16;paravance-70.rennes.grid5000.fr;thermos-root-devel-WordCountTopology-0-f993bf2d-1f82-4dc8-8433-a03ab75d8d26;["topology_master"];2.25;1533808755.724;3.57;9.74;0.135936353;9;117
16;paravance-71.rennes.grid5000.fr;thermos-root-devel-WordCountTopology-1-09755289-4567-442c-b0a4-b0b83e984910;["container_1_Consume_and_count_1"];2.25;1533808755.68611;64.27;513.69;93.584324647;10;149
17;paravance-70.rennes.grid5000.fr;thermos-root-devel-WordCountTopology-0-f993bf2d-1f82-4dc8-8433-a03ab75d8d26;["topology_master"];2.25;1533808765.93847;3.69;10.0;0.135936353;9;117
17;paravance-71.rennes.grid5000.fr;thermos-root-devel-WordCountTopology-1-09755289-4567-442c-b0a4-b0b83e984910;["container_1_Consume_and_count_1"];2.25;1533808765.90486;66.58;532.08;97.232739418;10;149
17;paravance-69.rennes.grid5000.fr;thermos-root-devel-WordCountTopology-2-5f48e033-333e-4be4-8392-f62287ce7e86;["container_2_Emit_random_words_2"];2.25;1533808765.87333;43.33;516.96;17.040585739;10;149
18;paravance-69.rennes.grid5000.fr;thermos-root-devel-WordCountTopology-2-5f48e033-333e-4be4-8392-f62287ce7e86;["container_2_Emit_random_words_2"];2.25;1533808776.09245;44.58;533.07;17.040585739;10;149
18;paravance-71.rennes.grid5000.fr;thermos-root-devel-WordCountTopology-1-09755289-4567-442c-b0a4-b0b83e984910;["container_1_Consume_and_count_1"];2.25;1533808776.12509;68.55;549.74;100.91616708;10;149
18;paravance-70.rennes.grid5000.fr;thermos-root-devel-WordCountTopology-0-f993bf2d-1f82-4dc8-8433-a03ab75d8d26;["topology_master"];2.25;1533808776.15392;3.72;10.02;0.135936353;9;117
19;paravance-71.rennes.grid5000.fr;thermos-root-devel-WordCountTopology-1-09755289-4567-442c-b0a4-b0b83e984910;["container_1_Consume_and_count_1"];2.25;1533808786.24522;70.75;567.87;104.543086469;10;149
19;paravance-69.rennes.grid5000.fr;thermos-root-devel-WordCountTopology-2-5f48e033-333e-4be4-8392-f62287ce7e86;["container_2_Emit_random_words_2"];2.25;1533808786.31331;45.99;550.05;17.183105377;10;149
19;paravance-70.rennes.grid5000.fr;thermos-root-devel-WordCountTopology-0-f993bf2d-1f82-4dc8-8433-a03ab75d8d26;["topology_master"];2.25;1533808786.37111;3.8;10.15;0.135936353;9;117
20;paravance-70.rennes.grid5000.fr;thermos-root-devel-WordCountTopology-0-f993bf2d-1f82-4dc8-8433-a03ab75d8d26;["topology_master"];2.25;1533808796.58628;3.86;10.22;0.135936353;9;117
20;paravance-71.rennes.grid5000.fr;thermos-root-devel-WordCountTopology-1-09755289-4567-442c-b0a4-b0b83e984910;["container_1_Consume_and_count_1"];2.25;1533808796.56768;72.92;586.21;108.899072952;10;149
20;paravance-69.rennes.grid5000.fr;thermos-root-devel-WordCountTopology-2-5f48e033-333e-4be4-8392-f62287ce7e86;["container_2_Emit_random_words_2"];2.25;1533808796.53555;47.32;566.61;17.18401702;10;149
21;paravance-71.rennes.grid5000.fr;thermos-root-devel-WordCountTopology-1-09755289-4567-442c-b0a4-b0b83e984910;["container_1_Consume_and_count_1"];2.25;1533808806.78803;75.31;604.61;112.564782825;10;149
21;paravance-70.rennes.grid5000.fr;thermos-root-devel-WordCountTopology-0-f993bf2d-1f82-4dc8-8433-a03ab75d8d26;["topology_master"];2.25;1533808806.80244;3.92;10.29;0.135936353;9;117
21;paravance-69.rennes.grid5000.fr;thermos-root-devel-WordCountTopology-2-5f48e033-333e-4be4-8392-f62287ce7e86;["container_2_Emit_random_words_2"];2.25;1533808806.75616;48.85;585.5;17.204857617;10;149
22;paravance-71.rennes.grid5000.fr;thermos-root-devel-WordCountTopology-1-09755289-4567-442c-b0a4-b0b83e984910;["container_1_Consume_and_count_1"];2.25;1533808817.00891;77.37;623.26;116.196385896;10;149
22;paravance-69.rennes.grid5000.fr;thermos-root-devel-WordCountTopology-2-5f48e033-333e-4be4-8392-f62287ce7e86;["container_2_Emit_random_words_2"];2.25;1533808816.97728;50.11;600.88;17.25904825;10;149
22;paravance-70.rennes.grid5000.fr;thermos-root-devel-WordCountTopology-0-f993bf2d-1f82-4dc8-8433-a03ab75d8d26;["topology_master"];2.25;1533808817.01816;3.98;10.37;0.135936353;9;117
23;paravance-70.rennes.grid5000.fr;thermos-root-devel-WordCountTopology-0-f993bf2d-1f82-4dc8-8433-a03ab75d8d26;["topology_master"];2.25;1533808827.23298;4.09;10.55;0.135936353;9;117
23;paravance-69.rennes.grid5000.fr;thermos-root-devel-WordCountTopology-2-5f48e033-333e-4be4-8392-f62287ce7e86;["container_2_Emit_random_words_2"];2.25;1533808827.19667;51.55;618.67;17.36521108;10;149
23;paravance-71.rennes.grid5000.fr;thermos-root-devel-WordCountTopology-1-09755289-4567-442c-b0a4-b0b83e984910;["container_1_Consume_and_count_1"];2.25;1533808827.22958;79.63;641.6;120.03932019;10;149
24;paravance-69.rennes.grid5000.fr;thermos-root-devel-WordCountTopology-2-5f48e033-333e-4be4-8392-f62287ce7e86;["container_2_Emit_random_words_2"];2.25;1533808837.41558;52.94;636.61;17.365632538;10;149
24;paravance-71.rennes.grid5000.fr;thermos-root-devel-WordCountTopology-1-09755289-4567-442c-b0a4-b0b83e984910;["container_1_Consume_and_count_1"];2.25;1533808837.44797;81.79;659.82;123.264020696;10;149
24;paravance-70.rennes.grid5000.fr;thermos-root-devel-WordCountTopology-0-f993bf2d-1f82-4dc8-8433-a03ab75d8d26;["topology_master"];2.25;1533808837.44725;4.11;10.58;0.135936353;9;117
25;paravance-70.rennes.grid5000.fr;thermos-root-devel-WordCountTopology-0-f993bf2d-1f82-4dc8-8433-a03ab75d8d26;["topology_master"];2.25;1533808847.66186;4.2;10.7;0.135936353;9;117
25;paravance-69.rennes.grid5000.fr;thermos-root-devel-WordCountTopology-2-5f48e033-333e-4be4-8392-f62287ce7e86;["container_2_Emit_random_words_2"];2.25;1533808847.63663;54.35;653.82;17.451634986;10;149
25;paravance-71.rennes.grid5000.fr;thermos-root-devel-WordCountTopology-1-09755289-4567-442c-b0a4-b0b83e984910;["container_1_Consume_and_count_1"];2.25;1533808847.66964;84.01;677.82;126.7862453;10;149
26;paravance-70.rennes.grid5000.fr;thermos-root-devel-WordCountTopology-0-f993bf2d-1f82-4dc8-8433-a03ab75d8d26;["topology_master"];2.25;1533808857.87659;4.26;10.77;0.135936353;9;117
26;paravance-69.rennes.grid5000.fr;thermos-root-devel-WordCountTopology-2-5f48e033-333e-4be4-8392-f62287ce7e86;["container_2_Emit_random_words_2"];2.25;1533808857.85495;55.71;671.82;17.470129074;10;149
26;paravance-71.rennes.grid5000.fr;thermos-root-devel-WordCountTopology-1-09755289-4567-442c-b0a4-b0b83e984910;["container_1_Consume_and_count_1"];2.25;1533808857.88822;86.35;696.19;130.263606164;10;149
27;paravance-71.rennes.grid5000.fr;thermos-root-devel-WordCountTopology-1-09755289-4567-442c-b0a4-b0b83e984910;["container_1_Consume_and_count_1"];2.25;1533808868.00836;88.56;714.02;133.681504335;10;149
27;paravance-69.rennes.grid5000.fr;thermos-root-devel-WordCountTopology-2-5f48e033-333e-4be4-8392-f62287ce7e86;["container_2_Emit_random_words_2"];2.25;1533808868.07569;57.19;690.39;17.474317458;10;149
27;paravance-70.rennes.grid5000.fr;thermos-root-devel-WordCountTopology-0-f993bf2d-1f82-4dc8-8433-a03ab75d8d26;["topology_master"];2.25;1533808868.09241;4.32;10.84;0.135936353;9;117
28;paravance-69.rennes.grid5000.fr;thermos-root-devel-WordCountTopology-2-5f48e033-333e-4be4-8392-f62287ce7e86;["container_2_Emit_random_words_2"];2.25;1533808878.19683;58.59;707.74;17.492543805;10;149
28;paravance-70.rennes.grid5000.fr;thermos-root-devel-WordCountTopology-0-f993bf2d-1f82-4dc8-8433-a03ab75d8d26;["topology_master"];2.25;1533808878.30615;4.37;10.92;0.135936353;9;117
28;paravance-71.rennes.grid5000.fr;thermos-root-devel-WordCountTopology-1-09755289-4567-442c-b0a4-b0b83e984910;["container_1_Consume_and_count_1"];2.25;1533808878.32484;90.84;732.35;136.992181487;10;149
29;paravance-69.rennes.grid5000.fr;thermos-root-devel-WordCountTopology-2-5f48e033-333e-4be4-8392-f62287ce7e86;["container_2_Emit_random_words_2"];2.25;1533808888.51492;60.01;725.32;17.654943232;10;149
29;paravance-71.rennes.grid5000.fr;thermos-root-devel-WordCountTopology-1-09755289-4567-442c-b0a4-b0b83e984910;["container_1_Consume_and_count_1"];2.25;1533808888.53869;93.03;750.45;139.822229586;10;149
29;paravance-70.rennes.grid5000.fr;thermos-root-devel-WordCountTopology-0-f993bf2d-1f82-4dc8-8433-a03ab75d8d26;["topology_master"];2.25;1533808888.5225;4.47;11.09;0.135936353;9;117
30;paravance-71.rennes.grid5000.fr;thermos-root-devel-WordCountTopology-1-09755289-4567-442c-b0a4-b0b83e984910;["container_1_Consume_and_count_1"];2.25;1533808898.75193;95.35;768.59;143.559946222;10;149
30;paravance-69.rennes.grid5000.fr;thermos-root-devel-WordCountTopology-2-5f48e033-333e-4be4-8392-f62287ce7e86;["container_2_Emit_random_words_2"];2.25;1533808898.73457;61.41;742.89;17.706019269;10;149
30;paravance-70.rennes.grid5000.fr;thermos-root-devel-WordCountTopology-0-f993bf2d-1f82-4dc8-8433-a03ab75d8d26;["topology_master"];2.25;1533808898.73669;4.53;11.16;0.135936353;9;117
31;paravance-69.rennes.grid5000.fr;thermos-root-devel-WordCountTopology-2-5f48e033-333e-4be4-8392-f62287ce7e86;["container_2_Emit_random_words_2"];2.25;1533808908.95401;62.83;760.71;17.706108218;10;149
31;paravance-71.rennes.grid5000.fr;thermos-root-devel-WordCountTopology-1-09755289-4567-442c-b0a4-b0b83e984910;["container_1_Consume_and_count_1"];2.25;1533808908.96812;97.61;787.29;148.290246592;10;149
31;paravance-70.rennes.grid5000.fr;thermos-root-devel-WordCountTopology-0-f993bf2d-1f82-4dc8-8433-a03ab75d8d26;["topology_master"];2.25;1533808908.95086;4.59;11.23;0.135936353;9;117
32;paravance-71.rennes.grid5000.fr;thermos-root-devel-WordCountTopology-1-09755289-4567-442c-b0a4-b0b83e984910;["container_1_Consume_and_count_1"];2.25;1533808919.18264;99.89;804.43;149.428749918;10;149
32;paravance-70.rennes.grid5000.fr;thermos-root-devel-WordCountTopology-0-f993bf2d-1f82-4dc8-8433-a03ab75d8d26;["topology_master"];2.25;1533808919.16611;4.67;11.36;0.135936353;9;117
32;paravance-69.rennes.grid5000.fr;thermos-root-devel-WordCountTopology-2-5f48e033-333e-4be4-8392-f62287ce7e86;["container_2_Emit_random_words_2"];2.25;1533808919.17672;64.31;779.89;17.802951918;10;149
33;paravance-69.rennes.grid5000.fr;thermos-root-devel-WordCountTopology-2-5f48e033-333e-4be4-8392-f62287ce7e86;["container_2_Emit_random_words_2"];2.25;1533808929.39425;65.79;798.98;17.803000703;10;149
33;paravance-70.rennes.grid5000.fr;thermos-root-devel-WordCountTopology-0-f993bf2d-1f82-4dc8-8433-a03ab75d8d26;["topology_master"];2.25;1533808929.38182;4.7;11.38;0.135936353;9;117
33;paravance-71.rennes.grid5000.fr;thermos-root-devel-WordCountTopology-1-09755289-4567-442c-b0a4-b0b83e984910;["container_1_Consume_and_count_1"];2.25;1533808929.39844;102.11;820.21;149.491426504;10;149
34;paravance-71.rennes.grid5000.fr;thermos-root-devel-WordCountTopology-1-09755289-4567-442c-b0a4-b0b83e984910;["container_1_Consume_and_count_1"];2.25;1533808939.61332;104.22;835.65;149.519562269;10;149
34;paravance-70.rennes.grid5000.fr;thermos-root-devel-WordCountTopology-0-f993bf2d-1f82-4dc8-8433-a03ab75d8d26;["topology_master"];2.25;1533808939.59792;4.8;11.51;0.135936353;9;117
34;paravance-69.rennes.grid5000.fr;thermos-root-devel-WordCountTopology-2-5f48e033-333e-4be4-8392-f62287ce7e86;["container_2_Emit_random_words_2"];2.25;1533808939.61309;67.35;817.96;17.946272042;10;149
35;paravance-70.rennes.grid5000.fr;thermos-root-devel-WordCountTopology-0-f993bf2d-1f82-4dc8-8433-a03ab75d8d26;["topology_master"];2.25;1533808949.81211;4.87;11.69;0.135936353;9;117
35;paravance-69.rennes.grid5000.fr;thermos-root-devel-WordCountTopology-2-5f48e033-333e-4be4-8392-f62287ce7e86;["container_2_Emit_random_words_2"];2.25;1533808949.8289;68.83;836.9;17.998666099;10;149
35;paravance-71.rennes.grid5000.fr;thermos-root-devel-WordCountTopology-1-09755289-4567-442c-b0a4-b0b83e984910;["container_1_Consume_and_count_1"];2.25;1533808949.82998;106.36;851.4;149.563837829;10;149
36;paravance-71.rennes.grid5000.fr;thermos-root-devel-WordCountTopology-1-09755289-4567-442c-b0a4-b0b83e984910;["container_1_Consume_and_count_1"];2.25;1533808960.04286;108.72;867.43;149.596141048;10;149
36;paravance-69.rennes.grid5000.fr;thermos-root-devel-WordCountTopology-2-5f48e033-333e-4be4-8392-f62287ce7e86;["container_2_Emit_random_words_2"];2.25;1533808960.04366;70.29;855.66;18.050833154;10;149
36;paravance-70.rennes.grid5000.fr;thermos-root-devel-WordCountTopology-0-f993bf2d-1f82-4dc8-8433-a03ab75d8d26;["topology_master"];2.25;1533808960.02948;4.93;11.76;0.135936353;9;117
37;paravance-69.rennes.grid5000.fr;thermos-root-devel-WordCountTopology-2-5f48e033-333e-4be4-8392-f62287ce7e86;["container_2_Emit_random_words_2"];2.25;1533808970.25938;71.77;874.51;18.099921092;10;149
37;paravance-71.rennes.grid5000.fr;thermos-root-devel-WordCountTopology-1-09755289-4567-442c-b0a4-b0b83e984910;["container_1_Consume_and_count_1"];2.25;1533808970.26057;111.17;883.03;149.645714806;10;149
37;paravance-70.rennes.grid5000.fr;thermos-root-devel-WordCountTopology-0-f993bf2d-1f82-4dc8-8433-a03ab75d8d26;["topology_master"];2.25;1533808970.24455;4.98;11.83;0.135936353;9;117
38;paravance-71.rennes.grid5000.fr;thermos-root-devel-WordCountTopology-1-09755289-4567-442c-b0a4-b0b83e984910;["container_1_Consume_and_count_1"];2.25;1533808980.4765;113.53;897.92;149.689816169;10;149
38;paravance-69.rennes.grid5000.fr;thermos-root-devel-WordCountTopology-2-5f48e033-333e-4be4-8392-f62287ce7e86;["container_2_Emit_random_words_2"];2.25;1533808980.47622;73.25;893.04;18.166688173;10;149
38;paravance-70.rennes.grid5000.fr;thermos-root-devel-WordCountTopology-0-f993bf2d-1f82-4dc8-8433-a03ab75d8d26;["topology_master"];2.25;1533808980.45977;5.06;11.95;0.135936353;9;117
39;paravance-70.rennes.grid5000.fr;thermos-root-devel-WordCountTopology-0-f993bf2d-1f82-4dc8-8433-a03ab75d8d26;["topology_master"];2.25;1533808990.67542;5.12;12.02;0.135936353;9;117
39;paravance-69.rennes.grid5000.fr;thermos-root-devel-WordCountTopology-2-5f48e033-333e-4be4-8392-f62287ce7e86;["container_2_Emit_random_words_2"];2.25;1533808990.69124;74.67;911.88;18.166688173;10;149
39;paravance-71.rennes.grid5000.fr;thermos-root-devel-WordCountTopology-1-09755289-4567-442c-b0a4-b0b83e984910;["container_1_Consume_and_count_1"];2.25;1533808990.69292;116.01;913.71;149.733621747;10;149
40;paravance-70.rennes.grid5000.fr;thermos-root-devel-WordCountTopology-0-f993bf2d-1f82-4dc8-8433-a03ab75d8d26;["topology_master"];2.25;1533809000.90087;5.18;12.11;0.135936353;9;117
40;paravance-69.rennes.grid5000.fr;thermos-root-devel-WordCountTopology-2-5f48e033-333e-4be4-8392-f62287ce7e86;["container_2_Emit_random_words_2"];2.25;1533809000.91553;76.15;931.07;18.301016998;10;149
40;paravance-71.rennes.grid5000.fr;thermos-root-devel-WordCountTopology-1-09755289-4567-442c-b0a4-b0b83e984910;["container_1_Consume_and_count_1"];2.25;1533809000.9213;118.21;929.44;149.73365057;10;149
41;paravance-71.rennes.grid5000.fr;thermos-root-devel-WordCountTopology-1-09755289-4567-442c-b0a4-b0b83e984910;["container_1_Consume_and_count_1"];2.25;1533809011.13575;120.67;945.51;149.861229992;10;149
41;paravance-69.rennes.grid5000.fr;thermos-root-devel-WordCountTopology-2-5f48e033-333e-4be4-8392-f62287ce7e86;["container_2_Emit_random_words_2"];2.25;1533809011.13534;77.62;950.18;18.398840486;10;149
41;paravance-70.rennes.grid5000.fr;thermos-root-devel-WordCountTopology-0-f993bf2d-1f82-4dc8-8433-a03ab75d8d26;["topology_master"];2.25;1533809011.1209;5.25;12.23;0.135936353;9;117
42;paravance-69.rennes.grid5000.fr;thermos-root-devel-WordCountTopology-2-5f48e033-333e-4be4-8392-f62287ce7e86;["container_2_Emit_random_words_2"];2.25;1533809021.35165;79.09;969.07;18.431803828;10;149
42;paravance-71.rennes.grid5000.fr;thermos-root-devel-WordCountTopology-1-09755289-4567-442c-b0a4-b0b83e984910;["container_1_Consume_and_count_1"];2.25;1533809021.35282;123.15;961.09;149.995998601;10;149
42;paravance-70.rennes.grid5000.fr;thermos-root-devel-WordCountTopology-0-f993bf2d-1f82-4dc8-8433-a03ab75d8d26;["topology_master"];2.25;1533809021.33627;5.33;12.35;0.135936353;9;117
43;paravance-70.rennes.grid5000.fr;thermos-root-devel-WordCountTopology-0-f993bf2d-1f82-4dc8-8433-a03ab75d8d26;["topology_master"];2.25;1533809031.55117;5.36;12.37;0.135936353;9;117
43;paravance-71.rennes.grid5000.fr;thermos-root-devel-WordCountTopology-1-09755289-4567-442c-b0a4-b0b83e984910;["container_1_Consume_and_count_1"];2.25;1533809031.56847;125.4;976.94;150.0001319;10;149
43;paravance-69.rennes.grid5000.fr;thermos-root-devel-WordCountTopology-2-5f48e033-333e-4be4-8392-f62287ce7e86;["container_2_Emit_random_words_2"];2.25;1533809031.56636;80.55;988.03;18.478278499;10;149
44;paravance-69.rennes.grid5000.fr;thermos-root-devel-WordCountTopology-2-5f48e033-333e-4be4-8392-f62287ce7e86;["container_2_Emit_random_words_2"];2.25;1533809041.7815;82.05;1006.96;18.58142916;10;149
44;paravance-70.rennes.grid5000.fr;thermos-root-devel-WordCountTopology-0-f993bf2d-1f82-4dc8-8433-a03ab75d8d26;["topology_master"];2.25;1533809041.76819;5.44;12.49;0.135936353;9;117
44;paravance-71.rennes.grid5000.fr;thermos-root-devel-WordCountTopology-1-09755289-4567-442c-b0a4-b0b83e984910;["container_1_Consume_and_count_1"];2.25;1533809041.78463;127.75;992.9;150.008325069;10;149
45;paravance-70.rennes.grid5000.fr;thermos-root-devel-WordCountTopology-0-f993bf2d-1f82-4dc8-8433-a03ab75d8d26;["topology_master"];2.25;1533809051.98322;5.5;12.56;0.135936353;9;117
45;paravance-71.rennes.grid5000.fr;thermos-root-devel-WordCountTopology-1-09755289-4567-442c-b0a4-b0b83e984910;["container_1_Consume_and_count_1"];2.25;1533809051.99947;130.23;1008.49;150.13844454;10;149
45;paravance-69.rennes.grid5000.fr;thermos-root-devel-WordCountTopology-2-5f48e033-333e-4be4-8392-f62287ce7e86;["container_2_Emit_random_words_2"];2.25;1533809051.9976;83.5;1026.18;18.586446977;10;149
46;paravance-71.rennes.grid5000.fr;thermos-root-devel-WordCountTopology-1-09755289-4567-442c-b0a4-b0b83e984910;["container_1_Consume_and_count_1"];2.25;1533809062.21354;132.59;1026.57;153.320864188;10;149
46;paravance-69.rennes.grid5000.fr;thermos-root-devel-WordCountTopology-2-5f48e033-333e-4be4-8392-f62287ce7e86;["container_2_Emit_random_words_2"];2.25;1533809062.21343;84.96;1043.72;18.618612984;10;149
46;paravance-70.rennes.grid5000.fr;thermos-root-devel-WordCountTopology-0-f993bf2d-1f82-4dc8-8433-a03ab75d8d26;["topology_master"];2.25;1533809062.19951;5.56;12.65;0.135936353;9;117
47;paravance-71.rennes.grid5000.fr;thermos-root-devel-WordCountTopology-1-09755289-4567-442c-b0a4-b0b83e984910;["container_1_Consume_and_count_1"];2.25;1533809072.42888;134.93;1044.43;156.743475162;10;149
47;paravance-69.rennes.grid5000.fr;thermos-root-devel-WordCountTopology-2-5f48e033-333e-4be4-8392-f62287ce7e86;["container_2_Emit_random_words_2"];2.25;1533809072.42859;86.34;1061.07;18.647671873;10;149
47;paravance-70.rennes.grid5000.fr;thermos-root-devel-WordCountTopology-0-f993bf2d-1f82-4dc8-8433-a03ab75d8d26;["topology_master"];2.25;1533809072.4182;5.62;12.8;0.135936353;9;117
48;paravance-70.rennes.grid5000.fr;thermos-root-devel-WordCountTopology-0-f993bf2d-1f82-4dc8-8433-a03ab75d8d26;["topology_master"];2.25;1533809082.63172;5.71;12.92;0.135936353;9;117
48;paravance-71.rennes.grid5000.fr;thermos-root-devel-WordCountTopology-1-09755289-4567-442c-b0a4-b0b83e984910;["container_1_Consume_and_count_1"];2.25;1533809082.64791;137.1;1062.81;160.289085601;10;149
48;paravance-69.rennes.grid5000.fr;thermos-root-devel-WordCountTopology-2-5f48e033-333e-4be4-8392-f62287ce7e86;["container_2_Emit_random_words_2"];2.25;1533809082.64772;87.77;1078.03;18.711989133;10;149
49;paravance-69.rennes.grid5000.fr;thermos-root-devel-WordCountTopology-2-5f48e033-333e-4be4-8392-f62287ce7e86;["container_2_Emit_random_words_2"];2.25;1533809092.76246;89.13;1095.31;18.717016665;10;149
49;paravance-71.rennes.grid5000.fr;thermos-root-devel-WordCountTopology-1-09755289-4567-442c-b0a4-b0b83e984910;["container_1_Consume_and_count_1"];2.25;1533809092.8635;139.13;1080.57;163.94077669;10;149
49;paravance-70.rennes.grid5000.fr;thermos-root-devel-WordCountTopology-0-f993bf2d-1f82-4dc8-8433-a03ab75d8d26;["topology_master"];2.25;1533809092.84739;5.73;12.95;0.135936353;9;117
50;paravance-69.rennes.grid5000.fr;thermos-root-devel-WordCountTopology-2-5f48e033-333e-4be4-8392-f62287ce7e86;["container_2_Emit_random_words_2"];2.25;1533809103.07745;90.58;1112.38;18.767543958;10;149
50;paravance-71.rennes.grid5000.fr;thermos-root-devel-WordCountTopology-1-09755289-4567-442c-b0a4-b0b83e984910;["container_1_Consume_and_count_1"];2.25;1533809103.07881;141.43;1098.67;167.536450515;10;149
50;paravance-70.rennes.grid5000.fr;thermos-root-devel-WordCountTopology-0-f993bf2d-1f82-4dc8-8433-a03ab75d8d26;["topology_master"];2.25;1533809103.06246;5.82;13.07;0.135936353;9;117
51;paravance-71.rennes.grid5000.fr;thermos-root-devel-WordCountTopology-1-09755289-4567-442c-b0a4-b0b83e984910;["container_1_Consume_and_count_1"];2.25;1533809113.29278;143.51;1116.23;170.378139031;10;149
51;paravance-70.rennes.grid5000.fr;thermos-root-devel-WordCountTopology-0-f993bf2d-1f82-4dc8-8433-a03ab75d8d26;["topology_master"];2.25;1533809113.27915;5.88;13.15;0.135936353;9;117
51;paravance-69.rennes.grid5000.fr;thermos-root-devel-WordCountTopology-2-5f48e033-333e-4be4-8392-f62287ce7e86;["container_2_Emit_random_words_2"];2.25;1533809113.29416;91.79;1126.68;18.816687253;10;149
52;paravance-70.rennes.grid5000.fr;thermos-root-devel-WordCountTopology-0-f993bf2d-1f82-4dc8-8433-a03ab75d8d26;["topology_master"];2.25;1533809123.39581;5.94;13.23;0.135936353;9;117
52;paravance-71.rennes.grid5000.fr;thermos-root-devel-WordCountTopology-1-09755289-4567-442c-b0a4-b0b83e984910;["container_1_Consume_and_count_1"];2.25;1533809123.50974;145.54;1134.15;173.403009825;10;149
52;paravance-69.rennes.grid5000.fr;thermos-root-devel-WordCountTopology-2-5f48e033-333e-4be4-8392-f62287ce7e86;["container_2_Emit_random_words_2"];2.25;1533809123.50923;93.1;1142.58;18.816687253;10;149
53;paravance-71.rennes.grid5000.fr;thermos-root-devel-WordCountTopology-1-09755289-4567-442c-b0a4-b0b83e984910;["container_1_Consume_and_count_1"];2.25;1533809133.72366;147.55;1151.71;176.635718348;10;149
53;paravance-70.rennes.grid5000.fr;thermos-root-devel-WordCountTopology-0-f993bf2d-1f82-4dc8-8433-a03ab75d8d26;["topology_master"];2.25;1533809133.70957;6.01;13.34;0.135936353;9;117
53;paravance-69.rennes.grid5000.fr;thermos-root-devel-WordCountTopology-2-5f48e033-333e-4be4-8392-f62287ce7e86;["container_2_Emit_random_words_2"];2.25;1533809133.72468;94.41;1158.22;18.880006927;10;149
54;paravance-71.rennes.grid5000.fr;thermos-root-devel-WordCountTopology-1-09755289-4567-442c-b0a4-b0b83e984910;["container_1_Consume_and_count_1"];2.25;1533809143.94067;149.51;1170.21;180.513662644;10;149
54;paravance-69.rennes.grid5000.fr;thermos-root-devel-WordCountTopology-2-5f48e033-333e-4be4-8392-f62287ce7e86;["container_2_Emit_random_words_2"];2.25;1533809143.93918;95.74;1173.62;19.001366841;10;149
54;paravance-70.rennes.grid5000.fr;thermos-root-devel-WordCountTopology-0-f993bf2d-1f82-4dc8-8433-a03ab75d8d26;["topology_master"];2.25;1533809143.92618;6.09;13.47;0.135936353;9;117
55;paravance-70.rennes.grid5000.fr;thermos-root-devel-WordCountTopology-0-f993bf2d-1f82-4dc8-8433-a03ab75d8d26;["topology_master"];2.25;1533809154.14086;6.12;13.49;0.135936353;9;117
55;paravance-71.rennes.grid5000.fr;thermos-root-devel-WordCountTopology-1-09755289-4567-442c-b0a4-b0b83e984910;["container_1_Consume_and_count_1"];2.25;1533809154.15611;151.58;1188.09;183.555329519;10;149
55;paravance-69.rennes.grid5000.fr;thermos-root-devel-WordCountTopology-2-5f48e033-333e-4be4-8392-f62287ce7e86;["container_2_Emit_random_words_2"];2.25;1533809154.15536;97.16;1190.75;19.001399778;10;149
56;paravance-70.rennes.grid5000.fr;thermos-root-devel-WordCountTopology-0-f993bf2d-1f82-4dc8-8433-a03ab75d8d26;["topology_master"];2.25;1533809164.25562;6.2;13.6;0.135936353;9;117
56;paravance-69.rennes.grid5000.fr;thermos-root-devel-WordCountTopology-2-5f48e033-333e-4be4-8392-f62287ce7e86;["container_2_Emit_random_words_2"];2.25;1533809164.36829;98.58;1207.87;19.021674844;10;149
56;paravance-71.rennes.grid5000.fr;thermos-root-devel-WordCountTopology-1-09755289-4567-442c-b0a4-b0b83e984910;["container_1_Consume_and_count_1"];2.25;1533809164.3704;153.69;1206.03;186.108722397;10;149
57;paravance-71.rennes.grid5000.fr;thermos-root-devel-WordCountTopology-1-09755289-4567-442c-b0a4-b0b83e984910;["container_1_Consume_and_count_1"];2.25;1533809174.58355;155.77;1224.45;190.66574341;10;149
57;paravance-69.rennes.grid5000.fr;thermos-root-devel-WordCountTopology-2-5f48e033-333e-4be4-8392-f62287ce7e86;["container_2_Emit_random_words_2"];2.25;1533809174.58314;100.06;1225.54;19.069506422;10;149
57;paravance-70.rennes.grid5000.fr;thermos-root-devel-WordCountTopology-0-f993bf2d-1f82-4dc8-8433-a03ab75d8d26;["topology_master"];2.25;1533809174.56922;6.26;13.68;0.135936353;9;117
58;paravance-71.rennes.grid5000.fr;thermos-root-devel-WordCountTopology-1-09755289-4567-442c-b0a4-b0b83e984910;["container_1_Consume_and_count_1"];2.25;1533809184.79775;157.9;1241.87;192.568488287;10;149
58;paravance-69.rennes.grid5000.fr;thermos-root-devel-WordCountTopology-2-5f48e033-333e-4be4-8392-f62287ce7e86;["container_2_Emit_random_words_2"];2.25;1533809184.79781;101.4;1241.88;19.15573089;10;149
58;paravance-70.rennes.grid5000.fr;thermos-root-devel-WordCountTopology-0-f993bf2d-1f82-4dc8-8433-a03ab75d8d26;["topology_master"];2.25;1533809184.78537;6.33;13.81;0.135936353;9;117
59;paravance-71.rennes.grid5000.fr;thermos-root-devel-WordCountTopology-1-09755289-4567-442c-b0a4-b0b83e984910;["container_1_Consume_and_count_1"];2.25;1533809195.01344;159.94;1260.34;196.104012817;10;149
59;paravance-69.rennes.grid5000.fr;thermos-root-devel-WordCountTopology-2-5f48e033-333e-4be4-8392-f62287ce7e86;["container_2_Emit_random_words_2"];2.25;1533809195.0138;102.69;1257.67;19.186874165;10;149
59;paravance-70.rennes.grid5000.fr;thermos-root-devel-WordCountTopology-0-f993bf2d-1f82-4dc8-8433-a03ab75d8d26;["topology_master"];2.25;1533809195.00046;6.38;13.88;0.135936353;9;117
60;paravance-71.rennes.grid5000.fr;thermos-root-devel-WordCountTopology-1-09755289-4567-442c-b0a4-b0b83e984910;["container_1_Consume_and_count_1"];2.25;1533809205.22807;161.99;1278.05;199.222477744;10;149
60;paravance-69.rennes.grid5000.fr;thermos-root-devel-WordCountTopology-2-5f48e033-333e-4be4-8392-f62287ce7e86;["container_2_Emit_random_words_2"];2.25;1533809205.22811;104.03;1273.64;19.283696874;10;149
60;paravance-70.rennes.grid5000.fr;thermos-root-devel-WordCountTopology-0-f993bf2d-1f82-4dc8-8433-a03ab75d8d26;["topology_master"];2.25;1533809205.21441;6.47;14.0;0.135936353;9;117
