mesure_id;slave_id;executor_id;heron_instances;cpus_limit;timestamp_A;cpus_system_time_secs_A;cpus_user_time_secs_A;cpus_throttled_time_secs_A;processes;threads
0;paravance-68.rennes.grid5000.fr;thermos-root-devel-WordCountTopology-0-03503371-7fd5-4417-8d1f-78bd74fa0085;["topology_master"];2.25;1533733637.10804;2.48;8.14;0.157887313;9;117
0;paravance-34.rennes.grid5000.fr;thermos-root-devel-WordCountTopology-2-5d5b1b56-972e-43c8-af6b-911e4bbb378b;["container_2_Emit_random_words_2"];2.25;1533733637.77843;23.9;95.38;18.047498576;10;149
0;paravance-66.rennes.grid5000.fr;thermos-root-devel-WordCountTopology-1-95f04355-a320-4fc5-bfa0-15808c4b7e16;["container_1_Consume_and_count_1"];2.25;1533733637.76644;28.28;195.25;67.498630144;10;149
1;paravance-66.rennes.grid5000.fr;thermos-root-devel-WordCountTopology-1-95f04355-a320-4fc5-bfa0-15808c4b7e16;["container_1_Consume_and_count_1"];2.25;1533733647.98017;30.59;212.92;76.293575211;10;149
1;paravance-34.rennes.grid5000.fr;thermos-root-devel-WordCountTopology-2-5d5b1b56-972e-43c8-af6b-911e4bbb378b;["container_2_Emit_random_words_2"];2.25;1533733647.99745;25.64;102.14;18.386498706;10;149
1;paravance-68.rennes.grid5000.fr;thermos-root-devel-WordCountTopology-0-03503371-7fd5-4417-8d1f-78bd74fa0085;["topology_master"];2.25;1533733647.35106;2.55;8.31;0.157887313;9;117
2;paravance-66.rennes.grid5000.fr;thermos-root-devel-WordCountTopology-1-95f04355-a320-4fc5-bfa0-15808c4b7e16;["container_1_Consume_and_count_1"];2.25;1533733658.18956;33.2;230.26;82.127255623;10;149
2;paravance-34.rennes.grid5000.fr;thermos-root-devel-WordCountTopology-2-5d5b1b56-972e-43c8-af6b-911e4bbb378b;["container_2_Emit_random_words_2"];2.25;1533733658.20758;27.73;110.16;18.935078796;10;149
2;paravance-68.rennes.grid5000.fr;thermos-root-devel-WordCountTopology-0-03503371-7fd5-4417-8d1f-78bd74fa0085;["topology_master"];2.25;1533733657.57187;2.64;8.44;0.157887313;9;117
3;paravance-66.rennes.grid5000.fr;thermos-root-devel-WordCountTopology-1-95f04355-a320-4fc5-bfa0-15808c4b7e16;["container_1_Consume_and_count_1"];2.25;1533733668.39971;35.68;247.19;87.723695375;10;149
3;paravance-34.rennes.grid5000.fr;thermos-root-devel-WordCountTopology-2-5d5b1b56-972e-43c8-af6b-911e4bbb378b;["container_2_Emit_random_words_2"];2.25;1533733668.41721;29.75;117.91;19.366560485;10;149
3;paravance-68.rennes.grid5000.fr;thermos-root-devel-WordCountTopology-0-03503371-7fd5-4417-8d1f-78bd74fa0085;["topology_master"];2.25;1533733667.79119;2.67;8.48;0.157887313;9;117
4;paravance-66.rennes.grid5000.fr;thermos-root-devel-WordCountTopology-1-95f04355-a320-4fc5-bfa0-15808c4b7e16;["container_1_Consume_and_count_1"];2.25;1533733678.60962;38.05;264.16;93.214819582;10;149
4;paravance-34.rennes.grid5000.fr;thermos-root-devel-WordCountTopology-2-5d5b1b56-972e-43c8-af6b-911e4bbb378b;["container_2_Emit_random_words_2"];2.25;1533733678.62815;31.82;125.06;19.805769016;10;149
4;paravance-68.rennes.grid5000.fr;thermos-root-devel-WordCountTopology-0-03503371-7fd5-4417-8d1f-78bd74fa0085;["topology_master"];2.25;1533733678.0123;2.76;8.6;0.157887313;9;117
5;paravance-34.rennes.grid5000.fr;thermos-root-devel-WordCountTopology-2-5d5b1b56-972e-43c8-af6b-911e4bbb378b;["container_2_Emit_random_words_2"];2.25;1533733688.83725;33.79;132.37;20.215108087;10;149
5;paravance-66.rennes.grid5000.fr;thermos-root-devel-WordCountTopology-1-95f04355-a320-4fc5-bfa0-15808c4b7e16;["container_1_Consume_and_count_1"];2.25;1533733688.81901;40.35;281.22;98.710987748;10;149
5;paravance-68.rennes.grid5000.fr;thermos-root-devel-WordCountTopology-0-03503371-7fd5-4417-8d1f-78bd74fa0085;["topology_master"];2.25;1533733688.23177;2.81;8.68;0.157887313;9;117
6;paravance-66.rennes.grid5000.fr;thermos-root-devel-WordCountTopology-1-95f04355-a320-4fc5-bfa0-15808c4b7e16;["container_1_Consume_and_count_1"];2.25;1533733699.02743;42.62;298.19;104.385291175;10;149
6;paravance-34.rennes.grid5000.fr;thermos-root-devel-WordCountTopology-2-5d5b1b56-972e-43c8-af6b-911e4bbb378b;["container_2_Emit_random_words_2"];2.25;1533733699.04668;35.65;139.28;20.440729595;10;149
6;paravance-68.rennes.grid5000.fr;thermos-root-devel-WordCountTopology-0-03503371-7fd5-4417-8d1f-78bd74fa0085;["topology_master"];2.25;1533733698.45165;2.94;8.85;0.157887313;9;117
7;paravance-66.rennes.grid5000.fr;thermos-root-devel-WordCountTopology-1-95f04355-a320-4fc5-bfa0-15808c4b7e16;["container_1_Consume_and_count_1"];2.25;1533733709.23682;44.85;315.07;110.374603576;10;149
7;paravance-34.rennes.grid5000.fr;thermos-root-devel-WordCountTopology-2-5d5b1b56-972e-43c8-af6b-911e4bbb378b;["container_2_Emit_random_words_2"];2.25;1533733709.25466;37.44;145.89;21.104719895;10;149
7;paravance-68.rennes.grid5000.fr;thermos-root-devel-WordCountTopology-0-03503371-7fd5-4417-8d1f-78bd74fa0085;["topology_master"];2.25;1533733708.6697;2.97;8.94;0.157887313;9;117
8;paravance-68.rennes.grid5000.fr;thermos-root-devel-WordCountTopology-0-03503371-7fd5-4417-8d1f-78bd74fa0085;["topology_master"];2.25;1533733718.88965;3.06;9.08;0.157887313;9;117
8;paravance-66.rennes.grid5000.fr;thermos-root-devel-WordCountTopology-1-95f04355-a320-4fc5-bfa0-15808c4b7e16;["container_1_Consume_and_count_1"];2.25;1533733719.44936;47.14;332.17;115.866968282;10;149
8;paravance-34.rennes.grid5000.fr;thermos-root-devel-WordCountTopology-2-5d5b1b56-972e-43c8-af6b-911e4bbb378b;["container_2_Emit_random_words_2"];2.25;1533733719.46663;39.21;152.8;21.552841444;10;149
9;paravance-66.rennes.grid5000.fr;thermos-root-devel-WordCountTopology-1-95f04355-a320-4fc5-bfa0-15808c4b7e16;["container_1_Consume_and_count_1"];2.25;1533733729.66034;49.58;349.22;121.231950584;10;149
9;paravance-34.rennes.grid5000.fr;thermos-root-devel-WordCountTopology-2-5d5b1b56-972e-43c8-af6b-911e4bbb378b;["container_2_Emit_random_words_2"];2.25;1533733729.67669;41.14;159.77;21.889246608;10;149
9;paravance-68.rennes.grid5000.fr;thermos-root-devel-WordCountTopology-0-03503371-7fd5-4417-8d1f-78bd74fa0085;["topology_master"];2.25;1533733729.11288;3.12;9.15;0.157887313;9;117
10;paravance-66.rennes.grid5000.fr;thermos-root-devel-WordCountTopology-1-95f04355-a320-4fc5-bfa0-15808c4b7e16;["container_1_Consume_and_count_1"];2.25;1533733739.86943;51.99;366.11;126.770002078;10;149
10;paravance-34.rennes.grid5000.fr;thermos-root-devel-WordCountTopology-2-5d5b1b56-972e-43c8-af6b-911e4bbb378b;["container_2_Emit_random_words_2"];2.25;1533733739.88817;43.13;167.34;22.272944437;10;149
10;paravance-68.rennes.grid5000.fr;thermos-root-devel-WordCountTopology-0-03503371-7fd5-4417-8d1f-78bd74fa0085;["topology_master"];2.25;1533733739.33337;3.18;9.23;0.157887313;9;117
11;paravance-66.rennes.grid5000.fr;thermos-root-devel-WordCountTopology-1-95f04355-a320-4fc5-bfa0-15808c4b7e16;["container_1_Consume_and_count_1"];2.25;1533733750.07919;54.23;382.94;131.997810839;10;149
11;paravance-34.rennes.grid5000.fr;thermos-root-devel-WordCountTopology-2-5d5b1b56-972e-43c8-af6b-911e4bbb378b;["container_2_Emit_random_words_2"];2.25;1533733750.09769;45.04;174.18;22.598120331;10;149
11;paravance-68.rennes.grid5000.fr;thermos-root-devel-WordCountTopology-0-03503371-7fd5-4417-8d1f-78bd74fa0085;["topology_master"];2.25;1533733749.55479;3.23;9.3;0.157887313;9;117
12;paravance-34.rennes.grid5000.fr;thermos-root-devel-WordCountTopology-2-5d5b1b56-972e-43c8-af6b-911e4bbb378b;["container_2_Emit_random_words_2"];2.25;1533733760.30731;46.82;180.84;22.866614743;10;149
12;paravance-68.rennes.grid5000.fr;thermos-root-devel-WordCountTopology-0-03503371-7fd5-4417-8d1f-78bd74fa0085;["topology_master"];2.25;1533733759.77429;3.36;9.6;0.157887313;9;117
12;paravance-66.rennes.grid5000.fr;thermos-root-devel-WordCountTopology-1-95f04355-a320-4fc5-bfa0-15808c4b7e16;["container_1_Consume_and_count_1"];2.25;1533733760.2902;56.43;399.57;137.629427786;10;149
13;paravance-66.rennes.grid5000.fr;thermos-root-devel-WordCountTopology-1-95f04355-a320-4fc5-bfa0-15808c4b7e16;["container_1_Consume_and_count_1"];2.25;1533733770.50082;58.94;416.26;143.730693999;10;149
13;paravance-34.rennes.grid5000.fr;thermos-root-devel-WordCountTopology-2-5d5b1b56-972e-43c8-af6b-911e4bbb378b;["container_2_Emit_random_words_2"];2.25;1533733770.51988;48.88;188.11;23.36307093;10;149
13;paravance-68.rennes.grid5000.fr;thermos-root-devel-WordCountTopology-0-03503371-7fd5-4417-8d1f-78bd74fa0085;["topology_master"];2.25;1533733769.99588;3.39;9.62;0.157887313;9;117
14;paravance-66.rennes.grid5000.fr;thermos-root-devel-WordCountTopology-1-95f04355-a320-4fc5-bfa0-15808c4b7e16;["container_1_Consume_and_count_1"];2.25;1533733780.71256;61.35;433.09;148.85861017;10;149
14;paravance-68.rennes.grid5000.fr;thermos-root-devel-WordCountTopology-0-03503371-7fd5-4417-8d1f-78bd74fa0085;["topology_master"];2.25;1533733780.21712;3.48;9.75;0.157887313;9;117
14;paravance-34.rennes.grid5000.fr;thermos-root-devel-WordCountTopology-2-5d5b1b56-972e-43c8-af6b-911e4bbb378b;["container_2_Emit_random_words_2"];2.25;1533733780.73067;50.9;195.37;23.70252821;10;149
15;paravance-66.rennes.grid5000.fr;thermos-root-devel-WordCountTopology-1-95f04355-a320-4fc5-bfa0-15808c4b7e16;["container_1_Consume_and_count_1"];2.25;1533733790.92321;63.61;449.79;154.289169832;10;149
15;paravance-68.rennes.grid5000.fr;thermos-root-devel-WordCountTopology-0-03503371-7fd5-4417-8d1f-78bd74fa0085;["topology_master"];2.25;1533733790.4378;3.53;9.82;0.157887313;9;117
15;paravance-34.rennes.grid5000.fr;thermos-root-devel-WordCountTopology-2-5d5b1b56-972e-43c8-af6b-911e4bbb378b;["container_2_Emit_random_words_2"];2.25;1533733790.94006;52.74;202.22;23.911796467;10;149
16;paravance-66.rennes.grid5000.fr;thermos-root-devel-WordCountTopology-1-95f04355-a320-4fc5-bfa0-15808c4b7e16;["container_1_Consume_and_count_1"];2.25;1533733801.13318;65.95;466.64;159.191381281;10;149
16;paravance-34.rennes.grid5000.fr;thermos-root-devel-WordCountTopology-2-5d5b1b56-972e-43c8-af6b-911e4bbb378b;["container_2_Emit_random_words_2"];2.25;1533733801.15141;54.71;209.48;24.212686237;10;149
16;paravance-68.rennes.grid5000.fr;thermos-root-devel-WordCountTopology-0-03503371-7fd5-4417-8d1f-78bd74fa0085;["topology_master"];2.25;1533733800.65806;3.59;9.91;0.157887313;9;117
17;paravance-34.rennes.grid5000.fr;thermos-root-devel-WordCountTopology-2-5d5b1b56-972e-43c8-af6b-911e4bbb378b;["container_2_Emit_random_words_2"];2.25;1533733811.36114;56.42;215.87;24.445901692;10;149
17;paravance-66.rennes.grid5000.fr;thermos-root-devel-WordCountTopology-1-95f04355-a320-4fc5-bfa0-15808c4b7e16;["container_1_Consume_and_count_1"];2.25;1533733811.34391;68.07;483.37;164.387316119;10;149
17;paravance-68.rennes.grid5000.fr;thermos-root-devel-WordCountTopology-0-03503371-7fd5-4417-8d1f-78bd74fa0085;["topology_master"];2.25;1533733810.87794;3.65;9.98;0.157887313;9;117
18;paravance-68.rennes.grid5000.fr;thermos-root-devel-WordCountTopology-0-03503371-7fd5-4417-8d1f-78bd74fa0085;["topology_master"];2.25;1533733820.99783;3.77;10.2;0.157887313;9;117
18;paravance-66.rennes.grid5000.fr;thermos-root-devel-WordCountTopology-1-95f04355-a320-4fc5-bfa0-15808c4b7e16;["container_1_Consume_and_count_1"];2.25;1533733821.55314;70.25;499.91;170.016946117;10;149
18;paravance-34.rennes.grid5000.fr;thermos-root-devel-WordCountTopology-2-5d5b1b56-972e-43c8-af6b-911e4bbb378b;["container_2_Emit_random_words_2"];2.25;1533733821.57048;58.28;222.37;24.659015994;10;149
19;paravance-66.rennes.grid5000.fr;thermos-root-devel-WordCountTopology-1-95f04355-a320-4fc5-bfa0-15808c4b7e16;["container_1_Consume_and_count_1"];2.25;1533733831.76599;72.27;516.71;174.819662165;10;149
19;paravance-68.rennes.grid5000.fr;thermos-root-devel-WordCountTopology-0-03503371-7fd5-4417-8d1f-78bd74fa0085;["topology_master"];2.25;1533733831.32091;3.8;10.22;0.157887313;9;117
19;paravance-34.rennes.grid5000.fr;thermos-root-devel-WordCountTopology-2-5d5b1b56-972e-43c8-af6b-911e4bbb378b;["container_2_Emit_random_words_2"];2.25;1533733831.78334;59.94;228.53;24.845403711;10;149
20;paravance-66.rennes.grid5000.fr;thermos-root-devel-WordCountTopology-1-95f04355-a320-4fc5-bfa0-15808c4b7e16;["container_1_Consume_and_count_1"];2.25;1533733841.97628;74.37;533.52;180.929602929;10;149
20;paravance-34.rennes.grid5000.fr;thermos-root-devel-WordCountTopology-2-5d5b1b56-972e-43c8-af6b-911e4bbb378b;["container_2_Emit_random_words_2"];2.25;1533733841.99465;61.61;234.62;25.000288957;10;149
20;paravance-68.rennes.grid5000.fr;thermos-root-devel-WordCountTopology-0-03503371-7fd5-4417-8d1f-78bd74fa0085;["topology_master"];2.25;1533733841.54248;3.89;10.35;0.157887313;9;117
21;paravance-66.rennes.grid5000.fr;thermos-root-devel-WordCountTopology-1-95f04355-a320-4fc5-bfa0-15808c4b7e16;["container_1_Consume_and_count_1"];2.25;1533733852.18879;76.44;550.14;186.153172946;10;149
21;paravance-34.rennes.grid5000.fr;thermos-root-devel-WordCountTopology-2-5d5b1b56-972e-43c8-af6b-911e4bbb378b;["container_2_Emit_random_words_2"];2.25;1533733852.20617;63.36;240.62;25.286667956;10;149
21;paravance-68.rennes.grid5000.fr;thermos-root-devel-WordCountTopology-0-03503371-7fd5-4417-8d1f-78bd74fa0085;["topology_master"];2.25;1533733851.76342;3.95;10.43;0.157887313;9;117
22;paravance-66.rennes.grid5000.fr;thermos-root-devel-WordCountTopology-1-95f04355-a320-4fc5-bfa0-15808c4b7e16;["container_1_Consume_and_count_1"];2.25;1533733862.39789;78.6;566.74;191.284023124;10;149
22;paravance-34.rennes.grid5000.fr;thermos-root-devel-WordCountTopology-2-5d5b1b56-972e-43c8-af6b-911e4bbb378b;["container_2_Emit_random_words_2"];2.25;1533733862.41612;65.28;247.6;25.667598112;10;149
22;paravance-68.rennes.grid5000.fr;thermos-root-devel-WordCountTopology-0-03503371-7fd5-4417-8d1f-78bd74fa0085;["topology_master"];2.25;1533733861.98476;4.0;10.5;0.157887313;9;117
23;paravance-34.rennes.grid5000.fr;thermos-root-devel-WordCountTopology-2-5d5b1b56-972e-43c8-af6b-911e4bbb378b;["container_2_Emit_random_words_2"];2.25;1533733872.62651;66.97;254.12;25.995458916;10;149
23;paravance-68.rennes.grid5000.fr;thermos-root-devel-WordCountTopology-0-03503371-7fd5-4417-8d1f-78bd74fa0085;["topology_master"];2.25;1533733872.20504;4.06;10.57;0.157887313;9;117
23;paravance-66.rennes.grid5000.fr;thermos-root-devel-WordCountTopology-1-95f04355-a320-4fc5-bfa0-15808c4b7e16;["container_1_Consume_and_count_1"];2.25;1533733872.61347;80.7;583.51;197.445891773;10;149
24;paravance-66.rennes.grid5000.fr;thermos-root-devel-WordCountTopology-1-95f04355-a320-4fc5-bfa0-15808c4b7e16;["container_1_Consume_and_count_1"];2.25;1533733882.81962;82.9;600.52;202.796041499;10;149
24;paravance-34.rennes.grid5000.fr;thermos-root-devel-WordCountTopology-2-5d5b1b56-972e-43c8-af6b-911e4bbb378b;["container_2_Emit_random_words_2"];2.25;1533733882.8384;68.67;260.42;26.512561433;10;149
24;paravance-68.rennes.grid5000.fr;thermos-root-devel-WordCountTopology-0-03503371-7fd5-4417-8d1f-78bd74fa0085;["topology_master"];2.25;1533733882.42754;4.17;10.76;0.157887313;9;117
25;paravance-68.rennes.grid5000.fr;thermos-root-devel-WordCountTopology-0-03503371-7fd5-4417-8d1f-78bd74fa0085;["topology_master"];2.25;1533733892.64552;4.2;10.79;0.157887313;9;117
25;paravance-66.rennes.grid5000.fr;thermos-root-devel-WordCountTopology-1-95f04355-a320-4fc5-bfa0-15808c4b7e16;["container_1_Consume_and_count_1"];2.25;1533733893.02993;84.8;617.35;207.968615822;10;149
25;paravance-34.rennes.grid5000.fr;thermos-root-devel-WordCountTopology-2-5d5b1b56-972e-43c8-af6b-911e4bbb378b;["container_2_Emit_random_words_2"];2.25;1533733893.04676;70.15;266.13;26.777941014;10;149
26;paravance-66.rennes.grid5000.fr;thermos-root-devel-WordCountTopology-1-95f04355-a320-4fc5-bfa0-15808c4b7e16;["container_1_Consume_and_count_1"];2.25;1533733903.24203;87.04;634.21;213.931182093;10;149
26;paravance-34.rennes.grid5000.fr;thermos-root-devel-WordCountTopology-2-5d5b1b56-972e-43c8-af6b-911e4bbb378b;["container_2_Emit_random_words_2"];2.25;1533733903.25905;72.02;273.1;27.112622028;10;149
26;paravance-68.rennes.grid5000.fr;thermos-root-devel-WordCountTopology-0-03503371-7fd5-4417-8d1f-78bd74fa0085;["topology_master"];2.25;1533733902.8692;4.29;10.92;0.157887313;9;117
27;paravance-66.rennes.grid5000.fr;thermos-root-devel-WordCountTopology-1-95f04355-a320-4fc5-bfa0-15808c4b7e16;["container_1_Consume_and_count_1"];2.25;1533733913.45235;88.94;650.98;218.895104952;10;149
27;paravance-34.rennes.grid5000.fr;thermos-root-devel-WordCountTopology-2-5d5b1b56-972e-43c8-af6b-911e4bbb378b;["container_2_Emit_random_words_2"];2.25;1533733913.47024;73.38;278.46;27.400009376;10;149
27;paravance-68.rennes.grid5000.fr;thermos-root-devel-WordCountTopology-0-03503371-7fd5-4417-8d1f-78bd74fa0085;["topology_master"];2.25;1533733913.09131;4.34;10.99;0.157887313;9;117
28;paravance-66.rennes.grid5000.fr;thermos-root-devel-WordCountTopology-1-95f04355-a320-4fc5-bfa0-15808c4b7e16;["container_1_Consume_and_count_1"];2.25;1533733923.66457;91.17;667.7;223.973788911;10;149
28;paravance-68.rennes.grid5000.fr;thermos-root-devel-WordCountTopology-0-03503371-7fd5-4417-8d1f-78bd74fa0085;["topology_master"];2.25;1533733923.30997;4.41;11.08;0.157887313;9;117
28;paravance-34.rennes.grid5000.fr;thermos-root-devel-WordCountTopology-2-5d5b1b56-972e-43c8-af6b-911e4bbb378b;["container_2_Emit_random_words_2"];2.25;1533733923.68277;75.24;285.59;27.728487792;10;149
29;paravance-66.rennes.grid5000.fr;thermos-root-devel-WordCountTopology-1-95f04355-a320-4fc5-bfa0-15808c4b7e16;["container_1_Consume_and_count_1"];2.25;1533733933.87444;93.17;684.51;228.468634441;10;149
29;paravance-34.rennes.grid5000.fr;thermos-root-devel-WordCountTopology-2-5d5b1b56-972e-43c8-af6b-911e4bbb378b;["container_2_Emit_random_words_2"];2.25;1533733933.89241;76.75;291.36;27.956317637;10;149
29;paravance-68.rennes.grid5000.fr;thermos-root-devel-WordCountTopology-0-03503371-7fd5-4417-8d1f-78bd74fa0085;["topology_master"];2.25;1533733933.53432;4.51;11.21;0.157887313;9;117
30;paravance-34.rennes.grid5000.fr;thermos-root-devel-WordCountTopology-2-5d5b1b56-972e-43c8-af6b-911e4bbb378b;["container_2_Emit_random_words_2"];2.25;1533733944.10408;78.86;298.5;28.467868603;10;149
30;paravance-66.rennes.grid5000.fr;thermos-root-devel-WordCountTopology-1-95f04355-a320-4fc5-bfa0-15808c4b7e16;["container_1_Consume_and_count_1"];2.25;1533733944.08823;95.48;701.48;233.900987609;10;149
30;paravance-68.rennes.grid5000.fr;thermos-root-devel-WordCountTopology-0-03503371-7fd5-4417-8d1f-78bd74fa0085;["topology_master"];2.25;1533733943.75378;4.57;11.32;0.157887313;9;117
31;paravance-66.rennes.grid5000.fr;thermos-root-devel-WordCountTopology-1-95f04355-a320-4fc5-bfa0-15808c4b7e16;["container_1_Consume_and_count_1"];2.25;1533733954.29524;97.57;718.2;238.720941208;10;149
31;paravance-68.rennes.grid5000.fr;thermos-root-devel-WordCountTopology-0-03503371-7fd5-4417-8d1f-78bd74fa0085;["topology_master"];2.25;1533733953.97468;4.63;11.4;0.157887313;9;117
31;paravance-34.rennes.grid5000.fr;thermos-root-devel-WordCountTopology-2-5d5b1b56-972e-43c8-af6b-911e4bbb378b;["container_2_Emit_random_words_2"];2.25;1533733954.31351;80.56;304.46;28.572298276;10;147
32;paravance-66.rennes.grid5000.fr;thermos-root-devel-WordCountTopology-1-95f04355-a320-4fc5-bfa0-15808c4b7e16;["container_1_Consume_and_count_1"];2.25;1533733964.50613;99.75;734.95;244.478713571;10;149
32;paravance-68.rennes.grid5000.fr;thermos-root-devel-WordCountTopology-0-03503371-7fd5-4417-8d1f-78bd74fa0085;["topology_master"];2.25;1533733964.19388;4.68;11.47;0.157887313;9;117
32;paravance-34.rennes.grid5000.fr;thermos-root-devel-WordCountTopology-2-5d5b1b56-972e-43c8-af6b-911e4bbb378b;["container_2_Emit_random_words_2"];2.25;1533733964.52372;82.38;310.33;28.709622001;10;149
33;paravance-66.rennes.grid5000.fr;thermos-root-devel-WordCountTopology-1-95f04355-a320-4fc5-bfa0-15808c4b7e16;["container_1_Consume_and_count_1"];2.25;1533733974.718;102.18;751.8;250.330840403;10;149
33;paravance-68.rennes.grid5000.fr;thermos-root-devel-WordCountTopology-0-03503371-7fd5-4417-8d1f-78bd74fa0085;["topology_master"];2.25;1533733974.41432;4.78;11.61;0.157887313;9;117
33;paravance-34.rennes.grid5000.fr;thermos-root-devel-WordCountTopology-2-5d5b1b56-972e-43c8-af6b-911e4bbb378b;["container_2_Emit_random_words_2"];2.25;1533733974.73492;84.33;316.91;28.833099885;10;149
34;paravance-66.rennes.grid5000.fr;thermos-root-devel-WordCountTopology-1-95f04355-a320-4fc5-bfa0-15808c4b7e16;["container_1_Consume_and_count_1"];2.25;1533733984.92781;104.37;768.34;256.098251005;10;149
34;paravance-68.rennes.grid5000.fr;thermos-root-devel-WordCountTopology-0-03503371-7fd5-4417-8d1f-78bd74fa0085;["topology_master"];2.25;1533733984.63552;4.81;11.63;0.157887313;9;117
34;paravance-34.rennes.grid5000.fr;thermos-root-devel-WordCountTopology-2-5d5b1b56-972e-43c8-af6b-911e4bbb378b;["container_2_Emit_random_words_2"];2.25;1533733984.94438;86.24;323.13;28.87203551;10;149
35;paravance-66.rennes.grid5000.fr;thermos-root-devel-WordCountTopology-1-95f04355-a320-4fc5-bfa0-15808c4b7e16;["container_1_Consume_and_count_1"];2.25;1533733995.13754;106.59;785.02;261.471641722;10;149
35;paravance-34.rennes.grid5000.fr;thermos-root-devel-WordCountTopology-2-5d5b1b56-972e-43c8-af6b-911e4bbb378b;["container_2_Emit_random_words_2"];2.25;1533733995.15482;87.88;328.69;29.053230016;10;149
35;paravance-68.rennes.grid5000.fr;thermos-root-devel-WordCountTopology-0-03503371-7fd5-4417-8d1f-78bd74fa0085;["topology_master"];2.25;1533733994.8565;4.91;11.77;0.157887313;9;117
36;paravance-66.rennes.grid5000.fr;thermos-root-devel-WordCountTopology-1-95f04355-a320-4fc5-bfa0-15808c4b7e16;["container_1_Consume_and_count_1"];2.25;1533734005.34652;108.71;801.59;266.913155603;10;149
36;paravance-34.rennes.grid5000.fr;thermos-root-devel-WordCountTopology-2-5d5b1b56-972e-43c8-af6b-911e4bbb378b;["container_2_Emit_random_words_2"];2.25;1533734005.36268;89.59;334.66;29.204157203;10;149
36;paravance-68.rennes.grid5000.fr;thermos-root-devel-WordCountTopology-0-03503371-7fd5-4417-8d1f-78bd74fa0085;["topology_master"];2.25;1533734005.07434;4.97;11.95;0.157887313;9;117
37;paravance-68.rennes.grid5000.fr;thermos-root-devel-WordCountTopology-0-03503371-7fd5-4417-8d1f-78bd74fa0085;["topology_master"];2.25;1533734015.29173;5.06;12.08;0.157887313;9;117
37;paravance-66.rennes.grid5000.fr;thermos-root-devel-WordCountTopology-1-95f04355-a320-4fc5-bfa0-15808c4b7e16;["container_1_Consume_and_count_1"];2.25;1533734015.55365;110.89;818.07;272.327772249;10;149
37;paravance-34.rennes.grid5000.fr;thermos-root-devel-WordCountTopology-2-5d5b1b56-972e-43c8-af6b-911e4bbb378b;["container_2_Emit_random_words_2"];2.25;1533734015.57105;91.37;340.64;29.232378387;10;149
38;paravance-66.rennes.grid5000.fr;thermos-root-devel-WordCountTopology-1-95f04355-a320-4fc5-bfa0-15808c4b7e16;["container_1_Consume_and_count_1"];2.25;1533734025.76386;113.0;834.82;277.280635894;10;149
38;paravance-68.rennes.grid5000.fr;thermos-root-devel-WordCountTopology-0-03503371-7fd5-4417-8d1f-78bd74fa0085;["topology_master"];2.25;1533734025.51222;5.09;12.11;0.157887313;9;117
38;paravance-34.rennes.grid5000.fr;thermos-root-devel-WordCountTopology-2-5d5b1b56-972e-43c8-af6b-911e4bbb378b;["container_2_Emit_random_words_2"];2.25;1533734025.7822;93.03;346.79;29.317906303;10;149
39;paravance-34.rennes.grid5000.fr;thermos-root-devel-WordCountTopology-2-5d5b1b56-972e-43c8-af6b-911e4bbb378b;["container_2_Emit_random_words_2"];2.25;1533734035.89416;94.71;352.35;29.385526766;10;149
39;paravance-66.rennes.grid5000.fr;thermos-root-devel-WordCountTopology-1-95f04355-a320-4fc5-bfa0-15808c4b7e16;["container_1_Consume_and_count_1"];2.25;1533734035.97694;115.12;851.27;283.180653423;10;149
39;paravance-68.rennes.grid5000.fr;thermos-root-devel-WordCountTopology-0-03503371-7fd5-4417-8d1f-78bd74fa0085;["topology_master"];2.25;1533734035.7373;5.18;12.24;0.157887313;9;117
40;paravance-66.rennes.grid5000.fr;thermos-root-devel-WordCountTopology-1-95f04355-a320-4fc5-bfa0-15808c4b7e16;["container_1_Consume_and_count_1"];2.25;1533734046.18661;117.29;867.94;287.807723832;10;149
40;paravance-68.rennes.grid5000.fr;thermos-root-devel-WordCountTopology-0-03503371-7fd5-4417-8d1f-78bd74fa0085;["topology_master"];2.25;1533734045.95667;5.24;12.31;0.157887313;9;117
40;paravance-34.rennes.grid5000.fr;thermos-root-devel-WordCountTopology-2-5d5b1b56-972e-43c8-af6b-911e4bbb378b;["container_2_Emit_random_words_2"];2.25;1533734046.2273;96.52;358.81;29.463644421;10;149
41;paravance-66.rennes.grid5000.fr;thermos-root-devel-WordCountTopology-1-95f04355-a320-4fc5-bfa0-15808c4b7e16;["container_1_Consume_and_count_1"];2.25;1533734056.4169;119.55;884.67;292.774517676;10;149
41;paravance-34.rennes.grid5000.fr;thermos-root-devel-WordCountTopology-2-5d5b1b56-972e-43c8-af6b-911e4bbb378b;["container_2_Emit_random_words_2"];2.25;1533734056.43499;98.25;364.67;29.494228731;10;149
41;paravance-68.rennes.grid5000.fr;thermos-root-devel-WordCountTopology-0-03503371-7fd5-4417-8d1f-78bd74fa0085;["topology_master"];2.25;1533734056.19853;5.31;12.41;0.157887313;9;117
42;paravance-66.rennes.grid5000.fr;thermos-root-devel-WordCountTopology-1-95f04355-a320-4fc5-bfa0-15808c4b7e16;["container_1_Consume_and_count_1"];2.25;1533734066.62933;121.82;901.5;297.134835527;10;149
42;paravance-68.rennes.grid5000.fr;thermos-root-devel-WordCountTopology-0-03503371-7fd5-4417-8d1f-78bd74fa0085;["topology_master"];2.25;1533734066.41925;5.38;12.53;0.157887313;9;117
42;paravance-34.rennes.grid5000.fr;thermos-root-devel-WordCountTopology-2-5d5b1b56-972e-43c8-af6b-911e4bbb378b;["container_2_Emit_random_words_2"];2.25;1533734066.64667;100.06;370.77;29.516463723;10;149
43;paravance-34.rennes.grid5000.fr;thermos-root-devel-WordCountTopology-2-5d5b1b56-972e-43c8-af6b-911e4bbb378b;["container_2_Emit_random_words_2"];2.25;1533734076.85845;101.92;377.51;29.604517203;10;149
43;paravance-66.rennes.grid5000.fr;thermos-root-devel-WordCountTopology-1-95f04355-a320-4fc5-bfa0-15808c4b7e16;["container_1_Consume_and_count_1"];2.25;1533734076.84177;124.08;918.1;302.028678804;10;149
43;paravance-68.rennes.grid5000.fr;thermos-root-devel-WordCountTopology-0-03503371-7fd5-4417-8d1f-78bd74fa0085;["topology_master"];2.25;1533734076.64057;5.47;12.65;0.157887313;9;117
44;paravance-66.rennes.grid5000.fr;thermos-root-devel-WordCountTopology-1-95f04355-a320-4fc5-bfa0-15808c4b7e16;["container_1_Consume_and_count_1"];2.25;1533734087.04996;126.34;935.07;307.790378244;10;149
44;paravance-34.rennes.grid5000.fr;thermos-root-devel-WordCountTopology-2-5d5b1b56-972e-43c8-af6b-911e4bbb378b;["container_2_Emit_random_words_2"];2.25;1533734087.06877;103.65;383.67;29.649833478;10;149
44;paravance-68.rennes.grid5000.fr;thermos-root-devel-WordCountTopology-0-03503371-7fd5-4417-8d1f-78bd74fa0085;["topology_master"];2.25;1533734086.8623;5.49;12.68;0.157887313;9;117
45;paravance-66.rennes.grid5000.fr;thermos-root-devel-WordCountTopology-1-95f04355-a320-4fc5-bfa0-15808c4b7e16;["container_1_Consume_and_count_1"];2.25;1533734097.26372;128.84;951.98;313.195513569;10;149
45;paravance-34.rennes.grid5000.fr;thermos-root-devel-WordCountTopology-2-5d5b1b56-972e-43c8-af6b-911e4bbb378b;["container_2_Emit_random_words_2"];2.25;1533734097.27865;105.74;390.92;29.800153818;10;149
45;paravance-68.rennes.grid5000.fr;thermos-root-devel-WordCountTopology-0-03503371-7fd5-4417-8d1f-78bd74fa0085;["topology_master"];2.25;1533734097.08372;5.58;12.8;0.157887313;9;117
46;paravance-66.rennes.grid5000.fr;thermos-root-devel-WordCountTopology-1-95f04355-a320-4fc5-bfa0-15808c4b7e16;["container_1_Consume_and_count_1"];2.25;1533734107.47319;131.04;968.43;318.247234061;10;149
46;paravance-68.rennes.grid5000.fr;thermos-root-devel-WordCountTopology-0-03503371-7fd5-4417-8d1f-78bd74fa0085;["topology_master"];2.25;1533734107.30377;5.64;12.87;0.157887313;9;117
46;paravance-34.rennes.grid5000.fr;thermos-root-devel-WordCountTopology-2-5d5b1b56-972e-43c8-af6b-911e4bbb378b;["container_2_Emit_random_words_2"];2.25;1533734107.49058;107.56;397.0;29.900147935;10;149
47;paravance-66.rennes.grid5000.fr;thermos-root-devel-WordCountTopology-1-95f04355-a320-4fc5-bfa0-15808c4b7e16;["container_1_Consume_and_count_1"];2.25;1533734117.68213;133.04;985.08;323.075989712;10;149
47;paravance-34.rennes.grid5000.fr;thermos-root-devel-WordCountTopology-2-5d5b1b56-972e-43c8-af6b-911e4bbb378b;["container_2_Emit_random_words_2"];2.25;1533734117.7009;109.35;402.67;29.942527358;10;149
47;paravance-68.rennes.grid5000.fr;thermos-root-devel-WordCountTopology-0-03503371-7fd5-4417-8d1f-78bd74fa0085;["topology_master"];2.25;1533734117.53127;5.7;12.96;0.157887313;9;117
48;paravance-66.rennes.grid5000.fr;thermos-root-devel-WordCountTopology-1-95f04355-a320-4fc5-bfa0-15808c4b7e16;["container_1_Consume_and_count_1"];2.25;1533734127.89882;135.24;1001.9;328.132967697;10;149
48;paravance-34.rennes.grid5000.fr;thermos-root-devel-WordCountTopology-2-5d5b1b56-972e-43c8-af6b-911e4bbb378b;["container_2_Emit_random_words_2"];2.25;1533734127.91694;111.13;409.09;30.008270292;10;149
48;paravance-68.rennes.grid5000.fr;thermos-root-devel-WordCountTopology-0-03503371-7fd5-4417-8d1f-78bd74fa0085;["topology_master"];2.25;1533734127.75163;5.77;13.1;0.157887313;9;117
49;paravance-68.rennes.grid5000.fr;thermos-root-devel-WordCountTopology-0-03503371-7fd5-4417-8d1f-78bd74fa0085;["topology_master"];2.25;1533734137.97073;5.86;13.23;0.157887313;9;117
49;paravance-66.rennes.grid5000.fr;thermos-root-devel-WordCountTopology-1-95f04355-a320-4fc5-bfa0-15808c4b7e16;["container_1_Consume_and_count_1"];2.25;1533734138.11035;137.36;1018.33;332.754191052;10;149
49;paravance-34.rennes.grid5000.fr;thermos-root-devel-WordCountTopology-2-5d5b1b56-972e-43c8-af6b-911e4bbb378b;["container_2_Emit_random_words_2"];2.25;1533734138.12665;112.75;414.7;30.060509667;10;149
50;paravance-68.rennes.grid5000.fr;thermos-root-devel-WordCountTopology-0-03503371-7fd5-4417-8d1f-78bd74fa0085;["topology_master"];2.25;1533734148.19169;5.89;13.26;0.157887313;9;117
50;paravance-34.rennes.grid5000.fr;thermos-root-devel-WordCountTopology-2-5d5b1b56-972e-43c8-af6b-911e4bbb378b;["container_2_Emit_random_words_2"];2.25;1533734148.33696;114.51;421.05;30.07661796;10;149
50;paravance-66.rennes.grid5000.fr;thermos-root-devel-WordCountTopology-1-95f04355-a320-4fc5-bfa0-15808c4b7e16;["container_1_Consume_and_count_1"];2.25;1533734148.32173;139.67;1035.1;338.233686074;10;149
51;paravance-66.rennes.grid5000.fr;thermos-root-devel-WordCountTopology-1-95f04355-a320-4fc5-bfa0-15808c4b7e16;["container_1_Consume_and_count_1"];2.25;1533734158.53793;141.92;1051.98;343.871387425;10;149
51;paravance-68.rennes.grid5000.fr;thermos-root-devel-WordCountTopology-0-03503371-7fd5-4417-8d1f-78bd74fa0085;["topology_master"];2.25;1533734158.42004;5.98;13.39;0.157887313;9;117
51;paravance-34.rennes.grid5000.fr;thermos-root-devel-WordCountTopology-2-5d5b1b56-972e-43c8-af6b-911e4bbb378b;["container_2_Emit_random_words_2"];2.25;1533734158.55689;116.3;427.17;30.120260234;10;149
52;paravance-66.rennes.grid5000.fr;thermos-root-devel-WordCountTopology-1-95f04355-a320-4fc5-bfa0-15808c4b7e16;["container_1_Consume_and_count_1"];2.25;1533734168.75628;144.1;1068.83;349.320996145;10;149
52;paravance-34.rennes.grid5000.fr;thermos-root-devel-WordCountTopology-2-5d5b1b56-972e-43c8-af6b-911e4bbb378b;["container_2_Emit_random_words_2"];2.25;1533734168.77344;118.1;433.26;30.198930916;10;149
52;paravance-68.rennes.grid5000.fr;thermos-root-devel-WordCountTopology-0-03503371-7fd5-4417-8d1f-78bd74fa0085;["topology_master"];2.25;1533734168.6491;6.04;13.46;0.157887313;9;117
53;paravance-66.rennes.grid5000.fr;thermos-root-devel-WordCountTopology-1-95f04355-a320-4fc5-bfa0-15808c4b7e16;["container_1_Consume_and_count_1"];2.25;1533734178.96654;146.49;1086.02;354.545868786;10;149
53;paravance-68.rennes.grid5000.fr;thermos-root-devel-WordCountTopology-0-03503371-7fd5-4417-8d1f-78bd74fa0085;["topology_master"];2.25;1533734178.86895;6.11;13.58;0.157887313;9;117
53;paravance-34.rennes.grid5000.fr;thermos-root-devel-WordCountTopology-2-5d5b1b56-972e-43c8-af6b-911e4bbb378b;["container_2_Emit_random_words_2"];2.25;1533734178.98496;120.04;440.0;30.345369134;10;149
54;paravance-34.rennes.grid5000.fr;thermos-root-devel-WordCountTopology-2-5d5b1b56-972e-43c8-af6b-911e4bbb378b;["container_2_Emit_random_words_2"];2.25;1533734189.19416;121.88;446.54;30.36810762;10;149
54;paravance-66.rennes.grid5000.fr;thermos-root-devel-WordCountTopology-1-95f04355-a320-4fc5-bfa0-15808c4b7e16;["container_1_Consume_and_count_1"];2.25;1533734189.17802;148.73;1102.91;359.626642089;10;149
54;paravance-68.rennes.grid5000.fr;thermos-root-devel-WordCountTopology-0-03503371-7fd5-4417-8d1f-78bd74fa0085;["topology_master"];2.25;1533734189.08951;6.18;13.66;0.157887313;9;117
55;paravance-66.rennes.grid5000.fr;thermos-root-devel-WordCountTopology-1-95f04355-a320-4fc5-bfa0-15808c4b7e16;["container_1_Consume_and_count_1"];2.25;1533734199.3852;151.07;1119.68;365.297267811;10;149
55;paravance-34.rennes.grid5000.fr;thermos-root-devel-WordCountTopology-2-5d5b1b56-972e-43c8-af6b-911e4bbb378b;["container_2_Emit_random_words_2"];2.25;1533734199.40025;123.94;452.87;30.533478417;10;149
55;paravance-68.rennes.grid5000.fr;thermos-root-devel-WordCountTopology-0-03503371-7fd5-4417-8d1f-78bd74fa0085;["topology_master"];2.25;1533734199.30704;6.26;13.78;0.157887313;9;117
56;paravance-66.rennes.grid5000.fr;thermos-root-devel-WordCountTopology-1-95f04355-a320-4fc5-bfa0-15808c4b7e16;["container_1_Consume_and_count_1"];2.25;1533734209.59234;153.28;1136.15;370.209862068;10;149
56;paravance-68.rennes.grid5000.fr;thermos-root-devel-WordCountTopology-0-03503371-7fd5-4417-8d1f-78bd74fa0085;["topology_master"];2.25;1533734209.52737;6.29;13.8;0.157887313;9;117
56;paravance-34.rennes.grid5000.fr;thermos-root-devel-WordCountTopology-2-5d5b1b56-972e-43c8-af6b-911e4bbb378b;["container_2_Emit_random_words_2"];2.25;1533734209.61135;125.68;459.03;30.567632985;10;149
57;paravance-68.rennes.grid5000.fr;thermos-root-devel-WordCountTopology-0-03503371-7fd5-4417-8d1f-78bd74fa0085;["topology_master"];2.25;1533734219.75088;6.38;13.93;0.157887313;9;117
57;paravance-34.rennes.grid5000.fr;thermos-root-devel-WordCountTopology-2-5d5b1b56-972e-43c8-af6b-911e4bbb378b;["container_2_Emit_random_words_2"];2.25;1533734219.8283;127.59;465.9;30.728359504;10;149
57;paravance-66.rennes.grid5000.fr;thermos-root-devel-WordCountTopology-1-95f04355-a320-4fc5-bfa0-15808c4b7e16;["container_1_Consume_and_count_1"];2.25;1533734219.8267;155.63;1152.99;376.059172661;10;149
58;paravance-66.rennes.grid5000.fr;thermos-root-devel-WordCountTopology-1-95f04355-a320-4fc5-bfa0-15808c4b7e16;["container_1_Consume_and_count_1"];2.25;1533734230.03967;157.98;1169.95;380.751158788;10;149
58;paravance-34.rennes.grid5000.fr;thermos-root-devel-WordCountTopology-2-5d5b1b56-972e-43c8-af6b-911e4bbb378b;["container_2_Emit_random_words_2"];2.25;1533734230.05673;129.61;472.52;30.788201264;10;149
58;paravance-68.rennes.grid5000.fr;thermos-root-devel-WordCountTopology-0-03503371-7fd5-4417-8d1f-78bd74fa0085;["topology_master"];2.25;1533734229.99746;6.43;14.01;0.157887313;9;117
59;paravance-66.rennes.grid5000.fr;thermos-root-devel-WordCountTopology-1-95f04355-a320-4fc5-bfa0-15808c4b7e16;["container_1_Consume_and_count_1"];2.25;1533734240.25969;160.16;1186.6;386.022719299;10;149
59;paravance-34.rennes.grid5000.fr;thermos-root-devel-WordCountTopology-2-5d5b1b56-972e-43c8-af6b-911e4bbb378b;["container_2_Emit_random_words_2"];2.25;1533734240.27522;131.39;478.71;30.836257056;10;149
59;paravance-68.rennes.grid5000.fr;thermos-root-devel-WordCountTopology-0-03503371-7fd5-4417-8d1f-78bd74fa0085;["topology_master"];2.25;1533734240.22387;6.5;14.13;0.157887313;9;117
60;paravance-66.rennes.grid5000.fr;thermos-root-devel-WordCountTopology-1-95f04355-a320-4fc5-bfa0-15808c4b7e16;["container_1_Consume_and_count_1"];2.25;1533734250.47718;162.38;1203.3;391.279686311;10;149
60;paravance-34.rennes.grid5000.fr;thermos-root-devel-WordCountTopology-2-5d5b1b56-972e-43c8-af6b-911e4bbb378b;["container_2_Emit_random_words_2"];2.25;1533734250.49334;133.22;484.86;30.864876355;10;149
60;paravance-68.rennes.grid5000.fr;thermos-root-devel-WordCountTopology-0-03503371-7fd5-4417-8d1f-78bd74fa0085;["topology_master"];2.25;1533734250.45401;6.56;14.2;0.157887313;9;117
