{
  "status": "success",
  "executiontime": 0.0001800060272216797,
  "message": "",
  "result": {
    "bolts": {
      "Consume_and_count": [
        "container_1_Consume_and_count_1"
      ]
    },
    "instances": {
      "container_2_Emit_random_words_2": {
        "stmgrId": "stmgr-2",
        "logfile": "http://paravance-55.rennes.grid5000.fr:31810/file/log-files/container_2_Emit_random_words_2.log.0",
        "id": "container_2_Emit_random_words_2",
        "name": "Emit_random_words"
      },
      "container_1_Consume_and_count_1": {
        "stmgrId": "stmgr-1",
        "logfile": "http://paravance-53.rennes.grid5000.fr:31720/file/log-files/container_1_Consume_and_count_1.log.0",
        "id": "container_1_Consume_and_count_1",
        "name": "Consume_and_count"
      }
    },
    "instance_groups": {
      "container_1_Consume_and": [
        "container_1_Consume_and_count_1"
      ],
      "container_2_Emit_random": [
        "container_2_Emit_random_words_2"
      ]
    },
    "spouts": {
      "Emit_random_words": [
        "container_2_Emit_random_words_2"
      ]
    },
    "config": {
      "topology.message.timeout.secs": "30",
      "topology.team.environment": "devel",
      "topology.serializer.classname": "org.apache.heron.streamlet.impl.KryoSerializer",
      "topology.team.name": "root",
      "topology.debug": "false",
      "topology.max.spout.pending": "100",
      "topology.container.padding.percentage": "200",
      "topology.enable.message.timeouts": "true",
      "topology.component.parallelism": "1",
      "topology.name": "WordCountTopology",
      "topology.stmgrs": "2",
      "topology.reliability.mode": "ATMOST_ONCE"
    },
    "stmgrs": {
      "stmgr-1": {
        "cwd": "/var/lib/mesos/slaves/71fc9d19-0919-4c1b-98a0-f145f8b31bd7-S0/frameworks/75deb08a-eb1b-415c-8b2c-e922be5f7d98-0000/executors/thermos-root-devel-WordCountTopology-1-3ab40bde-1a85-459d-8f67-1ef9e452b306/runs/38c3827e-b985-4418-9c6b-9384907a0b49/sandbox",
        "host": "paravance-53.rennes.grid5000.fr",
        "joburl": "http://paravance-53.rennes.grid5000.fr:31720/browse/",
        "shell_port": 31720,
        "logfiles": "http://paravance-53.rennes.grid5000.fr:31720/browse/log-files",
        "pid": 2100,
        "id": "stmgr-1",
        "instance_ids": [
          "container_1_Consume_and_count_1"
        ],
        "port": 31563
      },
      "stmgr-2": {
        "cwd": "/var/lib/mesos/slaves/71fc9d19-0919-4c1b-98a0-f145f8b31bd7-S1/frameworks/75deb08a-eb1b-415c-8b2c-e922be5f7d98-0000/executors/thermos-root-devel-WordCountTopology-2-2017d243-a83d-48c7-aef1-7ba4df570896/runs/b4975316-5876-4d67-b005-ce0a8eb67054/sandbox",
        "host": "paravance-55.rennes.grid5000.fr",
        "joburl": "http://paravance-55.rennes.grid5000.fr:31810/browse/",
        "shell_port": 31810,
        "logfiles": "http://paravance-55.rennes.grid5000.fr:31810/browse/log-files",
        "pid": 2189,
        "id": "stmgr-2",
        "instance_ids": [
          "container_2_Emit_random_words_2"
        ],
        "port": 31873
      }
    }
  },
  "tracker_version": "0.17.8-61-gd7c8c62"
}