mesure_id;time;backpresure
0;1533733920;20379.0
1;1533734400;22191.0
2;1533733860;23468.0
3;1533734280;21446.0
4;1533734220;20997.0
5;1533734160;21497.0
6;1533734100;19151.0
7;1533734040;19065.0
8;1533734340;21764.0
9;1533733980;22175.0
