mesure_id;slave_id;executor_id;heron_instances;cpus_limit;timestamp_A;cpus_system_time_secs_A;cpus_user_time_secs_A;cpus_throttled_time_secs_A;processes;threads
0;paravance-64.rennes.grid5000.fr;thermos-root-devel-WordCountTopology-1-d5f63bef-48dc-4c02-a966-20bcf38449ba;["container_1_Consume_and_count_1"];2.25;1533805223.6428;22.11;172.77;184.957220893;10;151
0;paravance-63.rennes.grid5000.fr;thermos-root-devel-WordCountTopology-2-28aaf5ab-42fb-4e70-899d-b5494fc6b0ae;["container_2_Emit_random_words_2"];2.25;1533805223.65376;9.59;92.61;18.035821792;10;149
0;paravance-61.rennes.grid5000.fr;thermos-root-devel-WordCountTopology-0-6fd19928-cd19-4502-98f2-26c43cc71e97;["topology_master"];2.25;1533805223.62402;2.33;8.01;1.180906078;9;117
1;paravance-64.rennes.grid5000.fr;thermos-root-devel-WordCountTopology-1-d5f63bef-48dc-4c02-a966-20bcf38449ba;["container_1_Consume_and_count_1"];2.25;1533805233.8594;24.19;192.11;202.768571511;10;151
1;paravance-61.rennes.grid5000.fr;thermos-root-devel-WordCountTopology-0-6fd19928-cd19-4502-98f2-26c43cc71e97;["topology_master"];2.25;1533805233.84131;2.39;8.15;1.180906078;9;117
1;paravance-63.rennes.grid5000.fr;thermos-root-devel-WordCountTopology-2-28aaf5ab-42fb-4e70-899d-b5494fc6b0ae;["container_2_Emit_random_words_2"];2.25;1533805233.87191;10.09;97.53;18.035856279;10;149
2;paravance-64.rennes.grid5000.fr;thermos-root-devel-WordCountTopology-1-d5f63bef-48dc-4c02-a966-20bcf38449ba;["container_1_Consume_and_count_1"];2.25;1533805244.07541;26.22;210.64;221.962517377;10;151
2;paravance-61.rennes.grid5000.fr;thermos-root-devel-WordCountTopology-0-6fd19928-cd19-4502-98f2-26c43cc71e97;["topology_master"];2.25;1533805244.05701;2.48;8.27;1.180906078;9;117
2;paravance-63.rennes.grid5000.fr;thermos-root-devel-WordCountTopology-2-28aaf5ab-42fb-4e70-899d-b5494fc6b0ae;["container_2_Emit_random_words_2"];2.25;1533805244.08789;10.8;104.35;18.116030614;10;149
3;paravance-64.rennes.grid5000.fr;thermos-root-devel-WordCountTopology-1-d5f63bef-48dc-4c02-a966-20bcf38449ba;["container_1_Consume_and_count_1"];2.25;1533805254.29115;27.64;227.42;235.221838525;10;151
3;paravance-63.rennes.grid5000.fr;thermos-root-devel-WordCountTopology-2-28aaf5ab-42fb-4e70-899d-b5494fc6b0ae;["container_2_Emit_random_words_2"];2.25;1533805254.30304;11.27;108.51;18.116030614;10;149
3;paravance-61.rennes.grid5000.fr;thermos-root-devel-WordCountTopology-0-6fd19928-cd19-4502-98f2-26c43cc71e97;["topology_master"];2.25;1533805254.27327;2.54;8.36;1.180906078;9;117
4;paravance-63.rennes.grid5000.fr;thermos-root-devel-WordCountTopology-2-28aaf5ab-42fb-4e70-899d-b5494fc6b0ae;["container_2_Emit_random_words_2"];2.25;1533805264.52189;11.82;114.16;18.116086488;10;149
4;paravance-64.rennes.grid5000.fr;thermos-root-devel-WordCountTopology-1-d5f63bef-48dc-4c02-a966-20bcf38449ba;["container_1_Consume_and_count_1"];2.25;1533805264.5112;29.71;245.16;250.931416479;10;151
4;paravance-61.rennes.grid5000.fr;thermos-root-devel-WordCountTopology-0-6fd19928-cd19-4502-98f2-26c43cc71e97;["topology_master"];2.25;1533805264.49128;2.6;8.44;1.180906078;9;117
5;paravance-64.rennes.grid5000.fr;thermos-root-devel-WordCountTopology-1-d5f63bef-48dc-4c02-a966-20bcf38449ba;["container_1_Consume_and_count_1"];2.25;1533805274.72652;31.79;264.46;269.988724178;10;151
5;paravance-61.rennes.grid5000.fr;thermos-root-devel-WordCountTopology-0-6fd19928-cd19-4502-98f2-26c43cc71e97;["topology_master"];2.25;1533805274.70642;2.66;8.51;1.180906078;9;117
5;paravance-63.rennes.grid5000.fr;thermos-root-devel-WordCountTopology-2-28aaf5ab-42fb-4e70-899d-b5494fc6b0ae;["container_2_Emit_random_words_2"];2.25;1533805274.73605;12.47;121.12;18.116114016;10;149
6;paravance-64.rennes.grid5000.fr;thermos-root-devel-WordCountTopology-1-d5f63bef-48dc-4c02-a966-20bcf38449ba;["container_1_Consume_and_count_1"];2.25;1533805284.94616;33.86;283.15;289.640323467;10;151
6;paravance-61.rennes.grid5000.fr;thermos-root-devel-WordCountTopology-0-6fd19928-cd19-4502-98f2-26c43cc71e97;["topology_master"];2.25;1533805284.92819;2.78;8.73;1.180906078;9;117
6;paravance-63.rennes.grid5000.fr;thermos-root-devel-WordCountTopology-2-28aaf5ab-42fb-4e70-899d-b5494fc6b0ae;["container_2_Emit_random_words_2"];2.25;1533805284.95988;13.19;128.1;18.192306342;10;149
7;paravance-64.rennes.grid5000.fr;thermos-root-devel-WordCountTopology-1-d5f63bef-48dc-4c02-a966-20bcf38449ba;["container_1_Consume_and_count_1"];2.25;1533805295.16445;35.86;300.5;304.18778983;10;151
7;paravance-63.rennes.grid5000.fr;thermos-root-devel-WordCountTopology-2-28aaf5ab-42fb-4e70-899d-b5494fc6b0ae;["container_2_Emit_random_words_2"];2.25;1533805295.17487;13.77;134.62;18.192369975;10;149
7;paravance-61.rennes.grid5000.fr;thermos-root-devel-WordCountTopology-0-6fd19928-cd19-4502-98f2-26c43cc71e97;["topology_master"];2.25;1533805295.14685;2.82;8.76;1.180906078;9;117
8;paravance-64.rennes.grid5000.fr;thermos-root-devel-WordCountTopology-1-d5f63bef-48dc-4c02-a966-20bcf38449ba;["container_1_Consume_and_count_1"];2.25;1533805305.38107;37.56;316.7;314.395026766;10;151
8;paravance-61.rennes.grid5000.fr;thermos-root-devel-WordCountTopology-0-6fd19928-cd19-4502-98f2-26c43cc71e97;["topology_master"];2.25;1533805305.36192;2.92;8.91;1.180906078;9;117
8;paravance-63.rennes.grid5000.fr;thermos-root-devel-WordCountTopology-2-28aaf5ab-42fb-4e70-899d-b5494fc6b0ae;["container_2_Emit_random_words_2"];2.25;1533805305.39272;14.4;141.12;18.19242686;10;149
9;paravance-64.rennes.grid5000.fr;thermos-root-devel-WordCountTopology-1-d5f63bef-48dc-4c02-a966-20bcf38449ba;["container_1_Consume_and_count_1"];2.25;1533805315.59856;39.25;335.42;331.219601707;10;151
9;paravance-63.rennes.grid5000.fr;thermos-root-devel-WordCountTopology-2-28aaf5ab-42fb-4e70-899d-b5494fc6b0ae;["container_2_Emit_random_words_2"];2.25;1533805315.60908;14.9;146.12;18.192478345;10;149
9;paravance-61.rennes.grid5000.fr;thermos-root-devel-WordCountTopology-0-6fd19928-cd19-4502-98f2-26c43cc71e97;["topology_master"];2.25;1533805315.5788;2.98;8.99;1.180906078;9;117
10;paravance-64.rennes.grid5000.fr;thermos-root-devel-WordCountTopology-1-d5f63bef-48dc-4c02-a966-20bcf38449ba;["container_1_Consume_and_count_1"];2.25;1533805325.81719;41.29;352.97;343.747075805;10;151
10;paravance-63.rennes.grid5000.fr;thermos-root-devel-WordCountTopology-2-28aaf5ab-42fb-4e70-899d-b5494fc6b0ae;["container_2_Emit_random_words_2"];2.25;1533805325.827;15.32;150.1;18.192478345;10;149
10;paravance-61.rennes.grid5000.fr;thermos-root-devel-WordCountTopology-0-6fd19928-cd19-4502-98f2-26c43cc71e97;["topology_master"];2.25;1533805325.79743;3.04;9.07;1.180906078;9;117
11;paravance-64.rennes.grid5000.fr;thermos-root-devel-WordCountTopology-1-d5f63bef-48dc-4c02-a966-20bcf38449ba;["container_1_Consume_and_count_1"];2.25;1533805336.03229;43.01;371.69;359.393078706;10;151
11;paravance-63.rennes.grid5000.fr;thermos-root-devel-WordCountTopology-2-28aaf5ab-42fb-4e70-899d-b5494fc6b0ae;["container_2_Emit_random_words_2"];2.25;1533805336.0417;15.81;155.07;18.192540358;10;149
11;paravance-61.rennes.grid5000.fr;thermos-root-devel-WordCountTopology-0-6fd19928-cd19-4502-98f2-26c43cc71e97;["topology_master"];2.25;1533805336.01251;3.1;9.15;1.180906078;9;117
12;paravance-63.rennes.grid5000.fr;thermos-root-devel-WordCountTopology-2-28aaf5ab-42fb-4e70-899d-b5494fc6b0ae;["container_2_Emit_random_words_2"];2.25;1533805346.25708;16.54;162.28;18.423313523;10;149
12;paravance-64.rennes.grid5000.fr;thermos-root-devel-WordCountTopology-1-d5f63bef-48dc-4c02-a966-20bcf38449ba;["container_1_Consume_and_count_1"];2.25;1533805346.2468;44.62;389.12;373.992127498;10;151
12;paravance-61.rennes.grid5000.fr;thermos-root-devel-WordCountTopology-0-6fd19928-cd19-4502-98f2-26c43cc71e97;["topology_master"];2.25;1533805346.22737;3.23;9.44;1.180906078;9;117
13;paravance-64.rennes.grid5000.fr;thermos-root-devel-WordCountTopology-1-d5f63bef-48dc-4c02-a966-20bcf38449ba;["container_1_Consume_and_count_1"];2.25;1533805356.46466;46.15;404.05;382.888241378;10;151
13;paravance-61.rennes.grid5000.fr;thermos-root-devel-WordCountTopology-0-6fd19928-cd19-4502-98f2-26c43cc71e97;["topology_master"];2.25;1533805356.44634;3.26;9.46;1.180906078;9;117
13;paravance-63.rennes.grid5000.fr;thermos-root-devel-WordCountTopology-2-28aaf5ab-42fb-4e70-899d-b5494fc6b0ae;["container_2_Emit_random_words_2"];2.25;1533805356.47649;17.1;167.84;18.423337327;10;149
14;paravance-63.rennes.grid5000.fr;thermos-root-devel-WordCountTopology-2-28aaf5ab-42fb-4e70-899d-b5494fc6b0ae;["container_2_Emit_random_words_2"];2.25;1533805366.69501;17.72;173.7;18.423359874;10;149
14;paravance-61.rennes.grid5000.fr;thermos-root-devel-WordCountTopology-0-6fd19928-cd19-4502-98f2-26c43cc71e97;["topology_master"];2.25;1533805366.66383;3.35;9.62;1.180906078;9;117
14;paravance-64.rennes.grid5000.fr;thermos-root-devel-WordCountTopology-1-d5f63bef-48dc-4c02-a966-20bcf38449ba;["container_1_Consume_and_count_1"];2.25;1533805366.68676;47.81;420.68;396.468393609;10;151
15;paravance-63.rennes.grid5000.fr;thermos-root-devel-WordCountTopology-2-28aaf5ab-42fb-4e70-899d-b5494fc6b0ae;["container_2_Emit_random_words_2"];2.25;1533805376.81374;18.34;180.16;18.471521596;10;149
15;paravance-64.rennes.grid5000.fr;thermos-root-devel-WordCountTopology-1-d5f63bef-48dc-4c02-a966-20bcf38449ba;["container_1_Consume_and_count_1"];2.25;1533805376.90362;49.72;437.51;409.642403255;10;151
15;paravance-61.rennes.grid5000.fr;thermos-root-devel-WordCountTopology-0-6fd19928-cd19-4502-98f2-26c43cc71e97;["topology_master"];2.25;1533805376.88496;3.41;9.69;1.180906078;9;117
16;paravance-64.rennes.grid5000.fr;thermos-root-devel-WordCountTopology-1-d5f63bef-48dc-4c02-a966-20bcf38449ba;["container_1_Consume_and_count_1"];2.25;1533805387.12051;51.82;455.92;427.87392467;10;151
16;paravance-61.rennes.grid5000.fr;thermos-root-devel-WordCountTopology-0-6fd19928-cd19-4502-98f2-26c43cc71e97;["topology_master"];2.25;1533805387.10118;3.48;9.8;1.180906078;9;117
16;paravance-63.rennes.grid5000.fr;thermos-root-devel-WordCountTopology-2-28aaf5ab-42fb-4e70-899d-b5494fc6b0ae;["container_2_Emit_random_words_2"];2.25;1533805387.13284;18.93;186.25;18.503566559;10;149
17;paravance-64.rennes.grid5000.fr;thermos-root-devel-WordCountTopology-1-d5f63bef-48dc-4c02-a966-20bcf38449ba;["container_1_Consume_and_count_1"];2.25;1533805397.3388;54.05;474.63;445.640973178;10;151
17;paravance-63.rennes.grid5000.fr;thermos-root-devel-WordCountTopology-2-28aaf5ab-42fb-4e70-899d-b5494fc6b0ae;["container_2_Emit_random_words_2"];2.25;1533805397.34968;19.63;193.97;18.504643602;10;149
17;paravance-61.rennes.grid5000.fr;thermos-root-devel-WordCountTopology-0-6fd19928-cd19-4502-98f2-26c43cc71e97;["topology_master"];2.25;1533805397.31871;3.54;9.87;1.180906078;9;117
18;paravance-64.rennes.grid5000.fr;thermos-root-devel-WordCountTopology-1-d5f63bef-48dc-4c02-a966-20bcf38449ba;["container_1_Consume_and_count_1"];2.25;1533805407.55712;56.38;494.18;468.348039876;10;151
18;paravance-63.rennes.grid5000.fr;thermos-root-devel-WordCountTopology-2-28aaf5ab-42fb-4e70-899d-b5494fc6b0ae;["container_2_Emit_random_words_2"];2.25;1533805407.56651;20.41;202.26;18.725322981;10;149
18;paravance-61.rennes.grid5000.fr;thermos-root-devel-WordCountTopology-0-6fd19928-cd19-4502-98f2-26c43cc71e97;["topology_master"];2.25;1533805407.53722;3.65;10.08;1.180906078;9;117
19;paravance-64.rennes.grid5000.fr;thermos-root-devel-WordCountTopology-1-d5f63bef-48dc-4c02-a966-20bcf38449ba;["container_1_Consume_and_count_1"];2.25;1533805417.7723;58.63;513.92;490.560561177;10;151
19;paravance-61.rennes.grid5000.fr;thermos-root-devel-WordCountTopology-0-6fd19928-cd19-4502-98f2-26c43cc71e97;["topology_master"];2.25;1533805417.75373;3.68;10.1;1.180906078;9;117
19;paravance-63.rennes.grid5000.fr;thermos-root-devel-WordCountTopology-2-28aaf5ab-42fb-4e70-899d-b5494fc6b0ae;["container_2_Emit_random_words_2"];2.25;1533805417.78436;21.29;212.25;18.725322981;10;149
20;paravance-64.rennes.grid5000.fr;thermos-root-devel-WordCountTopology-1-d5f63bef-48dc-4c02-a966-20bcf38449ba;["container_1_Consume_and_count_1"];2.25;1533805427.99143;61.1;533.52;513.574795614;10;151
20;paravance-63.rennes.grid5000.fr;thermos-root-devel-WordCountTopology-2-28aaf5ab-42fb-4e70-899d-b5494fc6b0ae;["container_2_Emit_random_words_2"];2.25;1533805428.00224;22.38;223.14;18.771148147;10;149
20;paravance-61.rennes.grid5000.fr;thermos-root-devel-WordCountTopology-0-6fd19928-cd19-4502-98f2-26c43cc71e97;["topology_master"];2.25;1533805427.97315;3.78;10.24;1.180906078;9;117
21;paravance-63.rennes.grid5000.fr;thermos-root-devel-WordCountTopology-2-28aaf5ab-42fb-4e70-899d-b5494fc6b0ae;["container_2_Emit_random_words_2"];2.25;1533805438.22015;23.03;230.07;18.777291113;10;149
21;paravance-64.rennes.grid5000.fr;thermos-root-devel-WordCountTopology-1-d5f63bef-48dc-4c02-a966-20bcf38449ba;["container_1_Consume_and_count_1"];2.25;1533805438.21044;63.3;552.84;534.09376641;10;151
21;paravance-61.rennes.grid5000.fr;thermos-root-devel-WordCountTopology-0-6fd19928-cd19-4502-98f2-26c43cc71e97;["topology_master"];2.25;1533805438.19012;3.84;10.32;1.180906078;9;117
22;paravance-61.rennes.grid5000.fr;thermos-root-devel-WordCountTopology-0-6fd19928-cd19-4502-98f2-26c43cc71e97;["topology_master"];2.25;1533805448.30528;3.9;10.39;1.180906078;9;117
22;paravance-64.rennes.grid5000.fr;thermos-root-devel-WordCountTopology-1-d5f63bef-48dc-4c02-a966-20bcf38449ba;["container_1_Consume_and_count_1"];2.25;1533805448.42485;65.74;572.39;556.177727908;10;151
22;paravance-63.rennes.grid5000.fr;thermos-root-devel-WordCountTopology-2-28aaf5ab-42fb-4e70-899d-b5494fc6b0ae;["container_2_Emit_random_words_2"];2.25;1533805448.43505;23.94;240.48;18.825420082;10;149
23;paravance-64.rennes.grid5000.fr;thermos-root-devel-WordCountTopology-1-d5f63bef-48dc-4c02-a966-20bcf38449ba;["container_1_Consume_and_count_1"];2.25;1533805458.63593;68.54;591.49;576.79934895;10;151
23;paravance-61.rennes.grid5000.fr;thermos-root-devel-WordCountTopology-0-6fd19928-cd19-4502-98f2-26c43cc71e97;["topology_master"];2.25;1533805458.61746;3.95;10.46;1.180906078;9;117
23;paravance-63.rennes.grid5000.fr;thermos-root-devel-WordCountTopology-2-28aaf5ab-42fb-4e70-899d-b5494fc6b0ae;["container_2_Emit_random_words_2"];2.25;1533805458.64789;25.09;253.91;18.845155723;10;149
24;paravance-64.rennes.grid5000.fr;thermos-root-devel-WordCountTopology-1-d5f63bef-48dc-4c02-a966-20bcf38449ba;["container_1_Consume_and_count_1"];2.25;1533805468.85405;71.13;610.6;596.689259753;10;151
24;paravance-61.rennes.grid5000.fr;thermos-root-devel-WordCountTopology-0-6fd19928-cd19-4502-98f2-26c43cc71e97;["topology_master"];2.25;1533805468.83507;4.07;10.63;1.180906078;9;117
24;paravance-63.rennes.grid5000.fr;thermos-root-devel-WordCountTopology-2-28aaf5ab-42fb-4e70-899d-b5494fc6b0ae;["container_2_Emit_random_words_2"];2.25;1533805468.86559;25.99;263.42;18.950891565;10;149
25;paravance-64.rennes.grid5000.fr;thermos-root-devel-WordCountTopology-1-d5f63bef-48dc-4c02-a966-20bcf38449ba;["container_1_Consume_and_count_1"];2.25;1533805479.07198;73.05;630.15;617.371825357;10;151
25;paravance-61.rennes.grid5000.fr;thermos-root-devel-WordCountTopology-0-6fd19928-cd19-4502-98f2-26c43cc71e97;["topology_master"];2.25;1533805479.05185;4.09;10.66;1.180906078;9;117
25;paravance-63.rennes.grid5000.fr;thermos-root-devel-WordCountTopology-2-28aaf5ab-42fb-4e70-899d-b5494fc6b0ae;["container_2_Emit_random_words_2"];2.25;1533805479.08265;26.78;272.71;18.950891565;10;149
26;paravance-64.rennes.grid5000.fr;thermos-root-devel-WordCountTopology-1-d5f63bef-48dc-4c02-a966-20bcf38449ba;["container_1_Consume_and_count_1"];2.25;1533805489.28849;75.47;649.72;638.606158009;10;151
26;paravance-61.rennes.grid5000.fr;thermos-root-devel-WordCountTopology-0-6fd19928-cd19-4502-98f2-26c43cc71e97;["topology_master"];2.25;1533805489.27036;4.18;10.78;1.180906078;9;117
26;paravance-63.rennes.grid5000.fr;thermos-root-devel-WordCountTopology-2-28aaf5ab-42fb-4e70-899d-b5494fc6b0ae;["container_2_Emit_random_words_2"];2.25;1533805489.3018;27.65;282.42;19.093058394;10;149
27;paravance-64.rennes.grid5000.fr;thermos-root-devel-WordCountTopology-1-d5f63bef-48dc-4c02-a966-20bcf38449ba;["container_1_Consume_and_count_1"];2.25;1533805499.5081;77.57;669.35;660.116160728;10;151
27;paravance-63.rennes.grid5000.fr;thermos-root-devel-WordCountTopology-2-28aaf5ab-42fb-4e70-899d-b5494fc6b0ae;["container_2_Emit_random_words_2"];2.25;1533805499.51973;28.37;290.14;19.093077875;10;149
27;paravance-61.rennes.grid5000.fr;thermos-root-devel-WordCountTopology-0-6fd19928-cd19-4502-98f2-26c43cc71e97;["topology_master"];2.25;1533805499.48993;4.24;10.86;1.180906078;9;117
28;paravance-64.rennes.grid5000.fr;thermos-root-devel-WordCountTopology-1-d5f63bef-48dc-4c02-a966-20bcf38449ba;["container_1_Consume_and_count_1"];2.25;1533805509.62452;80.01;688.74;682.451039127;10;151
28;paravance-63.rennes.grid5000.fr;thermos-root-devel-WordCountTopology-2-28aaf5ab-42fb-4e70-899d-b5494fc6b0ae;["container_2_Emit_random_words_2"];2.25;1533805509.73636;29.35;301.69;19.15201115;10;149
28;paravance-61.rennes.grid5000.fr;thermos-root-devel-WordCountTopology-0-6fd19928-cd19-4502-98f2-26c43cc71e97;["topology_master"];2.25;1533805509.7055;4.3;10.93;1.180906078;9;117
29;paravance-64.rennes.grid5000.fr;thermos-root-devel-WordCountTopology-1-d5f63bef-48dc-4c02-a966-20bcf38449ba;["container_1_Consume_and_count_1"];2.25;1533805519.94126;82.7;708.33;703.265746336;10;149
29;paravance-61.rennes.grid5000.fr;thermos-root-devel-WordCountTopology-0-6fd19928-cd19-4502-98f2-26c43cc71e97;["topology_master"];2.25;1533805519.9198;4.41;11.07;1.180906078;9;117
29;paravance-63.rennes.grid5000.fr;thermos-root-devel-WordCountTopology-2-28aaf5ab-42fb-4e70-899d-b5494fc6b0ae;["container_2_Emit_random_words_2"];2.25;1533805519.95052;30.52;315.26;19.266121352;10;149
30;paravance-64.rennes.grid5000.fr;thermos-root-devel-WordCountTopology-1-d5f63bef-48dc-4c02-a966-20bcf38449ba;["container_1_Consume_and_count_1"];2.25;1533805530.15641;84.97;727.39;723.518087747;10;151
30;paravance-61.rennes.grid5000.fr;thermos-root-devel-WordCountTopology-0-6fd19928-cd19-4502-98f2-26c43cc71e97;["topology_master"];2.25;1533805530.13775;4.47;11.2;1.180906078;9;117
30;paravance-63.rennes.grid5000.fr;thermos-root-devel-WordCountTopology-2-28aaf5ab-42fb-4e70-899d-b5494fc6b0ae;["container_2_Emit_random_words_2"];2.25;1533805530.17037;31.28;323.64;19.299670749;10;149
31;paravance-61.rennes.grid5000.fr;thermos-root-devel-WordCountTopology-0-6fd19928-cd19-4502-98f2-26c43cc71e97;["topology_master"];2.25;1533805540.35401;4.53;11.28;1.180906078;9;117
31;paravance-63.rennes.grid5000.fr;thermos-root-devel-WordCountTopology-2-28aaf5ab-42fb-4e70-899d-b5494fc6b0ae;["container_2_Emit_random_words_2"];2.25;1533805540.38489;32.11;333.21;19.33576215;10;149
31;paravance-64.rennes.grid5000.fr;thermos-root-devel-WordCountTopology-1-d5f63bef-48dc-4c02-a966-20bcf38449ba;["container_1_Consume_and_count_1"];2.25;1533805540.37685;86.78;747.4;745.502659749;10;151
32;paravance-64.rennes.grid5000.fr;thermos-root-devel-WordCountTopology-1-d5f63bef-48dc-4c02-a966-20bcf38449ba;["container_1_Consume_and_count_1"];2.25;1533805550.59382;89.01;767.13;766.636297153;10;151
32;paravance-63.rennes.grid5000.fr;thermos-root-devel-WordCountTopology-2-28aaf5ab-42fb-4e70-899d-b5494fc6b0ae;["container_2_Emit_random_words_2"];2.25;1533805550.60398;32.96;342.77;19.406654854;10;149
32;paravance-61.rennes.grid5000.fr;thermos-root-devel-WordCountTopology-0-6fd19928-cd19-4502-98f2-26c43cc71e97;["topology_master"];2.25;1533805550.57261;4.59;11.35;1.180906078;9;117
33;paravance-64.rennes.grid5000.fr;thermos-root-devel-WordCountTopology-1-d5f63bef-48dc-4c02-a966-20bcf38449ba;["container_1_Consume_and_count_1"];2.25;1533805560.81157;91.1;786.46;787.521280992;10;151
33;paravance-63.rennes.grid5000.fr;thermos-root-devel-WordCountTopology-2-28aaf5ab-42fb-4e70-899d-b5494fc6b0ae;["container_2_Emit_random_words_2"];2.25;1533805560.82202;33.7;350.67;19.448698755;10;149
33;paravance-61.rennes.grid5000.fr;thermos-root-devel-WordCountTopology-0-6fd19928-cd19-4502-98f2-26c43cc71e97;["topology_master"];2.25;1533805560.79042;4.68;11.48;1.180906078;9;117
34;paravance-64.rennes.grid5000.fr;thermos-root-devel-WordCountTopology-1-d5f63bef-48dc-4c02-a966-20bcf38449ba;["container_1_Consume_and_count_1"];2.25;1533805571.0285;93.11;806.29;808.319418352;10;151
34;paravance-61.rennes.grid5000.fr;thermos-root-devel-WordCountTopology-0-6fd19928-cd19-4502-98f2-26c43cc71e97;["topology_master"];2.25;1533805571.00961;4.73;11.53;1.180906078;9;117
34;paravance-63.rennes.grid5000.fr;thermos-root-devel-WordCountTopology-2-28aaf5ab-42fb-4e70-899d-b5494fc6b0ae;["container_2_Emit_random_words_2"];2.25;1533805571.04113;34.27;357.1;19.44877902;10;149
35;paravance-64.rennes.grid5000.fr;thermos-root-devel-WordCountTopology-1-d5f63bef-48dc-4c02-a966-20bcf38449ba;["container_1_Consume_and_count_1"];2.25;1533805581.24605;95.71;825.68;828.842045112;10;151
35;paravance-63.rennes.grid5000.fr;thermos-root-devel-WordCountTopology-2-28aaf5ab-42fb-4e70-899d-b5494fc6b0ae;["container_2_Emit_random_words_2"];2.25;1533805581.25661;35.33;369.64;19.576183086;10;149
35;paravance-61.rennes.grid5000.fr;thermos-root-devel-WordCountTopology-0-6fd19928-cd19-4502-98f2-26c43cc71e97;["topology_master"];2.25;1533805581.22557;4.81;11.64;1.180906078;9;117
36;paravance-64.rennes.grid5000.fr;thermos-root-devel-WordCountTopology-1-d5f63bef-48dc-4c02-a966-20bcf38449ba;["container_1_Consume_and_count_1"];2.25;1533805591.46229;97.56;845.21;848.348183938;10;151
36;paravance-61.rennes.grid5000.fr;thermos-root-devel-WordCountTopology-0-6fd19928-cd19-4502-98f2-26c43cc71e97;["topology_master"];2.25;1533805591.44302;4.87;11.76;1.180906078;9;117
36;paravance-63.rennes.grid5000.fr;thermos-root-devel-WordCountTopology-2-28aaf5ab-42fb-4e70-899d-b5494fc6b0ae;["container_2_Emit_random_words_2"];2.25;1533805591.47489;35.94;376.49;19.587582812;10;149
37;paravance-64.rennes.grid5000.fr;thermos-root-devel-WordCountTopology-1-d5f63bef-48dc-4c02-a966-20bcf38449ba;["container_1_Consume_and_count_1"];2.25;1533805601.67915;99.37;864.27;865.53837315;10;151
37;paravance-63.rennes.grid5000.fr;thermos-root-devel-WordCountTopology-2-28aaf5ab-42fb-4e70-899d-b5494fc6b0ae;["container_2_Emit_random_words_2"];2.25;1533805601.69091;36.58;383.07;19.587582812;10;149
37;paravance-61.rennes.grid5000.fr;thermos-root-devel-WordCountTopology-0-6fd19928-cd19-4502-98f2-26c43cc71e97;["topology_master"];2.25;1533805601.66087;4.97;11.9;1.180906078;9;117
38;paravance-64.rennes.grid5000.fr;thermos-root-devel-WordCountTopology-1-d5f63bef-48dc-4c02-a966-20bcf38449ba;["container_1_Consume_and_count_1"];2.25;1533805611.89577;101.46;883.46;885.466819354;10;151
38;paravance-63.rennes.grid5000.fr;thermos-root-devel-WordCountTopology-2-28aaf5ab-42fb-4e70-899d-b5494fc6b0ae;["container_2_Emit_random_words_2"];2.25;1533805611.90521;37.21;390.03;19.587582812;10;149
38;paravance-61.rennes.grid5000.fr;thermos-root-devel-WordCountTopology-0-6fd19928-cd19-4502-98f2-26c43cc71e97;["topology_master"];2.25;1533805611.87587;5.0;11.93;1.180906078;9;117
39;paravance-64.rennes.grid5000.fr;thermos-root-devel-WordCountTopology-1-d5f63bef-48dc-4c02-a966-20bcf38449ba;["container_1_Consume_and_count_1"];2.25;1533805622.1141;103.39;902.78;905.172063972;10;151
39;paravance-63.rennes.grid5000.fr;thermos-root-devel-WordCountTopology-2-28aaf5ab-42fb-4e70-899d-b5494fc6b0ae;["container_2_Emit_random_words_2"];2.25;1533805622.12444;37.86;396.51;19.587582812;10;149
39;paravance-61.rennes.grid5000.fr;thermos-root-devel-WordCountTopology-0-6fd19928-cd19-4502-98f2-26c43cc71e97;["topology_master"];2.25;1533805622.09375;5.09;12.05;1.180906078;9;117
40;paravance-63.rennes.grid5000.fr;thermos-root-devel-WordCountTopology-2-28aaf5ab-42fb-4e70-899d-b5494fc6b0ae;["container_2_Emit_random_words_2"];2.25;1533805632.34174;38.49;403.11;19.587582812;10;149
40;paravance-61.rennes.grid5000.fr;thermos-root-devel-WordCountTopology-0-6fd19928-cd19-4502-98f2-26c43cc71e97;["topology_master"];2.25;1533805632.31055;5.15;12.13;1.180906078;9;117
41;paravance-64.rennes.grid5000.fr;thermos-root-devel-WordCountTopology-1-d5f63bef-48dc-4c02-a966-20bcf38449ba;["container_1_Consume_and_count_1"];2.25;1533805642.54692;108.2;941.66;950.341464371;10;151
41;paravance-63.rennes.grid5000.fr;thermos-root-devel-WordCountTopology-2-28aaf5ab-42fb-4e70-899d-b5494fc6b0ae;["container_2_Emit_random_words_2"];2.25;1533805642.5568;39.33;412.8;19.589612294;10;149
41;paravance-61.rennes.grid5000.fr;thermos-root-devel-WordCountTopology-0-6fd19928-cd19-4502-98f2-26c43cc71e97;["topology_master"];2.25;1533805642.52697;5.21;12.21;1.180906078;9;117
42;paravance-61.rennes.grid5000.fr;thermos-root-devel-WordCountTopology-0-6fd19928-cd19-4502-98f2-26c43cc71e97;["topology_master"];2.25;1533805652.74136;5.28;12.32;1.180906078;9;117
42;paravance-64.rennes.grid5000.fr;thermos-root-devel-WordCountTopology-1-d5f63bef-48dc-4c02-a966-20bcf38449ba;["container_1_Consume_and_count_1"];2.25;1533805652.76328;110.2;961.69;973.265917602;10;151
42;paravance-63.rennes.grid5000.fr;thermos-root-devel-WordCountTopology-2-28aaf5ab-42fb-4e70-899d-b5494fc6b0ae;["container_2_Emit_random_words_2"];2.25;1533805652.77369;40.02;420.15;19.611670874;10;149
43;paravance-64.rennes.grid5000.fr;thermos-root-devel-WordCountTopology-1-d5f63bef-48dc-4c02-a966-20bcf38449ba;["container_1_Consume_and_count_1"];2.25;1533805662.97928;112.34;981.12;993.981632374;10;151
43;paravance-61.rennes.grid5000.fr;thermos-root-devel-WordCountTopology-0-6fd19928-cd19-4502-98f2-26c43cc71e97;["topology_master"];2.25;1533805662.95824;5.37;12.44;1.180906078;9;117
43;paravance-63.rennes.grid5000.fr;thermos-root-devel-WordCountTopology-2-28aaf5ab-42fb-4e70-899d-b5494fc6b0ae;["container_2_Emit_random_words_2"];2.25;1533805662.98845;40.93;429.96;19.775942743;10;149
44;paravance-64.rennes.grid5000.fr;thermos-root-devel-WordCountTopology-1-d5f63bef-48dc-4c02-a966-20bcf38449ba;["container_1_Consume_and_count_1"];2.25;1533805673.19624;114.44;1001.0;1016.354768297;10;151
44;paravance-61.rennes.grid5000.fr;thermos-root-devel-WordCountTopology-0-6fd19928-cd19-4502-98f2-26c43cc71e97;["topology_master"];2.25;1533805673.17552;5.39;12.49;1.180906078;9;117
44;paravance-63.rennes.grid5000.fr;thermos-root-devel-WordCountTopology-2-28aaf5ab-42fb-4e70-899d-b5494fc6b0ae;["container_2_Emit_random_words_2"];2.25;1533805673.20776;41.58;437.33;19.776000528;10;149
45;paravance-64.rennes.grid5000.fr;thermos-root-devel-WordCountTopology-1-d5f63bef-48dc-4c02-a966-20bcf38449ba;["container_1_Consume_and_count_1"];2.25;1533805683.41086;116.68;1020.16;1035.434682646;10;151
45;paravance-63.rennes.grid5000.fr;thermos-root-devel-WordCountTopology-2-28aaf5ab-42fb-4e70-899d-b5494fc6b0ae;["container_2_Emit_random_words_2"];2.25;1533805683.42276;42.28;444.18;19.782191313;10;149
45;paravance-61.rennes.grid5000.fr;thermos-root-devel-WordCountTopology-0-6fd19928-cd19-4502-98f2-26c43cc71e97;["topology_master"];2.25;1533805683.39155;5.48;12.61;1.180906078;9;117
46;paravance-64.rennes.grid5000.fr;thermos-root-devel-WordCountTopology-1-d5f63bef-48dc-4c02-a966-20bcf38449ba;["container_1_Consume_and_count_1"];2.25;1533805693.62779;118.55;1040.2;1056.588717384;10;151
46;paravance-63.rennes.grid5000.fr;thermos-root-devel-WordCountTopology-2-28aaf5ab-42fb-4e70-899d-b5494fc6b0ae;["container_2_Emit_random_words_2"];2.25;1533805693.63804;43.0;451.58;19.782191313;10;149
46;paravance-61.rennes.grid5000.fr;thermos-root-devel-WordCountTopology-0-6fd19928-cd19-4502-98f2-26c43cc71e97;["topology_master"];2.25;1533805693.60701;5.54;12.68;1.180906078;9;117
47;paravance-64.rennes.grid5000.fr;thermos-root-devel-WordCountTopology-1-d5f63bef-48dc-4c02-a966-20bcf38449ba;["container_1_Consume_and_count_1"];2.25;1533805703.84552;120.33;1059.78;1078.709967694;10;151
47;paravance-63.rennes.grid5000.fr;thermos-root-devel-WordCountTopology-2-28aaf5ab-42fb-4e70-899d-b5494fc6b0ae;["container_2_Emit_random_words_2"];2.25;1533805703.85527;43.74;459.26;19.786277693;10;149
47;paravance-61.rennes.grid5000.fr;thermos-root-devel-WordCountTopology-0-6fd19928-cd19-4502-98f2-26c43cc71e97;["topology_master"];2.25;1533805703.82507;5.6;12.76;1.180906078;9;117
48;paravance-63.rennes.grid5000.fr;thermos-root-devel-WordCountTopology-2-28aaf5ab-42fb-4e70-899d-b5494fc6b0ae;["container_2_Emit_random_words_2"];2.25;1533805714.07204;44.27;464.65;19.786351489;10;149
48;paravance-64.rennes.grid5000.fr;thermos-root-devel-WordCountTopology-1-d5f63bef-48dc-4c02-a966-20bcf38449ba;["container_1_Consume_and_count_1"];2.25;1533805714.06335;122.59;1079.13;1097.43774385;10;151
48;paravance-61.rennes.grid5000.fr;thermos-root-devel-WordCountTopology-0-6fd19928-cd19-4502-98f2-26c43cc71e97;["topology_master"];2.25;1533805714.04225;5.66;12.88;1.180906078;9;117
49;paravance-64.rennes.grid5000.fr;thermos-root-devel-WordCountTopology-1-d5f63bef-48dc-4c02-a966-20bcf38449ba;["container_1_Consume_and_count_1"];2.25;1533805724.28028;124.41;1098.29;1115.836468995;10;151
49;paravance-61.rennes.grid5000.fr;thermos-root-devel-WordCountTopology-0-6fd19928-cd19-4502-98f2-26c43cc71e97;["topology_master"];2.25;1533805724.25932;5.75;13.0;1.180906078;9;117
49;paravance-63.rennes.grid5000.fr;thermos-root-devel-WordCountTopology-2-28aaf5ab-42fb-4e70-899d-b5494fc6b0ae;["container_2_Emit_random_words_2"];2.25;1533805724.29068;44.95;471.22;19.850647798;10;149
50;paravance-64.rennes.grid5000.fr;thermos-root-devel-WordCountTopology-1-d5f63bef-48dc-4c02-a966-20bcf38449ba;["container_1_Consume_and_count_1"];2.25;1533805734.3995;126.37;1118.1;1136.938349067;10;151
50;paravance-63.rennes.grid5000.fr;thermos-root-devel-WordCountTopology-2-28aaf5ab-42fb-4e70-899d-b5494fc6b0ae;["container_2_Emit_random_words_2"];2.25;1533805734.50971;45.65;479.17;19.854730966;10;149
50;paravance-61.rennes.grid5000.fr;thermos-root-devel-WordCountTopology-0-6fd19928-cd19-4502-98f2-26c43cc71e97;["topology_master"];2.25;1533805734.47794;5.78;13.04;1.180906078;9;117
51;paravance-64.rennes.grid5000.fr;thermos-root-devel-WordCountTopology-1-d5f63bef-48dc-4c02-a966-20bcf38449ba;["container_1_Consume_and_count_1"];2.25;1533805744.71522;128.34;1137.72;1157.958844458;10;151
51;paravance-61.rennes.grid5000.fr;thermos-root-devel-WordCountTopology-0-6fd19928-cd19-4502-98f2-26c43cc71e97;["topology_master"];2.25;1533805744.69408;5.87;13.18;1.180906078;9;117
51;paravance-63.rennes.grid5000.fr;thermos-root-devel-WordCountTopology-2-28aaf5ab-42fb-4e70-899d-b5494fc6b0ae;["container_2_Emit_random_words_2"];2.25;1533805744.72513;46.36;486.74;19.930924863;10;149
52;paravance-61.rennes.grid5000.fr;thermos-root-devel-WordCountTopology-0-6fd19928-cd19-4502-98f2-26c43cc71e97;["topology_master"];2.25;1533805754.81177;5.93;13.25;1.180906078;9;117
52;paravance-64.rennes.grid5000.fr;thermos-root-devel-WordCountTopology-1-d5f63bef-48dc-4c02-a966-20bcf38449ba;["container_1_Consume_and_count_1"];2.25;1533805754.93387;130.57;1156.61;1176.076148351;10;151
52;paravance-63.rennes.grid5000.fr;thermos-root-devel-WordCountTopology-2-28aaf5ab-42fb-4e70-899d-b5494fc6b0ae;["container_2_Emit_random_words_2"];2.25;1533805754.94273;46.98;493.54;19.930948374;10;149
53;paravance-64.rennes.grid5000.fr;thermos-root-devel-WordCountTopology-1-d5f63bef-48dc-4c02-a966-20bcf38449ba;["container_1_Consume_and_count_1"];2.25;1533805765.14939;132.52;1175.77;1193.686746539;10;151
53;paravance-61.rennes.grid5000.fr;thermos-root-devel-WordCountTopology-0-6fd19928-cd19-4502-98f2-26c43cc71e97;["topology_master"];2.25;1533805765.12791;6.0;13.37;1.180906078;9;117
53;paravance-63.rennes.grid5000.fr;thermos-root-devel-WordCountTopology-2-28aaf5ab-42fb-4e70-899d-b5494fc6b0ae;["container_2_Emit_random_words_2"];2.25;1533805765.15919;47.5;498.64;19.930948374;10;149
54;paravance-64.rennes.grid5000.fr;thermos-root-devel-WordCountTopology-1-d5f63bef-48dc-4c02-a966-20bcf38449ba;["container_1_Consume_and_count_1"];2.25;1533805775.36508;134.29;1195.02;1213.291934874;10;151
54;paravance-61.rennes.grid5000.fr;thermos-root-devel-WordCountTopology-0-6fd19928-cd19-4502-98f2-26c43cc71e97;["topology_master"];2.25;1533805775.34404;6.06;13.45;1.180906078;9;117
54;paravance-63.rennes.grid5000.fr;thermos-root-devel-WordCountTopology-2-28aaf5ab-42fb-4e70-899d-b5494fc6b0ae;["container_2_Emit_random_words_2"];2.25;1533805775.37587;48.15;505.34;19.972703981;10;149
55;paravance-63.rennes.grid5000.fr;thermos-root-devel-WordCountTopology-2-28aaf5ab-42fb-4e70-899d-b5494fc6b0ae;["container_2_Emit_random_words_2"];2.25;1533805785.59244;48.91;512.89;20.182306484;10;149
55;paravance-61.rennes.grid5000.fr;thermos-root-devel-WordCountTopology-0-6fd19928-cd19-4502-98f2-26c43cc71e97;["topology_master"];2.25;1533805785.56114;6.15;13.57;1.180906078;9;117
55;paravance-64.rennes.grid5000.fr;thermos-root-devel-WordCountTopology-1-d5f63bef-48dc-4c02-a966-20bcf38449ba;["container_1_Consume_and_count_1"];2.25;1533805785.58354;136.41;1214.99;1236.728106933;10;151
56;paravance-64.rennes.grid5000.fr;thermos-root-devel-WordCountTopology-1-d5f63bef-48dc-4c02-a966-20bcf38449ba;["container_1_Consume_and_count_1"];2.25;1533805795.79931;138.8;1234.53;1256.595843754;10;151
56;paravance-61.rennes.grid5000.fr;thermos-root-devel-WordCountTopology-0-6fd19928-cd19-4502-98f2-26c43cc71e97;["topology_master"];2.25;1533805795.77815;6.17;13.59;1.180906078;9;117
56;paravance-63.rennes.grid5000.fr;thermos-root-devel-WordCountTopology-2-28aaf5ab-42fb-4e70-899d-b5494fc6b0ae;["container_2_Emit_random_words_2"];2.25;1533805795.81027;49.6;520.44;20.182334664;10;149
57;paravance-61.rennes.grid5000.fr;thermos-root-devel-WordCountTopology-0-6fd19928-cd19-4502-98f2-26c43cc71e97;["topology_master"];2.25;1533805805.99414;6.26;13.72;1.180906078;9;117
57;paravance-64.rennes.grid5000.fr;thermos-root-devel-WordCountTopology-1-d5f63bef-48dc-4c02-a966-20bcf38449ba;["container_1_Consume_and_count_1"];2.25;1533805806.01644;141.22;1254.14;1278.80349917;10;151
57;paravance-63.rennes.grid5000.fr;thermos-root-devel-WordCountTopology-2-28aaf5ab-42fb-4e70-899d-b5494fc6b0ae;["container_2_Emit_random_words_2"];2.25;1533805806.0256;50.42;529.25;20.243584321;10;149
58;paravance-64.rennes.grid5000.fr;thermos-root-devel-WordCountTopology-1-d5f63bef-48dc-4c02-a966-20bcf38449ba;["container_1_Consume_and_count_1"];2.25;1533805816.23349;143.25;1273.07;1298.032283786;10;151
58;paravance-61.rennes.grid5000.fr;thermos-root-devel-WordCountTopology-0-6fd19928-cd19-4502-98f2-26c43cc71e97;["topology_master"];2.25;1533805816.21138;6.32;13.79;1.180906078;9;117
58;paravance-63.rennes.grid5000.fr;thermos-root-devel-WordCountTopology-2-28aaf5ab-42fb-4e70-899d-b5494fc6b0ae;["container_2_Emit_random_words_2"];2.25;1533805816.2429;51.1;536.68;20.243584321;10;149
59;paravance-63.rennes.grid5000.fr;thermos-root-devel-WordCountTopology-2-28aaf5ab-42fb-4e70-899d-b5494fc6b0ae;["container_2_Emit_random_words_2"];2.25;1533805826.45789;51.68;542.58;20.37432849;10;149
59;paravance-61.rennes.grid5000.fr;thermos-root-devel-WordCountTopology-0-6fd19928-cd19-4502-98f2-26c43cc71e97;["topology_master"];2.25;1533805826.42736;6.39;13.9;1.180906078;9;117
59;paravance-64.rennes.grid5000.fr;thermos-root-devel-WordCountTopology-1-d5f63bef-48dc-4c02-a966-20bcf38449ba;["container_1_Consume_and_count_1"];2.25;1533805826.44877;144.92;1291.57;1314.863946428;10;151
60;paravance-63.rennes.grid5000.fr;thermos-root-devel-WordCountTopology-2-28aaf5ab-42fb-4e70-899d-b5494fc6b0ae;["container_2_Emit_random_words_2"];2.25;1533805836.67229;52.21;548.07;20.37432849;10;149
60;paravance-61.rennes.grid5000.fr;thermos-root-devel-WordCountTopology-0-6fd19928-cd19-4502-98f2-26c43cc71e97;["topology_master"];2.25;1533805836.64162;6.45;13.97;1.180906078;9;117
60;paravance-64.rennes.grid5000.fr;thermos-root-devel-WordCountTopology-1-d5f63bef-48dc-4c02-a966-20bcf38449ba;["container_1_Consume_and_count_1"];2.25;1533805836.66411;146.96;1310.87;1332.049197813;10;151
