mesure_id;slave_id;executor_id;heron_instances;cpus_limit;timestamp_B;cpus_system_time_secs_B;cpus_user_time_secs_B;cpus_throttled_time_secs_B;processes;threads
0;paravance-48.rennes.grid5000.fr;thermos-root-devel-WordCountTopology-1-0d2c0f45-ce69-4598-aa42-145ae16ccfbc;["container_1_Consume_and_count_1"];3.25;1533750622.41799;31.98;267.84;58.315599806;10;151
0;paravance-51.rennes.grid5000.fr;thermos-root-devel-WordCountTopology-0-a1631be3-ce81-4ce0-8d86-bffb3b2e2cd1;["topology_master"];3.25;1533750622.4317;2.46;8.02;0.224260609;9;117
0;paravance-46.rennes.grid5000.fr;thermos-root-devel-WordCountTopology-2-ad1c6bc7-2d1c-4996-b1ae-657843c0eb75;["container_2_Emit_random_words_2"];3.25;1533750622.42983;8.06;152.67;6.189665452;10;149
1;paravance-51.rennes.grid5000.fr;thermos-root-devel-WordCountTopology-0-a1631be3-ce81-4ce0-8d86-bffb3b2e2cd1;["topology_master"];3.25;1533750632.64704;2.55;8.15;0.224260609;9;117
1;paravance-48.rennes.grid5000.fr;thermos-root-devel-WordCountTopology-1-0d2c0f45-ce69-4598-aa42-145ae16ccfbc;["container_1_Consume_and_count_1"];3.25;1533750632.63441;34.34;297.42;68.841067695;10;151
1;paravance-46.rennes.grid5000.fr;thermos-root-devel-WordCountTopology-2-ad1c6bc7-2d1c-4996-b1ae-657843c0eb75;["container_2_Emit_random_words_2"];3.25;1533750632.64528;8.59;164.43;6.189665452;10;149
2;paravance-51.rennes.grid5000.fr;thermos-root-devel-WordCountTopology-0-a1631be3-ce81-4ce0-8d86-bffb3b2e2cd1;["topology_master"];3.25;1533750642.86317;2.61;8.23;0.224260609;9;117
2;paravance-48.rennes.grid5000.fr;thermos-root-devel-WordCountTopology-1-0d2c0f45-ce69-4598-aa42-145ae16ccfbc;["container_1_Consume_and_count_1"];3.25;1533750642.85092;36.82;326.78;78.325834946;10;151
2;paravance-46.rennes.grid5000.fr;thermos-root-devel-WordCountTopology-2-ad1c6bc7-2d1c-4996-b1ae-657843c0eb75;["container_2_Emit_random_words_2"];3.25;1533750642.86184;9.07;176.01;6.189665452;10;149
3;paravance-51.rennes.grid5000.fr;thermos-root-devel-WordCountTopology-0-a1631be3-ce81-4ce0-8d86-bffb3b2e2cd1;["topology_master"];3.25;1533750653.08056;2.67;8.31;0.224260609;9;117
3;paravance-48.rennes.grid5000.fr;thermos-root-devel-WordCountTopology-1-0d2c0f45-ce69-4598-aa42-145ae16ccfbc;["container_1_Consume_and_count_1"];3.25;1533750653.06839;39.63;355.81;87.442501736;10;151
3;paravance-46.rennes.grid5000.fr;thermos-root-devel-WordCountTopology-2-ad1c6bc7-2d1c-4996-b1ae-657843c0eb75;["container_2_Emit_random_words_2"];3.25;1533750653.07888;9.67;189.31;6.189665452;10;149
4;paravance-46.rennes.grid5000.fr;thermos-root-devel-WordCountTopology-2-ad1c6bc7-2d1c-4996-b1ae-657843c0eb75;["container_2_Emit_random_words_2"];3.25;1533750663.29513;10.12;200.0;6.189665452;10;149
4;paravance-48.rennes.grid5000.fr;thermos-root-devel-WordCountTopology-1-0d2c0f45-ce69-4598-aa42-145ae16ccfbc;["container_1_Consume_and_count_1"];3.25;1533750663.28524;42.1;384.16;95.17100071;10;151
4;paravance-51.rennes.grid5000.fr;thermos-root-devel-WordCountTopology-0-a1631be3-ce81-4ce0-8d86-bffb3b2e2cd1;["topology_master"];3.25;1533750663.29692;2.73;8.39;0.224260609;9;117
5;paravance-51.rennes.grid5000.fr;thermos-root-devel-WordCountTopology-0-a1631be3-ce81-4ce0-8d86-bffb3b2e2cd1;["topology_master"];3.25;1533750673.41481;2.86;8.62;0.224260609;9;117
5;paravance-48.rennes.grid5000.fr;thermos-root-devel-WordCountTopology-1-0d2c0f45-ce69-4598-aa42-145ae16ccfbc;["container_1_Consume_and_count_1"];3.25;1533750673.50117;44.65;412.98;103.080828997;10;151
5;paravance-46.rennes.grid5000.fr;thermos-root-devel-WordCountTopology-2-ad1c6bc7-2d1c-4996-b1ae-657843c0eb75;["container_2_Emit_random_words_2"];3.25;1533750673.51382;10.49;207.06;6.189665452;10;149
6;paravance-48.rennes.grid5000.fr;thermos-root-devel-WordCountTopology-1-0d2c0f45-ce69-4598-aa42-145ae16ccfbc;["container_1_Consume_and_count_1"];3.25;1533750683.71712;47.55;440.61;108.286259403;10;151
6;paravance-46.rennes.grid5000.fr;thermos-root-devel-WordCountTopology-2-ad1c6bc7-2d1c-4996-b1ae-657843c0eb75;["container_2_Emit_random_words_2"];3.25;1533750683.72828;11.09;222.82;6.189665452;10;149
6;paravance-51.rennes.grid5000.fr;thermos-root-devel-WordCountTopology-0-a1631be3-ce81-4ce0-8d86-bffb3b2e2cd1;["topology_master"];3.25;1533750683.73056;2.88;8.66;0.224260609;9;117
7;paravance-48.rennes.grid5000.fr;thermos-root-devel-WordCountTopology-1-0d2c0f45-ce69-4598-aa42-145ae16ccfbc;["container_1_Consume_and_count_1"];3.25;1533750693.93338;50.41;469.62;118.036176785;10;151
7;paravance-51.rennes.grid5000.fr;thermos-root-devel-WordCountTopology-0-a1631be3-ce81-4ce0-8d86-bffb3b2e2cd1;["topology_master"];3.25;1533750693.94588;2.98;8.78;0.224260609;9;117
7;paravance-46.rennes.grid5000.fr;thermos-root-devel-WordCountTopology-2-ad1c6bc7-2d1c-4996-b1ae-657843c0eb75;["container_2_Emit_random_words_2"];3.25;1533750693.94713;11.8;240.43;6.189665452;10;149
8;paravance-51.rennes.grid5000.fr;thermos-root-devel-WordCountTopology-0-a1631be3-ce81-4ce0-8d86-bffb3b2e2cd1;["topology_master"];3.25;1533750704.16293;3.03;8.86;0.224260609;9;117
8;paravance-48.rennes.grid5000.fr;thermos-root-devel-WordCountTopology-1-0d2c0f45-ce69-4598-aa42-145ae16ccfbc;["container_1_Consume_and_count_1"];3.25;1533750704.1514;52.94;498.64;126.584117518;10;151
8;paravance-46.rennes.grid5000.fr;thermos-root-devel-WordCountTopology-2-ad1c6bc7-2d1c-4996-b1ae-657843c0eb75;["container_2_Emit_random_words_2"];3.25;1533750704.16185;12.23;251.13;6.189665452;10;149
9;paravance-48.rennes.grid5000.fr;thermos-root-devel-WordCountTopology-1-0d2c0f45-ce69-4598-aa42-145ae16ccfbc;["container_1_Consume_and_count_1"];3.25;1533750714.36839;55.01;527.14;135.404921454;10;151
9;paravance-46.rennes.grid5000.fr;thermos-root-devel-WordCountTopology-2-ad1c6bc7-2d1c-4996-b1ae-657843c0eb75;["container_2_Emit_random_words_2"];3.25;1533750714.37869;12.64;259.39;6.189665452;10;149
9;paravance-51.rennes.grid5000.fr;thermos-root-devel-WordCountTopology-0-a1631be3-ce81-4ce0-8d86-bffb3b2e2cd1;["topology_master"];3.25;1533750714.38047;3.1;8.95;0.224260609;9;117
10;paravance-46.rennes.grid5000.fr;thermos-root-devel-WordCountTopology-2-ad1c6bc7-2d1c-4996-b1ae-657843c0eb75;["container_2_Emit_random_words_2"];3.25;1533750724.59565;13.08;269.28;6.189665452;10;149
10;paravance-51.rennes.grid5000.fr;thermos-root-devel-WordCountTopology-0-a1631be3-ce81-4ce0-8d86-bffb3b2e2cd1;["topology_master"];3.25;1533750724.59835;3.16;9.02;0.224260609;9;117
10;paravance-48.rennes.grid5000.fr;thermos-root-devel-WordCountTopology-1-0d2c0f45-ce69-4598-aa42-145ae16ccfbc;["container_1_Consume_and_count_1"];3.25;1533750724.58644;57.61;556.26;144.142799975;10;151
11;paravance-48.rennes.grid5000.fr;thermos-root-devel-WordCountTopology-1-0d2c0f45-ce69-4598-aa42-145ae16ccfbc;["container_1_Consume_and_count_1"];3.25;1533750734.80011;60.21;585.41;153.555768959;10;151
11;paravance-51.rennes.grid5000.fr;thermos-root-devel-WordCountTopology-0-a1631be3-ce81-4ce0-8d86-bffb3b2e2cd1;["topology_master"];3.25;1533750734.81347;3.29;9.32;0.224260609;9;117
11;paravance-46.rennes.grid5000.fr;thermos-root-devel-WordCountTopology-2-ad1c6bc7-2d1c-4996-b1ae-657843c0eb75;["container_2_Emit_random_words_2"];3.25;1533750734.81099;13.69;282.6;6.189665452;10;149
12;paravance-48.rennes.grid5000.fr;thermos-root-devel-WordCountTopology-1-0d2c0f45-ce69-4598-aa42-145ae16ccfbc;["container_1_Consume_and_count_1"];3.25;1533750745.01597;62.75;614.59;161.688495531;10;151
12;paravance-51.rennes.grid5000.fr;thermos-root-devel-WordCountTopology-0-a1631be3-ce81-4ce0-8d86-bffb3b2e2cd1;["topology_master"];3.25;1533750745.02955;3.31;9.34;0.224260609;9;117
12;paravance-46.rennes.grid5000.fr;thermos-root-devel-WordCountTopology-2-ad1c6bc7-2d1c-4996-b1ae-657843c0eb75;["container_2_Emit_random_words_2"];3.25;1533750745.02803;14.06;291.48;6.189665452;10;149
13;paravance-48.rennes.grid5000.fr;thermos-root-devel-WordCountTopology-1-0d2c0f45-ce69-4598-aa42-145ae16ccfbc;["container_1_Consume_and_count_1"];3.25;1533750755.23054;64.62;641.4;169.050581556;10;151
13;paravance-51.rennes.grid5000.fr;thermos-root-devel-WordCountTopology-0-a1631be3-ce81-4ce0-8d86-bffb3b2e2cd1;["topology_master"];3.25;1533750755.24593;3.41;9.52;0.224260609;9;117
13;paravance-46.rennes.grid5000.fr;thermos-root-devel-WordCountTopology-2-ad1c6bc7-2d1c-4996-b1ae-657843c0eb75;["container_2_Emit_random_words_2"];3.25;1533750755.24583;14.5;300.74;6.189665452;10;149
14;paravance-48.rennes.grid5000.fr;thermos-root-devel-WordCountTopology-1-0d2c0f45-ce69-4598-aa42-145ae16ccfbc;["container_1_Consume_and_count_1"];3.25;1533750765.4484;67.02;670.6;177.930715744;10;151
14;paravance-46.rennes.grid5000.fr;thermos-root-devel-WordCountTopology-2-ad1c6bc7-2d1c-4996-b1ae-657843c0eb75;["container_2_Emit_random_words_2"];3.25;1533750765.46426;14.89;309.55;6.189665452;10;149
14;paravance-51.rennes.grid5000.fr;thermos-root-devel-WordCountTopology-0-a1631be3-ce81-4ce0-8d86-bffb3b2e2cd1;["topology_master"];3.25;1533750765.46518;3.47;9.59;0.224260609;9;117
15;paravance-48.rennes.grid5000.fr;thermos-root-devel-WordCountTopology-1-0d2c0f45-ce69-4598-aa42-145ae16ccfbc;["container_1_Consume_and_count_1"];3.25;1533750775.66781;69.47;699.9;187.804747823;10;151
15;paravance-51.rennes.grid5000.fr;thermos-root-devel-WordCountTopology-0-a1631be3-ce81-4ce0-8d86-bffb3b2e2cd1;["topology_master"];3.25;1533750775.68256;3.54;9.68;0.224260609;9;117
15;paravance-46.rennes.grid5000.fr;thermos-root-devel-WordCountTopology-2-ad1c6bc7-2d1c-4996-b1ae-657843c0eb75;["container_2_Emit_random_words_2"];3.25;1533750775.68122;15.38;321.19;6.189665452;10;149
16;paravance-48.rennes.grid5000.fr;thermos-root-devel-WordCountTopology-1-0d2c0f45-ce69-4598-aa42-145ae16ccfbc;["container_1_Consume_and_count_1"];3.25;1533750785.8843;71.89;728.09;196.803097049;10;151
16;paravance-51.rennes.grid5000.fr;thermos-root-devel-WordCountTopology-0-a1631be3-ce81-4ce0-8d86-bffb3b2e2cd1;["topology_master"];3.25;1533750785.89866;3.6;9.76;0.224260609;9;117
16;paravance-46.rennes.grid5000.fr;thermos-root-devel-WordCountTopology-2-ad1c6bc7-2d1c-4996-b1ae-657843c0eb75;["container_2_Emit_random_words_2"];3.25;1533750785.89982;15.81;331.52;6.189665452;10;149
17;paravance-48.rennes.grid5000.fr;thermos-root-devel-WordCountTopology-1-0d2c0f45-ce69-4598-aa42-145ae16ccfbc;["container_1_Consume_and_count_1"];3.25;1533750796.10427;75.15;756.47;203.256392529;10;151
17;paravance-51.rennes.grid5000.fr;thermos-root-devel-WordCountTopology-0-a1631be3-ce81-4ce0-8d86-bffb3b2e2cd1;["topology_master"];3.25;1533750796.11757;3.71;9.94;0.224260609;9;117
17;paravance-46.rennes.grid5000.fr;thermos-root-devel-WordCountTopology-2-ad1c6bc7-2d1c-4996-b1ae-657843c0eb75;["container_2_Emit_random_words_2"];3.25;1533750796.11441;16.5;348.53;6.189665452;10;149
18;paravance-48.rennes.grid5000.fr;thermos-root-devel-WordCountTopology-1-0d2c0f45-ce69-4598-aa42-145ae16ccfbc;["container_1_Consume_and_count_1"];3.25;1533750806.32193;78.76;779.58;203.61152549;10;151
18;paravance-46.rennes.grid5000.fr;thermos-root-devel-WordCountTopology-2-ad1c6bc7-2d1c-4996-b1ae-657843c0eb75;["container_2_Emit_random_words_2"];3.25;1533750806.33272;17.16;366.78;6.189665452;10;149
18;paravance-51.rennes.grid5000.fr;thermos-root-devel-WordCountTopology-0-a1631be3-ce81-4ce0-8d86-bffb3b2e2cd1;["topology_master"];3.25;1533750806.33438;3.74;9.97;0.224260609;9;117
19;paravance-48.rennes.grid5000.fr;thermos-root-devel-WordCountTopology-1-0d2c0f45-ce69-4598-aa42-145ae16ccfbc;["container_1_Consume_and_count_1"];3.25;1533750816.53898;82.1;802.82;203.797672849;10;151
19;paravance-46.rennes.grid5000.fr;thermos-root-devel-WordCountTopology-2-ad1c6bc7-2d1c-4996-b1ae-657843c0eb75;["container_2_Emit_random_words_2"];3.25;1533750816.55005;17.86;385.12;6.189665452;10;149
19;paravance-51.rennes.grid5000.fr;thermos-root-devel-WordCountTopology-0-a1631be3-ce81-4ce0-8d86-bffb3b2e2cd1;["topology_master"];3.25;1533750816.55336;3.83;10.1;0.224260609;9;117
20;paravance-46.rennes.grid5000.fr;thermos-root-devel-WordCountTopology-2-ad1c6bc7-2d1c-4996-b1ae-657843c0eb75;["container_2_Emit_random_words_2"];3.25;1533750826.76675;18.53;403.41;6.189665452;10;149
20;paravance-48.rennes.grid5000.fr;thermos-root-devel-WordCountTopology-1-0d2c0f45-ce69-4598-aa42-145ae16ccfbc;["container_1_Consume_and_count_1"];3.25;1533750826.75626;85.59;826.89;204.254263018;10;151
20;paravance-51.rennes.grid5000.fr;thermos-root-devel-WordCountTopology-0-a1631be3-ce81-4ce0-8d86-bffb3b2e2cd1;["topology_master"];3.25;1533750826.77001;3.89;10.17;0.224260609;9;117
21;paravance-48.rennes.grid5000.fr;thermos-root-devel-WordCountTopology-1-0d2c0f45-ce69-4598-aa42-145ae16ccfbc;["container_1_Consume_and_count_1"];3.25;1533750836.97243;88.68;854.8;211.375647057;10;151
21;paravance-46.rennes.grid5000.fr;thermos-root-devel-WordCountTopology-2-ad1c6bc7-2d1c-4996-b1ae-657843c0eb75;["container_2_Emit_random_words_2"];3.25;1533750836.98327;19.24;421.66;6.189665452;10;149
21;paravance-51.rennes.grid5000.fr;thermos-root-devel-WordCountTopology-0-a1631be3-ce81-4ce0-8d86-bffb3b2e2cd1;["topology_master"];3.25;1533750836.9861;3.95;10.25;0.224260609;9;117
22;paravance-48.rennes.grid5000.fr;thermos-root-devel-WordCountTopology-1-0d2c0f45-ce69-4598-aa42-145ae16ccfbc;["container_1_Consume_and_count_1"];3.25;1533750847.1898;91.3;884.08;220.547363031;10;151
22;paravance-46.rennes.grid5000.fr;thermos-root-devel-WordCountTopology-2-ad1c6bc7-2d1c-4996-b1ae-657843c0eb75;["container_2_Emit_random_words_2"];3.25;1533750847.20051;19.95;439.96;6.189665452;10;149
22;paravance-51.rennes.grid5000.fr;thermos-root-devel-WordCountTopology-0-a1631be3-ce81-4ce0-8d86-bffb3b2e2cd1;["topology_master"];3.25;1533750847.20335;4.01;10.32;0.224260609;9;117
23;paravance-51.rennes.grid5000.fr;thermos-root-devel-WordCountTopology-0-a1631be3-ce81-4ce0-8d86-bffb3b2e2cd1;["topology_master"];3.25;1533750857.42084;4.12;10.49;0.224260609;9;117
23;paravance-46.rennes.grid5000.fr;thermos-root-devel-WordCountTopology-2-ad1c6bc7-2d1c-4996-b1ae-657843c0eb75;["container_2_Emit_random_words_2"];3.25;1533750857.418;20.35;447.54;6.189665452;10;149
23;paravance-48.rennes.grid5000.fr;thermos-root-devel-WordCountTopology-1-0d2c0f45-ce69-4598-aa42-145ae16ccfbc;["container_1_Consume_and_count_1"];3.25;1533750857.40886;93.14;909.79;227.60601627;10;151
24;paravance-46.rennes.grid5000.fr;thermos-root-devel-WordCountTopology-2-ad1c6bc7-2d1c-4996-b1ae-657843c0eb75;["container_2_Emit_random_words_2"];3.25;1533750867.63981;20.67;455.18;6.189665452;10;149
24;paravance-48.rennes.grid5000.fr;thermos-root-devel-WordCountTopology-1-0d2c0f45-ce69-4598-aa42-145ae16ccfbc;["container_1_Consume_and_count_1"];3.25;1533750867.63213;95.51;939.09;235.211121668;10;151
24;paravance-51.rennes.grid5000.fr;thermos-root-devel-WordCountTopology-0-a1631be3-ce81-4ce0-8d86-bffb3b2e2cd1;["topology_master"];3.25;1533750867.64492;4.15;10.52;0.224260609;9;117
25;paravance-48.rennes.grid5000.fr;thermos-root-devel-WordCountTopology-1-0d2c0f45-ce69-4598-aa42-145ae16ccfbc;["container_1_Consume_and_count_1"];3.25;1533750877.84473;98.07;967.03;243.052924497;10;151
25;paravance-46.rennes.grid5000.fr;thermos-root-devel-WordCountTopology-2-ad1c6bc7-2d1c-4996-b1ae-657843c0eb75;["container_2_Emit_random_words_2"];3.25;1533750877.85748;21.15;465.54;6.189665452;10;149
25;paravance-51.rennes.grid5000.fr;thermos-root-devel-WordCountTopology-0-a1631be3-ce81-4ce0-8d86-bffb3b2e2cd1;["topology_master"];3.25;1533750877.86026;4.24;10.65;0.224260609;9;117
26;paravance-48.rennes.grid5000.fr;thermos-root-devel-WordCountTopology-1-0d2c0f45-ce69-4598-aa42-145ae16ccfbc;["container_1_Consume_and_count_1"];3.25;1533750888.06117;100.67;995.14;251.542266843;10;151
26;paravance-51.rennes.grid5000.fr;thermos-root-devel-WordCountTopology-0-a1631be3-ce81-4ce0-8d86-bffb3b2e2cd1;["topology_master"];3.25;1533750888.07564;4.3;10.73;0.224260609;9;117
26;paravance-46.rennes.grid5000.fr;thermos-root-devel-WordCountTopology-2-ad1c6bc7-2d1c-4996-b1ae-657843c0eb75;["container_2_Emit_random_words_2"];3.25;1533750888.07407;21.7;478.76;6.189665452;10;149
27;paravance-48.rennes.grid5000.fr;thermos-root-devel-WordCountTopology-1-0d2c0f45-ce69-4598-aa42-145ae16ccfbc;["container_1_Consume_and_count_1"];3.25;1533750898.27742;102.69;1023.63;259.526937231;10;151
27;paravance-51.rennes.grid5000.fr;thermos-root-devel-WordCountTopology-0-a1631be3-ce81-4ce0-8d86-bffb3b2e2cd1;["topology_master"];3.25;1533750898.29241;4.36;10.8;0.224260609;9;117
27;paravance-46.rennes.grid5000.fr;thermos-root-devel-WordCountTopology-2-ad1c6bc7-2d1c-4996-b1ae-657843c0eb75;["container_2_Emit_random_words_2"];3.25;1533750898.29005;22.09;487.69;6.189665452;10;149
28;paravance-46.rennes.grid5000.fr;thermos-root-devel-WordCountTopology-2-ad1c6bc7-2d1c-4996-b1ae-657843c0eb75;["container_2_Emit_random_words_2"];3.25;1533750908.50455;22.71;502.07;6.189665452;10;149
28;paravance-48.rennes.grid5000.fr;thermos-root-devel-WordCountTopology-1-0d2c0f45-ce69-4598-aa42-145ae16ccfbc;["container_1_Consume_and_count_1"];3.25;1533750908.49751;105.37;1051.92;268.256553738;10;151
28;paravance-51.rennes.grid5000.fr;thermos-root-devel-WordCountTopology-0-a1631be3-ce81-4ce0-8d86-bffb3b2e2cd1;["topology_master"];3.25;1533750908.51011;4.47;10.94;0.224260609;9;117
29;paravance-48.rennes.grid5000.fr;thermos-root-devel-WordCountTopology-1-0d2c0f45-ce69-4598-aa42-145ae16ccfbc;["container_1_Consume_and_count_1"];3.25;1533750918.71322;108.39;1080.56;274.047805464;10;151
29;paravance-51.rennes.grid5000.fr;thermos-root-devel-WordCountTopology-0-a1631be3-ce81-4ce0-8d86-bffb3b2e2cd1;["topology_master"];3.25;1533750918.72667;4.53;11.07;0.224260609;9;117
29;paravance-46.rennes.grid5000.fr;thermos-root-devel-WordCountTopology-2-ad1c6bc7-2d1c-4996-b1ae-657843c0eb75;["container_2_Emit_random_words_2"];3.25;1533750918.72595;23.42;520.18;6.189665452;10;149
30;paravance-51.rennes.grid5000.fr;thermos-root-devel-WordCountTopology-0-a1631be3-ce81-4ce0-8d86-bffb3b2e2cd1;["topology_master"];3.25;1533750928.84451;4.58;11.15;0.224260609;9;117
30;paravance-46.rennes.grid5000.fr;thermos-root-devel-WordCountTopology-2-ad1c6bc7-2d1c-4996-b1ae-657843c0eb75;["container_2_Emit_random_words_2"];3.25;1533750928.84294;24.13;538.3;6.189665452;10;149
30;paravance-48.rennes.grid5000.fr;thermos-root-devel-WordCountTopology-1-0d2c0f45-ce69-4598-aa42-145ae16ccfbc;["container_1_Consume_and_count_1"];3.25;1533750928.9326;111.14;1108.2;281.615162874;10;151
31;paravance-46.rennes.grid5000.fr;thermos-root-devel-WordCountTopology-2-ad1c6bc7-2d1c-4996-b1ae-657843c0eb75;["container_2_Emit_random_words_2"];3.25;1533750939.05739;24.49;546.05;6.189665452;10;149
31;paravance-48.rennes.grid5000.fr;thermos-root-devel-WordCountTopology-1-0d2c0f45-ce69-4598-aa42-145ae16ccfbc;["container_1_Consume_and_count_1"];3.25;1533750939.14737;113.61;1137.39;288.84438423;10;151
31;paravance-51.rennes.grid5000.fr;thermos-root-devel-WordCountTopology-0-a1631be3-ce81-4ce0-8d86-bffb3b2e2cd1;["topology_master"];3.25;1533750939.15883;4.64;11.22;0.224260609;9;117
32;paravance-51.rennes.grid5000.fr;thermos-root-devel-WordCountTopology-0-a1631be3-ce81-4ce0-8d86-bffb3b2e2cd1;["topology_master"];3.25;1533750949.37457;4.73;11.35;0.224260609;9;117
32;paravance-48.rennes.grid5000.fr;thermos-root-devel-WordCountTopology-1-0d2c0f45-ce69-4598-aa42-145ae16ccfbc;["container_1_Consume_and_count_1"];3.25;1533750949.36314;116.5;1166.4;297.271481458;10;151
32;paravance-46.rennes.grid5000.fr;thermos-root-devel-WordCountTopology-2-ad1c6bc7-2d1c-4996-b1ae-657843c0eb75;["container_2_Emit_random_words_2"];3.25;1533750949.37321;25.18;564.47;6.189665452;10;149
33;paravance-51.rennes.grid5000.fr;thermos-root-devel-WordCountTopology-0-a1631be3-ce81-4ce0-8d86-bffb3b2e2cd1;["topology_master"];3.25;1533750959.59213;4.76;11.38;0.224260609;9;117
33;paravance-48.rennes.grid5000.fr;thermos-root-devel-WordCountTopology-1-0d2c0f45-ce69-4598-aa42-145ae16ccfbc;["container_1_Consume_and_count_1"];3.25;1533750959.58034;119.3;1195.3;305.7441355;10;151
33;paravance-46.rennes.grid5000.fr;thermos-root-devel-WordCountTopology-2-ad1c6bc7-2d1c-4996-b1ae-657843c0eb75;["container_2_Emit_random_words_2"];3.25;1533750959.59029;25.58;574.29;6.189665452;10;149
34;paravance-51.rennes.grid5000.fr;thermos-root-devel-WordCountTopology-0-a1631be3-ce81-4ce0-8d86-bffb3b2e2cd1;["topology_master"];3.25;1533750969.80645;4.87;11.51;0.224260609;9;117
34;paravance-48.rennes.grid5000.fr;thermos-root-devel-WordCountTopology-1-0d2c0f45-ce69-4598-aa42-145ae16ccfbc;["container_1_Consume_and_count_1"];3.25;1533750969.79511;122.02;1223.62;315.260045388;10;151
34;paravance-46.rennes.grid5000.fr;thermos-root-devel-WordCountTopology-2-ad1c6bc7-2d1c-4996-b1ae-657843c0eb75;["container_2_Emit_random_words_2"];3.25;1533750969.80571;26.28;591.21;6.189665452;10;149
35;paravance-48.rennes.grid5000.fr;thermos-root-devel-WordCountTopology-1-0d2c0f45-ce69-4598-aa42-145ae16ccfbc;["container_1_Consume_and_count_1"];3.25;1533750980.00861;124.49;1252.94;325.201320231;10;151
35;paravance-51.rennes.grid5000.fr;thermos-root-devel-WordCountTopology-0-a1631be3-ce81-4ce0-8d86-bffb3b2e2cd1;["topology_master"];3.25;1533750980.02308;4.92;11.63;0.224260609;9;117
35;paravance-46.rennes.grid5000.fr;thermos-root-devel-WordCountTopology-2-ad1c6bc7-2d1c-4996-b1ae-657843c0eb75;["container_2_Emit_random_words_2"];3.25;1533750980.02225;26.85;604.76;6.189665452;10;149
36;paravance-46.rennes.grid5000.fr;thermos-root-devel-WordCountTopology-2-ad1c6bc7-2d1c-4996-b1ae-657843c0eb75;["container_2_Emit_random_words_2"];3.25;1533750990.23539;27.2;612.38;6.189665452;10;149
36;paravance-48.rennes.grid5000.fr;thermos-root-devel-WordCountTopology-1-0d2c0f45-ce69-4598-aa42-145ae16ccfbc;["container_1_Consume_and_count_1"];3.25;1533750990.22683;126.86;1280.04;332.390278737;10;151
36;paravance-51.rennes.grid5000.fr;thermos-root-devel-WordCountTopology-0-a1631be3-ce81-4ce0-8d86-bffb3b2e2cd1;["topology_master"];3.25;1533750990.23834;5.01;11.75;0.224260609;9;117
37;paravance-48.rennes.grid5000.fr;thermos-root-devel-WordCountTopology-1-0d2c0f45-ce69-4598-aa42-145ae16ccfbc;["container_1_Consume_and_count_1"];3.25;1533751000.34262;129.52;1308.68;340.815161952;10;151
37;paravance-46.rennes.grid5000.fr;thermos-root-devel-WordCountTopology-2-ad1c6bc7-2d1c-4996-b1ae-657843c0eb75;["container_2_Emit_random_words_2"];3.25;1533751000.45313;27.76;625.96;6.189665452;10;149
37;paravance-51.rennes.grid5000.fr;thermos-root-devel-WordCountTopology-0-a1631be3-ce81-4ce0-8d86-bffb3b2e2cd1;["topology_master"];3.25;1533751000.45695;5.04;11.78;0.224260609;9;117
38;paravance-48.rennes.grid5000.fr;thermos-root-devel-WordCountTopology-1-0d2c0f45-ce69-4598-aa42-145ae16ccfbc;["container_1_Consume_and_count_1"];3.25;1533751010.66079;132.58;1337.66;348.237862638;10;151
38;paravance-46.rennes.grid5000.fr;thermos-root-devel-WordCountTopology-2-ad1c6bc7-2d1c-4996-b1ae-657843c0eb75;["container_2_Emit_random_words_2"];3.25;1533751010.67097;28.35;640.23;6.189665452;10;149
38;paravance-51.rennes.grid5000.fr;thermos-root-devel-WordCountTopology-0-a1631be3-ce81-4ce0-8d86-bffb3b2e2cd1;["topology_master"];3.25;1533751010.674;5.13;11.9;0.224260609;9;117
39;paravance-48.rennes.grid5000.fr;thermos-root-devel-WordCountTopology-1-0d2c0f45-ce69-4598-aa42-145ae16ccfbc;["container_1_Consume_and_count_1"];3.25;1533751020.87842;135.04;1367.24;358.611858341;10;151
39;paravance-51.rennes.grid5000.fr;thermos-root-devel-WordCountTopology-0-a1631be3-ce81-4ce0-8d86-bffb3b2e2cd1;["topology_master"];3.25;1533751020.89134;5.19;11.97;0.224260609;9;117
39;paravance-46.rennes.grid5000.fr;thermos-root-devel-WordCountTopology-2-ad1c6bc7-2d1c-4996-b1ae-657843c0eb75;["container_2_Emit_random_words_2"];3.25;1533751020.88954;29.0;658.27;6.189665452;10;149
40;paravance-48.rennes.grid5000.fr;thermos-root-devel-WordCountTopology-1-0d2c0f45-ce69-4598-aa42-145ae16ccfbc;["container_1_Consume_and_count_1"];3.25;1533751031.09592;138.65;1395.24;363.625686963;10;151
40;paravance-46.rennes.grid5000.fr;thermos-root-devel-WordCountTopology-2-ad1c6bc7-2d1c-4996-b1ae-657843c0eb75;["container_2_Emit_random_words_2"];3.25;1533751031.1066;29.7;676.43;6.189665452;10;149
40;paravance-51.rennes.grid5000.fr;thermos-root-devel-WordCountTopology-0-a1631be3-ce81-4ce0-8d86-bffb3b2e2cd1;["topology_master"];3.25;1533751031.10818;5.25;12.05;0.224260609;9;117
41;paravance-48.rennes.grid5000.fr;thermos-root-devel-WordCountTopology-1-0d2c0f45-ce69-4598-aa42-145ae16ccfbc;["container_1_Consume_and_count_1"];3.25;1533751041.31266;141.29;1424.39;374.289968886;10;151
41;paravance-46.rennes.grid5000.fr;thermos-root-devel-WordCountTopology-2-ad1c6bc7-2d1c-4996-b1ae-657843c0eb75;["container_2_Emit_random_words_2"];3.25;1533751041.32321;30.38;694.63;6.189665452;10;149
41;paravance-51.rennes.grid5000.fr;thermos-root-devel-WordCountTopology-0-a1631be3-ce81-4ce0-8d86-bffb3b2e2cd1;["topology_master"];3.25;1533751041.32595;5.31;12.19;0.224260609;9;117
42;paravance-46.rennes.grid5000.fr;thermos-root-devel-WordCountTopology-2-ad1c6bc7-2d1c-4996-b1ae-657843c0eb75;["container_2_Emit_random_words_2"];3.25;1533751051.53939;30.89;706.29;6.189665452;10;149
42;paravance-48.rennes.grid5000.fr;thermos-root-devel-WordCountTopology-1-0d2c0f45-ce69-4598-aa42-145ae16ccfbc;["container_1_Consume_and_count_1"];3.25;1533751051.53064;143.66;1452.95;382.497585215;10;151
42;paravance-51.rennes.grid5000.fr;thermos-root-devel-WordCountTopology-0-a1631be3-ce81-4ce0-8d86-bffb3b2e2cd1;["topology_master"];3.25;1533751051.54338;5.4;12.31;0.224260609;9;117
43;paravance-46.rennes.grid5000.fr;thermos-root-devel-WordCountTopology-2-ad1c6bc7-2d1c-4996-b1ae-657843c0eb75;["container_2_Emit_random_words_2"];3.25;1533751061.75549;31.3;716.37;6.189665452;10;149
43;paravance-48.rennes.grid5000.fr;thermos-root-devel-WordCountTopology-1-0d2c0f45-ce69-4598-aa42-145ae16ccfbc;["container_1_Consume_and_count_1"];3.25;1533751061.74775;146.19;1482.18;391.137537297;10;151
43;paravance-51.rennes.grid5000.fr;thermos-root-devel-WordCountTopology-0-a1631be3-ce81-4ce0-8d86-bffb3b2e2cd1;["topology_master"];3.25;1533751061.76046;5.43;12.35;0.224260609;9;117
44;paravance-46.rennes.grid5000.fr;thermos-root-devel-WordCountTopology-2-ad1c6bc7-2d1c-4996-b1ae-657843c0eb75;["container_2_Emit_random_words_2"];3.25;1533751071.97448;31.95;731.71;6.189665452;10;149
44;paravance-51.rennes.grid5000.fr;thermos-root-devel-WordCountTopology-0-a1631be3-ce81-4ce0-8d86-bffb3b2e2cd1;["topology_master"];3.25;1533751071.97684;5.52;12.47;0.224260609;9;117
44;paravance-48.rennes.grid5000.fr;thermos-root-devel-WordCountTopology-1-0d2c0f45-ce69-4598-aa42-145ae16ccfbc;["container_1_Consume_and_count_1"];3.25;1533751071.96539;149.08;1510.9;398.096297437;10;151
45;paravance-48.rennes.grid5000.fr;thermos-root-devel-WordCountTopology-1-0d2c0f45-ce69-4598-aa42-145ae16ccfbc;["container_1_Consume_and_count_1"];3.25;1533751082.18296;151.82;1539.9;407.500880845;10;151
45;paravance-51.rennes.grid5000.fr;thermos-root-devel-WordCountTopology-0-a1631be3-ce81-4ce0-8d86-bffb3b2e2cd1;["topology_master"];3.25;1533751082.19424;5.58;12.55;0.224260609;9;117
45;paravance-46.rennes.grid5000.fr;thermos-root-devel-WordCountTopology-2-ad1c6bc7-2d1c-4996-b1ae-657843c0eb75;["container_2_Emit_random_words_2"];3.25;1533751082.19395;32.58;747.44;6.189665452;10;149
46;paravance-48.rennes.grid5000.fr;thermos-root-devel-WordCountTopology-1-0d2c0f45-ce69-4598-aa42-145ae16ccfbc;["container_1_Consume_and_count_1"];3.25;1533751092.39933;154.81;1567.49;412.227725179;10;151
46;paravance-46.rennes.grid5000.fr;thermos-root-devel-WordCountTopology-2-ad1c6bc7-2d1c-4996-b1ae-657843c0eb75;["container_2_Emit_random_words_2"];3.25;1533751092.4089;33.17;761.73;6.189665452;10;149
46;paravance-51.rennes.grid5000.fr;thermos-root-devel-WordCountTopology-0-a1631be3-ce81-4ce0-8d86-bffb3b2e2cd1;["topology_master"];3.25;1533751092.41356;5.65;12.63;0.224260609;9;117
47;paravance-46.rennes.grid5000.fr;thermos-root-devel-WordCountTopology-2-ad1c6bc7-2d1c-4996-b1ae-657843c0eb75;["container_2_Emit_random_words_2"];3.25;1533751102.5261;33.87;779.91;6.189665452;10;149
47;paravance-48.rennes.grid5000.fr;thermos-root-devel-WordCountTopology-1-0d2c0f45-ce69-4598-aa42-145ae16ccfbc;["container_1_Consume_and_count_1"];3.25;1533751102.61609;158.32;1595.72;417.736213178;10;151
47;paravance-51.rennes.grid5000.fr;thermos-root-devel-WordCountTopology-0-a1631be3-ce81-4ce0-8d86-bffb3b2e2cd1;["topology_master"];3.25;1533751102.6276;5.71;12.75;0.224260609;9;117
48;paravance-46.rennes.grid5000.fr;thermos-root-devel-WordCountTopology-2-ad1c6bc7-2d1c-4996-b1ae-657843c0eb75;["container_2_Emit_random_words_2"];3.25;1533751112.7421;34.41;792.42;6.189665452;10;149
48;paravance-48.rennes.grid5000.fr;thermos-root-devel-WordCountTopology-1-0d2c0f45-ce69-4598-aa42-145ae16ccfbc;["container_1_Consume_and_count_1"];3.25;1533751112.83259;160.74;1625.18;426.762635565;10;151
48;paravance-51.rennes.grid5000.fr;thermos-root-devel-WordCountTopology-0-a1631be3-ce81-4ce0-8d86-bffb3b2e2cd1;["topology_master"];3.25;1533751112.84607;5.79;12.87;0.224260609;9;117
49;paravance-51.rennes.grid5000.fr;thermos-root-devel-WordCountTopology-0-a1631be3-ce81-4ce0-8d86-bffb3b2e2cd1;["topology_master"];3.25;1533751122.96201;5.82;12.92;0.224260609;9;117
49;paravance-46.rennes.grid5000.fr;thermos-root-devel-WordCountTopology-2-ad1c6bc7-2d1c-4996-b1ae-657843c0eb75;["container_2_Emit_random_words_2"];3.25;1533751123.05946;35.09;810.88;6.189665452;10;149
49;paravance-48.rennes.grid5000.fr;thermos-root-devel-WordCountTopology-1-0d2c0f45-ce69-4598-aa42-145ae16ccfbc;["container_1_Consume_and_count_1"];3.25;1533751123.05114;163.99;1653.7;432.782215025;10;151
50;paravance-48.rennes.grid5000.fr;thermos-root-devel-WordCountTopology-1-0d2c0f45-ce69-4598-aa42-145ae16ccfbc;["container_1_Consume_and_count_1"];3.25;1533751133.26717;167.04;1682.37;440.721460469;10;151
50;paravance-46.rennes.grid5000.fr;thermos-root-devel-WordCountTopology-2-ad1c6bc7-2d1c-4996-b1ae-657843c0eb75;["container_2_Emit_random_words_2"];3.25;1533751133.27673;35.82;829.19;6.189665452;10;149
50;paravance-51.rennes.grid5000.fr;thermos-root-devel-WordCountTopology-0-a1631be3-ce81-4ce0-8d86-bffb3b2e2cd1;["topology_master"];3.25;1533751133.27867;5.91;13.05;0.224260609;9;117
51;paravance-48.rennes.grid5000.fr;thermos-root-devel-WordCountTopology-1-0d2c0f45-ce69-4598-aa42-145ae16ccfbc;["container_1_Consume_and_count_1"];3.25;1533751143.48231;169.75;1709.81;446.768314067;10;151
51;paravance-51.rennes.grid5000.fr;thermos-root-devel-WordCountTopology-0-a1631be3-ce81-4ce0-8d86-bffb3b2e2cd1;["topology_master"];3.25;1533751143.4941;5.97;13.12;0.224260609;9;117
51;paravance-46.rennes.grid5000.fr;thermos-root-devel-WordCountTopology-2-ad1c6bc7-2d1c-4996-b1ae-657843c0eb75;["container_2_Emit_random_words_2"];3.25;1533751143.49252;36.47;845.7;6.189665452;10;149
52;paravance-51.rennes.grid5000.fr;thermos-root-devel-WordCountTopology-0-a1631be3-ce81-4ce0-8d86-bffb3b2e2cd1;["topology_master"];3.25;1533751153.71107;6.04;13.23;0.224260609;9;117
52;paravance-46.rennes.grid5000.fr;thermos-root-devel-WordCountTopology-2-ad1c6bc7-2d1c-4996-b1ae-657843c0eb75;["container_2_Emit_random_words_2"];3.25;1533751153.70839;37.0;858.73;6.189665452;10;149
52;paravance-48.rennes.grid5000.fr;thermos-root-devel-WordCountTopology-1-0d2c0f45-ce69-4598-aa42-145ae16ccfbc;["container_1_Consume_and_count_1"];3.25;1533751153.70015;172.83;1738.26;453.827048508;10;151
53;paravance-46.rennes.grid5000.fr;thermos-root-devel-WordCountTopology-2-ad1c6bc7-2d1c-4996-b1ae-657843c0eb75;["container_2_Emit_random_words_2"];3.25;1533751163.92489;37.72;877.02;6.189665452;10;149
53;paravance-51.rennes.grid5000.fr;thermos-root-devel-WordCountTopology-0-a1631be3-ce81-4ce0-8d86-bffb3b2e2cd1;["topology_master"];3.25;1533751163.92799;6.1;13.3;0.224260609;9;117
53;paravance-48.rennes.grid5000.fr;thermos-root-devel-WordCountTopology-1-0d2c0f45-ce69-4598-aa42-145ae16ccfbc;["container_1_Consume_and_count_1"];3.25;1533751163.91725;175.36;1767.71;463.798294999;10;151
54;paravance-48.rennes.grid5000.fr;thermos-root-devel-WordCountTopology-1-0d2c0f45-ce69-4598-aa42-145ae16ccfbc;["container_1_Consume_and_count_1"];3.25;1533751174.13162;177.84;1797.16;473.20957191;10;151
54;paravance-46.rennes.grid5000.fr;thermos-root-devel-WordCountTopology-2-ad1c6bc7-2d1c-4996-b1ae-657843c0eb75;["container_2_Emit_random_words_2"];3.25;1533751174.142;38.46;895.36;6.189665452;10;149
54;paravance-51.rennes.grid5000.fr;thermos-root-devel-WordCountTopology-0-a1631be3-ce81-4ce0-8d86-bffb3b2e2cd1;["topology_master"];3.25;1533751174.14502;6.19;13.43;0.224260609;9;117
55;paravance-48.rennes.grid5000.fr;thermos-root-devel-WordCountTopology-1-0d2c0f45-ce69-4598-aa42-145ae16ccfbc;["container_1_Consume_and_count_1"];3.25;1533751184.34894;181.0;1825.68;479.405839619;10;151
55;paravance-46.rennes.grid5000.fr;thermos-root-devel-WordCountTopology-2-ad1c6bc7-2d1c-4996-b1ae-657843c0eb75;["container_2_Emit_random_words_2"];3.25;1533751184.35933;39.14;913.62;6.189665452;10;149
55;paravance-51.rennes.grid5000.fr;thermos-root-devel-WordCountTopology-0-a1631be3-ce81-4ce0-8d86-bffb3b2e2cd1;["topology_master"];3.25;1533751184.36172;6.22;13.45;0.224260609;9;117
56;paravance-46.rennes.grid5000.fr;thermos-root-devel-WordCountTopology-2-ad1c6bc7-2d1c-4996-b1ae-657843c0eb75;["container_2_Emit_random_words_2"];3.25;1533751194.5768;39.87;931.84;6.189665452;10;149
56;paravance-48.rennes.grid5000.fr;thermos-root-devel-WordCountTopology-1-0d2c0f45-ce69-4598-aa42-145ae16ccfbc;["container_1_Consume_and_count_1"];3.25;1533751194.56856;184.1;1854.29;486.316849843;10;151
56;paravance-51.rennes.grid5000.fr;thermos-root-devel-WordCountTopology-0-a1631be3-ce81-4ce0-8d86-bffb3b2e2cd1;["topology_master"];3.25;1533751194.57943;6.31;13.57;0.224260609;9;117
57;paravance-46.rennes.grid5000.fr;thermos-root-devel-WordCountTopology-2-ad1c6bc7-2d1c-4996-b1ae-657843c0eb75;["container_2_Emit_random_words_2"];3.25;1533751204.69606;40.54;949.89;6.189665452;10;149
57;paravance-51.rennes.grid5000.fr;thermos-root-devel-WordCountTopology-0-a1631be3-ce81-4ce0-8d86-bffb3b2e2cd1;["topology_master"];3.25;1533751204.79717;6.37;13.65;0.224260609;9;117
57;paravance-48.rennes.grid5000.fr;thermos-root-devel-WordCountTopology-1-0d2c0f45-ce69-4598-aa42-145ae16ccfbc;["container_1_Consume_and_count_1"];3.25;1533751204.78634;187.17;1882.89;493.688195058;10;151
58;paravance-48.rennes.grid5000.fr;thermos-root-devel-WordCountTopology-1-0d2c0f45-ce69-4598-aa42-145ae16ccfbc;["container_1_Consume_and_count_1"];3.25;1533751214.99933;189.68;1910.92;501.676746386;10;151
58;paravance-46.rennes.grid5000.fr;thermos-root-devel-WordCountTopology-2-ad1c6bc7-2d1c-4996-b1ae-657843c0eb75;["container_2_Emit_random_words_2"];3.25;1533751215.00866;41.05;961.74;6.189665452;10;149
58;paravance-51.rennes.grid5000.fr;thermos-root-devel-WordCountTopology-0-a1631be3-ce81-4ce0-8d86-bffb3b2e2cd1;["topology_master"];3.25;1533751215.01081;6.44;13.76;0.224260609;9;117
59;paravance-48.rennes.grid5000.fr;thermos-root-devel-WordCountTopology-1-0d2c0f45-ce69-4598-aa42-145ae16ccfbc;["container_1_Consume_and_count_1"];3.25;1533751225.21446;192.47;1939.97;509.595419906;10;151
59;paravance-51.rennes.grid5000.fr;thermos-root-devel-WordCountTopology-0-a1631be3-ce81-4ce0-8d86-bffb3b2e2cd1;["topology_master"];3.25;1533751225.22672;6.5;13.83;0.224260609;9;117
59;paravance-46.rennes.grid5000.fr;thermos-root-devel-WordCountTopology-2-ad1c6bc7-2d1c-4996-b1ae-657843c0eb75;["container_2_Emit_random_words_2"];3.25;1533751225.22548;41.74;979.45;6.189665452;10;149
60;paravance-51.rennes.grid5000.fr;thermos-root-devel-WordCountTopology-0-a1631be3-ce81-4ce0-8d86-bffb3b2e2cd1;["topology_master"];3.25;1533751235.44154;6.59;13.96;0.224260609;9;117
60;paravance-48.rennes.grid5000.fr;thermos-root-devel-WordCountTopology-1-0d2c0f45-ce69-4598-aa42-145ae16ccfbc;["container_1_Consume_and_count_1"];3.25;1533751235.42982;194.99;1969.37;519.055796741;10;151
60;paravance-46.rennes.grid5000.fr;thermos-root-devel-WordCountTopology-2-ad1c6bc7-2d1c-4996-b1ae-657843c0eb75;["container_2_Emit_random_words_2"];3.25;1533751235.44122;42.33;992.77;6.189665452;10;149
