mesure_id;slave_id;executor_id;heron_instances;cpus_limit;timestamp_A;cpus_system_time_secs_A;cpus_user_time_secs_A;cpus_throttled_time_secs_A;processes;threads
0;paravance-48.rennes.grid5000.fr;thermos-root-devel-WordCountTopology-1-0d2c0f45-ce69-4598-aa42-145ae16ccfbc;["container_1_Consume_and_count_1"];3.25;1533750612.31124;29.41;238.84;48.661522571;10;151
0;paravance-51.rennes.grid5000.fr;thermos-root-devel-WordCountTopology-0-a1631be3-ce81-4ce0-8d86-bffb3b2e2cd1;["topology_master"];3.25;1533750612.32424;2.39;7.88;0.224260609;9;117
0;paravance-46.rennes.grid5000.fr;thermos-root-devel-WordCountTopology-2-ad1c6bc7-2d1c-4996-b1ae-657843c0eb75;["container_2_Emit_random_words_2"];3.25;1533750612.32296;7.58;141.72;6.189665452;10;149
1;paravance-51.rennes.grid5000.fr;thermos-root-devel-WordCountTopology-0-a1631be3-ce81-4ce0-8d86-bffb3b2e2cd1;["topology_master"];3.25;1533750622.54059;2.46;8.02;0.224260609;9;117
1;paravance-48.rennes.grid5000.fr;thermos-root-devel-WordCountTopology-1-0d2c0f45-ce69-4598-aa42-145ae16ccfbc;["container_1_Consume_and_count_1"];3.25;1533750622.52833;32.01;268.15;58.485275405;10;151
1;paravance-46.rennes.grid5000.fr;thermos-root-devel-WordCountTopology-2-ad1c6bc7-2d1c-4996-b1ae-657843c0eb75;["container_2_Emit_random_words_2"];3.25;1533750622.53993;8.06;152.86;6.189665452;10;149
2;paravance-51.rennes.grid5000.fr;thermos-root-devel-WordCountTopology-0-a1631be3-ce81-4ce0-8d86-bffb3b2e2cd1;["topology_master"];3.25;1533750632.75679;2.55;8.15;0.224260609;9;117
2;paravance-48.rennes.grid5000.fr;thermos-root-devel-WordCountTopology-1-0d2c0f45-ce69-4598-aa42-145ae16ccfbc;["container_1_Consume_and_count_1"];3.25;1533750632.74444;34.38;297.69;69.015085022;10;151
2;paravance-46.rennes.grid5000.fr;thermos-root-devel-WordCountTopology-2-ad1c6bc7-2d1c-4996-b1ae-657843c0eb75;["container_2_Emit_random_words_2"];3.25;1533750632.75507;8.6;164.62;6.189665452;10;149
3;paravance-51.rennes.grid5000.fr;thermos-root-devel-WordCountTopology-0-a1631be3-ce81-4ce0-8d86-bffb3b2e2cd1;["topology_master"];3.25;1533750642.97376;2.61;8.24;0.224260609;9;117
3;paravance-48.rennes.grid5000.fr;thermos-root-devel-WordCountTopology-1-0d2c0f45-ce69-4598-aa42-145ae16ccfbc;["container_1_Consume_and_count_1"];3.25;1533750642.96138;36.84;327.1;78.663357173;10;151
3;paravance-46.rennes.grid5000.fr;thermos-root-devel-WordCountTopology-2-ad1c6bc7-2d1c-4996-b1ae-657843c0eb75;["container_2_Emit_random_words_2"];3.25;1533750642.97185;9.08;176.21;6.189665452;10;149
4;paravance-46.rennes.grid5000.fr;thermos-root-devel-WordCountTopology-2-ad1c6bc7-2d1c-4996-b1ae-657843c0eb75;["container_2_Emit_random_words_2"];3.25;1533750653.18824;9.67;189.51;6.189665452;10;149
4;paravance-48.rennes.grid5000.fr;thermos-root-devel-WordCountTopology-1-0d2c0f45-ce69-4598-aa42-145ae16ccfbc;["container_1_Consume_and_count_1"];3.25;1533750653.17915;39.68;356.12;87.471308072;10;151
4;paravance-51.rennes.grid5000.fr;thermos-root-devel-WordCountTopology-0-a1631be3-ce81-4ce0-8d86-bffb3b2e2cd1;["topology_master"];3.25;1533750653.19072;2.67;8.31;0.224260609;9;117
5;paravance-51.rennes.grid5000.fr;thermos-root-devel-WordCountTopology-0-a1631be3-ce81-4ce0-8d86-bffb3b2e2cd1;["topology_master"];3.25;1533750663.30727;2.73;8.39;0.224260609;9;117
5;paravance-48.rennes.grid5000.fr;thermos-root-devel-WordCountTopology-1-0d2c0f45-ce69-4598-aa42-145ae16ccfbc;["container_1_Consume_and_count_1"];3.25;1533750663.39477;42.11;384.51;95.237807904;10;151
5;paravance-46.rennes.grid5000.fr;thermos-root-devel-WordCountTopology-2-ad1c6bc7-2d1c-4996-b1ae-657843c0eb75;["container_2_Emit_random_words_2"];3.25;1533750663.40542;10.13;200.01;6.189665452;10;149
6;paravance-48.rennes.grid5000.fr;thermos-root-devel-WordCountTopology-1-0d2c0f45-ce69-4598-aa42-145ae16ccfbc;["container_1_Consume_and_count_1"];3.25;1533750673.6106;44.7;413.31;103.143673575;10;151
6;paravance-46.rennes.grid5000.fr;thermos-root-devel-WordCountTopology-2-ad1c6bc7-2d1c-4996-b1ae-657843c0eb75;["container_2_Emit_random_words_2"];3.25;1533750673.62165;10.49;207.07;6.189665452;10;149
6;paravance-51.rennes.grid5000.fr;thermos-root-devel-WordCountTopology-0-a1631be3-ce81-4ce0-8d86-bffb3b2e2cd1;["topology_master"];3.25;1533750673.62427;2.86;8.62;0.224260609;9;117
7;paravance-48.rennes.grid5000.fr;thermos-root-devel-WordCountTopology-1-0d2c0f45-ce69-4598-aa42-145ae16ccfbc;["container_1_Consume_and_count_1"];3.25;1533750683.82657;47.59;440.93;108.317988998;10;151
7;paravance-51.rennes.grid5000.fr;thermos-root-devel-WordCountTopology-0-a1631be3-ce81-4ce0-8d86-bffb3b2e2cd1;["topology_master"];3.25;1533750683.83912;2.88;8.66;0.224260609;9;117
7;paravance-46.rennes.grid5000.fr;thermos-root-devel-WordCountTopology-2-ad1c6bc7-2d1c-4996-b1ae-657843c0eb75;["container_2_Emit_random_words_2"];3.25;1533750683.83888;11.1;223.03;6.189665452;10;149
8;paravance-51.rennes.grid5000.fr;thermos-root-devel-WordCountTopology-0-a1631be3-ce81-4ce0-8d86-bffb3b2e2cd1;["topology_master"];3.25;1533750694.05634;2.98;8.78;0.224260609;9;117
8;paravance-48.rennes.grid5000.fr;thermos-root-devel-WordCountTopology-1-0d2c0f45-ce69-4598-aa42-145ae16ccfbc;["container_1_Consume_and_count_1"];3.25;1533750694.04402;50.41;469.87;118.112311205;10;151
8;paravance-46.rennes.grid5000.fr;thermos-root-devel-WordCountTopology-2-ad1c6bc7-2d1c-4996-b1ae-657843c0eb75;["container_2_Emit_random_words_2"];3.25;1533750694.05449;11.8;240.43;6.189665452;10;149
9;paravance-48.rennes.grid5000.fr;thermos-root-devel-WordCountTopology-1-0d2c0f45-ce69-4598-aa42-145ae16ccfbc;["container_1_Consume_and_count_1"];3.25;1533750704.26072;52.95;498.97;126.743862202;10;151
9;paravance-46.rennes.grid5000.fr;thermos-root-devel-WordCountTopology-2-ad1c6bc7-2d1c-4996-b1ae-657843c0eb75;["container_2_Emit_random_words_2"];3.25;1533750704.27099;12.25;251.37;6.189665452;10;149
9;paravance-51.rennes.grid5000.fr;thermos-root-devel-WordCountTopology-0-a1631be3-ce81-4ce0-8d86-bffb3b2e2cd1;["topology_master"];3.25;1533750704.27351;3.03;8.86;0.224260609;9;117
10;paravance-46.rennes.grid5000.fr;thermos-root-devel-WordCountTopology-2-ad1c6bc7-2d1c-4996-b1ae-657843c0eb75;["container_2_Emit_random_words_2"];3.25;1533750714.48951;12.65;259.58;6.189665452;10;149
10;paravance-51.rennes.grid5000.fr;thermos-root-devel-WordCountTopology-0-a1631be3-ce81-4ce0-8d86-bffb3b2e2cd1;["topology_master"];3.25;1533750714.49197;3.1;8.95;0.224260609;9;117
10;paravance-48.rennes.grid5000.fr;thermos-root-devel-WordCountTopology-1-0d2c0f45-ce69-4598-aa42-145ae16ccfbc;["container_1_Consume_and_count_1"];3.25;1533750714.48016;55.05;527.47;135.585631357;10;151
11;paravance-48.rennes.grid5000.fr;thermos-root-devel-WordCountTopology-1-0d2c0f45-ce69-4598-aa42-145ae16ccfbc;["container_1_Consume_and_count_1"];3.25;1533750724.69435;57.62;556.6;144.256461508;10;151
11;paravance-51.rennes.grid5000.fr;thermos-root-devel-WordCountTopology-0-a1631be3-ce81-4ce0-8d86-bffb3b2e2cd1;["topology_master"];3.25;1533750724.70702;3.16;9.02;0.224260609;9;117
11;paravance-46.rennes.grid5000.fr;thermos-root-devel-WordCountTopology-2-ad1c6bc7-2d1c-4996-b1ae-657843c0eb75;["container_2_Emit_random_words_2"];3.25;1533750724.7038;13.09;269.47;6.189665452;10;149
12;paravance-48.rennes.grid5000.fr;thermos-root-devel-WordCountTopology-1-0d2c0f45-ce69-4598-aa42-145ae16ccfbc;["container_1_Consume_and_count_1"];3.25;1533750734.91029;60.26;585.7;153.627958116;10;151
12;paravance-51.rennes.grid5000.fr;thermos-root-devel-WordCountTopology-0-a1631be3-ce81-4ce0-8d86-bffb3b2e2cd1;["topology_master"];3.25;1533750734.92185;3.29;9.32;0.224260609;9;117
12;paravance-46.rennes.grid5000.fr;thermos-root-devel-WordCountTopology-2-ad1c6bc7-2d1c-4996-b1ae-657843c0eb75;["container_2_Emit_random_words_2"];3.25;1533750734.91955;13.69;282.79;6.189665452;10;149
13;paravance-48.rennes.grid5000.fr;thermos-root-devel-WordCountTopology-1-0d2c0f45-ce69-4598-aa42-145ae16ccfbc;["container_1_Consume_and_count_1"];3.25;1533750745.12421;62.75;614.92;161.784684915;10;151
13;paravance-51.rennes.grid5000.fr;thermos-root-devel-WordCountTopology-0-a1631be3-ce81-4ce0-8d86-bffb3b2e2cd1;["topology_master"];3.25;1533750745.13922;3.31;9.34;0.224260609;9;117
13;paravance-46.rennes.grid5000.fr;thermos-root-devel-WordCountTopology-2-ad1c6bc7-2d1c-4996-b1ae-657843c0eb75;["container_2_Emit_random_words_2"];3.25;1533750745.13766;14.06;291.48;6.189665452;10;149
14;paravance-48.rennes.grid5000.fr;thermos-root-devel-WordCountTopology-1-0d2c0f45-ce69-4598-aa42-145ae16ccfbc;["container_1_Consume_and_count_1"];3.25;1533750755.34311;64.63;641.61;169.136075921;10;151
14;paravance-51.rennes.grid5000.fr;thermos-root-devel-WordCountTopology-0-a1631be3-ce81-4ce0-8d86-bffb3b2e2cd1;["topology_master"];3.25;1533750755.35748;3.41;9.52;0.224260609;9;117
14;paravance-46.rennes.grid5000.fr;thermos-root-devel-WordCountTopology-2-ad1c6bc7-2d1c-4996-b1ae-657843c0eb75;["container_2_Emit_random_words_2"];3.25;1533750755.35566;14.5;300.75;6.189665452;10;149
15;paravance-48.rennes.grid5000.fr;thermos-root-devel-WordCountTopology-1-0d2c0f45-ce69-4598-aa42-145ae16ccfbc;["container_1_Consume_and_count_1"];3.25;1533750765.56103;67.02;670.94;178.095149015;10;151
15;paravance-51.rennes.grid5000.fr;thermos-root-devel-WordCountTopology-0-a1631be3-ce81-4ce0-8d86-bffb3b2e2cd1;["topology_master"];3.25;1533750765.57538;3.48;9.59;0.224260609;9;117
15;paravance-46.rennes.grid5000.fr;thermos-root-devel-WordCountTopology-2-ad1c6bc7-2d1c-4996-b1ae-657843c0eb75;["container_2_Emit_random_words_2"];3.25;1533750765.57316;14.89;309.55;6.189665452;10;149
16;paravance-48.rennes.grid5000.fr;thermos-root-devel-WordCountTopology-1-0d2c0f45-ce69-4598-aa42-145ae16ccfbc;["container_1_Consume_and_count_1"];3.25;1533750775.77855;69.47;700.16;187.804747823;10;151
16;paravance-51.rennes.grid5000.fr;thermos-root-devel-WordCountTopology-0-a1631be3-ce81-4ce0-8d86-bffb3b2e2cd1;["topology_master"];3.25;1533750775.79201;3.54;9.68;0.224260609;9;117
16;paravance-46.rennes.grid5000.fr;thermos-root-devel-WordCountTopology-2-ad1c6bc7-2d1c-4996-b1ae-657843c0eb75;["container_2_Emit_random_words_2"];3.25;1533750775.79058;15.38;321.2;6.189665452;10;149
17;paravance-48.rennes.grid5000.fr;thermos-root-devel-WordCountTopology-1-0d2c0f45-ce69-4598-aa42-145ae16ccfbc;["container_1_Consume_and_count_1"];3.25;1533750785.99695;71.92;728.4;196.906898981;10;151
17;paravance-51.rennes.grid5000.fr;thermos-root-devel-WordCountTopology-0-a1631be3-ce81-4ce0-8d86-bffb3b2e2cd1;["topology_master"];3.25;1533750786.01032;3.6;9.76;0.224260609;9;117
17;paravance-46.rennes.grid5000.fr;thermos-root-devel-WordCountTopology-2-ad1c6bc7-2d1c-4996-b1ae-657843c0eb75;["container_2_Emit_random_words_2"];3.25;1533750786.00771;15.82;331.52;6.189665452;10;149
18;paravance-48.rennes.grid5000.fr;thermos-root-devel-WordCountTopology-1-0d2c0f45-ce69-4598-aa42-145ae16ccfbc;["container_1_Consume_and_count_1"];3.25;1533750796.21575;75.19;756.77;203.313763427;10;151
18;paravance-46.rennes.grid5000.fr;thermos-root-devel-WordCountTopology-2-ad1c6bc7-2d1c-4996-b1ae-657843c0eb75;["container_2_Emit_random_words_2"];3.25;1533750796.22607;16.51;348.73;6.189665452;10;149
18;paravance-51.rennes.grid5000.fr;thermos-root-devel-WordCountTopology-0-a1631be3-ce81-4ce0-8d86-bffb3b2e2cd1;["topology_master"];3.25;1533750796.22749;3.71;9.94;0.224260609;9;117
19;paravance-48.rennes.grid5000.fr;thermos-root-devel-WordCountTopology-1-0d2c0f45-ce69-4598-aa42-145ae16ccfbc;["container_1_Consume_and_count_1"];3.25;1533750806.43309;78.79;779.82;203.61152549;10;151
19;paravance-46.rennes.grid5000.fr;thermos-root-devel-WordCountTopology-2-ad1c6bc7-2d1c-4996-b1ae-657843c0eb75;["container_2_Emit_random_words_2"];3.25;1533750806.44327;17.17;366.98;6.189665452;10;149
19;paravance-51.rennes.grid5000.fr;thermos-root-devel-WordCountTopology-0-a1631be3-ce81-4ce0-8d86-bffb3b2e2cd1;["topology_master"];3.25;1533750806.44582;3.74;9.97;0.224260609;9;117
20;paravance-48.rennes.grid5000.fr;thermos-root-devel-WordCountTopology-1-0d2c0f45-ce69-4598-aa42-145ae16ccfbc;["container_1_Consume_and_count_1"];3.25;1533750816.65003;82.16;803.08;203.797672849;10;151
20;paravance-46.rennes.grid5000.fr;thermos-root-devel-WordCountTopology-2-ad1c6bc7-2d1c-4996-b1ae-657843c0eb75;["container_2_Emit_random_words_2"];3.25;1533750816.65982;17.86;385.32;6.189665452;10;149
20;paravance-51.rennes.grid5000.fr;thermos-root-devel-WordCountTopology-0-a1631be3-ce81-4ce0-8d86-bffb3b2e2cd1;["topology_master"];3.25;1533750816.66271;3.83;10.1;0.224260609;9;117
21;paravance-48.rennes.grid5000.fr;thermos-root-devel-WordCountTopology-1-0d2c0f45-ce69-4598-aa42-145ae16ccfbc;["container_1_Consume_and_count_1"];3.25;1533750826.86666;85.62;827.13;204.254263018;10;151
21;paravance-46.rennes.grid5000.fr;thermos-root-devel-WordCountTopology-2-ad1c6bc7-2d1c-4996-b1ae-657843c0eb75;["container_2_Emit_random_words_2"];3.25;1533750826.87699;18.54;403.6;6.189665452;10;149
21;paravance-51.rennes.grid5000.fr;thermos-root-devel-WordCountTopology-0-a1631be3-ce81-4ce0-8d86-bffb3b2e2cd1;["topology_master"];3.25;1533750826.87942;3.89;10.17;0.224260609;9;117
22;paravance-48.rennes.grid5000.fr;thermos-root-devel-WordCountTopology-1-0d2c0f45-ce69-4598-aa42-145ae16ccfbc;["container_1_Consume_and_count_1"];3.25;1533750837.08336;88.69;855.14;211.479855041;10;151
22;paravance-46.rennes.grid5000.fr;thermos-root-devel-WordCountTopology-2-ad1c6bc7-2d1c-4996-b1ae-657843c0eb75;["container_2_Emit_random_words_2"];3.25;1533750837.09301;19.25;421.85;6.189665452;10;149
22;paravance-51.rennes.grid5000.fr;thermos-root-devel-WordCountTopology-0-a1631be3-ce81-4ce0-8d86-bffb3b2e2cd1;["topology_master"];3.25;1533750837.09546;3.95;10.25;0.224260609;9;117
23;paravance-51.rennes.grid5000.fr;thermos-root-devel-WordCountTopology-0-a1631be3-ce81-4ce0-8d86-bffb3b2e2cd1;["topology_master"];3.25;1533750847.31354;4.01;10.32;0.224260609;9;117
23;paravance-46.rennes.grid5000.fr;thermos-root-devel-WordCountTopology-2-ad1c6bc7-2d1c-4996-b1ae-657843c0eb75;["container_2_Emit_random_words_2"];3.25;1533750847.31108;19.96;440.16;6.189665452;10;149
23;paravance-48.rennes.grid5000.fr;thermos-root-devel-WordCountTopology-1-0d2c0f45-ce69-4598-aa42-145ae16ccfbc;["container_1_Consume_and_count_1"];3.25;1533750847.3017;91.33;884.42;220.630363271;10;151
24;paravance-46.rennes.grid5000.fr;thermos-root-devel-WordCountTopology-2-ad1c6bc7-2d1c-4996-b1ae-657843c0eb75;["container_2_Emit_random_words_2"];3.25;1533750857.53298;20.35;447.75;6.189665452;10;149
24;paravance-48.rennes.grid5000.fr;thermos-root-devel-WordCountTopology-1-0d2c0f45-ce69-4598-aa42-145ae16ccfbc;["container_1_Consume_and_count_1"];3.25;1533750857.522;93.17;910.12;227.657712863;10;151
24;paravance-51.rennes.grid5000.fr;thermos-root-devel-WordCountTopology-0-a1631be3-ce81-4ce0-8d86-bffb3b2e2cd1;["topology_master"];3.25;1533750857.53459;4.12;10.49;0.224260609;9;117
25;paravance-48.rennes.grid5000.fr;thermos-root-devel-WordCountTopology-1-0d2c0f45-ce69-4598-aa42-145ae16ccfbc;["container_1_Consume_and_count_1"];3.25;1533750867.73876;95.56;939.35;235.388632304;10;151
25;paravance-46.rennes.grid5000.fr;thermos-root-devel-WordCountTopology-2-ad1c6bc7-2d1c-4996-b1ae-657843c0eb75;["container_2_Emit_random_words_2"];3.25;1533750867.75028;20.68;455.38;6.189665452;10;149
25;paravance-51.rennes.grid5000.fr;thermos-root-devel-WordCountTopology-0-a1631be3-ce81-4ce0-8d86-bffb3b2e2cd1;["topology_master"];3.25;1533750867.75364;4.15;10.52;0.224260609;9;117
26;paravance-48.rennes.grid5000.fr;thermos-root-devel-WordCountTopology-1-0d2c0f45-ce69-4598-aa42-145ae16ccfbc;["container_1_Consume_and_count_1"];3.25;1533750877.9548;98.07;967.34;243.149102952;10;151
26;paravance-51.rennes.grid5000.fr;thermos-root-devel-WordCountTopology-0-a1631be3-ce81-4ce0-8d86-bffb3b2e2cd1;["topology_master"];3.25;1533750877.96784;4.24;10.65;0.224260609;9;117
26;paravance-46.rennes.grid5000.fr;thermos-root-devel-WordCountTopology-2-ad1c6bc7-2d1c-4996-b1ae-657843c0eb75;["container_2_Emit_random_words_2"];3.25;1533750877.96645;21.15;465.54;6.189665452;10;149
27;paravance-48.rennes.grid5000.fr;thermos-root-devel-WordCountTopology-1-0d2c0f45-ce69-4598-aa42-145ae16ccfbc;["container_1_Consume_and_count_1"];3.25;1533750888.17134;100.74;995.42;251.556100537;10;151
27;paravance-46.rennes.grid5000.fr;thermos-root-devel-WordCountTopology-2-ad1c6bc7-2d1c-4996-b1ae-657843c0eb75;["container_2_Emit_random_words_2"];3.25;1533750888.18292;21.7;478.76;6.189665452;10;149
27;paravance-51.rennes.grid5000.fr;thermos-root-devel-WordCountTopology-0-a1631be3-ce81-4ce0-8d86-bffb3b2e2cd1;["topology_master"];3.25;1533750888.18586;4.3;10.73;0.224260609;9;117
28;paravance-46.rennes.grid5000.fr;thermos-root-devel-WordCountTopology-2-ad1c6bc7-2d1c-4996-b1ae-657843c0eb75;["container_2_Emit_random_words_2"];3.25;1533750898.39831;22.09;487.69;6.189665452;10;149
28;paravance-48.rennes.grid5000.fr;thermos-root-devel-WordCountTopology-1-0d2c0f45-ce69-4598-aa42-145ae16ccfbc;["container_1_Consume_and_count_1"];3.25;1533750898.3891;102.71;1023.95;259.526937231;10;151
28;paravance-51.rennes.grid5000.fr;thermos-root-devel-WordCountTopology-0-a1631be3-ce81-4ce0-8d86-bffb3b2e2cd1;["topology_master"];3.25;1533750898.40087;4.36;10.8;0.224260609;9;117
29;paravance-48.rennes.grid5000.fr;thermos-root-devel-WordCountTopology-1-0d2c0f45-ce69-4598-aa42-145ae16ccfbc;["container_1_Consume_and_count_1"];3.25;1533750908.60563;105.39;1052.23;268.346778871;10;151
29;paravance-51.rennes.grid5000.fr;thermos-root-devel-WordCountTopology-0-a1631be3-ce81-4ce0-8d86-bffb3b2e2cd1;["topology_master"];3.25;1533750908.61957;4.47;10.94;0.224260609;9;117
29;paravance-46.rennes.grid5000.fr;thermos-root-devel-WordCountTopology-2-ad1c6bc7-2d1c-4996-b1ae-657843c0eb75;["container_2_Emit_random_words_2"];3.25;1533750908.61806;22.72;502.28;6.189665452;10;149
30;paravance-51.rennes.grid5000.fr;thermos-root-devel-WordCountTopology-0-a1631be3-ce81-4ce0-8d86-bffb3b2e2cd1;["topology_master"];3.25;1533750918.83603;4.53;11.07;0.224260609;9;117
30;paravance-46.rennes.grid5000.fr;thermos-root-devel-WordCountTopology-2-ad1c6bc7-2d1c-4996-b1ae-657843c0eb75;["container_2_Emit_random_words_2"];3.25;1533750918.83443;23.43;520.36;6.189665452;10;149
30;paravance-48.rennes.grid5000.fr;thermos-root-devel-WordCountTopology-1-0d2c0f45-ce69-4598-aa42-145ae16ccfbc;["container_1_Consume_and_count_1"];3.25;1533750918.82436;108.42;1080.89;274.084861662;10;151
31;paravance-46.rennes.grid5000.fr;thermos-root-devel-WordCountTopology-2-ad1c6bc7-2d1c-4996-b1ae-657843c0eb75;["container_2_Emit_random_words_2"];3.25;1533750929.04999;24.15;538.67;6.189665452;10;149
31;paravance-48.rennes.grid5000.fr;thermos-root-devel-WordCountTopology-1-0d2c0f45-ce69-4598-aa42-145ae16ccfbc;["container_1_Consume_and_count_1"];3.25;1533750929.04045;111.18;1108.47;281.687818696;10;151
31;paravance-51.rennes.grid5000.fr;thermos-root-devel-WordCountTopology-0-a1631be3-ce81-4ce0-8d86-bffb3b2e2cd1;["topology_master"];3.25;1533750929.05224;4.58;11.15;0.224260609;9;117
32;paravance-51.rennes.grid5000.fr;thermos-root-devel-WordCountTopology-0-a1631be3-ce81-4ce0-8d86-bffb3b2e2cd1;["topology_master"];3.25;1533750939.26749;4.64;11.22;0.224260609;9;117
32;paravance-48.rennes.grid5000.fr;thermos-root-devel-WordCountTopology-1-0d2c0f45-ce69-4598-aa42-145ae16ccfbc;["container_1_Consume_and_count_1"];3.25;1533750939.25592;113.65;1137.67;289.032059735;10;151
32;paravance-46.rennes.grid5000.fr;thermos-root-devel-WordCountTopology-2-ad1c6bc7-2d1c-4996-b1ae-657843c0eb75;["container_2_Emit_random_words_2"];3.25;1533750939.26532;24.5;546.43;6.189665452;10;149
33;paravance-51.rennes.grid5000.fr;thermos-root-devel-WordCountTopology-0-a1631be3-ce81-4ce0-8d86-bffb3b2e2cd1;["topology_master"];3.25;1533750949.48455;4.74;11.35;0.224260609;9;117
33;paravance-48.rennes.grid5000.fr;thermos-root-devel-WordCountTopology-1-0d2c0f45-ce69-4598-aa42-145ae16ccfbc;["container_1_Consume_and_count_1"];3.25;1533750949.47224;116.52;1166.72;297.414401958;10;151
33;paravance-46.rennes.grid5000.fr;thermos-root-devel-WordCountTopology-2-ad1c6bc7-2d1c-4996-b1ae-657843c0eb75;["container_2_Emit_random_words_2"];3.25;1533750949.4826;25.19;564.66;6.189665452;10;149
34;paravance-51.rennes.grid5000.fr;thermos-root-devel-WordCountTopology-0-a1631be3-ce81-4ce0-8d86-bffb3b2e2cd1;["topology_master"];3.25;1533750959.69847;4.79;11.42;0.224260609;9;117
34;paravance-48.rennes.grid5000.fr;thermos-root-devel-WordCountTopology-1-0d2c0f45-ce69-4598-aa42-145ae16ccfbc;["container_1_Consume_and_count_1"];3.25;1533750959.68795;119.33;1195.62;305.921459985;10;151
34;paravance-46.rennes.grid5000.fr;thermos-root-devel-WordCountTopology-2-ad1c6bc7-2d1c-4996-b1ae-657843c0eb75;["container_2_Emit_random_words_2"];3.25;1533750959.69839;25.59;574.47;6.189665452;10;149
35;paravance-48.rennes.grid5000.fr;thermos-root-devel-WordCountTopology-1-0d2c0f45-ce69-4598-aa42-145ae16ccfbc;["container_1_Consume_and_count_1"];3.25;1533750969.90303;122.02;1223.88;315.359777;10;151
35;paravance-51.rennes.grid5000.fr;thermos-root-devel-WordCountTopology-0-a1631be3-ce81-4ce0-8d86-bffb3b2e2cd1;["topology_master"];3.25;1533750969.9165;4.87;11.51;0.224260609;9;117
35;paravance-46.rennes.grid5000.fr;thermos-root-devel-WordCountTopology-2-ad1c6bc7-2d1c-4996-b1ae-657843c0eb75;["container_2_Emit_random_words_2"];3.25;1533750969.91506;26.28;591.21;6.189665452;10;149
36;paravance-46.rennes.grid5000.fr;thermos-root-devel-WordCountTopology-2-ad1c6bc7-2d1c-4996-b1ae-657843c0eb75;["container_2_Emit_random_words_2"];3.25;1533750980.12888;26.85;604.95;6.189665452;10;149
36;paravance-48.rennes.grid5000.fr;thermos-root-devel-WordCountTopology-1-0d2c0f45-ce69-4598-aa42-145ae16ccfbc;["container_1_Consume_and_count_1"];3.25;1533750980.11976;124.54;1253.24;325.210189393;10;151
36;paravance-51.rennes.grid5000.fr;thermos-root-devel-WordCountTopology-0-a1631be3-ce81-4ce0-8d86-bffb3b2e2cd1;["topology_master"];3.25;1533750980.1313;4.92;11.63;0.224260609;9;117
37;paravance-48.rennes.grid5000.fr;thermos-root-devel-WordCountTopology-1-0d2c0f45-ce69-4598-aa42-145ae16ccfbc;["container_1_Consume_and_count_1"];3.25;1533750990.23608;126.86;1280.05;332.390278737;10;151
37;paravance-46.rennes.grid5000.fr;thermos-root-devel-WordCountTopology-2-ad1c6bc7-2d1c-4996-b1ae-657843c0eb75;["container_2_Emit_random_words_2"];3.25;1533750990.34552;27.21;612.57;6.189665452;10;149
37;paravance-51.rennes.grid5000.fr;thermos-root-devel-WordCountTopology-0-a1631be3-ce81-4ce0-8d86-bffb3b2e2cd1;["topology_master"];3.25;1533750990.34986;5.01;11.75;0.224260609;9;117
38;paravance-48.rennes.grid5000.fr;thermos-root-devel-WordCountTopology-1-0d2c0f45-ce69-4598-aa42-145ae16ccfbc;["container_1_Consume_and_count_1"];3.25;1533751000.55498;129.6;1309.22;340.988483658;10;151
38;paravance-46.rennes.grid5000.fr;thermos-root-devel-WordCountTopology-2-ad1c6bc7-2d1c-4996-b1ae-657843c0eb75;["container_2_Emit_random_words_2"];3.25;1533751000.5639;27.76;626.15;6.189665452;10;149
38;paravance-51.rennes.grid5000.fr;thermos-root-devel-WordCountTopology-0-a1631be3-ce81-4ce0-8d86-bffb3b2e2cd1;["topology_master"];3.25;1533751000.56675;5.04;11.78;0.224260609;9;117
39;paravance-48.rennes.grid5000.fr;thermos-root-devel-WordCountTopology-1-0d2c0f45-ce69-4598-aa42-145ae16ccfbc;["container_1_Consume_and_count_1"];3.25;1533751010.7721;132.59;1338.02;348.369362002;10;151
39;paravance-51.rennes.grid5000.fr;thermos-root-devel-WordCountTopology-0-a1631be3-ce81-4ce0-8d86-bffb3b2e2cd1;["topology_master"];3.25;1533751010.7845;5.13;11.9;0.224260609;9;117
39;paravance-46.rennes.grid5000.fr;thermos-root-devel-WordCountTopology-2-ad1c6bc7-2d1c-4996-b1ae-657843c0eb75;["container_2_Emit_random_words_2"];3.25;1533751010.78247;28.35;640.43;6.189665452;10;149
40;paravance-48.rennes.grid5000.fr;thermos-root-devel-WordCountTopology-1-0d2c0f45-ce69-4598-aa42-145ae16ccfbc;["container_1_Consume_and_count_1"];3.25;1533751020.98885;135.09;1367.52;358.630620627;10;151
40;paravance-46.rennes.grid5000.fr;thermos-root-devel-WordCountTopology-2-ad1c6bc7-2d1c-4996-b1ae-657843c0eb75;["container_2_Emit_random_words_2"];3.25;1533751020.99902;29.0;658.46;6.189665452;10;149
40;paravance-51.rennes.grid5000.fr;thermos-root-devel-WordCountTopology-0-a1631be3-ce81-4ce0-8d86-bffb3b2e2cd1;["topology_master"];3.25;1533751021.00081;5.19;11.97;0.224260609;9;117
41;paravance-48.rennes.grid5000.fr;thermos-root-devel-WordCountTopology-1-0d2c0f45-ce69-4598-aa42-145ae16ccfbc;["container_1_Consume_and_count_1"];3.25;1533751031.20628;138.67;1395.58;363.767068563;10;151
41;paravance-46.rennes.grid5000.fr;thermos-root-devel-WordCountTopology-2-ad1c6bc7-2d1c-4996-b1ae-657843c0eb75;["container_2_Emit_random_words_2"];3.25;1533751031.21577;29.71;676.62;6.189665452;10;149
41;paravance-51.rennes.grid5000.fr;thermos-root-devel-WordCountTopology-0-a1631be3-ce81-4ce0-8d86-bffb3b2e2cd1;["topology_master"];3.25;1533751031.21856;5.25;12.05;0.224260609;9;117
42;paravance-46.rennes.grid5000.fr;thermos-root-devel-WordCountTopology-2-ad1c6bc7-2d1c-4996-b1ae-657843c0eb75;["container_2_Emit_random_words_2"];3.25;1533751041.43289;30.39;694.81;6.189665452;10;149
42;paravance-48.rennes.grid5000.fr;thermos-root-devel-WordCountTopology-1-0d2c0f45-ce69-4598-aa42-145ae16ccfbc;["container_1_Consume_and_count_1"];3.25;1533751041.42436;141.35;1424.67;374.321006261;10;151
42;paravance-51.rennes.grid5000.fr;thermos-root-devel-WordCountTopology-0-a1631be3-ce81-4ce0-8d86-bffb3b2e2cd1;["topology_master"];3.25;1533751041.43623;5.31;12.19;0.224260609;9;117
43;paravance-46.rennes.grid5000.fr;thermos-root-devel-WordCountTopology-2-ad1c6bc7-2d1c-4996-b1ae-657843c0eb75;["container_2_Emit_random_words_2"];3.25;1533751051.64891;30.89;706.48;6.189665452;10;149
43;paravance-48.rennes.grid5000.fr;thermos-root-devel-WordCountTopology-1-0d2c0f45-ce69-4598-aa42-145ae16ccfbc;["container_1_Consume_and_count_1"];3.25;1533751051.64123;143.67;1453.28;382.59562809;10;151
43;paravance-51.rennes.grid5000.fr;thermos-root-devel-WordCountTopology-0-a1631be3-ce81-4ce0-8d86-bffb3b2e2cd1;["topology_master"];3.25;1533751051.65289;5.4;12.31;0.224260609;9;117
44;paravance-46.rennes.grid5000.fr;thermos-root-devel-WordCountTopology-2-ad1c6bc7-2d1c-4996-b1ae-657843c0eb75;["container_2_Emit_random_words_2"];3.25;1533751061.86679;31.31;716.58;6.189665452;10;149
44;paravance-51.rennes.grid5000.fr;thermos-root-devel-WordCountTopology-0-a1631be3-ce81-4ce0-8d86-bffb3b2e2cd1;["topology_master"];3.25;1533751061.86992;5.43;12.35;0.224260609;9;117
44;paravance-48.rennes.grid5000.fr;thermos-root-devel-WordCountTopology-1-0d2c0f45-ce69-4598-aa42-145ae16ccfbc;["container_1_Consume_and_count_1"];3.25;1533751061.85903;146.21;1482.5;391.404092238;10;151
45;paravance-48.rennes.grid5000.fr;thermos-root-devel-WordCountTopology-1-0d2c0f45-ce69-4598-aa42-145ae16ccfbc;["container_1_Consume_and_count_1"];3.25;1533751072.07666;149.11;1511.23;398.227685651;10;151
45;paravance-51.rennes.grid5000.fr;thermos-root-devel-WordCountTopology-0-a1631be3-ce81-4ce0-8d86-bffb3b2e2cd1;["topology_master"];3.25;1533751072.08758;5.52;12.47;0.224260609;9;117
45;paravance-46.rennes.grid5000.fr;thermos-root-devel-WordCountTopology-2-ad1c6bc7-2d1c-4996-b1ae-657843c0eb75;["container_2_Emit_random_words_2"];3.25;1533751072.08604;31.95;731.71;6.189665452;10;149
46;paravance-48.rennes.grid5000.fr;thermos-root-devel-WordCountTopology-1-0d2c0f45-ce69-4598-aa42-145ae16ccfbc;["container_1_Consume_and_count_1"];3.25;1533751082.29183;151.88;1540.16;407.503550097;10;151
46;paravance-46.rennes.grid5000.fr;thermos-root-devel-WordCountTopology-2-ad1c6bc7-2d1c-4996-b1ae-657843c0eb75;["container_2_Emit_random_words_2"];3.25;1533751082.30226;32.59;747.64;6.189665452;10;149
46;paravance-51.rennes.grid5000.fr;thermos-root-devel-WordCountTopology-0-a1631be3-ce81-4ce0-8d86-bffb3b2e2cd1;["topology_master"];3.25;1533751082.30769;5.58;12.55;0.224260609;9;117
47;paravance-46.rennes.grid5000.fr;thermos-root-devel-WordCountTopology-2-ad1c6bc7-2d1c-4996-b1ae-657843c0eb75;["container_2_Emit_random_words_2"];3.25;1533751092.5198;33.18;761.92;6.189665452;10;149
47;paravance-48.rennes.grid5000.fr;thermos-root-devel-WordCountTopology-1-0d2c0f45-ce69-4598-aa42-145ae16ccfbc;["container_1_Consume_and_count_1"];3.25;1533751092.50859;154.83;1567.82;412.283762268;10;151
47;paravance-51.rennes.grid5000.fr;thermos-root-devel-WordCountTopology-0-a1631be3-ce81-4ce0-8d86-bffb3b2e2cd1;["topology_master"];3.25;1533751092.52126;5.65;12.63;0.224260609;9;117
48;paravance-46.rennes.grid5000.fr;thermos-root-devel-WordCountTopology-2-ad1c6bc7-2d1c-4996-b1ae-657843c0eb75;["container_2_Emit_random_words_2"];3.25;1533751102.63603;33.87;780.1;6.189665452;10;149
48;paravance-48.rennes.grid5000.fr;thermos-root-devel-WordCountTopology-1-0d2c0f45-ce69-4598-aa42-145ae16ccfbc;["container_1_Consume_and_count_1"];3.25;1533751102.72627;158.32;1596.08;417.825483779;10;151
48;paravance-51.rennes.grid5000.fr;thermos-root-devel-WordCountTopology-0-a1631be3-ce81-4ce0-8d86-bffb3b2e2cd1;["topology_master"];3.25;1533751102.73832;5.71;12.75;0.224260609;9;117
49;paravance-51.rennes.grid5000.fr;thermos-root-devel-WordCountTopology-0-a1631be3-ce81-4ce0-8d86-bffb3b2e2cd1;["topology_master"];3.25;1533751112.85516;5.79;12.87;0.224260609;9;117
49;paravance-46.rennes.grid5000.fr;thermos-root-devel-WordCountTopology-2-ad1c6bc7-2d1c-4996-b1ae-657843c0eb75;["container_2_Emit_random_words_2"];3.25;1533751112.9527;34.43;792.8;6.189665452;10;149
49;paravance-48.rennes.grid5000.fr;thermos-root-devel-WordCountTopology-1-0d2c0f45-ce69-4598-aa42-145ae16ccfbc;["container_1_Consume_and_count_1"];3.25;1533751112.94389;160.78;1625.45;426.897398057;10;151
50;paravance-48.rennes.grid5000.fr;thermos-root-devel-WordCountTopology-1-0d2c0f45-ce69-4598-aa42-145ae16ccfbc;["container_1_Consume_and_count_1"];3.25;1533751123.1607;164.01;1654.02;433.084116435;10;151
50;paravance-46.rennes.grid5000.fr;thermos-root-devel-WordCountTopology-2-ad1c6bc7-2d1c-4996-b1ae-657843c0eb75;["container_2_Emit_random_words_2"];3.25;1533751123.16968;35.1;811.07;6.189665452;10;149
50;paravance-51.rennes.grid5000.fr;thermos-root-devel-WordCountTopology-0-a1631be3-ce81-4ce0-8d86-bffb3b2e2cd1;["topology_master"];3.25;1533751123.17186;5.82;12.92;0.224260609;9;117
51;paravance-48.rennes.grid5000.fr;thermos-root-devel-WordCountTopology-1-0d2c0f45-ce69-4598-aa42-145ae16ccfbc;["container_1_Consume_and_count_1"];3.25;1533751133.37578;167.07;1682.69;440.784644335;10;151
51;paravance-51.rennes.grid5000.fr;thermos-root-devel-WordCountTopology-0-a1631be3-ce81-4ce0-8d86-bffb3b2e2cd1;["topology_master"];3.25;1533751133.38775;5.91;13.05;0.224260609;9;117
51;paravance-46.rennes.grid5000.fr;thermos-root-devel-WordCountTopology-2-ad1c6bc7-2d1c-4996-b1ae-657843c0eb75;["container_2_Emit_random_words_2"];3.25;1533751133.38432;35.83;829.39;6.189665452;10;149
52;paravance-46.rennes.grid5000.fr;thermos-root-devel-WordCountTopology-2-ad1c6bc7-2d1c-4996-b1ae-657843c0eb75;["container_2_Emit_random_words_2"];3.25;1533751143.60165;36.47;845.7;6.189665452;10;149
52;paravance-51.rennes.grid5000.fr;thermos-root-devel-WordCountTopology-0-a1631be3-ce81-4ce0-8d86-bffb3b2e2cd1;["topology_master"];3.25;1533751143.60437;5.97;13.12;0.224260609;9;117
52;paravance-48.rennes.grid5000.fr;thermos-root-devel-WordCountTopology-1-0d2c0f45-ce69-4598-aa42-145ae16ccfbc;["container_1_Consume_and_count_1"];3.25;1533751143.59351;169.78;1710.16;446.840833815;10;151
53;paravance-46.rennes.grid5000.fr;thermos-root-devel-WordCountTopology-2-ad1c6bc7-2d1c-4996-b1ae-657843c0eb75;["container_2_Emit_random_words_2"];3.25;1533751153.81878;37.01;858.93;6.189665452;10;149
53;paravance-51.rennes.grid5000.fr;thermos-root-devel-WordCountTopology-0-a1631be3-ce81-4ce0-8d86-bffb3b2e2cd1;["topology_master"];3.25;1533751153.82161;6.04;13.23;0.224260609;9;117
53;paravance-48.rennes.grid5000.fr;thermos-root-devel-WordCountTopology-1-0d2c0f45-ce69-4598-aa42-145ae16ccfbc;["container_1_Consume_and_count_1"];3.25;1533751153.811;172.88;1738.54;453.882080276;10;151
54;paravance-48.rennes.grid5000.fr;thermos-root-devel-WordCountTopology-1-0d2c0f45-ce69-4598-aa42-145ae16ccfbc;["container_1_Consume_and_count_1"];3.25;1533751164.02591;175.36;1768.05;463.957921014;10;151
54;paravance-46.rennes.grid5000.fr;thermos-root-devel-WordCountTopology-2-ad1c6bc7-2d1c-4996-b1ae-657843c0eb75;["container_2_Emit_random_words_2"];3.25;1533751164.03583;37.73;877.21;6.189665452;10;149
54;paravance-51.rennes.grid5000.fr;thermos-root-devel-WordCountTopology-0-a1631be3-ce81-4ce0-8d86-bffb3b2e2cd1;["topology_master"];3.25;1533751164.03762;6.1;13.3;0.224260609;9;117
55;paravance-48.rennes.grid5000.fr;thermos-root-devel-WordCountTopology-1-0d2c0f45-ce69-4598-aa42-145ae16ccfbc;["container_1_Consume_and_count_1"];3.25;1533751174.24269;177.86;1797.46;473.355722204;10;151
55;paravance-46.rennes.grid5000.fr;thermos-root-devel-WordCountTopology-2-ad1c6bc7-2d1c-4996-b1ae-657843c0eb75;["container_2_Emit_random_words_2"];3.25;1533751174.25228;38.46;895.56;6.189665452;10;149
55;paravance-51.rennes.grid5000.fr;thermos-root-devel-WordCountTopology-0-a1631be3-ce81-4ce0-8d86-bffb3b2e2cd1;["topology_master"];3.25;1533751174.25474;6.19;13.43;0.224260609;9;117
56;paravance-46.rennes.grid5000.fr;thermos-root-devel-WordCountTopology-2-ad1c6bc7-2d1c-4996-b1ae-657843c0eb75;["container_2_Emit_random_words_2"];3.25;1533751184.46993;39.15;913.82;6.189665452;10;149
56;paravance-48.rennes.grid5000.fr;thermos-root-devel-WordCountTopology-1-0d2c0f45-ce69-4598-aa42-145ae16ccfbc;["container_1_Consume_and_count_1"];3.25;1533751184.46206;181.03;1825.99;479.478264923;10;151
56;paravance-51.rennes.grid5000.fr;thermos-root-devel-WordCountTopology-0-a1631be3-ce81-4ce0-8d86-bffb3b2e2cd1;["topology_master"];3.25;1533751184.47212;6.22;13.45;0.224260609;9;117
57;paravance-46.rennes.grid5000.fr;thermos-root-devel-WordCountTopology-2-ad1c6bc7-2d1c-4996-b1ae-657843c0eb75;["container_2_Emit_random_words_2"];3.25;1533751194.58846;39.87;931.87;6.189665452;10;149
57;paravance-51.rennes.grid5000.fr;thermos-root-devel-WordCountTopology-0-a1631be3-ce81-4ce0-8d86-bffb3b2e2cd1;["topology_master"];3.25;1533751194.69077;6.31;13.57;0.224260609;9;117
57;paravance-48.rennes.grid5000.fr;thermos-root-devel-WordCountTopology-1-0d2c0f45-ce69-4598-aa42-145ae16ccfbc;["container_1_Consume_and_count_1"];3.25;1533751194.67932;184.13;1854.65;486.483329724;10;151
58;paravance-48.rennes.grid5000.fr;thermos-root-devel-WordCountTopology-1-0d2c0f45-ce69-4598-aa42-145ae16ccfbc;["container_1_Consume_and_count_1"];3.25;1533751204.89324;187.17;1883.0;493.688195058;10;151
58;paravance-46.rennes.grid5000.fr;thermos-root-devel-WordCountTopology-2-ad1c6bc7-2d1c-4996-b1ae-657843c0eb75;["container_2_Emit_random_words_2"];3.25;1533751204.90135;40.55;950.26;6.189665452;10;149
58;paravance-51.rennes.grid5000.fr;thermos-root-devel-WordCountTopology-0-a1631be3-ce81-4ce0-8d86-bffb3b2e2cd1;["topology_master"];3.25;1533751204.90388;6.37;13.65;0.224260609;9;117
59;paravance-48.rennes.grid5000.fr;thermos-root-devel-WordCountTopology-1-0d2c0f45-ce69-4598-aa42-145ae16ccfbc;["container_1_Consume_and_count_1"];3.25;1533751215.10868;189.74;1911.23;501.676746386;10;151
59;paravance-51.rennes.grid5000.fr;thermos-root-devel-WordCountTopology-0-a1631be3-ce81-4ce0-8d86-bffb3b2e2cd1;["topology_master"];3.25;1533751215.12116;6.44;13.76;0.224260609;9;117
59;paravance-46.rennes.grid5000.fr;thermos-root-devel-WordCountTopology-2-ad1c6bc7-2d1c-4996-b1ae-657843c0eb75;["container_2_Emit_random_words_2"];3.25;1533751215.11903;41.06;961.93;6.189665452;10;149
60;paravance-51.rennes.grid5000.fr;thermos-root-devel-WordCountTopology-0-a1631be3-ce81-4ce0-8d86-bffb3b2e2cd1;["topology_master"];3.25;1533751225.33485;6.5;13.83;0.224260609;9;117
60;paravance-48.rennes.grid5000.fr;thermos-root-devel-WordCountTopology-1-0d2c0f45-ce69-4598-aa42-145ae16ccfbc;["container_1_Consume_and_count_1"];3.25;1533751225.32323;192.48;1940.31;509.619931529;10;151
60;paravance-46.rennes.grid5000.fr;thermos-root-devel-WordCountTopology-2-ad1c6bc7-2d1c-4996-b1ae-657843c0eb75;["container_2_Emit_random_words_2"];3.25;1533751225.33316;41.74;979.45;6.189665452;10;149
