{
  "status": "success",
  "executiontime": 0.0001800060272216797,
  "message": "",
  "result": {
    "bolts": {
      "Consume_and_count": [
        "container_1_Consume_and_count_1"
      ]
    },
    "instances": {
      "container_2_Emit_random_words_2": {
        "stmgrId": "stmgr-2",
        "logfile": "http://paravance-47.rennes.grid5000.fr:31702/file/log-files/container_2_Emit_random_words_2.log.0",
        "id": "container_2_Emit_random_words_2",
        "name": "Emit_random_words"
      },
      "container_1_Consume_and_count_1": {
        "stmgrId": "stmgr-1",
        "logfile": "http://paravance-46.rennes.grid5000.fr:31388/file/log-files/container_1_Consume_and_count_1.log.0",
        "id": "container_1_Consume_and_count_1",
        "name": "Consume_and_count"
      }
    },
    "instance_groups": {
      "container_1_Consume_and": [
        "container_1_Consume_and_count_1"
      ],
      "container_2_Emit_random": [
        "container_2_Emit_random_words_2"
      ]
    },
    "spouts": {
      "Emit_random_words": [
        "container_2_Emit_random_words_2"
      ]
    },
    "config": {
      "topology.message.timeout.secs": "30",
      "topology.team.environment": "devel",
      "topology.serializer.classname": "org.apache.heron.streamlet.impl.KryoSerializer",
      "topology.team.name": "root",
      "topology.debug": "false",
      "topology.max.spout.pending": "100",
      "topology.container.padding.percentage": "200",
      "topology.enable.message.timeouts": "true",
      "topology.component.parallelism": "1",
      "topology.name": "WordCountTopology",
      "topology.stmgrs": "2",
      "topology.reliability.mode": "ATMOST_ONCE"
    },
    "stmgrs": {
      "stmgr-1": {
        "cwd": "/var/lib/mesos/slaves/ff4199fd-a3f9-478c-a529-5c52afb0751f-S0/frameworks/75deb08a-eb1b-415c-8b2c-e922be5f7d98-0000/executors/thermos-root-devel-WordCountTopology-1-8d996d25-bf9e-4504-842c-95067e12b500/runs/6218c326-2afd-432a-86bd-491014e61178/sandbox",
        "host": "paravance-46.rennes.grid5000.fr",
        "joburl": "http://paravance-46.rennes.grid5000.fr:31388/browse/",
        "shell_port": 31388,
        "logfiles": "http://paravance-46.rennes.grid5000.fr:31388/browse/log-files",
        "pid": 2856,
        "id": "stmgr-1",
        "instance_ids": [
          "container_1_Consume_and_count_1"
        ],
        "port": 31813
      },
      "stmgr-2": {
        "cwd": "/var/lib/mesos/slaves/ff4199fd-a3f9-478c-a529-5c52afb0751f-S2/frameworks/75deb08a-eb1b-415c-8b2c-e922be5f7d98-0000/executors/thermos-root-devel-WordCountTopology-2-07ee98db-fb34-4267-8d68-4bf538a73f53/runs/f9215285-4d99-4c97-bad2-6a40be6f7a85/sandbox",
        "host": "paravance-47.rennes.grid5000.fr",
        "joburl": "http://paravance-47.rennes.grid5000.fr:31702/browse/",
        "shell_port": 31702,
        "logfiles": "http://paravance-47.rennes.grid5000.fr:31702/browse/log-files",
        "pid": 2851,
        "id": "stmgr-2",
        "instance_ids": [
          "container_2_Emit_random_words_2"
        ],
        "port": 31540
      }
    }
  },
  "tracker_version": "0.17.8-61-gd7c8c62"
}