mesure_id;slave_id;executor_id;heron_instances;cpus_limit;timestamp_A;cpus_system_time_secs_A;cpus_user_time_secs_A;cpus_throttled_time_secs_A;processes;threads
0;paravance-12.rennes.grid5000.fr;thermos-root-devel-WordCountTopology-0-67a17281-1218-4922-bd1b-603198bb114c;["topology_master"];3.25;1533811631.73265;2.46;7.97;0.204564997;9;117
0;paravance-13.rennes.grid5000.fr;thermos-root-devel-WordCountTopology-1-3b71f8e1-0847-4c48-b924-3d059aea82b6;["container_1_Consume_and_count_1"];3.25;1533811631.72752;32.17;271.2;104.627646003;10;151
0;paravance-10.rennes.grid5000.fr;thermos-root-devel-WordCountTopology-2-24950a54-1366-42e6-85a2-3055a86d4366;["container_2_Emit_random_words_2"];3.25;1533811631.72697;12.64;128.7;5.35431493;10;149
1;paravance-13.rennes.grid5000.fr;thermos-root-devel-WordCountTopology-1-3b71f8e1-0847-4c48-b924-3d059aea82b6;["container_1_Consume_and_count_1"];3.25;1533811641.9445;35.19;298.61;113.305386017;10;151
1;paravance-10.rennes.grid5000.fr;thermos-root-devel-WordCountTopology-2-24950a54-1366-42e6-85a2-3055a86d4366;["container_2_Emit_random_words_2"];3.25;1533811641.9424;13.53;138.9;5.35431493;10;149
1;paravance-12.rennes.grid5000.fr;thermos-root-devel-WordCountTopology-0-67a17281-1218-4922-bd1b-603198bb114c;["topology_master"];3.25;1533811641.95024;2.52;8.11;0.204564997;9;117
2;paravance-13.rennes.grid5000.fr;thermos-root-devel-WordCountTopology-1-3b71f8e1-0847-4c48-b924-3d059aea82b6;["container_1_Consume_and_count_1"];3.25;1533811652.16013;38.16;326.76;123.933289104;10;151
2;paravance-12.rennes.grid5000.fr;thermos-root-devel-WordCountTopology-0-67a17281-1218-4922-bd1b-603198bb114c;["topology_master"];3.25;1533811652.16554;2.61;8.24;0.204564997;9;117
2;paravance-10.rennes.grid5000.fr;thermos-root-devel-WordCountTopology-2-24950a54-1366-42e6-85a2-3055a86d4366;["container_2_Emit_random_words_2"];3.25;1533811652.15896;14.55;149.94;5.35431493;10;149
3;paravance-13.rennes.grid5000.fr;thermos-root-devel-WordCountTopology-1-3b71f8e1-0847-4c48-b924-3d059aea82b6;["container_1_Consume_and_count_1"];3.25;1533811662.37897;41.18;354.37;133.607410821;10;151
3;paravance-12.rennes.grid5000.fr;thermos-root-devel-WordCountTopology-0-67a17281-1218-4922-bd1b-603198bb114c;["topology_master"];3.25;1533811662.38415;2.66;8.32;0.204564997;9;117
3;paravance-10.rennes.grid5000.fr;thermos-root-devel-WordCountTopology-2-24950a54-1366-42e6-85a2-3055a86d4366;["container_2_Emit_random_words_2"];3.25;1533811662.37609;15.66;162.72;5.35431493;10;149
4;paravance-13.rennes.grid5000.fr;thermos-root-devel-WordCountTopology-1-3b71f8e1-0847-4c48-b924-3d059aea82b6;["container_1_Consume_and_count_1"];3.25;1533811672.59702;44.31;383.1;144.831208429;10;151
4;paravance-10.rennes.grid5000.fr;thermos-root-devel-WordCountTopology-2-24950a54-1366-42e6-85a2-3055a86d4366;["container_2_Emit_random_words_2"];3.25;1533811672.59457;16.73;174.79;5.35431493;10;149
4;paravance-12.rennes.grid5000.fr;thermos-root-devel-WordCountTopology-0-67a17281-1218-4922-bd1b-603198bb114c;["topology_master"];3.25;1533811672.60192;2.74;8.42;0.204564997;9;117
5;paravance-13.rennes.grid5000.fr;thermos-root-devel-WordCountTopology-1-3b71f8e1-0847-4c48-b924-3d059aea82b6;["container_1_Consume_and_count_1"];3.25;1533811682.81423;47.31;410.77;154.150269804;10;151
5;paravance-12.rennes.grid5000.fr;thermos-root-devel-WordCountTopology-0-67a17281-1218-4922-bd1b-603198bb114c;["topology_master"];3.25;1533811682.82013;2.8;8.5;0.204564997;9;117
5;paravance-10.rennes.grid5000.fr;thermos-root-devel-WordCountTopology-2-24950a54-1366-42e6-85a2-3055a86d4366;["container_2_Emit_random_words_2"];3.25;1533811682.81235;17.77;186.78;5.35431493;10;149
6;paravance-10.rennes.grid5000.fr;thermos-root-devel-WordCountTopology-2-24950a54-1366-42e6-85a2-3055a86d4366;["container_2_Emit_random_words_2"];3.25;1533811692.92882;18.76;197.02;5.35431493;10;149
6;paravance-12.rennes.grid5000.fr;thermos-root-devel-WordCountTopology-0-67a17281-1218-4922-bd1b-603198bb114c;["topology_master"];3.25;1533811693.03597;2.93;8.7;0.204564997;9;117
6;paravance-13.rennes.grid5000.fr;thermos-root-devel-WordCountTopology-1-3b71f8e1-0847-4c48-b924-3d059aea82b6;["container_1_Consume_and_count_1"];3.25;1533811693.03032;50.28;439.6;165.050702614;10;151
7;paravance-10.rennes.grid5000.fr;thermos-root-devel-WordCountTopology-2-24950a54-1366-42e6-85a2-3055a86d4366;["container_2_Emit_random_words_2"];3.25;1533811703.14455;19.65;206.93;5.35431493;10;149
7;paravance-13.rennes.grid5000.fr;thermos-root-devel-WordCountTopology-1-3b71f8e1-0847-4c48-b924-3d059aea82b6;["container_1_Consume_and_count_1"];3.25;1533811703.24511;53.03;465.91;174.026460356;10;151
7;paravance-12.rennes.grid5000.fr;thermos-root-devel-WordCountTopology-0-67a17281-1218-4922-bd1b-603198bb114c;["topology_master"];3.25;1533811703.25183;2.96;8.73;0.204564997;9;117
8;paravance-10.rennes.grid5000.fr;thermos-root-devel-WordCountTopology-2-24950a54-1366-42e6-85a2-3055a86d4366;["container_2_Emit_random_words_2"];3.25;1533811713.36005;21.02;222.27;5.35431493;10;149
8;paravance-12.rennes.grid5000.fr;thermos-root-devel-WordCountTopology-0-67a17281-1218-4922-bd1b-603198bb114c;["topology_master"];3.25;1533811713.46841;3.05;8.87;0.204564997;9;117
8;paravance-13.rennes.grid5000.fr;thermos-root-devel-WordCountTopology-1-3b71f8e1-0847-4c48-b924-3d059aea82b6;["container_1_Consume_and_count_1"];3.25;1533811713.46438;56.43;494.51;185.55155123;10;151
9;paravance-10.rennes.grid5000.fr;thermos-root-devel-WordCountTopology-2-24950a54-1366-42e6-85a2-3055a86d4366;["container_2_Emit_random_words_2"];3.25;1533811723.57905;21.89;231.85;5.35431493;10;149
9;paravance-13.rennes.grid5000.fr;thermos-root-devel-WordCountTopology-1-3b71f8e1-0847-4c48-b924-3d059aea82b6;["container_1_Consume_and_count_1"];3.25;1533811723.68055;59.05;521.62;195.849801555;10;151
9;paravance-12.rennes.grid5000.fr;thermos-root-devel-WordCountTopology-0-67a17281-1218-4922-bd1b-603198bb114c;["topology_master"];3.25;1533811723.68522;3.1;8.94;0.204564997;9;117
10;paravance-12.rennes.grid5000.fr;thermos-root-devel-WordCountTopology-0-67a17281-1218-4922-bd1b-603198bb114c;["topology_master"];3.25;1533811733.80134;3.17;9.01;0.204564997;9;117
10;paravance-13.rennes.grid5000.fr;thermos-root-devel-WordCountTopology-1-3b71f8e1-0847-4c48-b924-3d059aea82b6;["container_1_Consume_and_count_1"];3.25;1533811733.897;61.68;548.05;204.321098676;10;151
10;paravance-10.rennes.grid5000.fr;thermos-root-devel-WordCountTopology-2-24950a54-1366-42e6-85a2-3055a86d4366;["container_2_Emit_random_words_2"];3.25;1533811733.89281;22.68;240.24;5.35431493;10;149
11;paravance-13.rennes.grid5000.fr;thermos-root-devel-WordCountTopology-1-3b71f8e1-0847-4c48-b924-3d059aea82b6;["container_1_Consume_and_count_1"];3.25;1533811744.11276;64.41;576.14;214.705557931;10;151
11;paravance-10.rennes.grid5000.fr;thermos-root-devel-WordCountTopology-2-24950a54-1366-42e6-85a2-3055a86d4366;["container_2_Emit_random_words_2"];3.25;1533811744.11085;23.62;250.64;5.35431493;10;149
11;paravance-12.rennes.grid5000.fr;thermos-root-devel-WordCountTopology-0-67a17281-1218-4922-bd1b-603198bb114c;["topology_master"];3.25;1533811744.11889;3.22;9.09;0.204564997;9;117
12;paravance-10.rennes.grid5000.fr;thermos-root-devel-WordCountTopology-2-24950a54-1366-42e6-85a2-3055a86d4366;["container_2_Emit_random_words_2"];3.25;1533811754.32846;24.7;262.78;5.35431493;10;149
12;paravance-12.rennes.grid5000.fr;thermos-root-devel-WordCountTopology-0-67a17281-1218-4922-bd1b-603198bb114c;["topology_master"];3.25;1533811754.33746;3.35;9.41;0.204564997;9;117
12;paravance-13.rennes.grid5000.fr;thermos-root-devel-WordCountTopology-1-3b71f8e1-0847-4c48-b924-3d059aea82b6;["container_1_Consume_and_count_1"];3.25;1533811754.3318;67.31;604.49;227.411010805;10;151
13;paravance-13.rennes.grid5000.fr;thermos-root-devel-WordCountTopology-1-3b71f8e1-0847-4c48-b924-3d059aea82b6;["container_1_Consume_and_count_1"];3.25;1533811764.54886;70.45;631.71;236.133237593;10;151
13;paravance-10.rennes.grid5000.fr;thermos-root-devel-WordCountTopology-2-24950a54-1366-42e6-85a2-3055a86d4366;["container_2_Emit_random_words_2"];3.25;1533811764.54674;25.74;275.13;5.35431493;10;149
13;paravance-12.rennes.grid5000.fr;thermos-root-devel-WordCountTopology-0-67a17281-1218-4922-bd1b-603198bb114c;["topology_master"];3.25;1533811764.5531;3.38;9.43;0.204564997;9;117
14;paravance-13.rennes.grid5000.fr;thermos-root-devel-WordCountTopology-1-3b71f8e1-0847-4c48-b924-3d059aea82b6;["container_1_Consume_and_count_1"];3.25;1533811774.66859;73.95;659.79;247.943534196;10;151
14;paravance-10.rennes.grid5000.fr;thermos-root-devel-WordCountTopology-2-24950a54-1366-42e6-85a2-3055a86d4366;["container_2_Emit_random_words_2"];3.25;1533811774.76604;27.05;290.0;5.35431493;10;149
14;paravance-12.rennes.grid5000.fr;thermos-root-devel-WordCountTopology-0-67a17281-1218-4922-bd1b-603198bb114c;["topology_master"];3.25;1533811774.77338;3.47;9.59;0.204564997;9;117
15;paravance-10.rennes.grid5000.fr;thermos-root-devel-WordCountTopology-2-24950a54-1366-42e6-85a2-3055a86d4366;["container_2_Emit_random_words_2"];3.25;1533811784.9815;28.1;302.01;5.35431493;10;149
15;paravance-13.rennes.grid5000.fr;thermos-root-devel-WordCountTopology-1-3b71f8e1-0847-4c48-b924-3d059aea82b6;["container_1_Consume_and_count_1"];3.25;1533811784.9857;77.29;687.83;257.734626144;10;151
15;paravance-12.rennes.grid5000.fr;thermos-root-devel-WordCountTopology-0-67a17281-1218-4922-bd1b-603198bb114c;["topology_master"];3.25;1533811784.9904;3.53;9.66;0.204564997;9;117
16;paravance-10.rennes.grid5000.fr;thermos-root-devel-WordCountTopology-2-24950a54-1366-42e6-85a2-3055a86d4366;["container_2_Emit_random_words_2"];3.25;1533811795.19941;29.27;315.69;5.35431493;10;149
16;paravance-12.rennes.grid5000.fr;thermos-root-devel-WordCountTopology-0-67a17281-1218-4922-bd1b-603198bb114c;["topology_master"];3.25;1533811795.20806;3.59;9.76;0.204564997;9;117
16;paravance-13.rennes.grid5000.fr;thermos-root-devel-WordCountTopology-1-3b71f8e1-0847-4c48-b924-3d059aea82b6;["container_1_Consume_and_count_1"];3.25;1533811795.20388;80.71;716.39;269.258719506;10;151
17;paravance-13.rennes.grid5000.fr;thermos-root-devel-WordCountTopology-1-3b71f8e1-0847-4c48-b924-3d059aea82b6;["container_1_Consume_and_count_1"];3.25;1533811805.42524;83.34;743.74;278.747468044;10;151
17;paravance-12.rennes.grid5000.fr;thermos-root-devel-WordCountTopology-0-67a17281-1218-4922-bd1b-603198bb114c;["topology_master"];3.25;1533811805.42882;3.64;9.83;0.204564997;9;117
17;paravance-10.rennes.grid5000.fr;thermos-root-devel-WordCountTopology-2-24950a54-1366-42e6-85a2-3055a86d4366;["container_2_Emit_random_words_2"];3.25;1533811805.4221;30.14;325.46;5.35431493;10;149
18;paravance-12.rennes.grid5000.fr;thermos-root-devel-WordCountTopology-0-67a17281-1218-4922-bd1b-603198bb114c;["topology_master"];3.25;1533811815.54838;3.76;10.04;0.204564997;9;117
18;paravance-13.rennes.grid5000.fr;thermos-root-devel-WordCountTopology-1-3b71f8e1-0847-4c48-b924-3d059aea82b6;["container_1_Consume_and_count_1"];3.25;1533811815.64328;86.61;771.59;289.066616521;10;151
18;paravance-10.rennes.grid5000.fr;thermos-root-devel-WordCountTopology-2-24950a54-1366-42e6-85a2-3055a86d4366;["container_2_Emit_random_words_2"];3.25;1533811815.64068;31.36;338.95;5.35431493;10;149
19;paravance-13.rennes.grid5000.fr;thermos-root-devel-WordCountTopology-1-3b71f8e1-0847-4c48-b924-3d059aea82b6;["container_1_Consume_and_count_1"];3.25;1533811825.85747;90.18;796.69;294.474822132;10;151
19;paravance-10.rennes.grid5000.fr;thermos-root-devel-WordCountTopology-2-24950a54-1366-42e6-85a2-3055a86d4366;["container_2_Emit_random_words_2"];3.25;1533811825.85592;32.62;355.61;5.35431493;10;149
19;paravance-12.rennes.grid5000.fr;thermos-root-devel-WordCountTopology-0-67a17281-1218-4922-bd1b-603198bb114c;["topology_master"];3.25;1533811825.86437;3.79;10.07;0.204564997;9;117
20;paravance-10.rennes.grid5000.fr;thermos-root-devel-WordCountTopology-2-24950a54-1366-42e6-85a2-3055a86d4366;["container_2_Emit_random_words_2"];3.25;1533811836.07195;33.92;371.63;5.35431493;10;149
20;paravance-13.rennes.grid5000.fr;thermos-root-devel-WordCountTopology-1-3b71f8e1-0847-4c48-b924-3d059aea82b6;["container_1_Consume_and_count_1"];3.25;1533811836.07818;94.48;823.77;302.504909963;10;151
20;paravance-12.rennes.grid5000.fr;thermos-root-devel-WordCountTopology-0-67a17281-1218-4922-bd1b-603198bb114c;["topology_master"];3.25;1533811836.08197;3.88;10.2;0.204564997;9;117
21;paravance-10.rennes.grid5000.fr;thermos-root-devel-WordCountTopology-2-24950a54-1366-42e6-85a2-3055a86d4366;["container_2_Emit_random_words_2"];3.25;1533811846.29021;35.41;390.51;5.35431493;10;149
21;paravance-13.rennes.grid5000.fr;thermos-root-devel-WordCountTopology-1-3b71f8e1-0847-4c48-b924-3d059aea82b6;["container_1_Consume_and_count_1"];3.25;1533811846.29494;98.95;849.35;306.325057122;10;151
21;paravance-12.rennes.grid5000.fr;thermos-root-devel-WordCountTopology-0-67a17281-1218-4922-bd1b-603198bb114c;["topology_master"];3.25;1533811846.29968;3.93;10.27;0.204564997;9;117
22;paravance-13.rennes.grid5000.fr;thermos-root-devel-WordCountTopology-1-3b71f8e1-0847-4c48-b924-3d059aea82b6;["container_1_Consume_and_count_1"];3.25;1533811856.5107;103.57;873.23;306.535824507;10;151
22;paravance-12.rennes.grid5000.fr;thermos-root-devel-WordCountTopology-0-67a17281-1218-4922-bd1b-603198bb114c;["topology_master"];3.25;1533811856.51663;3.99;10.34;0.204564997;9;117
22;paravance-10.rennes.grid5000.fr;thermos-root-devel-WordCountTopology-2-24950a54-1366-42e6-85a2-3055a86d4366;["container_2_Emit_random_words_2"];3.25;1533811856.50795;36.84;409.07;5.35431493;10;149
23;paravance-10.rennes.grid5000.fr;thermos-root-devel-WordCountTopology-2-24950a54-1366-42e6-85a2-3055a86d4366;["container_2_Emit_random_words_2"];3.25;1533811866.72574;38.24;427.59;5.35431493;10;149
23;paravance-13.rennes.grid5000.fr;thermos-root-devel-WordCountTopology-1-3b71f8e1-0847-4c48-b924-3d059aea82b6;["container_1_Consume_and_count_1"];3.25;1533811866.73007;108.11;896.35;306.577848563;10;151
23;paravance-12.rennes.grid5000.fr;thermos-root-devel-WordCountTopology-0-67a17281-1218-4922-bd1b-603198bb114c;["topology_master"];3.25;1533811866.7348;4.05;10.41;0.204564997;9;117
24;paravance-13.rennes.grid5000.fr;thermos-root-devel-WordCountTopology-1-3b71f8e1-0847-4c48-b924-3d059aea82b6;["container_1_Consume_and_count_1"];3.25;1533811876.9478;112.8;920.41;307.373094124;10;151
24;paravance-12.rennes.grid5000.fr;thermos-root-devel-WordCountTopology-0-67a17281-1218-4922-bd1b-603198bb114c;["topology_master"];3.25;1533811876.95202;4.16;10.58;0.204564997;9;117
24;paravance-10.rennes.grid5000.fr;thermos-root-devel-WordCountTopology-2-24950a54-1366-42e6-85a2-3055a86d4366;["container_2_Emit_random_words_2"];3.25;1533811876.94444;39.7;446.11;5.35431493;10;149
25;paravance-10.rennes.grid5000.fr;thermos-root-devel-WordCountTopology-2-24950a54-1366-42e6-85a2-3055a86d4366;["container_2_Emit_random_words_2"];3.25;1533811887.15959;41.11;464.72;5.35431493;10;149
25;paravance-13.rennes.grid5000.fr;thermos-root-devel-WordCountTopology-1-3b71f8e1-0847-4c48-b924-3d059aea82b6;["container_1_Consume_and_count_1"];3.25;1533811887.16293;117.35;943.95;307.500696696;10;151
25;paravance-12.rennes.grid5000.fr;thermos-root-devel-WordCountTopology-0-67a17281-1218-4922-bd1b-603198bb114c;["topology_master"];3.25;1533811887.16877;4.18;10.61;0.204564997;9;117
26;paravance-12.rennes.grid5000.fr;thermos-root-devel-WordCountTopology-0-67a17281-1218-4922-bd1b-603198bb114c;["topology_master"];3.25;1533811897.28609;4.28;10.73;0.204564997;9;117
26;paravance-10.rennes.grid5000.fr;thermos-root-devel-WordCountTopology-2-24950a54-1366-42e6-85a2-3055a86d4366;["container_2_Emit_random_words_2"];3.25;1533811897.37709;42.53;483.27;5.35431493;10;149
26;paravance-13.rennes.grid5000.fr;thermos-root-devel-WordCountTopology-1-3b71f8e1-0847-4c48-b924-3d059aea82b6;["container_1_Consume_and_count_1"];3.25;1533811897.3806;121.82;967.54;307.633902287;10;151
27;paravance-10.rennes.grid5000.fr;thermos-root-devel-WordCountTopology-2-24950a54-1366-42e6-85a2-3055a86d4366;["container_2_Emit_random_words_2"];3.25;1533811907.5926;43.99;502.2;5.35431493;10;149
27;paravance-13.rennes.grid5000.fr;thermos-root-devel-WordCountTopology-1-3b71f8e1-0847-4c48-b924-3d059aea82b6;["container_1_Consume_and_count_1"];3.25;1533811907.5969;126.2;990.87;307.723019887;10;151
27;paravance-12.rennes.grid5000.fr;thermos-root-devel-WordCountTopology-0-67a17281-1218-4922-bd1b-603198bb114c;["topology_master"];3.25;1533811907.60355;4.33;10.81;0.204564997;9;117
28;paravance-10.rennes.grid5000.fr;thermos-root-devel-WordCountTopology-2-24950a54-1366-42e6-85a2-3055a86d4366;["container_2_Emit_random_words_2"];3.25;1533811917.7095;45.29;518.42;5.35431493;10;149
28;paravance-12.rennes.grid5000.fr;thermos-root-devel-WordCountTopology-0-67a17281-1218-4922-bd1b-603198bb114c;["topology_master"];3.25;1533811917.81778;4.39;10.88;0.204564997;9;117
28;paravance-13.rennes.grid5000.fr;thermos-root-devel-WordCountTopology-1-3b71f8e1-0847-4c48-b924-3d059aea82b6;["container_1_Consume_and_count_1"];3.25;1533811917.81272;130.16;1017.81;316.288527681;10;151
29;paravance-13.rennes.grid5000.fr;thermos-root-devel-WordCountTopology-1-3b71f8e1-0847-4c48-b924-3d059aea82b6;["container_1_Consume_and_count_1"];3.25;1533811928.03015;132.81;1045.4;326.671959569;10;151
29;paravance-12.rennes.grid5000.fr;thermos-root-devel-WordCountTopology-0-67a17281-1218-4922-bd1b-603198bb114c;["topology_master"];3.25;1533811928.03562;4.49;11.01;0.204564997;9;117
29;paravance-10.rennes.grid5000.fr;thermos-root-devel-WordCountTopology-2-24950a54-1366-42e6-85a2-3055a86d4366;["container_2_Emit_random_words_2"];3.25;1533811928.02592;46.15;528.11;5.35431493;10;149
30;paravance-10.rennes.grid5000.fr;thermos-root-devel-WordCountTopology-2-24950a54-1366-42e6-85a2-3055a86d4366;["container_2_Emit_random_words_2"];3.25;1533811938.24353;47.52;545.5;5.35431493;10;149
30;paravance-12.rennes.grid5000.fr;thermos-root-devel-WordCountTopology-0-67a17281-1218-4922-bd1b-603198bb114c;["topology_master"];3.25;1533811938.25383;4.55;11.14;0.204564997;9;117
30;paravance-13.rennes.grid5000.fr;thermos-root-devel-WordCountTopology-1-3b71f8e1-0847-4c48-b924-3d059aea82b6;["container_1_Consume_and_count_1"];3.25;1533811938.24922;137.04;1073.04;335.395993234;10;151
31;paravance-10.rennes.grid5000.fr;thermos-root-devel-WordCountTopology-2-24950a54-1366-42e6-85a2-3055a86d4366;["container_2_Emit_random_words_2"];3.25;1533811948.46123;48.49;556.97;5.35431493;10;149
31;paravance-13.rennes.grid5000.fr;thermos-root-devel-WordCountTopology-1-3b71f8e1-0847-4c48-b924-3d059aea82b6;["container_1_Consume_and_count_1"];3.25;1533811948.46473;140.01;1100.5;344.39647514;10;151
31;paravance-12.rennes.grid5000.fr;thermos-root-devel-WordCountTopology-0-67a17281-1218-4922-bd1b-603198bb114c;["topology_master"];3.25;1533811948.47062;4.61;11.22;0.204564997;9;117
32;paravance-10.rennes.grid5000.fr;thermos-root-devel-WordCountTopology-2-24950a54-1366-42e6-85a2-3055a86d4366;["container_2_Emit_random_words_2"];3.25;1533811958.67875;49.76;572.99;5.35431493;10;149
32;paravance-13.rennes.grid5000.fr;thermos-root-devel-WordCountTopology-1-3b71f8e1-0847-4c48-b924-3d059aea82b6;["container_1_Consume_and_count_1"];3.25;1533811958.68282;143.66;1128.85;355.326159696;10;151
32;paravance-12.rennes.grid5000.fr;thermos-root-devel-WordCountTopology-0-67a17281-1218-4922-bd1b-603198bb114c;["topology_master"];3.25;1533811958.68811;4.67;11.3;0.204564997;9;117
33;paravance-10.rennes.grid5000.fr;thermos-root-devel-WordCountTopology-2-24950a54-1366-42e6-85a2-3055a86d4366;["container_2_Emit_random_words_2"];3.25;1533811968.89591;51.12;589.17;5.35431493;10;149
33;paravance-13.rennes.grid5000.fr;thermos-root-devel-WordCountTopology-1-3b71f8e1-0847-4c48-b924-3d059aea82b6;["container_1_Consume_and_count_1"];3.25;1533811968.8997;147.51;1156.96;365.981841895;10;151
33;paravance-12.rennes.grid5000.fr;thermos-root-devel-WordCountTopology-0-67a17281-1218-4922-bd1b-603198bb114c;["topology_master"];3.25;1533811968.90517;4.76;11.42;0.204564997;9;117
34;paravance-10.rennes.grid5000.fr;thermos-root-devel-WordCountTopology-2-24950a54-1366-42e6-85a2-3055a86d4366;["container_2_Emit_random_words_2"];3.25;1533811979.11113;52.15;601.62;5.35431493;10;149
34;paravance-13.rennes.grid5000.fr;thermos-root-devel-WordCountTopology-1-3b71f8e1-0847-4c48-b924-3d059aea82b6;["container_1_Consume_and_count_1"];3.25;1533811979.11641;150.48;1183.83;376.390516961;10;151
34;paravance-12.rennes.grid5000.fr;thermos-root-devel-WordCountTopology-0-67a17281-1218-4922-bd1b-603198bb114c;["topology_master"];3.25;1533811979.12266;4.79;11.44;0.204564997;9;117
35;paravance-10.rennes.grid5000.fr;thermos-root-devel-WordCountTopology-2-24950a54-1366-42e6-85a2-3055a86d4366;["container_2_Emit_random_words_2"];3.25;1533811989.22966;53.37;616.22;5.35431493;10;149
35;paravance-13.rennes.grid5000.fr;thermos-root-devel-WordCountTopology-1-3b71f8e1-0847-4c48-b924-3d059aea82b6;["container_1_Consume_and_count_1"];3.25;1533811989.33323;153.99;1211.78;386.877115803;10;151
35;paravance-12.rennes.grid5000.fr;thermos-root-devel-WordCountTopology-0-67a17281-1218-4922-bd1b-603198bb114c;["topology_master"];3.25;1533811989.33827;4.89;11.58;0.204564997;9;117
36;paravance-10.rennes.grid5000.fr;thermos-root-devel-WordCountTopology-2-24950a54-1366-42e6-85a2-3055a86d4366;["container_2_Emit_random_words_2"];3.25;1533811999.54614;54.4;628.31;5.35431493;10;149
36;paravance-13.rennes.grid5000.fr;thermos-root-devel-WordCountTopology-1-3b71f8e1-0847-4c48-b924-3d059aea82b6;["container_1_Consume_and_count_1"];3.25;1533811999.55155;156.88;1240.84;398.769151817;10;151
36;paravance-12.rennes.grid5000.fr;thermos-root-devel-WordCountTopology-0-67a17281-1218-4922-bd1b-603198bb114c;["topology_master"];3.25;1533811999.55683;4.95;11.71;0.204564997;9;117
37;paravance-13.rennes.grid5000.fr;thermos-root-devel-WordCountTopology-1-3b71f8e1-0847-4c48-b924-3d059aea82b6;["container_1_Consume_and_count_1"];3.25;1533812009.76729;160.29;1268.72;410.151508633;10;151
37;paravance-10.rennes.grid5000.fr;thermos-root-devel-WordCountTopology-2-24950a54-1366-42e6-85a2-3055a86d4366;["container_2_Emit_random_words_2"];3.25;1533812009.76437;55.49;641.1;5.35431493;10;149
37;paravance-12.rennes.grid5000.fr;thermos-root-devel-WordCountTopology-0-67a17281-1218-4922-bd1b-603198bb114c;["topology_master"];3.25;1533812009.77438;5.04;11.83;0.204564997;9;117
38;paravance-10.rennes.grid5000.fr;thermos-root-devel-WordCountTopology-2-24950a54-1366-42e6-85a2-3055a86d4366;["container_2_Emit_random_words_2"];3.25;1533812019.88102;56.33;651.18;5.35431493;10;149
38;paravance-13.rennes.grid5000.fr;thermos-root-devel-WordCountTopology-1-3b71f8e1-0847-4c48-b924-3d059aea82b6;["container_1_Consume_and_count_1"];3.25;1533812019.98479;162.99;1294.94;419.653657462;10;151
38;paravance-12.rennes.grid5000.fr;thermos-root-devel-WordCountTopology-0-67a17281-1218-4922-bd1b-603198bb114c;["topology_master"];3.25;1533812019.99073;5.07;11.86;0.204564997;9;117
39;paravance-10.rennes.grid5000.fr;thermos-root-devel-WordCountTopology-2-24950a54-1366-42e6-85a2-3055a86d4366;["container_2_Emit_random_words_2"];3.25;1533812030.10077;57.04;658.84;5.35431493;10;149
39;paravance-13.rennes.grid5000.fr;thermos-root-devel-WordCountTopology-1-3b71f8e1-0847-4c48-b924-3d059aea82b6;["container_1_Consume_and_count_1"];3.25;1533812030.20305;165.9;1321.57;427.45911982;10;151
39;paravance-12.rennes.grid5000.fr;thermos-root-devel-WordCountTopology-0-67a17281-1218-4922-bd1b-603198bb114c;["topology_master"];3.25;1533812030.21082;5.16;11.99;0.204564997;9;117
40;paravance-13.rennes.grid5000.fr;thermos-root-devel-WordCountTopology-1-3b71f8e1-0847-4c48-b924-3d059aea82b6;["container_1_Consume_and_count_1"];3.25;1533812040.4212;169.61;1349.32;438.767560584;10;151
40;paravance-12.rennes.grid5000.fr;thermos-root-devel-WordCountTopology-0-67a17281-1218-4922-bd1b-603198bb114c;["topology_master"];3.25;1533812040.42697;5.22;12.06;0.204564997;9;117
40;paravance-10.rennes.grid5000.fr;thermos-root-devel-WordCountTopology-2-24950a54-1366-42e6-85a2-3055a86d4366;["container_2_Emit_random_words_2"];3.25;1533812040.41856;58.49;676.32;5.35431493;10;149
41;paravance-13.rennes.grid5000.fr;thermos-root-devel-WordCountTopology-1-3b71f8e1-0847-4c48-b924-3d059aea82b6;["container_1_Consume_and_count_1"];3.25;1533812050.64083;172.78;1376.64;447.766176138;10;151
41;paravance-12.rennes.grid5000.fr;thermos-root-devel-WordCountTopology-0-67a17281-1218-4922-bd1b-603198bb114c;["topology_master"];3.25;1533812050.64549;5.29;12.15;0.204564997;9;117
41;paravance-10.rennes.grid5000.fr;thermos-root-devel-WordCountTopology-2-24950a54-1366-42e6-85a2-3055a86d4366;["container_2_Emit_random_words_2"];3.25;1533812050.64343;59.25;684.51;5.35431493;10;149
42;paravance-10.rennes.grid5000.fr;thermos-root-devel-WordCountTopology-2-24950a54-1366-42e6-85a2-3055a86d4366;["container_2_Emit_random_words_2"];3.25;1533812060.85756;60.49;699.11;5.35431493;10;149
42;paravance-13.rennes.grid5000.fr;thermos-root-devel-WordCountTopology-1-3b71f8e1-0847-4c48-b924-3d059aea82b6;["container_1_Consume_and_count_1"];3.25;1533812060.86286;176.54;1404.13;458.110751281;10;151
42;paravance-12.rennes.grid5000.fr;thermos-root-devel-WordCountTopology-0-67a17281-1218-4922-bd1b-603198bb114c;["topology_master"];3.25;1533812060.86938;5.35;12.27;0.204564997;9;117
43;paravance-13.rennes.grid5000.fr;thermos-root-devel-WordCountTopology-1-3b71f8e1-0847-4c48-b924-3d059aea82b6;["container_1_Consume_and_count_1"];3.25;1533812071.07975;179.28;1432.76;469.481505083;10;151
43;paravance-10.rennes.grid5000.fr;thermos-root-devel-WordCountTopology-2-24950a54-1366-42e6-85a2-3055a86d4366;["container_2_Emit_random_words_2"];3.25;1533812071.07442;61.51;710.72;5.35431493;10;149
43;paravance-12.rennes.grid5000.fr;thermos-root-devel-WordCountTopology-0-67a17281-1218-4922-bd1b-603198bb114c;["topology_master"];3.25;1533812071.08577;5.44;12.39;0.204564997;9;117
44;paravance-13.rennes.grid5000.fr;thermos-root-devel-WordCountTopology-1-3b71f8e1-0847-4c48-b924-3d059aea82b6;["container_1_Consume_and_count_1"];3.25;1533812081.29669;182.53;1461.58;481.043408811;10;151
44;paravance-10.rennes.grid5000.fr;thermos-root-devel-WordCountTopology-2-24950a54-1366-42e6-85a2-3055a86d4366;["container_2_Emit_random_words_2"];3.25;1533812081.29138;62.64;725.08;5.35431493;10;149
44;paravance-12.rennes.grid5000.fr;thermos-root-devel-WordCountTopology-0-67a17281-1218-4922-bd1b-603198bb114c;["topology_master"];3.25;1533812081.30264;5.46;12.44;0.204564997;9;117
45;paravance-12.rennes.grid5000.fr;thermos-root-devel-WordCountTopology-0-67a17281-1218-4922-bd1b-603198bb114c;["topology_master"];3.25;1533812091.51774;5.55;12.56;0.204564997;9;117
45;paravance-13.rennes.grid5000.fr;thermos-root-devel-WordCountTopology-1-3b71f8e1-0847-4c48-b924-3d059aea82b6;["container_1_Consume_and_count_1"];3.25;1533812091.51354;186.64;1488.34;489.902896668;10;151
45;paravance-10.rennes.grid5000.fr;thermos-root-devel-WordCountTopology-2-24950a54-1366-42e6-85a2-3055a86d4366;["container_2_Emit_random_words_2"];3.25;1533812091.50823;64.07;741.91;5.35431493;10;149
46;paravance-10.rennes.grid5000.fr;thermos-root-devel-WordCountTopology-2-24950a54-1366-42e6-85a2-3055a86d4366;["container_2_Emit_random_words_2"];3.25;1533812101.72805;65.05;754.03;5.35431493;10;149
46;paravance-13.rennes.grid5000.fr;thermos-root-devel-WordCountTopology-1-3b71f8e1-0847-4c48-b924-3d059aea82b6;["container_1_Consume_and_count_1"];3.25;1533812101.73182;190.2;1516.62;501.828314776;10;151
46;paravance-12.rennes.grid5000.fr;thermos-root-devel-WordCountTopology-0-67a17281-1218-4922-bd1b-603198bb114c;["topology_master"];3.25;1533812101.73706;5.6;12.63;0.204564997;9;117
47;paravance-13.rennes.grid5000.fr;thermos-root-devel-WordCountTopology-1-3b71f8e1-0847-4c48-b924-3d059aea82b6;["container_1_Consume_and_count_1"];3.25;1533812111.9465;193.19;1543.89;511.669825702;10;151
47;paravance-12.rennes.grid5000.fr;thermos-root-devel-WordCountTopology-0-67a17281-1218-4922-bd1b-603198bb114c;["topology_master"];3.25;1533812111.95381;5.67;12.71;0.204564997;9;117
47;paravance-10.rennes.grid5000.fr;thermos-root-devel-WordCountTopology-2-24950a54-1366-42e6-85a2-3055a86d4366;["container_2_Emit_random_words_2"];3.25;1533812111.94761;65.85;762.77;5.35431493;10;149
48;paravance-13.rennes.grid5000.fr;thermos-root-devel-WordCountTopology-1-3b71f8e1-0847-4c48-b924-3d059aea82b6;["container_1_Consume_and_count_1"];3.25;1533812122.16549;196.35;1572.07;522.481151884;10;151
48;paravance-10.rennes.grid5000.fr;thermos-root-devel-WordCountTopology-2-24950a54-1366-42e6-85a2-3055a86d4366;["container_2_Emit_random_words_2"];3.25;1533812122.16355;66.88;774.66;5.35431493;10;149
48;paravance-12.rennes.grid5000.fr;thermos-root-devel-WordCountTopology-0-67a17281-1218-4922-bd1b-603198bb114c;["topology_master"];3.25;1533812122.17339;5.73;12.83;0.204564997;9;117
49;paravance-13.rennes.grid5000.fr;thermos-root-devel-WordCountTopology-1-3b71f8e1-0847-4c48-b924-3d059aea82b6;["container_1_Consume_and_count_1"];3.25;1533812132.38407;199.75;1600.15;532.706201461;10;151
49;paravance-10.rennes.grid5000.fr;thermos-root-devel-WordCountTopology-2-24950a54-1366-42e6-85a2-3055a86d4366;["container_2_Emit_random_words_2"];3.25;1533812132.38092;68.11;788.83;5.35431493;10;149
49;paravance-12.rennes.grid5000.fr;thermos-root-devel-WordCountTopology-0-67a17281-1218-4922-bd1b-603198bb114c;["topology_master"];3.25;1533812132.39161;5.82;12.96;0.204564997;9;117
50;paravance-10.rennes.grid5000.fr;thermos-root-devel-WordCountTopology-2-24950a54-1366-42e6-85a2-3055a86d4366;["container_2_Emit_random_words_2"];3.25;1533812142.59859;69.01;799.24;5.35431493;10;149
50;paravance-13.rennes.grid5000.fr;thermos-root-devel-WordCountTopology-1-3b71f8e1-0847-4c48-b924-3d059aea82b6;["container_1_Consume_and_count_1"];3.25;1533812142.60282;202.99;1628.62;543.27492211;10;151
50;paravance-12.rennes.grid5000.fr;thermos-root-devel-WordCountTopology-0-67a17281-1218-4922-bd1b-603198bb114c;["topology_master"];3.25;1533812142.60877;5.85;12.99;0.204564997;9;117
51;paravance-13.rennes.grid5000.fr;thermos-root-devel-WordCountTopology-1-3b71f8e1-0847-4c48-b924-3d059aea82b6;["container_1_Consume_and_count_1"];3.25;1533812152.82127;206.02;1656.24;552.921346597;10;151
51;paravance-10.rennes.grid5000.fr;thermos-root-devel-WordCountTopology-2-24950a54-1366-42e6-85a2-3055a86d4366;["container_2_Emit_random_words_2"];3.25;1533812152.81712;70.06;811.02;5.35431493;10;149
51;paravance-12.rennes.grid5000.fr;thermos-root-devel-WordCountTopology-0-67a17281-1218-4922-bd1b-603198bb114c;["topology_master"];3.25;1533812152.82808;5.95;13.11;0.204564997;9;117
52;paravance-10.rennes.grid5000.fr;thermos-root-devel-WordCountTopology-2-24950a54-1366-42e6-85a2-3055a86d4366;["container_2_Emit_random_words_2"];3.25;1533812162.93578;71.23;824.58;5.35431493;10;149
52;paravance-12.rennes.grid5000.fr;thermos-root-devel-WordCountTopology-0-67a17281-1218-4922-bd1b-603198bb114c;["topology_master"];3.25;1533812163.04566;6.0;13.18;0.204564997;9;117
52;paravance-13.rennes.grid5000.fr;thermos-root-devel-WordCountTopology-1-3b71f8e1-0847-4c48-b924-3d059aea82b6;["container_1_Consume_and_count_1"];3.25;1533812163.04048;209.68;1684.56;563.99661034;10;151
53;paravance-13.rennes.grid5000.fr;thermos-root-devel-WordCountTopology-1-3b71f8e1-0847-4c48-b924-3d059aea82b6;["container_1_Consume_and_count_1"];3.25;1533812173.15788;213.66;1711.7;573.765890462;10;151
53;paravance-12.rennes.grid5000.fr;thermos-root-devel-WordCountTopology-0-67a17281-1218-4922-bd1b-603198bb114c;["topology_master"];3.25;1533812173.26288;6.07;13.29;0.204564997;9;117
53;paravance-10.rennes.grid5000.fr;thermos-root-devel-WordCountTopology-2-24950a54-1366-42e6-85a2-3055a86d4366;["container_2_Emit_random_words_2"];3.25;1533812173.25328;72.59;840.65;5.35431493;10;149
54;paravance-13.rennes.grid5000.fr;thermos-root-devel-WordCountTopology-1-3b71f8e1-0847-4c48-b924-3d059aea82b6;["container_1_Consume_and_count_1"];3.25;1533812183.47503;216.47;1738.66;583.6203425;10;151
54;paravance-12.rennes.grid5000.fr;thermos-root-devel-WordCountTopology-0-67a17281-1218-4922-bd1b-603198bb114c;["topology_master"];3.25;1533812183.48069;6.13;13.36;0.204564997;9;117
54;paravance-10.rennes.grid5000.fr;thermos-root-devel-WordCountTopology-2-24950a54-1366-42e6-85a2-3055a86d4366;["container_2_Emit_random_words_2"];3.25;1533812183.47152;73.55;851.62;5.35431493;10;149
55;paravance-13.rennes.grid5000.fr;thermos-root-devel-WordCountTopology-1-3b71f8e1-0847-4c48-b924-3d059aea82b6;["container_1_Consume_and_count_1"];3.25;1533812193.69197;219.47;1766.36;593.864988756;10;151
55;paravance-10.rennes.grid5000.fr;thermos-root-devel-WordCountTopology-2-24950a54-1366-42e6-85a2-3055a86d4366;["container_2_Emit_random_words_2"];3.25;1533812193.68741;74.64;864.02;5.35431493;10;149
55;paravance-12.rennes.grid5000.fr;thermos-root-devel-WordCountTopology-0-67a17281-1218-4922-bd1b-603198bb114c;["topology_master"];3.25;1533812193.69829;6.22;13.49;0.204564997;9;117
56;paravance-13.rennes.grid5000.fr;thermos-root-devel-WordCountTopology-1-3b71f8e1-0847-4c48-b924-3d059aea82b6;["container_1_Consume_and_count_1"];3.25;1533812203.90582;223.07;1794.78;604.925890422;10;151
56;paravance-10.rennes.grid5000.fr;thermos-root-devel-WordCountTopology-2-24950a54-1366-42e6-85a2-3055a86d4366;["container_2_Emit_random_words_2"];3.25;1533812203.90155;75.88;879.9;5.35431493;10;149
56;paravance-12.rennes.grid5000.fr;thermos-root-devel-WordCountTopology-0-67a17281-1218-4922-bd1b-603198bb114c;["topology_master"];3.25;1533812203.91252;6.25;13.51;0.204564997;9;117
57;paravance-13.rennes.grid5000.fr;thermos-root-devel-WordCountTopology-1-3b71f8e1-0847-4c48-b924-3d059aea82b6;["container_1_Consume_and_count_1"];3.25;1533812214.12358;226.52;1822.8;615.778425238;10;151
57;paravance-10.rennes.grid5000.fr;thermos-root-devel-WordCountTopology-2-24950a54-1366-42e6-85a2-3055a86d4366;["container_2_Emit_random_words_2"];3.25;1533812214.11933;77.14;895.5;5.35431493;10;149
57;paravance-12.rennes.grid5000.fr;thermos-root-devel-WordCountTopology-0-67a17281-1218-4922-bd1b-603198bb114c;["topology_master"];3.25;1533812214.13031;6.34;13.63;0.204564997;9;117
58;paravance-10.rennes.grid5000.fr;thermos-root-devel-WordCountTopology-2-24950a54-1366-42e6-85a2-3055a86d4366;["container_2_Emit_random_words_2"];3.25;1533812224.33382;78.66;914.22;5.35431493;10;149
58;paravance-13.rennes.grid5000.fr;thermos-root-devel-WordCountTopology-1-3b71f8e1-0847-4c48-b924-3d059aea82b6;["container_1_Consume_and_count_1"];3.25;1533812224.3394;230.85;1847.2;617.726320468;10;151
58;paravance-12.rennes.grid5000.fr;thermos-root-devel-WordCountTopology-0-67a17281-1218-4922-bd1b-603198bb114c;["topology_master"];3.25;1533812224.34493;6.4;13.71;0.204564997;9;117
59;paravance-10.rennes.grid5000.fr;thermos-root-devel-WordCountTopology-2-24950a54-1366-42e6-85a2-3055a86d4366;["container_2_Emit_random_words_2"];3.25;1533812234.55018;80.2;933.0;5.356390643;10;149
59;paravance-12.rennes.grid5000.fr;thermos-root-devel-WordCountTopology-0-67a17281-1218-4922-bd1b-603198bb114c;["topology_master"];3.25;1533812234.56149;6.46;13.82;0.204564997;9;117
59;paravance-13.rennes.grid5000.fr;thermos-root-devel-WordCountTopology-1-3b71f8e1-0847-4c48-b924-3d059aea82b6;["container_1_Consume_and_count_1"];3.25;1533812234.55463;235.69;1871.55;618.623192608;10;151
60;paravance-10.rennes.grid5000.fr;thermos-root-devel-WordCountTopology-2-24950a54-1366-42e6-85a2-3055a86d4366;["container_2_Emit_random_words_2"];3.25;1533812244.76809;81.67;951.82;5.356390643;10;149
60;paravance-12.rennes.grid5000.fr;thermos-root-devel-WordCountTopology-0-67a17281-1218-4922-bd1b-603198bb114c;["topology_master"];3.25;1533812244.77925;6.52;13.89;0.204564997;9;117
60;paravance-13.rennes.grid5000.fr;thermos-root-devel-WordCountTopology-1-3b71f8e1-0847-4c48-b924-3d059aea82b6;["container_1_Consume_and_count_1"];3.25;1533812244.77238;240.01;1894.32;618.643797256;10;151
