mesure_id;slave_id;executor_id;heron_instances;cpus_limit;timestamp_A;cpus_system_time_secs_A;cpus_user_time_secs_A;cpus_throttled_time_secs_A;processes;threads
0;paravance-24.rennes.grid5000.fr;thermos-root-devel-WordCountTopology-1-9db6d0ee-bd2c-49aa-9299-206d213a70e1;["container_1_Consume_and_count_1"];4.25;1533339631.98303;49.39;235.62;3.239124828;10;151
0;paravance-18.rennes.grid5000.fr;thermos-root-devel-WordCountTopology-2-6c9ecef3-aa1e-462f-a33a-4d672ad63875;["container_2_Emit_random_words_2"];4.25;1533339632.04203;20.62;180.06;3.426914233;10;149
0;paravance-23.rennes.grid5000.fr;thermos-root-devel-WordCountTopology-0-a6f0e423-1080-4cf3-ac15-437e6a3c888d;["topology_master"];4.25;1533339632.045;2.33;7.95;0.003997946;9;117
1;paravance-24.rennes.grid5000.fr;thermos-root-devel-WordCountTopology-1-9db6d0ee-bd2c-49aa-9299-206d213a70e1;["container_1_Consume_and_count_1"];4.25;1533339642.19671;54.82;261.51;3.239124828;10;151
1;paravance-18.rennes.grid5000.fr;thermos-root-devel-WordCountTopology-2-6c9ecef3-aa1e-462f-a33a-4d672ad63875;["container_2_Emit_random_words_2"];4.25;1533339642.25891;22.79;199.48;3.426914233;10;149
1;paravance-23.rennes.grid5000.fr;thermos-root-devel-WordCountTopology-0-a6f0e423-1080-4cf3-ac15-437e6a3c888d;["topology_master"];4.25;1533339642.26205;2.4;8.09;0.003997946;9;117
2;paravance-18.rennes.grid5000.fr;thermos-root-devel-WordCountTopology-2-6c9ecef3-aa1e-462f-a33a-4d672ad63875;["container_2_Emit_random_words_2"];4.25;1533339652.47233;24.96;218.74;3.426914233;10;149
2;paravance-24.rennes.grid5000.fr;thermos-root-devel-WordCountTopology-1-9db6d0ee-bd2c-49aa-9299-206d213a70e1;["container_1_Consume_and_count_1"];4.25;1533339652.41113;60.22;286.92;3.239124828;10;151
2;paravance-23.rennes.grid5000.fr;thermos-root-devel-WordCountTopology-0-a6f0e423-1080-4cf3-ac15-437e6a3c888d;["topology_master"];4.25;1533339652.47494;2.49;8.22;0.003997946;9;117
3;paravance-24.rennes.grid5000.fr;thermos-root-devel-WordCountTopology-1-9db6d0ee-bd2c-49aa-9299-206d213a70e1;["container_1_Consume_and_count_1"];4.25;1533339662.52647;65.27;311.72;3.239149607;10;151
3;paravance-18.rennes.grid5000.fr;thermos-root-devel-WordCountTopology-2-6c9ecef3-aa1e-462f-a33a-4d672ad63875;["container_2_Emit_random_words_2"];4.25;1533339662.6867;27.02;238.1;3.426914233;10;149
3;paravance-23.rennes.grid5000.fr;thermos-root-devel-WordCountTopology-0-a6f0e423-1080-4cf3-ac15-437e6a3c888d;["topology_master"];4.25;1533339662.68992;2.55;8.3;0.003997946;9;117
4;paravance-24.rennes.grid5000.fr;thermos-root-devel-WordCountTopology-1-9db6d0ee-bd2c-49aa-9299-206d213a70e1;["container_1_Consume_and_count_1"];4.25;1533339672.84141;70.61;336.06;3.239149607;10;151
4;paravance-23.rennes.grid5000.fr;thermos-root-devel-WordCountTopology-0-a6f0e423-1080-4cf3-ac15-437e6a3c888d;["topology_master"];4.25;1533339672.90728;2.6;8.38;0.003997946;9;117
4;paravance-18.rennes.grid5000.fr;thermos-root-devel-WordCountTopology-2-6c9ecef3-aa1e-462f-a33a-4d672ad63875;["container_2_Emit_random_words_2"];4.25;1533339672.90438;29.08;257.3;3.426914233;10;149
5;paravance-18.rennes.grid5000.fr;thermos-root-devel-WordCountTopology-2-6c9ecef3-aa1e-462f-a33a-4d672ad63875;["container_2_Emit_random_words_2"];4.25;1533339683.12017;31.2;277.05;3.426914233;10;149
5;paravance-24.rennes.grid5000.fr;thermos-root-devel-WordCountTopology-1-9db6d0ee-bd2c-49aa-9299-206d213a70e1;["container_1_Consume_and_count_1"];4.25;1533339683.06165;75.99;361.65;3.239149607;10;151
5;paravance-23.rennes.grid5000.fr;thermos-root-devel-WordCountTopology-0-a6f0e423-1080-4cf3-ac15-437e6a3c888d;["topology_master"];4.25;1533339683.12385;2.66;8.45;0.003997946;9;117
6;paravance-18.rennes.grid5000.fr;thermos-root-devel-WordCountTopology-2-6c9ecef3-aa1e-462f-a33a-4d672ad63875;["container_2_Emit_random_words_2"];4.25;1533339693.33856;33.37;297.0;3.46002593;10;149
6;paravance-24.rennes.grid5000.fr;thermos-root-devel-WordCountTopology-1-9db6d0ee-bd2c-49aa-9299-206d213a70e1;["container_1_Consume_and_count_1"];4.25;1533339693.27642;81.62;387.98;3.50036426;10;151
6;paravance-23.rennes.grid5000.fr;thermos-root-devel-WordCountTopology-0-a6f0e423-1080-4cf3-ac15-437e6a3c888d;["topology_master"];4.25;1533339693.34127;2.78;8.65;0.003997946;9;117
7;paravance-24.rennes.grid5000.fr;thermos-root-devel-WordCountTopology-1-9db6d0ee-bd2c-49aa-9299-206d213a70e1;["container_1_Consume_and_count_1"];4.25;1533339703.49443;86.42;412.86;3.50036426;10;151
7;paravance-23.rennes.grid5000.fr;thermos-root-devel-WordCountTopology-0-a6f0e423-1080-4cf3-ac15-437e6a3c888d;["topology_master"];4.25;1533339703.55896;2.81;8.69;0.003997946;9;117
7;paravance-18.rennes.grid5000.fr;thermos-root-devel-WordCountTopology-2-6c9ecef3-aa1e-462f-a33a-4d672ad63875;["container_2_Emit_random_words_2"];4.25;1533339703.55673;35.44;316.91;3.46002593;10;149
8;paravance-18.rennes.grid5000.fr;thermos-root-devel-WordCountTopology-2-6c9ecef3-aa1e-462f-a33a-4d672ad63875;["container_2_Emit_random_words_2"];4.25;1533339713.77011;37.53;336.64;3.46002593;10;149
8;paravance-23.rennes.grid5000.fr;thermos-root-devel-WordCountTopology-0-a6f0e423-1080-4cf3-ac15-437e6a3c888d;["topology_master"];4.25;1533339713.77443;2.9;8.82;0.003997946;9;117
8;paravance-24.rennes.grid5000.fr;thermos-root-devel-WordCountTopology-1-9db6d0ee-bd2c-49aa-9299-206d213a70e1;["container_1_Consume_and_count_1"];4.25;1533339713.71198;92.18;439.65;3.50036426;10;151
9;paravance-23.rennes.grid5000.fr;thermos-root-devel-WordCountTopology-0-a6f0e423-1080-4cf3-ac15-437e6a3c888d;["topology_master"];4.25;1533339723.98967;2.96;8.9;0.003997946;9;117
9;paravance-24.rennes.grid5000.fr;thermos-root-devel-WordCountTopology-1-9db6d0ee-bd2c-49aa-9299-206d213a70e1;["container_1_Consume_and_count_1"];4.25;1533339723.92792;97.83;465.48;3.50036426;10;151
9;paravance-18.rennes.grid5000.fr;thermos-root-devel-WordCountTopology-2-6c9ecef3-aa1e-462f-a33a-4d672ad63875;["container_2_Emit_random_words_2"];4.25;1533339723.98807;39.61;356.35;3.46002593;10;149
10;paravance-18.rennes.grid5000.fr;thermos-root-devel-WordCountTopology-2-6c9ecef3-aa1e-462f-a33a-4d672ad63875;["container_2_Emit_random_words_2"];4.25;1533339734.20192;41.77;375.88;3.46002593;10;149
10;paravance-24.rennes.grid5000.fr;thermos-root-devel-WordCountTopology-1-9db6d0ee-bd2c-49aa-9299-206d213a70e1;["container_1_Consume_and_count_1"];4.25;1533339734.14166;103.47;493.18;3.50036426;10;151
10;paravance-23.rennes.grid5000.fr;thermos-root-devel-WordCountTopology-0-a6f0e423-1080-4cf3-ac15-437e6a3c888d;["topology_master"];4.25;1533339734.20485;3.02;8.98;0.003997946;9;117
11;paravance-24.rennes.grid5000.fr;thermos-root-devel-WordCountTopology-1-9db6d0ee-bd2c-49aa-9299-206d213a70e1;["container_1_Consume_and_count_1"];4.25;1533339744.35847;109.15;519.82;3.50036426;10;151
11;paravance-23.rennes.grid5000.fr;thermos-root-devel-WordCountTopology-0-a6f0e423-1080-4cf3-ac15-437e6a3c888d;["topology_master"];4.25;1533339744.42212;3.07;9.05;0.003997946;9;117
11;paravance-18.rennes.grid5000.fr;thermos-root-devel-WordCountTopology-2-6c9ecef3-aa1e-462f-a33a-4d672ad63875;["container_2_Emit_random_words_2"];4.25;1533339744.42037;43.87;395.51;3.46002593;10;149
12;paravance-23.rennes.grid5000.fr;thermos-root-devel-WordCountTopology-0-a6f0e423-1080-4cf3-ac15-437e6a3c888d;["topology_master"];4.25;1533339754.6375;3.21;9.36;0.003997946;9;117
12;paravance-18.rennes.grid5000.fr;thermos-root-devel-WordCountTopology-2-6c9ecef3-aa1e-462f-a33a-4d672ad63875;["container_2_Emit_random_words_2"];4.25;1533339754.63531;45.99;415.45;3.46002593;10;149
12;paravance-24.rennes.grid5000.fr;thermos-root-devel-WordCountTopology-1-9db6d0ee-bd2c-49aa-9299-206d213a70e1;["container_1_Consume_and_count_1"];4.25;1533339754.57476;115.01;546.94;3.594043466;10;151
13;paravance-24.rennes.grid5000.fr;thermos-root-devel-WordCountTopology-1-9db6d0ee-bd2c-49aa-9299-206d213a70e1;["container_1_Consume_and_count_1"];4.25;1533339764.79071;120.66;574.39;3.594043466;10;151
13;paravance-23.rennes.grid5000.fr;thermos-root-devel-WordCountTopology-0-a6f0e423-1080-4cf3-ac15-437e6a3c888d;["topology_master"];4.25;1533339764.85468;3.23;9.39;0.003997946;9;117
13;paravance-18.rennes.grid5000.fr;thermos-root-devel-WordCountTopology-2-6c9ecef3-aa1e-462f-a33a-4d672ad63875;["container_2_Emit_random_words_2"];4.25;1533339764.85253;48.03;435.65;3.46002593;10;149
14;paravance-18.rennes.grid5000.fr;thermos-root-devel-WordCountTopology-2-6c9ecef3-aa1e-462f-a33a-4d672ad63875;["container_2_Emit_random_words_2"];4.25;1533339775.0701;50.14;455.2;3.46002593;10;149
14;paravance-24.rennes.grid5000.fr;thermos-root-devel-WordCountTopology-1-9db6d0ee-bd2c-49aa-9299-206d213a70e1;["container_1_Consume_and_count_1"];4.25;1533339775.01037;126.14;600.16;3.594043466;10;151
14;paravance-23.rennes.grid5000.fr;thermos-root-devel-WordCountTopology-0-a6f0e423-1080-4cf3-ac15-437e6a3c888d;["topology_master"];4.25;1533339775.07317;3.33;9.55;0.003997946;9;117
15;paravance-24.rennes.grid5000.fr;thermos-root-devel-WordCountTopology-1-9db6d0ee-bd2c-49aa-9299-206d213a70e1;["container_1_Consume_and_count_1"];4.25;1533339785.22797;131.71;627.02;3.594043466;10;151
15;paravance-23.rennes.grid5000.fr;thermos-root-devel-WordCountTopology-0-a6f0e423-1080-4cf3-ac15-437e6a3c888d;["topology_master"];4.25;1533339785.29106;3.39;9.62;0.003997946;9;117
15;paravance-18.rennes.grid5000.fr;thermos-root-devel-WordCountTopology-2-6c9ecef3-aa1e-462f-a33a-4d672ad63875;["container_2_Emit_random_words_2"];4.25;1533339785.28898;52.21;474.91;3.46002593;10;149
16;paravance-24.rennes.grid5000.fr;thermos-root-devel-WordCountTopology-1-9db6d0ee-bd2c-49aa-9299-206d213a70e1;["container_1_Consume_and_count_1"];4.25;1533339795.44368;137.34;654.07;3.594043466;10;151
16;paravance-18.rennes.grid5000.fr;thermos-root-devel-WordCountTopology-2-6c9ecef3-aa1e-462f-a33a-4d672ad63875;["container_2_Emit_random_words_2"];4.25;1533339795.50535;54.31;494.3;3.46002593;10;149
16;paravance-23.rennes.grid5000.fr;thermos-root-devel-WordCountTopology-0-a6f0e423-1080-4cf3-ac15-437e6a3c888d;["topology_master"];4.25;1533339795.50833;3.45;9.71;0.003997946;9;117
17;paravance-24.rennes.grid5000.fr;thermos-root-devel-WordCountTopology-1-9db6d0ee-bd2c-49aa-9299-206d213a70e1;["container_1_Consume_and_count_1"];4.25;1533339805.66172;143.06;680.52;3.594043466;10;151
17;paravance-23.rennes.grid5000.fr;thermos-root-devel-WordCountTopology-0-a6f0e423-1080-4cf3-ac15-437e6a3c888d;["topology_master"];4.25;1533339805.72577;3.5;9.79;0.003997946;9;117
17;paravance-18.rennes.grid5000.fr;thermos-root-devel-WordCountTopology-2-6c9ecef3-aa1e-462f-a33a-4d672ad63875;["container_2_Emit_random_words_2"];4.25;1533339805.72223;56.4;514.23;3.46002593;10;149
18;paravance-24.rennes.grid5000.fr;thermos-root-devel-WordCountTopology-1-9db6d0ee-bd2c-49aa-9299-206d213a70e1;["container_1_Consume_and_count_1"];4.25;1533339815.88022;148.74;706.7;3.60665087;10;151
18;paravance-23.rennes.grid5000.fr;thermos-root-devel-WordCountTopology-0-a6f0e423-1080-4cf3-ac15-437e6a3c888d;["topology_master"];4.25;1533339815.94264;3.62;9.99;0.003997946;9;117
18;paravance-18.rennes.grid5000.fr;thermos-root-devel-WordCountTopology-2-6c9ecef3-aa1e-462f-a33a-4d672ad63875;["container_2_Emit_random_words_2"];4.25;1533339815.94024;58.56;533.96;3.46002593;10;149
19;paravance-24.rennes.grid5000.fr;thermos-root-devel-WordCountTopology-1-9db6d0ee-bd2c-49aa-9299-206d213a70e1;["container_1_Consume_and_count_1"];4.25;1533339826.09524;154.64;734.46;3.60665087;10;151
19;paravance-18.rennes.grid5000.fr;thermos-root-devel-WordCountTopology-2-6c9ecef3-aa1e-462f-a33a-4d672ad63875;["container_2_Emit_random_words_2"];4.25;1533339826.15697;60.62;553.43;3.46002593;10;149
19;paravance-23.rennes.grid5000.fr;thermos-root-devel-WordCountTopology-0-a6f0e423-1080-4cf3-ac15-437e6a3c888d;["topology_master"];4.25;1533339826.16047;3.65;10.02;0.003997946;9;117
20;paravance-24.rennes.grid5000.fr;thermos-root-devel-WordCountTopology-1-9db6d0ee-bd2c-49aa-9299-206d213a70e1;["container_1_Consume_and_count_1"];4.25;1533339836.3116;160.5;761.78;3.606673771;10;151
20;paravance-18.rennes.grid5000.fr;thermos-root-devel-WordCountTopology-2-6c9ecef3-aa1e-462f-a33a-4d672ad63875;["container_2_Emit_random_words_2"];4.25;1533339836.37275;62.74;573.27;3.46002593;10;149
20;paravance-23.rennes.grid5000.fr;thermos-root-devel-WordCountTopology-0-a6f0e423-1080-4cf3-ac15-437e6a3c888d;["topology_master"];4.25;1533339836.37665;3.74;10.15;0.003997946;9;117
21;paravance-18.rennes.grid5000.fr;thermos-root-devel-WordCountTopology-2-6c9ecef3-aa1e-462f-a33a-4d672ad63875;["container_2_Emit_random_words_2"];4.25;1533339846.4889;64.8;592.58;3.46002593;10;149
21;paravance-24.rennes.grid5000.fr;thermos-root-devel-WordCountTopology-1-9db6d0ee-bd2c-49aa-9299-206d213a70e1;["container_1_Consume_and_count_1"];4.25;1533339846.52867;166.24;788.58;3.606673771;10;151
21;paravance-23.rennes.grid5000.fr;thermos-root-devel-WordCountTopology-0-a6f0e423-1080-4cf3-ac15-437e6a3c888d;["topology_master"];4.25;1533339846.59409;3.8;10.22;0.003997946;9;117
22;paravance-23.rennes.grid5000.fr;thermos-root-devel-WordCountTopology-0-a6f0e423-1080-4cf3-ac15-437e6a3c888d;["topology_master"];4.25;1533339856.81026;3.85;10.3;0.003997946;9;117
22;paravance-18.rennes.grid5000.fr;thermos-root-devel-WordCountTopology-2-6c9ecef3-aa1e-462f-a33a-4d672ad63875;["container_2_Emit_random_words_2"];4.25;1533339856.80671;66.85;611.95;3.46002593;10;149
22;paravance-24.rennes.grid5000.fr;thermos-root-devel-WordCountTopology-1-9db6d0ee-bd2c-49aa-9299-206d213a70e1;["container_1_Consume_and_count_1"];4.25;1533339856.74771;172.22;815.37;3.606673771;10;151
23;paravance-24.rennes.grid5000.fr;thermos-root-devel-WordCountTopology-1-9db6d0ee-bd2c-49aa-9299-206d213a70e1;["container_1_Consume_and_count_1"];4.25;1533339866.9644;177.91;842.08;3.606673771;10;151
23;paravance-23.rennes.grid5000.fr;thermos-root-devel-WordCountTopology-0-a6f0e423-1080-4cf3-ac15-437e6a3c888d;["topology_master"];4.25;1533339867.02766;3.91;10.37;0.003997946;9;117
23;paravance-18.rennes.grid5000.fr;thermos-root-devel-WordCountTopology-2-6c9ecef3-aa1e-462f-a33a-4d672ad63875;["container_2_Emit_random_words_2"];4.25;1533339867.02524;68.85;631.42;3.46002593;10;149
24;paravance-24.rennes.grid5000.fr;thermos-root-devel-WordCountTopology-1-9db6d0ee-bd2c-49aa-9299-206d213a70e1;["container_1_Consume_and_count_1"];4.25;1533339877.18052;183.16;868.69;3.622469806;10;151
24;paravance-18.rennes.grid5000.fr;thermos-root-devel-WordCountTopology-2-6c9ecef3-aa1e-462f-a33a-4d672ad63875;["container_2_Emit_random_words_2"];4.25;1533339877.24128;71.05;651.0;3.46002593;10;149
24;paravance-23.rennes.grid5000.fr;thermos-root-devel-WordCountTopology-0-a6f0e423-1080-4cf3-ac15-437e6a3c888d;["topology_master"];4.25;1533339877.24549;4.02;10.54;0.003997946;9;117
25;paravance-23.rennes.grid5000.fr;thermos-root-devel-WordCountTopology-0-a6f0e423-1080-4cf3-ac15-437e6a3c888d;["topology_master"];4.25;1533339887.36207;4.05;10.57;0.003997946;9;117
25;paravance-24.rennes.grid5000.fr;thermos-root-devel-WordCountTopology-1-9db6d0ee-bd2c-49aa-9299-206d213a70e1;["container_1_Consume_and_count_1"];4.25;1533339887.39708;188.52;894.16;3.622469806;10;151
25;paravance-18.rennes.grid5000.fr;thermos-root-devel-WordCountTopology-2-6c9ecef3-aa1e-462f-a33a-4d672ad63875;["container_2_Emit_random_words_2"];4.25;1533339887.45818;73.05;670.51;3.46002593;10;149
26;paravance-23.rennes.grid5000.fr;thermos-root-devel-WordCountTopology-0-a6f0e423-1080-4cf3-ac15-437e6a3c888d;["topology_master"];4.25;1533339897.57763;4.14;10.7;0.003997946;9;117
26;paravance-18.rennes.grid5000.fr;thermos-root-devel-WordCountTopology-2-6c9ecef3-aa1e-462f-a33a-4d672ad63875;["container_2_Emit_random_words_2"];4.25;1533339897.67348;75.21;690.09;3.46002593;10;149
26;paravance-24.rennes.grid5000.fr;thermos-root-devel-WordCountTopology-1-9db6d0ee-bd2c-49aa-9299-206d213a70e1;["container_1_Consume_and_count_1"];4.25;1533339897.61447;194.42;921.34;3.630758943;10;151
27;paravance-18.rennes.grid5000.fr;thermos-root-devel-WordCountTopology-2-6c9ecef3-aa1e-462f-a33a-4d672ad63875;["container_2_Emit_random_words_2"];4.25;1533339907.8911;77.24;709.6;3.46002593;10;149
27;paravance-23.rennes.grid5000.fr;thermos-root-devel-WordCountTopology-0-a6f0e423-1080-4cf3-ac15-437e6a3c888d;["topology_master"];4.25;1533339907.89601;4.19;10.77;0.003997946;9;117
27;paravance-24.rennes.grid5000.fr;thermos-root-devel-WordCountTopology-1-9db6d0ee-bd2c-49aa-9299-206d213a70e1;["container_1_Consume_and_count_1"];4.25;1533339907.83276;200.06;948.75;3.630758943;10;151
28;paravance-24.rennes.grid5000.fr;thermos-root-devel-WordCountTopology-1-9db6d0ee-bd2c-49aa-9299-206d213a70e1;["container_1_Consume_and_count_1"];4.25;1533339918.04953;205.6;975.91;3.630758943;10;151
28;paravance-18.rennes.grid5000.fr;thermos-root-devel-WordCountTopology-2-6c9ecef3-aa1e-462f-a33a-4d672ad63875;["container_2_Emit_random_words_2"];4.25;1533339918.10837;79.33;729.15;3.46002593;10;149
28;paravance-23.rennes.grid5000.fr;thermos-root-devel-WordCountTopology-0-a6f0e423-1080-4cf3-ac15-437e6a3c888d;["topology_master"];4.25;1533339918.11331;4.25;10.85;0.003997946;9;117
29;paravance-24.rennes.grid5000.fr;thermos-root-devel-WordCountTopology-1-9db6d0ee-bd2c-49aa-9299-206d213a70e1;["container_1_Consume_and_count_1"];4.25;1533339928.26676;211.3;1002.82;3.649047152;10;151
29;paravance-18.rennes.grid5000.fr;thermos-root-devel-WordCountTopology-2-6c9ecef3-aa1e-462f-a33a-4d672ad63875;["container_2_Emit_random_words_2"];4.25;1533339928.3273;81.46;749.01;3.46002593;10;149
29;paravance-23.rennes.grid5000.fr;thermos-root-devel-WordCountTopology-0-a6f0e423-1080-4cf3-ac15-437e6a3c888d;["topology_master"];4.25;1533339928.3301;4.36;10.98;0.003997946;9;117
30;paravance-24.rennes.grid5000.fr;thermos-root-devel-WordCountTopology-1-9db6d0ee-bd2c-49aa-9299-206d213a70e1;["container_1_Consume_and_count_1"];4.25;1533339938.48454;216.67;1029.11;3.649047152;10;151
30;paravance-18.rennes.grid5000.fr;thermos-root-devel-WordCountTopology-2-6c9ecef3-aa1e-462f-a33a-4d672ad63875;["container_2_Emit_random_words_2"];4.25;1533339938.5451;83.7;768.64;3.46002593;10;149
30;paravance-23.rennes.grid5000.fr;thermos-root-devel-WordCountTopology-0-a6f0e423-1080-4cf3-ac15-437e6a3c888d;["topology_master"];4.25;1533339938.54798;4.42;11.11;0.003997946;9;117
31;paravance-18.rennes.grid5000.fr;thermos-root-devel-WordCountTopology-2-6c9ecef3-aa1e-462f-a33a-4d672ad63875;["container_2_Emit_random_words_2"];4.25;1533339948.76182;85.94;788.1;3.46002593;10;149
31;paravance-23.rennes.grid5000.fr;thermos-root-devel-WordCountTopology-0-a6f0e423-1080-4cf3-ac15-437e6a3c888d;["topology_master"];4.25;1533339948.7655;4.48;11.19;0.003997946;9;117
31;paravance-24.rennes.grid5000.fr;thermos-root-devel-WordCountTopology-1-9db6d0ee-bd2c-49aa-9299-206d213a70e1;["container_1_Consume_and_count_1"];4.25;1533339948.70304;222.23;1055.76;3.649047152;10;151
32;paravance-24.rennes.grid5000.fr;thermos-root-devel-WordCountTopology-1-9db6d0ee-bd2c-49aa-9299-206d213a70e1;["container_1_Consume_and_count_1"];4.25;1533339958.91687;227.93;1082.48;3.649047152;10;151
32;paravance-23.rennes.grid5000.fr;thermos-root-devel-WordCountTopology-0-a6f0e423-1080-4cf3-ac15-437e6a3c888d;["topology_master"];4.25;1533339958.98113;4.54;11.27;0.003997946;9;117
32;paravance-18.rennes.grid5000.fr;thermos-root-devel-WordCountTopology-2-6c9ecef3-aa1e-462f-a33a-4d672ad63875;["container_2_Emit_random_words_2"];4.25;1533339958.97815;88.06;807.33;3.46002593;10;149
33;paravance-24.rennes.grid5000.fr;thermos-root-devel-WordCountTopology-1-9db6d0ee-bd2c-49aa-9299-206d213a70e1;["container_1_Consume_and_count_1"];4.25;1533339969.13446;233.6;1109.18;3.657696935;10;151
33;paravance-23.rennes.grid5000.fr;thermos-root-devel-WordCountTopology-0-a6f0e423-1080-4cf3-ac15-437e6a3c888d;["topology_master"];4.25;1533339969.19711;4.64;11.4;0.003997946;9;117
33;paravance-18.rennes.grid5000.fr;thermos-root-devel-WordCountTopology-2-6c9ecef3-aa1e-462f-a33a-4d672ad63875;["container_2_Emit_random_words_2"];4.25;1533339969.19389;90.19;826.64;3.46002593;10;149
34;paravance-24.rennes.grid5000.fr;thermos-root-devel-WordCountTopology-1-9db6d0ee-bd2c-49aa-9299-206d213a70e1;["container_1_Consume_and_count_1"];4.25;1533339979.34741;239.29;1136.08;3.657696935;10;151
34;paravance-18.rennes.grid5000.fr;thermos-root-devel-WordCountTopology-2-6c9ecef3-aa1e-462f-a33a-4d672ad63875;["container_2_Emit_random_words_2"];4.25;1533339979.40764;92.3;845.95;3.46002593;10;149
34;paravance-23.rennes.grid5000.fr;thermos-root-devel-WordCountTopology-0-a6f0e423-1080-4cf3-ac15-437e6a3c888d;["topology_master"];4.25;1533339979.41151;4.67;11.44;0.003997946;9;117
35;paravance-24.rennes.grid5000.fr;thermos-root-devel-WordCountTopology-1-9db6d0ee-bd2c-49aa-9299-206d213a70e1;["container_1_Consume_and_count_1"];4.25;1533339989.56347;244.92;1162.85;3.678410408;10;151
35;paravance-23.rennes.grid5000.fr;thermos-root-devel-WordCountTopology-0-a6f0e423-1080-4cf3-ac15-437e6a3c888d;["topology_master"];4.25;1533339989.62806;4.77;11.56;0.003997946;9;117
35;paravance-18.rennes.grid5000.fr;thermos-root-devel-WordCountTopology-2-6c9ecef3-aa1e-462f-a33a-4d672ad63875;["container_2_Emit_random_words_2"];4.25;1533339989.62463;94.44;865.83;3.46002593;10;149
36;paravance-24.rennes.grid5000.fr;thermos-root-devel-WordCountTopology-1-9db6d0ee-bd2c-49aa-9299-206d213a70e1;["container_1_Consume_and_count_1"];4.25;1533339999.78127;250.63;1190.35;3.678410408;10;151
36;paravance-23.rennes.grid5000.fr;thermos-root-devel-WordCountTopology-0-a6f0e423-1080-4cf3-ac15-437e6a3c888d;["topology_master"];4.25;1533339999.84641;4.83;11.68;0.003997946;9;117
36;paravance-18.rennes.grid5000.fr;thermos-root-devel-WordCountTopology-2-6c9ecef3-aa1e-462f-a33a-4d672ad63875;["container_2_Emit_random_words_2"];4.25;1533339999.84192;96.52;885.72;3.46002593;10;149
37;paravance-24.rennes.grid5000.fr;thermos-root-devel-WordCountTopology-1-9db6d0ee-bd2c-49aa-9299-206d213a70e1;["container_1_Consume_and_count_1"];4.25;1533340009.99812;256.31;1217.09;3.678410408;10;151
37;paravance-23.rennes.grid5000.fr;thermos-root-devel-WordCountTopology-0-a6f0e423-1080-4cf3-ac15-437e6a3c888d;["topology_master"];4.25;1533340010.06323;4.91;11.79;0.003997946;9;117
37;paravance-18.rennes.grid5000.fr;thermos-root-devel-WordCountTopology-2-6c9ecef3-aa1e-462f-a33a-4d672ad63875;["container_2_Emit_random_words_2"];4.25;1533340010.0595;98.59;905.02;3.46002593;10;149
38;paravance-24.rennes.grid5000.fr;thermos-root-devel-WordCountTopology-1-9db6d0ee-bd2c-49aa-9299-206d213a70e1;["container_1_Consume_and_count_1"];4.25;1533340020.21596;261.84;1243.65;3.678410408;10;151
38;paravance-23.rennes.grid5000.fr;thermos-root-devel-WordCountTopology-0-a6f0e423-1080-4cf3-ac15-437e6a3c888d;["topology_master"];4.25;1533340020.27842;4.94;11.82;0.003997946;9;117
38;paravance-18.rennes.grid5000.fr;thermos-root-devel-WordCountTopology-2-6c9ecef3-aa1e-462f-a33a-4d672ad63875;["container_2_Emit_random_words_2"];4.25;1533340020.27495;100.7;924.38;3.46002593;10;149
39;paravance-18.rennes.grid5000.fr;thermos-root-devel-WordCountTopology-2-6c9ecef3-aa1e-462f-a33a-4d672ad63875;["container_2_Emit_random_words_2"];4.25;1533340030.49073;102.82;943.65;3.46002593;10;149
39;paravance-24.rennes.grid5000.fr;thermos-root-devel-WordCountTopology-1-9db6d0ee-bd2c-49aa-9299-206d213a70e1;["container_1_Consume_and_count_1"];4.25;1533340030.43106;267.52;1270.78;3.678410408;10;151
39;paravance-23.rennes.grid5000.fr;thermos-root-devel-WordCountTopology-0-a6f0e423-1080-4cf3-ac15-437e6a3c888d;["topology_master"];4.25;1533340030.49538;5.03;11.94;0.003997946;9;117
40;paravance-18.rennes.grid5000.fr;thermos-root-devel-WordCountTopology-2-6c9ecef3-aa1e-462f-a33a-4d672ad63875;["container_2_Emit_random_words_2"];4.25;1533340040.70733;104.97;962.93;3.46002593;10;149
40;paravance-23.rennes.grid5000.fr;thermos-root-devel-WordCountTopology-0-a6f0e423-1080-4cf3-ac15-437e6a3c888d;["topology_master"];4.25;1533340040.71092;5.08;12.01;0.003997946;9;117
40;paravance-24.rennes.grid5000.fr;thermos-root-devel-WordCountTopology-1-9db6d0ee-bd2c-49aa-9299-206d213a70e1;["container_1_Consume_and_count_1"];4.25;1533340040.64635;273.27;1298.07;3.678410408;10;151
41;paravance-18.rennes.grid5000.fr;thermos-root-devel-WordCountTopology-2-6c9ecef3-aa1e-462f-a33a-4d672ad63875;["container_2_Emit_random_words_2"];4.25;1533340050.92412;107.08;982.07;3.46002593;10;149
41;paravance-23.rennes.grid5000.fr;thermos-root-devel-WordCountTopology-0-a6f0e423-1080-4cf3-ac15-437e6a3c888d;["topology_master"];4.25;1533340050.92865;5.15;12.1;0.003997946;9;117
41;paravance-24.rennes.grid5000.fr;thermos-root-devel-WordCountTopology-1-9db6d0ee-bd2c-49aa-9299-206d213a70e1;["container_1_Consume_and_count_1"];4.25;1533340050.8643;278.45;1323.21;3.684712272;10;151
42;paravance-18.rennes.grid5000.fr;thermos-root-devel-WordCountTopology-2-6c9ecef3-aa1e-462f-a33a-4d672ad63875;["container_2_Emit_random_words_2"];4.25;1533340061.1418;109.26;1001.61;3.46002593;10;149
42;paravance-23.rennes.grid5000.fr;thermos-root-devel-WordCountTopology-0-a6f0e423-1080-4cf3-ac15-437e6a3c888d;["topology_master"];4.25;1533340061.14493;5.22;12.23;0.003997946;9;117
42;paravance-24.rennes.grid5000.fr;thermos-root-devel-WordCountTopology-1-9db6d0ee-bd2c-49aa-9299-206d213a70e1;["container_1_Consume_and_count_1"];4.25;1533340061.08288;283.61;1347.78;3.684712272;10;151
43;paravance-23.rennes.grid5000.fr;thermos-root-devel-WordCountTopology-0-a6f0e423-1080-4cf3-ac15-437e6a3c888d;["topology_master"];4.25;1533340071.36247;5.31;12.35;0.003997946;9;117
43;paravance-24.rennes.grid5000.fr;thermos-root-devel-WordCountTopology-1-9db6d0ee-bd2c-49aa-9299-206d213a70e1;["container_1_Consume_and_count_1"];4.25;1533340071.29959;289.43;1373.92;3.684712272;10;151
43;paravance-18.rennes.grid5000.fr;thermos-root-devel-WordCountTopology-2-6c9ecef3-aa1e-462f-a33a-4d672ad63875;["container_2_Emit_random_words_2"];4.25;1533340071.3596;111.32;1021.0;3.46002593;10;149
44;paravance-18.rennes.grid5000.fr;thermos-root-devel-WordCountTopology-2-6c9ecef3-aa1e-462f-a33a-4d672ad63875;["container_2_Emit_random_words_2"];4.25;1533340081.57731;113.39;1040.37;3.46002593;10;149
44;paravance-24.rennes.grid5000.fr;thermos-root-devel-WordCountTopology-1-9db6d0ee-bd2c-49aa-9299-206d213a70e1;["container_1_Consume_and_count_1"];4.25;1533340081.51742;295.73;1402.22;3.684712272;10;151
44;paravance-23.rennes.grid5000.fr;thermos-root-devel-WordCountTopology-0-a6f0e423-1080-4cf3-ac15-437e6a3c888d;["topology_master"];4.25;1533340081.58189;5.34;12.4;0.003997946;9;117
45;paravance-24.rennes.grid5000.fr;thermos-root-devel-WordCountTopology-1-9db6d0ee-bd2c-49aa-9299-206d213a70e1;["container_1_Consume_and_count_1"];4.25;1533340091.73334;301.91;1429.17;3.684712272;10;151
45;paravance-23.rennes.grid5000.fr;thermos-root-devel-WordCountTopology-0-a6f0e423-1080-4cf3-ac15-437e6a3c888d;["topology_master"];4.25;1533340091.79911;5.42;12.52;0.003997946;9;117
45;paravance-18.rennes.grid5000.fr;thermos-root-devel-WordCountTopology-2-6c9ecef3-aa1e-462f-a33a-4d672ad63875;["container_2_Emit_random_words_2"];4.25;1533340091.79437;115.54;1059.75;3.46002593;10;149
46;paravance-23.rennes.grid5000.fr;thermos-root-devel-WordCountTopology-0-a6f0e423-1080-4cf3-ac15-437e6a3c888d;["topology_master"];4.25;1533340102.01474;5.48;12.59;0.003997946;9;117
46;paravance-18.rennes.grid5000.fr;thermos-root-devel-WordCountTopology-2-6c9ecef3-aa1e-462f-a33a-4d672ad63875;["container_2_Emit_random_words_2"];4.25;1533340102.01135;117.72;1079.18;3.46002593;10;149
46;paravance-24.rennes.grid5000.fr;thermos-root-devel-WordCountTopology-1-9db6d0ee-bd2c-49aa-9299-206d213a70e1;["container_1_Consume_and_count_1"];4.25;1533340101.95164;308.02;1456.67;3.684712272;10;151
47;paravance-23.rennes.grid5000.fr;thermos-root-devel-WordCountTopology-0-a6f0e423-1080-4cf3-ac15-437e6a3c888d;["topology_master"];4.25;1533340112.23377;5.54;12.67;0.003997946;9;117
47;paravance-24.rennes.grid5000.fr;thermos-root-devel-WordCountTopology-1-9db6d0ee-bd2c-49aa-9299-206d213a70e1;["container_1_Consume_and_count_1"];4.25;1533340112.16962;313.84;1483.53;3.684712272;10;151
47;paravance-18.rennes.grid5000.fr;thermos-root-devel-WordCountTopology-2-6c9ecef3-aa1e-462f-a33a-4d672ad63875;["container_2_Emit_random_words_2"];4.25;1533340112.22904;119.89;1098.55;3.46002593;10;149
48;paravance-18.rennes.grid5000.fr;thermos-root-devel-WordCountTopology-2-6c9ecef3-aa1e-462f-a33a-4d672ad63875;["container_2_Emit_random_words_2"];4.25;1533340122.34728;122.04;1117.87;3.46002593;10;149
48;paravance-24.rennes.grid5000.fr;thermos-root-devel-WordCountTopology-1-9db6d0ee-bd2c-49aa-9299-206d213a70e1;["container_1_Consume_and_count_1"];4.25;1533340122.38639;320.03;1512.06;3.684712272;10;151
48;paravance-23.rennes.grid5000.fr;thermos-root-devel-WordCountTopology-0-a6f0e423-1080-4cf3-ac15-437e6a3c888d;["topology_master"];4.25;1533340122.45198;5.61;12.79;0.003997946;9;117
49;paravance-18.rennes.grid5000.fr;thermos-root-devel-WordCountTopology-2-6c9ecef3-aa1e-462f-a33a-4d672ad63875;["container_2_Emit_random_words_2"];4.25;1533340132.66298;124.2;1137.31;3.46002593;10;149
49;paravance-24.rennes.grid5000.fr;thermos-root-devel-WordCountTopology-1-9db6d0ee-bd2c-49aa-9299-206d213a70e1;["container_1_Consume_and_count_1"];4.25;1533340132.60175;325.75;1539.8;3.684712272;10;151
49;paravance-23.rennes.grid5000.fr;thermos-root-devel-WordCountTopology-0-a6f0e423-1080-4cf3-ac15-437e6a3c888d;["topology_master"];4.25;1533340132.66823;5.69;12.91;0.003997946;9;117
50;paravance-24.rennes.grid5000.fr;thermos-root-devel-WordCountTopology-1-9db6d0ee-bd2c-49aa-9299-206d213a70e1;["container_1_Consume_and_count_1"];4.25;1533340142.82022;331.67;1567.04;3.684712272;10;151
50;paravance-18.rennes.grid5000.fr;thermos-root-devel-WordCountTopology-2-6c9ecef3-aa1e-462f-a33a-4d672ad63875;["container_2_Emit_random_words_2"];4.25;1533340142.87844;126.33;1156.68;3.46002593;10;149
50;paravance-23.rennes.grid5000.fr;thermos-root-devel-WordCountTopology-0-a6f0e423-1080-4cf3-ac15-437e6a3c888d;["topology_master"];4.25;1533340142.88277;5.72;12.94;0.003997946;9;117
51;paravance-24.rennes.grid5000.fr;thermos-root-devel-WordCountTopology-1-9db6d0ee-bd2c-49aa-9299-206d213a70e1;["container_1_Consume_and_count_1"];4.25;1533340153.03585;337.74;1595.06;3.697855843;10;151
51;paravance-18.rennes.grid5000.fr;thermos-root-devel-WordCountTopology-2-6c9ecef3-aa1e-462f-a33a-4d672ad63875;["container_2_Emit_random_words_2"];4.25;1533340153.0957;128.53;1176.12;3.46002593;10;149
51;paravance-23.rennes.grid5000.fr;thermos-root-devel-WordCountTopology-0-a6f0e423-1080-4cf3-ac15-437e6a3c888d;["topology_master"];4.25;1533340153.1003;5.81;13.07;0.003997946;9;117
52;paravance-24.rennes.grid5000.fr;thermos-root-devel-WordCountTopology-1-9db6d0ee-bd2c-49aa-9299-206d213a70e1;["container_1_Consume_and_count_1"];4.25;1533340163.25215;343.79;1622.79;3.697855843;10;151
52;paravance-18.rennes.grid5000.fr;thermos-root-devel-WordCountTopology-2-6c9ecef3-aa1e-462f-a33a-4d672ad63875;["container_2_Emit_random_words_2"];4.25;1533340163.31328;130.69;1195.43;3.46002593;10;149
52;paravance-23.rennes.grid5000.fr;thermos-root-devel-WordCountTopology-0-a6f0e423-1080-4cf3-ac15-437e6a3c888d;["topology_master"];4.25;1533340163.31751;5.87;13.14;0.003997946;9;117
53;paravance-24.rennes.grid5000.fr;thermos-root-devel-WordCountTopology-1-9db6d0ee-bd2c-49aa-9299-206d213a70e1;["container_1_Consume_and_count_1"];4.25;1533340173.47042;349.57;1650.41;3.697855843;10;151
53;paravance-18.rennes.grid5000.fr;thermos-root-devel-WordCountTopology-2-6c9ecef3-aa1e-462f-a33a-4d672ad63875;["container_2_Emit_random_words_2"];4.25;1533340173.53066;132.87;1214.69;3.46002593;10;149
53;paravance-23.rennes.grid5000.fr;thermos-root-devel-WordCountTopology-0-a6f0e423-1080-4cf3-ac15-437e6a3c888d;["topology_master"];4.25;1533340173.53521;5.94;13.25;0.003997946;9;117
54;paravance-24.rennes.grid5000.fr;thermos-root-devel-WordCountTopology-1-9db6d0ee-bd2c-49aa-9299-206d213a70e1;["container_1_Consume_and_count_1"];4.25;1533340183.68655;355.3;1677.27;3.698108734;10;151
54;paravance-23.rennes.grid5000.fr;thermos-root-devel-WordCountTopology-0-a6f0e423-1080-4cf3-ac15-437e6a3c888d;["topology_master"];4.25;1533340183.75198;6.0;13.33;0.003997946;9;117
54;paravance-18.rennes.grid5000.fr;thermos-root-devel-WordCountTopology-2-6c9ecef3-aa1e-462f-a33a-4d672ad63875;["container_2_Emit_random_words_2"];4.25;1533340183.74792;134.95;1233.62;3.46002593;10;149
55;paravance-18.rennes.grid5000.fr;thermos-root-devel-WordCountTopology-2-6c9ecef3-aa1e-462f-a33a-4d672ad63875;["container_2_Emit_random_words_2"];4.25;1533340193.96179;137.13;1252.75;3.46002593;10;149
55;paravance-24.rennes.grid5000.fr;thermos-root-devel-WordCountTopology-1-9db6d0ee-bd2c-49aa-9299-206d213a70e1;["container_1_Consume_and_count_1"];4.25;1533340193.90377;361.03;1705.5;3.698108734;10;151
55;paravance-23.rennes.grid5000.fr;thermos-root-devel-WordCountTopology-0-a6f0e423-1080-4cf3-ac15-437e6a3c888d;["topology_master"];4.25;1533340193.96777;6.08;13.44;0.003997946;9;117
56;paravance-18.rennes.grid5000.fr;thermos-root-devel-WordCountTopology-2-6c9ecef3-aa1e-462f-a33a-4d672ad63875;["container_2_Emit_random_words_2"];4.25;1533340204.17946;139.25;1271.85;3.46002593;10;149
56;paravance-24.rennes.grid5000.fr;thermos-root-devel-WordCountTopology-1-9db6d0ee-bd2c-49aa-9299-206d213a70e1;["container_1_Consume_and_count_1"];4.25;1533340204.12112;366.96;1733.33;3.698108734;10;151
56;paravance-23.rennes.grid5000.fr;thermos-root-devel-WordCountTopology-0-a6f0e423-1080-4cf3-ac15-437e6a3c888d;["topology_master"];4.25;1533340204.18342;6.11;13.47;0.003997946;9;117
57;paravance-18.rennes.grid5000.fr;thermos-root-devel-WordCountTopology-2-6c9ecef3-aa1e-462f-a33a-4d672ad63875;["container_2_Emit_random_words_2"];4.25;1533340214.39765;141.44;1291.21;3.46002593;10;149
57;paravance-24.rennes.grid5000.fr;thermos-root-devel-WordCountTopology-1-9db6d0ee-bd2c-49aa-9299-206d213a70e1;["container_1_Consume_and_count_1"];4.25;1533340214.33911;372.99;1761.71;3.698687919;10;151
57;paravance-23.rennes.grid5000.fr;thermos-root-devel-WordCountTopology-0-a6f0e423-1080-4cf3-ac15-437e6a3c888d;["topology_master"];4.25;1533340214.40286;6.2;13.59;0.003997946;9;117
58;paravance-18.rennes.grid5000.fr;thermos-root-devel-WordCountTopology-2-6c9ecef3-aa1e-462f-a33a-4d672ad63875;["container_2_Emit_random_words_2"];4.25;1533340224.61369;143.6;1310.58;3.46002593;10;149
58;paravance-24.rennes.grid5000.fr;thermos-root-devel-WordCountTopology-1-9db6d0ee-bd2c-49aa-9299-206d213a70e1;["container_1_Consume_and_count_1"];4.25;1533340224.554;378.95;1789.92;3.698687919;10;151
58;paravance-23.rennes.grid5000.fr;thermos-root-devel-WordCountTopology-0-a6f0e423-1080-4cf3-ac15-437e6a3c888d;["topology_master"];4.25;1533340224.61822;6.25;13.66;0.003997946;9;117
59;paravance-18.rennes.grid5000.fr;thermos-root-devel-WordCountTopology-2-6c9ecef3-aa1e-462f-a33a-4d672ad63875;["container_2_Emit_random_words_2"];4.25;1533340234.82656;145.78;1329.95;3.46002593;10;149
59;paravance-24.rennes.grid5000.fr;thermos-root-devel-WordCountTopology-1-9db6d0ee-bd2c-49aa-9299-206d213a70e1;["container_1_Consume_and_count_1"];4.25;1533340234.76729;384.51;1816.79;3.712728234;10;151
59;paravance-23.rennes.grid5000.fr;thermos-root-devel-WordCountTopology-0-a6f0e423-1080-4cf3-ac15-437e6a3c888d;["topology_master"];4.25;1533340234.8321;6.32;13.77;0.003997946;9;117
60;paravance-24.rennes.grid5000.fr;thermos-root-devel-WordCountTopology-1-9db6d0ee-bd2c-49aa-9299-206d213a70e1;["container_1_Consume_and_count_1"];4.25;1533340244.98079;389.73;1843.41;3.712728234;10;151
60;paravance-18.rennes.grid5000.fr;thermos-root-devel-WordCountTopology-2-6c9ecef3-aa1e-462f-a33a-4d672ad63875;["container_2_Emit_random_words_2"];4.25;1533340245.04103;147.96;1349.15;3.46002593;10;149
60;paravance-23.rennes.grid5000.fr;thermos-root-devel-WordCountTopology-0-a6f0e423-1080-4cf3-ac15-437e6a3c888d;["topology_master"];4.25;1533340245.04557;6.37;13.84;0.003997946;9;117
