mesure_id;slave_id;executor_id;heron_instances;cpus_limit;timestamp_A;cpus_system_time_secs_A;cpus_user_time_secs_A;cpus_throttled_time_secs_A;processes;threads
0;paravance-27.rennes.grid5000.fr;thermos-root-devel-WordCountTopology-2-5e6f3fd8-dd8c-4347-b6f3-44d9debbfbed;["container_2_Emit_random_words_2"];5.25;1533387597.43031;30.83;164.97;1.362460283;10;149
0;paravance-32.rennes.grid5000.fr;thermos-root-devel-WordCountTopology-1-612191e8-726f-49b9-8b7f-cb2ac7f0da5a;["container_1_Consume_and_count_1"];5.25;1533387597.42983;57.05;206.41;0.555021551;10;151
0;paravance-36.rennes.grid5000.fr;thermos-root-devel-WordCountTopology-0-17eb380f-25cc-488c-acb8-1764500015b0;["topology_master"];5.25;1533387597.43116;2.42;7.97;0.0;9;117
1;paravance-32.rennes.grid5000.fr;thermos-root-devel-WordCountTopology-1-612191e8-726f-49b9-8b7f-cb2ac7f0da5a;["container_1_Consume_and_count_1"];5.25;1533387607.6481;63.99;231.0;0.555021551;10;151
1;paravance-27.rennes.grid5000.fr;thermos-root-devel-WordCountTopology-2-5e6f3fd8-dd8c-4347-b6f3-44d9debbfbed;["container_2_Emit_random_words_2"];5.25;1533387607.6477;34.39;182.98;1.362460283;10;149
1;paravance-36.rennes.grid5000.fr;thermos-root-devel-WordCountTopology-0-17eb380f-25cc-488c-acb8-1764500015b0;["topology_master"];5.25;1533387607.64736;2.48;8.11;0.0;9;117
2;paravance-27.rennes.grid5000.fr;thermos-root-devel-WordCountTopology-2-5e6f3fd8-dd8c-4347-b6f3-44d9debbfbed;["container_2_Emit_random_words_2"];5.25;1533387617.86329;37.82;201.04;1.362460283;10;149
2;paravance-36.rennes.grid5000.fr;thermos-root-devel-WordCountTopology-0-17eb380f-25cc-488c-acb8-1764500015b0;["topology_master"];5.25;1533387617.86386;2.58;8.24;0.0;9;117
2;paravance-32.rennes.grid5000.fr;thermos-root-devel-WordCountTopology-1-612191e8-726f-49b9-8b7f-cb2ac7f0da5a;["container_1_Consume_and_count_1"];5.25;1533387617.86461;70.75;255.11;0.555021551;10;151
3;paravance-27.rennes.grid5000.fr;thermos-root-devel-WordCountTopology-2-5e6f3fd8-dd8c-4347-b6f3-44d9debbfbed;["container_2_Emit_random_words_2"];5.25;1533387628.078;41.26;218.92;1.362460283;10;149
3;paravance-32.rennes.grid5000.fr;thermos-root-devel-WordCountTopology-1-612191e8-726f-49b9-8b7f-cb2ac7f0da5a;["container_1_Consume_and_count_1"];5.25;1533387628.07962;77.46;279.54;0.555021551;10;151
3;paravance-36.rennes.grid5000.fr;thermos-root-devel-WordCountTopology-0-17eb380f-25cc-488c-acb8-1764500015b0;["topology_master"];5.25;1533387628.08006;2.64;8.33;0.0;9;117
4;paravance-32.rennes.grid5000.fr;thermos-root-devel-WordCountTopology-1-612191e8-726f-49b9-8b7f-cb2ac7f0da5a;["container_1_Consume_and_count_1"];5.25;1533387638.1937;84.29;303.85;0.555021551;10;151
4;paravance-27.rennes.grid5000.fr;thermos-root-devel-WordCountTopology-2-5e6f3fd8-dd8c-4347-b6f3-44d9debbfbed;["container_2_Emit_random_words_2"];5.25;1533387638.29458;44.6;236.52;1.362460283;10;149
4;paravance-36.rennes.grid5000.fr;thermos-root-devel-WordCountTopology-0-17eb380f-25cc-488c-acb8-1764500015b0;["topology_master"];5.25;1533387638.29413;2.7;8.41;0.0;9;117
5;paravance-27.rennes.grid5000.fr;thermos-root-devel-WordCountTopology-2-5e6f3fd8-dd8c-4347-b6f3-44d9debbfbed;["container_2_Emit_random_words_2"];5.25;1533387648.40965;47.94;254.21;1.362460283;10;149
5;paravance-32.rennes.grid5000.fr;thermos-root-devel-WordCountTopology-1-612191e8-726f-49b9-8b7f-cb2ac7f0da5a;["container_1_Consume_and_count_1"];5.25;1533387648.51018;90.94;328.88;0.555021551;10;151
5;paravance-36.rennes.grid5000.fr;thermos-root-devel-WordCountTopology-0-17eb380f-25cc-488c-acb8-1764500015b0;["topology_master"];5.25;1533387648.50987;2.76;8.48;0.0;9;117
6;paravance-32.rennes.grid5000.fr;thermos-root-devel-WordCountTopology-1-612191e8-726f-49b9-8b7f-cb2ac7f0da5a;["container_1_Consume_and_count_1"];5.25;1533387658.72598;97.29;352.88;0.561171356;10;151
6;paravance-27.rennes.grid5000.fr;thermos-root-devel-WordCountTopology-2-5e6f3fd8-dd8c-4347-b6f3-44d9debbfbed;["container_2_Emit_random_words_2"];5.25;1533387658.72711;51.33;272.29;1.362460283;10;149
6;paravance-36.rennes.grid5000.fr;thermos-root-devel-WordCountTopology-0-17eb380f-25cc-488c-acb8-1764500015b0;["topology_master"];5.25;1533387658.72606;2.88;8.68;0.0;9;117
7;paravance-27.rennes.grid5000.fr;thermos-root-devel-WordCountTopology-2-5e6f3fd8-dd8c-4347-b6f3-44d9debbfbed;["container_2_Emit_random_words_2"];5.25;1533387668.94526;54.67;289.92;1.362460283;10;149
7;paravance-36.rennes.grid5000.fr;thermos-root-devel-WordCountTopology-0-17eb380f-25cc-488c-acb8-1764500015b0;["topology_master"];5.25;1533387668.94519;2.9;8.71;0.0;9;117
7;paravance-32.rennes.grid5000.fr;thermos-root-devel-WordCountTopology-1-612191e8-726f-49b9-8b7f-cb2ac7f0da5a;["container_1_Consume_and_count_1"];5.25;1533387668.94413;104.06;378.37;0.623577625;10;151
8;paravance-27.rennes.grid5000.fr;thermos-root-devel-WordCountTopology-2-5e6f3fd8-dd8c-4347-b6f3-44d9debbfbed;["container_2_Emit_random_words_2"];5.25;1533387679.16189;57.99;307.51;1.362460283;10;149
8;paravance-36.rennes.grid5000.fr;thermos-root-devel-WordCountTopology-0-17eb380f-25cc-488c-acb8-1764500015b0;["topology_master"];5.25;1533387679.16102;3.0;8.85;0.0;9;117
8;paravance-32.rennes.grid5000.fr;thermos-root-devel-WordCountTopology-1-612191e8-726f-49b9-8b7f-cb2ac7f0da5a;["container_1_Consume_and_count_1"];5.25;1533387679.16241;110.61;403.58;0.623577625;10;151
9;paravance-36.rennes.grid5000.fr;thermos-root-devel-WordCountTopology-0-17eb380f-25cc-488c-acb8-1764500015b0;["topology_master"];5.25;1533387689.37883;3.06;8.92;0.0;9;117
9;paravance-32.rennes.grid5000.fr;thermos-root-devel-WordCountTopology-1-612191e8-726f-49b9-8b7f-cb2ac7f0da5a;["container_1_Consume_and_count_1"];5.25;1533387689.37938;117.11;429.25;0.623577625;10;151
9;paravance-27.rennes.grid5000.fr;thermos-root-devel-WordCountTopology-2-5e6f3fd8-dd8c-4347-b6f3-44d9debbfbed;["container_2_Emit_random_words_2"];5.25;1533387689.38037;61.35;325.26;1.362460283;10;149
10;paravance-32.rennes.grid5000.fr;thermos-root-devel-WordCountTopology-1-612191e8-726f-49b9-8b7f-cb2ac7f0da5a;["container_1_Consume_and_count_1"];5.25;1533387699.59745;123.61;454.78;0.623577625;10;151
10;paravance-36.rennes.grid5000.fr;thermos-root-devel-WordCountTopology-0-17eb380f-25cc-488c-acb8-1764500015b0;["topology_master"];5.25;1533387699.59713;3.12;9.0;0.0;9;117
10;paravance-27.rennes.grid5000.fr;thermos-root-devel-WordCountTopology-2-5e6f3fd8-dd8c-4347-b6f3-44d9debbfbed;["container_2_Emit_random_words_2"];5.25;1533387699.5974;64.7;342.96;1.362460283;10;149
11;paravance-36.rennes.grid5000.fr;thermos-root-devel-WordCountTopology-0-17eb380f-25cc-488c-acb8-1764500015b0;["topology_master"];5.25;1533387709.7133;3.17;9.07;0.0;9;117
11;paravance-27.rennes.grid5000.fr;thermos-root-devel-WordCountTopology-2-5e6f3fd8-dd8c-4347-b6f3-44d9debbfbed;["container_2_Emit_random_words_2"];5.25;1533387709.81383;68.05;360.6;1.362460283;10;149
11;paravance-32.rennes.grid5000.fr;thermos-root-devel-WordCountTopology-1-612191e8-726f-49b9-8b7f-cb2ac7f0da5a;["container_1_Consume_and_count_1"];5.25;1533387709.81271;130.14;480.37;0.623577625;10;151
12;paravance-27.rennes.grid5000.fr;thermos-root-devel-WordCountTopology-2-5e6f3fd8-dd8c-4347-b6f3-44d9debbfbed;["container_2_Emit_random_words_2"];5.25;1533387720.02746;71.47;378.82;1.362460283;10;149
12;paravance-32.rennes.grid5000.fr;thermos-root-devel-WordCountTopology-1-612191e8-726f-49b9-8b7f-cb2ac7f0da5a;["container_1_Consume_and_count_1"];5.25;1533387720.02672;136.79;506.98;0.655772771;10;151
12;paravance-36.rennes.grid5000.fr;thermos-root-devel-WordCountTopology-0-17eb380f-25cc-488c-acb8-1764500015b0;["topology_master"];5.25;1533387720.02783;3.3;9.33;0.0;9;117
13;paravance-36.rennes.grid5000.fr;thermos-root-devel-WordCountTopology-0-17eb380f-25cc-488c-acb8-1764500015b0;["topology_master"];5.25;1533387730.14218;3.32;9.35;0.0;9;117
13;paravance-27.rennes.grid5000.fr;thermos-root-devel-WordCountTopology-2-5e6f3fd8-dd8c-4347-b6f3-44d9debbfbed;["container_2_Emit_random_words_2"];5.25;1533387730.24217;74.84;396.7;1.362460283;10;149
13;paravance-32.rennes.grid5000.fr;thermos-root-devel-WordCountTopology-1-612191e8-726f-49b9-8b7f-cb2ac7f0da5a;["container_1_Consume_and_count_1"];5.25;1533387730.24171;143.52;532.71;0.655772771;10;151
14;paravance-36.rennes.grid5000.fr;thermos-root-devel-WordCountTopology-0-17eb380f-25cc-488c-acb8-1764500015b0;["topology_master"];5.25;1533387740.45622;3.42;9.51;0.0;9;117
14;paravance-32.rennes.grid5000.fr;thermos-root-devel-WordCountTopology-1-612191e8-726f-49b9-8b7f-cb2ac7f0da5a;["container_1_Consume_and_count_1"];5.25;1533387740.45653;150.19;558.1;0.655772771;10;151
14;paravance-27.rennes.grid5000.fr;thermos-root-devel-WordCountTopology-2-5e6f3fd8-dd8c-4347-b6f3-44d9debbfbed;["container_2_Emit_random_words_2"];5.25;1533387740.45747;78.35;414.76;1.362460283;10;149
15;paravance-36.rennes.grid5000.fr;thermos-root-devel-WordCountTopology-0-17eb380f-25cc-488c-acb8-1764500015b0;["topology_master"];5.25;1533387750.67436;3.47;9.58;0.0;9;117
15;paravance-32.rennes.grid5000.fr;thermos-root-devel-WordCountTopology-1-612191e8-726f-49b9-8b7f-cb2ac7f0da5a;["container_1_Consume_and_count_1"];5.25;1533387750.67362;156.61;582.45;0.655772771;10;151
15;paravance-27.rennes.grid5000.fr;thermos-root-devel-WordCountTopology-2-5e6f3fd8-dd8c-4347-b6f3-44d9debbfbed;["container_2_Emit_random_words_2"];5.25;1533387750.6762;81.68;432.7;1.362460283;10;149
16;paravance-27.rennes.grid5000.fr;thermos-root-devel-WordCountTopology-2-5e6f3fd8-dd8c-4347-b6f3-44d9debbfbed;["container_2_Emit_random_words_2"];5.25;1533387760.89137;85.24;450.84;1.362460283;10;149
16;paravance-36.rennes.grid5000.fr;thermos-root-devel-WordCountTopology-0-17eb380f-25cc-488c-acb8-1764500015b0;["topology_master"];5.25;1533387760.89009;3.53;9.67;0.0;9;117
16;paravance-32.rennes.grid5000.fr;thermos-root-devel-WordCountTopology-1-612191e8-726f-49b9-8b7f-cb2ac7f0da5a;["container_1_Consume_and_count_1"];5.25;1533387760.89072;163.19;607.78;0.655772771;10;151
17;paravance-32.rennes.grid5000.fr;thermos-root-devel-WordCountTopology-1-612191e8-726f-49b9-8b7f-cb2ac7f0da5a;["container_1_Consume_and_count_1"];5.25;1533387771.10869;170.0;634.5;0.655772771;10;151
17;paravance-36.rennes.grid5000.fr;thermos-root-devel-WordCountTopology-0-17eb380f-25cc-488c-acb8-1764500015b0;["topology_master"];5.25;1533387771.10788;3.59;9.74;0.0;9;117
17;paravance-27.rennes.grid5000.fr;thermos-root-devel-WordCountTopology-2-5e6f3fd8-dd8c-4347-b6f3-44d9debbfbed;["container_2_Emit_random_words_2"];5.25;1533387771.1093;88.79;469.26;1.362460283;10;149
18;paravance-32.rennes.grid5000.fr;thermos-root-devel-WordCountTopology-1-612191e8-726f-49b9-8b7f-cb2ac7f0da5a;["container_1_Consume_and_count_1"];5.25;1533387781.32564;176.71;661.06;0.655772771;10;151
18;paravance-27.rennes.grid5000.fr;thermos-root-devel-WordCountTopology-2-5e6f3fd8-dd8c-4347-b6f3-44d9debbfbed;["container_2_Emit_random_words_2"];5.25;1533387781.327;92.33;487.36;1.362460283;10;149
18;paravance-36.rennes.grid5000.fr;thermos-root-devel-WordCountTopology-0-17eb380f-25cc-488c-acb8-1764500015b0;["topology_master"];5.25;1533387781.32556;3.71;10.01;0.0;9;117
19;paravance-27.rennes.grid5000.fr;thermos-root-devel-WordCountTopology-2-5e6f3fd8-dd8c-4347-b6f3-44d9debbfbed;["container_2_Emit_random_words_2"];5.25;1533387791.54382;95.86;505.86;1.362460283;10;149
19;paravance-36.rennes.grid5000.fr;thermos-root-devel-WordCountTopology-0-17eb380f-25cc-488c-acb8-1764500015b0;["topology_master"];5.25;1533387791.54237;3.74;10.03;0.0;9;117
19;paravance-32.rennes.grid5000.fr;thermos-root-devel-WordCountTopology-1-612191e8-726f-49b9-8b7f-cb2ac7f0da5a;["container_1_Consume_and_count_1"];5.25;1533387791.54306;183.37;686.4;0.655772771;10;151
20;paravance-36.rennes.grid5000.fr;thermos-root-devel-WordCountTopology-0-17eb380f-25cc-488c-acb8-1764500015b0;["topology_master"];5.25;1533387801.76191;3.83;10.17;0.0;9;117
20;paravance-27.rennes.grid5000.fr;thermos-root-devel-WordCountTopology-2-5e6f3fd8-dd8c-4347-b6f3-44d9debbfbed;["container_2_Emit_random_words_2"];5.25;1533387801.76174;99.41;524.04;1.362460283;10;149
20;paravance-32.rennes.grid5000.fr;thermos-root-devel-WordCountTopology-1-612191e8-726f-49b9-8b7f-cb2ac7f0da5a;["container_1_Consume_and_count_1"];5.25;1533387801.7614;190.07;712.19;0.655772771;10;151
21;paravance-32.rennes.grid5000.fr;thermos-root-devel-WordCountTopology-1-612191e8-726f-49b9-8b7f-cb2ac7f0da5a;["container_1_Consume_and_count_1"];5.25;1533387811.98002;196.76;737.6;0.659469151;10;151
21;paravance-36.rennes.grid5000.fr;thermos-root-devel-WordCountTopology-0-17eb380f-25cc-488c-acb8-1764500015b0;["topology_master"];5.25;1533387811.97979;3.89;10.24;0.0;9;117
21;paravance-27.rennes.grid5000.fr;thermos-root-devel-WordCountTopology-2-5e6f3fd8-dd8c-4347-b6f3-44d9debbfbed;["container_2_Emit_random_words_2"];5.25;1533387811.98083;102.98;542.49;1.362460283;10;149
22;paravance-36.rennes.grid5000.fr;thermos-root-devel-WordCountTopology-0-17eb380f-25cc-488c-acb8-1764500015b0;["topology_master"];5.25;1533387822.20204;3.95;10.32;0.0;9;117
22;paravance-32.rennes.grid5000.fr;thermos-root-devel-WordCountTopology-1-612191e8-726f-49b9-8b7f-cb2ac7f0da5a;["container_1_Consume_and_count_1"];5.25;1533387822.20201;203.31;762.8;0.66747394;10;151
22;paravance-27.rennes.grid5000.fr;thermos-root-devel-WordCountTopology-2-5e6f3fd8-dd8c-4347-b6f3-44d9debbfbed;["container_2_Emit_random_words_2"];5.25;1533387822.20439;106.37;560.54;1.362460283;10;149
23;paravance-36.rennes.grid5000.fr;thermos-root-devel-WordCountTopology-0-17eb380f-25cc-488c-acb8-1764500015b0;["topology_master"];5.25;1533387832.41869;4.0;10.39;0.0;9;117
23;paravance-27.rennes.grid5000.fr;thermos-root-devel-WordCountTopology-2-5e6f3fd8-dd8c-4347-b6f3-44d9debbfbed;["container_2_Emit_random_words_2"];5.25;1533387832.42115;109.74;578.52;1.362460283;10;149
23;paravance-32.rennes.grid5000.fr;thermos-root-devel-WordCountTopology-1-612191e8-726f-49b9-8b7f-cb2ac7f0da5a;["container_1_Consume_and_count_1"];5.25;1533387832.41967;209.81;788.35;0.66747394;10;151
24;paravance-32.rennes.grid5000.fr;thermos-root-devel-WordCountTopology-1-612191e8-726f-49b9-8b7f-cb2ac7f0da5a;["container_1_Consume_and_count_1"];5.25;1533387842.63734;216.38;813.68;0.66747394;10;151
24;paravance-27.rennes.grid5000.fr;thermos-root-devel-WordCountTopology-2-5e6f3fd8-dd8c-4347-b6f3-44d9debbfbed;["container_2_Emit_random_words_2"];5.25;1533387842.63847;113.23;596.73;1.362460283;10;149
24;paravance-36.rennes.grid5000.fr;thermos-root-devel-WordCountTopology-0-17eb380f-25cc-488c-acb8-1764500015b0;["topology_master"];5.25;1533387842.63705;4.12;10.57;0.0;9;117
25;paravance-32.rennes.grid5000.fr;thermos-root-devel-WordCountTopology-1-612191e8-726f-49b9-8b7f-cb2ac7f0da5a;["container_1_Consume_and_count_1"];5.25;1533387852.85493;222.89;839.55;0.66747394;10;151
25;paravance-36.rennes.grid5000.fr;thermos-root-devel-WordCountTopology-0-17eb380f-25cc-488c-acb8-1764500015b0;["topology_master"];5.25;1533387852.85476;4.15;10.59;0.0;9;117
25;paravance-27.rennes.grid5000.fr;thermos-root-devel-WordCountTopology-2-5e6f3fd8-dd8c-4347-b6f3-44d9debbfbed;["container_2_Emit_random_words_2"];5.25;1533387852.85577;116.78;614.87;1.362460283;10;149
26;paravance-32.rennes.grid5000.fr;thermos-root-devel-WordCountTopology-1-612191e8-726f-49b9-8b7f-cb2ac7f0da5a;["container_1_Consume_and_count_1"];5.25;1533387863.07114;229.57;866.95;0.673820931;10;151
26;paravance-36.rennes.grid5000.fr;thermos-root-devel-WordCountTopology-0-17eb380f-25cc-488c-acb8-1764500015b0;["topology_master"];5.25;1533387863.07094;4.24;10.72;0.0;9;117
26;paravance-27.rennes.grid5000.fr;thermos-root-devel-WordCountTopology-2-5e6f3fd8-dd8c-4347-b6f3-44d9debbfbed;["container_2_Emit_random_words_2"];5.25;1533387863.07254;120.38;632.98;1.362460283;10;149
27;paravance-27.rennes.grid5000.fr;thermos-root-devel-WordCountTopology-2-5e6f3fd8-dd8c-4347-b6f3-44d9debbfbed;["container_2_Emit_random_words_2"];5.25;1533387873.28581;123.78;650.79;1.362460283;10;149
27;paravance-32.rennes.grid5000.fr;thermos-root-devel-WordCountTopology-1-612191e8-726f-49b9-8b7f-cb2ac7f0da5a;["container_1_Consume_and_count_1"];5.25;1533387873.28588;236.12;893.7;0.676070405;10;151
27;paravance-36.rennes.grid5000.fr;thermos-root-devel-WordCountTopology-0-17eb380f-25cc-488c-acb8-1764500015b0;["topology_master"];5.25;1533387873.28693;4.3;10.8;0.0;9;117
28;paravance-36.rennes.grid5000.fr;thermos-root-devel-WordCountTopology-0-17eb380f-25cc-488c-acb8-1764500015b0;["topology_master"];5.25;1533387883.5002;4.36;10.87;0.0;9;117
28;paravance-27.rennes.grid5000.fr;thermos-root-devel-WordCountTopology-2-5e6f3fd8-dd8c-4347-b6f3-44d9debbfbed;["container_2_Emit_random_words_2"];5.25;1533387883.50203;127.15;668.9;1.362460283;10;149
28;paravance-32.rennes.grid5000.fr;thermos-root-devel-WordCountTopology-1-612191e8-726f-49b9-8b7f-cb2ac7f0da5a;["container_1_Consume_and_count_1"];5.25;1533387883.50001;242.66;919.38;0.691075729;10;151
29;paravance-36.rennes.grid5000.fr;thermos-root-devel-WordCountTopology-0-17eb380f-25cc-488c-acb8-1764500015b0;["topology_master"];5.25;1533387893.71802;4.46;11.01;0.0;9;117
29;paravance-32.rennes.grid5000.fr;thermos-root-devel-WordCountTopology-1-612191e8-726f-49b9-8b7f-cb2ac7f0da5a;["container_1_Consume_and_count_1"];5.25;1533387893.71879;249.17;944.81;0.691396289;10;151
29;paravance-27.rennes.grid5000.fr;thermos-root-devel-WordCountTopology-2-5e6f3fd8-dd8c-4347-b6f3-44d9debbfbed;["container_2_Emit_random_words_2"];5.25;1533387893.71954;130.65;687.1;1.362460283;10;149
30;paravance-32.rennes.grid5000.fr;thermos-root-devel-WordCountTopology-1-612191e8-726f-49b9-8b7f-cb2ac7f0da5a;["container_1_Consume_and_count_1"];5.25;1533387903.93657;255.55;970.16;0.69792054;10;151
30;paravance-27.rennes.grid5000.fr;thermos-root-devel-WordCountTopology-2-5e6f3fd8-dd8c-4347-b6f3-44d9debbfbed;["container_2_Emit_random_words_2"];5.25;1533387903.93791;133.95;704.96;1.362460283;10;149
30;paravance-36.rennes.grid5000.fr;thermos-root-devel-WordCountTopology-0-17eb380f-25cc-488c-acb8-1764500015b0;["topology_master"];5.25;1533387903.93573;4.52;11.14;0.0;9;117
31;paravance-32.rennes.grid5000.fr;thermos-root-devel-WordCountTopology-1-612191e8-726f-49b9-8b7f-cb2ac7f0da5a;["container_1_Consume_and_count_1"];5.25;1533387914.15671;262.05;995.05;0.701917062;10;151
31;paravance-27.rennes.grid5000.fr;thermos-root-devel-WordCountTopology-2-5e6f3fd8-dd8c-4347-b6f3-44d9debbfbed;["container_2_Emit_random_words_2"];5.25;1533387914.15637;137.36;722.94;1.362460283;10;149
31;paravance-36.rennes.grid5000.fr;thermos-root-devel-WordCountTopology-0-17eb380f-25cc-488c-acb8-1764500015b0;["topology_master"];5.25;1533387914.15629;4.58;11.22;0.0;9;117
32;paravance-27.rennes.grid5000.fr;thermos-root-devel-WordCountTopology-2-5e6f3fd8-dd8c-4347-b6f3-44d9debbfbed;["container_2_Emit_random_words_2"];5.25;1533387924.37255;140.56;740.85;1.362460283;10;149
32;paravance-32.rennes.grid5000.fr;thermos-root-devel-WordCountTopology-1-612191e8-726f-49b9-8b7f-cb2ac7f0da5a;["container_1_Consume_and_count_1"];5.25;1533387924.37177;268.29;1019.5;0.701917062;10;151
32;paravance-36.rennes.grid5000.fr;thermos-root-devel-WordCountTopology-0-17eb380f-25cc-488c-acb8-1764500015b0;["topology_master"];5.25;1533387924.37309;4.64;11.3;0.0;9;117
33;paravance-27.rennes.grid5000.fr;thermos-root-devel-WordCountTopology-2-5e6f3fd8-dd8c-4347-b6f3-44d9debbfbed;["container_2_Emit_random_words_2"];5.25;1533387934.58981;143.88;758.65;1.362460283;10;149
33;paravance-36.rennes.grid5000.fr;thermos-root-devel-WordCountTopology-0-17eb380f-25cc-488c-acb8-1764500015b0;["topology_master"];5.25;1533387934.58911;4.72;11.42;0.0;9;117
33;paravance-32.rennes.grid5000.fr;thermos-root-devel-WordCountTopology-1-612191e8-726f-49b9-8b7f-cb2ac7f0da5a;["container_1_Consume_and_count_1"];5.25;1533387934.58929;274.62;1043.99;0.701917062;10;151
34;paravance-27.rennes.grid5000.fr;thermos-root-devel-WordCountTopology-2-5e6f3fd8-dd8c-4347-b6f3-44d9debbfbed;["container_2_Emit_random_words_2"];5.25;1533387944.80468;147.25;776.51;1.362460283;10;149
34;paravance-36.rennes.grid5000.fr;thermos-root-devel-WordCountTopology-0-17eb380f-25cc-488c-acb8-1764500015b0;["topology_master"];5.25;1533387944.80673;4.75;11.45;0.0;9;117
34;paravance-32.rennes.grid5000.fr;thermos-root-devel-WordCountTopology-1-612191e8-726f-49b9-8b7f-cb2ac7f0da5a;["container_1_Consume_and_count_1"];5.25;1533387944.80643;280.99;1068.37;0.701917062;10;151
35;paravance-32.rennes.grid5000.fr;thermos-root-devel-WordCountTopology-1-612191e8-726f-49b9-8b7f-cb2ac7f0da5a;["container_1_Consume_and_count_1"];5.25;1533387954.92449;287.18;1093.04;0.701917062;10;151
35;paravance-36.rennes.grid5000.fr;thermos-root-devel-WordCountTopology-0-17eb380f-25cc-488c-acb8-1764500015b0;["topology_master"];5.25;1533387955.02396;4.85;11.58;0.0;9;117
35;paravance-27.rennes.grid5000.fr;thermos-root-devel-WordCountTopology-2-5e6f3fd8-dd8c-4347-b6f3-44d9debbfbed;["container_2_Emit_random_words_2"];5.25;1533387955.02692;150.61;794.49;1.362460283;10;149
36;paravance-32.rennes.grid5000.fr;thermos-root-devel-WordCountTopology-1-612191e8-726f-49b9-8b7f-cb2ac7f0da5a;["container_1_Consume_and_count_1"];5.25;1533387965.24038;293.4;1117.71;0.701917062;10;151
36;paravance-27.rennes.grid5000.fr;thermos-root-devel-WordCountTopology-2-5e6f3fd8-dd8c-4347-b6f3-44d9debbfbed;["container_2_Emit_random_words_2"];5.25;1533387965.23975;153.88;812.36;1.362460283;10;149
36;paravance-36.rennes.grid5000.fr;thermos-root-devel-WordCountTopology-0-17eb380f-25cc-488c-acb8-1764500015b0;["topology_master"];5.25;1533387965.24028;4.91;11.7;0.0;9;117
37;paravance-32.rennes.grid5000.fr;thermos-root-devel-WordCountTopology-1-612191e8-726f-49b9-8b7f-cb2ac7f0da5a;["container_1_Consume_and_count_1"];5.25;1533387975.4546;299.92;1146.0;0.733955122;10;151
37;paravance-36.rennes.grid5000.fr;thermos-root-devel-WordCountTopology-0-17eb380f-25cc-488c-acb8-1764500015b0;["topology_master"];5.25;1533387975.45565;5.0;11.82;0.0;9;117
37;paravance-27.rennes.grid5000.fr;thermos-root-devel-WordCountTopology-2-5e6f3fd8-dd8c-4347-b6f3-44d9debbfbed;["container_2_Emit_random_words_2"];5.25;1533387975.45664;157.23;830.26;1.362460283;10;149
38;paravance-27.rennes.grid5000.fr;thermos-root-devel-WordCountTopology-2-5e6f3fd8-dd8c-4347-b6f3-44d9debbfbed;["container_2_Emit_random_words_2"];5.25;1533387985.67187;160.57;848.12;1.362460283;10;149
38;paravance-32.rennes.grid5000.fr;thermos-root-devel-WordCountTopology-1-612191e8-726f-49b9-8b7f-cb2ac7f0da5a;["container_1_Consume_and_count_1"];5.25;1533387985.67124;306.41;1173.44;0.736035717;10;151
38;paravance-36.rennes.grid5000.fr;thermos-root-devel-WordCountTopology-0-17eb380f-25cc-488c-acb8-1764500015b0;["topology_master"];5.25;1533387985.67241;5.03;11.85;0.0;9;117
39;paravance-32.rennes.grid5000.fr;thermos-root-devel-WordCountTopology-1-612191e8-726f-49b9-8b7f-cb2ac7f0da5a;["container_1_Consume_and_count_1"];5.25;1533387995.88691;313.29;1202.87;0.762187787;10;151
39;paravance-27.rennes.grid5000.fr;thermos-root-devel-WordCountTopology-2-5e6f3fd8-dd8c-4347-b6f3-44d9debbfbed;["container_2_Emit_random_words_2"];5.25;1533387995.88813;164.08;866.17;1.362460283;10;149
39;paravance-36.rennes.grid5000.fr;thermos-root-devel-WordCountTopology-0-17eb380f-25cc-488c-acb8-1764500015b0;["topology_master"];5.25;1533387995.88744;5.11;11.97;0.0;9;117
40;paravance-32.rennes.grid5000.fr;thermos-root-devel-WordCountTopology-1-612191e8-726f-49b9-8b7f-cb2ac7f0da5a;["container_1_Consume_and_count_1"];5.25;1533388006.10708;319.79;1228.74;0.776576298;10;151
40;paravance-27.rennes.grid5000.fr;thermos-root-devel-WordCountTopology-2-5e6f3fd8-dd8c-4347-b6f3-44d9debbfbed;["container_2_Emit_random_words_2"];5.25;1533388006.10736;167.43;883.97;1.362460283;10;149
40;paravance-36.rennes.grid5000.fr;thermos-root-devel-WordCountTopology-0-17eb380f-25cc-488c-acb8-1764500015b0;["topology_master"];5.25;1533388006.10571;5.17;12.04;0.0;9;117
41;paravance-32.rennes.grid5000.fr;thermos-root-devel-WordCountTopology-1-612191e8-726f-49b9-8b7f-cb2ac7f0da5a;["container_1_Consume_and_count_1"];5.25;1533388016.32231;326.62;1255.46;0.776576298;10;151
41;paravance-27.rennes.grid5000.fr;thermos-root-devel-WordCountTopology-2-5e6f3fd8-dd8c-4347-b6f3-44d9debbfbed;["container_2_Emit_random_words_2"];5.25;1533388016.32438;170.95;901.6;1.362460283;10;149
41;paravance-36.rennes.grid5000.fr;thermos-root-devel-WordCountTopology-0-17eb380f-25cc-488c-acb8-1764500015b0;["topology_master"];5.25;1533388016.32312;5.24;12.14;0.0;9;117
42;paravance-27.rennes.grid5000.fr;thermos-root-devel-WordCountTopology-2-5e6f3fd8-dd8c-4347-b6f3-44d9debbfbed;["container_2_Emit_random_words_2"];5.25;1533388026.54095;174.47;919.44;1.362460283;10;149
42;paravance-32.rennes.grid5000.fr;thermos-root-devel-WordCountTopology-1-612191e8-726f-49b9-8b7f-cb2ac7f0da5a;["container_1_Consume_and_count_1"];5.25;1533388026.53956;333.25;1281.52;0.776601704;10;151
42;paravance-36.rennes.grid5000.fr;thermos-root-devel-WordCountTopology-0-17eb380f-25cc-488c-acb8-1764500015b0;["topology_master"];5.25;1533388026.53903;5.3;12.26;0.0;9;117
43;paravance-27.rennes.grid5000.fr;thermos-root-devel-WordCountTopology-2-5e6f3fd8-dd8c-4347-b6f3-44d9debbfbed;["container_2_Emit_random_words_2"];5.25;1533388036.75595;177.8;937.28;1.362460283;10;149
43;paravance-32.rennes.grid5000.fr;thermos-root-devel-WordCountTopology-1-612191e8-726f-49b9-8b7f-cb2ac7f0da5a;["container_1_Consume_and_count_1"];5.25;1533388036.75666;339.69;1307.51;0.789406752;10;151
43;paravance-36.rennes.grid5000.fr;thermos-root-devel-WordCountTopology-0-17eb380f-25cc-488c-acb8-1764500015b0;["topology_master"];5.25;1533388036.75854;5.39;12.38;0.0;9;117
44;paravance-27.rennes.grid5000.fr;thermos-root-devel-WordCountTopology-2-5e6f3fd8-dd8c-4347-b6f3-44d9debbfbed;["container_2_Emit_random_words_2"];5.25;1533388046.9752;181.07;954.8;1.362460283;10;149
44;paravance-36.rennes.grid5000.fr;thermos-root-devel-WordCountTopology-0-17eb380f-25cc-488c-acb8-1764500015b0;["topology_master"];5.25;1533388046.97383;5.42;12.42;0.0;9;117
44;paravance-32.rennes.grid5000.fr;thermos-root-devel-WordCountTopology-1-612191e8-726f-49b9-8b7f-cb2ac7f0da5a;["container_1_Consume_and_count_1"];5.25;1533388046.97644;346.0;1332.04;0.789406752;10;151
45;paravance-27.rennes.grid5000.fr;thermos-root-devel-WordCountTopology-2-5e6f3fd8-dd8c-4347-b6f3-44d9debbfbed;["container_2_Emit_random_words_2"];5.25;1533388057.18952;184.34;972.7;1.362460283;10;149
45;paravance-32.rennes.grid5000.fr;thermos-root-devel-WordCountTopology-1-612191e8-726f-49b9-8b7f-cb2ac7f0da5a;["container_1_Consume_and_count_1"];5.25;1533388057.19077;352.37;1356.71;0.789406752;10;151
45;paravance-36.rennes.grid5000.fr;thermos-root-devel-WordCountTopology-0-17eb380f-25cc-488c-acb8-1764500015b0;["topology_master"];5.25;1533388057.19099;5.51;12.54;0.0;9;117
46;paravance-36.rennes.grid5000.fr;thermos-root-devel-WordCountTopology-0-17eb380f-25cc-488c-acb8-1764500015b0;["topology_master"];5.25;1533388067.40673;5.56;12.61;0.0;9;117
46;paravance-32.rennes.grid5000.fr;thermos-root-devel-WordCountTopology-1-612191e8-726f-49b9-8b7f-cb2ac7f0da5a;["container_1_Consume_and_count_1"];5.25;1533388067.40674;358.99;1381.91;0.789406752;10;151
46;paravance-27.rennes.grid5000.fr;thermos-root-devel-WordCountTopology-2-5e6f3fd8-dd8c-4347-b6f3-44d9debbfbed;["container_2_Emit_random_words_2"];5.25;1533388067.40782;187.73;990.61;1.362460283;10;149
47;paravance-32.rennes.grid5000.fr;thermos-root-devel-WordCountTopology-1-612191e8-726f-49b9-8b7f-cb2ac7f0da5a;["container_1_Consume_and_count_1"];5.25;1533388077.62472;365.47;1406.87;0.789406752;10;151
47;paravance-27.rennes.grid5000.fr;thermos-root-devel-WordCountTopology-2-5e6f3fd8-dd8c-4347-b6f3-44d9debbfbed;["container_2_Emit_random_words_2"];5.25;1533388077.62615;191.24;1008.5;1.362460283;10;149
47;paravance-36.rennes.grid5000.fr;thermos-root-devel-WordCountTopology-0-17eb380f-25cc-488c-acb8-1764500015b0;["topology_master"];5.25;1533388077.62448;5.64;12.71;0.0;9;117
48;paravance-32.rennes.grid5000.fr;thermos-root-devel-WordCountTopology-1-612191e8-726f-49b9-8b7f-cb2ac7f0da5a;["container_1_Consume_and_count_1"];5.25;1533388087.84307;372.21;1433.12;0.789406752;10;151
48;paravance-36.rennes.grid5000.fr;thermos-root-devel-WordCountTopology-0-17eb380f-25cc-488c-acb8-1764500015b0;["topology_master"];5.25;1533388087.84243;5.71;12.82;0.0;9;117
48;paravance-27.rennes.grid5000.fr;thermos-root-devel-WordCountTopology-2-5e6f3fd8-dd8c-4347-b6f3-44d9debbfbed;["container_2_Emit_random_words_2"];5.25;1533388087.84395;194.79;1026.24;1.362460283;10;149
49;paravance-32.rennes.grid5000.fr;thermos-root-devel-WordCountTopology-1-612191e8-726f-49b9-8b7f-cb2ac7f0da5a;["container_1_Consume_and_count_1"];5.25;1533388098.05826;378.95;1460.35;0.789406752;10;151
49;paravance-36.rennes.grid5000.fr;thermos-root-devel-WordCountTopology-0-17eb380f-25cc-488c-acb8-1764500015b0;["topology_master"];5.25;1533388098.0585;5.79;12.94;0.0;9;117
49;paravance-27.rennes.grid5000.fr;thermos-root-devel-WordCountTopology-2-5e6f3fd8-dd8c-4347-b6f3-44d9debbfbed;["container_2_Emit_random_words_2"];5.25;1533388098.05996;198.34;1043.95;1.362460283;10;149
50;paravance-32.rennes.grid5000.fr;thermos-root-devel-WordCountTopology-1-612191e8-726f-49b9-8b7f-cb2ac7f0da5a;["container_1_Consume_and_count_1"];5.25;1533388108.27671;385.9;1487.37;0.789406752;10;151
50;paravance-36.rennes.grid5000.fr;thermos-root-devel-WordCountTopology-0-17eb380f-25cc-488c-acb8-1764500015b0;["topology_master"];5.25;1533388108.27645;5.82;12.99;0.0;9;117
50;paravance-27.rennes.grid5000.fr;thermos-root-devel-WordCountTopology-2-5e6f3fd8-dd8c-4347-b6f3-44d9debbfbed;["container_2_Emit_random_words_2"];5.25;1533388108.27779;201.96;1061.39;1.362460283;10;149
51;paravance-32.rennes.grid5000.fr;thermos-root-devel-WordCountTopology-1-612191e8-726f-49b9-8b7f-cb2ac7f0da5a;["container_1_Consume_and_count_1"];5.25;1533388118.49551;392.75;1514.45;0.789406752;10;151
51;paravance-27.rennes.grid5000.fr;thermos-root-devel-WordCountTopology-2-5e6f3fd8-dd8c-4347-b6f3-44d9debbfbed;["container_2_Emit_random_words_2"];5.25;1533388118.4958;205.59;1079.11;1.362460283;10;149
51;paravance-36.rennes.grid5000.fr;thermos-root-devel-WordCountTopology-0-17eb380f-25cc-488c-acb8-1764500015b0;["topology_master"];5.25;1533388118.49723;5.92;13.12;0.0;9;117
52;paravance-32.rennes.grid5000.fr;thermos-root-devel-WordCountTopology-1-612191e8-726f-49b9-8b7f-cb2ac7f0da5a;["container_1_Consume_and_count_1"];5.25;1533388128.71203;399.61;1541.57;0.789406752;10;151
52;paravance-27.rennes.grid5000.fr;thermos-root-devel-WordCountTopology-2-5e6f3fd8-dd8c-4347-b6f3-44d9debbfbed;["container_2_Emit_random_words_2"];5.25;1533388128.71457;209.21;1096.62;1.362460283;10;149
52;paravance-36.rennes.grid5000.fr;thermos-root-devel-WordCountTopology-0-17eb380f-25cc-488c-acb8-1764500015b0;["topology_master"];5.25;1533388128.71306;5.97;13.19;0.0;9;117
53;paravance-36.rennes.grid5000.fr;thermos-root-devel-WordCountTopology-0-17eb380f-25cc-488c-acb8-1764500015b0;["topology_master"];5.25;1533388138.93029;6.04;13.3;0.0;9;117
53;paravance-27.rennes.grid5000.fr;thermos-root-devel-WordCountTopology-2-5e6f3fd8-dd8c-4347-b6f3-44d9debbfbed;["container_2_Emit_random_words_2"];5.25;1533388138.93246;212.9;1114.22;1.362460283;10;149
53;paravance-32.rennes.grid5000.fr;thermos-root-devel-WordCountTopology-1-612191e8-726f-49b9-8b7f-cb2ac7f0da5a;["container_1_Consume_and_count_1"];5.25;1533388138.93273;406.45;1568.24;0.789406752;10;151
54;paravance-27.rennes.grid5000.fr;thermos-root-devel-WordCountTopology-2-5e6f3fd8-dd8c-4347-b6f3-44d9debbfbed;["container_2_Emit_random_words_2"];5.25;1533388149.14906;216.57;1131.84;1.362460283;10;149
54;paravance-36.rennes.grid5000.fr;thermos-root-devel-WordCountTopology-0-17eb380f-25cc-488c-acb8-1764500015b0;["topology_master"];5.25;1533388149.1493;6.1;13.38;0.0;9;117
54;paravance-32.rennes.grid5000.fr;thermos-root-devel-WordCountTopology-1-612191e8-726f-49b9-8b7f-cb2ac7f0da5a;["container_1_Consume_and_count_1"];5.25;1533388149.14936;413.55;1595.33;0.789406752;10;151
55;paravance-32.rennes.grid5000.fr;thermos-root-devel-WordCountTopology-1-612191e8-726f-49b9-8b7f-cb2ac7f0da5a;["container_1_Consume_and_count_1"];5.25;1533388159.36676;420.53;1621.5;0.789406752;10;151
55;paravance-27.rennes.grid5000.fr;thermos-root-devel-WordCountTopology-2-5e6f3fd8-dd8c-4347-b6f3-44d9debbfbed;["container_2_Emit_random_words_2"];5.25;1533388159.36751;220.16;1149.28;1.362460283;10;149
55;paravance-36.rennes.grid5000.fr;thermos-root-devel-WordCountTopology-0-17eb380f-25cc-488c-acb8-1764500015b0;["topology_master"];5.25;1533388159.36674;6.19;13.52;0.0;9;117
56;paravance-32.rennes.grid5000.fr;thermos-root-devel-WordCountTopology-1-612191e8-726f-49b9-8b7f-cb2ac7f0da5a;["container_1_Consume_and_count_1"];5.25;1533388169.58406;427.42;1649.96;0.789406752;10;151
56;paravance-27.rennes.grid5000.fr;thermos-root-devel-WordCountTopology-2-5e6f3fd8-dd8c-4347-b6f3-44d9debbfbed;["container_2_Emit_random_words_2"];5.25;1533388169.58493;223.81;1166.88;1.362460283;10;149
56;paravance-36.rennes.grid5000.fr;thermos-root-devel-WordCountTopology-0-17eb380f-25cc-488c-acb8-1764500015b0;["topology_master"];5.25;1533388169.58453;6.22;13.54;0.0;9;117
57;paravance-36.rennes.grid5000.fr;thermos-root-devel-WordCountTopology-0-17eb380f-25cc-488c-acb8-1764500015b0;["topology_master"];5.25;1533388179.80046;6.31;13.66;0.0;9;117
57;paravance-27.rennes.grid5000.fr;thermos-root-devel-WordCountTopology-2-5e6f3fd8-dd8c-4347-b6f3-44d9debbfbed;["container_2_Emit_random_words_2"];5.25;1533388179.80242;227.48;1184.65;1.362460283;10;149
57;paravance-32.rennes.grid5000.fr;thermos-root-devel-WordCountTopology-1-612191e8-726f-49b9-8b7f-cb2ac7f0da5a;["container_1_Consume_and_count_1"];5.25;1533388179.80195;434.59;1678.68;0.818447532;10;151
58;paravance-27.rennes.grid5000.fr;thermos-root-devel-WordCountTopology-2-5e6f3fd8-dd8c-4347-b6f3-44d9debbfbed;["container_2_Emit_random_words_2"];5.25;1533388190.01725;231.11;1202.49;1.362460283;10;149
58;paravance-32.rennes.grid5000.fr;thermos-root-devel-WordCountTopology-1-612191e8-726f-49b9-8b7f-cb2ac7f0da5a;["container_1_Consume_and_count_1"];5.25;1533388190.01699;441.74;1705.55;0.818447532;10;151
58;paravance-36.rennes.grid5000.fr;thermos-root-devel-WordCountTopology-0-17eb380f-25cc-488c-acb8-1764500015b0;["topology_master"];5.25;1533388190.01606;6.36;13.74;0.0;9;117
59;paravance-32.rennes.grid5000.fr;thermos-root-devel-WordCountTopology-1-612191e8-726f-49b9-8b7f-cb2ac7f0da5a;["container_1_Consume_and_count_1"];5.25;1533388200.23112;448.63;1732.2;0.818497325;10;151
59;paravance-36.rennes.grid5000.fr;thermos-root-devel-WordCountTopology-0-17eb380f-25cc-488c-acb8-1764500015b0;["topology_master"];5.25;1533388200.23119;6.44;13.85;0.0;9;117
59;paravance-27.rennes.grid5000.fr;thermos-root-devel-WordCountTopology-2-5e6f3fd8-dd8c-4347-b6f3-44d9debbfbed;["container_2_Emit_random_words_2"];5.25;1533388200.23198;234.7;1220.3;1.362460283;10;149
60;paravance-32.rennes.grid5000.fr;thermos-root-devel-WordCountTopology-1-612191e8-726f-49b9-8b7f-cb2ac7f0da5a;["container_1_Consume_and_count_1"];5.25;1533388210.45076;455.39;1759.07;0.830503509;10;151
60;paravance-27.rennes.grid5000.fr;thermos-root-devel-WordCountTopology-2-5e6f3fd8-dd8c-4347-b6f3-44d9debbfbed;["container_2_Emit_random_words_2"];5.25;1533388210.45091;238.29;1237.92;1.362460283;10;149
60;paravance-36.rennes.grid5000.fr;thermos-root-devel-WordCountTopology-0-17eb380f-25cc-488c-acb8-1764500015b0;["topology_master"];5.25;1533388210.4516;6.49;13.93;0.0;9;117
