{
  "status": "success",
  "executiontime": 0.00018095970153808594,
  "message": "",
  "result": {
    "bolts": {
      "Consume_and_count": [
        "container_1_Consume_and_count_1"
      ]
    },
    "instances": {
      "container_2_Emit_random_words_2": {
        "stmgrId": "stmgr-2",
        "logfile": "http://paravance-29.rennes.grid5000.fr:31148/file/log-files/container_2_Emit_random_words_2.log.0",
        "id": "container_2_Emit_random_words_2",
        "name": "Emit_random_words"
      },
      "container_1_Consume_and_count_1": {
        "stmgrId": "stmgr-1",
        "logfile": "http://paravance-6.rennes.grid5000.fr:31536/file/log-files/container_1_Consume_and_count_1.log.0",
        "id": "container_1_Consume_and_count_1",
        "name": "Consume_and_count"
      }
    },
    "instance_groups": {
      "container_1_Consume_and": [
        "container_1_Consume_and_count_1"
      ],
      "container_2_Emit_random": [
        "container_2_Emit_random_words_2"
      ]
    },
    "spouts": {
      "Emit_random_words": [
        "container_2_Emit_random_words_2"
      ]
    },
    "config": {
      "topology.message.timeout.secs": "30",
      "topology.team.environment": "devel",
      "topology.serializer.classname": "org.apache.heron.streamlet.impl.KryoSerializer",
      "topology.team.name": "root",
      "topology.debug": "false",
      "topology.max.spout.pending": "100",
      "topology.container.padding.percentage": "0",
      "topology.enable.message.timeouts": "true",
      "topology.component.parallelism": "1",
      "topology.name": "WordCountTopology",
      "topology.stmgrs": "2",
      "topology.reliability.mode": "ATMOST_ONCE"
    },
    "stmgrs": {
      "stmgr-1": {
        "cwd": "/var/lib/mesos/slaves/e1835284-0ef1-4b09-b84c-9fae8fb3d9d0-S2/frameworks/75deb08a-eb1b-415c-8b2c-e922be5f7d98-0000/executors/thermos-root-devel-WordCountTopology-1-b80bed56-b180-4f1c-953c-c5fa20020f0d/runs/4939ab5b-f093-44ab-a164-6938c7850030/sandbox",
        "host": "paravance-6.rennes.grid5000.fr",
        "joburl": "http://paravance-6.rennes.grid5000.fr:31536/browse/",
        "shell_port": 31536,
        "logfiles": "http://paravance-6.rennes.grid5000.fr:31536/browse/log-files",
        "pid": 2821,
        "id": "stmgr-1",
        "instance_ids": [
          "container_1_Consume_and_count_1"
        ],
        "port": 31811
      },
      "stmgr-2": {
        "cwd": "/var/lib/mesos/slaves/e1835284-0ef1-4b09-b84c-9fae8fb3d9d0-S1/frameworks/75deb08a-eb1b-415c-8b2c-e922be5f7d98-0000/executors/thermos-root-devel-WordCountTopology-2-7336a35b-a00a-42f9-a13a-61946fc3c81e/runs/05b3b25c-1e2a-457a-b3f8-7ffc990bb06c/sandbox",
        "host": "paravance-29.rennes.grid5000.fr",
        "joburl": "http://paravance-29.rennes.grid5000.fr:31148/browse/",
        "shell_port": 31148,
        "logfiles": "http://paravance-29.rennes.grid5000.fr:31148/browse/log-files",
        "pid": 2853,
        "id": "stmgr-2",
        "instance_ids": [
          "container_2_Emit_random_words_2"
        ],
        "port": 31592
      }
    }
  },
  "tracker_version": "0.17.8-61-gd7c8c62"
}