mesure_id;slave_id;executor_id;heron_instances;cpus_limit;timestamp_A;cpus_system_time_secs_A;cpus_user_time_secs_A;cpus_throttled_time_secs_A;processes;threads
0;paravance-57.rennes.grid5000.fr;thermos-root-devel-WordCountTopology-0-cfa97dac-64fe-4a9b-983d-169ee33946cd;["topology_master"];5.25;1533384818.72906;2.47;8.21;0.0;9;117
0;paravance-14.rennes.grid5000.fr;thermos-root-devel-WordCountTopology-2-31c8536b-c365-463b-ba76-2c9259d3228f;["container_2_Emit_random_words_2"];5.25;1533384819.3815;27.1;114.02;0.703145608;10;149
0;paravance-31.rennes.grid5000.fr;thermos-root-devel-WordCountTopology-1-3f50ac99-2515-4a87-b91d-59f0838e8e60;["container_1_Consume_and_count_1"];5.25;1533384819.30742;33.14;232.71;0.133679187;10;149
1;paravance-31.rennes.grid5000.fr;thermos-root-devel-WordCountTopology-1-3f50ac99-2515-4a87-b91d-59f0838e8e60;["container_1_Consume_and_count_1"];5.25;1533384829.52131;35.61;252.42;0.133679187;10;149
1;paravance-57.rennes.grid5000.fr;thermos-root-devel-WordCountTopology-0-cfa97dac-64fe-4a9b-983d-169ee33946cd;["topology_master"];5.25;1533384828.95661;2.54;8.37;0.0;9;117
1;paravance-14.rennes.grid5000.fr;thermos-root-devel-WordCountTopology-2-31c8536b-c365-463b-ba76-2c9259d3228f;["container_2_Emit_random_words_2"];5.25;1533384829.59714;29.02;121.6;0.703145608;10;149
2;paravance-31.rennes.grid5000.fr;thermos-root-devel-WordCountTopology-1-3f50ac99-2515-4a87-b91d-59f0838e8e60;["container_1_Consume_and_count_1"];5.25;1533384839.63442;38.11;272.19;0.133679187;10;149
2;paravance-14.rennes.grid5000.fr;thermos-root-devel-WordCountTopology-2-31c8536b-c365-463b-ba76-2c9259d3228f;["container_2_Emit_random_words_2"];5.25;1533384839.80809;30.97;129.71;0.703145608;10;149
2;paravance-57.rennes.grid5000.fr;thermos-root-devel-WordCountTopology-0-cfa97dac-64fe-4a9b-983d-169ee33946cd;["topology_master"];5.25;1533384839.17749;2.63;8.5;0.0;9;117
3;paravance-31.rennes.grid5000.fr;thermos-root-devel-WordCountTopology-1-3f50ac99-2515-4a87-b91d-59f0838e8e60;["container_1_Consume_and_count_1"];5.25;1533384849.94371;40.55;292.22;0.133679187;10;149
3;paravance-14.rennes.grid5000.fr;thermos-root-devel-WordCountTopology-2-31c8536b-c365-463b-ba76-2c9259d3228f;["container_2_Emit_random_words_2"];5.25;1533384850.01869;32.78;137.34;0.703145608;10;149
3;paravance-57.rennes.grid5000.fr;thermos-root-devel-WordCountTopology-0-cfa97dac-64fe-4a9b-983d-169ee33946cd;["topology_master"];5.25;1533384849.3981;2.66;8.53;0.0;9;117
4;paravance-31.rennes.grid5000.fr;thermos-root-devel-WordCountTopology-1-3f50ac99-2515-4a87-b91d-59f0838e8e60;["container_1_Consume_and_count_1"];5.25;1533384860.1539;43.39;312.28;0.133679187;10;149
4;paravance-14.rennes.grid5000.fr;thermos-root-devel-WordCountTopology-2-31c8536b-c365-463b-ba76-2c9259d3228f;["container_2_Emit_random_words_2"];5.25;1533384860.23011;35.0;146.03;0.703145608;10;149
4;paravance-57.rennes.grid5000.fr;thermos-root-devel-WordCountTopology-0-cfa97dac-64fe-4a9b-983d-169ee33946cd;["topology_master"];5.25;1533384859.61938;2.75;8.66;0.0;9;117
5;paravance-31.rennes.grid5000.fr;thermos-root-devel-WordCountTopology-1-3f50ac99-2515-4a87-b91d-59f0838e8e60;["container_1_Consume_and_count_1"];5.25;1533384870.36551;45.85;332.02;0.133679187;10;149
5;paravance-57.rennes.grid5000.fr;thermos-root-devel-WordCountTopology-0-cfa97dac-64fe-4a9b-983d-169ee33946cd;["topology_master"];5.25;1533384869.84118;2.81;8.74;0.0;9;117
5;paravance-14.rennes.grid5000.fr;thermos-root-devel-WordCountTopology-2-31c8536b-c365-463b-ba76-2c9259d3228f;["container_2_Emit_random_words_2"];5.25;1533384870.44129;36.95;153.42;0.703145608;10;149
6;paravance-31.rennes.grid5000.fr;thermos-root-devel-WordCountTopology-1-3f50ac99-2515-4a87-b91d-59f0838e8e60;["container_1_Consume_and_count_1"];5.25;1533384880.57666;48.47;351.97;0.133679187;10;149
6;paravance-57.rennes.grid5000.fr;thermos-root-devel-WordCountTopology-0-cfa97dac-64fe-4a9b-983d-169ee33946cd;["topology_master"];5.25;1533384880.06205;2.92;8.91;0.0;9;117
6;paravance-14.rennes.grid5000.fr;thermos-root-devel-WordCountTopology-2-31c8536b-c365-463b-ba76-2c9259d3228f;["container_2_Emit_random_words_2"];5.25;1533384880.65174;38.96;161.3;0.703145608;10;149
7;paravance-31.rennes.grid5000.fr;thermos-root-devel-WordCountTopology-1-3f50ac99-2515-4a87-b91d-59f0838e8e60;["container_1_Consume_and_count_1"];5.25;1533384890.78841;51.03;372.63;0.133679187;10;149
7;paravance-57.rennes.grid5000.fr;thermos-root-devel-WordCountTopology-0-cfa97dac-64fe-4a9b-983d-169ee33946cd;["topology_master"];5.25;1533384890.28173;2.95;9.0;0.0;9;117
7;paravance-14.rennes.grid5000.fr;thermos-root-devel-WordCountTopology-2-31c8536b-c365-463b-ba76-2c9259d3228f;["container_2_Emit_random_words_2"];5.25;1533384890.86373;40.96;169.63;0.703145608;10;149
8;paravance-31.rennes.grid5000.fr;thermos-root-devel-WordCountTopology-1-3f50ac99-2515-4a87-b91d-59f0838e8e60;["container_1_Consume_and_count_1"];5.25;1533384900.99701;53.52;392.41;0.133679187;10;149
8;paravance-14.rennes.grid5000.fr;thermos-root-devel-WordCountTopology-2-31c8536b-c365-463b-ba76-2c9259d3228f;["container_2_Emit_random_words_2"];5.25;1533384901.07254;42.9;177.42;0.703145608;10;149
8;paravance-57.rennes.grid5000.fr;thermos-root-devel-WordCountTopology-0-cfa97dac-64fe-4a9b-983d-169ee33946cd;["topology_master"];5.25;1533384900.50267;3.04;9.13;0.0;9;117
9;paravance-31.rennes.grid5000.fr;thermos-root-devel-WordCountTopology-1-3f50ac99-2515-4a87-b91d-59f0838e8e60;["container_1_Consume_and_count_1"];5.25;1533384911.20664;56.03;412.24;0.133679187;10;149
9;paravance-14.rennes.grid5000.fr;thermos-root-devel-WordCountTopology-2-31c8536b-c365-463b-ba76-2c9259d3228f;["container_2_Emit_random_words_2"];5.25;1533384911.28204;44.85;185.13;0.703145608;10;149
9;paravance-57.rennes.grid5000.fr;thermos-root-devel-WordCountTopology-0-cfa97dac-64fe-4a9b-983d-169ee33946cd;["topology_master"];5.25;1533384910.72333;3.1;9.21;0.0;9;117
10;paravance-31.rennes.grid5000.fr;thermos-root-devel-WordCountTopology-1-3f50ac99-2515-4a87-b91d-59f0838e8e60;["container_1_Consume_and_count_1"];5.25;1533384921.41554;58.53;432.08;0.133679187;10;149
10;paravance-57.rennes.grid5000.fr;thermos-root-devel-WordCountTopology-0-cfa97dac-64fe-4a9b-983d-169ee33946cd;["topology_master"];5.25;1533384920.94265;3.16;9.28;0.0;9;117
10;paravance-14.rennes.grid5000.fr;thermos-root-devel-WordCountTopology-2-31c8536b-c365-463b-ba76-2c9259d3228f;["container_2_Emit_random_words_2"];5.25;1533384921.49192;46.77;192.47;0.703145608;10;149
11;paravance-31.rennes.grid5000.fr;thermos-root-devel-WordCountTopology-1-3f50ac99-2515-4a87-b91d-59f0838e8e60;["container_1_Consume_and_count_1"];5.25;1533384931.62574;60.97;451.69;0.133679187;10;149
11;paravance-14.rennes.grid5000.fr;thermos-root-devel-WordCountTopology-2-31c8536b-c365-463b-ba76-2c9259d3228f;["container_2_Emit_random_words_2"];5.25;1533384931.701;48.59;200.03;0.703145608;10;149
11;paravance-57.rennes.grid5000.fr;thermos-root-devel-WordCountTopology-0-cfa97dac-64fe-4a9b-983d-169ee33946cd;["topology_master"];5.25;1533384931.16226;3.21;9.36;0.0;9;117
12;paravance-31.rennes.grid5000.fr;thermos-root-devel-WordCountTopology-1-3f50ac99-2515-4a87-b91d-59f0838e8e60;["container_1_Consume_and_count_1"];5.25;1533384941.83606;63.61;471.11;0.133679187;10;149
12;paravance-57.rennes.grid5000.fr;thermos-root-devel-WordCountTopology-0-cfa97dac-64fe-4a9b-983d-169ee33946cd;["topology_master"];5.25;1533384941.3808;3.33;9.51;0.0;9;117
12;paravance-14.rennes.grid5000.fr;thermos-root-devel-WordCountTopology-2-31c8536b-c365-463b-ba76-2c9259d3228f;["container_2_Emit_random_words_2"];5.25;1533384941.91094;50.49;207.87;0.703145608;10;149
13;paravance-14.rennes.grid5000.fr;thermos-root-devel-WordCountTopology-2-31c8536b-c365-463b-ba76-2c9259d3228f;["container_2_Emit_random_words_2"];5.25;1533384952.12161;52.49;215.94;0.703145608;10;149
13;paravance-57.rennes.grid5000.fr;thermos-root-devel-WordCountTopology-0-cfa97dac-64fe-4a9b-983d-169ee33946cd;["topology_master"];5.25;1533384951.60374;3.37;9.68;0.0;9;117
13;paravance-31.rennes.grid5000.fr;thermos-root-devel-WordCountTopology-1-3f50ac99-2515-4a87-b91d-59f0838e8e60;["container_1_Consume_and_count_1"];5.25;1533384952.04507;66.18;490.48;0.133679187;10;149
14;paravance-31.rennes.grid5000.fr;thermos-root-devel-WordCountTopology-1-3f50ac99-2515-4a87-b91d-59f0838e8e60;["container_1_Consume_and_count_1"];5.25;1533384962.25088;68.98;510.61;0.133679187;10;149
14;paravance-57.rennes.grid5000.fr;thermos-root-devel-WordCountTopology-0-cfa97dac-64fe-4a9b-983d-169ee33946cd;["topology_master"];5.25;1533384961.81797;3.45;9.8;0.0;9;117
14;paravance-14.rennes.grid5000.fr;thermos-root-devel-WordCountTopology-2-31c8536b-c365-463b-ba76-2c9259d3228f;["container_2_Emit_random_words_2"];5.25;1533384962.32759;54.61;224.6;0.703145608;10;149
15;paravance-31.rennes.grid5000.fr;thermos-root-devel-WordCountTopology-1-3f50ac99-2515-4a87-b91d-59f0838e8e60;["container_1_Consume_and_count_1"];5.25;1533384972.4629;71.49;529.97;0.133679187;10;149
15;paravance-14.rennes.grid5000.fr;thermos-root-devel-WordCountTopology-2-31c8536b-c365-463b-ba76-2c9259d3228f;["container_2_Emit_random_words_2"];5.25;1533384972.53856;56.43;232.18;0.703145608;10;149
15;paravance-57.rennes.grid5000.fr;thermos-root-devel-WordCountTopology-0-cfa97dac-64fe-4a9b-983d-169ee33946cd;["topology_master"];5.25;1533384972.03988;3.52;9.89;0.0;9;117
16;paravance-31.rennes.grid5000.fr;thermos-root-devel-WordCountTopology-1-3f50ac99-2515-4a87-b91d-59f0838e8e60;["container_1_Consume_and_count_1"];5.25;1533384982.67267;74.17;549.15;0.133679187;10;149
16;paravance-14.rennes.grid5000.fr;thermos-root-devel-WordCountTopology-2-31c8536b-c365-463b-ba76-2c9259d3228f;["container_2_Emit_random_words_2"];5.25;1533384982.74828;58.52;240.53;0.703145608;10;149
16;paravance-57.rennes.grid5000.fr;thermos-root-devel-WordCountTopology-0-cfa97dac-64fe-4a9b-983d-169ee33946cd;["topology_master"];5.25;1533384982.25993;3.57;9.97;0.0;9;117
17;paravance-31.rennes.grid5000.fr;thermos-root-devel-WordCountTopology-1-3f50ac99-2515-4a87-b91d-59f0838e8e60;["container_1_Consume_and_count_1"];5.25;1533384992.88409;76.75;568.73;0.133679187;10;149
17;paravance-14.rennes.grid5000.fr;thermos-root-devel-WordCountTopology-2-31c8536b-c365-463b-ba76-2c9259d3228f;["container_2_Emit_random_words_2"];5.25;1533384992.95831;60.52;248.51;0.703145608;10;149
17;paravance-57.rennes.grid5000.fr;thermos-root-devel-WordCountTopology-0-cfa97dac-64fe-4a9b-983d-169ee33946cd;["topology_master"];5.25;1533384992.48097;3.63;10.04;0.0;9;117
18;paravance-31.rennes.grid5000.fr;thermos-root-devel-WordCountTopology-1-3f50ac99-2515-4a87-b91d-59f0838e8e60;["container_1_Consume_and_count_1"];5.25;1533385003.0937;79.21;588.34;0.133679187;10;149
18;paravance-14.rennes.grid5000.fr;thermos-root-devel-WordCountTopology-2-31c8536b-c365-463b-ba76-2c9259d3228f;["container_2_Emit_random_words_2"];5.25;1533385003.16937;62.44;255.84;0.703145608;10;149
18;paravance-57.rennes.grid5000.fr;thermos-root-devel-WordCountTopology-0-cfa97dac-64fe-4a9b-983d-169ee33946cd;["topology_master"];5.25;1533385002.70135;3.76;10.27;0.0;9;117
19;paravance-31.rennes.grid5000.fr;thermos-root-devel-WordCountTopology-1-3f50ac99-2515-4a87-b91d-59f0838e8e60;["container_1_Consume_and_count_1"];5.25;1533385013.30478;81.6;608.23;0.133679187;10;149
19;paravance-57.rennes.grid5000.fr;thermos-root-devel-WordCountTopology-0-cfa97dac-64fe-4a9b-983d-169ee33946cd;["topology_master"];5.25;1533385012.92228;3.78;10.3;0.0;9;117
19;paravance-14.rennes.grid5000.fr;thermos-root-devel-WordCountTopology-2-31c8536b-c365-463b-ba76-2c9259d3228f;["container_2_Emit_random_words_2"];5.25;1533385013.38043;64.32;262.97;0.703145608;10;149
20;paravance-31.rennes.grid5000.fr;thermos-root-devel-WordCountTopology-1-3f50ac99-2515-4a87-b91d-59f0838e8e60;["container_1_Consume_and_count_1"];5.25;1533385023.51627;83.99;627.49;0.133679187;10;149
20;paravance-14.rennes.grid5000.fr;thermos-root-devel-WordCountTopology-2-31c8536b-c365-463b-ba76-2c9259d3228f;["container_2_Emit_random_words_2"];5.25;1533385023.59114;66.18;270.16;0.703145608;10;149
20;paravance-57.rennes.grid5000.fr;thermos-root-devel-WordCountTopology-0-cfa97dac-64fe-4a9b-983d-169ee33946cd;["topology_master"];5.25;1533385023.14382;3.88;10.42;0.0;9;117
21;paravance-31.rennes.grid5000.fr;thermos-root-devel-WordCountTopology-1-3f50ac99-2515-4a87-b91d-59f0838e8e60;["container_1_Consume_and_count_1"];5.25;1533385033.62634;86.53;647.25;0.133679187;10;149
21;paravance-14.rennes.grid5000.fr;thermos-root-devel-WordCountTopology-2-31c8536b-c365-463b-ba76-2c9259d3228f;["container_2_Emit_random_words_2"];5.25;1533385033.8008;68.12;277.86;0.703145608;10;149
21;paravance-57.rennes.grid5000.fr;thermos-root-devel-WordCountTopology-0-cfa97dac-64fe-4a9b-983d-169ee33946cd;["topology_master"];5.25;1533385033.36301;3.93;10.5;0.0;9;117
22;paravance-14.rennes.grid5000.fr;thermos-root-devel-WordCountTopology-2-31c8536b-c365-463b-ba76-2c9259d3228f;["container_2_Emit_random_words_2"];5.25;1533385044.01142;70.01;285.34;0.703145608;10;149
22;paravance-31.rennes.grid5000.fr;thermos-root-devel-WordCountTopology-1-3f50ac99-2515-4a87-b91d-59f0838e8e60;["container_1_Consume_and_count_1"];5.25;1533385043.93677;89.09;666.96;0.133679187;10;149
22;paravance-57.rennes.grid5000.fr;thermos-root-devel-WordCountTopology-0-cfa97dac-64fe-4a9b-983d-169ee33946cd;["topology_master"];5.25;1533385043.58453;3.99;10.57;0.0;9;117
23;paravance-31.rennes.grid5000.fr;thermos-root-devel-WordCountTopology-1-3f50ac99-2515-4a87-b91d-59f0838e8e60;["container_1_Consume_and_count_1"];5.25;1533385054.14669;91.6;686.39;0.133679187;10;149
23;paravance-57.rennes.grid5000.fr;thermos-root-devel-WordCountTopology-0-cfa97dac-64fe-4a9b-983d-169ee33946cd;["topology_master"];5.25;1533385053.80544;4.05;10.65;0.0;9;117
23;paravance-14.rennes.grid5000.fr;thermos-root-devel-WordCountTopology-2-31c8536b-c365-463b-ba76-2c9259d3228f;["container_2_Emit_random_words_2"];5.25;1533385054.22177;71.88;292.71;0.703145608;10;149
24;paravance-31.rennes.grid5000.fr;thermos-root-devel-WordCountTopology-1-3f50ac99-2515-4a87-b91d-59f0838e8e60;["container_1_Consume_and_count_1"];5.25;1533385064.35577;94.12;705.93;0.133679187;10;149
24;paravance-57.rennes.grid5000.fr;thermos-root-devel-WordCountTopology-0-cfa97dac-64fe-4a9b-983d-169ee33946cd;["topology_master"];5.25;1533385064.02443;4.16;10.84;0.0;9;117
24;paravance-14.rennes.grid5000.fr;thermos-root-devel-WordCountTopology-2-31c8536b-c365-463b-ba76-2c9259d3228f;["container_2_Emit_random_words_2"];5.25;1533385064.43149;73.77;299.97;0.703145608;10;149
25;paravance-31.rennes.grid5000.fr;thermos-root-devel-WordCountTopology-1-3f50ac99-2515-4a87-b91d-59f0838e8e60;["container_1_Consume_and_count_1"];5.25;1533385074.56651;96.69;725.71;0.133679187;10;149
25;paravance-14.rennes.grid5000.fr;thermos-root-devel-WordCountTopology-2-31c8536b-c365-463b-ba76-2c9259d3228f;["container_2_Emit_random_words_2"];5.25;1533385074.64116;75.69;307.69;0.703145608;10;149
25;paravance-57.rennes.grid5000.fr;thermos-root-devel-WordCountTopology-0-cfa97dac-64fe-4a9b-983d-169ee33946cd;["topology_master"];5.25;1533385074.24531;4.19;10.87;0.0;9;117
26;paravance-31.rennes.grid5000.fr;thermos-root-devel-WordCountTopology-1-3f50ac99-2515-4a87-b91d-59f0838e8e60;["container_1_Consume_and_count_1"];5.25;1533385084.77664;99.45;745.85;0.133679187;10;149
26;paravance-14.rennes.grid5000.fr;thermos-root-devel-WordCountTopology-2-31c8536b-c365-463b-ba76-2c9259d3228f;["container_2_Emit_random_words_2"];5.25;1533385084.85072;77.74;316.03;0.703145608;10;149
26;paravance-57.rennes.grid5000.fr;thermos-root-devel-WordCountTopology-0-cfa97dac-64fe-4a9b-983d-169ee33946cd;["topology_master"];5.25;1533385084.46537;4.28;10.99;0.0;9;117
27;paravance-14.rennes.grid5000.fr;thermos-root-devel-WordCountTopology-2-31c8536b-c365-463b-ba76-2c9259d3228f;["container_2_Emit_random_words_2"];5.25;1533385095.06097;79.69;323.9;0.703145608;10;149
27;paravance-57.rennes.grid5000.fr;thermos-root-devel-WordCountTopology-0-cfa97dac-64fe-4a9b-983d-169ee33946cd;["topology_master"];5.25;1533385094.68384;4.34;11.07;0.0;9;117
27;paravance-31.rennes.grid5000.fr;thermos-root-devel-WordCountTopology-1-3f50ac99-2515-4a87-b91d-59f0838e8e60;["container_1_Consume_and_count_1"];5.25;1533385094.98634;101.98;765.82;0.133679187;10;149
28;paravance-57.rennes.grid5000.fr;thermos-root-devel-WordCountTopology-0-cfa97dac-64fe-4a9b-983d-169ee33946cd;["topology_master"];5.25;1533385104.9042;4.4;11.15;0.0;9;117
28;paravance-31.rennes.grid5000.fr;thermos-root-devel-WordCountTopology-1-3f50ac99-2515-4a87-b91d-59f0838e8e60;["container_1_Consume_and_count_1"];5.25;1533385105.1959;104.46;785.45;0.133679187;10;149
28;paravance-14.rennes.grid5000.fr;thermos-root-devel-WordCountTopology-2-31c8536b-c365-463b-ba76-2c9259d3228f;["container_2_Emit_random_words_2"];5.25;1533385105.27042;81.54;331.45;0.703145608;10;149
29;paravance-31.rennes.grid5000.fr;thermos-root-devel-WordCountTopology-1-3f50ac99-2515-4a87-b91d-59f0838e8e60;["container_1_Consume_and_count_1"];5.25;1533385115.40521;106.92;805.14;0.133679187;10;149
29;paravance-14.rennes.grid5000.fr;thermos-root-devel-WordCountTopology-2-31c8536b-c365-463b-ba76-2c9259d3228f;["container_2_Emit_random_words_2"];5.25;1533385115.48199;83.42;338.85;0.703145608;10;149
29;paravance-57.rennes.grid5000.fr;thermos-root-devel-WordCountTopology-0-cfa97dac-64fe-4a9b-983d-169ee33946cd;["topology_master"];5.25;1533385115.12613;4.48;11.24;0.0;9;115
30;paravance-57.rennes.grid5000.fr;thermos-root-devel-WordCountTopology-0-cfa97dac-64fe-4a9b-983d-169ee33946cd;["topology_master"];5.25;1533385125.24648;4.57;11.41;0.0;9;117
30;paravance-31.rennes.grid5000.fr;thermos-root-devel-WordCountTopology-1-3f50ac99-2515-4a87-b91d-59f0838e8e60;["container_1_Consume_and_count_1"];5.25;1533385125.6156;109.48;824.79;0.133679187;10;149
30;paravance-14.rennes.grid5000.fr;thermos-root-devel-WordCountTopology-2-31c8536b-c365-463b-ba76-2c9259d3228f;["container_2_Emit_random_words_2"];5.25;1533385125.6927;85.49;346.36;0.703145608;10;149
31;paravance-31.rennes.grid5000.fr;thermos-root-devel-WordCountTopology-1-3f50ac99-2515-4a87-b91d-59f0838e8e60;["container_1_Consume_and_count_1"];5.25;1533385135.82686;111.95;843.81;0.133679187;10;149
31;paravance-57.rennes.grid5000.fr;thermos-root-devel-WordCountTopology-0-cfa97dac-64fe-4a9b-983d-169ee33946cd;["topology_master"];5.25;1533385135.56764;4.63;11.48;0.0;9;117
31;paravance-14.rennes.grid5000.fr;thermos-root-devel-WordCountTopology-2-31c8536b-c365-463b-ba76-2c9259d3228f;["container_2_Emit_random_words_2"];5.25;1533385135.90262;87.56;353.74;0.703145608;10;147
32;paravance-31.rennes.grid5000.fr;thermos-root-devel-WordCountTopology-1-3f50ac99-2515-4a87-b91d-59f0838e8e60;["container_1_Consume_and_count_1"];5.25;1533385146.0474;114.71;862.98;0.133679187;10;149
32;paravance-57.rennes.grid5000.fr;thermos-root-devel-WordCountTopology-0-cfa97dac-64fe-4a9b-983d-169ee33946cd;["topology_master"];5.25;1533385145.79554;4.69;11.56;0.0;9;117
32;paravance-14.rennes.grid5000.fr;thermos-root-devel-WordCountTopology-2-31c8536b-c365-463b-ba76-2c9259d3228f;["container_2_Emit_random_words_2"];5.25;1533385146.12181;89.82;361.64;0.703145608;10;149
33;paravance-31.rennes.grid5000.fr;thermos-root-devel-WordCountTopology-1-3f50ac99-2515-4a87-b91d-59f0838e8e60;["container_1_Consume_and_count_1"];5.25;1533385156.2564;117.41;882.27;0.133679187;10;149
33;paravance-14.rennes.grid5000.fr;thermos-root-devel-WordCountTopology-2-31c8536b-c365-463b-ba76-2c9259d3228f;["container_2_Emit_random_words_2"];5.25;1533385156.33226;92.04;369.58;0.703145608;10;149
33;paravance-57.rennes.grid5000.fr;thermos-root-devel-WordCountTopology-0-cfa97dac-64fe-4a9b-983d-169ee33946cd;["topology_master"];5.25;1533385156.01673;4.78;11.68;0.0;9;117
34;paravance-31.rennes.grid5000.fr;thermos-root-devel-WordCountTopology-1-3f50ac99-2515-4a87-b91d-59f0838e8e60;["container_1_Consume_and_count_1"];5.25;1533385166.46679;119.96;902.49;0.133679187;10;149
34;paravance-14.rennes.grid5000.fr;thermos-root-devel-WordCountTopology-2-31c8536b-c365-463b-ba76-2c9259d3228f;["container_2_Emit_random_words_2"];5.25;1533385166.54236;94.12;377.15;0.703145608;10;149
34;paravance-57.rennes.grid5000.fr;thermos-root-devel-WordCountTopology-0-cfa97dac-64fe-4a9b-983d-169ee33946cd;["topology_master"];5.25;1533385166.23757;4.8;11.7;0.0;9;117
35;paravance-31.rennes.grid5000.fr;thermos-root-devel-WordCountTopology-1-3f50ac99-2515-4a87-b91d-59f0838e8e60;["container_1_Consume_and_count_1"];5.25;1533385176.67615;122.33;922.01;0.133679187;10;149
35;paravance-14.rennes.grid5000.fr;thermos-root-devel-WordCountTopology-2-31c8536b-c365-463b-ba76-2c9259d3228f;["container_2_Emit_random_words_2"];5.25;1533385176.75254;95.99;383.86;0.703145608;10;149
35;paravance-57.rennes.grid5000.fr;thermos-root-devel-WordCountTopology-0-cfa97dac-64fe-4a9b-983d-169ee33946cd;["topology_master"];5.25;1533385176.45778;4.91;11.84;0.0;9;117
36;paravance-31.rennes.grid5000.fr;thermos-root-devel-WordCountTopology-1-3f50ac99-2515-4a87-b91d-59f0838e8e60;["container_1_Consume_and_count_1"];5.25;1533385186.88839;125.05;941.73;0.133679187;10;149
36;paravance-14.rennes.grid5000.fr;thermos-root-devel-WordCountTopology-2-31c8536b-c365-463b-ba76-2c9259d3228f;["container_2_Emit_random_words_2"];5.25;1533385186.96203;98.15;392.08;0.703145608;10;149
36;paravance-57.rennes.grid5000.fr;thermos-root-devel-WordCountTopology-0-cfa97dac-64fe-4a9b-983d-169ee33946cd;["topology_master"];5.25;1533385186.67749;4.97;12.0;0.0;9;117
37;paravance-14.rennes.grid5000.fr;thermos-root-devel-WordCountTopology-2-31c8536b-c365-463b-ba76-2c9259d3228f;["container_2_Emit_random_words_2"];5.25;1533385197.17356;100.28;399.76;0.703145608;10;149
37;paravance-31.rennes.grid5000.fr;thermos-root-devel-WordCountTopology-1-3f50ac99-2515-4a87-b91d-59f0838e8e60;["container_1_Consume_and_count_1"];5.25;1533385197.09794;127.79;961.68;0.133679187;10;149
37;paravance-57.rennes.grid5000.fr;thermos-root-devel-WordCountTopology-0-cfa97dac-64fe-4a9b-983d-169ee33946cd;["topology_master"];5.25;1533385196.89782;5.06;12.12;0.0;9;117
38;paravance-57.rennes.grid5000.fr;thermos-root-devel-WordCountTopology-0-cfa97dac-64fe-4a9b-983d-169ee33946cd;["topology_master"];5.25;1533385207.12031;5.09;12.15;0.0;9;117
38;paravance-31.rennes.grid5000.fr;thermos-root-devel-WordCountTopology-1-3f50ac99-2515-4a87-b91d-59f0838e8e60;["container_1_Consume_and_count_1"];5.25;1533385207.30952;130.35;981.71;0.133679187;10;149
38;paravance-14.rennes.grid5000.fr;thermos-root-devel-WordCountTopology-2-31c8536b-c365-463b-ba76-2c9259d3228f;["container_2_Emit_random_words_2"];5.25;1533385207.38346;102.31;406.75;0.703145608;10;149
39;paravance-31.rennes.grid5000.fr;thermos-root-devel-WordCountTopology-1-3f50ac99-2515-4a87-b91d-59f0838e8e60;["container_1_Consume_and_count_1"];5.25;1533385217.51993;133.13;1000.67;0.133679187;10;149
39;paravance-57.rennes.grid5000.fr;thermos-root-devel-WordCountTopology-0-cfa97dac-64fe-4a9b-983d-169ee33946cd;["topology_master"];5.25;1533385217.34038;5.18;12.27;0.0;9;117
39;paravance-14.rennes.grid5000.fr;thermos-root-devel-WordCountTopology-2-31c8536b-c365-463b-ba76-2c9259d3228f;["container_2_Emit_random_words_2"];5.25;1533385217.59604;104.35;414.68;0.703145608;10;149
40;paravance-31.rennes.grid5000.fr;thermos-root-devel-WordCountTopology-1-3f50ac99-2515-4a87-b91d-59f0838e8e60;["container_1_Consume_and_count_1"];5.25;1533385227.72938;135.81;1020.07;0.133679187;10;149
40;paravance-14.rennes.grid5000.fr;thermos-root-devel-WordCountTopology-2-31c8536b-c365-463b-ba76-2c9259d3228f;["container_2_Emit_random_words_2"];5.25;1533385227.84618;106.23;421.83;0.703145608;10;149
40;paravance-57.rennes.grid5000.fr;thermos-root-devel-WordCountTopology-0-cfa97dac-64fe-4a9b-983d-169ee33946cd;["topology_master"];5.25;1533385227.60171;5.23;12.35;0.0;9;117
41;paravance-31.rennes.grid5000.fr;thermos-root-devel-WordCountTopology-1-3f50ac99-2515-4a87-b91d-59f0838e8e60;["container_1_Consume_and_count_1"];5.25;1533385237.98082;138.53;1039.78;0.133679187;10;149
41;paravance-57.rennes.grid5000.fr;thermos-root-devel-WordCountTopology-0-cfa97dac-64fe-4a9b-983d-169ee33946cd;["topology_master"];5.25;1533385237.82017;5.3;12.43;0.0;9;117
41;paravance-14.rennes.grid5000.fr;thermos-root-devel-WordCountTopology-2-31c8536b-c365-463b-ba76-2c9259d3228f;["container_2_Emit_random_words_2"];5.25;1533385238.05436;108.36;429.68;0.703145608;10;149
42;paravance-31.rennes.grid5000.fr;thermos-root-devel-WordCountTopology-1-3f50ac99-2515-4a87-b91d-59f0838e8e60;["container_1_Consume_and_count_1"];5.25;1533385248.18768;141.15;1059.36;0.133679187;10;149
42;paravance-14.rennes.grid5000.fr;thermos-root-devel-WordCountTopology-2-31c8536b-c365-463b-ba76-2c9259d3228f;["container_2_Emit_random_words_2"];5.25;1533385248.26282;110.36;436.88;0.703145608;10;149
42;paravance-57.rennes.grid5000.fr;thermos-root-devel-WordCountTopology-0-cfa97dac-64fe-4a9b-983d-169ee33946cd;["topology_master"];5.25;1533385248.03932;5.36;12.54;0.0;9;117
43;paravance-31.rennes.grid5000.fr;thermos-root-devel-WordCountTopology-1-3f50ac99-2515-4a87-b91d-59f0838e8e60;["container_1_Consume_and_count_1"];5.25;1533385258.39604;143.89;1078.99;0.133679187;10;149
43;paravance-57.rennes.grid5000.fr;thermos-root-devel-WordCountTopology-0-cfa97dac-64fe-4a9b-983d-169ee33946cd;["topology_master"];5.25;1533385258.25784;5.44;12.67;0.0;9;117
43;paravance-14.rennes.grid5000.fr;thermos-root-devel-WordCountTopology-2-31c8536b-c365-463b-ba76-2c9259d3228f;["container_2_Emit_random_words_2"];5.25;1533385258.47167;112.45;444.46;0.703145608;10;149
44;paravance-31.rennes.grid5000.fr;thermos-root-devel-WordCountTopology-1-3f50ac99-2515-4a87-b91d-59f0838e8e60;["container_1_Consume_and_count_1"];5.25;1533385268.60386;146.32;1098.35;0.133679187;10;149
44;paravance-57.rennes.grid5000.fr;thermos-root-devel-WordCountTopology-0-cfa97dac-64fe-4a9b-983d-169ee33946cd;["topology_master"];5.25;1533385268.47702;5.47;12.69;0.0;9;117
44;paravance-14.rennes.grid5000.fr;thermos-root-devel-WordCountTopology-2-31c8536b-c365-463b-ba76-2c9259d3228f;["container_2_Emit_random_words_2"];5.25;1533385268.68072;114.33;451.49;0.703145608;10;149
45;paravance-14.rennes.grid5000.fr;thermos-root-devel-WordCountTopology-2-31c8536b-c365-463b-ba76-2c9259d3228f;["container_2_Emit_random_words_2"];5.25;1533385278.89026;116.2;458.03;0.703145608;10;149
45;paravance-57.rennes.grid5000.fr;thermos-root-devel-WordCountTopology-0-cfa97dac-64fe-4a9b-983d-169ee33946cd;["topology_master"];5.25;1533385278.69762;5.56;12.81;0.0;9;117
45;paravance-31.rennes.grid5000.fr;thermos-root-devel-WordCountTopology-1-3f50ac99-2515-4a87-b91d-59f0838e8e60;["container_1_Consume_and_count_1"];5.25;1533385278.81608;148.64;1117.47;0.133679187;10;149
46;paravance-31.rennes.grid5000.fr;thermos-root-devel-WordCountTopology-1-3f50ac99-2515-4a87-b91d-59f0838e8e60;["container_1_Consume_and_count_1"];5.25;1533385289.02456;151.36;1136.16;0.133679187;10;149
46;paravance-57.rennes.grid5000.fr;thermos-root-devel-WordCountTopology-0-cfa97dac-64fe-4a9b-983d-169ee33946cd;["topology_master"];5.25;1533385288.91825;5.62;12.89;0.0;9;117
46;paravance-14.rennes.grid5000.fr;thermos-root-devel-WordCountTopology-2-31c8536b-c365-463b-ba76-2c9259d3228f;["container_2_Emit_random_words_2"];5.25;1533385289.10106;118.2;465.38;0.703145608;10;149
47;paravance-31.rennes.grid5000.fr;thermos-root-devel-WordCountTopology-1-3f50ac99-2515-4a87-b91d-59f0838e8e60;["container_1_Consume_and_count_1"];5.25;1533385299.23477;153.76;1154.89;0.133679187;10;149
47;paravance-57.rennes.grid5000.fr;thermos-root-devel-WordCountTopology-0-cfa97dac-64fe-4a9b-983d-169ee33946cd;["topology_master"];5.25;1533385299.13847;5.68;12.97;0.0;9;117
47;paravance-14.rennes.grid5000.fr;thermos-root-devel-WordCountTopology-2-31c8536b-c365-463b-ba76-2c9259d3228f;["container_2_Emit_random_words_2"];5.25;1533385299.31143;120.03;471.83;0.703145608;10;149
48;paravance-31.rennes.grid5000.fr;thermos-root-devel-WordCountTopology-1-3f50ac99-2515-4a87-b91d-59f0838e8e60;["container_1_Consume_and_count_1"];5.25;1533385309.44551;156.29;1174.63;0.133679187;10;149
48;paravance-57.rennes.grid5000.fr;thermos-root-devel-WordCountTopology-0-cfa97dac-64fe-4a9b-983d-169ee33946cd;["topology_master"];5.25;1533385309.35838;5.74;13.11;0.0;9;117
48;paravance-14.rennes.grid5000.fr;thermos-root-devel-WordCountTopology-2-31c8536b-c365-463b-ba76-2c9259d3228f;["container_2_Emit_random_words_2"];5.25;1533385309.52127;121.91;478.72;0.703145608;10;149
49;paravance-31.rennes.grid5000.fr;thermos-root-devel-WordCountTopology-1-3f50ac99-2515-4a87-b91d-59f0838e8e60;["container_1_Consume_and_count_1"];5.25;1533385319.65779;158.87;1193.84;0.133679187;10;149
49;paravance-57.rennes.grid5000.fr;thermos-root-devel-WordCountTopology-0-cfa97dac-64fe-4a9b-983d-169ee33946cd;["topology_master"];5.25;1533385319.57908;5.83;13.23;0.0;9;117
49;paravance-14.rennes.grid5000.fr;thermos-root-devel-WordCountTopology-2-31c8536b-c365-463b-ba76-2c9259d3228f;["container_2_Emit_random_words_2"];5.25;1533385319.73241;123.78;485.53;0.703145608;10;149
50;paravance-31.rennes.grid5000.fr;thermos-root-devel-WordCountTopology-1-3f50ac99-2515-4a87-b91d-59f0838e8e60;["container_1_Consume_and_count_1"];5.25;1533385329.86697;161.24;1213.63;0.133679187;10;149
50;paravance-14.rennes.grid5000.fr;thermos-root-devel-WordCountTopology-2-31c8536b-c365-463b-ba76-2c9259d3228f;["container_2_Emit_random_words_2"];5.25;1533385329.94332;125.56;492.2;0.703145608;10;149
50;paravance-57.rennes.grid5000.fr;thermos-root-devel-WordCountTopology-0-cfa97dac-64fe-4a9b-983d-169ee33946cd;["topology_master"];5.25;1533385329.80087;5.86;13.26;0.0;9;117
51;paravance-31.rennes.grid5000.fr;thermos-root-devel-WordCountTopology-1-3f50ac99-2515-4a87-b91d-59f0838e8e60;["container_1_Consume_and_count_1"];5.25;1533385339.97762;163.7;1232.51;0.133679187;10;149
51;paravance-14.rennes.grid5000.fr;thermos-root-devel-WordCountTopology-2-31c8536b-c365-463b-ba76-2c9259d3228f;["container_2_Emit_random_words_2"];5.25;1533385340.15167;127.54;499.52;0.703145608;10;149
51;paravance-57.rennes.grid5000.fr;thermos-root-devel-WordCountTopology-0-cfa97dac-64fe-4a9b-983d-169ee33946cd;["topology_master"];5.25;1533385340.02007;5.95;13.4;0.0;9;117
52;paravance-31.rennes.grid5000.fr;thermos-root-devel-WordCountTopology-1-3f50ac99-2515-4a87-b91d-59f0838e8e60;["container_1_Consume_and_count_1"];5.25;1533385350.28822;166.18;1252.37;0.133679187;10;149
52;paravance-57.rennes.grid5000.fr;thermos-root-devel-WordCountTopology-0-cfa97dac-64fe-4a9b-983d-169ee33946cd;["topology_master"];5.25;1533385350.24133;6.01;13.48;0.0;9;117
52;paravance-14.rennes.grid5000.fr;thermos-root-devel-WordCountTopology-2-31c8536b-c365-463b-ba76-2c9259d3228f;["container_2_Emit_random_words_2"];5.25;1533385350.3642;129.44;506.38;0.703145608;10;149
53;paravance-31.rennes.grid5000.fr;thermos-root-devel-WordCountTopology-1-3f50ac99-2515-4a87-b91d-59f0838e8e60;["container_1_Consume_and_count_1"];5.25;1533385360.49847;168.73;1271.82;0.133679187;10;149
53;paravance-14.rennes.grid5000.fr;thermos-root-devel-WordCountTopology-2-31c8536b-c365-463b-ba76-2c9259d3228f;["container_2_Emit_random_words_2"];5.25;1533385360.57378;131.38;513.73;0.703145608;10;149
53;paravance-57.rennes.grid5000.fr;thermos-root-devel-WordCountTopology-0-cfa97dac-64fe-4a9b-983d-169ee33946cd;["topology_master"];5.25;1533385360.46271;6.09;13.59;0.0;9;117
54;paravance-31.rennes.grid5000.fr;thermos-root-devel-WordCountTopology-1-3f50ac99-2515-4a87-b91d-59f0838e8e60;["container_1_Consume_and_count_1"];5.25;1533385370.7088;171.25;1291.51;0.133679187;10;149
54;paravance-57.rennes.grid5000.fr;thermos-root-devel-WordCountTopology-0-cfa97dac-64fe-4a9b-983d-169ee33946cd;["topology_master"];5.25;1533385370.68434;6.15;13.69;0.0;9;117
54;paravance-14.rennes.grid5000.fr;thermos-root-devel-WordCountTopology-2-31c8536b-c365-463b-ba76-2c9259d3228f;["container_2_Emit_random_words_2"];5.25;1533385370.78633;133.31;520.74;0.703145608;10;149
55;paravance-31.rennes.grid5000.fr;thermos-root-devel-WordCountTopology-1-3f50ac99-2515-4a87-b91d-59f0838e8e60;["container_1_Consume_and_count_1"];5.25;1533385380.92117;173.81;1310.75;0.133679187;10;149
55;paravance-57.rennes.grid5000.fr;thermos-root-devel-WordCountTopology-0-cfa97dac-64fe-4a9b-983d-169ee33946cd;["topology_master"];5.25;1533385380.90542;6.24;13.82;0.0;9;117
55;paravance-14.rennes.grid5000.fr;thermos-root-devel-WordCountTopology-2-31c8536b-c365-463b-ba76-2c9259d3228f;["container_2_Emit_random_words_2"];5.25;1533385380.99673;135.23;527.85;0.703145608;10;149
56;paravance-31.rennes.grid5000.fr;thermos-root-devel-WordCountTopology-1-3f50ac99-2515-4a87-b91d-59f0838e8e60;["container_1_Consume_and_count_1"];5.25;1533385391.13276;176.3;1329.46;0.133679187;10;149
56;paravance-14.rennes.grid5000.fr;thermos-root-devel-WordCountTopology-2-31c8536b-c365-463b-ba76-2c9259d3228f;["container_2_Emit_random_words_2"];5.25;1533385391.20805;137.15;535.04;0.703145608;10;149
56;paravance-57.rennes.grid5000.fr;thermos-root-devel-WordCountTopology-0-cfa97dac-64fe-4a9b-983d-169ee33946cd;["topology_master"];5.25;1533385391.12828;6.26;13.84;0.0;9;117
57;paravance-31.rennes.grid5000.fr;thermos-root-devel-WordCountTopology-1-3f50ac99-2515-4a87-b91d-59f0838e8e60;["container_1_Consume_and_count_1"];5.25;1533385401.34405;178.93;1349.54;0.133679187;10;149
57;paravance-57.rennes.grid5000.fr;thermos-root-devel-WordCountTopology-0-cfa97dac-64fe-4a9b-983d-169ee33946cd;["topology_master"];5.25;1533385401.34963;6.35;13.96;0.0;9;117
57;paravance-14.rennes.grid5000.fr;thermos-root-devel-WordCountTopology-2-31c8536b-c365-463b-ba76-2c9259d3228f;["container_2_Emit_random_words_2"];5.25;1533385401.42082;139.15;542.5;0.703145608;10;149
58;paravance-31.rennes.grid5000.fr;thermos-root-devel-WordCountTopology-1-3f50ac99-2515-4a87-b91d-59f0838e8e60;["container_1_Consume_and_count_1"];5.25;1533385411.55507;181.53;1369.29;0.133679187;10;149
58;paravance-14.rennes.grid5000.fr;thermos-root-devel-WordCountTopology-2-31c8536b-c365-463b-ba76-2c9259d3228f;["container_2_Emit_random_words_2"];5.25;1533385411.63149;141.16;549.83;0.703145608;10;149
58;paravance-57.rennes.grid5000.fr;thermos-root-devel-WordCountTopology-0-cfa97dac-64fe-4a9b-983d-169ee33946cd;["topology_master"];5.25;1533385411.57139;6.41;14.04;0.0;9;117
59;paravance-31.rennes.grid5000.fr;thermos-root-devel-WordCountTopology-1-3f50ac99-2515-4a87-b91d-59f0838e8e60;["container_1_Consume_and_count_1"];5.25;1533385421.76606;184.05;1388.96;0.133679187;10;149
59;paravance-14.rennes.grid5000.fr;thermos-root-devel-WordCountTopology-2-31c8536b-c365-463b-ba76-2c9259d3228f;["container_2_Emit_random_words_2"];5.25;1533385421.84291;142.97;556.55;0.703145608;10;149
59;paravance-57.rennes.grid5000.fr;thermos-root-devel-WordCountTopology-0-cfa97dac-64fe-4a9b-983d-169ee33946cd;["topology_master"];5.25;1533385421.79255;6.48;14.16;0.0;9;117
60;paravance-31.rennes.grid5000.fr;thermos-root-devel-WordCountTopology-1-3f50ac99-2515-4a87-b91d-59f0838e8e60;["container_1_Consume_and_count_1"];5.25;1533385431.97648;186.96;1408.02;0.133679187;10;149
60;paravance-14.rennes.grid5000.fr;thermos-root-devel-WordCountTopology-2-31c8536b-c365-463b-ba76-2c9259d3228f;["container_2_Emit_random_words_2"];5.25;1533385432.05325;145.13;564.48;0.703145608;10;149
60;paravance-57.rennes.grid5000.fr;thermos-root-devel-WordCountTopology-0-cfa97dac-64fe-4a9b-983d-169ee33946cd;["topology_master"];5.25;1533385432.01218;6.54;14.24;0.0;9;117
