{
  "status": "success",
  "executiontime": 0.00035190582275390625,
  "message": "",
  "result": {
    "bolts": {
      "Consume_and_count": [
        "container_1_Consume_and_count_1"
      ]
    },
    "instances": {
      "container_2_Emit_random_words_2": {
        "stmgrId": "stmgr-2",
        "logfile": "http://paravance-31.rennes.grid5000.fr:31125/file/log-files/container_2_Emit_random_words_2.log.0",
        "id": "container_2_Emit_random_words_2",
        "name": "Emit_random_words"
      },
      "container_1_Consume_and_count_1": {
        "stmgrId": "stmgr-1",
        "logfile": "http://paravance-3.rennes.grid5000.fr:31738/file/log-files/container_1_Consume_and_count_1.log.0",
        "id": "container_1_Consume_and_count_1",
        "name": "Consume_and_count"
      }
    },
    "instance_groups": {
      "container_1_Consume_and": [
        "container_1_Consume_and_count_1"
      ],
      "container_2_Emit_random": [
        "container_2_Emit_random_words_2"
      ]
    },
    "spouts": {
      "Emit_random_words": [
        "container_2_Emit_random_words_2"
      ]
    },
    "config": {
      "topology.message.timeout.secs": "30",
      "topology.team.environment": "devel",
      "topology.serializer.classname": "org.apache.heron.streamlet.impl.KryoSerializer",
      "topology.team.name": "root",
      "topology.debug": "false",
      "topology.max.spout.pending": "100",
      "topology.container.padding.percentage": "400",
      "topology.enable.message.timeouts": "true",
      "topology.component.parallelism": "1",
      "topology.name": "WordCountTopology",
      "topology.stmgrs": "2",
      "topology.reliability.mode": "ATMOST_ONCE"
    },
    "stmgrs": {
      "stmgr-1": {
        "cwd": "/var/lib/mesos/slaves/aa78d746-198e-4af8-bae4-7589b6fba226-S1/frameworks/75deb08a-eb1b-415c-8b2c-e922be5f7d98-0000/executors/thermos-root-devel-WordCountTopology-1-d73b5de5-df67-4ed6-b148-9ad23c60cb5e/runs/98029145-83d6-446d-ab17-bef5214b49a4/sandbox",
        "host": "paravance-3.rennes.grid5000.fr",
        "joburl": "http://paravance-3.rennes.grid5000.fr:31738/browse/",
        "shell_port": 31738,
        "logfiles": "http://paravance-3.rennes.grid5000.fr:31738/browse/log-files",
        "pid": 2733,
        "id": "stmgr-1",
        "instance_ids": [
          "container_1_Consume_and_count_1"
        ],
        "port": 31785
      },
      "stmgr-2": {
        "cwd": "/var/lib/mesos/slaves/aa78d746-198e-4af8-bae4-7589b6fba226-S0/frameworks/75deb08a-eb1b-415c-8b2c-e922be5f7d98-0000/executors/thermos-root-devel-WordCountTopology-2-de59ce32-09a5-4017-b23c-25381edc4c59/runs/a260e35d-9b08-499f-bfdd-f77f3fa44bb6/sandbox",
        "host": "paravance-31.rennes.grid5000.fr",
        "joburl": "http://paravance-31.rennes.grid5000.fr:31125/browse/",
        "shell_port": 31125,
        "logfiles": "http://paravance-31.rennes.grid5000.fr:31125/browse/log-files",
        "pid": 2856,
        "id": "stmgr-2",
        "instance_ids": [
          "container_2_Emit_random_words_2"
        ],
        "port": 31739
      }
    }
  },
  "tracker_version": "0.17.8-61-gd7c8c62"
}