{
  "status": "success",
  "executiontime": 0.00017905235290527344,
  "message": "",
  "result": {
    "bolts": {
      "Consume_and_count": [
        "container_1_Consume_and_count_1"
      ]
    },
    "instances": {
      "container_2_Emit_random_words_2": {
        "stmgrId": "stmgr-2",
        "logfile": "http://paravance-36.rennes.grid5000.fr:31803/file/log-files/container_2_Emit_random_words_2.log.0",
        "id": "container_2_Emit_random_words_2",
        "name": "Emit_random_words"
      },
      "container_1_Consume_and_count_1": {
        "stmgrId": "stmgr-1",
        "logfile": "http://paravance-34.rennes.grid5000.fr:31367/file/log-files/container_1_Consume_and_count_1.log.0",
        "id": "container_1_Consume_and_count_1",
        "name": "Consume_and_count"
      }
    },
    "instance_groups": {
      "container_1_Consume_and": [
        "container_1_Consume_and_count_1"
      ],
      "container_2_Emit_random": [
        "container_2_Emit_random_words_2"
      ]
    },
    "spouts": {
      "Emit_random_words": [
        "container_2_Emit_random_words_2"
      ]
    },
    "config": {
      "topology.message.timeout.secs": "30",
      "topology.team.environment": "devel",
      "topology.serializer.classname": "org.apache.heron.streamlet.impl.KryoSerializer",
      "topology.team.name": "root",
      "topology.debug": "false",
      "topology.max.spout.pending": "100",
      "topology.container.padding.percentage": "300",
      "topology.enable.message.timeouts": "true",
      "topology.component.parallelism": "1",
      "topology.name": "WordCountTopology",
      "topology.stmgrs": "2",
      "topology.reliability.mode": "ATMOST_ONCE"
    },
    "stmgrs": {
      "stmgr-1": {
        "cwd": "/var/lib/mesos/slaves/3c436b97-2b57-47cd-a1ac-f9e01893a678-S2/frameworks/75deb08a-eb1b-415c-8b2c-e922be5f7d98-0000/executors/thermos-root-devel-WordCountTopology-1-4f963941-4291-48da-9ed7-d8b8b73f64da/runs/41bc404d-3bd5-4e52-a7e2-3c2ce8e4dbf4/sandbox",
        "host": "paravance-34.rennes.grid5000.fr",
        "joburl": "http://paravance-34.rennes.grid5000.fr:31367/browse/",
        "shell_port": 31367,
        "logfiles": "http://paravance-34.rennes.grid5000.fr:31367/browse/log-files",
        "pid": 2140,
        "id": "stmgr-1",
        "instance_ids": [
          "container_1_Consume_and_count_1"
        ],
        "port": 31866
      },
      "stmgr-2": {
        "cwd": "/var/lib/mesos/slaves/3c436b97-2b57-47cd-a1ac-f9e01893a678-S0/frameworks/75deb08a-eb1b-415c-8b2c-e922be5f7d98-0000/executors/thermos-root-devel-WordCountTopology-2-43756084-0985-4871-a731-6a5e9034e060/runs/6994cbe6-7f8c-4dde-9501-db057b9b685e/sandbox",
        "host": "paravance-36.rennes.grid5000.fr",
        "joburl": "http://paravance-36.rennes.grid5000.fr:31803/browse/",
        "shell_port": 31803,
        "logfiles": "http://paravance-36.rennes.grid5000.fr:31803/browse/log-files",
        "pid": 2204,
        "id": "stmgr-2",
        "instance_ids": [
          "container_2_Emit_random_words_2"
        ],
        "port": 31980
      }
    }
  },
  "tracker_version": "0.17.8-61-gd7c8c62"
}