mesure_id;slave_id;executor_id;heron_instances;cpus_limit;timestamp_A;cpus_system_time_secs_A;cpus_user_time_secs_A;cpus_throttled_time_secs_A;processes;threads
0;paravance-55.rennes.grid5000.fr;thermos-root-devel-WordCountTopology-0-5a06ef51-1657-4bc4-89f9-5e7568a955a4;["topology_master"];3.25;1533751902.60933;2.39;8.18;0.0;9;117
0;paravance-57.rennes.grid5000.fr;thermos-root-devel-WordCountTopology-1-e471f555-e29f-4a47-8ff4-48f9967f0b33;["container_1_Consume_and_count_1"];3.25;1533751902.57083;11.15;166.94;0.784350545;10;149
0;paravance-4.rennes.grid5000.fr;thermos-root-devel-WordCountTopology-2-57477af9-3a02-40c4-b04b-0820d28173c6;["container_2_Emit_random_words_2"];3.25;1533751902.61298;9.81;216.64;5.662536342;10;149
1;paravance-4.rennes.grid5000.fr;thermos-root-devel-WordCountTopology-2-57477af9-3a02-40c4-b04b-0820d28173c6;["container_2_Emit_random_words_2"];3.25;1533751912.83051;10.44;234.56;5.662536342;10;149
1;paravance-57.rennes.grid5000.fr;thermos-root-devel-WordCountTopology-1-e471f555-e29f-4a47-8ff4-48f9967f0b33;["container_1_Consume_and_count_1"];3.25;1533751912.792;11.92;180.41;0.784350545;10;149
1;paravance-55.rennes.grid5000.fr;thermos-root-devel-WordCountTopology-0-5a06ef51-1657-4bc4-89f9-5e7568a955a4;["topology_master"];3.25;1533751912.83315;2.46;8.35;0.0;9;117
2;paravance-4.rennes.grid5000.fr;thermos-root-devel-WordCountTopology-2-57477af9-3a02-40c4-b04b-0820d28173c6;["container_2_Emit_random_words_2"];3.25;1533751923.04541;11.14;252.91;5.662536342;10;149
2;paravance-57.rennes.grid5000.fr;thermos-root-devel-WordCountTopology-1-e471f555-e29f-4a47-8ff4-48f9967f0b33;["container_1_Consume_and_count_1"];3.25;1533751923.00621;12.74;194.47;0.784350545;10;149
2;paravance-55.rennes.grid5000.fr;thermos-root-devel-WordCountTopology-0-5a06ef51-1657-4bc4-89f9-5e7568a955a4;["topology_master"];3.25;1533751923.04692;2.56;8.49;0.0;9;117
3;paravance-4.rennes.grid5000.fr;thermos-root-devel-WordCountTopology-2-57477af9-3a02-40c4-b04b-0820d28173c6;["container_2_Emit_random_words_2"];3.25;1533751933.26154;11.76;271.19;5.662536342;10;149
3;paravance-55.rennes.grid5000.fr;thermos-root-devel-WordCountTopology-0-5a06ef51-1657-4bc4-89f9-5e7568a955a4;["topology_master"];3.25;1533751933.26232;2.59;8.52;0.0;9;117
3;paravance-57.rennes.grid5000.fr;thermos-root-devel-WordCountTopology-1-e471f555-e29f-4a47-8ff4-48f9967f0b33;["container_1_Consume_and_count_1"];3.25;1533751933.22178;13.5;208.25;0.784350545;10;149
4;paravance-57.rennes.grid5000.fr;thermos-root-devel-WordCountTopology-1-e471f555-e29f-4a47-8ff4-48f9967f0b33;["container_1_Consume_and_count_1"];3.25;1533751943.4359;14.31;222.05;0.784350545;10;149
4;paravance-4.rennes.grid5000.fr;thermos-root-devel-WordCountTopology-2-57477af9-3a02-40c4-b04b-0820d28173c6;["container_2_Emit_random_words_2"];3.25;1533751943.47593;12.45;289.36;5.662536342;10;149
4;paravance-55.rennes.grid5000.fr;thermos-root-devel-WordCountTopology-0-5a06ef51-1657-4bc4-89f9-5e7568a955a4;["topology_master"];3.25;1533751943.47714;2.68;8.65;0.0;9;117
5;paravance-4.rennes.grid5000.fr;thermos-root-devel-WordCountTopology-2-57477af9-3a02-40c4-b04b-0820d28173c6;["container_2_Emit_random_words_2"];3.25;1533751953.69111;13.11;307.61;5.662536342;10;149
5;paravance-57.rennes.grid5000.fr;thermos-root-devel-WordCountTopology-1-e471f555-e29f-4a47-8ff4-48f9967f0b33;["container_1_Consume_and_count_1"];3.25;1533751953.65254;15.1;236.0;0.784350545;10;149
5;paravance-55.rennes.grid5000.fr;thermos-root-devel-WordCountTopology-0-5a06ef51-1657-4bc4-89f9-5e7568a955a4;["topology_master"];3.25;1533751953.6941;2.73;8.73;0.0;9;117
6;paravance-4.rennes.grid5000.fr;thermos-root-devel-WordCountTopology-2-57477af9-3a02-40c4-b04b-0820d28173c6;["container_2_Emit_random_words_2"];3.25;1533751963.80467;13.81;325.59;5.662536342;10;149
6;paravance-57.rennes.grid5000.fr;thermos-root-devel-WordCountTopology-1-e471f555-e29f-4a47-8ff4-48f9967f0b33;["container_1_Consume_and_count_1"];3.25;1533751963.86612;15.92;249.77;0.784350545;10;149
6;paravance-55.rennes.grid5000.fr;thermos-root-devel-WordCountTopology-0-5a06ef51-1657-4bc4-89f9-5e7568a955a4;["topology_master"];3.25;1533751963.90715;2.85;8.88;0.0;9;117
7;paravance-4.rennes.grid5000.fr;thermos-root-devel-WordCountTopology-2-57477af9-3a02-40c4-b04b-0820d28173c6;["container_2_Emit_random_words_2"];3.25;1533751974.12063;14.47;343.99;5.662536342;10;149
7;paravance-55.rennes.grid5000.fr;thermos-root-devel-WordCountTopology-0-5a06ef51-1657-4bc4-89f9-5e7568a955a4;["topology_master"];3.25;1533751974.12178;2.9;9.0;0.0;9;117
7;paravance-57.rennes.grid5000.fr;thermos-root-devel-WordCountTopology-1-e471f555-e29f-4a47-8ff4-48f9967f0b33;["container_1_Consume_and_count_1"];3.25;1533751974.08118;16.68;263.76;0.784350545;10;149
8;paravance-4.rennes.grid5000.fr;thermos-root-devel-WordCountTopology-2-57477af9-3a02-40c4-b04b-0820d28173c6;["container_2_Emit_random_words_2"];3.25;1533751984.33713;15.15;362.17;5.662536342;10;149
8;paravance-57.rennes.grid5000.fr;thermos-root-devel-WordCountTopology-1-e471f555-e29f-4a47-8ff4-48f9967f0b33;["container_1_Consume_and_count_1"];3.25;1533751984.2982;17.48;277.7;0.784350545;10;149
8;paravance-55.rennes.grid5000.fr;thermos-root-devel-WordCountTopology-0-5a06ef51-1657-4bc4-89f9-5e7568a955a4;["topology_master"];3.25;1533751984.34035;2.99;9.13;0.0;9;117
9;paravance-55.rennes.grid5000.fr;thermos-root-devel-WordCountTopology-0-5a06ef51-1657-4bc4-89f9-5e7568a955a4;["topology_master"];3.25;1533751994.55471;3.05;9.2;0.0;9;117
9;paravance-57.rennes.grid5000.fr;thermos-root-devel-WordCountTopology-1-e471f555-e29f-4a47-8ff4-48f9967f0b33;["container_1_Consume_and_count_1"];3.25;1533751994.51483;18.28;291.59;0.784350545;10;149
9;paravance-4.rennes.grid5000.fr;thermos-root-devel-WordCountTopology-2-57477af9-3a02-40c4-b04b-0820d28173c6;["container_2_Emit_random_words_2"];3.25;1533751994.55479;15.83;380.5;5.662536342;10;149
10;paravance-55.rennes.grid5000.fr;thermos-root-devel-WordCountTopology-0-5a06ef51-1657-4bc4-89f9-5e7568a955a4;["topology_master"];3.25;1533752004.6709;3.11;9.28;0.0;9;117
10;paravance-4.rennes.grid5000.fr;thermos-root-devel-WordCountTopology-2-57477af9-3a02-40c4-b04b-0820d28173c6;["container_2_Emit_random_words_2"];3.25;1533752004.76812;16.5;398.77;5.662536342;10;149
10;paravance-57.rennes.grid5000.fr;thermos-root-devel-WordCountTopology-1-e471f555-e29f-4a47-8ff4-48f9967f0b33;["container_1_Consume_and_count_1"];3.25;1533752004.73072;19.06;305.43;0.784350545;10;149
11;paravance-57.rennes.grid5000.fr;thermos-root-devel-WordCountTopology-1-e471f555-e29f-4a47-8ff4-48f9967f0b33;["container_1_Consume_and_count_1"];3.25;1533752014.94383;19.83;319.13;0.784350545;10;149
11;paravance-4.rennes.grid5000.fr;thermos-root-devel-WordCountTopology-2-57477af9-3a02-40c4-b04b-0820d28173c6;["container_2_Emit_random_words_2"];3.25;1533752014.98427;17.15;416.82;5.662536342;10;149
11;paravance-55.rennes.grid5000.fr;thermos-root-devel-WordCountTopology-0-5a06ef51-1657-4bc4-89f9-5e7568a955a4;["topology_master"];3.25;1533752014.98558;3.16;9.36;0.0;9;117
12;paravance-4.rennes.grid5000.fr;thermos-root-devel-WordCountTopology-2-57477af9-3a02-40c4-b04b-0820d28173c6;["container_2_Emit_random_words_2"];3.25;1533752025.19905;17.88;435.3;5.662536342;10;149
12;paravance-55.rennes.grid5000.fr;thermos-root-devel-WordCountTopology-0-5a06ef51-1657-4bc4-89f9-5e7568a955a4;["topology_master"];3.25;1533752025.20281;3.3;9.6;0.0;9;117
12;paravance-57.rennes.grid5000.fr;thermos-root-devel-WordCountTopology-1-e471f555-e29f-4a47-8ff4-48f9967f0b33;["container_1_Consume_and_count_1"];3.25;1533752025.16052;20.67;333.22;0.784350545;10;149
13;paravance-4.rennes.grid5000.fr;thermos-root-devel-WordCountTopology-2-57477af9-3a02-40c4-b04b-0820d28173c6;["container_2_Emit_random_words_2"];3.25;1533752035.41519;18.51;453.46;5.662536342;10;149
13;paravance-57.rennes.grid5000.fr;thermos-root-devel-WordCountTopology-1-e471f555-e29f-4a47-8ff4-48f9967f0b33;["container_1_Consume_and_count_1"];3.25;1533752035.37666;21.43;347.14;0.784350545;10;149
13;paravance-55.rennes.grid5000.fr;thermos-root-devel-WordCountTopology-0-5a06ef51-1657-4bc4-89f9-5e7568a955a4;["topology_master"];3.25;1533752035.41816;3.32;9.62;0.0;9;117
14;paravance-57.rennes.grid5000.fr;thermos-root-devel-WordCountTopology-1-e471f555-e29f-4a47-8ff4-48f9967f0b33;["container_1_Consume_and_count_1"];3.25;1533752045.5923;22.23;360.32;0.784350545;10;149
14;paravance-4.rennes.grid5000.fr;thermos-root-devel-WordCountTopology-2-57477af9-3a02-40c4-b04b-0820d28173c6;["container_2_Emit_random_words_2"];3.25;1533752045.63181;19.19;471.59;5.702228151;10;149
14;paravance-55.rennes.grid5000.fr;thermos-root-devel-WordCountTopology-0-5a06ef51-1657-4bc4-89f9-5e7568a955a4;["topology_master"];3.25;1533752045.63469;3.42;9.76;0.0;9;117
15;paravance-4.rennes.grid5000.fr;thermos-root-devel-WordCountTopology-2-57477af9-3a02-40c4-b04b-0820d28173c6;["container_2_Emit_random_words_2"];3.25;1533752055.84736;19.86;489.92;5.702228151;10;149
15;paravance-55.rennes.grid5000.fr;thermos-root-devel-WordCountTopology-0-5a06ef51-1657-4bc4-89f9-5e7568a955a4;["topology_master"];3.25;1533752055.84954;3.48;9.83;0.0;9;117
15;paravance-57.rennes.grid5000.fr;thermos-root-devel-WordCountTopology-1-e471f555-e29f-4a47-8ff4-48f9967f0b33;["container_1_Consume_and_count_1"];3.25;1533752055.80871;23.0;373.27;0.784350545;10;149
16;paravance-57.rennes.grid5000.fr;thermos-root-devel-WordCountTopology-1-e471f555-e29f-4a47-8ff4-48f9967f0b33;["container_1_Consume_and_count_1"];3.25;1533752065.92693;23.77;386.2;0.784350545;10;149
16;paravance-4.rennes.grid5000.fr;thermos-root-devel-WordCountTopology-2-57477af9-3a02-40c4-b04b-0820d28173c6;["container_2_Emit_random_words_2"];3.25;1533752066.06599;20.52;508.27;5.702228151;10;149
16;paravance-55.rennes.grid5000.fr;thermos-root-devel-WordCountTopology-0-5a06ef51-1657-4bc4-89f9-5e7568a955a4;["topology_master"];3.25;1533752066.06691;3.54;9.92;0.0;9;117
17;paravance-57.rennes.grid5000.fr;thermos-root-devel-WordCountTopology-1-e471f555-e29f-4a47-8ff4-48f9967f0b33;["container_1_Consume_and_count_1"];3.25;1533752076.24194;24.54;399.26;0.784350545;10;149
17;paravance-4.rennes.grid5000.fr;thermos-root-devel-WordCountTopology-2-57477af9-3a02-40c4-b04b-0820d28173c6;["container_2_Emit_random_words_2"];3.25;1533752076.2806;21.17;526.57;5.702228151;10;149
17;paravance-55.rennes.grid5000.fr;thermos-root-devel-WordCountTopology-0-5a06ef51-1657-4bc4-89f9-5e7568a955a4;["topology_master"];3.25;1533752076.28391;3.59;9.99;0.0;9;117
18;paravance-55.rennes.grid5000.fr;thermos-root-devel-WordCountTopology-0-5a06ef51-1657-4bc4-89f9-5e7568a955a4;["topology_master"];3.25;1533752086.4983;3.72;10.27;0.0;9;117
18;paravance-57.rennes.grid5000.fr;thermos-root-devel-WordCountTopology-1-e471f555-e29f-4a47-8ff4-48f9967f0b33;["container_1_Consume_and_count_1"];3.25;1533752086.45492;25.36;412.16;0.784350545;10;149
18;paravance-4.rennes.grid5000.fr;thermos-root-devel-WordCountTopology-2-57477af9-3a02-40c4-b04b-0820d28173c6;["container_2_Emit_random_words_2"];3.25;1533752086.49651;21.87;544.98;5.702228151;10;149
19;paravance-57.rennes.grid5000.fr;thermos-root-devel-WordCountTopology-1-e471f555-e29f-4a47-8ff4-48f9967f0b33;["container_1_Consume_and_count_1"];3.25;1533752096.66815;26.06;424.52;0.784350545;10;149
19;paravance-4.rennes.grid5000.fr;thermos-root-devel-WordCountTopology-2-57477af9-3a02-40c4-b04b-0820d28173c6;["container_2_Emit_random_words_2"];3.25;1533752096.70884;22.49;562.84;5.702228151;10;149
19;paravance-55.rennes.grid5000.fr;thermos-root-devel-WordCountTopology-0-5a06ef51-1657-4bc4-89f9-5e7568a955a4;["topology_master"];3.25;1533752096.71049;3.75;10.3;0.0;9;117
20;paravance-4.rennes.grid5000.fr;thermos-root-devel-WordCountTopology-2-57477af9-3a02-40c4-b04b-0820d28173c6;["container_2_Emit_random_words_2"];3.25;1533752106.92294;23.16;581.08;5.702228151;10;149
20;paravance-57.rennes.grid5000.fr;thermos-root-devel-WordCountTopology-1-e471f555-e29f-4a47-8ff4-48f9967f0b33;["container_1_Consume_and_count_1"];3.25;1533752106.8845;26.85;437.3;0.784350545;10;149
20;paravance-55.rennes.grid5000.fr;thermos-root-devel-WordCountTopology-0-5a06ef51-1657-4bc4-89f9-5e7568a955a4;["topology_master"];3.25;1533752106.92592;3.84;10.43;0.0;9;117
21;paravance-4.rennes.grid5000.fr;thermos-root-devel-WordCountTopology-2-57477af9-3a02-40c4-b04b-0820d28173c6;["container_2_Emit_random_words_2"];3.25;1533752117.13831;23.81;599.21;5.702228151;10;149
21;paravance-57.rennes.grid5000.fr;thermos-root-devel-WordCountTopology-1-e471f555-e29f-4a47-8ff4-48f9967f0b33;["container_1_Consume_and_count_1"];3.25;1533752117.09964;27.6;450.18;0.784350545;10;149
21;paravance-55.rennes.grid5000.fr;thermos-root-devel-WordCountTopology-0-5a06ef51-1657-4bc4-89f9-5e7568a955a4;["topology_master"];3.25;1533752117.1409;3.9;10.5;0.0;9;117
22;paravance-55.rennes.grid5000.fr;thermos-root-devel-WordCountTopology-0-5a06ef51-1657-4bc4-89f9-5e7568a955a4;["topology_master"];3.25;1533752127.35428;3.96;10.57;0.0;9;117
22;paravance-4.rennes.grid5000.fr;thermos-root-devel-WordCountTopology-2-57477af9-3a02-40c4-b04b-0820d28173c6;["container_2_Emit_random_words_2"];3.25;1533752127.3531;24.47;617.52;5.702228151;10;149
22;paravance-57.rennes.grid5000.fr;thermos-root-devel-WordCountTopology-1-e471f555-e29f-4a47-8ff4-48f9967f0b33;["container_1_Consume_and_count_1"];3.25;1533752127.31495;28.36;463.06;0.784350545;10;149
23;paravance-57.rennes.grid5000.fr;thermos-root-devel-WordCountTopology-1-e471f555-e29f-4a47-8ff4-48f9967f0b33;["container_1_Consume_and_count_1"];3.25;1533752137.52744;29.13;476.02;0.784350545;10;149
23;paravance-4.rennes.grid5000.fr;thermos-root-devel-WordCountTopology-2-57477af9-3a02-40c4-b04b-0820d28173c6;["container_2_Emit_random_words_2"];3.25;1533752137.56693;25.14;635.83;5.702228151;10;149
23;paravance-55.rennes.grid5000.fr;thermos-root-devel-WordCountTopology-0-5a06ef51-1657-4bc4-89f9-5e7568a955a4;["topology_master"];3.25;1533752137.56798;4.01;10.65;0.0;9;117
24;paravance-57.rennes.grid5000.fr;thermos-root-devel-WordCountTopology-1-e471f555-e29f-4a47-8ff4-48f9967f0b33;["container_1_Consume_and_count_1"];3.25;1533752147.64319;29.93;488.99;0.784350545;10;149
24;paravance-4.rennes.grid5000.fr;thermos-root-devel-WordCountTopology-2-57477af9-3a02-40c4-b04b-0820d28173c6;["container_2_Emit_random_words_2"];3.25;1533752147.78116;25.83;654.08;5.702228151;10;149
24;paravance-55.rennes.grid5000.fr;thermos-root-devel-WordCountTopology-0-5a06ef51-1657-4bc4-89f9-5e7568a955a4;["topology_master"];3.25;1533752147.7845;4.12;10.83;0.0;9;117
25;paravance-57.rennes.grid5000.fr;thermos-root-devel-WordCountTopology-1-e471f555-e29f-4a47-8ff4-48f9967f0b33;["container_1_Consume_and_count_1"];3.25;1533752157.95713;30.65;502.16;0.784350545;10;149
25;paravance-4.rennes.grid5000.fr;thermos-root-devel-WordCountTopology-2-57477af9-3a02-40c4-b04b-0820d28173c6;["container_2_Emit_random_words_2"];3.25;1533752157.99585;26.48;672.41;5.702228151;10;149
25;paravance-55.rennes.grid5000.fr;thermos-root-devel-WordCountTopology-0-5a06ef51-1657-4bc4-89f9-5e7568a955a4;["topology_master"];3.25;1533752157.99861;4.14;10.86;0.0;9;117
26;paravance-4.rennes.grid5000.fr;thermos-root-devel-WordCountTopology-2-57477af9-3a02-40c4-b04b-0820d28173c6;["container_2_Emit_random_words_2"];3.25;1533752168.21324;27.17;690.67;5.702228151;10;149
26;paravance-57.rennes.grid5000.fr;thermos-root-devel-WordCountTopology-1-e471f555-e29f-4a47-8ff4-48f9967f0b33;["container_1_Consume_and_count_1"];3.25;1533752168.17424;31.44;515.11;0.784350545;10;149
26;paravance-55.rennes.grid5000.fr;thermos-root-devel-WordCountTopology-0-5a06ef51-1657-4bc4-89f9-5e7568a955a4;["topology_master"];3.25;1533752168.21639;4.23;10.98;0.0;9;117
27;paravance-57.rennes.grid5000.fr;thermos-root-devel-WordCountTopology-1-e471f555-e29f-4a47-8ff4-48f9967f0b33;["container_1_Consume_and_count_1"];3.25;1533752178.38954;32.21;528.05;0.784350545;10;149
27;paravance-55.rennes.grid5000.fr;thermos-root-devel-WordCountTopology-0-5a06ef51-1657-4bc4-89f9-5e7568a955a4;["topology_master"];3.25;1533752178.4304;4.29;11.06;0.0;9;117
27;paravance-4.rennes.grid5000.fr;thermos-root-devel-WordCountTopology-2-57477af9-3a02-40c4-b04b-0820d28173c6;["container_2_Emit_random_words_2"];3.25;1533752178.43003;27.84;709.02;5.702228151;10;149
28;paravance-57.rennes.grid5000.fr;thermos-root-devel-WordCountTopology-1-e471f555-e29f-4a47-8ff4-48f9967f0b33;["container_1_Consume_and_count_1"];3.25;1533752188.60493;32.98;540.97;0.784350545;10;149
28;paravance-55.rennes.grid5000.fr;thermos-root-devel-WordCountTopology-0-5a06ef51-1657-4bc4-89f9-5e7568a955a4;["topology_master"];3.25;1533752188.64703;4.36;11.14;0.0;9;117
28;paravance-4.rennes.grid5000.fr;thermos-root-devel-WordCountTopology-2-57477af9-3a02-40c4-b04b-0820d28173c6;["container_2_Emit_random_words_2"];3.25;1533752188.64557;28.49;727.23;5.702228151;10;149
29;paravance-57.rennes.grid5000.fr;thermos-root-devel-WordCountTopology-1-e471f555-e29f-4a47-8ff4-48f9967f0b33;["container_1_Consume_and_count_1"];3.25;1533752198.82059;33.74;553.75;0.784350545;10;149
29;paravance-4.rennes.grid5000.fr;thermos-root-devel-WordCountTopology-2-57477af9-3a02-40c4-b04b-0820d28173c6;["container_2_Emit_random_words_2"];3.25;1533752198.86092;29.15;745.46;5.702228151;10;149
29;paravance-55.rennes.grid5000.fr;thermos-root-devel-WordCountTopology-0-5a06ef51-1657-4bc4-89f9-5e7568a955a4;["topology_master"];3.25;1533752198.86168;4.42;11.21;0.0;9;117
30;paravance-4.rennes.grid5000.fr;thermos-root-devel-WordCountTopology-2-57477af9-3a02-40c4-b04b-0820d28173c6;["container_2_Emit_random_words_2"];3.25;1533752209.07535;29.82;762.88;5.702228151;10;149
30;paravance-57.rennes.grid5000.fr;thermos-root-devel-WordCountTopology-1-e471f555-e29f-4a47-8ff4-48f9967f0b33;["container_1_Consume_and_count_1"];3.25;1533752209.03669;34.55;566.91;0.784350545;10;149
30;paravance-55.rennes.grid5000.fr;thermos-root-devel-WordCountTopology-0-5a06ef51-1657-4bc4-89f9-5e7568a955a4;["topology_master"];3.25;1533752209.07828;4.54;11.39;0.0;9;117
31;paravance-57.rennes.grid5000.fr;thermos-root-devel-WordCountTopology-1-e471f555-e29f-4a47-8ff4-48f9967f0b33;["container_1_Consume_and_count_1"];3.25;1533752219.25176;35.33;580.01;0.784350545;10;149
31;paravance-4.rennes.grid5000.fr;thermos-root-devel-WordCountTopology-2-57477af9-3a02-40c4-b04b-0820d28173c6;["container_2_Emit_random_words_2"];3.25;1533752219.29067;30.49;781.23;5.702228151;10;149
31;paravance-55.rennes.grid5000.fr;thermos-root-devel-WordCountTopology-0-5a06ef51-1657-4bc4-89f9-5e7568a955a4;["topology_master"];3.25;1533752219.29307;4.59;11.47;0.0;9;117
32;paravance-4.rennes.grid5000.fr;thermos-root-devel-WordCountTopology-2-57477af9-3a02-40c4-b04b-0820d28173c6;["container_2_Emit_random_words_2"];3.25;1533752229.50721;31.12;799.47;5.702228151;10;149
32;paravance-55.rennes.grid5000.fr;thermos-root-devel-WordCountTopology-0-5a06ef51-1657-4bc4-89f9-5e7568a955a4;["topology_master"];3.25;1533752229.50816;4.65;11.54;0.0;9;117
32;paravance-57.rennes.grid5000.fr;thermos-root-devel-WordCountTopology-1-e471f555-e29f-4a47-8ff4-48f9967f0b33;["container_1_Consume_and_count_1"];3.25;1533752229.46877;36.09;592.67;0.784350545;10;149
33;paravance-4.rennes.grid5000.fr;thermos-root-devel-WordCountTopology-2-57477af9-3a02-40c4-b04b-0820d28173c6;["container_2_Emit_random_words_2"];3.25;1533752239.72262;31.81;817.78;5.702228151;10;149
33;paravance-57.rennes.grid5000.fr;thermos-root-devel-WordCountTopology-1-e471f555-e29f-4a47-8ff4-48f9967f0b33;["container_1_Consume_and_count_1"];3.25;1533752239.68508;36.9;605.63;0.784350545;10;149
33;paravance-55.rennes.grid5000.fr;thermos-root-devel-WordCountTopology-0-5a06ef51-1657-4bc4-89f9-5e7568a955a4;["topology_master"];3.25;1533752239.72577;4.74;11.67;0.0;9;117
34;paravance-4.rennes.grid5000.fr;thermos-root-devel-WordCountTopology-2-57477af9-3a02-40c4-b04b-0820d28173c6;["container_2_Emit_random_words_2"];3.25;1533752249.93818;32.46;836.11;5.702228151;10;149
34;paravance-57.rennes.grid5000.fr;thermos-root-devel-WordCountTopology-1-e471f555-e29f-4a47-8ff4-48f9967f0b33;["container_1_Consume_and_count_1"];3.25;1533752249.90011;37.62;618.76;0.784350545;10;149
34;paravance-55.rennes.grid5000.fr;thermos-root-devel-WordCountTopology-0-5a06ef51-1657-4bc4-89f9-5e7568a955a4;["topology_master"];3.25;1533752249.9413;4.77;11.69;0.0;9;117
35;paravance-57.rennes.grid5000.fr;thermos-root-devel-WordCountTopology-1-e471f555-e29f-4a47-8ff4-48f9967f0b33;["container_1_Consume_and_count_1"];3.25;1533752260.11486;38.41;632.12;0.784350545;10;149
35;paravance-4.rennes.grid5000.fr;thermos-root-devel-WordCountTopology-2-57477af9-3a02-40c4-b04b-0820d28173c6;["container_2_Emit_random_words_2"];3.25;1533752260.15466;33.16;854.51;5.702228151;10;149
35;paravance-55.rennes.grid5000.fr;thermos-root-devel-WordCountTopology-0-5a06ef51-1657-4bc4-89f9-5e7568a955a4;["topology_master"];3.25;1533752260.15735;4.87;11.83;0.0;9;117
36;paravance-4.rennes.grid5000.fr;thermos-root-devel-WordCountTopology-2-57477af9-3a02-40c4-b04b-0820d28173c6;["container_2_Emit_random_words_2"];3.25;1533752270.36964;33.85;872.88;5.702228151;10;149
36;paravance-57.rennes.grid5000.fr;thermos-root-devel-WordCountTopology-1-e471f555-e29f-4a47-8ff4-48f9967f0b33;["container_1_Consume_and_count_1"];3.25;1533752270.33117;39.16;645.49;0.784350545;10;149
36;paravance-55.rennes.grid5000.fr;thermos-root-devel-WordCountTopology-0-5a06ef51-1657-4bc4-89f9-5e7568a955a4;["topology_master"];3.25;1533752270.37312;4.94;12.02;0.0;9;117
37;paravance-4.rennes.grid5000.fr;thermos-root-devel-WordCountTopology-2-57477af9-3a02-40c4-b04b-0820d28173c6;["container_2_Emit_random_words_2"];3.25;1533752280.5834;34.55;891.29;5.702228151;10;149
37;paravance-57.rennes.grid5000.fr;thermos-root-devel-WordCountTopology-1-e471f555-e29f-4a47-8ff4-48f9967f0b33;["container_1_Consume_and_count_1"];3.25;1533752280.54444;39.93;658.45;0.784350545;10;149
37;paravance-55.rennes.grid5000.fr;thermos-root-devel-WordCountTopology-0-5a06ef51-1657-4bc4-89f9-5e7568a955a4;["topology_master"];3.25;1533752280.58568;4.99;12.09;0.0;9;117
38;paravance-57.rennes.grid5000.fr;thermos-root-devel-WordCountTopology-1-e471f555-e29f-4a47-8ff4-48f9967f0b33;["container_1_Consume_and_count_1"];3.25;1533752290.75986;40.68;671.64;0.784350545;10;149
38;paravance-55.rennes.grid5000.fr;thermos-root-devel-WordCountTopology-0-5a06ef51-1657-4bc4-89f9-5e7568a955a4;["topology_master"];3.25;1533752290.80146;5.05;12.17;0.0;9;117
38;paravance-4.rennes.grid5000.fr;thermos-root-devel-WordCountTopology-2-57477af9-3a02-40c4-b04b-0820d28173c6;["container_2_Emit_random_words_2"];3.25;1533752290.79922;35.2;909.48;5.702228151;10;149
39;paravance-57.rennes.grid5000.fr;thermos-root-devel-WordCountTopology-1-e471f555-e29f-4a47-8ff4-48f9967f0b33;["container_1_Consume_and_count_1"];3.25;1533752300.97405;41.49;685.02;0.784350545;10;149
39;paravance-55.rennes.grid5000.fr;thermos-root-devel-WordCountTopology-0-5a06ef51-1657-4bc4-89f9-5e7568a955a4;["topology_master"];3.25;1533752301.0152;5.14;12.29;0.0;9;117
39;paravance-4.rennes.grid5000.fr;thermos-root-devel-WordCountTopology-2-57477af9-3a02-40c4-b04b-0820d28173c6;["container_2_Emit_random_words_2"];3.25;1533752301.01387;35.9;927.8;5.702228151;10;149
40;paravance-57.rennes.grid5000.fr;thermos-root-devel-WordCountTopology-1-e471f555-e29f-4a47-8ff4-48f9967f0b33;["container_1_Consume_and_count_1"];3.25;1533752311.1904;42.3;699.31;0.784350545;10;149
40;paravance-4.rennes.grid5000.fr;thermos-root-devel-WordCountTopology-2-57477af9-3a02-40c4-b04b-0820d28173c6;["container_2_Emit_random_words_2"];3.25;1533752311.22896;36.58;946.17;5.702228151;10;149
40;paravance-55.rennes.grid5000.fr;thermos-root-devel-WordCountTopology-0-5a06ef51-1657-4bc4-89f9-5e7568a955a4;["topology_master"];3.25;1533752311.24551;5.2;12.37;0.0;9;117
41;paravance-4.rennes.grid5000.fr;thermos-root-devel-WordCountTopology-2-57477af9-3a02-40c4-b04b-0820d28173c6;["container_2_Emit_random_words_2"];3.25;1533752321.45619;37.26;964.47;5.702228151;10;149
41;paravance-57.rennes.grid5000.fr;thermos-root-devel-WordCountTopology-1-e471f555-e29f-4a47-8ff4-48f9967f0b33;["container_1_Consume_and_count_1"];3.25;1533752321.41751;43.08;712.3;0.784350545;10;149
41;paravance-55.rennes.grid5000.fr;thermos-root-devel-WordCountTopology-0-5a06ef51-1657-4bc4-89f9-5e7568a955a4;["topology_master"];3.25;1533752321.4581;5.27;12.46;0.0;9;117
42;paravance-4.rennes.grid5000.fr;thermos-root-devel-WordCountTopology-2-57477af9-3a02-40c4-b04b-0820d28173c6;["container_2_Emit_random_words_2"];3.25;1533752331.67363;37.94;982.79;5.702228151;10;149
42;paravance-55.rennes.grid5000.fr;thermos-root-devel-WordCountTopology-0-5a06ef51-1657-4bc4-89f9-5e7568a955a4;["topology_master"];3.25;1533752331.67555;5.34;12.57;0.0;9;117
42;paravance-57.rennes.grid5000.fr;thermos-root-devel-WordCountTopology-1-e471f555-e29f-4a47-8ff4-48f9967f0b33;["container_1_Consume_and_count_1"];3.25;1533752331.63578;43.87;725.35;0.784350545;10;149
43;paravance-4.rennes.grid5000.fr;thermos-root-devel-WordCountTopology-2-57477af9-3a02-40c4-b04b-0820d28173c6;["container_2_Emit_random_words_2"];3.25;1533752341.88928;38.65;1001.15;5.702228151;10;149
43;paravance-57.rennes.grid5000.fr;thermos-root-devel-WordCountTopology-1-e471f555-e29f-4a47-8ff4-48f9967f0b33;["container_1_Consume_and_count_1"];3.25;1533752341.85151;44.7;738.27;0.784350545;10;149
43;paravance-55.rennes.grid5000.fr;thermos-root-devel-WordCountTopology-0-5a06ef51-1657-4bc4-89f9-5e7568a955a4;["topology_master"];3.25;1533752341.8923;5.43;12.7;0.0;9;117
44;paravance-4.rennes.grid5000.fr;thermos-root-devel-WordCountTopology-2-57477af9-3a02-40c4-b04b-0820d28173c6;["container_2_Emit_random_words_2"];3.25;1533752352.10551;39.29;1019.36;5.702228151;10;149
44;paravance-57.rennes.grid5000.fr;thermos-root-devel-WordCountTopology-1-e471f555-e29f-4a47-8ff4-48f9967f0b33;["container_1_Consume_and_count_1"];3.25;1533752352.06712;45.44;750.98;0.784350545;10;149
44;paravance-55.rennes.grid5000.fr;thermos-root-devel-WordCountTopology-0-5a06ef51-1657-4bc4-89f9-5e7568a955a4;["topology_master"];3.25;1533752352.1084;5.46;12.72;0.0;9;117
45;paravance-4.rennes.grid5000.fr;thermos-root-devel-WordCountTopology-2-57477af9-3a02-40c4-b04b-0820d28173c6;["container_2_Emit_random_words_2"];3.25;1533752362.32196;39.98;1037.68;5.702228151;10;149
45;paravance-55.rennes.grid5000.fr;thermos-root-devel-WordCountTopology-0-5a06ef51-1657-4bc4-89f9-5e7568a955a4;["topology_master"];3.25;1533752362.32464;5.55;12.85;0.0;9;117
45;paravance-57.rennes.grid5000.fr;thermos-root-devel-WordCountTopology-1-e471f555-e29f-4a47-8ff4-48f9967f0b33;["container_1_Consume_and_count_1"];3.25;1533752362.28362;46.23;763.89;0.784350545;10;149
46;paravance-4.rennes.grid5000.fr;thermos-root-devel-WordCountTopology-2-57477af9-3a02-40c4-b04b-0820d28173c6;["container_2_Emit_random_words_2"];3.25;1533752372.5378;40.64;1055.94;5.702228151;10;149
46;paravance-57.rennes.grid5000.fr;thermos-root-devel-WordCountTopology-1-e471f555-e29f-4a47-8ff4-48f9967f0b33;["container_1_Consume_and_count_1"];3.25;1533752372.4996;47.0;776.69;0.784350545;10;149
46;paravance-55.rennes.grid5000.fr;thermos-root-devel-WordCountTopology-0-5a06ef51-1657-4bc4-89f9-5e7568a955a4;["topology_master"];3.25;1533752372.54028;5.61;12.92;0.0;9;117
47;paravance-55.rennes.grid5000.fr;thermos-root-devel-WordCountTopology-0-5a06ef51-1657-4bc4-89f9-5e7568a955a4;["topology_master"];3.25;1533752382.75687;5.68;13.01;0.0;9;117
47;paravance-4.rennes.grid5000.fr;thermos-root-devel-WordCountTopology-2-57477af9-3a02-40c4-b04b-0820d28173c6;["container_2_Emit_random_words_2"];3.25;1533752382.75333;41.33;1074.33;5.702228151;10;149
47;paravance-57.rennes.grid5000.fr;thermos-root-devel-WordCountTopology-1-e471f555-e29f-4a47-8ff4-48f9967f0b33;["container_1_Consume_and_count_1"];3.25;1533752382.71532;47.77;789.55;0.784350545;10;149
48;paravance-55.rennes.grid5000.fr;thermos-root-devel-WordCountTopology-0-5a06ef51-1657-4bc4-89f9-5e7568a955a4;["topology_master"];3.25;1533752392.87196;5.75;13.16;0.0;9;117
48;paravance-4.rennes.grid5000.fr;thermos-root-devel-WordCountTopology-2-57477af9-3a02-40c4-b04b-0820d28173c6;["container_2_Emit_random_words_2"];3.25;1533752392.96884;42.0;1092.58;5.702228151;10;149
48;paravance-57.rennes.grid5000.fr;thermos-root-devel-WordCountTopology-1-e471f555-e29f-4a47-8ff4-48f9967f0b33;["container_1_Consume_and_count_1"];3.25;1533752392.93142;48.54;802.28;0.784350545;10;149
49;paravance-57.rennes.grid5000.fr;thermos-root-devel-WordCountTopology-1-e471f555-e29f-4a47-8ff4-48f9967f0b33;["container_1_Consume_and_count_1"];3.25;1533752403.14659;49.29;815.32;0.784350545;10;149
49;paravance-55.rennes.grid5000.fr;thermos-root-devel-WordCountTopology-0-5a06ef51-1657-4bc4-89f9-5e7568a955a4;["topology_master"];3.25;1533752403.18627;5.84;13.28;0.0;9;117
49;paravance-4.rennes.grid5000.fr;thermos-root-devel-WordCountTopology-2-57477af9-3a02-40c4-b04b-0820d28173c6;["container_2_Emit_random_words_2"];3.25;1533752403.18471;42.68;1110.79;5.702228151;10;149
50;paravance-4.rennes.grid5000.fr;thermos-root-devel-WordCountTopology-2-57477af9-3a02-40c4-b04b-0820d28173c6;["container_2_Emit_random_words_2"];3.25;1533752413.39934;43.32;1129.11;5.702228151;10;149
50;paravance-57.rennes.grid5000.fr;thermos-root-devel-WordCountTopology-1-e471f555-e29f-4a47-8ff4-48f9967f0b33;["container_1_Consume_and_count_1"];3.25;1533752413.36075;50.03;828.75;0.784350545;10;149
50;paravance-55.rennes.grid5000.fr;thermos-root-devel-WordCountTopology-0-5a06ef51-1657-4bc4-89f9-5e7568a955a4;["topology_master"];3.25;1533752413.40241;5.87;13.31;0.0;9;117
51;paravance-4.rennes.grid5000.fr;thermos-root-devel-WordCountTopology-2-57477af9-3a02-40c4-b04b-0820d28173c6;["container_2_Emit_random_words_2"];3.25;1533752423.61511;43.99;1147.18;5.702228151;10;149
51;paravance-57.rennes.grid5000.fr;thermos-root-devel-WordCountTopology-1-e471f555-e29f-4a47-8ff4-48f9967f0b33;["container_1_Consume_and_count_1"];3.25;1533752423.57705;50.79;841.45;0.784350545;10;149
51;paravance-55.rennes.grid5000.fr;thermos-root-devel-WordCountTopology-0-5a06ef51-1657-4bc4-89f9-5e7568a955a4;["topology_master"];3.25;1533752423.6186;5.96;13.44;0.0;9;117
52;paravance-4.rennes.grid5000.fr;thermos-root-devel-WordCountTopology-2-57477af9-3a02-40c4-b04b-0820d28173c6;["container_2_Emit_random_words_2"];3.25;1533752433.82982;44.65;1165.32;5.702228151;10;149
52;paravance-57.rennes.grid5000.fr;thermos-root-devel-WordCountTopology-1-e471f555-e29f-4a47-8ff4-48f9967f0b33;["container_1_Consume_and_count_1"];3.25;1533752433.79142;51.54;854.35;0.784350545;10;149
52;paravance-55.rennes.grid5000.fr;thermos-root-devel-WordCountTopology-0-5a06ef51-1657-4bc4-89f9-5e7568a955a4;["topology_master"];3.25;1533752433.83245;6.02;13.52;0.0;9;117
53;paravance-4.rennes.grid5000.fr;thermos-root-devel-WordCountTopology-2-57477af9-3a02-40c4-b04b-0820d28173c6;["container_2_Emit_random_words_2"];3.25;1533752444.04469;45.27;1183.11;5.702228151;10;149
53;paravance-57.rennes.grid5000.fr;thermos-root-devel-WordCountTopology-1-e471f555-e29f-4a47-8ff4-48f9967f0b33;["container_1_Consume_and_count_1"];3.25;1533752444.00633;52.26;866.64;0.784350545;10;149
53;paravance-55.rennes.grid5000.fr;thermos-root-devel-WordCountTopology-0-5a06ef51-1657-4bc4-89f9-5e7568a955a4;["topology_master"];3.25;1533752444.04734;6.09;13.62;0.0;9;117
54;paravance-57.rennes.grid5000.fr;thermos-root-devel-WordCountTopology-1-e471f555-e29f-4a47-8ff4-48f9967f0b33;["container_1_Consume_and_count_1"];3.25;1533752454.22195;53.02;879.59;0.784350545;10;149
54;paravance-4.rennes.grid5000.fr;thermos-root-devel-WordCountTopology-2-57477af9-3a02-40c4-b04b-0820d28173c6;["container_2_Emit_random_words_2"];3.25;1533752454.26066;45.93;1201.44;5.702228151;10;149
54;paravance-55.rennes.grid5000.fr;thermos-root-devel-WordCountTopology-0-5a06ef51-1657-4bc4-89f9-5e7568a955a4;["topology_master"];3.25;1533752454.26393;6.15;13.73;0.0;9;117
55;paravance-4.rennes.grid5000.fr;thermos-root-devel-WordCountTopology-2-57477af9-3a02-40c4-b04b-0820d28173c6;["container_2_Emit_random_words_2"];3.25;1533752464.47458;46.63;1219.74;5.702228151;10;149
55;paravance-57.rennes.grid5000.fr;thermos-root-devel-WordCountTopology-1-e471f555-e29f-4a47-8ff4-48f9967f0b33;["container_1_Consume_and_count_1"];3.25;1533752464.43686;53.78;892.09;0.784350545;10;149
55;paravance-55.rennes.grid5000.fr;thermos-root-devel-WordCountTopology-0-5a06ef51-1657-4bc4-89f9-5e7568a955a4;["topology_master"];3.25;1533752464.47842;6.24;13.85;0.0;9;117
56;paravance-55.rennes.grid5000.fr;thermos-root-devel-WordCountTopology-0-5a06ef51-1657-4bc4-89f9-5e7568a955a4;["topology_master"];3.25;1533752474.59263;6.26;13.87;0.0;9;117
56;paravance-4.rennes.grid5000.fr;thermos-root-devel-WordCountTopology-2-57477af9-3a02-40c4-b04b-0820d28173c6;["container_2_Emit_random_words_2"];3.25;1533752474.69076;47.28;1237.92;5.702228151;10;149
56;paravance-57.rennes.grid5000.fr;thermos-root-devel-WordCountTopology-1-e471f555-e29f-4a47-8ff4-48f9967f0b33;["container_1_Consume_and_count_1"];3.25;1533752474.65161;54.51;904.79;0.784350545;10;149
57;paravance-4.rennes.grid5000.fr;thermos-root-devel-WordCountTopology-2-57477af9-3a02-40c4-b04b-0820d28173c6;["container_2_Emit_random_words_2"];3.25;1533752484.9031;47.97;1255.9;5.702228151;10;149
57;paravance-55.rennes.grid5000.fr;thermos-root-devel-WordCountTopology-0-5a06ef51-1657-4bc4-89f9-5e7568a955a4;["topology_master"];3.25;1533752484.90572;6.35;14.0;0.0;9;117
57;paravance-57.rennes.grid5000.fr;thermos-root-devel-WordCountTopology-1-e471f555-e29f-4a47-8ff4-48f9967f0b33;["container_1_Consume_and_count_1"];3.25;1533752484.86585;55.27;917.07;0.784350545;10;149
58;paravance-4.rennes.grid5000.fr;thermos-root-devel-WordCountTopology-2-57477af9-3a02-40c4-b04b-0820d28173c6;["container_2_Emit_random_words_2"];3.25;1533752495.1189;48.63;1274.15;5.702228151;10;149
58;paravance-55.rennes.grid5000.fr;thermos-root-devel-WordCountTopology-0-5a06ef51-1657-4bc4-89f9-5e7568a955a4;["topology_master"];3.25;1533752495.12205;6.42;14.08;0.0;9;117
58;paravance-57.rennes.grid5000.fr;thermos-root-devel-WordCountTopology-1-e471f555-e29f-4a47-8ff4-48f9967f0b33;["container_1_Consume_and_count_1"];3.25;1533752495.08095;56.03;929.84;0.784350545;10;149
59;paravance-4.rennes.grid5000.fr;thermos-root-devel-WordCountTopology-2-57477af9-3a02-40c4-b04b-0820d28173c6;["container_2_Emit_random_words_2"];3.25;1533752505.24795;49.27;1292.03;5.702228151;10;149
59;paravance-55.rennes.grid5000.fr;thermos-root-devel-WordCountTopology-0-5a06ef51-1657-4bc4-89f9-5e7568a955a4;["topology_master"];3.25;1533752505.34854;6.49;14.19;0.0;9;117
59;paravance-57.rennes.grid5000.fr;thermos-root-devel-WordCountTopology-1-e471f555-e29f-4a47-8ff4-48f9967f0b33;["container_1_Consume_and_count_1"];3.25;1533752505.3087;56.77;942.34;0.784350545;10;149
60;paravance-57.rennes.grid5000.fr;thermos-root-devel-WordCountTopology-1-e471f555-e29f-4a47-8ff4-48f9967f0b33;["container_1_Consume_and_count_1"];3.25;1533752515.52481;57.54;955.36;0.784350545;10;149
60;paravance-55.rennes.grid5000.fr;thermos-root-devel-WordCountTopology-0-5a06ef51-1657-4bc4-89f9-5e7568a955a4;["topology_master"];3.25;1533752515.5644;6.55;14.27;0.0;9;117
60;paravance-4.rennes.grid5000.fr;thermos-root-devel-WordCountTopology-2-57477af9-3a02-40c4-b04b-0820d28173c6;["container_2_Emit_random_words_2"];3.25;1533752515.56386;49.93;1310.51;5.702228151;10;149
